{
  "contentId": "faf291b0-886b-11e9-8f96-97f71b5221d6",
  "html": "<!DOCTYPE html>\n<html lang=\"en\">\n  <head>\n    <meta charset=\"utf-8\">\n    <title>Early symptoms and resolution - Newly diagnosed - Parkinson&#39;s UK Forum</title>\n    <meta name=\"description\" content=\"I haven&amp;#39;t been diagnosed yet. I am 47. \r\nHowever my symptoms are/were : \r\nLack of sleep (waking up an hour after getting to bed, then trouble getting to sleep again), lurid dreams (which you remember because you wake up &amp;hellip;\">\n    <meta name=\"author\" content=\"\">\n<meta name=\"generator\" content=\"Discourse 2.2.5 - https://github.com/discourse/discourse version c294ff3609f988dcafb742e91606d60ca13b794d\">\n<link rel=\"icon\" type=\"image/png\" href=\"https://forum.parkinsons.org.uk/uploads/db7928/original/2X/3/311fc84f89f49f38601a2f16b295b6f03d3ce5dd.jpg\">\n<link rel=\"apple-touch-icon\" type=\"image/png\" href=\"https://forum.parkinsons.org.uk/uploads/db7928/original/2X/3/311fc84f89f49f38601a2f16b295b6f03d3ce5dd.jpg\">\n<meta name=\"theme-color\" content=\"#ffffff\">\n<meta name=\"viewport\" content=\"width=device-width, minimum-scale=1.0, maximum-scale=1.0, user-scalable=yes\">\n<link rel=\"canonical\" href=\"https://forum.parkinsons.org.uk/t/early-symptoms-and-resolution/10249?page=2\" />\n<script type=\"application/ld+json\">{\"@context\":\"http://schema.org\",\"@type\":\"WebSite\",\"url\":\"https://forum.parkinsons.org.uk\",\"potentialAction\":{\"@type\":\"SearchAction\",\"target\":\"https://forum.parkinsons.org.uk/search?q={search_term_string}\",\"query-input\":\"required name=search_term_string\"}}</script>\n<link rel=\"search\" type=\"application/opensearchdescription+xml\" href=\"https://forum.parkinsons.org.uk/opensearch.xml\" title=\"Parkinson&#39;s UK Forum Search\">\n\n      <link href=\"/stylesheets/desktop_f99246ae801b083d3e4cca979d0dade8615b39ac.css?__ws=forum.parkinsons.org.uk\" media=\"all\" rel=\"stylesheet\" data-target=\"desktop\" data-theme-id=\"12\"/>\n      <link href=\"/stylesheets/desktop_theme_12_5d27531cf43f9df0c03a6a6ec3109dd05f9dfc49.css?__ws=forum.parkinsons.org.uk\" media=\"all\" rel=\"stylesheet\" data-target=\"desktop_theme\" data-theme-id=\"12\"/>\n    <link href=\"https://fonts.googleapis.com/css?family=Open+Sans\" rel=\"stylesheet\">\n\n    <meta id=\"data-ga-universal-analytics\" data-tracking-code=\"UA-4855628-1\" data-json=\"{&quot;cookieDomain&quot;:&quot;auto&quot;}\" data-auto-link-domains=\"\">\n\n<link rel='preload' href='/assets/google-universal-analytics-f35b4da49411e6f5559073523aab983da483976a3954c79c756f8579f6fbd6ef.js' as='script'/>\n<script src='/assets/google-universal-analytics-f35b4da49411e6f5559073523aab983da483976a3954c79c756f8579f6fbd6ef.js'></script>\n\n      <link rel=\"alternate\" type=\"application/rss+xml\" title=\"RSS feed of &#39;Early symptoms and resolution&#39;\" href=\"https://forum.parkinsons.org.uk/t/early-symptoms-and-resolution/10249.rss\" />\n  <meta property=\"og:site_name\" content=\"Parkinson&#39;s UK Forum\" />\n<meta name=\"twitter:card\" content=\"summary\" />\n<meta name=\"twitter:image\" content=\"https://forum.parkinsons.org.uk/uploads/db7928/original/2X/3/311fc84f89f49f38601a2f16b295b6f03d3ce5dd.jpg\" />\n<meta property=\"og:image\" content=\"https://forum.parkinsons.org.uk/uploads/db7928/original/2X/3/311fc84f89f49f38601a2f16b295b6f03d3ce5dd.jpg\" />\n<meta property=\"og:url\" content=\"https://forum.parkinsons.org.uk/t/early-symptoms-and-resolution/10249?page=2\" />\n<meta name=\"twitter:url\" content=\"https://forum.parkinsons.org.uk/t/early-symptoms-and-resolution/10249?page=2\" />\n<meta property=\"og:title\" content=\"Early symptoms and resolution\" />\n<meta name=\"twitter:title\" content=\"Early symptoms and resolution\" />\n<meta property=\"og:description\" content=\"I wouldn&#39;t take Mannitol if it didn&#39;t have such a massive benefit for me.   Here is another person on healthunlocked/ parkinson&#39;s movment.   &quot;I started Mannitol about 3 weeks ago with some pretty good results! First of all, I have been able to leave my daily Mirilax dose in the cupboard. (After YEARS of taking it daily just to keep my gut moving. If it did nothing more than that, I would still be thrilled.) Next, I noticed that my energy is vastly improved. Don&#39;t seem so tired all the time. My c...\" />\n<meta name=\"twitter:description\" content=\"I wouldn&#39;t take Mannitol if it didn&#39;t have such a massive benefit for me.   Here is another person on healthunlocked/ parkinson&#39;s movment.   &quot;I started Mannitol about 3 weeks ago with some pretty good results! First of all, I have been able to leave my daily Mirilax dose in the cupboard. (After YEARS of taking it daily just to keep my gut moving. If it did nothing more than that, I would still be thrilled.) Next, I noticed that my energy is vastly improved. Don&#39;t seem so tired all the time. My c...\" />\n<meta property=\"article:published_time\" content=\"2018-01-16T16:24:23+00:00\" />\n<meta property=\"og:ignore_canonical\" content=\"true\" />\n\n      <link rel=\"prev\" href=\"/t/early-symptoms-and-resolution/10249\">\n\n\n    \n  </head>\n  <body class=\"crawler\">\n    <header role=\"banner\">\n    <div class=\"region region-header\">\n        <div class=\"region-header-wrapper\">\n            <div id=\"block-parkinsons-d8-branding\" class=\"block block-system block-system-branding-block\">\n                <a href=\"/\" title=\"Home\" rel=\"home\" class=\"site-logo\">\n                    <img src=\"https://forum.parkinsons.org.uk/uploads/db7928/original/2X/8/862bb7d172e7d127e7f3e147ec43594aa62ac945.png\" alt=\"Parkinson's UK. Change Attitudes. Find a cure. Join us.\">\n                </a>\n            </div>\n            <div id=\"block-helpline\" class=\"block block-block-content block-block-content871cd5af-b938-4947-9dc0-d5c211d08fe3 style-phone\">\n                <div class=\"field field--name-field-link field--type-link field--label-hidden field__item\"><a href=\"tel:+448088000303\">Helpline 0808 800 0303</a></div>\n            </div>\n            <div id=\"block-shop\" class=\"block block-block-content block-block-content6fba5ae5-7797-49cd-8367-f321d8111cd6 style-regular\">\n                <div class=\"field field--name-field-link field--type-link field--label-hidden field__item\"><a href=\"https://shop.parkinsons.org.uk\">Shop</a></div>\n            </div>\n        </div>\n    </div>\n</header>\n\n\n<script src=\"/theme-javascripts/b7e9763fcb584fc8265c56a9f557cd6d2e1e8ed8.js?__ws=forum.parkinsons.org.uk\"></script>\n    <header>\n      <a href=\"/\">\n          <img src=\"https://forum.parkinsons.org.uk/uploads/db7928/original/2X/8/862bb7d172e7d127e7f3e147ec43594aa62ac945.png\" alt=\"Parkinson&#39;s UK Forum\" id=\"site-logo\" style=\"max-width: 150px;\">\n      </a>\n    </header>\n    <div id=\"main-outlet\" class=\"wrap\">\n      <h1>\n  <a href=\"/t/early-symptoms-and-resolution/10249\">Early symptoms and resolution</a>\n</h1>\n\n<div id='breadcrumbs'>\n    <div id=\"breadcrumb-0\" itemscope itemtype=\"http://data-vocabulary.org/Breadcrumb\"\n        itemref=\"breadcrumb-1\"\n      >\n      <a href=\"/c/about-parkinsons-and-health\" itemprop=\"url\">\n        <span itemprop=\"title\">About Parkinson&#39;s and health</span>\n      </a>\n    </div>\n    <div id=\"breadcrumb-1\" itemscope itemtype=\"http://data-vocabulary.org/Breadcrumb\"\n>\n      <a href=\"/c/about-parkinsons-and-health/newly-diagnosed\" itemprop=\"url\">\n        <span itemprop=\"title\">Newly diagnosed</span>\n      </a>\n    </div>\n</div>\n\n\n\n\n\n<hr>\n\n\n  <div itemscope itemtype='http://schema.org/DiscussionForumPosting'>\n      <div class='creator'>\n        <span>\n          <a href='/u/alexjohn'><b itemprop='author'>alexjohn</b></a>\n          \n          <time datetime='2018-01-16T16:24:23Z' itemprop='datePublished'>\n            2018-01-16 16:24:23 UTC\n          </time>\n        </span>\n        <span itemprop='position'>#21</span>\n      </div>\n      <div class='post' itemprop='articleBody'>\n        <p>I wouldn't take Mannitol if it didn't have such a massive benefit for me.</p>\n\n<p>Here is another person on healthunlocked/ parkinson's movment.</p>\n\n<p>\"I started Mannitol about 3 weeks ago with some pretty good results! First of all, I have been able to leave my daily Mirilax dose in the cupboard. (After YEARS of taking it daily just to keep my gut moving. If it did nothing more than that, I would still be thrilled.) Next, I noticed that my energy is vastly improved. Don't seem so tired all the time. My cognition is a bit sharper. My voice is noticeably stronger and clearer. And my fine motor skills are improving. I'm still taking Sinemet but have been able to cut the dose in half. Still also taking Amantadine and Epsilon patch. My whole attitude is improving. I am taking one teaspoon daily. ( I weigh 140 pounds.) I did try various doses and discovered that too much actually had me more jumpy/tremmory. Hope that long term use brings even more improvements! Feel like there's hope for the first time in years!\"</p>\n\n<p>Again to reiterate it doesn't work for many, but a significant minority do report great benefits.</p>\n\n<p>Given the iron issue, perhaps don't take it with high iron foods (as it doesn't last very long in the body).</p>\n      </div>\n      <meta itemprop='interactionCount' content='UserLikes:0'>\n      <meta itemprop='interactionCount' content='UserComments:0'>\n      <meta itemprop='headline' content='Early symptoms and resolution'>\n      <hr>\n  </div>\n  <div itemscope itemtype='http://schema.org/DiscussionForumPosting'>\n      <div class='creator'>\n        <span>\n          <a href='/u/alexjohn'><b itemprop='author'>alexjohn</b></a>\n          \n          <time datetime='2018-01-25T20:10:58Z' itemprop='datePublished'>\n            2018-01-25 20:10:58 UTC\n          </time>\n        </span>\n        <span itemprop='position'>#22</span>\n      </div>\n      <div class='post' itemprop='articleBody'>\n        <p>PeterC - I thought Mannitol doesn’t kill alphasyn, rather just disperses it. So I would have thought it could still do its binding iron thing.</p>\n      </div>\n      <meta itemprop='interactionCount' content='UserLikes:0'>\n      <meta itemprop='interactionCount' content='UserComments:1'>\n      <meta itemprop='headline' content='Early symptoms and resolution'>\n      <hr>\n  </div>\n  <div itemscope itemtype='http://schema.org/DiscussionForumPosting'>\n      <div class='creator'>\n        <span>\n          <a href='/u/PeterC'><b itemprop='author'>PeterC</b></a>\n          \n          <time datetime='2018-01-25T23:21:39Z' itemprop='datePublished'>\n            2018-01-25 23:21:39 UTC\n          </time>\n        </span>\n        <span itemprop='position'>#23</span>\n      </div>\n      <div class='post' itemprop='articleBody'>\n        <p>Alex, I might be mistaken but I think a-syn oligomers bind iron, the native monomeric protein doesn’t.<br>\nCheck out inosine&gt;uric acid, supposed to reduce extracellular asyn oxidation and oligomerisation. Ph 3 trail in progress. See Fox site.<br>\nPeter</p>\n      </div>\n      <meta itemprop='interactionCount' content='UserLikes:0'>\n      <meta itemprop='interactionCount' content='UserComments:0'>\n      <meta itemprop='headline' content='Early symptoms and resolution'>\n      <hr>\n  </div>\n\n  <div role='navigation' itemscope itemtype='http://schema.org/SiteNavigationElement'>\n      <span itemprop='name'><a rel=\"prev\" itemprop=\"url\" href=\"/t/early-symptoms-and-resolution/10249\">← previous page</a></span>\n  </div>\n\n\n\n\n\n    </div>\n    <footer class=\"container\">\n      <nav class='crawler-nav' itemscope itemtype='http://schema.org/SiteNavigationElement'>\n        <a href='/'>Home</a>\n        <a href=\"/categories\">Categories</a>\n        <a href=\"/guidelines\">FAQ/Guidelines</a>\n        <a href=\"/tos\">Terms of Service</a>\n        <a href=\"/privacy\">Privacy Policy</a>\n      </nav>\n      <p class='powered-by-link'>Powered by <a href=\"https://www.discourse.org\">Discourse</a>, best viewed with JavaScript enabled</p>\n    </footer>\n    \n  </body>\n  \n</html>\n",
  "url": "https://forum.parkinsons.org.uk/t/early-symptoms-and-resolution/10249?page=2"
}