{
  "contentId": "9f1f0800-886b-11e9-8f96-97f71b5221d6",
  "html": "<!DOCTYPE html>\n<html lang=\"en\">\n  <head>\n    <meta charset=\"utf-8\">\n    <title>Dopamine Agonist Catastrophic Behaviour - Ultimate (?) Prevention Tool - Impulsive and compulsive behaviour - Parkinson&#39;s UK Forum</title>\n    <meta name=\"description\" content=\"Thanks to Dan from Las Vegas for this \r\nANOTHER BEAUTIFUL DAY IN LAS VEGAS......Before making a quick decision, consider why you want to make it quickly.  \r\nConsider if it will honour God* and what it might cost others.  &amp;hellip;\">\n    <meta name=\"author\" content=\"\">\n<meta name=\"generator\" content=\"Discourse 2.2.5 - https://github.com/discourse/discourse version c294ff3609f988dcafb742e91606d60ca13b794d\">\n<link rel=\"icon\" type=\"image/png\" href=\"https://forum.parkinsons.org.uk/uploads/db7928/original/2X/3/311fc84f89f49f38601a2f16b295b6f03d3ce5dd.jpg\">\n<link rel=\"apple-touch-icon\" type=\"image/png\" href=\"https://forum.parkinsons.org.uk/uploads/db7928/original/2X/3/311fc84f89f49f38601a2f16b295b6f03d3ce5dd.jpg\">\n<meta name=\"theme-color\" content=\"#ffffff\">\n<meta name=\"viewport\" content=\"width=device-width, minimum-scale=1.0, maximum-scale=1.0, user-scalable=yes\">\n<link rel=\"canonical\" href=\"https://forum.parkinsons.org.uk/t/dopamine-agonist-catastrophic-behaviour-ultimate-prevention-tool/8945\" />\n<script type=\"application/ld+json\">{\"@context\":\"http://schema.org\",\"@type\":\"WebSite\",\"url\":\"https://forum.parkinsons.org.uk\",\"potentialAction\":{\"@type\":\"SearchAction\",\"target\":\"https://forum.parkinsons.org.uk/search?q={search_term_string}\",\"query-input\":\"required name=search_term_string\"}}</script>\n<link rel=\"search\" type=\"application/opensearchdescription+xml\" href=\"https://forum.parkinsons.org.uk/opensearch.xml\" title=\"Parkinson&#39;s UK Forum Search\">\n\n      <link href=\"/stylesheets/desktop_f99246ae801b083d3e4cca979d0dade8615b39ac.css?__ws=forum.parkinsons.org.uk\" media=\"all\" rel=\"stylesheet\" data-target=\"desktop\" data-theme-id=\"12\"/>\n      <link href=\"/stylesheets/desktop_theme_12_5d27531cf43f9df0c03a6a6ec3109dd05f9dfc49.css?__ws=forum.parkinsons.org.uk\" media=\"all\" rel=\"stylesheet\" data-target=\"desktop_theme\" data-theme-id=\"12\"/>\n    <link href=\"https://fonts.googleapis.com/css?family=Open+Sans\" rel=\"stylesheet\">\n\n    <meta id=\"data-ga-universal-analytics\" data-tracking-code=\"UA-4855628-1\" data-json=\"{&quot;cookieDomain&quot;:&quot;auto&quot;}\" data-auto-link-domains=\"\">\n\n<link rel='preload' href='/assets/google-universal-analytics-f35b4da49411e6f5559073523aab983da483976a3954c79c756f8579f6fbd6ef.js' as='script'/>\n<script src='/assets/google-universal-analytics-f35b4da49411e6f5559073523aab983da483976a3954c79c756f8579f6fbd6ef.js'></script>\n\n      <link rel=\"alternate\" type=\"application/rss+xml\" title=\"RSS feed of &#39;Dopamine Agonist Catastrophic Behaviour - Ultimate (?) Prevention Tool&#39;\" href=\"https://forum.parkinsons.org.uk/t/dopamine-agonist-catastrophic-behaviour-ultimate-prevention-tool/8945.rss\" />\n  <meta property=\"og:site_name\" content=\"Parkinson&#39;s UK Forum\" />\n<meta name=\"twitter:card\" content=\"summary\" />\n<meta name=\"twitter:image\" content=\"https://forum.parkinsons.org.uk/uploads/db7928/original/2X/3/311fc84f89f49f38601a2f16b295b6f03d3ce5dd.jpg\" />\n<meta property=\"og:image\" content=\"https://forum.parkinsons.org.uk/uploads/db7928/original/2X/3/311fc84f89f49f38601a2f16b295b6f03d3ce5dd.jpg\" />\n<meta property=\"og:url\" content=\"https://forum.parkinsons.org.uk/t/dopamine-agonist-catastrophic-behaviour-ultimate-prevention-tool/8945\" />\n<meta name=\"twitter:url\" content=\"https://forum.parkinsons.org.uk/t/dopamine-agonist-catastrophic-behaviour-ultimate-prevention-tool/8945\" />\n<meta property=\"og:title\" content=\"Dopamine Agonist Catastrophic Behaviour - Ultimate (?) Prevention Tool\" />\n<meta name=\"twitter:title\" content=\"Dopamine Agonist Catastrophic Behaviour - Ultimate (?) Prevention Tool\" />\n<meta property=\"og:description\" content=\"Thanks to Dan from Las Vegas for this \r ANOTHER BEAUTIFUL DAY IN LAS VEGAS......Before making a quick decision, consider why you want to make it quickly.  \r Consider if it will honour God* and what it might cost others.  \r If you are afraid to make a decision, think about why that might be.  \r Most of all, pray!** \r A moment of patience can prevent a great disaster. \r   \r *replace with deity or line / expletive of choice \r ** replace with method of contacting deity of choice or expletive relevan...\" />\n<meta name=\"twitter:description\" content=\"Thanks to Dan from Las Vegas for this \r ANOTHER BEAUTIFUL DAY IN LAS VEGAS......Before making a quick decision, consider why you want to make it quickly.  \r Consider if it will honour God* and what it might cost others.  \r If you are afraid to make a decision, think about why that might be.  \r Most of all, pray!** \r A moment of patience can prevent a great disaster. \r   \r *replace with deity or line / expletive of choice \r ** replace with method of contacting deity of choice or expletive relevan...\" />\n<meta property=\"article:published_time\" content=\"2016-02-26T07:00:41+00:00\" />\n<meta property=\"og:ignore_canonical\" content=\"true\" />\n\n      <link rel=\"next\" href=\"/t/dopamine-agonist-catastrophic-behaviour-ultimate-prevention-tool/8945?page=2\">\n\n\n    \n  </head>\n  <body class=\"crawler\">\n    <header role=\"banner\">\n    <div class=\"region region-header\">\n        <div class=\"region-header-wrapper\">\n            <div id=\"block-parkinsons-d8-branding\" class=\"block block-system block-system-branding-block\">\n                <a href=\"/\" title=\"Home\" rel=\"home\" class=\"site-logo\">\n                    <img src=\"https://forum.parkinsons.org.uk/uploads/db7928/original/2X/8/862bb7d172e7d127e7f3e147ec43594aa62ac945.png\" alt=\"Parkinson's UK. Change Attitudes. Find a cure. Join us.\">\n                </a>\n            </div>\n            <div id=\"block-helpline\" class=\"block block-block-content block-block-content871cd5af-b938-4947-9dc0-d5c211d08fe3 style-phone\">\n                <div class=\"field field--name-field-link field--type-link field--label-hidden field__item\"><a href=\"tel:+448088000303\">Helpline 0808 800 0303</a></div>\n            </div>\n            <div id=\"block-shop\" class=\"block block-block-content block-block-content6fba5ae5-7797-49cd-8367-f321d8111cd6 style-regular\">\n                <div class=\"field field--name-field-link field--type-link field--label-hidden field__item\"><a href=\"https://shop.parkinsons.org.uk\">Shop</a></div>\n            </div>\n        </div>\n    </div>\n</header>\n\n\n<script src=\"/theme-javascripts/b7e9763fcb584fc8265c56a9f557cd6d2e1e8ed8.js?__ws=forum.parkinsons.org.uk\"></script>\n    <header>\n      <a href=\"/\">\n          <img src=\"https://forum.parkinsons.org.uk/uploads/db7928/original/2X/8/862bb7d172e7d127e7f3e147ec43594aa62ac945.png\" alt=\"Parkinson&#39;s UK Forum\" id=\"site-logo\" style=\"max-width: 150px;\">\n      </a>\n    </header>\n    <div id=\"main-outlet\" class=\"wrap\">\n      <h1>\n  <a href=\"/t/dopamine-agonist-catastrophic-behaviour-ultimate-prevention-tool/8945\">Dopamine Agonist Catastrophic Behaviour - Ultimate (?) Prevention Tool</a>\n</h1>\n\n<div id='breadcrumbs'>\n    <div id=\"breadcrumb-0\" itemscope itemtype=\"http://data-vocabulary.org/Breadcrumb\"\n        itemref=\"breadcrumb-1\"\n      >\n      <a href=\"/c/about-parkinsons-and-health\" itemprop=\"url\">\n        <span itemprop=\"title\">About Parkinson&#39;s and health</span>\n      </a>\n    </div>\n    <div id=\"breadcrumb-1\" itemscope itemtype=\"http://data-vocabulary.org/Breadcrumb\"\n>\n      <a href=\"/c/about-parkinsons-and-health/impulsive-and-compulsive-behaviour\" itemprop=\"url\">\n        <span itemprop=\"title\">Impulsive and compulsive behaviour</span>\n      </a>\n    </div>\n</div>\n\n\n\n\n\n<hr>\n\n\n  <div itemscope itemtype='http://schema.org/DiscussionForumPosting'>\n      <div class='creator'>\n        <span>\n          <a href='/u/Leyther'><b itemprop='author'>Leyther</b></a>\n          \n          <time datetime='2016-02-26T07:00:41Z' itemprop='datePublished'>\n            2016-02-26 07:00:41 UTC\n          </time>\n        </span>\n        <span itemprop='position'>#1</span>\n      </div>\n      <div class='post' itemprop='articleBody'>\n        <p>Thanks to Dan from Las Vegas for this</p>\r\n<p><span style=\"line-height: 1.4;\">ANOTHER BEAUTIFUL DAY IN LAS VEGAS......Before making a quick decision, consider why you want to make it quickly. </span></p>\r\n<p><span style=\"line-height: 1.4;\">Consider if it will </span>honour<span style=\"line-height: 1.4;\"> God* and what it might cost others. </span></p>\r\n<p><span style=\"line-height: 1.4;\">If you are afraid to make a decision, think about why that might be. </span></p>\r\n<p><span style=\"line-height: 1.4;\">Most of all, pray!**</span></p>\r\n<p><span style=\"line-height: 1.4;\">A moment of patience can prevent a great disaster.</span></p>\r\n<p>&nbsp;</p>\r\n<p>*replace with deity or line / expletive of choice</p>\r\n<p>** replace with method of contacting deity of choice or expletive relevant to thought process</p>\n      </div>\n      <meta itemprop='interactionCount' content='UserLikes:0'>\n      <meta itemprop='interactionCount' content='UserComments:0'>\n      <meta itemprop='headline' content='Dopamine Agonist Catastrophic Behaviour - Ultimate (?) Prevention Tool'>\n      <hr>\n  </div>\n  <div itemscope itemtype='http://schema.org/DiscussionForumPosting'>\n      <div class='creator'>\n        <span>\n          <a href='/u/Eck'><b itemprop='author'>Eck</b></a>\n          \n          <time datetime='2016-03-09T12:16:00Z' itemprop='datePublished'>\n            2016-03-09 12:16:00 UTC\n          </time>\n        </span>\n        <span itemprop='position'>#2</span>\n      </div>\n      <div class='post' itemprop='articleBody'>\n        <p>Before making a quick decision, consider why you want to make it quickly.<br />\r\n\tConsider if it will honour<b> mistress whiplash*</b> and what it might cost others.<br />\r\n\tIf you are afraid to make a decision, think about why that might be.<br />\r\n\tMost of all, <strong>beg for a beating**</strong></p>\r\n<p><em>well that didn&#39;t work, I still posted it. Or should that be<b>&nbsp;saved.</b></em></p>\n      </div>\n      <meta itemprop='interactionCount' content='UserLikes:0'>\n      <meta itemprop='interactionCount' content='UserComments:0'>\n      <meta itemprop='headline' content='Dopamine Agonist Catastrophic Behaviour - Ultimate (?) Prevention Tool'>\n      <hr>\n  </div>\n  <div itemscope itemtype='http://schema.org/DiscussionForumPosting'>\n      <div class='creator'>\n        <span>\n          <a href='/u/Eck'><b itemprop='author'>Eck</b></a>\n          \n          <time datetime='2016-03-09T12:29:31Z' itemprop='datePublished'>\n            2016-03-09 12:29:31 UTC\n          </time>\n        </span>\n        <span itemprop='position'>#3</span>\n      </div>\n      <div class='post' itemprop='articleBody'>\n        <p>To be fair I didn&#39;t consider a diety&nbsp;or pray, I thought I was very funny, I&#39;m still chuckling, and that my battery is about to snuff it and how, if i don&#39;t post/save soon I&#39;ll lose it all, and it&#39;s taken me all day to type this and I&#39;ve used too many ands, and How I don&#39;t have time to edit it. &nbsp;Soz all (Soz means sorry, it&#39;s also French for sauce)</p>\n      </div>\n      <meta itemprop='interactionCount' content='UserLikes:0'>\n      <meta itemprop='interactionCount' content='UserComments:0'>\n      <meta itemprop='headline' content='Dopamine Agonist Catastrophic Behaviour - Ultimate (?) Prevention Tool'>\n      <hr>\n  </div>\n  <div itemscope itemtype='http://schema.org/DiscussionForumPosting'>\n      <div class='creator'>\n        <span>\n          <a href='/u/gus'><b itemprop='author'>gus</b></a>\n          \n          <time datetime='2016-03-10T20:30:55Z' itemprop='datePublished'>\n            2016-03-10 20:30:55 UTC\n          </time>\n        </span>\n        <span itemprop='position'>#4</span>\n      </div>\n      <div class='post' itemprop='articleBody'>\n        <p>hi&nbsp; eck&nbsp; ,did you forget to keep an eye on your dbs battery ! nice to hear from you&nbsp;</p>\n      </div>\n      <meta itemprop='interactionCount' content='UserLikes:0'>\n      <meta itemprop='interactionCount' content='UserComments:1'>\n      <meta itemprop='headline' content='Dopamine Agonist Catastrophic Behaviour - Ultimate (?) Prevention Tool'>\n      <hr>\n  </div>\n  <div itemscope itemtype='http://schema.org/DiscussionForumPosting'>\n      <div class='creator'>\n        <span>\n          <a href='/u/Eck'><b itemprop='author'>Eck</b></a>\n          \n          <time datetime='2016-03-10T22:52:08Z' itemprop='datePublished'>\n            2016-03-10 22:52:08 UTC\n          </time>\n        </span>\n        <span itemprop='position'>#5</span>\n      </div>\n      <div class='post' itemprop='articleBody'>\n        <p>Thanks gus</p>\n      </div>\n      <meta itemprop='interactionCount' content='UserLikes:0'>\n      <meta itemprop='interactionCount' content='UserComments:0'>\n      <meta itemprop='headline' content='Dopamine Agonist Catastrophic Behaviour - Ultimate (?) Prevention Tool'>\n      <hr>\n  </div>\n  <div itemscope itemtype='http://schema.org/DiscussionForumPosting'>\n      <div class='creator'>\n        <span>\n          <a href='/u/Leyther'><b itemprop='author'>Leyther</b></a>\n          \n          <time datetime='2016-03-17T05:39:45Z' itemprop='datePublished'>\n            2016-03-17 05:39:45 UTC\n          </time>\n        </span>\n        <span itemprop='position'>#6</span>\n      </div>\n      <div class='post' itemprop='articleBody'>\n        <p>Training required it would seem.</p>\r\n<p>Eck</p>\r\n<p>Miss Whiplash is your deity and asking for beatings your form of prayer.</p>\r\n<p>Example</p>\r\n<p>Urgent need to visit bookies. Why the urgency? Dead cert at 7/2, Muff Diver, in the 1.40 at Wincanton its now 1.30. &nbsp;Ask can you afford to lose &pound;2 will &pound;5 change your life?</p>\r\n<p>Will a trip to the bookies honour Miss Whiplash or would the &pound;2&nbsp;be better spent elsewhere?</p>\r\n<p>Ask for a beating. Dealing with the queue may be a problem</p>\n      </div>\n      <meta itemprop='interactionCount' content='UserLikes:0'>\n      <meta itemprop='interactionCount' content='UserComments:0'>\n      <meta itemprop='headline' content='Dopamine Agonist Catastrophic Behaviour - Ultimate (?) Prevention Tool'>\n      <hr>\n  </div>\n  <div itemscope itemtype='http://schema.org/DiscussionForumPosting'>\n      <div class='creator'>\n        <span>\n          <a href='/u/Eck'><b itemprop='author'>Eck</b></a>\n          \n          <time datetime='2016-03-18T19:47:31Z' itemprop='datePublished'>\n            2016-03-18 19:47:31 UTC\n          </time>\n        </span>\n        <span itemprop='position'>#7</span>\n      </div>\n      <div class='post' itemprop='articleBody'>\n        <p>I&#39;d prefer to lose &pound;2&nbsp;on the horse, than &pound;200 on a miss whiplash and beg for a beating. Does that help? &nbsp;Am I getting the hang of it?</p>\n      </div>\n      <meta itemprop='interactionCount' content='UserLikes:0'>\n      <meta itemprop='interactionCount' content='UserComments:0'>\n      <meta itemprop='headline' content='Dopamine Agonist Catastrophic Behaviour - Ultimate (?) Prevention Tool'>\n      <hr>\n  </div>\n  <div itemscope itemtype='http://schema.org/DiscussionForumPosting'>\n      <div class='creator'>\n        <span>\n          <a href='/u/Leyther'><b itemprop='author'>Leyther</b></a>\n          \n          <time datetime='2016-03-20T00:15:59Z' itemprop='datePublished'>\n            2016-03-20 00:15:59 UTC\n          </time>\n        </span>\n        <span itemprop='position'>#8</span>\n      </div>\n      <div class='post' itemprop='articleBody'>\n        <p>Your quids in</p>\n      </div>\n      <meta itemprop='interactionCount' content='UserLikes:0'>\n      <meta itemprop='interactionCount' content='UserComments:0'>\n      <meta itemprop='headline' content='Dopamine Agonist Catastrophic Behaviour - Ultimate (?) Prevention Tool'>\n      <hr>\n  </div>\n  <div itemscope itemtype='http://schema.org/DiscussionForumPosting'>\n      <div class='creator'>\n        <span>\n          <a href='/u/Eck'><b itemprop='author'>Eck</b></a>\n          \n          <time datetime='2016-03-20T10:18:12Z' itemprop='datePublished'>\n            2016-03-20 10:18:12 UTC\n          </time>\n        </span>\n        <span itemprop='position'>#9</span>\n      </div>\n      <div class='post' itemprop='articleBody'>\n        <p>So the message seems to be &quot;don&#39;t gamble, it gives you a sore @&amp;$#&quot;</p>\n      </div>\n      <meta itemprop='interactionCount' content='UserLikes:0'>\n      <meta itemprop='interactionCount' content='UserComments:1'>\n      <meta itemprop='headline' content='Dopamine Agonist Catastrophic Behaviour - Ultimate (?) Prevention Tool'>\n      <hr>\n  </div>\n  <div itemscope itemtype='http://schema.org/DiscussionForumPosting'>\n      <div class='creator'>\n        <span>\n          <a href='/u/Leyther'><b itemprop='author'>Leyther</b></a>\n          \n          <time datetime='2016-03-26T11:46:48Z' itemprop='datePublished'>\n            2016-03-26 11:46:48 UTC\n          </time>\n        </span>\n        <span itemprop='position'>#10</span>\n      </div>\n      <div class='post' itemprop='articleBody'>\n        <p>In your case yes</p>\n      </div>\n      <meta itemprop='interactionCount' content='UserLikes:0'>\n      <meta itemprop='interactionCount' content='UserComments:1'>\n      <meta itemprop='headline' content='Dopamine Agonist Catastrophic Behaviour - Ultimate (?) Prevention Tool'>\n      <hr>\n  </div>\n  <div itemscope itemtype='http://schema.org/DiscussionForumPosting'>\n      <div class='creator'>\n        <span>\n          <a href='/u/Eck'><b itemprop='author'>Eck</b></a>\n          \n          <time datetime='2016-04-06T18:22:57Z' itemprop='datePublished'>\n            2016-04-06 18:22:57 UTC\n          </time>\n        </span>\n        <span itemprop='position'>#11</span>\n      </div>\n      <div class='post' itemprop='articleBody'>\n        <p>@&amp;$*? I meant wallet.&nbsp;</p>\r\n<p>Predictive text? &nbsp;</p>\n      </div>\n      <meta itemprop='interactionCount' content='UserLikes:0'>\n      <meta itemprop='interactionCount' content='UserComments:0'>\n      <meta itemprop='headline' content='Dopamine Agonist Catastrophic Behaviour - Ultimate (?) Prevention Tool'>\n      <hr>\n  </div>\n  <div itemscope itemtype='http://schema.org/DiscussionForumPosting'>\n      <div class='creator'>\n        <span>\n          <a href='/u/the_Pokermid'><b itemprop='author'>the_Pokermid</b></a>\n          \n          <time datetime='2016-04-20T19:54:24Z' itemprop='datePublished'>\n            2016-04-20 19:54:24 UTC\n          </time>\n        </span>\n        <span itemprop='position'>#12</span>\n      </div>\n      <div class='post' itemprop='articleBody'>\n        <p>Leyther, are you still kicking???<img alt=\"question mark\" height=\"23\" src=\"http://www.parkinsons.org.uk/sites/all/modules/custom/park_smilies/images/gifs/question.gif\" title=\"question mark\" width=\"23\" /><img alt=\"cool\" height=\"23\" src=\"http://www.parkinsons.org.uk/sites/all/modules/custom/park_smilies/images/gifs/cool.gif\" title=\"cool\" width=\"23\" /></p>\n      </div>\n      <meta itemprop='interactionCount' content='UserLikes:0'>\n      <meta itemprop='interactionCount' content='UserComments:0'>\n      <meta itemprop='headline' content='Dopamine Agonist Catastrophic Behaviour - Ultimate (?) Prevention Tool'>\n      <hr>\n  </div>\n  <div itemscope itemtype='http://schema.org/DiscussionForumPosting'>\n      <div class='creator'>\n        <span>\n          <a href='/u/Ian_shearer1'><b itemprop='author'>Ian_shearer1</b></a>\n          \n          <time datetime='2016-06-07T21:21:36Z' itemprop='datePublished'>\n            2016-06-07 21:21:36 UTC\n          </time>\n        </span>\n        <span itemprop='position'>#13</span>\n      </div>\n      <div class='post' itemprop='articleBody'>\n        <p>Hello leyther</p>\r\n<p>as a matter of interest were you in the coal business , I was a coal merchant for 20 years&nbsp;</p>\r\n<p>Ian wondering ??&nbsp;</p>\n      </div>\n      <meta itemprop='interactionCount' content='UserLikes:0'>\n      <meta itemprop='interactionCount' content='UserComments:0'>\n      <meta itemprop='headline' content='Dopamine Agonist Catastrophic Behaviour - Ultimate (?) Prevention Tool'>\n      <hr>\n  </div>\n  <div itemscope itemtype='http://schema.org/DiscussionForumPosting'>\n      <div class='creator'>\n        <span>\n          <a href='/u/fedexlike'><b itemprop='author'>fedexlike</b></a>\n          \n          <time datetime='2016-10-30T19:46:01Z' itemprop='datePublished'>\n            2016-10-30 19:46:01 UTC\n          </time>\n        </span>\n        <span itemprop='position'>#14</span>\n      </div>\n      <div class='post' itemprop='articleBody'>\n        <p>Hello&nbsp; peeps beeg and smoll</p>\r\n<p>&nbsp;&nbsp;&nbsp;&nbsp;&nbsp;&nbsp;&nbsp;&nbsp;&nbsp;&nbsp;&nbsp;&nbsp;&nbsp;&nbsp;&nbsp;&nbsp;&nbsp;&nbsp;&nbsp;&nbsp;&nbsp;&nbsp;&nbsp;&nbsp;&nbsp;&nbsp;&nbsp;&nbsp;&nbsp;&nbsp;&nbsp;&nbsp;&nbsp;&nbsp;&nbsp;&nbsp;&nbsp;&nbsp;&nbsp;&nbsp; Well I&nbsp; wont&nbsp; be&nbsp; going&nbsp; up&nbsp; thats&nbsp; for&nbsp; sure as a few&nbsp; quid&nbsp; went&nbsp; on&nbsp; the&nbsp; doggies, I do&nbsp; envy&nbsp;&nbsp; believers as they have&nbsp; the&nbsp; support of&nbsp; the&nbsp; big&nbsp; guy&nbsp; ,&nbsp; , its&nbsp; when I watch&nbsp; the&nbsp; news&nbsp; and see&nbsp; kiddies&nbsp; with&nbsp; no&nbsp; eyes or&nbsp; legs&nbsp; dead bodies&nbsp;&nbsp;&nbsp; all over&nbsp; and here&nbsp; these I hesitate&nbsp; here&nbsp; as&nbsp; I was&nbsp; going&nbsp; to&nbsp; say&nbsp; humans&nbsp; saying&nbsp; they love&nbsp; death&nbsp; more&nbsp; than&nbsp; life,,&nbsp; yeh&nbsp; I know&nbsp; the&nbsp; feeling&nbsp; mate,&nbsp;&nbsp; and off&nbsp; he&nbsp; goes wearing&nbsp; his&nbsp; semtex&nbsp; hand&nbsp; made cardy&nbsp; to&nbsp; take&nbsp; his place in&nbsp;&nbsp;&nbsp; where&nbsp; who&nbsp; knows&nbsp; no&nbsp; one comes&nbsp; back&nbsp; after&nbsp; atomising&nbsp;&nbsp;their&nbsp; body&nbsp; in&nbsp; a&nbsp; Hospital or&nbsp; market , religion&nbsp; nah I worked&nbsp; it&nbsp; out&nbsp; somewhere I&nbsp;&nbsp; spent&nbsp; about &pound;500&nbsp; ON&nbsp; THE&nbsp; LOTTO&nbsp; for &pound; 10, so&nbsp; steer clear of&nbsp; gambling&nbsp; now.</p>\r\n<p>&nbsp;&nbsp;&nbsp;&nbsp;&nbsp;&nbsp;&nbsp;&nbsp;&nbsp;&nbsp;&nbsp; oh&nbsp; eck&nbsp; were you&nbsp; the&nbsp; guy on star&nbsp; trek , spock&nbsp; ,,often&nbsp; wore&nbsp; a frock&nbsp;&nbsp; , not&nbsp; gay&nbsp; or&nbsp; trans&nbsp; from&nbsp; preston&nbsp; pans&nbsp; or near&nbsp; keen&nbsp; ski,er&nbsp; likes&nbsp; beer,&nbsp; or&nbsp; two&nbsp; is&nbsp; it&nbsp; was&nbsp; it&nbsp; you,,,,,ECK was&nbsp; it&nbsp; eh was it</p>\r\n<p>&nbsp;&nbsp;&nbsp;&nbsp;&nbsp;&nbsp;&nbsp;&nbsp;&nbsp;&nbsp;&nbsp;&nbsp;&nbsp;&nbsp;&nbsp;&nbsp;&nbsp;&nbsp;&nbsp;&nbsp;&nbsp;&nbsp;&nbsp;&nbsp;&nbsp;&nbsp;&nbsp;&nbsp;&nbsp;&nbsp;&nbsp;&nbsp;&nbsp;&nbsp;&nbsp;&nbsp;&nbsp;&nbsp;&nbsp;&nbsp;&nbsp;&nbsp;&nbsp;&nbsp;&nbsp;&nbsp;&nbsp; FED</p>\n      </div>\n      <meta itemprop='interactionCount' content='UserLikes:0'>\n      <meta itemprop='interactionCount' content='UserComments:0'>\n      <meta itemprop='headline' content='Dopamine Agonist Catastrophic Behaviour - Ultimate (?) Prevention Tool'>\n      <hr>\n  </div>\n  <div itemscope itemtype='http://schema.org/DiscussionForumPosting'>\n      <div class='creator'>\n        <span>\n          <a href='/u/gus'><b itemprop='author'>gus</b></a>\n          \n          <time datetime='2016-10-30T21:20:22Z' itemprop='datePublished'>\n            2016-10-30 21:20:22 UTC\n          </time>\n        </span>\n        <span itemprop='position'>#15</span>\n      </div>\n      <div class='post' itemprop='articleBody'>\n        Must of tooķ you ages fed picking them numbers lol\n      </div>\n      <meta itemprop='interactionCount' content='UserLikes:0'>\n      <meta itemprop='interactionCount' content='UserComments:1'>\n      <meta itemprop='headline' content='Dopamine Agonist Catastrophic Behaviour - Ultimate (?) Prevention Tool'>\n      <hr>\n  </div>\n  <div itemscope itemtype='http://schema.org/DiscussionForumPosting'>\n      <div class='creator'>\n        <span>\n          <a href='/u/Eck'><b itemprop='author'>Eck</b></a>\n          \n          <time datetime='2016-11-05T17:54:44Z' itemprop='datePublished'>\n            2016-11-05 17:54:44 UTC\n          </time>\n        </span>\n        <span itemprop='position'>#16</span>\n      </div>\n      <div class='post' itemprop='articleBody'>\n        <p>Andy Murray, world number one, for a knighthood.&nbsp;</p>\n      </div>\n      <meta itemprop='interactionCount' content='UserLikes:0'>\n      <meta itemprop='interactionCount' content='UserComments:0'>\n      <meta itemprop='headline' content='Dopamine Agonist Catastrophic Behaviour - Ultimate (?) Prevention Tool'>\n      <hr>\n  </div>\n  <div itemscope itemtype='http://schema.org/DiscussionForumPosting'>\n      <div class='creator'>\n        <span>\n          <a href='/u/Eck'><b itemprop='author'>Eck</b></a>\n          \n          <time datetime='2016-11-06T17:44:16Z' itemprop='datePublished'>\n            2016-11-06 17:44:16 UTC\n          </time>\n        </span>\n        <span itemprop='position'>#17</span>\n      </div>\n      <div class='post' itemprop='articleBody'>\n        <p>I think we&#39;re going off topic a tad.&nbsp;</p>\r\n<p>Idiots still at large with too much money and no fricken&nbsp;sense setting off squibs and Catherine wheels and such like. &nbsp;Imbeciles forgot to set them off yesterday. Harrumph.&nbsp;</p>\r\n<p>I mean what&#39;s the bloody point , what is the bloody point. &nbsp;I ask you.&nbsp;</p>\r\n<p>Struth. !</p>\n      </div>\n      <meta itemprop='interactionCount' content='UserLikes:0'>\n      <meta itemprop='interactionCount' content='UserComments:0'>\n      <meta itemprop='headline' content='Dopamine Agonist Catastrophic Behaviour - Ultimate (?) Prevention Tool'>\n      <hr>\n  </div>\n  <div itemscope itemtype='http://schema.org/DiscussionForumPosting'>\n      <div class='creator'>\n        <span>\n          <a href='/u/fedexlike'><b itemprop='author'>fedexlike</b></a>\n          \n          <time datetime='2016-11-06T18:20:28Z' itemprop='datePublished'>\n            2016-11-06 18:20:28 UTC\n          </time>\n        </span>\n        <span itemprop='position'>#18</span>\n      </div>\n      <div class='post' itemprop='articleBody'>\n        <p>I had a pet carrot at&nbsp; the&nbsp; time,&nbsp; no&nbsp;&nbsp; no&nbsp; mistake,, carrot Irescued it&nbsp; from&nbsp; a carrot dealer who&nbsp; was not&nbsp; taking&nbsp; care&nbsp; of&nbsp; it it had&nbsp; very&nbsp; few&nbsp; feathers and&nbsp; its vocabulary consisted of the telephone ,&nbsp; a cat&nbsp; a&nbsp; dog and&nbsp; th,&nbsp; understorms ,,sorry&nbsp;&nbsp; did&nbsp; I&nbsp; say&nbsp; carrot&nbsp; ,I meant Komodo&nbsp; Dragon,&nbsp; if&nbsp; he&nbsp; did not&nbsp; want&nbsp; to&nbsp; go in his&nbsp;&nbsp; cage&nbsp; well&nbsp; er he didnt and he&nbsp; was&nbsp; a poor wordsmith&nbsp; ,&nbsp; grrH&nbsp; GRRR&nbsp; ARGGH,&nbsp; and&nbsp; that was it,,so&nbsp; where&nbsp; was i&nbsp; YES my&nbsp; parrot&nbsp; could count&nbsp; to 11 so&nbsp; I&nbsp; used&nbsp; him&nbsp; for&nbsp; the&nbsp; numbers&nbsp; until&nbsp; he&nbsp; died&nbsp; of&nbsp; boredom sad&nbsp; eh&nbsp;&nbsp;&nbsp; never&nbsp; bet&nbsp; now, the bl???Dy dRAGON always&nbsp; has&nbsp; the&nbsp; best&nbsp; chair,oh&nbsp; and&nbsp; the&nbsp; zoo&nbsp; took&nbsp; Kay,,the&nbsp; ,,,yes&nbsp; you&nbsp; know,&nbsp;&nbsp;&nbsp;I hope&nbsp; you&nbsp; are well&nbsp; Gus&nbsp;&nbsp;&nbsp;&nbsp;&nbsp;&nbsp;&nbsp;&nbsp;&nbsp;&nbsp;&nbsp;&nbsp;&nbsp;&nbsp;</p>\r\n<p>&nbsp;&nbsp;&nbsp;&nbsp;&nbsp;&nbsp;&nbsp;&nbsp;&nbsp;&nbsp;&nbsp;&nbsp;&nbsp;&nbsp;&nbsp;&nbsp;&nbsp;&nbsp;&nbsp;&nbsp;&nbsp;&nbsp;&nbsp;&nbsp;&nbsp;&nbsp;&nbsp;&nbsp;&nbsp;&nbsp;&nbsp;&nbsp;&nbsp;&nbsp;&nbsp;&nbsp;&nbsp;&nbsp;&nbsp;&nbsp;&nbsp;&nbsp;&nbsp;&nbsp;&nbsp;&nbsp;&nbsp;&nbsp;&nbsp;&nbsp;&nbsp;&nbsp;&nbsp;&nbsp;&nbsp;&nbsp;&nbsp;&nbsp;&nbsp;&nbsp;&nbsp;&nbsp;&nbsp;&nbsp;&nbsp;&nbsp;&nbsp;&nbsp;&nbsp;&nbsp;&nbsp;&nbsp;&nbsp;&nbsp;&nbsp;&nbsp; FED</p>\n      </div>\n      <meta itemprop='interactionCount' content='UserLikes:0'>\n      <meta itemprop='interactionCount' content='UserComments:0'>\n      <meta itemprop='headline' content='Dopamine Agonist Catastrophic Behaviour - Ultimate (?) Prevention Tool'>\n      <hr>\n  </div>\n  <div itemscope itemtype='http://schema.org/DiscussionForumPosting'>\n      <div class='creator'>\n        <span>\n          <a href='/u/gus'><b itemprop='author'>gus</b></a>\n          \n          <time datetime='2016-11-06T18:37:10Z' itemprop='datePublished'>\n            2016-11-06 18:37:10 UTC\n          </time>\n        </span>\n        <span itemprop='position'>#19</span>\n      </div>\n      <div class='post' itemprop='articleBody'>\n        <p>not bad pretty poly poly&nbsp;<img alt=\"razz\" height=\"23\" src=\"https://www.parkinsons.org.uk/sites/all/modules/custom/park_smilies/images/gifs/razz.gif\" title=\"razz\" width=\"23\" /> cheers fed</p>\n      </div>\n      <meta itemprop='interactionCount' content='UserLikes:0'>\n      <meta itemprop='interactionCount' content='UserComments:0'>\n      <meta itemprop='headline' content='Dopamine Agonist Catastrophic Behaviour - Ultimate (?) Prevention Tool'>\n      <hr>\n  </div>\n  <div itemscope itemtype='http://schema.org/DiscussionForumPosting'>\n      <div class='creator'>\n        <span>\n          <a href='/u/fedexlike'><b itemprop='author'>fedexlike</b></a>\n          \n          <time datetime='2016-11-30T13:22:00Z' itemprop='datePublished'>\n            2016-11-30 13:22:00 UTC\n          </time>\n        </span>\n        <span itemprop='position'>#20</span>\n      </div>\n      <div class='post' itemprop='articleBody'>\n        <p>&nbsp;CHEERS&nbsp; Gus</p>\r\n<p>&nbsp;&nbsp;&nbsp;&nbsp;&nbsp;&nbsp;&nbsp;&nbsp;&nbsp;&nbsp;&nbsp;&nbsp;&nbsp;&nbsp;&nbsp;&nbsp;&nbsp;&nbsp;&nbsp;&nbsp;&nbsp;&nbsp;&nbsp;&nbsp;&nbsp; Yes&nbsp; he&nbsp; is&nbsp; a&nbsp; bit&nbsp; of&nbsp; a&nbsp; worky ticket and&nbsp; will eat&nbsp; anything that is&nbsp; in&nbsp; range,&nbsp; but&nbsp; he&nbsp; has&nbsp; his&nbsp; uses,&nbsp; no&nbsp; cats&nbsp; venture&nbsp; to&nbsp;&nbsp; pooh on&nbsp; my lawn and last&nbsp;&nbsp;year&nbsp; group&nbsp; of local&nbsp; thugs&nbsp; approached&nbsp; me&nbsp; and&nbsp; challenged&nbsp; me or&nbsp;&nbsp; should I&nbsp; say&nbsp; my&nbsp; dog,, yes&nbsp; dog, on his&nbsp; pedigree he is registered as&nbsp; a&nbsp; LONG TAILED LONG NOSED&nbsp; SHORT LEGGED TERRIER,&nbsp; for&nbsp; customs&nbsp; reasons,,&nbsp; and&nbsp;&nbsp; well&nbsp; I&nbsp; agreed</p>\r\n<p>Result 6 niil&nbsp; to&nbsp; FEDS&nbsp; Terrier,?</p>\r\n<p>&nbsp;&nbsp;&nbsp;&nbsp;&nbsp;&nbsp;&nbsp;&nbsp;&nbsp;&nbsp;&nbsp;&nbsp;&nbsp;&nbsp;&nbsp;&nbsp;&nbsp;&nbsp;&nbsp;&nbsp;&nbsp;&nbsp;&nbsp;&nbsp;&nbsp;&nbsp;&nbsp;&nbsp;&nbsp;&nbsp;&nbsp;&nbsp;&nbsp;&nbsp;&nbsp;&nbsp;&nbsp;&nbsp;&nbsp;&nbsp;&nbsp;&nbsp;&nbsp;&nbsp;&nbsp;&nbsp;&nbsp;&nbsp;&nbsp;&nbsp;&nbsp;&nbsp;&nbsp;&nbsp;&nbsp;&nbsp;&nbsp;&nbsp;&nbsp;&nbsp;&nbsp;&nbsp;&nbsp;&nbsp;&nbsp;&nbsp;&nbsp;&nbsp;&nbsp;&nbsp;&nbsp; FED</p>\n      </div>\n      <meta itemprop='interactionCount' content='UserLikes:0'>\n      <meta itemprop='interactionCount' content='UserComments:0'>\n      <meta itemprop='headline' content='Dopamine Agonist Catastrophic Behaviour - Ultimate (?) Prevention Tool'>\n      <hr>\n  </div>\n\n  <div role='navigation' itemscope itemtype='http://schema.org/SiteNavigationElement'>\n      <span itemprop='name'><b><a rel=\"next\" itemprop=\"url\" href=\"/t/dopamine-agonist-catastrophic-behaviour-ultimate-prevention-tool/8945?page=2\">next page →</a></b></span>\n  </div>\n\n\n\n\n\n    </div>\n    <footer class=\"container\">\n      <nav class='crawler-nav' itemscope itemtype='http://schema.org/SiteNavigationElement'>\n        <a href='/'>Home</a>\n        <a href=\"/categories\">Categories</a>\n        <a href=\"/guidelines\">FAQ/Guidelines</a>\n        <a href=\"/tos\">Terms of Service</a>\n        <a href=\"/privacy\">Privacy Policy</a>\n      </nav>\n      <p class='powered-by-link'>Powered by <a href=\"https://www.discourse.org\">Discourse</a>, best viewed with JavaScript enabled</p>\n    </footer>\n    \n  </body>\n  \n</html>\n",
  "url": "https://forum.parkinsons.org.uk/t/dopamine-agonist-catastrophic-behaviour-ultimate-prevention-tool/8945"
}