{
  "contentId": "350400c0-8865-11e9-8f96-97f71b5221d6",
  "html": "<!DOCTYPE html>\n<html lang=\"en\">\n  <head>\n    <meta charset=\"utf-8\">\n    <title>Dopamine Agonists and catastrophic Obsessive/Compulsive Disorders - Impulsive and compulsive behaviour - Parkinson&#39;s UK Forum</title>\n    <meta name=\"description\" content=\"Hi.  There has been a significant rise recently in the number of new members joining the forum because they or their loved ones have started to show signs of compulsive behaviour - sometimes called &amp;quot;impulse control disor&amp;hellip;\">\n    <meta name=\"author\" content=\"\">\n<meta name=\"generator\" content=\"Discourse 2.2.5 - https://github.com/discourse/discourse version c294ff3609f988dcafb742e91606d60ca13b794d\">\n<link rel=\"icon\" type=\"image/png\" href=\"https://forum.parkinsons.org.uk/uploads/db7928/original/2X/3/311fc84f89f49f38601a2f16b295b6f03d3ce5dd.jpg\">\n<link rel=\"apple-touch-icon\" type=\"image/png\" href=\"https://forum.parkinsons.org.uk/uploads/db7928/original/2X/3/311fc84f89f49f38601a2f16b295b6f03d3ce5dd.jpg\">\n<meta name=\"theme-color\" content=\"#ffffff\">\n<meta name=\"viewport\" content=\"width=device-width, minimum-scale=1.0, maximum-scale=1.0, user-scalable=yes\">\n<link rel=\"canonical\" href=\"https://forum.parkinsons.org.uk/t/dopamine-agonists-and-catastrophic-obsessive-compulsive-disorders/5335?page=33\" />\n<script type=\"application/ld+json\">{\"@context\":\"http://schema.org\",\"@type\":\"WebSite\",\"url\":\"https://forum.parkinsons.org.uk\",\"potentialAction\":{\"@type\":\"SearchAction\",\"target\":\"https://forum.parkinsons.org.uk/search?q={search_term_string}\",\"query-input\":\"required name=search_term_string\"}}</script>\n<link rel=\"search\" type=\"application/opensearchdescription+xml\" href=\"https://forum.parkinsons.org.uk/opensearch.xml\" title=\"Parkinson&#39;s UK Forum Search\">\n\n      <link href=\"/stylesheets/desktop_f99246ae801b083d3e4cca979d0dade8615b39ac.css?__ws=forum.parkinsons.org.uk\" media=\"all\" rel=\"stylesheet\" data-target=\"desktop\" data-theme-id=\"12\"/>\n      <link href=\"/stylesheets/desktop_theme_12_5d27531cf43f9df0c03a6a6ec3109dd05f9dfc49.css?__ws=forum.parkinsons.org.uk\" media=\"all\" rel=\"stylesheet\" data-target=\"desktop_theme\" data-theme-id=\"12\"/>\n    <link href=\"https://fonts.googleapis.com/css?family=Open+Sans\" rel=\"stylesheet\">\n\n    <meta id=\"data-ga-universal-analytics\" data-tracking-code=\"UA-4855628-1\" data-json=\"{&quot;cookieDomain&quot;:&quot;auto&quot;}\" data-auto-link-domains=\"\">\n\n<link rel='preload' href='/assets/google-universal-analytics-f35b4da49411e6f5559073523aab983da483976a3954c79c756f8579f6fbd6ef.js' as='script'/>\n<script src='/assets/google-universal-analytics-f35b4da49411e6f5559073523aab983da483976a3954c79c756f8579f6fbd6ef.js'></script>\n\n      <link rel=\"alternate\" type=\"application/rss+xml\" title=\"RSS feed of &#39;Dopamine Agonists and catastrophic Obsessive/Compulsive Disorders&#39;\" href=\"https://forum.parkinsons.org.uk/t/dopamine-agonists-and-catastrophic-obsessive-compulsive-disorders/5335.rss\" />\n  <meta property=\"og:site_name\" content=\"Parkinson&#39;s UK Forum\" />\n<meta name=\"twitter:card\" content=\"summary\" />\n<meta name=\"twitter:image\" content=\"https://forum.parkinsons.org.uk/uploads/db7928/original/2X/3/311fc84f89f49f38601a2f16b295b6f03d3ce5dd.jpg\" />\n<meta property=\"og:image\" content=\"https://forum.parkinsons.org.uk/uploads/db7928/original/2X/3/311fc84f89f49f38601a2f16b295b6f03d3ce5dd.jpg\" />\n<meta property=\"og:url\" content=\"https://forum.parkinsons.org.uk/t/dopamine-agonists-and-catastrophic-obsessive-compulsive-disorders/5335?page=33\" />\n<meta name=\"twitter:url\" content=\"https://forum.parkinsons.org.uk/t/dopamine-agonists-and-catastrophic-obsessive-compulsive-disorders/5335?page=33\" />\n<meta property=\"og:title\" content=\"Dopamine Agonists and catastrophic Obsessive/Compulsive Disorders\" />\n<meta name=\"twitter:title\" content=\"Dopamine Agonists and catastrophic Obsessive/Compulsive Disorders\" />\n<meta property=\"og:description\" content=\". Good afternoon, Titan.  Increased poetic and creative output are well-documented and relatively commonplace symptoms of DA-induced OCDs.  Please seek help.  RoS. .\" />\n<meta name=\"twitter:description\" content=\". Good afternoon, Titan.  Increased poetic and creative output are well-documented and relatively commonplace symptoms of DA-induced OCDs.  Please seek help.  RoS. .\" />\n<meta name=\"twitter:label1\" value=\"Reading time\" />\n<meta name=\"twitter:data1\" value=\"197 mins \uD83D\uDD51\" />\n<meta name=\"twitter:label2\" value=\"Likes\" />\n<meta name=\"twitter:data2\" value=\"1 ❤\" />\n<meta property=\"article:published_time\" content=\"2011-11-16T12:32:13+00:00\" />\n<meta property=\"og:ignore_canonical\" content=\"true\" />\n\n      <link rel=\"prev\" href=\"/t/dopamine-agonists-and-catastrophic-obsessive-compulsive-disorders/5335?page=32\">\n      <link rel=\"next\" href=\"/t/dopamine-agonists-and-catastrophic-obsessive-compulsive-disorders/5335?page=34\">\n\n\n    \n  </head>\n  <body class=\"crawler\">\n    <header role=\"banner\">\n    <div class=\"region region-header\">\n        <div class=\"region-header-wrapper\">\n            <div id=\"block-parkinsons-d8-branding\" class=\"block block-system block-system-branding-block\">\n                <a href=\"/\" title=\"Home\" rel=\"home\" class=\"site-logo\">\n                    <img src=\"https://forum.parkinsons.org.uk/uploads/db7928/original/2X/8/862bb7d172e7d127e7f3e147ec43594aa62ac945.png\" alt=\"Parkinson's UK. Change Attitudes. Find a cure. Join us.\">\n                </a>\n            </div>\n            <div id=\"block-helpline\" class=\"block block-block-content block-block-content871cd5af-b938-4947-9dc0-d5c211d08fe3 style-phone\">\n                <div class=\"field field--name-field-link field--type-link field--label-hidden field__item\"><a href=\"tel:+448088000303\">Helpline 0808 800 0303</a></div>\n            </div>\n            <div id=\"block-shop\" class=\"block block-block-content block-block-content6fba5ae5-7797-49cd-8367-f321d8111cd6 style-regular\">\n                <div class=\"field field--name-field-link field--type-link field--label-hidden field__item\"><a href=\"https://shop.parkinsons.org.uk\">Shop</a></div>\n            </div>\n        </div>\n    </div>\n</header>\n\n\n<script src=\"/theme-javascripts/b7e9763fcb584fc8265c56a9f557cd6d2e1e8ed8.js?__ws=forum.parkinsons.org.uk\"></script>\n    <header>\n      <a href=\"/\">\n          <img src=\"https://forum.parkinsons.org.uk/uploads/db7928/original/2X/8/862bb7d172e7d127e7f3e147ec43594aa62ac945.png\" alt=\"Parkinson&#39;s UK Forum\" id=\"site-logo\" style=\"max-width: 150px;\">\n      </a>\n    </header>\n    <div id=\"main-outlet\" class=\"wrap\">\n      <h1>\n  <a href=\"/t/dopamine-agonists-and-catastrophic-obsessive-compulsive-disorders/5335\">Dopamine Agonists and catastrophic Obsessive/Compulsive Disorders</a>\n</h1>\n\n<div id='breadcrumbs'>\n    <div id=\"breadcrumb-0\" itemscope itemtype=\"http://data-vocabulary.org/Breadcrumb\"\n        itemref=\"breadcrumb-1\"\n      >\n      <a href=\"/c/about-parkinsons-and-health\" itemprop=\"url\">\n        <span itemprop=\"title\">About Parkinson&#39;s and health</span>\n      </a>\n    </div>\n    <div id=\"breadcrumb-1\" itemscope itemtype=\"http://data-vocabulary.org/Breadcrumb\"\n>\n      <a href=\"/c/about-parkinsons-and-health/impulsive-and-compulsive-behaviour\" itemprop=\"url\">\n        <span itemprop=\"title\">Impulsive and compulsive behaviour</span>\n      </a>\n    </div>\n</div>\n\n\n\n\n\n<hr>\n\n\n  <div itemscope itemtype='http://schema.org/DiscussionForumPosting'>\n      <div class='creator'>\n        <span>\n          <a href='/u/ray_of_sunshine'><b itemprop='author'>ray_of_sunshine</b></a>\n          \n          <time datetime='2011-11-16T12:32:13Z' itemprop='datePublished'>\n            2011-11-16 12:32:13 UTC\n          </time>\n        </span>\n        <span itemprop='position'>#641</span>\n      </div>\n      <div class='post' itemprop='articleBody'>\n        .<br>Good afternoon, Titan.<br><br>Increased poetic and creative output are well-documented and relatively commonplace symptoms of DA-induced OCDs.<br><br>Please seek help.<br><br>RoS.<br>.\n      </div>\n      <meta itemprop='interactionCount' content='UserLikes:0'>\n      <meta itemprop='interactionCount' content='UserComments:0'>\n      <meta itemprop='headline' content='Dopamine Agonists and catastrophic Obsessive/Compulsive Disorders'>\n      <hr>\n  </div>\n  <div itemscope itemtype='http://schema.org/DiscussionForumPosting'>\n      <div class='creator'>\n        <span>\n          <a href='/u/Tim'><b itemprop='author'>Tim</b></a>\n          \n          <time datetime='2011-11-16T15:28:29Z' itemprop='datePublished'>\n            2011-11-16 15:28:29 UTC\n          </time>\n        </span>\n        <span itemprop='position'>#642</span>\n      </div>\n      <div class='post' itemprop='articleBody'>\n        The Parkinson's UK website has been updated with full details of the awareness campaign on Impulsive and compulsive behaviour  <br><br>You can find the link here<br><br><a href=\"http://www.parkinsons.org.uk/about_us/news/news_items/all_news/ic_behaviour_campaign_update.aspx\" target=\"_blank\">http://www.parkinsons.org.uk/about_us/news/news_items/all_news/ic_behaviour_campaign_update.aspx</a><br><br>Tim\n      </div>\n      <meta itemprop='interactionCount' content='UserLikes:0'>\n      <meta itemprop='interactionCount' content='UserComments:0'>\n      <meta itemprop='headline' content='Dopamine Agonists and catastrophic Obsessive/Compulsive Disorders'>\n      <hr>\n  </div>\n  <div itemscope itemtype='http://schema.org/DiscussionForumPosting'>\n      <div class='creator'>\n        <span>\n          <a href='/u/ray_of_sunshine'><b itemprop='author'>ray_of_sunshine</b></a>\n          \n          <time datetime='2011-11-16T15:52:27Z' itemprop='datePublished'>\n            2011-11-16 15:52:27 UTC\n          </time>\n        </span>\n        <span itemprop='position'>#643</span>\n      </div>\n      <div class='post' itemprop='articleBody'>\n        Thanks, Tim. Great to see good progress being made.<br><br>RoS.\n      </div>\n      <meta itemprop='interactionCount' content='UserLikes:0'>\n      <meta itemprop='interactionCount' content='UserComments:0'>\n      <meta itemprop='headline' content='Dopamine Agonists and catastrophic Obsessive/Compulsive Disorders'>\n      <hr>\n  </div>\n  <div itemscope itemtype='http://schema.org/DiscussionForumPosting'>\n      <div class='creator'>\n        <span>\n          <a href='/u/ray_of_sunshine'><b itemprop='author'>ray_of_sunshine</b></a>\n          \n          <time datetime='2011-11-17T05:33:56Z' itemprop='datePublished'>\n            2011-11-17 05:33:56 UTC\n          </time>\n        </span>\n        <span itemprop='position'>#644</span>\n      </div>\n      <div class='post' itemprop='articleBody'>\n        .<br>To Pop1:<br><br>Hi. Following your lack of success in the courts (as per your posts of 23/24 October), I wish you every success in your approach to, and recent discussions with, your MP.<br><br>If you can, could you please keep us updated as to progress?<br><br>Thanks,<br><br>RoS.<br>.\n      </div>\n      <meta itemprop='interactionCount' content='UserLikes:0'>\n      <meta itemprop='interactionCount' content='UserComments:0'>\n      <meta itemprop='headline' content='Dopamine Agonists and catastrophic Obsessive/Compulsive Disorders'>\n      <hr>\n  </div>\n  <div itemscope itemtype='http://schema.org/DiscussionForumPosting'>\n      <div class='creator'>\n        <span>\n          <a href='/u/Eck'><b itemprop='author'>Eck</b></a>\n          \n          <time datetime='2011-11-17T09:47:49Z' itemprop='datePublished'>\n            2011-11-17 09:47:49 UTC\n          </time>\n        </span>\n        <span itemprop='position'>#645</span>\n      </div>\n      <div class='post' itemprop='articleBody'>\n        Well I've been told \"tough doo doos.\".<br><br>It was put more politely than that to be fair.<br><br>Because I was taken off meds by savvy neuro in 2006.  I'm time barred  Something like that. <br><br>I tried begging letters to creditors.  Nothing doing with them either,  Just got a reminder about how much I owed.  Not even a picture of Santa.<br><br>In my condition I shouldn't have this stress, resort to begging, having to go to MP's/solicitors/Citizens Advice.<br><br>Well I have woken up to \"tough doo doos\",  what is some more over the phone or through the door?<br><br>And all the while the perpetrator to all my torment stays ominously silent through it all, watching ... just watching.\n      </div>\n      <meta itemprop='interactionCount' content='UserLikes:0'>\n      <meta itemprop='interactionCount' content='UserComments:0'>\n      <meta itemprop='headline' content='Dopamine Agonists and catastrophic Obsessive/Compulsive Disorders'>\n      <hr>\n  </div>\n  <div itemscope itemtype='http://schema.org/DiscussionForumPosting'>\n      <div class='creator'>\n        <span>\n          <a href='/u/pop1'><b itemprop='author'>pop1</b></a>\n          \n          <time datetime='2011-11-22T18:03:36Z' itemprop='datePublished'>\n            2011-11-22 18:03:36 UTC\n          </time>\n        </span>\n        <span itemprop='position'>#646</span>\n      </div>\n      <div class='post' itemprop='articleBody'>\n        Hi all<br>The reason why my husband lost his case, is because the chemist did not keep records of the  pharmaceutical company’s name that supplied his medication. <br>He took Pergolide from 1998 to the end  of 2005. They put a warning on the patient information leaflet. that the Pergolide was connected to compulsive behaviour in 2006<br>The chemist put the name of the drug. Pergolide and its dosage on his records. He took 1mg at first then 4 mg over the duration of the next 7 years. <br>We had one box, 6 empty blister pack's and a patient information leaflet which did not contain  any  warning's that it could cause compulsive behaviour. If we would have had more boxes. we would  have had a stronger case,<br>The name on the box is Dr Reddy and the patient information leaflet named TEVA as the manufacturer of the Pergolide, <br>I spoke to the MHRA to ask why the chemist does not have to put the name of the pharmaceutical<br>companies name on patients records, they refereed me to the GPC. who said “they are not do not have to put the pharmaceutical company’s name on the records,  its not a  requirement they have to do. They refereed me back to MHRA. It is obvious that NO ONE will take responsibility for this action.<br><br>pop1\n      </div>\n      <meta itemprop='interactionCount' content='UserLikes:0'>\n      <meta itemprop='interactionCount' content='UserComments:0'>\n      <meta itemprop='headline' content='Dopamine Agonists and catastrophic Obsessive/Compulsive Disorders'>\n      <hr>\n  </div>\n  <div itemscope itemtype='http://schema.org/DiscussionForumPosting'>\n      <div class='creator'>\n        <span>\n          <a href='/u/ray_of_sunshine'><b itemprop='author'>ray_of_sunshine</b></a>\n          \n          <time datetime='2011-12-16T00:55:13Z' itemprop='datePublished'>\n            2011-12-16 00:55:13 UTC\n          </time>\n        </span>\n        <span itemprop='position'>#647</span>\n      </div>\n      <div class='post' itemprop='articleBody'>\n        For those who have enquired, I have offered my services to PUK as an Ambassador, but nothing is likely to happen until the New Year.<br><br>Regards.\n      </div>\n      <meta itemprop='interactionCount' content='UserLikes:0'>\n      <meta itemprop='interactionCount' content='UserComments:0'>\n      <meta itemprop='headline' content='Dopamine Agonists and catastrophic Obsessive/Compulsive Disorders'>\n      <hr>\n  </div>\n  <div itemscope itemtype='http://schema.org/DiscussionForumPosting'>\n      <div class='creator'>\n        <span>\n          <a href='/u/ali_j'><b itemprop='author'>ali_j</b></a>\n          \n          <time datetime='2011-12-16T07:36:43Z' itemprop='datePublished'>\n            2011-12-16 07:36:43 UTC\n          </time>\n        </span>\n        <span itemprop='position'>#648</span>\n      </div>\n      <div class='post' itemprop='articleBody'>\n        last year i was on lot of mirapexon<img src='/images/emoji/emoji_one/rolling_eyes.png?v=3' alt=':rolling_eyes:' title=':rolling_eyes:' class='emoji' />now im on 3 ,i feel in my self my pd is well kinda helped,but my emoutions are terrible,i cry so much ,have done for weeks,when i say cry ,i cry and cry .everythin seems to upset me.im on 2 antidepresernts,have been for bout 9 months now,so im not depressed,i no that.i just can not put me finger on the point wot is rong <img src='/images/emoji/emoji_one/rolling_eyes.png?v=3' alt=':rolling_eyes:' title=':rolling_eyes:' class='emoji' />\n      </div>\n      <meta itemprop='interactionCount' content='UserLikes:0'>\n      <meta itemprop='interactionCount' content='UserComments:0'>\n      <meta itemprop='headline' content='Dopamine Agonists and catastrophic Obsessive/Compulsive Disorders'>\n      <hr>\n  </div>\n  <div itemscope itemtype='http://schema.org/DiscussionForumPosting'>\n      <div class='creator'>\n        <span>\n          <a href='/u/ray_of_sunshine'><b itemprop='author'>ray_of_sunshine</b></a>\n          \n          <time datetime='2011-12-16T07:52:16Z' itemprop='datePublished'>\n            2011-12-16 07:52:16 UTC\n          </time>\n        </span>\n        <span itemprop='position'>#649</span>\n      </div>\n      <div class='post' itemprop='articleBody'>\n        This thread is specifically about catastrrophic OCDs.\n      </div>\n      <meta itemprop='interactionCount' content='UserLikes:0'>\n      <meta itemprop='interactionCount' content='UserComments:0'>\n      <meta itemprop='headline' content='Dopamine Agonists and catastrophic Obsessive/Compulsive Disorders'>\n      <hr>\n  </div>\n  <div itemscope itemtype='http://schema.org/DiscussionForumPosting'>\n      <div class='creator'>\n        <span>\n          <a href='/u/ali_j'><b itemprop='author'>ali_j</b></a>\n          \n          <time datetime='2011-12-16T09:19:06Z' itemprop='datePublished'>\n            2011-12-16 09:19:06 UTC\n          </time>\n        </span>\n        <span itemprop='position'>#650</span>\n      </div>\n      <div class='post' itemprop='articleBody'>\n        ino it is,and im on mirpexon and that is a da as u no,im tryin to ask if anyone is expercin simular problems wot happinin to me,and if so do they think the da has any part in the fact i feel like i do now?i dont feel ive rote on the rong thread at all,after all this is about das and im on them<img src='/images/emoji/emoji_one/smile.png?v=3' alt=':smile:' title=':smile:' class='emoji' />\n      </div>\n      <meta itemprop='interactionCount' content='UserLikes:0'>\n      <meta itemprop='interactionCount' content='UserComments:0'>\n      <meta itemprop='headline' content='Dopamine Agonists and catastrophic Obsessive/Compulsive Disorders'>\n      <hr>\n  </div>\n  <div itemscope itemtype='http://schema.org/DiscussionForumPosting'>\n      <div class='creator'>\n        <span>\n          <a href='/u/ray_of_sunshine'><b itemprop='author'>ray_of_sunshine</b></a>\n          \n          <time datetime='2011-12-16T15:22:12Z' itemprop='datePublished'>\n            2011-12-16 15:22:12 UTC\n          </time>\n        </span>\n        <span itemprop='position'>#651</span>\n      </div>\n      <div class='post' itemprop='articleBody'>\n        Well it's not just about DAs, it's about the unlucky few who suffer from catastrophic obsessive/compulsive disorders.<br><br>We know that at least 1 in 4 patients who are prescribed DAs will experience OCDs <em>to some degree</em>, but how many of that 24% have their lives totally ruined and all their assets and savings wiped out, with hundreds of thousands of pounds of debts outstanding, we have no idea.<br><br>What I am sure of is that your case doesn't fit that group.<br>.\n      </div>\n      <meta itemprop='interactionCount' content='UserLikes:0'>\n      <meta itemprop='interactionCount' content='UserComments:0'>\n      <meta itemprop='headline' content='Dopamine Agonists and catastrophic Obsessive/Compulsive Disorders'>\n      <hr>\n  </div>\n  <div itemscope itemtype='http://schema.org/DiscussionForumPosting'>\n      <div class='creator'>\n        <span>\n          <a href='/u/bubble_x'><b itemprop='author'>bubble_x</b></a>\n          \n          <time datetime='2011-12-17T12:17:28Z' itemprop='datePublished'>\n            2011-12-17 12:17:28 UTC\n          </time>\n        </span>\n        <span itemprop='position'>#652</span>\n      </div>\n      <div class='post' itemprop='articleBody'>\n        ROS how petty.<br><br>Ali if your crying is devastating to you of course you should post on yhis thread.<br><br>Take care x\n      </div>\n      <meta itemprop='interactionCount' content='UserLikes:0'>\n      <meta itemprop='interactionCount' content='UserComments:0'>\n      <meta itemprop='headline' content='Dopamine Agonists and catastrophic Obsessive/Compulsive Disorders'>\n      <hr>\n  </div>\n  <div itemscope itemtype='http://schema.org/DiscussionForumPosting'>\n      <div class='creator'>\n        <span>\n          <a href='/u/ray_of_sunshine'><b itemprop='author'>ray_of_sunshine</b></a>\n          \n          <time datetime='2011-12-17T12:51:02Z' itemprop='datePublished'>\n            2011-12-17 12:51:02 UTC\n          </time>\n        </span>\n        <span itemprop='position'>#653</span>\n      </div>\n      <div class='post' itemprop='articleBody'>\n        Bubble, for your info I've spent nearly all of my waking and lucid time over the last few weeks talking (elsewhere) to Ali, as several others will confirm.<br><br>If you look back at postings over the last couple of years you'll find that I've been solidly behind her, fighting her corner in the thick of it when she's been misunderstood.<br><br>Her current problems are unrelated to OCDs, and if she posts on this thread she won't get the support she needs.\n      </div>\n      <meta itemprop='interactionCount' content='UserLikes:0'>\n      <meta itemprop='interactionCount' content='UserComments:0'>\n      <meta itemprop='headline' content='Dopamine Agonists and catastrophic Obsessive/Compulsive Disorders'>\n      <hr>\n  </div>\n  <div itemscope itemtype='http://schema.org/DiscussionForumPosting'>\n      <div class='creator'>\n        <span>\n          <a href='/u/ali_j'><b itemprop='author'>ali_j</b></a>\n          \n          <time datetime='2011-12-17T13:10:48Z' itemprop='datePublished'>\n            2011-12-17 13:10:48 UTC\n          </time>\n        </span>\n        <span itemprop='position'>#654</span>\n      </div>\n      <div class='post' itemprop='articleBody'>\n        ray ,please leave me alone,my prob i have is with my das,my mirpexon.and that im very low as well,bit of mixture,so i do need some help,and ive come to the correct thread to ask about my mirpxon.like i said i was on quite a few before,now on 3 ,but i still wonderin if this can be makin me feel like i do ,it hard to explain really .i also have voices in my head which does not help the prob,i wonted to no if this was a concern to the drug also<img src='/images/emoji/emoji_one/confused.png?v=3' alt=':confused:' title=':confused:' class='emoji' />\n      </div>\n      <meta itemprop='interactionCount' content='UserLikes:0'>\n      <meta itemprop='interactionCount' content='UserComments:0'>\n      <meta itemprop='headline' content='Dopamine Agonists and catastrophic Obsessive/Compulsive Disorders'>\n      <hr>\n  </div>\n  <div itemscope itemtype='http://schema.org/DiscussionForumPosting'>\n      <div class='creator'>\n        <span>\n          <a href='/u/ray_of_sunshine'><b itemprop='author'>ray_of_sunshine</b></a>\n          \n          <time datetime='2011-12-17T13:43:53Z' itemprop='datePublished'>\n            2011-12-17 13:43:53 UTC\n          </time>\n        </span>\n        <span itemprop='position'>#655</span>\n      </div>\n      <div class='post' itemprop='articleBody'>\n        Please see your doctors ASAP, Ali.\n      </div>\n      <meta itemprop='interactionCount' content='UserLikes:0'>\n      <meta itemprop='interactionCount' content='UserComments:0'>\n      <meta itemprop='headline' content='Dopamine Agonists and catastrophic Obsessive/Compulsive Disorders'>\n      <hr>\n  </div>\n  <div itemscope itemtype='http://schema.org/DiscussionForumPosting'>\n      <div class='creator'>\n        <span>\n          <a href='/u/ali_j'><b itemprop='author'>ali_j</b></a>\n          \n          <time datetime='2011-12-17T14:44:03Z' itemprop='datePublished'>\n            2011-12-17 14:44:03 UTC\n          </time>\n        </span>\n        <span itemprop='position'>#656</span>\n      </div>\n      <div class='post' itemprop='articleBody'>\n        ive spokern to my dr,ray ,and i would like to no if other members on this forum ,people who have posted on this thread have had these probs that iam havin ,so please could u let people tell me please and let them speak so it helps me out,if others are havin same as me i would like them to explain wot helps them so i could help me self.thankyou<img src='/images/emoji/emoji_one/smile.png?v=3' alt=':smile:' title=':smile:' class='emoji' />\n      </div>\n      <meta itemprop='interactionCount' content='UserLikes:0'>\n      <meta itemprop='interactionCount' content='UserComments:0'>\n      <meta itemprop='headline' content='Dopamine Agonists and catastrophic Obsessive/Compulsive Disorders'>\n      <hr>\n  </div>\n  <div itemscope itemtype='http://schema.org/DiscussionForumPosting'>\n      <div class='creator'>\n        <span>\n          <a href='/u/ray_of_sunshine'><b itemprop='author'>ray_of_sunshine</b></a>\n          \n          <time datetime='2011-12-17T15:05:37Z' itemprop='datePublished'>\n            2011-12-17 15:05:37 UTC\n          </time>\n        </span>\n        <span itemprop='position'>#657</span>\n      </div>\n      <div class='post' itemprop='articleBody'>\n        Hi again Ali.<br><br>The point I'm trying to make is that this thread is mainly used by DA patients who have been through really catastrophic, life-destroying OCDs. Not folk who are likely to be much help to you.<br><br>Your problems deserve their own thread within \"Treatments\".<br>.\n      </div>\n      <meta itemprop='interactionCount' content='UserLikes:0'>\n      <meta itemprop='interactionCount' content='UserComments:0'>\n      <meta itemprop='headline' content='Dopamine Agonists and catastrophic Obsessive/Compulsive Disorders'>\n      <hr>\n  </div>\n  <div itemscope itemtype='http://schema.org/DiscussionForumPosting'>\n      <div class='creator'>\n        <span>\n          <a href='/u/ali_j'><b itemprop='author'>ali_j</b></a>\n          \n          <time datetime='2011-12-17T17:26:35Z' itemprop='datePublished'>\n            2011-12-17 17:26:35 UTC\n          </time>\n        </span>\n        <span itemprop='position'>#658</span>\n      </div>\n      <div class='post' itemprop='articleBody'>\n        ive beeen through it and am agin ray ,and need help as much as others do this is why im askin for help,dont worry i wont post agin i can see u got aprob with me,im tryin thats all,to ask members and ask for help,sorry<img src='/images/emoji/emoji_one/disappointed.png?v=3' alt=':disappointed:' title=':disappointed:' class='emoji' />\n      </div>\n      <meta itemprop='interactionCount' content='UserLikes:0'>\n      <meta itemprop='interactionCount' content='UserComments:0'>\n      <meta itemprop='headline' content='Dopamine Agonists and catastrophic Obsessive/Compulsive Disorders'>\n      <hr>\n  </div>\n  <div itemscope itemtype='http://schema.org/DiscussionForumPosting'>\n      <div class='creator'>\n        <span>\n          <a href='/u/deleted.user'><b itemprop='author'>deleted.user</b></a>\n          \n          <time datetime='2011-12-17T19:37:01Z' itemprop='datePublished'>\n            2011-12-17 19:37:01 UTC\n          </time>\n        </span>\n        <span itemprop='position'>#659</span>\n      </div>\n      <div class='post' itemprop='articleBody'>\n        Ali ....just post wherever you feel is comfortable for YOU, That means in this thread or any other thread, the only person/persons who are here to judge whether your post is in the wrong place are the Mods.<br><br>Have you got all your Xmas shopping done yet and written your Xmas wish list for Santa ? <img src='/images/emoji/emoji_one/grin.png?v=3' alt=':grin:' title=':grin:' class='emoji' />\n      </div>\n      <meta itemprop='interactionCount' content='UserLikes:0'>\n      <meta itemprop='interactionCount' content='UserComments:0'>\n      <meta itemprop='headline' content='Dopamine Agonists and catastrophic Obsessive/Compulsive Disorders'>\n      <hr>\n  </div>\n  <div itemscope itemtype='http://schema.org/DiscussionForumPosting'>\n      <div class='creator'>\n        <span>\n          <a href='/u/ali_j'><b itemprop='author'>ali_j</b></a>\n          \n          <time datetime='2011-12-17T19:55:15Z' itemprop='datePublished'>\n            2011-12-17 19:55:15 UTC\n          </time>\n        </span>\n        <span itemprop='position'>#660</span>\n      </div>\n      <div class='post' itemprop='articleBody'>\n        thankyou<img src='/images/emoji/emoji_one/smile.png?v=3' alt=':smile:' title=':smile:' class='emoji' />ive not got them all yet,been poorly ,but im neally there havin help by bec,and me carer helped alot,and i really grateful to them .hope you all sorted out for xmas.x<img src='/images/emoji/emoji_one/smile.png?v=3' alt=':smile:' title=':smile:' class='emoji' />\n      </div>\n      <meta itemprop='interactionCount' content='UserLikes:0'>\n      <meta itemprop='interactionCount' content='UserComments:0'>\n      <meta itemprop='headline' content='Dopamine Agonists and catastrophic Obsessive/Compulsive Disorders'>\n      <hr>\n  </div>\n\n  <div role='navigation' itemscope itemtype='http://schema.org/SiteNavigationElement'>\n      <span itemprop='name'><a rel=\"prev\" itemprop=\"url\" href=\"/t/dopamine-agonists-and-catastrophic-obsessive-compulsive-disorders/5335?page=32\">← previous page</a></span>\n      <span itemprop='name'><b><a rel=\"next\" itemprop=\"url\" href=\"/t/dopamine-agonists-and-catastrophic-obsessive-compulsive-disorders/5335?page=34\">next page →</a></b></span>\n  </div>\n\n\n\n\n\n    </div>\n    <footer class=\"container\">\n      <nav class='crawler-nav' itemscope itemtype='http://schema.org/SiteNavigationElement'>\n        <a href='/'>Home</a>\n        <a href=\"/categories\">Categories</a>\n        <a href=\"/guidelines\">FAQ/Guidelines</a>\n        <a href=\"/tos\">Terms of Service</a>\n        <a href=\"/privacy\">Privacy Policy</a>\n      </nav>\n      <p class='powered-by-link'>Powered by <a href=\"https://www.discourse.org\">Discourse</a>, best viewed with JavaScript enabled</p>\n    </footer>\n    \n  </body>\n  \n</html>\n",
  "url": "https://forum.parkinsons.org.uk/t/dopamine-agonists-and-catastrophic-obsessive-compulsive-disorders/5335?page=33"
}