{
  "contentId": "71011230-8869-11e9-8f96-97f71b5221d6",
  "html": "<!DOCTYPE html>\n<html lang=\"en\">\n  <head>\n    <meta charset=\"utf-8\">\n    <title>Guitar playing with Parkinson&#39;s Disease - Introductions and personal stories - Parkinson&#39;s UK Forum</title>\n    <meta name=\"description\" content=\"Hello, my name Tom. I am 66 years old and Parkinsons has been with me for the past 5 of my life’s journey, at least from the point of view of diagnosis!. It started with a two-fingered twitch when stressed and has become&amp;hellip;\">\n    <meta name=\"author\" content=\"\">\n<meta name=\"generator\" content=\"Discourse 2.2.5 - https://github.com/discourse/discourse version c294ff3609f988dcafb742e91606d60ca13b794d\">\n<link rel=\"icon\" type=\"image/png\" href=\"https://forum.parkinsons.org.uk/uploads/db7928/original/2X/3/311fc84f89f49f38601a2f16b295b6f03d3ce5dd.jpg\">\n<link rel=\"apple-touch-icon\" type=\"image/png\" href=\"https://forum.parkinsons.org.uk/uploads/db7928/original/2X/3/311fc84f89f49f38601a2f16b295b6f03d3ce5dd.jpg\">\n<meta name=\"theme-color\" content=\"#ffffff\">\n<meta name=\"viewport\" content=\"width=device-width, minimum-scale=1.0, maximum-scale=1.0, user-scalable=yes\">\n<link rel=\"canonical\" href=\"https://forum.parkinsons.org.uk/t/guitar-playing-with-parkinsons-disease/16149\" />\n<script type=\"application/ld+json\">{\"@context\":\"http://schema.org\",\"@type\":\"WebSite\",\"url\":\"https://forum.parkinsons.org.uk\",\"potentialAction\":{\"@type\":\"SearchAction\",\"target\":\"https://forum.parkinsons.org.uk/search?q={search_term_string}\",\"query-input\":\"required name=search_term_string\"}}</script>\n<link rel=\"search\" type=\"application/opensearchdescription+xml\" href=\"https://forum.parkinsons.org.uk/opensearch.xml\" title=\"Parkinson&#39;s UK Forum Search\">\n\n      <link href=\"/stylesheets/desktop_f99246ae801b083d3e4cca979d0dade8615b39ac.css?__ws=forum.parkinsons.org.uk\" media=\"all\" rel=\"stylesheet\" data-target=\"desktop\" data-theme-id=\"12\"/>\n      <link href=\"/stylesheets/desktop_theme_12_5d27531cf43f9df0c03a6a6ec3109dd05f9dfc49.css?__ws=forum.parkinsons.org.uk\" media=\"all\" rel=\"stylesheet\" data-target=\"desktop_theme\" data-theme-id=\"12\"/>\n    <link href=\"https://fonts.googleapis.com/css?family=Open+Sans\" rel=\"stylesheet\">\n\n    <meta id=\"data-ga-universal-analytics\" data-tracking-code=\"UA-4855628-1\" data-json=\"{&quot;cookieDomain&quot;:&quot;auto&quot;}\" data-auto-link-domains=\"\">\n\n<link rel='preload' href='/assets/google-universal-analytics-f35b4da49411e6f5559073523aab983da483976a3954c79c756f8579f6fbd6ef.js' as='script'/>\n<script src='/assets/google-universal-analytics-f35b4da49411e6f5559073523aab983da483976a3954c79c756f8579f6fbd6ef.js'></script>\n\n      <link rel=\"alternate\" type=\"application/rss+xml\" title=\"RSS feed of &#39;Guitar playing with Parkinson&#39;s Disease&#39;\" href=\"https://forum.parkinsons.org.uk/t/guitar-playing-with-parkinsons-disease/16149.rss\" />\n  <meta property=\"og:site_name\" content=\"Parkinson&#39;s UK Forum\" />\n<meta name=\"twitter:card\" content=\"summary\" />\n<meta name=\"twitter:image\" content=\"https://forum.parkinsons.org.uk/uploads/db7928/original/2X/3/311fc84f89f49f38601a2f16b295b6f03d3ce5dd.jpg\" />\n<meta property=\"og:image\" content=\"https://forum.parkinsons.org.uk/uploads/db7928/original/2X/3/311fc84f89f49f38601a2f16b295b6f03d3ce5dd.jpg\" />\n<meta property=\"og:url\" content=\"https://forum.parkinsons.org.uk/t/guitar-playing-with-parkinsons-disease/16149\" />\n<meta name=\"twitter:url\" content=\"https://forum.parkinsons.org.uk/t/guitar-playing-with-parkinsons-disease/16149\" />\n<meta property=\"og:title\" content=\"Guitar playing with Parkinson&#39;s Disease\" />\n<meta name=\"twitter:title\" content=\"Guitar playing with Parkinson&#39;s Disease\" />\n<meta property=\"og:description\" content=\"Hello, my name Tom. I am 66 years old and Parkinsons has been with me for the past 5 of my life’s journey, at least from the point of view of diagnosis!. It started with a two-fingered twitch when stressed and has become a right sided tremor coupled with occasional speech problems.  As a guitar player, PD has robbed me of my right hand strumming and finger picking skills whereas my left hand holds down chords and does all the skillful things expected of it. My medication at the present time is R...\" />\n<meta name=\"twitter:description\" content=\"Hello, my name Tom. I am 66 years old and Parkinsons has been with me for the past 5 of my life’s journey, at least from the point of view of diagnosis!. It started with a two-fingered twitch when stressed and has become a right sided tremor coupled with occasional speech problems.  As a guitar player, PD has robbed me of my right hand strumming and finger picking skills whereas my left hand holds down chords and does all the skillful things expected of it. My medication at the present time is R...\" />\n<meta property=\"article:published_time\" content=\"2018-10-14T22:08:54+00:00\" />\n<meta property=\"og:ignore_canonical\" content=\"true\" />\n\n      <link rel=\"next\" href=\"/t/guitar-playing-with-parkinsons-disease/16149?page=2\">\n\n\n    \n  </head>\n  <body class=\"crawler\">\n    <header role=\"banner\">\n    <div class=\"region region-header\">\n        <div class=\"region-header-wrapper\">\n            <div id=\"block-parkinsons-d8-branding\" class=\"block block-system block-system-branding-block\">\n                <a href=\"/\" title=\"Home\" rel=\"home\" class=\"site-logo\">\n                    <img src=\"https://forum.parkinsons.org.uk/uploads/db7928/original/2X/8/862bb7d172e7d127e7f3e147ec43594aa62ac945.png\" alt=\"Parkinson's UK. Change Attitudes. Find a cure. Join us.\">\n                </a>\n            </div>\n            <div id=\"block-helpline\" class=\"block block-block-content block-block-content871cd5af-b938-4947-9dc0-d5c211d08fe3 style-phone\">\n                <div class=\"field field--name-field-link field--type-link field--label-hidden field__item\"><a href=\"tel:+448088000303\">Helpline 0808 800 0303</a></div>\n            </div>\n            <div id=\"block-shop\" class=\"block block-block-content block-block-content6fba5ae5-7797-49cd-8367-f321d8111cd6 style-regular\">\n                <div class=\"field field--name-field-link field--type-link field--label-hidden field__item\"><a href=\"https://shop.parkinsons.org.uk\">Shop</a></div>\n            </div>\n        </div>\n    </div>\n</header>\n\n\n<script src=\"/theme-javascripts/b7e9763fcb584fc8265c56a9f557cd6d2e1e8ed8.js?__ws=forum.parkinsons.org.uk\"></script>\n    <header>\n      <a href=\"/\">\n          <img src=\"https://forum.parkinsons.org.uk/uploads/db7928/original/2X/8/862bb7d172e7d127e7f3e147ec43594aa62ac945.png\" alt=\"Parkinson&#39;s UK Forum\" id=\"site-logo\" style=\"max-width: 150px;\">\n      </a>\n    </header>\n    <div id=\"main-outlet\" class=\"wrap\">\n      <h1>\n  <a href=\"/t/guitar-playing-with-parkinsons-disease/16149\">Guitar playing with Parkinson&#39;s Disease</a>\n</h1>\n\n<div id='breadcrumbs'>\n    <div id=\"breadcrumb-0\" itemscope itemtype=\"http://data-vocabulary.org/Breadcrumb\"\n        itemref=\"breadcrumb-1\"\n      >\n      <a href=\"/c/about-me\" itemprop=\"url\">\n        <span itemprop=\"title\">About me</span>\n      </a>\n    </div>\n    <div id=\"breadcrumb-1\" itemscope itemtype=\"http://data-vocabulary.org/Breadcrumb\"\n>\n      <a href=\"/c/about-me/introductions-and-personal-stories\" itemprop=\"url\">\n        <span itemprop=\"title\">Introductions and personal stories</span>\n      </a>\n    </div>\n</div>\n\n\n\n\n\n<hr>\n\n\n  <div itemscope itemtype='http://schema.org/DiscussionForumPosting'>\n      <div class='creator'>\n        <span>\n          <a href='/u/Detectom'><b itemprop='author'>Detectom</b></a>\n          \n          <time datetime='2018-10-14T22:08:54Z' itemprop='datePublished'>\n            2018-10-14 22:08:54 UTC\n          </time>\n        </span>\n        <span itemprop='position'>#1</span>\n      </div>\n      <div class='post' itemprop='articleBody'>\n        <p>Hello, my name Tom. I am 66 years old and Parkinsons has been with me for the past 5 of my life’s journey, at least from the point of view of diagnosis!. It started with a two-fingered twitch when stressed and has become a right sided tremor coupled with occasional speech problems.</p>\n<p>As a guitar player, PD has robbed me of my right hand strumming and finger picking skills whereas my left hand holds down chords and does all the skillful things expected of it. My medication at the present time is Rasagiline and Pramipexole. These days, I can cry at the drop of a hat and find it hard to converse face to face though I am totally lucid on the inside and I communicate via the keyboard for hours at a time!</p>\n<p>How do I see “my” PD?..all things considered, I feel that 5 years down the line, I could be a lot worse off. If my body is a machine, then my conveyor belt is broken!</p>\n      </div>\n      <meta itemprop='interactionCount' content='UserLikes:0'>\n      <meta itemprop='interactionCount' content='UserComments:0'>\n      <meta itemprop='headline' content='Guitar playing with Parkinson&#39;s Disease'>\n      <hr>\n  </div>\n  <div itemscope itemtype='http://schema.org/DiscussionForumPosting'>\n      <div class='creator'>\n        <span>\n          <a href='/u/MauriceUK1'><b itemprop='author'>MauriceUK1</b></a>\n          \n          <time datetime='2018-10-15T20:37:17Z' itemprop='datePublished'>\n            2018-10-15 20:37:17 UTC\n          </time>\n        </span>\n        <span itemprop='position'>#2</span>\n      </div>\n      <div class='post' itemprop='articleBody'>\n        <p>Hi , I play guitar too … was profesional … Parkinsons has made it hard to continue as I was … only a year and a  half into this but … my picking is slower and my right hand  dexterity much less … I strum my songs …no meds for me just now… I write songs … performed last at an open mic yesterday and stopped the room … dont give up … I’m not … not yet any way <img src=\"https://forum.parkinsons.org.uk/images/emoji/twitter/wink.png?v=6\" title=\":wink:\" class=\"emoji\" alt=\":wink:\"></p>\n      </div>\n      <meta itemprop='interactionCount' content='UserLikes:0'>\n      <meta itemprop='interactionCount' content='UserComments:2'>\n      <meta itemprop='headline' content='Guitar playing with Parkinson&#39;s Disease'>\n      <hr>\n  </div>\n  <div itemscope itemtype='http://schema.org/DiscussionForumPosting'>\n      <div class='creator'>\n        <span>\n          <a href='/u/Detectom'><b itemprop='author'>Detectom</b></a>\n          \n          <time datetime='2018-10-16T15:05:45Z' itemprop='datePublished'>\n            2018-10-16 15:05:45 UTC\n          </time>\n        </span>\n        <span itemprop='position'>#3</span>\n      </div>\n      <div class='post' itemprop='articleBody'>\n        <p>Hi Maurice, I think the same thing applies to piano playing etc-in fact anyone who plays an instrument is blighted by PD. Keep up the good work of pleasing audiences and all the best to you\uD83D\uDC4D</p>\n      </div>\n      <meta itemprop='interactionCount' content='UserLikes:0'>\n      <meta itemprop='interactionCount' content='UserComments:1'>\n      <meta itemprop='headline' content='Guitar playing with Parkinson&#39;s Disease'>\n      <hr>\n  </div>\n  <div itemscope itemtype='http://schema.org/DiscussionForumPosting'>\n      <div class='creator'>\n        <span>\n          <a href='/u/MauriceUK1'><b itemprop='author'>MauriceUK1</b></a>\n          \n          <time datetime='2018-10-17T03:11:23Z' itemprop='datePublished'>\n            2018-10-17 03:11:23 UTC\n          </time>\n        </span>\n        <span itemprop='position'>#4</span>\n      </div>\n      <div class='post' itemprop='articleBody'>\n        <p>Hi, thanks for your kind wishes… all the best to you …</p>\n      </div>\n      <meta itemprop='interactionCount' content='UserLikes:0'>\n      <meta itemprop='interactionCount' content='UserComments:0'>\n      <meta itemprop='headline' content='Guitar playing with Parkinson&#39;s Disease'>\n      <hr>\n  </div>\n  <div itemscope itemtype='http://schema.org/DiscussionForumPosting'>\n      <div class='creator'>\n        <span>\n          <a href='/u/prentonboy'><b itemprop='author'>prentonboy</b></a>\n          \n          <time datetime='2018-10-21T12:16:51Z' itemprop='datePublished'>\n            2018-10-21 12:16:51 UTC\n          </time>\n        </span>\n        <span itemprop='position'>#5</span>\n      </div>\n      <div class='post' itemprop='articleBody'>\n        <p>Hi I play keyboard and guitar. I have been diagnosed for over 2 years. At 1st I was just missing notes but now I have difficulty stopping my thumb shaking in the left hand.Makes it difficult to play at all. Nurse said I must carry on as it helps control Parkinsons</p>\n      </div>\n      <meta itemprop='interactionCount' content='UserLikes:0'>\n      <meta itemprop='interactionCount' content='UserComments:1'>\n      <meta itemprop='headline' content='Guitar playing with Parkinson&#39;s Disease'>\n      <hr>\n  </div>\n  <div itemscope itemtype='http://schema.org/DiscussionForumPosting'>\n      <div class='creator'>\n        <span>\n          <a href='/u/Detectom'><b itemprop='author'>Detectom</b></a>\n          \n          <time datetime='2018-10-21T20:26:18Z' itemprop='datePublished'>\n            2018-10-21 20:26:18 UTC\n          </time>\n        </span>\n        <span itemprop='position'>#6</span>\n      </div>\n      <div class='post' itemprop='articleBody'>\n        <p>Hi Prentonboy. My initial medication was Rasagiline but when I mentioned my lack of guitar dexterity, she had me put on Pramipexole which is meant to help with such things. I am on 1:57 mg at present and still trying my hardest. Morning time seems best for playing\uD83D\uDC4D</p>\n      </div>\n      <meta itemprop='interactionCount' content='UserLikes:0'>\n      <meta itemprop='interactionCount' content='UserComments:2'>\n      <meta itemprop='headline' content='Guitar playing with Parkinson&#39;s Disease'>\n      <hr>\n  </div>\n  <div itemscope itemtype='http://schema.org/DiscussionForumPosting'>\n      <div class='creator'>\n        <span>\n          <a href='/u/Detectom'><b itemprop='author'>Detectom</b></a>\n          \n          <time datetime='2018-10-21T20:29:29Z' itemprop='datePublished'>\n            2018-10-21 20:29:29 UTC\n          </time>\n        </span>\n        <span itemprop='position'>#7</span>\n      </div>\n      <div class='post' itemprop='articleBody'>\n        <p>Sorry, “she” in my above reply is my Parkingson’s nurse!</p>\n      </div>\n      <meta itemprop='interactionCount' content='UserLikes:0'>\n      <meta itemprop='interactionCount' content='UserComments:0'>\n      <meta itemprop='headline' content='Guitar playing with Parkinson&#39;s Disease'>\n      <hr>\n  </div>\n  <div itemscope itemtype='http://schema.org/DiscussionForumPosting'>\n      <div class='creator'>\n        <span>\n          <a href='/u/MauriceUK1'><b itemprop='author'>MauriceUK1</b></a>\n          \n          <time datetime='2018-10-22T09:03:18Z' itemprop='datePublished'>\n            2018-10-22 09:03:18 UTC\n          </time>\n        </span>\n        <span itemprop='position'>#8</span>\n      </div>\n      <div class='post' itemprop='articleBody'>\n        <p>Hi … just got to keep on keeping on … I am not n the meds as yet … holding off for as long as I can … still playing as much as poss <img src=\"https://forum.parkinsons.org.uk/images/emoji/twitter/wink.png?v=6\" title=\":wink:\" class=\"emoji\" alt=\":wink:\"></p>\n      </div>\n      <meta itemprop='interactionCount' content='UserLikes:0'>\n      <meta itemprop='interactionCount' content='UserComments:0'>\n      <meta itemprop='headline' content='Guitar playing with Parkinson&#39;s Disease'>\n      <hr>\n  </div>\n  <div itemscope itemtype='http://schema.org/DiscussionForumPosting'>\n      <div class='creator'>\n        <span>\n          <a href='/u/spam95'><b itemprop='author'>spam95</b></a>\n          \n          <time datetime='2018-10-22T14:46:17Z' itemprop='datePublished'>\n            2018-10-22 14:46:17 UTC\n          </time>\n        </span>\n        <span itemprop='position'>#9</span>\n      </div>\n      <div class='post' itemprop='articleBody'>\n        <p>Had to give up semi pro music bass, guitar and double bass. Life with PG is crap!</p>\n      </div>\n      <meta itemprop='interactionCount' content='UserLikes:0'>\n      <meta itemprop='interactionCount' content='UserComments:0'>\n      <meta itemprop='headline' content='Guitar playing with Parkinson&#39;s Disease'>\n      <hr>\n  </div>\n  <div itemscope itemtype='http://schema.org/DiscussionForumPosting'>\n      <div class='creator'>\n        <span>\n          <a href='/u/Detectom'><b itemprop='author'>Detectom</b></a>\n          \n          <time datetime='2018-10-22T16:54:11Z' itemprop='datePublished'>\n            2018-10-22 16:54:11 UTC\n          </time>\n        </span>\n        <span itemprop='position'>#10</span>\n      </div>\n      <div class='post' itemprop='articleBody'>\n        <p>Sorry to hear that Spam95</p>\n      </div>\n      <meta itemprop='interactionCount' content='UserLikes:0'>\n      <meta itemprop='interactionCount' content='UserComments:0'>\n      <meta itemprop='headline' content='Guitar playing with Parkinson&#39;s Disease'>\n      <hr>\n  </div>\n  <div itemscope itemtype='http://schema.org/DiscussionForumPosting'>\n      <div class='creator'>\n        <span>\n          <a href='/u/prentonboy'><b itemprop='author'>prentonboy</b></a>\n          \n          <time datetime='2018-10-22T17:59:49Z' itemprop='datePublished'>\n            2018-10-22 17:59:49 UTC\n          </time>\n        </span>\n        <span itemprop='position'>#11</span>\n      </div>\n      <div class='post' itemprop='articleBody'>\n        <p>I’m on Propranolol to stop the shaking. It doesn’t seem to work I generally play the keyboard early evening so perhaps should try morning. Thanks again</p>\n      </div>\n      <meta itemprop='interactionCount' content='UserLikes:0'>\n      <meta itemprop='interactionCount' content='UserComments:0'>\n      <meta itemprop='headline' content='Guitar playing with Parkinson&#39;s Disease'>\n      <hr>\n  </div>\n  <div itemscope itemtype='http://schema.org/DiscussionForumPosting'>\n      <div class='creator'>\n        <span>\n          <a href='/u/Banjo'><b itemprop='author'>Banjo</b></a>\n          \n          <time datetime='2018-11-15T09:01:48Z' itemprop='datePublished'>\n            2018-11-15 09:01:48 UTC\n          </time>\n        </span>\n        <span itemprop='position'>#12</span>\n      </div>\n      <div class='post' itemprop='articleBody'>\n        <p>Hi Tom,<br>\nEvery day I pick up either my guitar or my 5string Bluegrass banjo and try playing. Some days I can manage to play  a bit others not so.  Like you, I miss being able to do finger picking. I have started to learn Blues Harmonica. It’s just something to keep me playing something</p>\n      </div>\n      <meta itemprop='interactionCount' content='UserLikes:0'>\n      <meta itemprop='interactionCount' content='UserComments:1'>\n      <meta itemprop='headline' content='Guitar playing with Parkinson&#39;s Disease'>\n      <hr>\n  </div>\n  <div itemscope itemtype='http://schema.org/DiscussionForumPosting'>\n      <div class='creator'>\n        <span>\n          <a href='/u/Detectom'><b itemprop='author'>Detectom</b></a>\n          \n          <time datetime='2018-11-15T17:53:15Z' itemprop='datePublished'>\n            2018-11-15 17:53:15 UTC\n          </time>\n        </span>\n        <span itemprop='position'>#13</span>\n      </div>\n      <div class='post' itemprop='articleBody'>\n        <p>Great to hear that\uD83D\uDC4DMaybe I might try the old harmonica. I went only last night to a local pub ukulele evening and found that playing ukulele is easier to get on with now than the guitar. Power to all us music lovers.</p>\n      </div>\n      <meta itemprop='interactionCount' content='UserLikes:0'>\n      <meta itemprop='interactionCount' content='UserComments:0'>\n      <meta itemprop='headline' content='Guitar playing with Parkinson&#39;s Disease'>\n      <hr>\n  </div>\n  <div itemscope itemtype='http://schema.org/DiscussionForumPosting'>\n      <div class='creator'>\n        <span>\n          <a href='/u/Jeffino'><b itemprop='author'>Jeffino</b></a>\n          \n          <time datetime='2018-11-16T11:47:55Z' itemprop='datePublished'>\n            2018-11-16 11:47:55 UTC\n          </time>\n        </span>\n        <span itemprop='position'>#14</span>\n      </div>\n      <div class='post' itemprop='articleBody'>\n        <p>Hi Tom<br>\nLike you I used to play guitar. I have had PD for twelve years. I have six guitars hanging on my wall that I can’t play anymore. I find it difficult to press the steel strings down. Now i play an ukulele instead. It is much easier than the guitar and you can play three different types of uku that all have the same tuning and chord patterns. I also have a baritone uke and that is tuned to the first four strings of a guitar, so that is like playing a guitar but easier. One note chords. Yes. Another good thing about ukuleles is their cheap.<br>\narrivederci</p>\n      </div>\n      <meta itemprop='interactionCount' content='UserLikes:0'>\n      <meta itemprop='interactionCount' content='UserComments:1'>\n      <meta itemprop='headline' content='Guitar playing with Parkinson&#39;s Disease'>\n      <hr>\n  </div>\n  <div itemscope itemtype='http://schema.org/DiscussionForumPosting'>\n      <div class='creator'>\n        <span>\n          <a href='/u/trefor'><b itemprop='author'>trefor</b></a>\n          \n          <time datetime='2018-11-17T15:16:11Z' itemprop='datePublished'>\n            2018-11-17 15:16:11 UTC\n          </time>\n        </span>\n        <span itemprop='position'>#15</span>\n      </div>\n      <div class='post' itemprop='articleBody'>\n        <p>I sold my guitars last year as my weak left hand plus very bent fingers from arthritis or contracture make chords impossible to play. My right hand is fine though so we could play a tune between the two of us. Still singing on a regular basis so all is not lost. Musics in my blood so i have a do something. The harmonica sounds a good idea.<br>\nIn harmony<br>\nTrefor</p>\n      </div>\n      <meta itemprop='interactionCount' content='UserLikes:0'>\n      <meta itemprop='interactionCount' content='UserComments:0'>\n      <meta itemprop='headline' content='Guitar playing with Parkinson&#39;s Disease'>\n      <hr>\n  </div>\n  <div itemscope itemtype='http://schema.org/DiscussionForumPosting'>\n      <div class='creator'>\n        <span>\n          <a href='/u/Detectom'><b itemprop='author'>Detectom</b></a>\n          \n          <time datetime='2018-11-17T21:18:07Z' itemprop='datePublished'>\n            2018-11-17 21:18:07 UTC\n          </time>\n        </span>\n        <span itemprop='position'>#16</span>\n      </div>\n      <div class='post' itemprop='articleBody'>\n        <p>Hi Trefor. Such a shame and frustrating too! This disease likes to take stuff away and it would be so nice to get it back for just one day! Keep up the fight.</p>\n      </div>\n      <meta itemprop='interactionCount' content='UserLikes:0'>\n      <meta itemprop='interactionCount' content='UserComments:0'>\n      <meta itemprop='headline' content='Guitar playing with Parkinson&#39;s Disease'>\n      <hr>\n  </div>\n  <div itemscope itemtype='http://schema.org/DiscussionForumPosting'>\n      <div class='creator'>\n        <span>\n          <a href='/u/MauriceUK1'><b itemprop='author'>MauriceUK1</b></a>\n          \n          <time datetime='2019-01-11T11:54:06Z' itemprop='datePublished'>\n            2019-01-11 11:54:06 UTC\n          </time>\n        </span>\n        <span itemprop='position'>#17</span>\n      </div>\n      <div class='post' itemprop='articleBody'>\n        <p>Good man … I play harp too … keeps me playing, Jamming live is fun …</p>\n      </div>\n      <meta itemprop='interactionCount' content='UserLikes:0'>\n      <meta itemprop='interactionCount' content='UserComments:0'>\n      <meta itemprop='headline' content='Guitar playing with Parkinson&#39;s Disease'>\n      <hr>\n  </div>\n  <div itemscope itemtype='http://schema.org/DiscussionForumPosting'>\n      <div class='creator'>\n        <span>\n          <a href='/u/Jdhaley'><b itemprop='author'>Jdhaley</b></a>\n          \n          <time datetime='2019-04-28T21:39:40Z' itemprop='datePublished'>\n            2019-04-28 21:39:40 UTC\n          </time>\n        </span>\n        <span itemprop='position'>#18</span>\n      </div>\n      <div class='post' itemprop='articleBody'>\n        <p>I played professionally years ago. I’m 51 diagnosed five years ago. I took playing up again and it is frustrating. “I knew this!” Syndrome. I’m on meds. Great neurologist.I’m approaching it as little victories. I told my wife the other day. Get a stick. Duct tape a pick to it and try to play. Lol leads are extremely difficult. No more metal or seems so have moved into more strumming and funk. I can get about two songs out before i get tired and lose control. I get it. I’m focusing on technique that i know i can achieve</p>\n      </div>\n      <meta itemprop='interactionCount' content='UserLikes:0'>\n      <meta itemprop='interactionCount' content='UserComments:1'>\n      <meta itemprop='headline' content='Guitar playing with Parkinson&#39;s Disease'>\n      <hr>\n  </div>\n  <div itemscope itemtype='http://schema.org/DiscussionForumPosting'>\n      <div class='creator'>\n        <span>\n          <a href='/u/Tenorhorn'><b itemprop='author'>Tenorhorn</b></a>\n          \n          <time datetime='2019-04-29T23:27:22Z' itemprop='datePublished'>\n            2019-04-29 23:27:22 UTC\n          </time>\n        </span>\n        <span itemprop='position'>#19</span>\n      </div>\n      <div class='post' itemprop='articleBody'>\n        <p>I play tenor horn and french horn. Until I started medication - Azilect and Madopar - I could barely get a note out because of the tremor. Now I’m back to playing - but at the cost of constant nausea. All very depressing, but at least I have my music.</p>\n      </div>\n      <meta itemprop='interactionCount' content='UserLikes:0'>\n      <meta itemprop='interactionCount' content='UserComments:1'>\n      <meta itemprop='headline' content='Guitar playing with Parkinson&#39;s Disease'>\n      <hr>\n  </div>\n  <div itemscope itemtype='http://schema.org/DiscussionForumPosting'>\n      <div class='creator'>\n        <span>\n          <a href='/u/Detectom'><b itemprop='author'>Detectom</b></a>\n          \n          <time datetime='2019-04-30T08:26:18Z' itemprop='datePublished'>\n            2019-04-30 08:26:18 UTC\n          </time>\n        </span>\n        <span itemprop='position'>#20</span>\n      </div>\n      <div class='post' itemprop='articleBody'>\n        <p>If it helps JD, try using a very flexible pick made from cardboard. I find trying to hold a plastic one just doesn’t work for long. Losing the use of a gift isn’t nice but it’s better than the alternative. I wonder what it’s like for an artist to get PD <img src=\"https://forum.parkinsons.org.uk/images/emoji/twitter/thinking.png?v=6\" title=\":thinking:\" class=\"emoji\" alt=\":thinking:\"></p>\n      </div>\n      <meta itemprop='interactionCount' content='UserLikes:0'>\n      <meta itemprop='interactionCount' content='UserComments:0'>\n      <meta itemprop='headline' content='Guitar playing with Parkinson&#39;s Disease'>\n      <hr>\n  </div>\n\n  <div role='navigation' itemscope itemtype='http://schema.org/SiteNavigationElement'>\n      <span itemprop='name'><b><a rel=\"next\" itemprop=\"url\" href=\"/t/guitar-playing-with-parkinsons-disease/16149?page=2\">next page →</a></b></span>\n  </div>\n\n\n\n\n\n    </div>\n    <footer class=\"container\">\n      <nav class='crawler-nav' itemscope itemtype='http://schema.org/SiteNavigationElement'>\n        <a href='/'>Home</a>\n        <a href=\"/categories\">Categories</a>\n        <a href=\"/guidelines\">FAQ/Guidelines</a>\n        <a href=\"/tos\">Terms of Service</a>\n        <a href=\"/privacy\">Privacy Policy</a>\n      </nav>\n      <p class='powered-by-link'>Powered by <a href=\"https://www.discourse.org\">Discourse</a>, best viewed with JavaScript enabled</p>\n    </footer>\n    \n  </body>\n  \n</html>\n",
  "url": "https://forum.parkinsons.org.uk/t/guitar-playing-with-parkinsons-disease/16149"
}