{
  "contentId": "5cbcf150-886d-11e9-8f96-97f71b5221d6",
  "html": "<!DOCTYPE html>\n<html lang=\"en\">\n  <head>\n    <meta charset=\"utf-8\">\n    <title>Has my future changed? - Introductions and personal stories - Parkinson&#39;s UK Forum</title>\n    <meta name=\"description\" content=\"Hello \nAt the age of 50 I have just been given a provisional diagnosis of PD.  I saw the specialist in November and he said that it was likely but would not confirm until he saw me again, this will be in April.  My sympt&amp;hellip;\">\n    <meta name=\"author\" content=\"\">\n<meta name=\"generator\" content=\"Discourse 2.2.5 - https://github.com/discourse/discourse version c294ff3609f988dcafb742e91606d60ca13b794d\">\n<link rel=\"icon\" type=\"image/png\" href=\"https://forum.parkinsons.org.uk/uploads/db7928/original/2X/3/311fc84f89f49f38601a2f16b295b6f03d3ce5dd.jpg\">\n<link rel=\"apple-touch-icon\" type=\"image/png\" href=\"https://forum.parkinsons.org.uk/uploads/db7928/original/2X/3/311fc84f89f49f38601a2f16b295b6f03d3ce5dd.jpg\">\n<meta name=\"theme-color\" content=\"#ffffff\">\n<meta name=\"viewport\" content=\"width=device-width, minimum-scale=1.0, maximum-scale=1.0, user-scalable=yes\">\n<link rel=\"canonical\" href=\"https://forum.parkinsons.org.uk/t/has-my-future-changed/17828\" />\n<script type=\"application/ld+json\">{\"@context\":\"http://schema.org\",\"@type\":\"WebSite\",\"url\":\"https://forum.parkinsons.org.uk\",\"potentialAction\":{\"@type\":\"SearchAction\",\"target\":\"https://forum.parkinsons.org.uk/search?q={search_term_string}\",\"query-input\":\"required name=search_term_string\"}}</script>\n<link rel=\"search\" type=\"application/opensearchdescription+xml\" href=\"https://forum.parkinsons.org.uk/opensearch.xml\" title=\"Parkinson&#39;s UK Forum Search\">\n\n      <link href=\"/stylesheets/desktop_f99246ae801b083d3e4cca979d0dade8615b39ac.css?__ws=forum.parkinsons.org.uk\" media=\"all\" rel=\"stylesheet\" data-target=\"desktop\" data-theme-id=\"12\"/>\n      <link href=\"/stylesheets/desktop_theme_12_5d27531cf43f9df0c03a6a6ec3109dd05f9dfc49.css?__ws=forum.parkinsons.org.uk\" media=\"all\" rel=\"stylesheet\" data-target=\"desktop_theme\" data-theme-id=\"12\"/>\n    <link href=\"https://fonts.googleapis.com/css?family=Open+Sans\" rel=\"stylesheet\">\n\n    <meta id=\"data-ga-universal-analytics\" data-tracking-code=\"UA-4855628-1\" data-json=\"{&quot;cookieDomain&quot;:&quot;auto&quot;}\" data-auto-link-domains=\"\">\n\n<link rel='preload' href='/assets/google-universal-analytics-f35b4da49411e6f5559073523aab983da483976a3954c79c756f8579f6fbd6ef.js' as='script'/>\n<script src='/assets/google-universal-analytics-f35b4da49411e6f5559073523aab983da483976a3954c79c756f8579f6fbd6ef.js'></script>\n\n      <link rel=\"alternate\" type=\"application/rss+xml\" title=\"RSS feed of &#39;Has my future changed?&#39;\" href=\"https://forum.parkinsons.org.uk/t/has-my-future-changed/17828.rss\" />\n  <meta property=\"og:site_name\" content=\"Parkinson&#39;s UK Forum\" />\n<meta name=\"twitter:card\" content=\"summary\" />\n<meta name=\"twitter:image\" content=\"https://forum.parkinsons.org.uk/uploads/db7928/original/2X/3/311fc84f89f49f38601a2f16b295b6f03d3ce5dd.jpg\" />\n<meta property=\"og:image\" content=\"https://forum.parkinsons.org.uk/uploads/db7928/original/2X/3/311fc84f89f49f38601a2f16b295b6f03d3ce5dd.jpg\" />\n<meta property=\"og:url\" content=\"https://forum.parkinsons.org.uk/t/has-my-future-changed/17828\" />\n<meta name=\"twitter:url\" content=\"https://forum.parkinsons.org.uk/t/has-my-future-changed/17828\" />\n<meta property=\"og:title\" content=\"Has my future changed?\" />\n<meta name=\"twitter:title\" content=\"Has my future changed?\" />\n<meta property=\"og:description\" content=\"Hello  At the age of 50 I have just been given a provisional diagnosis of PD.  I saw the specialist in November and he said that it was likely but would not confirm until he saw me again, this will be in April.  My symptoms are fairly mild but changing all the time and I don’t know who to talk to.  I can’t write anymore, my voice changes and I stumble over my words, amongst other, these I can cope with, but the one thing that really gets me down is the tingling in my right leg.  It’s only there ...\" />\n<meta name=\"twitter:description\" content=\"Hello  At the age of 50 I have just been given a provisional diagnosis of PD.  I saw the specialist in November and he said that it was likely but would not confirm until he saw me again, this will be in April.  My symptoms are fairly mild but changing all the time and I don’t know who to talk to.  I can’t write anymore, my voice changes and I stumble over my words, amongst other, these I can cope with, but the one thing that really gets me down is the tingling in my right leg.  It’s only there ...\" />\n<meta name=\"twitter:label1\" value=\"Reading time\" />\n<meta name=\"twitter:data1\" value=\"1 mins \uD83D\uDD51\" />\n<meta name=\"twitter:label2\" value=\"Likes\" />\n<meta name=\"twitter:data2\" value=\"2 ❤\" />\n<meta property=\"article:published_time\" content=\"2019-02-04T16:24:14+00:00\" />\n<meta property=\"og:ignore_canonical\" content=\"true\" />\n\n\n\n    \n  </head>\n  <body class=\"crawler\">\n    <header role=\"banner\">\n    <div class=\"region region-header\">\n        <div class=\"region-header-wrapper\">\n            <div id=\"block-parkinsons-d8-branding\" class=\"block block-system block-system-branding-block\">\n                <a href=\"/\" title=\"Home\" rel=\"home\" class=\"site-logo\">\n                    <img src=\"https://forum.parkinsons.org.uk/uploads/db7928/original/2X/8/862bb7d172e7d127e7f3e147ec43594aa62ac945.png\" alt=\"Parkinson's UK. Change Attitudes. Find a cure. Join us.\">\n                </a>\n            </div>\n            <div id=\"block-helpline\" class=\"block block-block-content block-block-content871cd5af-b938-4947-9dc0-d5c211d08fe3 style-phone\">\n                <div class=\"field field--name-field-link field--type-link field--label-hidden field__item\"><a href=\"tel:+448088000303\">Helpline 0808 800 0303</a></div>\n            </div>\n            <div id=\"block-shop\" class=\"block block-block-content block-block-content6fba5ae5-7797-49cd-8367-f321d8111cd6 style-regular\">\n                <div class=\"field field--name-field-link field--type-link field--label-hidden field__item\"><a href=\"https://shop.parkinsons.org.uk\">Shop</a></div>\n            </div>\n        </div>\n    </div>\n</header>\n\n\n<script src=\"/theme-javascripts/b7e9763fcb584fc8265c56a9f557cd6d2e1e8ed8.js?__ws=forum.parkinsons.org.uk\"></script>\n    <header>\n      <a href=\"/\">\n          <img src=\"https://forum.parkinsons.org.uk/uploads/db7928/original/2X/8/862bb7d172e7d127e7f3e147ec43594aa62ac945.png\" alt=\"Parkinson&#39;s UK Forum\" id=\"site-logo\" style=\"max-width: 150px;\">\n      </a>\n    </header>\n    <div id=\"main-outlet\" class=\"wrap\">\n      <h1>\n  <a href=\"/t/has-my-future-changed/17828\">Has my future changed?</a>\n</h1>\n\n<div id='breadcrumbs'>\n    <div id=\"breadcrumb-0\" itemscope itemtype=\"http://data-vocabulary.org/Breadcrumb\"\n        itemref=\"breadcrumb-1\"\n      >\n      <a href=\"/c/about-me\" itemprop=\"url\">\n        <span itemprop=\"title\">About me</span>\n      </a>\n    </div>\n    <div id=\"breadcrumb-1\" itemscope itemtype=\"http://data-vocabulary.org/Breadcrumb\"\n>\n      <a href=\"/c/about-me/introductions-and-personal-stories\" itemprop=\"url\">\n        <span itemprop=\"title\">Introductions and personal stories</span>\n      </a>\n    </div>\n</div>\n\n\n\n\n\n<hr>\n\n\n  <div itemscope itemtype='http://schema.org/DiscussionForumPosting'>\n      <div class='creator'>\n        <span>\n          <a href='/u/Bexby'><b itemprop='author'>Bexby</b></a>\n          \n          <time datetime='2019-02-04T16:24:14Z' itemprop='datePublished'>\n            2019-02-04 16:24:14 UTC\n          </time>\n        </span>\n        <span itemprop='position'>#1</span>\n      </div>\n      <div class='post' itemprop='articleBody'>\n        <p>Hello<br>\nAt the age of 50 I have just been given a provisional diagnosis of PD.  I saw the specialist in November and he said that it was likely but would not confirm until he saw me again, this will be in April.  My symptoms are fairly mild but changing all the time and I don’t know who to talk to.  I can’t write anymore, my voice changes and I stumble over my words, amongst other, these I can cope with, but the one thing that really gets me down is the tingling in my right leg.  It’s only there when I sit down, not when I walk. I have trouble pivoting my foot up and my thigh feels heavy.  Any ideas?</p>\n      </div>\n      <meta itemprop='interactionCount' content='UserLikes:0'>\n      <meta itemprop='interactionCount' content='UserComments:0'>\n      <meta itemprop='headline' content='Has my future changed?'>\n      <hr>\n  </div>\n  <div itemscope itemtype='http://schema.org/DiscussionForumPosting'>\n      <div class='creator'>\n        <span>\n          <a href='/u/Rich1'><b itemprop='author'>Rich1</b></a>\n          \n          <time datetime='2019-02-04T17:01:46Z' itemprop='datePublished'>\n            2019-02-04 17:01:46 UTC\n          </time>\n        </span>\n        <span itemprop='position'>#2</span>\n      </div>\n      <div class='post' itemprop='articleBody'>\n        <p>Hi Bexby<br>\nNot sure I can help a lot, other than say I know almost exactly how you feel. I am 53 and was diagnosed a couple of weeks ago. Its daunting, and frightening. I am taking it a day at a time and trying not to think too much about the future, no one has a crystal ball…!<br>\nI have reducing function in my R hand as well as non motor issues with anxiety/depression and mood changes as well as trouble with concentration and writing.<br>\nHang in there<br>\nRich</p>\n      </div>\n      <meta itemprop='interactionCount' content='UserLikes:0'>\n      <meta itemprop='interactionCount' content='UserComments:1'>\n      <meta itemprop='headline' content='Has my future changed?'>\n      <hr>\n  </div>\n  <div itemscope itemtype='http://schema.org/DiscussionForumPosting'>\n      <div class='creator'>\n        <span>\n          <a href='/u/Omahatom'><b itemprop='author'>Omahatom</b></a>\n          \n          <time datetime='2019-02-04T20:56:32Z' itemprop='datePublished'>\n            2019-02-04 20:56:32 UTC\n          </time>\n        </span>\n        <span itemprop='position'>#3</span>\n      </div>\n      <div class='post' itemprop='articleBody'>\n        <p>Hello Bexby<br>\nI think the doctor wants to see if or how you have changed between visits.  Keep a diary to give doctor a clear picture of your symptoms.</p>\n<p>You did not mention a start on medicine. I have had Parkies since my 50’s. Was diagnosed at 59. The meds help relieve symptoms usually considerably for most. It might take some time to get it regulated. (dose and timing)<br>\nThe feeling about your future I think we all felt the same at some point. Part of feeling better with any disease is having a constitution which focuses on what you can do. Working on maintaining what you got. And do go on with plans you had wanted to do.</p>\n<p>PD is not the end. It will be adapting. One day at a time.</p>\n      </div>\n      <meta itemprop='interactionCount' content='UserLikes:1'>\n      <meta itemprop='interactionCount' content='UserComments:1'>\n      <meta itemprop='headline' content='Has my future changed?'>\n      <hr>\n  </div>\n  <div itemscope itemtype='http://schema.org/DiscussionForumPosting'>\n      <div class='creator'>\n        <span>\n          <a href='/u/Bexby'><b itemprop='author'>Bexby</b></a>\n          \n          <time datetime='2019-02-05T11:27:29Z' itemprop='datePublished'>\n            2019-02-05 11:27:29 UTC\n          </time>\n        </span>\n        <span itemprop='position'>#4</span>\n      </div>\n      <div class='post' itemprop='articleBody'>\n        <p>Thank you, although a local neurologist has said he is sure, in September, I’m still waiting for the specialist to confirm so have had a while to get used to the idea, but feel very alone as my husband is still hoping for a different outcome.</p>\n      </div>\n      <meta itemprop='interactionCount' content='UserLikes:0'>\n      <meta itemprop='interactionCount' content='UserComments:1'>\n      <meta itemprop='headline' content='Has my future changed?'>\n      <hr>\n  </div>\n  <div itemscope itemtype='http://schema.org/DiscussionForumPosting'>\n      <div class='creator'>\n        <span>\n          <a href='/u/Bexby'><b itemprop='author'>Bexby</b></a>\n          \n          <time datetime='2019-02-05T15:39:20Z' itemprop='datePublished'>\n            2019-02-05 15:39:20 UTC\n          </time>\n        </span>\n        <span itemprop='position'>#5</span>\n      </div>\n      <div class='post' itemprop='articleBody'>\n        <p>Thank you.<br>\nBecause my symptoms are relatively mild he is not putting me on any meds yet, as you say, he wants to see how I do inbetween visits but it is make me hyper aware of how my body feels.  I hope that when I do start on some meds it will help with my leg as this is what gets me down.<br>\nI’ve read that there are side effects when you first start, is this true?</p>\n      </div>\n      <meta itemprop='interactionCount' content='UserLikes:0'>\n      <meta itemprop='interactionCount' content='UserComments:0'>\n      <meta itemprop='headline' content='Has my future changed?'>\n      <hr>\n  </div>\n  <div itemscope itemtype='http://schema.org/DiscussionForumPosting'>\n      <div class='creator'>\n        <span>\n          <a href='/u/Omahatom'><b itemprop='author'>Omahatom</b></a>\n          \n          <time datetime='2019-02-05T16:42:51Z' itemprop='datePublished'>\n            2019-02-05 16:42:51 UTC\n          </time>\n        </span>\n        <span itemprop='position'>#6</span>\n      </div>\n      <div class='post' itemprop='articleBody'>\n        <p>At my age 59 I was started on plan old sinemet. But no matter what medicine you will be started on the dose will probably be very low.  Spread out three times a day. I am no doctor and from others it seems a standard introduction to the meds. In my case my disease was diagnosed passed the mild symptoms. I was started at 100/25 sinemet every 6 hours total 300 ml in a day. I now 64 take a total of 900ml total a day 5 years from diagnosis.<br>\nThe side effects are less likely to happen when titration is a slow process. If one drug effects you negatively there are more to try. It will get better. One day at a time. Tom</p>\n      </div>\n      <meta itemprop='interactionCount' content='UserLikes:0'>\n      <meta itemprop='interactionCount' content='UserComments:1'>\n      <meta itemprop='headline' content='Has my future changed?'>\n      <hr>\n  </div>\n  <div itemscope itemtype='http://schema.org/DiscussionForumPosting'>\n      <div class='creator'>\n        <span>\n          <a href='/u/Bexby'><b itemprop='author'>Bexby</b></a>\n          \n          <time datetime='2019-02-06T10:50:06Z' itemprop='datePublished'>\n            2019-02-06 10:50:06 UTC\n          </time>\n        </span>\n        <span itemprop='position'>#7</span>\n      </div>\n      <div class='post' itemprop='articleBody'>\n        <p>Thank you Tom.  I feel like I face quite a journey, but as you say, one day at a time.  It feels better to finally have people to talk to who understand.</p>\n      </div>\n      <meta itemprop='interactionCount' content='UserLikes:0'>\n      <meta itemprop='interactionCount' content='UserComments:0'>\n      <meta itemprop='headline' content='Has my future changed?'>\n      <hr>\n  </div>\n  <div itemscope itemtype='http://schema.org/DiscussionForumPosting'>\n      <div class='creator'>\n        <span>\n          <a href='/u/Rich1'><b itemprop='author'>Rich1</b></a>\n          \n          <time datetime='2019-02-09T20:28:17Z' itemprop='datePublished'>\n            2019-02-09 20:28:17 UTC\n          </time>\n        </span>\n        <span itemprop='position'>#8</span>\n      </div>\n      <div class='post' itemprop='articleBody'>\n        <p>Hi<br>\nSorry to hear you are feeling alone. PD affects more than just us with the diagnosis, and it can be hard on those nearest to comprehend that there is, or may be, a new ‘normal’ to deal with.<br>\nR</p>\n      </div>\n      <meta itemprop='interactionCount' content='UserLikes:1'>\n      <meta itemprop='interactionCount' content='UserComments:1'>\n      <meta itemprop='headline' content='Has my future changed?'>\n      <hr>\n  </div>\n  <div itemscope itemtype='http://schema.org/DiscussionForumPosting'>\n      <div class='creator'>\n        <span>\n          <a href='/u/Bexby'><b itemprop='author'>Bexby</b></a>\n          \n          <time datetime='2019-02-10T13:08:26Z' itemprop='datePublished'>\n            2019-02-10 13:08:26 UTC\n          </time>\n        </span>\n        <span itemprop='position'>#9</span>\n      </div>\n      <div class='post' itemprop='articleBody'>\n        <p>Thank you Rich. I think he is still hoping they’ve got it wrong.  I suppose I just have to wait for him to adjust to the new normal. B</p>\n      </div>\n      <meta itemprop='interactionCount' content='UserLikes:0'>\n      <meta itemprop='interactionCount' content='UserComments:0'>\n      <meta itemprop='headline' content='Has my future changed?'>\n      <hr>\n  </div>\n\n\n\n\n\n\n    </div>\n    <footer class=\"container\">\n      <nav class='crawler-nav' itemscope itemtype='http://schema.org/SiteNavigationElement'>\n        <a href='/'>Home</a>\n        <a href=\"/categories\">Categories</a>\n        <a href=\"/guidelines\">FAQ/Guidelines</a>\n        <a href=\"/tos\">Terms of Service</a>\n        <a href=\"/privacy\">Privacy Policy</a>\n      </nav>\n      <p class='powered-by-link'>Powered by <a href=\"https://www.discourse.org\">Discourse</a>, best viewed with JavaScript enabled</p>\n    </footer>\n    \n  </body>\n  \n</html>\n",
  "url": "https://forum.parkinsons.org.uk/t/has-my-future-changed/17828"
}