{
  "contentId": "d7a9f9f0-886b-11e9-8f96-97f71b5221d6",
  "html": "<!DOCTYPE html>\n<html lang=\"en\">\n  <head>\n    <meta charset=\"utf-8\">\n    <title>Is PD the cause of my angry outbursts? - Symptoms - Parkinson&#39;s UK Forum</title>\n    <meta name=\"description\" content=\"Just lately I’ve been shouting at my wife again.  Very concerning when I step back and look at myself.  It happens when I feel “nagged” too much, or when I’m told I’m being too selfish for wanting time to myself when we &amp;hellip;\">\n    <meta name=\"author\" content=\"\">\n<meta name=\"generator\" content=\"Discourse 2.2.5 - https://github.com/discourse/discourse version c294ff3609f988dcafb742e91606d60ca13b794d\">\n<link rel=\"icon\" type=\"image/png\" href=\"https://forum.parkinsons.org.uk/uploads/db7928/original/2X/3/311fc84f89f49f38601a2f16b295b6f03d3ce5dd.jpg\">\n<link rel=\"apple-touch-icon\" type=\"image/png\" href=\"https://forum.parkinsons.org.uk/uploads/db7928/original/2X/3/311fc84f89f49f38601a2f16b295b6f03d3ce5dd.jpg\">\n<meta name=\"theme-color\" content=\"#ffffff\">\n<meta name=\"viewport\" content=\"width=device-width, minimum-scale=1.0, maximum-scale=1.0, user-scalable=yes\">\n<link rel=\"canonical\" href=\"https://forum.parkinsons.org.uk/t/is-pd-the-cause-of-my-angry-outbursts/18232\" />\n<script type=\"application/ld+json\">{\"@context\":\"http://schema.org\",\"@type\":\"WebSite\",\"url\":\"https://forum.parkinsons.org.uk\",\"potentialAction\":{\"@type\":\"SearchAction\",\"target\":\"https://forum.parkinsons.org.uk/search?q={search_term_string}\",\"query-input\":\"required name=search_term_string\"}}</script>\n<link rel=\"search\" type=\"application/opensearchdescription+xml\" href=\"https://forum.parkinsons.org.uk/opensearch.xml\" title=\"Parkinson&#39;s UK Forum Search\">\n\n      <link href=\"/stylesheets/desktop_f99246ae801b083d3e4cca979d0dade8615b39ac.css?__ws=forum.parkinsons.org.uk\" media=\"all\" rel=\"stylesheet\" data-target=\"desktop\" data-theme-id=\"12\"/>\n      <link href=\"/stylesheets/desktop_theme_12_5d27531cf43f9df0c03a6a6ec3109dd05f9dfc49.css?__ws=forum.parkinsons.org.uk\" media=\"all\" rel=\"stylesheet\" data-target=\"desktop_theme\" data-theme-id=\"12\"/>\n    <link href=\"https://fonts.googleapis.com/css?family=Open+Sans\" rel=\"stylesheet\">\n\n    <meta id=\"data-ga-universal-analytics\" data-tracking-code=\"UA-4855628-1\" data-json=\"{&quot;cookieDomain&quot;:&quot;auto&quot;}\" data-auto-link-domains=\"\">\n\n<link rel='preload' href='/assets/google-universal-analytics-f35b4da49411e6f5559073523aab983da483976a3954c79c756f8579f6fbd6ef.js' as='script'/>\n<script src='/assets/google-universal-analytics-f35b4da49411e6f5559073523aab983da483976a3954c79c756f8579f6fbd6ef.js'></script>\n\n      <link rel=\"alternate\" type=\"application/rss+xml\" title=\"RSS feed of &#39;Is PD the cause of my angry outbursts?&#39;\" href=\"https://forum.parkinsons.org.uk/t/is-pd-the-cause-of-my-angry-outbursts/18232.rss\" />\n  <meta property=\"og:site_name\" content=\"Parkinson&#39;s UK Forum\" />\n<meta name=\"twitter:card\" content=\"summary\" />\n<meta name=\"twitter:image\" content=\"https://forum.parkinsons.org.uk/uploads/db7928/original/2X/3/311fc84f89f49f38601a2f16b295b6f03d3ce5dd.jpg\" />\n<meta property=\"og:image\" content=\"https://forum.parkinsons.org.uk/uploads/db7928/original/2X/3/311fc84f89f49f38601a2f16b295b6f03d3ce5dd.jpg\" />\n<meta property=\"og:url\" content=\"https://forum.parkinsons.org.uk/t/is-pd-the-cause-of-my-angry-outbursts/18232\" />\n<meta name=\"twitter:url\" content=\"https://forum.parkinsons.org.uk/t/is-pd-the-cause-of-my-angry-outbursts/18232\" />\n<meta property=\"og:title\" content=\"Is PD the cause of my angry outbursts?\" />\n<meta name=\"twitter:title\" content=\"Is PD the cause of my angry outbursts?\" />\n<meta property=\"og:description\" content=\"Just lately I’ve been shouting at my wife again.  Very concerning when I step back and look at myself.  It happens when I feel “nagged” too much, or when I’m told I’m being too selfish for wanting time to myself when we have a 3 month old baby and not helping enough around the house.  I went through a period like this (of having angry outbursts) shortly after diagnosis and that went on for a few months.  I don’t think my cold is helping at all and the fatigue that is causing me, or not getting e...\" />\n<meta name=\"twitter:description\" content=\"Just lately I’ve been shouting at my wife again.  Very concerning when I step back and look at myself.  It happens when I feel “nagged” too much, or when I’m told I’m being too selfish for wanting time to myself when we have a 3 month old baby and not helping enough around the house.  I went through a period like this (of having angry outbursts) shortly after diagnosis and that went on for a few months.  I don’t think my cold is helping at all and the fatigue that is causing me, or not getting e...\" />\n<meta name=\"twitter:label1\" value=\"Reading time\" />\n<meta name=\"twitter:data1\" value=\"2 mins \uD83D\uDD51\" />\n<meta name=\"twitter:label2\" value=\"Likes\" />\n<meta name=\"twitter:data2\" value=\"2 ❤\" />\n<meta property=\"article:published_time\" content=\"2019-03-03T16:52:10+00:00\" />\n<meta property=\"og:ignore_canonical\" content=\"true\" />\n\n\n\n    \n  </head>\n  <body class=\"crawler\">\n    <header role=\"banner\">\n    <div class=\"region region-header\">\n        <div class=\"region-header-wrapper\">\n            <div id=\"block-parkinsons-d8-branding\" class=\"block block-system block-system-branding-block\">\n                <a href=\"/\" title=\"Home\" rel=\"home\" class=\"site-logo\">\n                    <img src=\"https://forum.parkinsons.org.uk/uploads/db7928/original/2X/8/862bb7d172e7d127e7f3e147ec43594aa62ac945.png\" alt=\"Parkinson's UK. Change Attitudes. Find a cure. Join us.\">\n                </a>\n            </div>\n            <div id=\"block-helpline\" class=\"block block-block-content block-block-content871cd5af-b938-4947-9dc0-d5c211d08fe3 style-phone\">\n                <div class=\"field field--name-field-link field--type-link field--label-hidden field__item\"><a href=\"tel:+448088000303\">Helpline 0808 800 0303</a></div>\n            </div>\n            <div id=\"block-shop\" class=\"block block-block-content block-block-content6fba5ae5-7797-49cd-8367-f321d8111cd6 style-regular\">\n                <div class=\"field field--name-field-link field--type-link field--label-hidden field__item\"><a href=\"https://shop.parkinsons.org.uk\">Shop</a></div>\n            </div>\n        </div>\n    </div>\n</header>\n\n\n<script src=\"/theme-javascripts/b7e9763fcb584fc8265c56a9f557cd6d2e1e8ed8.js?__ws=forum.parkinsons.org.uk\"></script>\n    <header>\n      <a href=\"/\">\n          <img src=\"https://forum.parkinsons.org.uk/uploads/db7928/original/2X/8/862bb7d172e7d127e7f3e147ec43594aa62ac945.png\" alt=\"Parkinson&#39;s UK Forum\" id=\"site-logo\" style=\"max-width: 150px;\">\n      </a>\n    </header>\n    <div id=\"main-outlet\" class=\"wrap\">\n      <h1>\n  <a href=\"/t/is-pd-the-cause-of-my-angry-outbursts/18232\">Is PD the cause of my angry outbursts?</a>\n</h1>\n\n<div id='breadcrumbs'>\n    <div id=\"breadcrumb-0\" itemscope itemtype=\"http://data-vocabulary.org/Breadcrumb\"\n        itemref=\"breadcrumb-1\"\n      >\n      <a href=\"/c/about-parkinsons-and-health\" itemprop=\"url\">\n        <span itemprop=\"title\">About Parkinson&#39;s and health</span>\n      </a>\n    </div>\n    <div id=\"breadcrumb-1\" itemscope itemtype=\"http://data-vocabulary.org/Breadcrumb\"\n>\n      <a href=\"/c/about-parkinsons-and-health/symptoms\" itemprop=\"url\">\n        <span itemprop=\"title\">Symptoms</span>\n      </a>\n    </div>\n</div>\n\n\n\n\n\n<hr>\n\n\n  <div itemscope itemtype='http://schema.org/DiscussionForumPosting'>\n      <div class='creator'>\n        <span>\n          <a href='/u/VW'><b itemprop='author'>VW</b></a>\n          \n          <time datetime='2019-03-03T16:52:10Z' itemprop='datePublished'>\n            2019-03-03 16:52:10 UTC\n          </time>\n        </span>\n        <span itemprop='position'>#1</span>\n      </div>\n      <div class='post' itemprop='articleBody'>\n        <p>Just lately I’ve been shouting at my wife again.  Very concerning when I step back and look at myself.  It happens when I feel “nagged” too much, or when I’m told I’m being too selfish for wanting time to myself when we have a 3 month old baby and not helping enough around the house.  I went through a period like this (of having angry outbursts) shortly after diagnosis and that went on for a few months.  I don’t think my cold is helping at all and the fatigue that is causing me, or not getting enough sleep, and colds seem to take much longer to shake off these days.  That is the other odd thing, I used to be able to shake off colds after a few days mostly, now they are bad for at least at least a week and then I need another week or so to get my strength back.</p>\n<p>Constipation has been a cause of stress for me too lately, this has not gotten better despite more fibre and more fluid intake so I’m having to look at more changes to my diet.</p>\n<p>It is strange to start losing my temper like this again.  Do other people experience it?  This being a neurospychiatric condition and all.  I have a history of depression and going back 20+ years but mostly overcome that.</p>\n      </div>\n      <meta itemprop='interactionCount' content='UserLikes:1'>\n      <meta itemprop='interactionCount' content='UserComments:0'>\n      <meta itemprop='headline' content='Is PD the cause of my angry outbursts?'>\n      <hr>\n  </div>\n  <div itemscope itemtype='http://schema.org/DiscussionForumPosting'>\n      <div class='creator'>\n        <span>\n          <a href='/u/T1'><b itemprop='author'>T1</b></a>\n          \n          <time datetime='2019-03-03T18:59:05Z' itemprop='datePublished'>\n            2019-03-03 18:59:05 UTC\n          </time>\n        </span>\n        <span itemprop='position'>#2</span>\n      </div>\n      <div class='post' itemprop='articleBody'>\n        <p>Hi VW<br>\nSorry to hear about the situation you find yourself in at the moment.<br>\nOn the positive side and there is one honestly.<br>\nYou have recognised that the problem exists.<br>\nAnd that is a great step forward.</p>\n<p>I don’t feel it would be correct for me to advise anyone going through what must be a fraustratinhg time to say the least.<br>\nThere is just an overwhelming<br>\namount of issues happening to you and your wife at the moment.<br>\nHard for you with your illness, insomnia and fatigue.<br>\nEqually hard for your wife with your illness ,a new baby and probably lack of sleep and fatigue too.</p>\n<p>So I believe you have to reach out as a couple and be treated as such.</p>\n<p>Maybe the Parkinson’s helpline<br>\nOr if you both visit your GP .<br>\nthen I would suggest that you take your post with you as you both have too much to explain and remember.<br>\nAlso I think you should book a double appointment as 10 minutes is nowhere near long enough.</p>\n<p>I hope that you get the assistance you require and are helped to prioritise the issues in the correct order as I’m sure you already know there is no quick fix .<br>\nBut however there is a solution<br>\nObviously not for your PD but for the other issues with the correct information and direction to follow.</p>\n<p>I wish you both a happy conclusion .</p>\n<p>Tie yourselves to the mast my friends and the WILL end.</p>\n<p>Tommy <img src=\"https://forum.parkinsons.org.uk/images/emoji/twitter/pill.png?v=6\" title=\":pill:\" class=\"emoji\" alt=\":pill:\"><img src=\"https://forum.parkinsons.org.uk/images/emoji/twitter/pill.png?v=6\" title=\":pill:\" class=\"emoji\" alt=\":pill:\"></p>\n      </div>\n      <meta itemprop='interactionCount' content='UserLikes:1'>\n      <meta itemprop='interactionCount' content='UserComments:1'>\n      <meta itemprop='headline' content='Is PD the cause of my angry outbursts?'>\n      <hr>\n  </div>\n  <div itemscope itemtype='http://schema.org/DiscussionForumPosting'>\n      <div class='creator'>\n        <span>\n          <a href='/u/VW'><b itemprop='author'>VW</b></a>\n          \n          <time datetime='2019-03-03T21:43:48Z' itemprop='datePublished'>\n            2019-03-03 21:43:48 UTC\n          </time>\n        </span>\n        <span itemprop='position'>#3</span>\n      </div>\n      <div class='post' itemprop='articleBody'>\n        <p>Hi Tommy<br>\nThanks for your reply.<br>\nThings will get better once I get over this cold.  It’s things like that that strain my coping mechanisms to the limit.<br>\nYes it’s very tough for my wife when I get sick and get irritable again.  She is of course very tired herself.  We also have a 3 year old.<br>\nThe dizziness when getting up is worse when I’m fatigued and not well and she worries about that too.<br>\nI regularly talk to my pd nurse and the gp, perhaps I need to make another appointment.<br>\nV.</p>\n      </div>\n      <meta itemprop='interactionCount' content='UserLikes:0'>\n      <meta itemprop='interactionCount' content='UserComments:0'>\n      <meta itemprop='headline' content='Is PD the cause of my angry outbursts?'>\n      <hr>\n  </div>\n  <div itemscope itemtype='http://schema.org/DiscussionForumPosting'>\n      <div class='creator'>\n        <span>\n          <a href='/u/Appletree'><b itemprop='author'>Appletree</b></a>\n          \n          <time datetime='2019-03-08T12:25:02Z' itemprop='datePublished'>\n            2019-03-08 12:25:02 UTC\n          </time>\n        </span>\n        <span itemprop='position'>#4</span>\n      </div>\n      <div class='post' itemprop='articleBody'>\n        <p>When you become concerned about new/worsening symptoms it is a good idea to check the side effects of any drugs you are taking</p>\n<p><a href=\"https://www.urantiagaia.org/eng/mental/psydrug/psychiatry_drug_problem4.html#4.3\" class=\"onebox\" target=\"_blank\" rel=\"nofollow noopener\">https://www.urantiagaia.org/eng/mental/psydrug/psychiatry_drug_problem4.html#4.3</a></p>\n<p><strong>Your Drug May Be Your Problem</strong> 2007 P.R. Breggin, M. D. Cohen,</p>\n<p>3.6.3_21 Drug-induced euphoria sometimes progresses into a psychosis called mania. Probably all antidepressants and stimulants are capable of causing mania, which is characterized by exaggerated or unrealistic feelings of being happy or \"high\", excitability, insomnia, boundless energy, racing thoughts, grandiose schemes, and feelings of extreme self-importance and omnipotence.</p>\n<p>Irritability insensitivity to others, paranoia, and aggression often go along with being manic. During mania, a person can become \"physically assaultive or suicidal\"</p>\n<p>4.11 Medications Used to Treat Drug- Induced Abnormal Movements</p>\n<p>This category comprises Symmetrel (amantadine), Sinemet (carbidopalevodopa), Cogentin (benztropine), Akineton (biperiden), Kemadrin (procyclidine), Artane (trihexyphenidyl), and Parsidol (ethopropazine).</p>\n<p>4.11_4 The use of these drugs is hazardous in psychiatry because they can mimic symptoms of severe psychiatric disorders, including toxic psychosis, delirium, confusion, excitement, euphoria or giddiness, hallucinations and delusions, insomnia, paranoia, agitation, depression, apathy or listlessness, and bizarre behavior.</p>\n<p>They can also cause more subtle interference with memory and thinking processes. Although no studies of this phenomenon have been conducted, we agree with other clinicians who believe that these drugs may cause irreversible mental deterioration when used over the long term.</p>\n<p>4.11_5 Neuroleptic malignant syndrome has been reported in connection with Symmetrel and Sinemet. Because both of these drugs bring about their impact by stimulating dopamine, they can also cause twitches, spasms, and other involuntary movements (dyskinesias).</p>\n<aside class=\"onebox whitelistedgeneric\">\n  <header class=\"source\">\n      <img src=\"https://images.rxlist.com/images/fav/rx.ico\" class=\"site-icon\" width=\"16\" height=\"16\">\n      <a href=\"https://www.rxlist.com/symmetrel-side-effects-drug-center.htm\" target=\"_blank\" rel=\"nofollow noopener\">RxList</a>\n  </header>\n  <article class=\"onebox-body\">\n    <div class=\"aspect-image\" style=\"--aspect-ratio:690/366;\"><img src=\"https://forum.parkinsons.org.uk/uploads/db7928/original/2X/f/fdcf275858d9ecd99e918a6d307a7909447ea24a.jpg\" class=\"thumbnail\"></div>\n\n<h3><a href=\"https://www.rxlist.com/symmetrel-side-effects-drug-center.htm\" target=\"_blank\" rel=\"nofollow noopener\">Common Side Effects of Symmetrel (Amantadine Hydrochloride) Drug Center - RxList</a></h3>\n\n<p>Find a comprehensive guide to possible side effects including common and rare side effects when taking Symmetrel (Amantadine Hydrochloride) for healthcare professionals and consumers.</p>\n\n\n  </article>\n  <div class=\"onebox-metadata\">\n    \n    \n  </div>\n  <div style=\"clear: both\"></div>\n</aside>\n\n<p>Symmetrel (Amantadine) Professional Information <strong>SIDE EFFECTS include:</strong></p>\n<p>Insomnia, depression, irritability, hallucinations, Agitation, euphoria, thinking abnormally, amnesia,</p>\n<p>suicidal attempt, suicide, and suicidal ideation , delusions, aggressive behavior, paranoid reaction,</p>\n<p>manic reaction,</p>\n<p><a href=\"http://www.inchem.org/documents/pims/pharm/levedopa.htm\" class=\"onebox\" target=\"_blank\" rel=\"nofollow noopener\">http://www.inchem.org/documents/pims/pharm/levedopa.htm</a></p>\n<p>LEVODOPA - Psychiatric symptoms include agitation, anxiety, elation and insomnia or some times drowsiness and depression. More severe effects include aggression, paranoid delusions, hallucinations, suicidal behaviour and unmasking of dementia.</p>\n<aside class=\"onebox pdf\">\n  <header class=\"source\">\n      <a href=\"https://giovanipsichiatrisip.files.wordpress.com/2011/01/p27-santangelo-r-p-fuori-concorso-case-report.pdf\" target=\"_blank\" rel=\"nofollow noopener\">giovanipsichiatrisip.files.wordpress.com</a>\n  </header>\n  <article class=\"onebox-body\">\n    <a href=\"https://giovanipsichiatrisip.files.wordpress.com/2011/01/p27-santangelo-r-p-fuori-concorso-case-report.pdf\" target=\"_blank\" rel=\"nofollow noopener\"><span class=\"pdf-onebox-logo\"></span></a>\n<h3><a href=\"https://giovanipsichiatrisip.files.wordpress.com/2011/01/p27-santangelo-r-p-fuori-concorso-case-report.pdf\" target=\"_blank\" rel=\"nofollow noopener\">p27-santangelo-r-p-fuori-concorso-case-report.pdf</a></h3>\n\n<p class=\"filesize\">308.21 KB</p>\n\n  </article>\n  <div class=\"onebox-metadata\">\n    \n    \n  </div>\n  <div style=\"clear: both\"></div>\n</aside>\n\n<p><strong>SUICIDAL BEHAVIOR INDUCED BY PRAMIPEXOLE DIHYDROCHLORIDE: CASE REPORT</strong> Authors: Sant’Angelo R.P., Ambrosini F., Pacetti M. Mental Health Department, Az. Ausl Romagna</p>\n<p>With the progressive increase of dopamine agonist doses, hypomanic episodes, psychomotor agitation, irritability, intolerance to frustration or euphoria can be precipitated.</p>\n<p>As expected, when an abnormal dopaminergic overstimulation happens may appear thought alterations, delusions, hallucinations and aggression. Increased aggression and inward-directed aggression were associated with hyperactivity in the dopaminergic system in many species.</p>\n<aside class=\"onebox whitelistedgeneric\">\n  <header class=\"source\">\n      <img src=\"https://forum.parkinsons.org.uk/uploads/db7928/original/2X/7/7d76639ac91060f5c7b2d43e4e18ab436f6a4d17.png\" class=\"site-icon\" width=\"32\" height=\"32\">\n      <a href=\"https://mentalhealthdaily.com/2016/02/04/mirapex-pramipexole-side-effects-adverse-reactions-list/\" target=\"_blank\" title=\"11:04PM - 04 February 2016\" rel=\"nofollow noopener\">Mental Health Daily – 4 Feb 16</a>\n  </header>\n  <article class=\"onebox-body\">\n    \n\n<h3><a href=\"https://mentalhealthdaily.com/2016/02/04/mirapex-pramipexole-side-effects-adverse-reactions-list/\" target=\"_blank\" rel=\"nofollow noopener\">Mirapex (Pramipexole) Side Effects &amp; Adverse Reactions (List) - Mental...</a></h3>\n\n<p>Mirapex (Pramipexole) is a medication that was approved by the FDA in 1997 for the treatment of idiopathic (early-stage and advanced) Parkinson’s</p>\n\n\n  </article>\n  <div class=\"onebox-metadata\">\n    \n    \n  </div>\n  <div style=\"clear: both\"></div>\n</aside>\n\n<p>Mirapex (Pramipexole) Side Effects &amp; Adverse Reactions</p>\n<p>‘A.’ Aug.29, 2018, I too have been on Mirapex for 8 years, and have suffered from RLS for that time. … have developed a gambling problem, which I never had before. My personality has became more aggressive…</p>\n<p>‘B.’ Dec. 26, 2017, I was started on mirapex about 8 years ago for severe restless leg syndrome… [RELATIONSHIP] Always a gentle, kind person, I was very inappropriate and said some very hurtful things. It was always at night. I’d wake up in the morning a different person, sorry and ashamed…. [my children]. Aggressive paranoid racing thoughts led me to say horrible things. I hurt them so much</p>\n      </div>\n      <meta itemprop='interactionCount' content='UserLikes:0'>\n      <meta itemprop='interactionCount' content='UserComments:0'>\n      <meta itemprop='headline' content='Is PD the cause of my angry outbursts?'>\n      <hr>\n  </div>\n\n\n\n\n\n\n    </div>\n    <footer class=\"container\">\n      <nav class='crawler-nav' itemscope itemtype='http://schema.org/SiteNavigationElement'>\n        <a href='/'>Home</a>\n        <a href=\"/categories\">Categories</a>\n        <a href=\"/guidelines\">FAQ/Guidelines</a>\n        <a href=\"/tos\">Terms of Service</a>\n        <a href=\"/privacy\">Privacy Policy</a>\n      </nav>\n      <p class='powered-by-link'>Powered by <a href=\"https://www.discourse.org\">Discourse</a>, best viewed with JavaScript enabled</p>\n    </footer>\n    \n  </body>\n  \n</html>\n",
  "url": "https://forum.parkinsons.org.uk/t/is-pd-the-cause-of-my-angry-outbursts/18232"
}