{
  "contentId": "d2b37270-8869-11e9-8f96-97f71b5221d6",
  "html": "<!DOCTYPE html>\n<html lang=\"en\">\n  <head>\n    <meta charset=\"utf-8\">\n    <title>Getting a pd sufferer back to the uk - Introductions and personal stories - Parkinson&#39;s UK Forum</title>\n    <meta name=\"description\" content=\"Hi !  I joined the forum a while ago but up until now have not found out how to post \nMy husband, aged 85 and I live in France.  His doctor recommends a care home as he has difficulty walking, with comprehension, speakin&amp;hellip;\">\n    <meta name=\"author\" content=\"\">\n<meta name=\"generator\" content=\"Discourse 2.2.5 - https://github.com/discourse/discourse version c294ff3609f988dcafb742e91606d60ca13b794d\">\n<link rel=\"icon\" type=\"image/png\" href=\"https://forum.parkinsons.org.uk/uploads/db7928/original/2X/3/311fc84f89f49f38601a2f16b295b6f03d3ce5dd.jpg\">\n<link rel=\"apple-touch-icon\" type=\"image/png\" href=\"https://forum.parkinsons.org.uk/uploads/db7928/original/2X/3/311fc84f89f49f38601a2f16b295b6f03d3ce5dd.jpg\">\n<meta name=\"theme-color\" content=\"#ffffff\">\n<meta name=\"viewport\" content=\"width=device-width, minimum-scale=1.0, maximum-scale=1.0, user-scalable=yes\">\n<link rel=\"canonical\" href=\"https://forum.parkinsons.org.uk/t/getting-a-pd-sufferer-back-to-the-uk/14934\" />\n<script type=\"application/ld+json\">{\"@context\":\"http://schema.org\",\"@type\":\"WebSite\",\"url\":\"https://forum.parkinsons.org.uk\",\"potentialAction\":{\"@type\":\"SearchAction\",\"target\":\"https://forum.parkinsons.org.uk/search?q={search_term_string}\",\"query-input\":\"required name=search_term_string\"}}</script>\n<link rel=\"search\" type=\"application/opensearchdescription+xml\" href=\"https://forum.parkinsons.org.uk/opensearch.xml\" title=\"Parkinson&#39;s UK Forum Search\">\n\n      <link href=\"/stylesheets/desktop_f99246ae801b083d3e4cca979d0dade8615b39ac.css?__ws=forum.parkinsons.org.uk\" media=\"all\" rel=\"stylesheet\" data-target=\"desktop\" data-theme-id=\"12\"/>\n      <link href=\"/stylesheets/desktop_theme_12_5d27531cf43f9df0c03a6a6ec3109dd05f9dfc49.css?__ws=forum.parkinsons.org.uk\" media=\"all\" rel=\"stylesheet\" data-target=\"desktop_theme\" data-theme-id=\"12\"/>\n    <link href=\"https://fonts.googleapis.com/css?family=Open+Sans\" rel=\"stylesheet\">\n\n    <meta id=\"data-ga-universal-analytics\" data-tracking-code=\"UA-4855628-1\" data-json=\"{&quot;cookieDomain&quot;:&quot;auto&quot;}\" data-auto-link-domains=\"\">\n\n<link rel='preload' href='/assets/google-universal-analytics-f35b4da49411e6f5559073523aab983da483976a3954c79c756f8579f6fbd6ef.js' as='script'/>\n<script src='/assets/google-universal-analytics-f35b4da49411e6f5559073523aab983da483976a3954c79c756f8579f6fbd6ef.js'></script>\n\n      <link rel=\"alternate\" type=\"application/rss+xml\" title=\"RSS feed of &#39;Getting a pd sufferer back to the uk&#39;\" href=\"https://forum.parkinsons.org.uk/t/getting-a-pd-sufferer-back-to-the-uk/14934.rss\" />\n  <meta property=\"og:site_name\" content=\"Parkinson&#39;s UK Forum\" />\n<meta name=\"twitter:card\" content=\"summary\" />\n<meta name=\"twitter:image\" content=\"https://forum.parkinsons.org.uk/user_avatar/forum.parkinsons.org.uk/reah/200/1665_2.png\" />\n<meta property=\"og:image\" content=\"https://forum.parkinsons.org.uk/user_avatar/forum.parkinsons.org.uk/reah/200/1665_2.png\" />\n<meta property=\"og:url\" content=\"https://forum.parkinsons.org.uk/t/getting-a-pd-sufferer-back-to-the-uk/14934/2\" />\n<meta name=\"twitter:url\" content=\"https://forum.parkinsons.org.uk/t/getting-a-pd-sufferer-back-to-the-uk/14934/2\" />\n<meta property=\"og:title\" content=\"Getting a pd sufferer back to the uk\" />\n<meta name=\"twitter:title\" content=\"Getting a pd sufferer back to the uk\" />\n<meta property=\"og:description\" content=\"Hi Bourgeois,  I’m sorry to hear that you were finding it difficult to post on the forum. For more help on this, I’ve created a few tutorial videos on this here - How to use the forum - Tutorial videos!  In regards to your husband, I appreciate your concerns and would recommend that you contact our helpline as soon as you can to speak to one of our advisers about this. You can reach us on 0808 800 0303 from Monday-Friday: 9am-7pm, Saturday: 10am-2pm, or you can email hello@parkinsons.org.uk.  I ...\" />\n<meta name=\"twitter:description\" content=\"Hi Bourgeois,  I’m sorry to hear that you were finding it difficult to post on the forum. For more help on this, I’ve created a few tutorial videos on this here - How to use the forum - Tutorial videos!  In regards to your husband, I appreciate your concerns and would recommend that you contact our helpline as soon as you can to speak to one of our advisers about this. You can reach us on 0808 800 0303 from Monday-Friday: 9am-7pm, Saturday: 10am-2pm, or you can email hello@parkinsons.org.uk.  I ...\" />\n<meta property=\"article:published_time\" content=\"2018-08-02T10:07:16+00:00\" />\n<meta property=\"og:ignore_canonical\" content=\"true\" />\n\n\n\n    \n  </head>\n  <body class=\"crawler\">\n    <header role=\"banner\">\n    <div class=\"region region-header\">\n        <div class=\"region-header-wrapper\">\n            <div id=\"block-parkinsons-d8-branding\" class=\"block block-system block-system-branding-block\">\n                <a href=\"/\" title=\"Home\" rel=\"home\" class=\"site-logo\">\n                    <img src=\"https://forum.parkinsons.org.uk/uploads/db7928/original/2X/8/862bb7d172e7d127e7f3e147ec43594aa62ac945.png\" alt=\"Parkinson's UK. Change Attitudes. Find a cure. Join us.\">\n                </a>\n            </div>\n            <div id=\"block-helpline\" class=\"block block-block-content block-block-content871cd5af-b938-4947-9dc0-d5c211d08fe3 style-phone\">\n                <div class=\"field field--name-field-link field--type-link field--label-hidden field__item\"><a href=\"tel:+448088000303\">Helpline 0808 800 0303</a></div>\n            </div>\n            <div id=\"block-shop\" class=\"block block-block-content block-block-content6fba5ae5-7797-49cd-8367-f321d8111cd6 style-regular\">\n                <div class=\"field field--name-field-link field--type-link field--label-hidden field__item\"><a href=\"https://shop.parkinsons.org.uk\">Shop</a></div>\n            </div>\n        </div>\n    </div>\n</header>\n\n\n<script src=\"/theme-javascripts/b7e9763fcb584fc8265c56a9f557cd6d2e1e8ed8.js?__ws=forum.parkinsons.org.uk\"></script>\n    <header>\n      <a href=\"/\">\n          <img src=\"https://forum.parkinsons.org.uk/uploads/db7928/original/2X/8/862bb7d172e7d127e7f3e147ec43594aa62ac945.png\" alt=\"Parkinson&#39;s UK Forum\" id=\"site-logo\" style=\"max-width: 150px;\">\n      </a>\n    </header>\n    <div id=\"main-outlet\" class=\"wrap\">\n      <h1>\n  <a href=\"/t/getting-a-pd-sufferer-back-to-the-uk/14934\">Getting a pd sufferer back to the uk</a>\n</h1>\n\n<div id='breadcrumbs'>\n    <div id=\"breadcrumb-0\" itemscope itemtype=\"http://data-vocabulary.org/Breadcrumb\"\n        itemref=\"breadcrumb-1\"\n      >\n      <a href=\"/c/about-me\" itemprop=\"url\">\n        <span itemprop=\"title\">About me</span>\n      </a>\n    </div>\n    <div id=\"breadcrumb-1\" itemscope itemtype=\"http://data-vocabulary.org/Breadcrumb\"\n>\n      <a href=\"/c/about-me/introductions-and-personal-stories\" itemprop=\"url\">\n        <span itemprop=\"title\">Introductions and personal stories</span>\n      </a>\n    </div>\n</div>\n\n\n\n\n\n<hr>\n\n\n  <div itemscope itemtype='http://schema.org/DiscussionForumPosting'>\n      <div class='creator'>\n        <span>\n          <a href='/u/BOURGEOIS'><b itemprop='author'>BOURGEOIS</b></a>\n          \n          <time datetime='2018-08-01T16:52:40Z' itemprop='datePublished'>\n            2018-08-01 16:52:40 UTC\n          </time>\n        </span>\n        <span itemprop='position'>#1</span>\n      </div>\n      <div class='post' itemprop='articleBody'>\n        <p>Hi !  I joined the forum a while ago but up until now have not found out how to post<br>\nMy husband, aged 85 and I live in France.  His doctor recommends a care home as he has difficulty walking, with comprehension, speaking, etc and is on a protein liquid only diet and losing weight fast.  He would prefer to be in a care home in the UK as he cannot speak French.   I have researched and found a lovely one in UK but cannot figure out how to get him back …any ideas &gt;  Flying would be too stressful and I could not drive back …desperate for him ! Thanks for any advice !</p>\n      </div>\n      <meta itemprop='interactionCount' content='UserLikes:0'>\n      <meta itemprop='interactionCount' content='UserComments:0'>\n      <meta itemprop='headline' content='Getting a pd sufferer back to the uk'>\n      <hr>\n  </div>\n  <div itemscope itemtype='http://schema.org/DiscussionForumPosting'>\n      <div class='creator'>\n        <span>\n          <a href='/u/Reah'><b itemprop='author'>Reah</b></a>\n          \n          <time datetime='2018-08-02T10:07:16Z' itemprop='datePublished'>\n            2018-08-02 10:07:16 UTC\n          </time>\n        </span>\n        <span itemprop='position'>#2</span>\n      </div>\n      <div class='post' itemprop='articleBody'>\n        <p>Hi Bourgeois,</p>\n<p>I’m sorry to hear that you were finding it difficult to post on the forum. For more help on this, I’ve created a few tutorial videos on this here - <a href=\"https://forum.parkinsons.org.uk/t/how-to-use-the-forum-tutorial-videos/14908/1\">How to use the forum - Tutorial videos!</a></p>\n<p>In regards to your husband, I appreciate your concerns and would recommend that you contact our helpline as soon as you can to speak to one of our advisers about this. You can reach us on 0808 800 0303 from Monday-Friday: 9am-7pm, Saturday: 10am-2pm, or you can email <a href=\"/cdn-cgi/l/email-protection#0c64696060634c7c6d7e6765627f63627f22637e6b227967\"><span class=\"__cf_email__\" data-cfemail=\"cba3aea7a7a48bbbaab9a0a2a5b8a4a5b8e5a4b9ace5bea0\">[email&#160;protected]</span></a>.</p>\n<p>I hope you find this helpful, please let me know if there’s anything else I can help you with.</p>\n<p>Best wishes,<br>\nReah</p>\n      </div>\n      <meta itemprop='interactionCount' content='UserLikes:0'>\n      <meta itemprop='interactionCount' content='UserComments:0'>\n      <meta itemprop='headline' content='Getting a pd sufferer back to the uk'>\n      <hr>\n  </div>\n\n\n\n\n\n\n    </div>\n    <footer class=\"container\">\n      <nav class='crawler-nav' itemscope itemtype='http://schema.org/SiteNavigationElement'>\n        <a href='/'>Home</a>\n        <a href=\"/categories\">Categories</a>\n        <a href=\"/guidelines\">FAQ/Guidelines</a>\n        <a href=\"/tos\">Terms of Service</a>\n        <a href=\"/privacy\">Privacy Policy</a>\n      </nav>\n      <p class='powered-by-link'>Powered by <a href=\"https://www.discourse.org\">Discourse</a>, best viewed with JavaScript enabled</p>\n    </footer>\n    \n  <script data-cfasync=\"false\" src=\"/cdn-cgi/scripts/5c5dd728/cloudflare-static/email-decode.min.js\"></script></body>\n  \n</html>\n",
  "url": "https://forum.parkinsons.org.uk/t/getting-a-pd-sufferer-back-to-the-uk/14934"
}