{
  "contentId": "84eb6fc0-8864-11e9-8f96-97f71b5221d6",
  "html": "<!DOCTYPE html>\n<html lang=\"en\">\n  <head>\n    <meta charset=\"utf-8\">\n    <title>Dbs asses fear - Introductions and personal stories - Parkinson&#39;s UK Forum</title>\n    <meta name=\"description\" content=\"1 \nHi im going dbs assessment in a couple of weeks . I was asses3 before in tbe local hospital came of my meds the nighr before as planned and the next day my tremors were on holiday but they did rear their ugly head lat&amp;hellip;\">\n    <meta name=\"author\" content=\"\">\n<meta name=\"generator\" content=\"Discourse 2.2.5 - https://github.com/discourse/discourse version c294ff3609f988dcafb742e91606d60ca13b794d\">\n<link rel=\"icon\" type=\"image/png\" href=\"https://forum.parkinsons.org.uk/uploads/db7928/original/2X/3/311fc84f89f49f38601a2f16b295b6f03d3ce5dd.jpg\">\n<link rel=\"apple-touch-icon\" type=\"image/png\" href=\"https://forum.parkinsons.org.uk/uploads/db7928/original/2X/3/311fc84f89f49f38601a2f16b295b6f03d3ce5dd.jpg\">\n<meta name=\"theme-color\" content=\"#ffffff\">\n<meta name=\"viewport\" content=\"width=device-width, minimum-scale=1.0, maximum-scale=1.0, user-scalable=yes\">\n<link rel=\"canonical\" href=\"https://forum.parkinsons.org.uk/t/dbs-asses-fear/19341\" />\n<script type=\"application/ld+json\">{\"@context\":\"http://schema.org\",\"@type\":\"WebSite\",\"url\":\"https://forum.parkinsons.org.uk\",\"potentialAction\":{\"@type\":\"SearchAction\",\"target\":\"https://forum.parkinsons.org.uk/search?q={search_term_string}\",\"query-input\":\"required name=search_term_string\"}}</script>\n<link rel=\"search\" type=\"application/opensearchdescription+xml\" href=\"https://forum.parkinsons.org.uk/opensearch.xml\" title=\"Parkinson&#39;s UK Forum Search\">\n\n      <link href=\"/stylesheets/desktop_f99246ae801b083d3e4cca979d0dade8615b39ac.css?__ws=forum.parkinsons.org.uk\" media=\"all\" rel=\"stylesheet\" data-target=\"desktop\" data-theme-id=\"12\"/>\n      <link href=\"/stylesheets/desktop_theme_12_5d27531cf43f9df0c03a6a6ec3109dd05f9dfc49.css?__ws=forum.parkinsons.org.uk\" media=\"all\" rel=\"stylesheet\" data-target=\"desktop_theme\" data-theme-id=\"12\"/>\n    <link href=\"https://fonts.googleapis.com/css?family=Open+Sans\" rel=\"stylesheet\">\n\n    <meta id=\"data-ga-universal-analytics\" data-tracking-code=\"UA-4855628-1\" data-json=\"{&quot;cookieDomain&quot;:&quot;auto&quot;}\" data-auto-link-domains=\"\">\n\n<link rel='preload' href='/assets/google-universal-analytics-f35b4da49411e6f5559073523aab983da483976a3954c79c756f8579f6fbd6ef.js' as='script'/>\n<script src='/assets/google-universal-analytics-f35b4da49411e6f5559073523aab983da483976a3954c79c756f8579f6fbd6ef.js'></script>\n\n      <link rel=\"alternate\" type=\"application/rss+xml\" title=\"RSS feed of &#39;Dbs asses fear&#39;\" href=\"https://forum.parkinsons.org.uk/t/dbs-asses-fear/19341.rss\" />\n  <meta property=\"og:site_name\" content=\"Parkinson&#39;s UK Forum\" />\n<meta name=\"twitter:card\" content=\"summary\" />\n<meta name=\"twitter:image\" content=\"https://forum.parkinsons.org.uk/uploads/db7928/original/2X/3/311fc84f89f49f38601a2f16b295b6f03d3ce5dd.jpg\" />\n<meta property=\"og:image\" content=\"https://forum.parkinsons.org.uk/uploads/db7928/original/2X/3/311fc84f89f49f38601a2f16b295b6f03d3ce5dd.jpg\" />\n<meta property=\"og:url\" content=\"https://forum.parkinsons.org.uk/t/dbs-asses-fear/19341\" />\n<meta name=\"twitter:url\" content=\"https://forum.parkinsons.org.uk/t/dbs-asses-fear/19341\" />\n<meta property=\"og:title\" content=\"Dbs asses fear\" />\n<meta name=\"twitter:title\" content=\"Dbs asses fear\" />\n<meta property=\"og:description\" content=\"1  Hi im going dbs assessment in a couple of weeks . I was asses3 before in tbe local hospital came of my meds the nighr before as planned and the next day my tremors were on holiday but they did rear their ugly head later . Im just worried that thus will happen again and the neuro panel will not see the real tremor in real time and say no yo dbs …am i worrying over nothing x\" />\n<meta name=\"twitter:description\" content=\"1  Hi im going dbs assessment in a couple of weeks . I was asses3 before in tbe local hospital came of my meds the nighr before as planned and the next day my tremors were on holiday but they did rear their ugly head later . Im just worried that thus will happen again and the neuro panel will not see the real tremor in real time and say no yo dbs …am i worrying over nothing x\" />\n<meta name=\"twitter:label1\" value=\"Reading time\" />\n<meta name=\"twitter:data1\" value=\"1 mins \uD83D\uDD51\" />\n<meta name=\"twitter:label2\" value=\"Likes\" />\n<meta name=\"twitter:data2\" value=\"1 ❤\" />\n<meta property=\"article:published_time\" content=\"2019-05-19T18:54:32+00:00\" />\n<meta property=\"og:ignore_canonical\" content=\"true\" />\n\n\n\n    \n  </head>\n  <body class=\"crawler\">\n    <header role=\"banner\">\n    <div class=\"region region-header\">\n        <div class=\"region-header-wrapper\">\n            <div id=\"block-parkinsons-d8-branding\" class=\"block block-system block-system-branding-block\">\n                <a href=\"/\" title=\"Home\" rel=\"home\" class=\"site-logo\">\n                    <img src=\"https://forum.parkinsons.org.uk/uploads/db7928/original/2X/8/862bb7d172e7d127e7f3e147ec43594aa62ac945.png\" alt=\"Parkinson's UK. Change Attitudes. Find a cure. Join us.\">\n                </a>\n            </div>\n            <div id=\"block-helpline\" class=\"block block-block-content block-block-content871cd5af-b938-4947-9dc0-d5c211d08fe3 style-phone\">\n                <div class=\"field field--name-field-link field--type-link field--label-hidden field__item\"><a href=\"tel:+448088000303\">Helpline 0808 800 0303</a></div>\n            </div>\n            <div id=\"block-shop\" class=\"block block-block-content block-block-content6fba5ae5-7797-49cd-8367-f321d8111cd6 style-regular\">\n                <div class=\"field field--name-field-link field--type-link field--label-hidden field__item\"><a href=\"https://shop.parkinsons.org.uk\">Shop</a></div>\n            </div>\n        </div>\n    </div>\n</header>\n\n\n<script src=\"/theme-javascripts/b7e9763fcb584fc8265c56a9f557cd6d2e1e8ed8.js?__ws=forum.parkinsons.org.uk\"></script>\n    <header>\n      <a href=\"/\">\n          <img src=\"https://forum.parkinsons.org.uk/uploads/db7928/original/2X/8/862bb7d172e7d127e7f3e147ec43594aa62ac945.png\" alt=\"Parkinson&#39;s UK Forum\" id=\"site-logo\" style=\"max-width: 150px;\">\n      </a>\n    </header>\n    <div id=\"main-outlet\" class=\"wrap\">\n      <h1>\n  <a href=\"/t/dbs-asses-fear/19341\">Dbs asses fear</a>\n</h1>\n\n<div id='breadcrumbs'>\n    <div id=\"breadcrumb-0\" itemscope itemtype=\"http://data-vocabulary.org/Breadcrumb\"\n        itemref=\"breadcrumb-1\"\n      >\n      <a href=\"/c/about-me\" itemprop=\"url\">\n        <span itemprop=\"title\">About me</span>\n      </a>\n    </div>\n    <div id=\"breadcrumb-1\" itemscope itemtype=\"http://data-vocabulary.org/Breadcrumb\"\n>\n      <a href=\"/c/about-me/introductions-and-personal-stories\" itemprop=\"url\">\n        <span itemprop=\"title\">Introductions and personal stories</span>\n      </a>\n    </div>\n</div>\n\n\n\n\n\n<hr>\n\n\n  <div itemscope itemtype='http://schema.org/DiscussionForumPosting'>\n      <div class='creator'>\n        <span>\n          <a href='/u/hazewell123'><b itemprop='author'>hazewell123</b></a>\n          \n          <time datetime='2019-05-19T18:54:32Z' itemprop='datePublished'>\n            2019-05-19 18:54:32 UTC\n          </time>\n        </span>\n        <span itemprop='position'>#1</span>\n      </div>\n      <div class='post' itemprop='articleBody'>\n        <p>1</p>\n<p>Hi im going dbs assessment in a couple of weeks . I was asses3 before in tbe local hospital came of my meds the nighr before as planned and the next day my tremors were on holiday but they did rear their ugly head later . Im just worried that thus will happen again and the neuro panel will not see the real tremor in real time and say no yo dbs …am i worrying over nothing x</p>\n      </div>\n      <meta itemprop='interactionCount' content='UserLikes:0'>\n      <meta itemprop='interactionCount' content='UserComments:0'>\n      <meta itemprop='headline' content='Dbs asses fear'>\n      <hr>\n  </div>\n  <div itemscope itemtype='http://schema.org/DiscussionForumPosting'>\n      <div class='creator'>\n        <span>\n          <a href='/u/Reah'><b itemprop='author'>Reah</b></a>\n          \n          <time datetime='2019-05-28T12:15:45Z' itemprop='datePublished'>\n            2019-05-28 12:15:45 UTC\n          </time>\n        </span>\n        <span itemprop='position'>#2</span>\n      </div>\n      <div class='post' itemprop='articleBody'>\n        <p>Hi <a class=\"mention\" href=\"/u/hazewell123\">@hazewell123</a>,</p>\n<p>I completely understand your concern and I’m sorry that you haven’t heard from anyone sooner. The specialist will decide whether you would benefit from deep brain stimulation by looking at your specific symptoms and looking at any additional risks of surgery. Therefore, I wouldn’t be too concerned about the specialist not seeing your tremor because they take other things into consideration regarding your condition. We have more information on the assessment on our website here - <a href=\"https://www.parkinsons.org.uk/information-and-support/deep-brain-stimulation\" rel=\"nofollow noopener\">https://www.parkinsons.org.uk/information-and-support/deep-brain-stimulation</a>.</p>\n<p>If you have any further concerns having read the information above, you are always welcome to have a chat with one of our advisers via our helpline on 0808 800 0303.</p>\n<p>I hope you find this helpful.</p>\n<p>Best wishes,<br>\nReah</p>\n      </div>\n      <meta itemprop='interactionCount' content='UserLikes:0'>\n      <meta itemprop='interactionCount' content='UserComments:1'>\n      <meta itemprop='headline' content='Dbs asses fear'>\n      <hr>\n  </div>\n  <div itemscope itemtype='http://schema.org/DiscussionForumPosting'>\n      <div class='creator'>\n        <span>\n          <a href='/u/Gerrard'><b itemprop='author'>Gerrard</b></a>\n          \n          <time datetime='2019-05-29T08:07:39Z' itemprop='datePublished'>\n            2019-05-29 08:07:39 UTC\n          </time>\n        </span>\n        <span itemprop='position'>#3</span>\n      </div>\n      <div class='post' itemprop='articleBody'>\n        <p>Hi Hazewell.<br>\nI can see from your recent postings that you are getting really anxious about your approaching DBS Assessment. I just did a search on the forum under “DBS Interview” and found plenty of information which should help to prepare you and may put your mind at rest. Best wishes and “Good Luck” on the day. Gerrard</p>\n      </div>\n      <meta itemprop='interactionCount' content='UserLikes:1'>\n      <meta itemprop='interactionCount' content='UserComments:0'>\n      <meta itemprop='headline' content='Dbs asses fear'>\n      <hr>\n  </div>\n  <div itemscope itemtype='http://schema.org/DiscussionForumPosting'>\n      <div class='creator'>\n        <span>\n          <a href='/u/hazewell123'><b itemprop='author'>hazewell123</b></a>\n          \n          <time datetime='2019-06-02T08:21:38Z' itemprop='datePublished'>\n            2019-06-02 08:21:38 UTC\n          </time>\n        </span>\n        <span itemprop='position'>#4</span>\n      </div>\n      <div class='post' itemprop='articleBody'>\n        <p>HI Reah,  Its not a NO but will take months for the physology reports to come back so they say. Its my anxiety that is holding me back and my age  53…seems its a bit young for them to do this.</p>\n<p>How bad do u need to be !!!  makes me sad and hurting</p>\n<p>Im really upset as i cannot take sinemet anymore as im so sick when i do and im living on madopar disper’ 2 xpills every 2 -3 hrs to get me through the day.</p>\n<p>I have only tremors and they said im phy fit and good and have only got PD mild.<br>\nI past the levadopa challenged as i knew i would.</p>\n<p>When i take 1 x sinemet 25/100 i go through so many bad times …headaches, muscles hurting, hands curling up like a 100 yr old.<br>\ncramps in all muscles, feeling sick, NOT EATING, heart burn, ive lost over a stone,</p>\n<p>Im going to see another  neuro on thurs,<br>\nIllsee what he says and if he can help,<br>\nIf he cannot  i dont know what im going to do next !!!</p>\n<p>Thanks Haze</p>\n      </div>\n      <meta itemprop='interactionCount' content='UserLikes:0'>\n      <meta itemprop='interactionCount' content='UserComments:0'>\n      <meta itemprop='headline' content='Dbs asses fear'>\n      <hr>\n  </div>\n  <div itemscope itemtype='http://schema.org/DiscussionForumPosting'>\n      <div class='creator'>\n        <span>\n          <a href='/u/Reah'><b itemprop='author'>Reah</b></a>\n          \n          <time datetime='2019-06-03T17:43:27Z' itemprop='datePublished'>\n            2019-06-03 17:43:27 UTC\n          </time>\n        </span>\n        <span itemprop='position'>#5</span>\n      </div>\n      <div class='post' itemprop='articleBody'>\n        <p>Hi <a class=\"mention\" href=\"/u/hazewell123\">@hazewell123</a>,</p>\n<p>My goodness, it sounds like you’ve been going through such a rough time and I’m truly sorry to hear that.</p>\n<p>I’d  suggest that the fact they you are being assessed for a 2nd time means your health care professionals (HCPs) feel this is worthwhile but really the main advice here is that DBS is only carried out after a full and comprehensive assessment as to a person’s suitability for the procedure. Therefore, you must be guided by the team of HCPs assessing you and be prepared to ask for explanations of the procedures and assessment. You can contact our helpline for a more detailed breakdown of this.</p>\n<p>If you feel as though your condition has declined rapidly since being taken off your medication, I would also advise you to contact your GP before Thursday if you can, if not, I think it’s definitely a good idea to raise this with your neurologist. In the meantime, we have information on tremor which you can download and print here - <a href=\"https://shop.parkinsons.org.uk/products/tremor-and-parkinson-s\" rel=\"nofollow noopener\">https://shop.parkinsons.org.uk/products/tremor-and-parkinson-s</a>.</p>\n<p>I hope you are able to get some respite following your appointment on Thursday.</p>\n<p>All the best and do take care,</p>\n<p>Reah</p>\n      </div>\n      <meta itemprop='interactionCount' content='UserLikes:0'>\n      <meta itemprop='interactionCount' content='UserComments:1'>\n      <meta itemprop='headline' content='Dbs asses fear'>\n      <hr>\n  </div>\n  <div itemscope itemtype='http://schema.org/DiscussionForumPosting'>\n      <div class='creator'>\n        <span>\n          <a href='/u/hazewell123'><b itemprop='author'>hazewell123</b></a>\n          \n          <time datetime='2019-06-03T18:21:53Z' itemprop='datePublished'>\n            2019-06-03 18:21:53 UTC\n          </time>\n        </span>\n        <span itemprop='position'>#6</span>\n      </div>\n      <div class='post' itemprop='articleBody'>\n        <p>Reah ,<br>\nthanks but its me that has taken  the road to no more sinemet  cannot handle this . Im feeling better no headaches or any of the symtoms or side effects …and this medicine is meant to help …its giving me symptoms …incredible  but true .<br>\nAnother pair if eyes in tbis maybe  it will help</p>\n<p>Cheers  haze</p>\n      </div>\n      <meta itemprop='interactionCount' content='UserLikes:0'>\n      <meta itemprop='interactionCount' content='UserComments:0'>\n      <meta itemprop='headline' content='Dbs asses fear'>\n      <hr>\n  </div>\n  <div itemscope itemtype='http://schema.org/DiscussionForumPosting'>\n      <div class='creator'>\n        <span>\n          <a href='/u/Reah'><b itemprop='author'>Reah</b></a>\n          \n          <time datetime='2019-06-04T11:31:28Z' itemprop='datePublished'>\n            2019-06-04 11:31:28 UTC\n          </time>\n        </span>\n        <span itemprop='position'>#7</span>\n      </div>\n      <div class='post' itemprop='articleBody'>\n        <p>You’re welcome, <a class=\"mention\" href=\"/u/hazewell123\">@hazewell123</a> and I’m happy to hear that you’re feeling better. <img src=\"https://forum.parkinsons.org.uk/images/emoji/twitter/slightly_smiling_face.png?v=6\" title=\":slightly_smiling_face:\" class=\"emoji\" alt=\":slightly_smiling_face:\"></p>\n      </div>\n      <meta itemprop='interactionCount' content='UserLikes:0'>\n      <meta itemprop='interactionCount' content='UserComments:0'>\n      <meta itemprop='headline' content='Dbs asses fear'>\n      <hr>\n  </div>\n\n\n\n\n\n\n    </div>\n    <footer class=\"container\">\n      <nav class='crawler-nav' itemscope itemtype='http://schema.org/SiteNavigationElement'>\n        <a href='/'>Home</a>\n        <a href=\"/categories\">Categories</a>\n        <a href=\"/guidelines\">FAQ/Guidelines</a>\n        <a href=\"/tos\">Terms of Service</a>\n        <a href=\"/privacy\">Privacy Policy</a>\n      </nav>\n      <p class='powered-by-link'>Powered by <a href=\"https://www.discourse.org\">Discourse</a>, best viewed with JavaScript enabled</p>\n    </footer>\n    \n  </body>\n  \n</html>\n",
  "url": "https://forum.parkinsons.org.uk/t/dbs-asses-fear/19341"
}