{
  "contentId": "2d98c760-8871-11e9-8f96-97f71b5221d6",
  "html": "<!DOCTYPE html>\n<html lang=\"en\">\n  <head>\n    <meta charset=\"utf-8\">\n    <title>Faling over - Wellbeing - Parkinson&#39;s UK Forum</title>\n    <meta name=\"description\" content=\"Hi Friends \nRecently I keep falling and have had a fewbad falls. I feel wobbly when walking. I do use my stick all the time when going outside.A day does not go past that I have not fallen that is also happening in the h&amp;hellip;\">\n    <meta name=\"author\" content=\"\">\n<meta name=\"generator\" content=\"Discourse 2.2.5 - https://github.com/discourse/discourse version c294ff3609f988dcafb742e91606d60ca13b794d\">\n<link rel=\"icon\" type=\"image/png\" href=\"https://forum.parkinsons.org.uk/uploads/db7928/original/2X/3/311fc84f89f49f38601a2f16b295b6f03d3ce5dd.jpg\">\n<link rel=\"apple-touch-icon\" type=\"image/png\" href=\"https://forum.parkinsons.org.uk/uploads/db7928/original/2X/3/311fc84f89f49f38601a2f16b295b6f03d3ce5dd.jpg\">\n<meta name=\"theme-color\" content=\"#ffffff\">\n<meta name=\"viewport\" content=\"width=device-width, minimum-scale=1.0, maximum-scale=1.0, user-scalable=yes\">\n<link rel=\"canonical\" href=\"https://forum.parkinsons.org.uk/t/faling-over/12220?page=2\" />\n<script type=\"application/ld+json\">{\"@context\":\"http://schema.org\",\"@type\":\"WebSite\",\"url\":\"https://forum.parkinsons.org.uk\",\"potentialAction\":{\"@type\":\"SearchAction\",\"target\":\"https://forum.parkinsons.org.uk/search?q={search_term_string}\",\"query-input\":\"required name=search_term_string\"}}</script>\n<link rel=\"search\" type=\"application/opensearchdescription+xml\" href=\"https://forum.parkinsons.org.uk/opensearch.xml\" title=\"Parkinson&#39;s UK Forum Search\">\n\n      <link href=\"/stylesheets/desktop_f99246ae801b083d3e4cca979d0dade8615b39ac.css?__ws=forum.parkinsons.org.uk\" media=\"all\" rel=\"stylesheet\" data-target=\"desktop\" data-theme-id=\"12\"/>\n      <link href=\"/stylesheets/desktop_theme_12_5d27531cf43f9df0c03a6a6ec3109dd05f9dfc49.css?__ws=forum.parkinsons.org.uk\" media=\"all\" rel=\"stylesheet\" data-target=\"desktop_theme\" data-theme-id=\"12\"/>\n    <link href=\"https://fonts.googleapis.com/css?family=Open+Sans\" rel=\"stylesheet\">\n\n    <meta id=\"data-ga-universal-analytics\" data-tracking-code=\"UA-4855628-1\" data-json=\"{&quot;cookieDomain&quot;:&quot;auto&quot;}\" data-auto-link-domains=\"\">\n\n<link rel='preload' href='/assets/google-universal-analytics-f35b4da49411e6f5559073523aab983da483976a3954c79c756f8579f6fbd6ef.js' as='script'/>\n<script src='/assets/google-universal-analytics-f35b4da49411e6f5559073523aab983da483976a3954c79c756f8579f6fbd6ef.js'></script>\n\n      <link rel=\"alternate\" type=\"application/rss+xml\" title=\"RSS feed of &#39;Faling over&#39;\" href=\"https://forum.parkinsons.org.uk/t/faling-over/12220.rss\" />\n  <meta property=\"og:site_name\" content=\"Parkinson&#39;s UK Forum\" />\n<meta name=\"twitter:card\" content=\"summary\" />\n<meta name=\"twitter:image\" content=\"https://forum.parkinsons.org.uk/uploads/db7928/original/2X/3/311fc84f89f49f38601a2f16b295b6f03d3ce5dd.jpg\" />\n<meta property=\"og:image\" content=\"https://forum.parkinsons.org.uk/uploads/db7928/original/2X/3/311fc84f89f49f38601a2f16b295b6f03d3ce5dd.jpg\" />\n<meta property=\"og:url\" content=\"https://forum.parkinsons.org.uk/t/faling-over/12220?page=2\" />\n<meta name=\"twitter:url\" content=\"https://forum.parkinsons.org.uk/t/faling-over/12220?page=2\" />\n<meta property=\"og:title\" content=\"Faling over\" />\n<meta name=\"twitter:title\" content=\"Faling over\" />\n<meta property=\"og:description\" content=\"Hi sheila. I do walk alot . Im positive in mind . Have i got PD ? Answer is yes  Does it own me ?  Answer is  Hell no. Only the wife owns me. And im more scared of her lol. I will work round it and will adjust . its now apart of me and it isnt going away  Im a strong person but thats not to say there wont be the odd bad day along the way. Just another hurdle… but ive a supportive family and some friends who encourage me. Looking forward to going back to work eventually when i start my meds  But ...\" />\n<meta name=\"twitter:description\" content=\"Hi sheila. I do walk alot . Im positive in mind . Have i got PD ? Answer is yes  Does it own me ?  Answer is  Hell no. Only the wife owns me. And im more scared of her lol. I will work round it and will adjust . its now apart of me and it isnt going away  Im a strong person but thats not to say there wont be the odd bad day along the way. Just another hurdle… but ive a supportive family and some friends who encourage me. Looking forward to going back to work eventually when i start my meds  But ...\" />\n<meta name=\"twitter:label1\" value=\"Reading time\" />\n<meta name=\"twitter:data1\" value=\"8 mins \uD83D\uDD51\" />\n<meta name=\"twitter:label2\" value=\"Likes\" />\n<meta name=\"twitter:data2\" value=\"8 ❤\" />\n<meta property=\"article:published_time\" content=\"2018-03-03T21:48:43+00:00\" />\n<meta property=\"og:ignore_canonical\" content=\"true\" />\n\n      <link rel=\"prev\" href=\"/t/faling-over/12220\">\n      <link rel=\"next\" href=\"/t/faling-over/12220?page=3\">\n\n\n    \n  </head>\n  <body class=\"crawler\">\n    <header role=\"banner\">\n    <div class=\"region region-header\">\n        <div class=\"region-header-wrapper\">\n            <div id=\"block-parkinsons-d8-branding\" class=\"block block-system block-system-branding-block\">\n                <a href=\"/\" title=\"Home\" rel=\"home\" class=\"site-logo\">\n                    <img src=\"https://forum.parkinsons.org.uk/uploads/db7928/original/2X/8/862bb7d172e7d127e7f3e147ec43594aa62ac945.png\" alt=\"Parkinson's UK. Change Attitudes. Find a cure. Join us.\">\n                </a>\n            </div>\n            <div id=\"block-helpline\" class=\"block block-block-content block-block-content871cd5af-b938-4947-9dc0-d5c211d08fe3 style-phone\">\n                <div class=\"field field--name-field-link field--type-link field--label-hidden field__item\"><a href=\"tel:+448088000303\">Helpline 0808 800 0303</a></div>\n            </div>\n            <div id=\"block-shop\" class=\"block block-block-content block-block-content6fba5ae5-7797-49cd-8367-f321d8111cd6 style-regular\">\n                <div class=\"field field--name-field-link field--type-link field--label-hidden field__item\"><a href=\"https://shop.parkinsons.org.uk\">Shop</a></div>\n            </div>\n        </div>\n    </div>\n</header>\n\n\n<script src=\"/theme-javascripts/b7e9763fcb584fc8265c56a9f557cd6d2e1e8ed8.js?__ws=forum.parkinsons.org.uk\"></script>\n    <header>\n      <a href=\"/\">\n          <img src=\"https://forum.parkinsons.org.uk/uploads/db7928/original/2X/8/862bb7d172e7d127e7f3e147ec43594aa62ac945.png\" alt=\"Parkinson&#39;s UK Forum\" id=\"site-logo\" style=\"max-width: 150px;\">\n      </a>\n    </header>\n    <div id=\"main-outlet\" class=\"wrap\">\n      <h1>\n  <a href=\"/t/faling-over/12220\">Faling over</a>\n</h1>\n\n<div id='breadcrumbs'>\n    <div id=\"breadcrumb-0\" itemscope itemtype=\"http://data-vocabulary.org/Breadcrumb\"\n        itemref=\"breadcrumb-1\"\n      >\n      <a href=\"/c/about-parkinsons-and-health\" itemprop=\"url\">\n        <span itemprop=\"title\">About Parkinson&#39;s and health</span>\n      </a>\n    </div>\n    <div id=\"breadcrumb-1\" itemscope itemtype=\"http://data-vocabulary.org/Breadcrumb\"\n>\n      <a href=\"/c/about-parkinsons-and-health/wellbeing\" itemprop=\"url\">\n        <span itemprop=\"title\">Wellbeing</span>\n      </a>\n    </div>\n</div>\n\n\n\n\n\n<hr>\n\n\n  <div itemscope itemtype='http://schema.org/DiscussionForumPosting'>\n      <div class='creator'>\n        <span>\n          <a href='/u/itsmylfe'><b itemprop='author'>itsmylfe</b></a>\n          \n          <time datetime='2018-03-03T21:48:43Z' itemprop='datePublished'>\n            2018-03-03 21:48:43 UTC\n          </time>\n        </span>\n        <span itemprop='position'>#21</span>\n      </div>\n      <div class='post' itemprop='articleBody'>\n        <p>Hi sheila. I do walk alot . Im positive in mind . Have i got PD ? Answer is yes<br>\nDoes it own me ?  Answer is  Hell no. Only the wife owns me. And im more scared of her lol. I will work round it and will adjust . its now apart of me and it isnt going away<br>\nIm a strong person but thats not to say there wont be the odd bad day along the way. Just another hurdle… but ive a supportive family and some friends who encourage me. Looking forward to going back to work eventually when i start my meds<br>\nBut since joining this site and swapping messages and jokes. Ive felt better in myself as i know im not alone<br>\nIts like a private club . I can be who i am and  dont have to pretend and not having to hide my condition. I made some great friends on here all ages with and without PD whom i may never meet but on here its like im sitting next to them<br>\nOn nights i cant sleep i am swapping funnies at 2 - 3am in the morning with others<br>\nHave a good weekend and best to your family<br>\nKeith</p>\n      </div>\n      <meta itemprop='interactionCount' content='UserLikes:0'>\n      <meta itemprop='interactionCount' content='UserComments:0'>\n      <meta itemprop='headline' content='Faling over'>\n      <hr>\n  </div>\n  <div itemscope itemtype='http://schema.org/DiscussionForumPosting'>\n      <div class='creator'>\n        <span>\n          <a href='/u/sheffy'><b itemprop='author'>sheffy</b></a>\n          \n          <time datetime='2018-03-03T22:09:18Z' itemprop='datePublished'>\n            2018-03-03 22:09:18 UTC\n          </time>\n        </span>\n        <span itemprop='position'>#22</span>\n      </div>\n      <div class='post' itemprop='articleBody'>\n        <p>Hi Keith - love your sense of humour it’s good to have a positive outlook. I too have the odd night (and getting a bit more frequent for my liking! Yawn! where I sit at the computer  passing the time away either on the forum or playing cards.</p>\n<p>I have had PD for eight years, diagnosed at the age of 57 and still plodding along!</p>\n<p>Stay positive - Sheila</p>\n      </div>\n      <meta itemprop='interactionCount' content='UserLikes:0'>\n      <meta itemprop='interactionCount' content='UserComments:2'>\n      <meta itemprop='headline' content='Faling over'>\n      <hr>\n  </div>\n  <div itemscope itemtype='http://schema.org/DiscussionForumPosting'>\n      <div class='creator'>\n        <span>\n          <a href='/u/babswood'><b itemprop='author'>babswood</b></a>\n          \n          <time datetime='2018-03-04T13:20:42Z' itemprop='datePublished'>\n            2018-03-04 13:20:42 UTC\n          </time>\n        </span>\n        <span itemprop='position'>#23</span>\n      </div>\n      <div class='post' itemprop='articleBody'>\n        <p>Thanks for replying Anne and sorry it has taken me so long to get back to you.<br>\nI am 59 and have had PD for 5 years and  rheumatoid arthritis for 20 years my R A is all over my body.Yes like you I’m staggering around a lot more and believe it is my Parkinsons.<br>\nHope you are doing ok. It i s really good to speak to you and I think we have spoken on the old forum.<br>\nTake Care  Babs x x x</p>\n      </div>\n      <meta itemprop='interactionCount' content='UserLikes:0'>\n      <meta itemprop='interactionCount' content='UserComments:0'>\n      <meta itemprop='headline' content='Faling over'>\n      <hr>\n  </div>\n  <div itemscope itemtype='http://schema.org/DiscussionForumPosting'>\n      <div class='creator'>\n        <span>\n          <a href='/u/itsmylfe'><b itemprop='author'>itsmylfe</b></a>\n          \n          <time datetime='2018-03-05T04:49:21Z' itemprop='datePublished'>\n            2018-03-05 04:49:21 UTC\n          </time>\n        </span>\n        <span itemprop='position'>#24</span>\n      </div>\n      <div class='post' itemprop='articleBody'>\n        <p>the 3 doctors ive seen say it is PD but i have to wait for full diagnoses , i showed symptons in november 2017 at first they thought i had a stroke but mri showed it wasnt then the shakey left han and stiff leg arm and a poxy stutter<br>\nive been told i have 3 of the cardinal signs but will take another couple months till i get the results<br>\ni could win the lottery by then<br>\ni just want to go back to work but my boss wont let me because im not on meds and not covered under company insurance  , doctors need to see my symptons unmasked<br>\nmy days pass easier now ive found this site , someone at some stage during the day makes me laugh and me to them<br>\nbut im good , in good spirits<br>\neven at 4.45 am<br>\ni dont sleep well , good job im not working  but i so want to<br>\nmessage soon<br>\ntake care<br>\nkeith</p>\n      </div>\n      <meta itemprop='interactionCount' content='UserLikes:0'>\n      <meta itemprop='interactionCount' content='UserComments:0'>\n      <meta itemprop='headline' content='Faling over'>\n      <hr>\n  </div>\n  <div itemscope itemtype='http://schema.org/DiscussionForumPosting'>\n      <div class='creator'>\n        <span>\n          <a href='/u/babswood'><b itemprop='author'>babswood</b></a>\n          \n          <time datetime='2018-03-05T07:22:25Z' itemprop='datePublished'>\n            2018-03-05 07:22:25 UTC\n          </time>\n        </span>\n        <span itemprop='position'>#25</span>\n      </div>\n      <div class='post' itemprop='articleBody'>\n        <p>Hi Keith</p>\n<p>Hoping you get back to work soon x</p>\n      </div>\n      <meta itemprop='interactionCount' content='UserLikes:0'>\n      <meta itemprop='interactionCount' content='UserComments:0'>\n      <meta itemprop='headline' content='Faling over'>\n      <hr>\n  </div>\n  <div itemscope itemtype='http://schema.org/DiscussionForumPosting'>\n      <div class='creator'>\n        <span>\n          <a href='/u/Jules77'><b itemprop='author'>Jules77</b></a>\n          \n          <time datetime='2018-03-05T12:50:53Z' itemprop='datePublished'>\n            2018-03-05 12:50:53 UTC\n          </time>\n        </span>\n        <span itemprop='position'>#26</span>\n      </div>\n      <div class='post' itemprop='articleBody'>\n        <p>Hi Babs and all,</p>\n<p>I was diagnosed with PD six years ago. I’m eighty next month.<br>\nSound of heart and mind but having increasing level of problems.<br>\nI have come close to falling over on numerous occasions, particularly recently as the disease has worsened  but have always managed to cling on. At six ft one, and nearly 15 stone and two artificial knees I would be in trouble.<br>\nI like this site have chatted to some of you before. Can identify with your humour Keith. Humour helps fight PD, no doubt about it.<br>\nBabs - How did the wedding go last October?<br>\nI Miss TeeHee as well. I’m sure she’ll be back.</p>\n<p>As an aside, They stopped me playing rugby last month (loose prop) because my walking frame got in the way… Hey HO<br>\nJules77</p>\n      </div>\n      <meta itemprop='interactionCount' content='UserLikes:2'>\n      <meta itemprop='interactionCount' content='UserComments:0'>\n      <meta itemprop='headline' content='Faling over'>\n      <hr>\n  </div>\n  <div itemscope itemtype='http://schema.org/DiscussionForumPosting'>\n      <div class='creator'>\n        <span>\n          <a href='/u/babswood'><b itemprop='author'>babswood</b></a>\n          \n          <time datetime='2018-03-05T20:15:36Z' itemprop='datePublished'>\n            2018-03-05 20:15:36 UTC\n          </time>\n        </span>\n        <span itemprop='position'>#27</span>\n      </div>\n      <div class='post' itemprop='articleBody'>\n        <p>HI Jules You are certainly doing well.<br>\n80 eh  and still got a sense oh humour…<br>\nMy son’s wedding was amazing just feels like a dream now.<br>\nTake Care Babs x x x</p>\n      </div>\n      <meta itemprop='interactionCount' content='UserLikes:0'>\n      <meta itemprop='interactionCount' content='UserComments:0'>\n      <meta itemprop='headline' content='Faling over'>\n      <hr>\n  </div>\n  <div itemscope itemtype='http://schema.org/DiscussionForumPosting'>\n      <div class='creator'>\n        <span>\n          <a href='/u/Jules77'><b itemprop='author'>Jules77</b></a>\n          \n          <time datetime='2018-03-05T22:14:14Z' itemprop='datePublished'>\n            2018-03-05 22:14:14 UTC\n          </time>\n        </span>\n        <span itemprop='position'>#28</span>\n      </div>\n      <div class='post' itemprop='articleBody'>\n        <p>Hi Babs and all,</p>\n<p>Forgot to mention I did fall over, last July. 12 stitches required. Fall was during the night, when I was in a rush.<br>\nMy Physio emphasised that people with PD should effectively think every move, every step.<br>\nWhen I’m up to doing things I tend be trying to do them at a rush.<br>\nAlso low blood pressure makes me giddy, particularly after bending down and getting up quickly.<br>\nDistonia and dyskinesia cause my legs to pull in at the knees and I can barely walk, this is another problem that causes near falls.</p>\n<p>Regards,<br>\nJules77</p>\n      </div>\n      <meta itemprop='interactionCount' content='UserLikes:0'>\n      <meta itemprop='interactionCount' content='UserComments:1'>\n      <meta itemprop='headline' content='Faling over'>\n      <hr>\n  </div>\n  <div itemscope itemtype='http://schema.org/DiscussionForumPosting'>\n      <div class='creator'>\n        <span>\n          <a href='/u/babswood'><b itemprop='author'>babswood</b></a>\n          \n          <time datetime='2018-03-06T07:00:41Z' itemprop='datePublished'>\n            2018-03-06 07:00:41 UTC\n          </time>\n        </span>\n        <span itemprop='position'>#29</span>\n      </div>\n      <div class='post' itemprop='articleBody'>\n        <p>Hi Jules<br>\nThanks Jules for letting us know what you are going through.<br>\nYou are an inspiration so a big thanks to you . I read all your posts.x</p>\n      </div>\n      <meta itemprop='interactionCount' content='UserLikes:0'>\n      <meta itemprop='interactionCount' content='UserComments:0'>\n      <meta itemprop='headline' content='Faling over'>\n      <hr>\n  </div>\n  <div itemscope itemtype='http://schema.org/DiscussionForumPosting'>\n      <div class='creator'>\n        <span>\n          <a href='/u/Reah'><b itemprop='author'>Reah</b></a>\n          \n          <time datetime='2018-03-06T12:56:30Z' itemprop='datePublished'>\n            2018-03-06 12:56:30 UTC\n          </time>\n        </span>\n        <span itemprop='position'>#30</span>\n      </div>\n      <div class='post' itemprop='articleBody'>\n        <p>Hi <a class=\"mention\" href=\"/u/jules77\">@Jules77</a>,</p>\n<p>Lovely to see you on the forum again.</p>\n<p>I just wanted to intersect to let you know that we have a lot of information on falls on the Parkinson’s UK website that you may want to have a look at,<a href=\"https://www.parkinsons.org.uk/information-and-support/falls-and-dizziness\"> here</a>. I can see that you’ve already spoken to your physio, however there’s a lot of useful information on the kind of equipment, walking aids and footwear available to you as a way to educe risk of falling.</p>\n<p>I hope you find this information helpful.</p>\n<p>Best wishes,<br>\nReah</p>\n      </div>\n      <meta itemprop='interactionCount' content='UserLikes:0'>\n      <meta itemprop='interactionCount' content='UserComments:0'>\n      <meta itemprop='headline' content='Faling over'>\n      <hr>\n  </div>\n  <div itemscope itemtype='http://schema.org/DiscussionForumPosting'>\n      <div class='creator'>\n        <span>\n          <a href='/u/babswood'><b itemprop='author'>babswood</b></a>\n          \n          <time datetime='2018-03-06T15:31:06Z' itemprop='datePublished'>\n            2018-03-06 15:31:06 UTC\n          </time>\n        </span>\n        <span itemprop='position'>#31</span>\n      </div>\n      <div class='post' itemprop='articleBody'>\n        <p>Thanks for the info</p>\n      </div>\n      <meta itemprop='interactionCount' content='UserLikes:0'>\n      <meta itemprop='interactionCount' content='UserComments:0'>\n      <meta itemprop='headline' content='Faling over'>\n      <hr>\n  </div>\n  <div itemscope itemtype='http://schema.org/DiscussionForumPosting'>\n      <div class='creator'>\n        <span>\n          <a href='/u/Jules77'><b itemprop='author'>Jules77</b></a>\n          \n          <time datetime='2018-03-06T17:50:21Z' itemprop='datePublished'>\n            2018-03-06 17:50:21 UTC\n          </time>\n        </span>\n        <span itemprop='position'>#32</span>\n      </div>\n      <div class='post' itemprop='articleBody'>\n        <p>Thank you Rheah for your input and my welcome back, have been on site useful.<br>\nBabs, that is such a lovely compliment you have posted above.x</p>\n<p>Hi all<br>\nHave been to see my PD specialist this afternoon. I asked him specifically about falling. He made the following points.<br>\nKeep a check on blood pressure.<br>\nPostural Hypotension (a sudden change in movement) particularly associated with low BP causes dizziness and can cause you to lose your balance. Bending down and getting up suddenly a good example.<br>\nSudden change in direction or twisting round suddenly without thinking should be avoided.<br>\nAvoid stepping sideways unless under controlled conditions.<br>\nTry to avoid shuffling on your toes as you move forward from stationary, if you suffer from akynesia (freezing)<br>\nHope this is helpful,<br>\nJules77</p>\n      </div>\n      <meta itemprop='interactionCount' content='UserLikes:0'>\n      <meta itemprop='interactionCount' content='UserComments:1'>\n      <meta itemprop='headline' content='Faling over'>\n      <hr>\n  </div>\n  <div itemscope itemtype='http://schema.org/DiscussionForumPosting'>\n      <div class='creator'>\n        <span>\n          <a href='/u/itsmylfe'><b itemprop='author'>itsmylfe</b></a>\n          \n          <time datetime='2018-03-06T18:20:22Z' itemprop='datePublished'>\n            2018-03-06 18:20:22 UTC\n          </time>\n        </span>\n        <span itemprop='position'>#33</span>\n      </div>\n      <div class='post' itemprop='articleBody'>\n        <p>hi everyone ,this is keiths wife kay  i want to say thankyou<br>\nthe many people keith has chatted with has made the worse parts of him  go away, and can forget<br>\nto him its like having a big knees up on line<br>\nim so gratefull and humble you have made such a diffrence  he may never meet anyone face to face but i know someone will be here to tell him to shut up and tell him to stay strong<br>\nhe has let me read most of the messages he has been sent and i cant believe the humour and the way you can take the micky out of yourselves  ( by that i mean no disrepect )<br>\nkeith has lost a few friends which i know has hurt him more than he will let on ,<br>\nhe is strong and we support him in every way , i work and so does his youngest son , if he has had or having a bad day he leaves a red card by the micro wave in the kitchen<br>\nbut we see it less and less<br>\nour boys hate what they see but not him , i suppose all of you have gone through this ,<br>\nhes getting some of himself back but he knows he wont be the same but we love him all the same<br>\ngoing to go now , before he stops me posting this to you all</p>\n<p>i am so gratefull to each and everyone , and so i will sign off as keith does<br>\ntake care<br>\ngod bless<br>\nkay<br>\nxxx</p>\n      </div>\n      <meta itemprop='interactionCount' content='UserLikes:2'>\n      <meta itemprop='interactionCount' content='UserComments:0'>\n      <meta itemprop='headline' content='Faling over'>\n      <hr>\n  </div>\n  <div itemscope itemtype='http://schema.org/DiscussionForumPosting'>\n      <div class='creator'>\n        <span>\n          <a href='/u/babswood'><b itemprop='author'>babswood</b></a>\n          \n          <time datetime='2018-03-06T19:37:22Z' itemprop='datePublished'>\n            2018-03-06 19:37:22 UTC\n          </time>\n        </span>\n        <span itemprop='position'>#34</span>\n      </div>\n      <div class='post' itemprop='articleBody'>\n        <p>That was so nice of you Kay.</p>\n<p>Hopefully hubby gets on fine.its hard but you need to enjoy the rest of your life.<br>\nBabs x</p>\n      </div>\n      <meta itemprop='interactionCount' content='UserLikes:0'>\n      <meta itemprop='interactionCount' content='UserComments:1'>\n      <meta itemprop='headline' content='Faling over'>\n      <hr>\n  </div>\n  <div itemscope itemtype='http://schema.org/DiscussionForumPosting'>\n      <div class='creator'>\n        <span>\n          <a href='/u/babswood'><b itemprop='author'>babswood</b></a>\n          \n          <time datetime='2018-03-06T19:53:31Z' itemprop='datePublished'>\n            2018-03-06 19:53:31 UTC\n          </time>\n        </span>\n        <span itemprop='position'>#35</span>\n      </div>\n      <div class='post' itemprop='articleBody'>\n        <p>Hi Jules</p>\n<p>Yes as you say I would agree as I was also told to always move slowly when getting up or changing position.<br>\nHope this finds you doing ok you always sound so upbeat.<br>\nBabs x</p>\n      </div>\n      <meta itemprop='interactionCount' content='UserLikes:0'>\n      <meta itemprop='interactionCount' content='UserComments:0'>\n      <meta itemprop='headline' content='Faling over'>\n      <hr>\n  </div>\n  <div itemscope itemtype='http://schema.org/DiscussionForumPosting'>\n      <div class='creator'>\n        <span>\n          <a href='/u/Jules77'><b itemprop='author'>Jules77</b></a>\n          \n          <time datetime='2018-03-06T20:20:50Z' itemprop='datePublished'>\n            2018-03-06 20:20:50 UTC\n          </time>\n        </span>\n        <span itemprop='position'>#36</span>\n      </div>\n      <div class='post' itemprop='articleBody'>\n        <p>Hi Keith and Wife,</p>\n<p>You sound like a real fighter to me. PD is a  bloody awful disease but since being on this Forum it has made a great difference to my psyche. Like you I try to retain a sense of humour but sometimes I get down in the dumps.</p>\n<p>Our offspring handle these things very differently from each other, because they are unique individuals. My two daughters are a good example one pretends it’s not happening but my granddaughters (all in their 20s) are just wonderful.</p>\n<p>The red card system sounds a good scheme. Maybe a yellow one as well for half good. I received one or two red cards in my rugger days as mild and gentle loose prop? Can’t even play bowls anymore.</p>\n<p>There are some good poems and writings about PD, amongst other things, under each month, Feb and March especially. Creative Corner is where you will find them. My personal approach is to use humour and pathos to help me and hopefully others. There is no obligation to contribute. Many just pick and choose and read.</p>\n<p>Good luck and stay on board.</p>\n<p>Jules77</p>\n      </div>\n      <meta itemprop='interactionCount' content='UserLikes:0'>\n      <meta itemprop='interactionCount' content='UserComments:1'>\n      <meta itemprop='headline' content='Faling over'>\n      <hr>\n  </div>\n  <div itemscope itemtype='http://schema.org/DiscussionForumPosting'>\n      <div class='creator'>\n        <span>\n          <a href='/u/sheffy'><b itemprop='author'>sheffy</b></a>\n          \n          <time datetime='2018-03-06T20:24:08Z' itemprop='datePublished'>\n            2018-03-06 20:24:08 UTC\n          </time>\n        </span>\n        <span itemprop='position'>#37</span>\n      </div>\n      <div class='post' itemprop='articleBody'>\n        <p>Hi Keith, tell your wife Kay thank you for her kind words, she sounds a lovely person and is very caring of you. PD is not an easy thing to live with, it is as harrowing experience for the person with it as it is for the person who is caring for you. Worse case being the PD coming between couples in a big way, I feel I must tell you this because don’t fall foul to this happening in your life. If either of you feel despair in any way and at anytime, please talk to any one on the forum and we’ll be here.</p>\n<p>Take care, you are a lovely couple - Sheila x</p>\n      </div>\n      <meta itemprop='interactionCount' content='UserLikes:0'>\n      <meta itemprop='interactionCount' content='UserComments:0'>\n      <meta itemprop='headline' content='Faling over'>\n      <hr>\n  </div>\n  <div itemscope itemtype='http://schema.org/DiscussionForumPosting'>\n      <div class='creator'>\n        <span>\n          <a href='/u/itsmylfe'><b itemprop='author'>itsmylfe</b></a>\n          \n          <time datetime='2018-03-06T20:46:32Z' itemprop='datePublished'>\n            2018-03-06 20:46:32 UTC\n          </time>\n        </span>\n        <span itemprop='position'>#38</span>\n      </div>\n      <div class='post' itemprop='articleBody'>\n        <p>hi a bit late on tonight , my wife isnt easy to strangle bloody PD<br>\nhope all are well,<br>\nthank you sheila your words sound loud and clear theres nothing that will come between us ,<br>\nkay has never shown how worried she is , but unknown to her ive heard her with my 2 boys , but out of respect ive never said anything, , should i ? or should i let them have that to themselves ?<br>\ni love them so much so im determined to be more than this ,<br>\nim trying a bit of humour how is it ?<br>\nbut seriously, this has made us stronger as a couple and super strong as a family,<br>\nand i hope others who read this know that life is precious but nothing is impossible just takes a little longer<br>\ni didnt really strangle kay, shes a great cook and shes sitting next to me with a cuppa she just made<br>\ntake care<br>\ngod bless<br>\nkeith , and kay</p>\n      </div>\n      <meta itemprop='interactionCount' content='UserLikes:1'>\n      <meta itemprop='interactionCount' content='UserComments:0'>\n      <meta itemprop='headline' content='Faling over'>\n      <hr>\n  </div>\n  <div itemscope itemtype='http://schema.org/DiscussionForumPosting'>\n      <div class='creator'>\n        <span>\n          <a href='/u/itsmylfe'><b itemprop='author'>itsmylfe</b></a>\n          \n          <time datetime='2018-03-06T20:51:09Z' itemprop='datePublished'>\n            2018-03-06 20:51:09 UTC\n          </time>\n        </span>\n        <span itemprop='position'>#39</span>\n      </div>\n      <div class='post' itemprop='articleBody'>\n        <p>hi jules77<br>\nwe cant play bowls but you have to admit no one can play twister better than us<br>\nwe suck at musical statues and crap at miming<br>\ntake care be happy<br>\ntake care<br>\ngod bless<br>\nkeith</p>\n      </div>\n      <meta itemprop='interactionCount' content='UserLikes:0'>\n      <meta itemprop='interactionCount' content='UserComments:0'>\n      <meta itemprop='headline' content='Faling over'>\n      <hr>\n  </div>\n  <div itemscope itemtype='http://schema.org/DiscussionForumPosting'>\n      <div class='creator'>\n        <span>\n          <a href='/u/Jules77'><b itemprop='author'>Jules77</b></a>\n          \n          <time datetime='2018-03-06T22:45:13Z' itemprop='datePublished'>\n            2018-03-06 22:45:13 UTC\n          </time>\n        </span>\n        <span itemprop='position'>#40</span>\n      </div>\n      <div class='post' itemprop='articleBody'>\n        <p>Hi Keith and Kay,<br>\nDesperately sorry I missed your first name out in my earlier posting Kay.<br>\nJust a typo, I don’t know what happened?<br>\nThanks.<br>\nJulian</p>\n      </div>\n      <meta itemprop='interactionCount' content='UserLikes:0'>\n      <meta itemprop='interactionCount' content='UserComments:1'>\n      <meta itemprop='headline' content='Faling over'>\n      <hr>\n  </div>\n\n  <div role='navigation' itemscope itemtype='http://schema.org/SiteNavigationElement'>\n      <span itemprop='name'><a rel=\"prev\" itemprop=\"url\" href=\"/t/faling-over/12220\">← previous page</a></span>\n      <span itemprop='name'><b><a rel=\"next\" itemprop=\"url\" href=\"/t/faling-over/12220?page=3\">next page →</a></b></span>\n  </div>\n\n\n\n\n\n    </div>\n    <footer class=\"container\">\n      <nav class='crawler-nav' itemscope itemtype='http://schema.org/SiteNavigationElement'>\n        <a href='/'>Home</a>\n        <a href=\"/categories\">Categories</a>\n        <a href=\"/guidelines\">FAQ/Guidelines</a>\n        <a href=\"/tos\">Terms of Service</a>\n        <a href=\"/privacy\">Privacy Policy</a>\n      </nav>\n      <p class='powered-by-link'>Powered by <a href=\"https://www.discourse.org\">Discourse</a>, best viewed with JavaScript enabled</p>\n    </footer>\n    \n  </body>\n  \n</html>\n",
  "url": "https://forum.parkinsons.org.uk/t/faling-over/12220?page=2"
}