{
  "contentId": "72015d70-8864-11e9-8f96-97f71b5221d6",
  "html": "<!DOCTYPE html>\n<html lang=\"en\">\n  <head>\n    <meta charset=\"utf-8\">\n    <title>Today I cried for me - Introductions and personal stories - Parkinson&#39;s UK Forum</title>\n    <meta name=\"description\" content=\"Today I cried, I cried for me \nI cried for my lost dignity \nI cried for all the things I’ve lost \nThose little things I miss the most \nI cried for me and for my pain \nFor things I’ll never do again \nI cried for legs that&amp;hellip;\">\n    <meta name=\"author\" content=\"\">\n<meta name=\"generator\" content=\"Discourse 2.2.5 - https://github.com/discourse/discourse version c294ff3609f988dcafb742e91606d60ca13b794d\">\n<link rel=\"icon\" type=\"image/png\" href=\"https://forum.parkinsons.org.uk/uploads/db7928/original/2X/3/311fc84f89f49f38601a2f16b295b6f03d3ce5dd.jpg\">\n<link rel=\"apple-touch-icon\" type=\"image/png\" href=\"https://forum.parkinsons.org.uk/uploads/db7928/original/2X/3/311fc84f89f49f38601a2f16b295b6f03d3ce5dd.jpg\">\n<meta name=\"theme-color\" content=\"#ffffff\">\n<meta name=\"viewport\" content=\"width=device-width, minimum-scale=1.0, maximum-scale=1.0, user-scalable=yes\">\n<link rel=\"canonical\" href=\"https://forum.parkinsons.org.uk/t/today-i-cried-for-me/14890?page=2\" />\n<script type=\"application/ld+json\">{\"@context\":\"http://schema.org\",\"@type\":\"WebSite\",\"url\":\"https://forum.parkinsons.org.uk\",\"potentialAction\":{\"@type\":\"SearchAction\",\"target\":\"https://forum.parkinsons.org.uk/search?q={search_term_string}\",\"query-input\":\"required name=search_term_string\"}}</script>\n<link rel=\"search\" type=\"application/opensearchdescription+xml\" href=\"https://forum.parkinsons.org.uk/opensearch.xml\" title=\"Parkinson&#39;s UK Forum Search\">\n\n      <link href=\"/stylesheets/desktop_f99246ae801b083d3e4cca979d0dade8615b39ac.css?__ws=forum.parkinsons.org.uk\" media=\"all\" rel=\"stylesheet\" data-target=\"desktop\" data-theme-id=\"12\"/>\n      <link href=\"/stylesheets/desktop_theme_12_5d27531cf43f9df0c03a6a6ec3109dd05f9dfc49.css?__ws=forum.parkinsons.org.uk\" media=\"all\" rel=\"stylesheet\" data-target=\"desktop_theme\" data-theme-id=\"12\"/>\n    <link href=\"https://fonts.googleapis.com/css?family=Open+Sans\" rel=\"stylesheet\">\n\n    <meta id=\"data-ga-universal-analytics\" data-tracking-code=\"UA-4855628-1\" data-json=\"{&quot;cookieDomain&quot;:&quot;auto&quot;}\" data-auto-link-domains=\"\">\n\n<link rel='preload' href='/assets/google-universal-analytics-f35b4da49411e6f5559073523aab983da483976a3954c79c756f8579f6fbd6ef.js' as='script'/>\n<script src='/assets/google-universal-analytics-f35b4da49411e6f5559073523aab983da483976a3954c79c756f8579f6fbd6ef.js'></script>\n\n      <link rel=\"alternate\" type=\"application/rss+xml\" title=\"RSS feed of &#39;Today I cried for me&#39;\" href=\"https://forum.parkinsons.org.uk/t/today-i-cried-for-me/14890.rss\" />\n  <meta property=\"og:site_name\" content=\"Parkinson&#39;s UK Forum\" />\n<meta name=\"twitter:card\" content=\"summary\" />\n<meta name=\"twitter:image\" content=\"https://forum.parkinsons.org.uk/uploads/db7928/original/2X/3/311fc84f89f49f38601a2f16b295b6f03d3ce5dd.jpg\" />\n<meta property=\"og:image\" content=\"https://forum.parkinsons.org.uk/uploads/db7928/original/2X/3/311fc84f89f49f38601a2f16b295b6f03d3ce5dd.jpg\" />\n<meta property=\"og:url\" content=\"https://forum.parkinsons.org.uk/t/today-i-cried-for-me/14890?page=2\" />\n<meta name=\"twitter:url\" content=\"https://forum.parkinsons.org.uk/t/today-i-cried-for-me/14890?page=2\" />\n<meta property=\"og:title\" content=\"Today I cried for me\" />\n<meta name=\"twitter:title\" content=\"Today I cried for me\" />\n<meta property=\"og:description\" content=\"Hi Hubby  THANKYOU  Sometimes i think alot like you  There are days when i feel like i could cry a river  I miss the things i can no longer do , even if thats only to be able to walk normally as before  There have been many dark days for me since this started and still a few ahead  I could win an Oscar for the way i play my part in the art of NORMALCY  and when its on my own that i feel the most down, but that’s ok because no one else sees  I now live with the cards that i have been dealt with G...\" />\n<meta name=\"twitter:description\" content=\"Hi Hubby  THANKYOU  Sometimes i think alot like you  There are days when i feel like i could cry a river  I miss the things i can no longer do , even if thats only to be able to walk normally as before  There have been many dark days for me since this started and still a few ahead  I could win an Oscar for the way i play my part in the art of NORMALCY  and when its on my own that i feel the most down, but that’s ok because no one else sees  I now live with the cards that i have been dealt with G...\" />\n<meta name=\"twitter:label1\" value=\"Reading time\" />\n<meta name=\"twitter:data1\" value=\"8 mins \uD83D\uDD51\" />\n<meta name=\"twitter:label2\" value=\"Likes\" />\n<meta name=\"twitter:data2\" value=\"47 ❤\" />\n<meta property=\"article:published_time\" content=\"2018-08-03T12:38:23+00:00\" />\n<meta property=\"og:ignore_canonical\" content=\"true\" />\n\n      <link rel=\"prev\" href=\"/t/today-i-cried-for-me/14890\">\n      <link rel=\"next\" href=\"/t/today-i-cried-for-me/14890?page=3\">\n\n\n    \n  </head>\n  <body class=\"crawler\">\n    <header role=\"banner\">\n    <div class=\"region region-header\">\n        <div class=\"region-header-wrapper\">\n            <div id=\"block-parkinsons-d8-branding\" class=\"block block-system block-system-branding-block\">\n                <a href=\"/\" title=\"Home\" rel=\"home\" class=\"site-logo\">\n                    <img src=\"https://forum.parkinsons.org.uk/uploads/db7928/original/2X/8/862bb7d172e7d127e7f3e147ec43594aa62ac945.png\" alt=\"Parkinson's UK. Change Attitudes. Find a cure. Join us.\">\n                </a>\n            </div>\n            <div id=\"block-helpline\" class=\"block block-block-content block-block-content871cd5af-b938-4947-9dc0-d5c211d08fe3 style-phone\">\n                <div class=\"field field--name-field-link field--type-link field--label-hidden field__item\"><a href=\"tel:+448088000303\">Helpline 0808 800 0303</a></div>\n            </div>\n            <div id=\"block-shop\" class=\"block block-block-content block-block-content6fba5ae5-7797-49cd-8367-f321d8111cd6 style-regular\">\n                <div class=\"field field--name-field-link field--type-link field--label-hidden field__item\"><a href=\"https://shop.parkinsons.org.uk\">Shop</a></div>\n            </div>\n        </div>\n    </div>\n</header>\n\n\n<script src=\"/theme-javascripts/b7e9763fcb584fc8265c56a9f557cd6d2e1e8ed8.js?__ws=forum.parkinsons.org.uk\"></script>\n    <header>\n      <a href=\"/\">\n          <img src=\"https://forum.parkinsons.org.uk/uploads/db7928/original/2X/8/862bb7d172e7d127e7f3e147ec43594aa62ac945.png\" alt=\"Parkinson&#39;s UK Forum\" id=\"site-logo\" style=\"max-width: 150px;\">\n      </a>\n    </header>\n    <div id=\"main-outlet\" class=\"wrap\">\n      <h1>\n  <a href=\"/t/today-i-cried-for-me/14890\">Today I cried for me</a>\n</h1>\n\n<div id='breadcrumbs'>\n    <div id=\"breadcrumb-0\" itemscope itemtype=\"http://data-vocabulary.org/Breadcrumb\"\n        itemref=\"breadcrumb-1\"\n      >\n      <a href=\"/c/about-me\" itemprop=\"url\">\n        <span itemprop=\"title\">About me</span>\n      </a>\n    </div>\n    <div id=\"breadcrumb-1\" itemscope itemtype=\"http://data-vocabulary.org/Breadcrumb\"\n>\n      <a href=\"/c/about-me/introductions-and-personal-stories\" itemprop=\"url\">\n        <span itemprop=\"title\">Introductions and personal stories</span>\n      </a>\n    </div>\n</div>\n\n\n\n\n\n<hr>\n\n\n  <div itemscope itemtype='http://schema.org/DiscussionForumPosting'>\n      <div class='creator'>\n        <span>\n          <a href='/u/itsmylfe'><b itemprop='author'>itsmylfe</b></a>\n          \n          <time datetime='2018-08-03T12:38:23Z' itemprop='datePublished'>\n            2018-08-03 12:38:23 UTC\n          </time>\n        </span>\n        <span itemprop='position'>#21</span>\n      </div>\n      <div class='post' itemprop='articleBody'>\n        <p>Hi Hubby</p>\n<p>THANKYOU<br>\nSometimes i think alot like you<br>\nThere are days when i feel like i could cry a river<br>\nI miss the things i can no longer do , even if thats only to be able to walk normally as before<br>\nThere have been many dark days for me since this started and still a few ahead<br>\nI could win an Oscar for the way i play my part in the art of NORMALCY<br>\nand when its on my own that i feel the most down, but that’s ok because no one else sees<br>\nI now live with the cards that i have been dealt with GOOD or BAD<br>\nThere is a piece of me missing , i also dont feel the same , i dont feel i have been replaced<br>\nonly CHANGED<br>\nI am now working on the change, WHAT will i find ?? I REALLY DONT KNOW<br>\nWe are all entitled to the feelings we have and go through<br>\nBUT i try my hardest not to let those ruin or delay things that are ahead of me<br>\nWhile im still here i will attempt to do all the things i want and if i fail so be it and even when i know i will fail, Its not the end its JUST A BUMP in the road<br>\nDont let go and fight to keep what you still have<br>\nBE YOU , BE STRONGER THAN YOU THINK YOU ARE , B E C A U S E  YOU ARE</p>\n      </div>\n      <meta itemprop='interactionCount' content='UserLikes:1'>\n      <meta itemprop='interactionCount' content='UserComments:0'>\n      <meta itemprop='headline' content='Today I cried for me'>\n      <hr>\n  </div>\n  <div itemscope itemtype='http://schema.org/DiscussionForumPosting'>\n      <div class='creator'>\n        <span>\n          <a href='/u/Maki'><b itemprop='author'>Maki</b></a>\n          \n          <time datetime='2018-08-04T04:30:03Z' itemprop='datePublished'>\n            2018-08-04 04:30:03 UTC\n          </time>\n        </span>\n        <span itemprop='position'>#22</span>\n      </div>\n      <div class='post' itemprop='articleBody'>\n        <p>Hi Hubby</p>\n<p>I am in silence in solidarity with you,<br>\n“Nobody can cry for me” but us alone,<br>\nfor at the end of the day, we paddle our own canoe<br>\nno matter how hard it is, life has to move on - and<br>\njust as you have the answers to all the questions,<br>\nthe questions have been changed - so better be ready-</p>\n      </div>\n      <meta itemprop='interactionCount' content='UserLikes:0'>\n      <meta itemprop='interactionCount' content='UserComments:0'>\n      <meta itemprop='headline' content='Today I cried for me'>\n      <hr>\n  </div>\n  <div itemscope itemtype='http://schema.org/DiscussionForumPosting'>\n      <div class='creator'>\n        <span>\n          <a href='/u/HavanaS'><b itemprop='author'>HavanaS</b></a>\n          \n          <time datetime='2018-08-05T10:11:04Z' itemprop='datePublished'>\n            2018-08-05 10:11:04 UTC\n          </time>\n        </span>\n        <span itemprop='position'>#23</span>\n      </div>\n      <div class='post' itemprop='articleBody'>\n        <p>My mum has had Parkinsons for 15 years and I know this is how she feels too. Made me sad but I think you have summed up totally how it feels to have Parkinsons and that poem helps the wider world to understand a little of what it’s like. Thank you.</p>\n      </div>\n      <meta itemprop='interactionCount' content='UserLikes:0'>\n      <meta itemprop='interactionCount' content='UserComments:0'>\n      <meta itemprop='headline' content='Today I cried for me'>\n      <hr>\n  </div>\n  <div itemscope itemtype='http://schema.org/DiscussionForumPosting'>\n      <div class='creator'>\n        <span>\n          <a href='/u/meredithhww'><b itemprop='author'>meredithhww</b></a>\n          \n          <time datetime='2018-08-07T16:43:05Z' itemprop='datePublished'>\n            2018-08-07 16:43:05 UTC\n          </time>\n        </span>\n        <span itemprop='position'>#24</span>\n      </div>\n      <div class='post' itemprop='articleBody'>\n        <p>Wow!<br>\nGreat poem.<br>\nLOve it !</p>\n      </div>\n      <meta itemprop='interactionCount' content='UserLikes:0'>\n      <meta itemprop='interactionCount' content='UserComments:0'>\n      <meta itemprop='headline' content='Today I cried for me'>\n      <hr>\n  </div>\n  <div itemscope itemtype='http://schema.org/DiscussionForumPosting'>\n      <div class='creator'>\n        <span>\n          <a href='/u/parkopete65'><b itemprop='author'>parkopete65</b></a>\n          \n          <time datetime='2018-08-16T10:36:42Z' itemprop='datePublished'>\n            2018-08-16 10:36:42 UTC\n          </time>\n        </span>\n        <span itemprop='position'>#25</span>\n      </div>\n      <div class='post' itemprop='articleBody'>\n        <p>Wow you got it in a nutshell</p>\n      </div>\n      <meta itemprop='interactionCount' content='UserLikes:0'>\n      <meta itemprop='interactionCount' content='UserComments:0'>\n      <meta itemprop='headline' content='Today I cried for me'>\n      <hr>\n  </div>\n  <div itemscope itemtype='http://schema.org/DiscussionForumPosting'>\n      <div class='creator'>\n        <span>\n          <a href='/u/Lynda15551'><b itemprop='author'>Lynda15551</b></a>\n          \n          <time datetime='2018-08-18T21:42:49Z' itemprop='datePublished'>\n            2018-08-18 21:42:49 UTC\n          </time>\n        </span>\n        <span itemprop='position'>#26</span>\n      </div>\n      <div class='post' itemprop='articleBody'>\n        <p>You really got to the bottom of my heart,my husband has Parkinsons and I know exactly how you feel. Sending all my love xxx</p>\n      </div>\n      <meta itemprop='interactionCount' content='UserLikes:0'>\n      <meta itemprop='interactionCount' content='UserComments:0'>\n      <meta itemprop='headline' content='Today I cried for me'>\n      <hr>\n  </div>\n  <div itemscope itemtype='http://schema.org/DiscussionForumPosting'>\n      <div class='creator'>\n        <span>\n          <a href='/u/Hubby'><b itemprop='author'>Hubby</b></a>\n          \n          <time datetime='2018-08-18T22:09:02Z' itemprop='datePublished'>\n            2018-08-18 22:09:02 UTC\n          </time>\n        </span>\n        <span itemprop='position'>#27</span>\n      </div>\n      <div class='post' itemprop='articleBody'>\n        <p>Thank you.<br>\nBig hugs.<br>\nHubby.</p>\n      </div>\n      <meta itemprop='interactionCount' content='UserLikes:0'>\n      <meta itemprop='interactionCount' content='UserComments:0'>\n      <meta itemprop='headline' content='Today I cried for me'>\n      <hr>\n  </div>\n  <div itemscope itemtype='http://schema.org/DiscussionForumPosting'>\n      <div class='creator'>\n        <span>\n          <a href='/u/itsmylfe'><b itemprop='author'>itsmylfe</b></a>\n          \n          <time datetime='2018-08-21T08:23:15Z' itemprop='datePublished'>\n            2018-08-21 08:23:15 UTC\n          </time>\n        </span>\n        <span itemprop='position'>#28</span>\n      </div>\n      <div class='post' itemprop='articleBody'>\n        <p>I will try and cry NO more<br>\nParkinson’s has taken enough<br>\nI will save my tears for those who need them , where Parkinson’s wants them<br>\nIt has taken enough of me . I am going to keep the rest</p>\n      </div>\n      <meta itemprop='interactionCount' content='UserLikes:1'>\n      <meta itemprop='interactionCount' content='UserComments:0'>\n      <meta itemprop='headline' content='Today I cried for me'>\n      <hr>\n  </div>\n  <div itemscope itemtype='http://schema.org/DiscussionForumPosting'>\n      <div class='creator'>\n        <span>\n          <a href='/u/airish'><b itemprop='author'>airish</b></a>\n          \n          <time datetime='2018-10-04T09:38:07Z' itemprop='datePublished'>\n            2018-10-04 09:38:07 UTC\n          </time>\n        </span>\n        <span itemprop='position'>#29</span>\n      </div>\n      <div class='post' itemprop='articleBody'>\n        <p>beautiful and so true</p>\n      </div>\n      <meta itemprop='interactionCount' content='UserLikes:0'>\n      <meta itemprop='interactionCount' content='UserComments:0'>\n      <meta itemprop='headline' content='Today I cried for me'>\n      <hr>\n  </div>\n  <div itemscope itemtype='http://schema.org/DiscussionForumPosting'>\n      <div class='creator'>\n        <span>\n          <a href='/u/itsmylfe'><b itemprop='author'>itsmylfe</b></a>\n          \n          <time datetime='2018-10-07T08:47:37Z' itemprop='datePublished'>\n            2018-10-07 08:47:37 UTC\n          </time>\n        </span>\n        <span itemprop='position'>#30</span>\n      </div>\n      <div class='post' itemprop='articleBody'>\n        <p>I read a short story once , it wasnt signed<br>\nCant remember where i read it but it goes like this</p>\n<p>A child was in hospital after having both his or her  hands removed due to an accident</p>\n<p>A Doctor asked how she feels ?<br>\nShe replied its not how i feel<br>\n\" Its what i can still hold \"</p>\n<p>Why is it the wisest words</p>\n<p>When i was young people used to say<br>\nChildren should be seen and not hurt</p>\n<p>If children were listened to more often and heard<br>\nMaybe the world would be in the state it is now</p>\n<p>Keith</p>\n      </div>\n      <meta itemprop='interactionCount' content='UserLikes:1'>\n      <meta itemprop='interactionCount' content='UserComments:0'>\n      <meta itemprop='headline' content='Today I cried for me'>\n      <hr>\n  </div>\n  <div itemscope itemtype='http://schema.org/DiscussionForumPosting'>\n      <div class='creator'>\n        <span>\n          <a href='/u/Hubby'><b itemprop='author'>Hubby</b></a>\n          \n          <time datetime='2018-10-24T19:49:15Z' itemprop='datePublished'>\n            2018-10-24 19:49:15 UTC\n          </time>\n        </span>\n        <span itemprop='position'>#31</span>\n      </div>\n      <div class='post' itemprop='articleBody'>\n        <p>So that’s it?</p>\n<p>So that’s it?<br>\nThat’s my life<br>\nI’ve lost my job<br>\nWhat next my wife?</p>\n<p>I used to be<br>\nSo strong, so proud<br>\nNow every day<br>\nI cry out loud</p>\n<p>There’s not much left<br>\nOf the old me<br>\nI’m sinking fast<br>\nIt’s plain to see</p>\n<p>I have no strength<br>\nNo guts, no fight<br>\nI see just darkness<br>\nNo more light</p>\n<p>As I lie here<br>\nWide awake<br>\nWaiting for<br>\nThe day to break</p>\n<p>I think about<br>\nThe days gone by<br>\nI sometimes have<br>\nA little cry</p>\n<p>Not too loud<br>\nSo not to wake<br>\nMy family<br>\nThey need the break</p>\n<p>A break from me<br>\nThe family head<br>\nNow sobbing quiely<br>\nIn my bed</p>\n<p>So where has gone<br>\nThat lionheart?<br>\nThat mind so sharp?<br>\nThat mouth so smart?</p>\n<p>Will he return?<br>\nI doubt he will<br>\nAnd as I pop<br>\nAnother pill</p>\n<p>That sends me to<br>\nUneasy sleep<br>\nThe final tear<br>\nI dare to weep</p>\n<p>Is for tomorrow<br>\nIt’s on the way<br>\nAnother testing<br>\nTrying day</p>\n<p>So I’ll be brave<br>\nOr at least pretend<br>\nI’ll fight this illness<br>\nTill the end</p>\n<p>The truth is<br>\nI am not so sure<br>\nThat I can do this<br>\nAnymore</p>\n<p>Maybe I’ll just<br>\nStay in bed<br>\nRest my body<br>\nClear my head</p>\n<p>I can’t do that<br>\nSo I’ll rise<br>\nI’ll nod and listen<br>\nTo the wise</p>\n<p>Who always have<br>\nSo much to say<br>\nBefore they send me<br>\nOn my way</p>\n<p>Be a good boy<br>\nTake your pills<br>\nThey are sure to<br>\nCure your ills</p>\n<p>So ill stumble<br>\nMaybe fall<br>\nHit my head<br>\nAgainst a wall</p>\n<p>Morning mirror<br>\nYou’re no friend<br>\nI hate the images<br>\nYou send.</p>\n<p>As I stare blankly<br>\nInto space<br>\nI hardly recognise<br>\nMy face</p>\n<p>But If I look deep<br>\nInto my eyes<br>\nPast the man<br>\nI now despise</p>\n<p>There’s still a tiny<br>\nChink of light<br>\nDefiantly burning<br>\nOh so bright</p>\n<p>I’m not quite ready<br>\nYet to quit<br>\nI’m not giving<br>\nIn to it</p>\n<p>So up I’ll get<br>\nAnd on I’ll go<br>\nEven when<br>\nI feel this low</p>\n<p>It’s hard so hard<br>\nBut understand<br>\nThat with someone here<br>\nTo hold my hand</p>\n<p>I might just make it<br>\nThrough the day<br>\nSo help me please<br>\nTo find a way</p>\n<p>This parkinsons<br>\nThis evil scourge<br>\nHas had me often<br>\nOn the verge</p>\n<p>Of quitting<br>\nTaking to my bed<br>\nIt really messes<br>\nWith my head</p>\n<p>But I won’t take<br>\nThe easy path<br>\nI’ll scream and cry<br>\nI’ll smile and laugh</p>\n<p>Tomorrow yes<br>\nI’ll still be here<br>\nStanding tall.<br>\nFighting fear</p>\n<p>So that’s it<br>\nMy day is done<br>\nLooks like I’ll see.<br>\nAnother one.</p>\n      </div>\n      <meta itemprop='interactionCount' content='UserLikes:3'>\n      <meta itemprop='interactionCount' content='UserComments:3'>\n      <meta itemprop='headline' content='Today I cried for me'>\n      <hr>\n  </div>\n  <div itemscope itemtype='http://schema.org/DiscussionForumPosting'>\n      <div class='creator'>\n        <span>\n          <a href='/u/babswood'><b itemprop='author'>babswood</b></a>\n          \n          <time datetime='2018-10-24T20:45:57Z' itemprop='datePublished'>\n            2018-10-24 20:45:57 UTC\n          </time>\n        </span>\n        <span itemprop='position'>#32</span>\n      </div>\n      <div class='post' itemprop='articleBody'>\n        <p>Oh Hubby I had a cry as I read this. Really just don’t know what else to say.<br>\nBabs x</p>\n      </div>\n      <meta itemprop='interactionCount' content='UserLikes:0'>\n      <meta itemprop='interactionCount' content='UserComments:0'>\n      <meta itemprop='headline' content='Today I cried for me'>\n      <hr>\n  </div>\n  <div itemscope itemtype='http://schema.org/DiscussionForumPosting'>\n      <div class='creator'>\n        <span>\n          <a href='/u/malcT'><b itemprop='author'>malcT</b></a>\n          \n          <time datetime='2018-10-25T04:09:43Z' itemprop='datePublished'>\n            2018-10-25 04:09:43 UTC\n          </time>\n        </span>\n        <span itemprop='position'>#33</span>\n      </div>\n      <div class='post' itemprop='articleBody'>\n        <p><a href=\"/cdn-cgi/l/email-protection\" class=\"__cf_email__\" data-cfemail=\"3d75547d55485f5f44\">[email&#160;protected]</a> Another little gem my friend. You must think at times the world is against you and your family H.My arms dont stretch across the seas to offer my hand but my thoughts and wishes do<br>\nI only know a very small part of many things you are battling with but I believe you are much stronger than you think you are mate, please keep on fighting.<br>\nYou have my number and can ring anytime if you want to talk again<br>\nI also hope your daughter is ok after recent events<br>\nBest Wishes<br>\nMal.</p>\n      </div>\n      <meta itemprop='interactionCount' content='UserLikes:0'>\n      <meta itemprop='interactionCount' content='UserComments:0'>\n      <meta itemprop='headline' content='Today I cried for me'>\n      <hr>\n  </div>\n  <div itemscope itemtype='http://schema.org/DiscussionForumPosting'>\n      <div class='creator'>\n        <span>\n          <a href='/u/Hubby'><b itemprop='author'>Hubby</b></a>\n          \n          <time datetime='2018-10-25T04:45:07Z' itemprop='datePublished'>\n            2018-10-25 04:45:07 UTC\n          </time>\n        </span>\n        <span itemprop='position'>#34</span>\n      </div>\n      <div class='post' itemprop='articleBody'>\n        <p>It has been a rough 18 Months Malc.<br>\nWhen it comes down to it though I have two choices. Give up or make the best of things.<br>\nI had a bit of a meltdown two days ago.<br>\nI sometimes think that my close family forget that I have an illness and expect me to sort out their problems as well as my own.<br>\nThanks for the encouragement.<br>\nHubby</p>\n      </div>\n      <meta itemprop='interactionCount' content='UserLikes:0'>\n      <meta itemprop='interactionCount' content='UserComments:1'>\n      <meta itemprop='headline' content='Today I cried for me'>\n      <hr>\n  </div>\n  <div itemscope itemtype='http://schema.org/DiscussionForumPosting'>\n      <div class='creator'>\n        <span>\n          <a href='/u/Pippa'><b itemprop='author'>Pippa</b></a>\n          \n          <time datetime='2018-10-25T07:26:28Z' itemprop='datePublished'>\n            2018-10-25 07:26:28 UTC\n          </time>\n        </span>\n        <span itemprop='position'>#35</span>\n      </div>\n      <div class='post' itemprop='articleBody'>\n        <p>What an extraordinary ability to put into words your so painful experience at both physical and mental levels, and revealing such a deep heart and mind…thank you for sharing in such a very personal way which shines a light into such dark corners that others can begin to have some understanding of what it is like. Hugely generous of you and a lesson to us all in sharing one’s vulnerability without being sentimental, mawkish , cliched etc.<br>\nThank you<br>\nPippa</p>\n      </div>\n      <meta itemprop='interactionCount' content='UserLikes:1'>\n      <meta itemprop='interactionCount' content='UserComments:0'>\n      <meta itemprop='headline' content='Today I cried for me'>\n      <hr>\n  </div>\n  <div itemscope itemtype='http://schema.org/DiscussionForumPosting'>\n      <div class='creator'>\n        <span>\n          <a href='/u/Shaz65'><b itemprop='author'>Shaz65</b></a>\n          \n          <time datetime='2018-10-26T21:44:53Z' itemprop='datePublished'>\n            2018-10-26 21:44:53 UTC\n          </time>\n        </span>\n        <span itemprop='position'>#36</span>\n      </div>\n      <div class='post' itemprop='articleBody'>\n        <p>That is so true… I have been diagnosed with parkinson’s and lost my dad all in the last 3 months… This poem just describes things so well… Thanks for sharing</p>\n      </div>\n      <meta itemprop='interactionCount' content='UserLikes:1'>\n      <meta itemprop='interactionCount' content='UserComments:0'>\n      <meta itemprop='headline' content='Today I cried for me'>\n      <hr>\n  </div>\n  <div itemscope itemtype='http://schema.org/DiscussionForumPosting'>\n      <div class='creator'>\n        <span>\n          <a href='/u/Hubby'><b itemprop='author'>Hubby</b></a>\n          \n          <time datetime='2018-10-27T08:58:03Z' itemprop='datePublished'>\n            2018-10-27 08:58:03 UTC\n          </time>\n        </span>\n        <span itemprop='position'>#37</span>\n      </div>\n      <div class='post' itemprop='articleBody'>\n        <p>Thanks for the encouragement. My confidence is at an all time low so I often don’t follow ideas through.<br>\nIf my musings help just one person I am thrilled.<br>\nI am not a writer. It is just my story really.<br>\nHubby</p>\n      </div>\n      <meta itemprop='interactionCount' content='UserLikes:2'>\n      <meta itemprop='interactionCount' content='UserComments:0'>\n      <meta itemprop='headline' content='Today I cried for me'>\n      <hr>\n  </div>\n  <div itemscope itemtype='http://schema.org/DiscussionForumPosting'>\n      <div class='creator'>\n        <span>\n          <a href='/u/papajoe'><b itemprop='author'>papajoe</b></a>\n          \n          <time datetime='2018-10-30T18:29:45Z' itemprop='datePublished'>\n            2018-10-30 18:29:45 UTC\n          </time>\n        </span>\n        <span itemprop='position'>#38</span>\n      </div>\n      <div class='post' itemprop='articleBody'>\n        <p>When I started reading your  poem my first thought was he has given in but it soon became apparent that you still have strength.  all of us lumbered with this dreadful disease know how you feel. Whats the point of going on. I know first hand what this Pd is going to do to me long term. My father in law suffered for many many years. Well I am dammed if I am going to let it rule my life. I live for today, forget the future , it is too painful to contemplate.  I cried when I was diagnosed 10 years ago. Well I am not going to cry anymore, I am going to get on, no moaning , just enjoy what I do have, a very caring family, my dog who my wife insisted I get when I finished work. I have met and spoken to many many people since I got him and made new friends. I treasure all the extra time I have had with my wife. My point is enjoy what you have . When you look in that mirror tomorrow morning put 2 fingers up to PD and enjoy your day.</p>\n      </div>\n      <meta itemprop='interactionCount' content='UserLikes:2'>\n      <meta itemprop='interactionCount' content='UserComments:0'>\n      <meta itemprop='headline' content='Today I cried for me'>\n      <hr>\n  </div>\n  <div itemscope itemtype='http://schema.org/DiscussionForumPosting'>\n      <div class='creator'>\n        <span>\n          <a href='/u/Hubby'><b itemprop='author'>Hubby</b></a>\n          \n          <time datetime='2018-10-31T02:33:02Z' itemprop='datePublished'>\n            2018-10-31 02:33:02 UTC\n          </time>\n        </span>\n        <span itemprop='position'>#39</span>\n      </div>\n      <div class='post' itemprop='articleBody'>\n        <p>Too bloody right.<br>\nH.</p>\n      </div>\n      <meta itemprop='interactionCount' content='UserLikes:0'>\n      <meta itemprop='interactionCount' content='UserComments:0'>\n      <meta itemprop='headline' content='Today I cried for me'>\n      <hr>\n  </div>\n  <div itemscope itemtype='http://schema.org/DiscussionForumPosting'>\n      <div class='creator'>\n        <span>\n          <a href='/u/Sassiesue'><b itemprop='author'>Sassiesue</b></a>\n          \n          <time datetime='2018-11-17T11:28:10Z' itemprop='datePublished'>\n            2018-11-17 11:28:10 UTC\n          </time>\n        </span>\n        <span itemprop='position'>#40</span>\n      </div>\n      <div class='post' itemprop='articleBody'>\n        <p>6.30 am and you’ve just restored my sanity. Gone hyper since saw specialist last week. Desperate to prove I’m normal not just a worry  machine. This thing lives in me my body doesn’t do as I ask . I hate this me that falls thro doors or freezes in public. I’m knackered. Agree not after sympathy just acceptance.<br>\nIt’s like I’m a balloon filled with tears waiting to explode then<br>\nI can get back to living for others too</p>\n      </div>\n      <meta itemprop='interactionCount' content='UserLikes:0'>\n      <meta itemprop='interactionCount' content='UserComments:0'>\n      <meta itemprop='headline' content='Today I cried for me'>\n      <hr>\n  </div>\n\n  <div role='navigation' itemscope itemtype='http://schema.org/SiteNavigationElement'>\n      <span itemprop='name'><a rel=\"prev\" itemprop=\"url\" href=\"/t/today-i-cried-for-me/14890\">← previous page</a></span>\n      <span itemprop='name'><b><a rel=\"next\" itemprop=\"url\" href=\"/t/today-i-cried-for-me/14890?page=3\">next page →</a></b></span>\n  </div>\n\n\n\n\n\n    </div>\n    <footer class=\"container\">\n      <nav class='crawler-nav' itemscope itemtype='http://schema.org/SiteNavigationElement'>\n        <a href='/'>Home</a>\n        <a href=\"/categories\">Categories</a>\n        <a href=\"/guidelines\">FAQ/Guidelines</a>\n        <a href=\"/tos\">Terms of Service</a>\n        <a href=\"/privacy\">Privacy Policy</a>\n      </nav>\n      <p class='powered-by-link'>Powered by <a href=\"https://www.discourse.org\">Discourse</a>, best viewed with JavaScript enabled</p>\n    </footer>\n    \n  <script data-cfasync=\"false\" src=\"/cdn-cgi/scripts/5c5dd728/cloudflare-static/email-decode.min.js\"></script></body>\n  \n</html>\n",
  "url": "https://forum.parkinsons.org.uk/t/today-i-cried-for-me/14890?page=2"
}