{
  "contentId": "a1775410-8864-11e9-8f96-97f71b5221d6",
  "html": "<!DOCTYPE html>\n<html lang=\"en\">\n  <head>\n    <meta charset=\"utf-8\">\n    <title>New member would like catchup magazine - News, events and taking part - Parkinson&#39;s UK Forum</title>\n    <meta name=\"description\" content=\"Hi, I have just received my membership after quite a delay and read that “The Parkinson” and “Progress”  are both issued in October. By the looks of it, just too late for me to get them. \nI wonder if there is any way to &amp;hellip;\">\n    <meta name=\"author\" content=\"\">\n<meta name=\"generator\" content=\"Discourse 2.2.5 - https://github.com/discourse/discourse version c294ff3609f988dcafb742e91606d60ca13b794d\">\n<link rel=\"icon\" type=\"image/png\" href=\"https://forum.parkinsons.org.uk/uploads/db7928/original/2X/3/311fc84f89f49f38601a2f16b295b6f03d3ce5dd.jpg\">\n<link rel=\"apple-touch-icon\" type=\"image/png\" href=\"https://forum.parkinsons.org.uk/uploads/db7928/original/2X/3/311fc84f89f49f38601a2f16b295b6f03d3ce5dd.jpg\">\n<meta name=\"theme-color\" content=\"#ffffff\">\n<meta name=\"viewport\" content=\"width=device-width, minimum-scale=1.0, maximum-scale=1.0, user-scalable=yes\">\n<link rel=\"canonical\" href=\"https://forum.parkinsons.org.uk/t/new-member-would-like-catchup-magazine/16508\" />\n<script type=\"application/ld+json\">{\"@context\":\"http://schema.org\",\"@type\":\"WebSite\",\"url\":\"https://forum.parkinsons.org.uk\",\"potentialAction\":{\"@type\":\"SearchAction\",\"target\":\"https://forum.parkinsons.org.uk/search?q={search_term_string}\",\"query-input\":\"required name=search_term_string\"}}</script>\n<link rel=\"search\" type=\"application/opensearchdescription+xml\" href=\"https://forum.parkinsons.org.uk/opensearch.xml\" title=\"Parkinson&#39;s UK Forum Search\">\n\n      <link href=\"/stylesheets/desktop_f99246ae801b083d3e4cca979d0dade8615b39ac.css?__ws=forum.parkinsons.org.uk\" media=\"all\" rel=\"stylesheet\" data-target=\"desktop\" data-theme-id=\"12\"/>\n      <link href=\"/stylesheets/desktop_theme_12_5d27531cf43f9df0c03a6a6ec3109dd05f9dfc49.css?__ws=forum.parkinsons.org.uk\" media=\"all\" rel=\"stylesheet\" data-target=\"desktop_theme\" data-theme-id=\"12\"/>\n    <link href=\"https://fonts.googleapis.com/css?family=Open+Sans\" rel=\"stylesheet\">\n\n    <meta id=\"data-ga-universal-analytics\" data-tracking-code=\"UA-4855628-1\" data-json=\"{&quot;cookieDomain&quot;:&quot;auto&quot;}\" data-auto-link-domains=\"\">\n\n<link rel='preload' href='/assets/google-universal-analytics-f35b4da49411e6f5559073523aab983da483976a3954c79c756f8579f6fbd6ef.js' as='script'/>\n<script src='/assets/google-universal-analytics-f35b4da49411e6f5559073523aab983da483976a3954c79c756f8579f6fbd6ef.js'></script>\n\n      <link rel=\"alternate\" type=\"application/rss+xml\" title=\"RSS feed of &#39;New member would like catchup magazine&#39;\" href=\"https://forum.parkinsons.org.uk/t/new-member-would-like-catchup-magazine/16508.rss\" />\n  <meta property=\"og:site_name\" content=\"Parkinson&#39;s UK Forum\" />\n<meta name=\"twitter:card\" content=\"summary\" />\n<meta name=\"twitter:image\" content=\"https://forum.parkinsons.org.uk/uploads/db7928/original/2X/3/311fc84f89f49f38601a2f16b295b6f03d3ce5dd.jpg\" />\n<meta property=\"og:image\" content=\"https://forum.parkinsons.org.uk/uploads/db7928/original/2X/3/311fc84f89f49f38601a2f16b295b6f03d3ce5dd.jpg\" />\n<meta property=\"og:url\" content=\"https://forum.parkinsons.org.uk/t/new-member-would-like-catchup-magazine/16508\" />\n<meta name=\"twitter:url\" content=\"https://forum.parkinsons.org.uk/t/new-member-would-like-catchup-magazine/16508\" />\n<meta property=\"og:title\" content=\"New member would like catchup magazine\" />\n<meta name=\"twitter:title\" content=\"New member would like catchup magazine\" />\n<meta property=\"og:description\" content=\"Hi, I have just received my membership after quite a delay and read that “The Parkinson” and “Progress”  are both issued in October. By the looks of it, just too late for me to get them.  I wonder if there is any way to download “back numbers” from the site as they sound useful and I’m still in the information gathering stage.  regards  Martin\" />\n<meta name=\"twitter:description\" content=\"Hi, I have just received my membership after quite a delay and read that “The Parkinson” and “Progress”  are both issued in October. By the looks of it, just too late for me to get them.  I wonder if there is any way to download “back numbers” from the site as they sound useful and I’m still in the information gathering stage.  regards  Martin\" />\n<meta property=\"article:published_time\" content=\"2018-11-07T22:04:32+00:00\" />\n<meta property=\"og:ignore_canonical\" content=\"true\" />\n\n\n\n    \n  </head>\n  <body class=\"crawler\">\n    <header role=\"banner\">\n    <div class=\"region region-header\">\n        <div class=\"region-header-wrapper\">\n            <div id=\"block-parkinsons-d8-branding\" class=\"block block-system block-system-branding-block\">\n                <a href=\"/\" title=\"Home\" rel=\"home\" class=\"site-logo\">\n                    <img src=\"https://forum.parkinsons.org.uk/uploads/db7928/original/2X/8/862bb7d172e7d127e7f3e147ec43594aa62ac945.png\" alt=\"Parkinson's UK. Change Attitudes. Find a cure. Join us.\">\n                </a>\n            </div>\n            <div id=\"block-helpline\" class=\"block block-block-content block-block-content871cd5af-b938-4947-9dc0-d5c211d08fe3 style-phone\">\n                <div class=\"field field--name-field-link field--type-link field--label-hidden field__item\"><a href=\"tel:+448088000303\">Helpline 0808 800 0303</a></div>\n            </div>\n            <div id=\"block-shop\" class=\"block block-block-content block-block-content6fba5ae5-7797-49cd-8367-f321d8111cd6 style-regular\">\n                <div class=\"field field--name-field-link field--type-link field--label-hidden field__item\"><a href=\"https://shop.parkinsons.org.uk\">Shop</a></div>\n            </div>\n        </div>\n    </div>\n</header>\n\n\n<script src=\"/theme-javascripts/b7e9763fcb584fc8265c56a9f557cd6d2e1e8ed8.js?__ws=forum.parkinsons.org.uk\"></script>\n    <header>\n      <a href=\"/\">\n          <img src=\"https://forum.parkinsons.org.uk/uploads/db7928/original/2X/8/862bb7d172e7d127e7f3e147ec43594aa62ac945.png\" alt=\"Parkinson&#39;s UK Forum\" id=\"site-logo\" style=\"max-width: 150px;\">\n      </a>\n    </header>\n    <div id=\"main-outlet\" class=\"wrap\">\n      <h1>\n  <a href=\"/t/new-member-would-like-catchup-magazine/16508\">New member would like catchup magazine</a>\n</h1>\n\n<div id='breadcrumbs'>\n    <div id=\"breadcrumb-0\" itemscope itemtype=\"http://data-vocabulary.org/Breadcrumb\"\n        itemref=\"breadcrumb-1\"\n      >\n      <a href=\"/c/get-involved\" itemprop=\"url\">\n        <span itemprop=\"title\">Get involved</span>\n      </a>\n    </div>\n    <div id=\"breadcrumb-1\" itemscope itemtype=\"http://data-vocabulary.org/Breadcrumb\"\n>\n      <a href=\"/c/get-involved/news-events-and-taking-part\" itemprop=\"url\">\n        <span itemprop=\"title\">News, events and taking part</span>\n      </a>\n    </div>\n</div>\n\n\n\n\n\n<hr>\n\n\n  <div itemscope itemtype='http://schema.org/DiscussionForumPosting'>\n      <div class='creator'>\n        <span>\n          <a href='/u/martint123'><b itemprop='author'>martint123</b></a>\n          \n          <time datetime='2018-11-07T22:04:32Z' itemprop='datePublished'>\n            2018-11-07 22:04:32 UTC\n          </time>\n        </span>\n        <span itemprop='position'>#1</span>\n      </div>\n      <div class='post' itemprop='articleBody'>\n        <p>Hi, I have just received my membership after quite a delay and read that “The Parkinson” and “Progress”  are both issued in October. By the looks of it, just too late for me to get them.<br>\nI wonder if there is any way to download “back numbers” from the site as they sound useful and I’m still in the information gathering stage.<br>\nregards<br>\nMartin</p>\n      </div>\n      <meta itemprop='interactionCount' content='UserLikes:0'>\n      <meta itemprop='interactionCount' content='UserComments:0'>\n      <meta itemprop='headline' content='New member would like catchup magazine'>\n      <hr>\n  </div>\n  <div itemscope itemtype='http://schema.org/DiscussionForumPosting'>\n      <div class='creator'>\n        <span>\n          <a href='/u/Moderators2'><b itemprop='author'>Moderators2</b></a>\n          \n          <time datetime='2018-11-07T23:57:14Z' itemprop='datePublished'>\n            2018-11-07 23:57:14 UTC\n          </time>\n        </span>\n        <span itemprop='position'>#2</span>\n      </div>\n      <div class='post' itemprop='articleBody'>\n        <p>Hi <a class=\"mention\" href=\"/u/martint123\">@martint123</a>,</p>\n<p>First of all, thank you for becoming a member and supporting our work while keeping up to date. If you ever encounter any issues with your membership you can get in touch with the Membership Team, who will be delighted to help you. You can call them on 0800 138 6593 (0044+ 1604 321 253 from overseas) or email them on <a href=\"/cdn-cgi/l/email-protection#aac7cfc7c8cfd8d9c2c3daeadacbd8c1c3c4d9c5c4d984c5d8cd84dfc1\"><span class=\"__cf_email__\" data-cfemail=\"0a676f67686f787962637a4a7a6b78616364796564792465786d247f61\">[email&#160;protected]</span></a>.</p>\n<p>If you don’t mind reading the publications you missed online you can access the latest copies of <a href=\"https://www.parkinsons.org.uk/sites/default/files/2018-11/The%20Parkinson%20Autumn%202018%20%20Web%20Version.pdf\">The Parkinson</a> and <a href=\"https://www.parkinsons.org.uk/sites/default/files/2018-10/CS3006%20Progress%20Autumn%202018%20WEB.pdf\">Progress</a> clicking on the relevant publication title.</p>\n<p>I hope that helps, but please don’t hesitate to get in touch if you need further support.</p>\n<p>Best wishes,<br>\nMara<br>\n(Moderation Team)</p>\n      </div>\n      <meta itemprop='interactionCount' content='UserLikes:0'>\n      <meta itemprop='interactionCount' content='UserComments:1'>\n      <meta itemprop='headline' content='New member would like catchup magazine'>\n      <hr>\n  </div>\n  <div itemscope itemtype='http://schema.org/DiscussionForumPosting'>\n      <div class='creator'>\n        <span>\n          <a href='/u/martint123'><b itemprop='author'>martint123</b></a>\n          \n          <time datetime='2018-11-08T22:16:55Z' itemprop='datePublished'>\n            2018-11-08 22:16:55 UTC\n          </time>\n        </span>\n        <span itemprop='position'>#3</span>\n      </div>\n      <div class='post' itemprop='articleBody'>\n        <p>Many thanks Mara. Your pointers to the online versions is exactly what I was hoping to find.<br>\nMartin</p>\n      </div>\n      <meta itemprop='interactionCount' content='UserLikes:1'>\n      <meta itemprop='interactionCount' content='UserComments:0'>\n      <meta itemprop='headline' content='New member would like catchup magazine'>\n      <hr>\n  </div>\n\n\n\n\n\n\n    </div>\n    <footer class=\"container\">\n      <nav class='crawler-nav' itemscope itemtype='http://schema.org/SiteNavigationElement'>\n        <a href='/'>Home</a>\n        <a href=\"/categories\">Categories</a>\n        <a href=\"/guidelines\">FAQ/Guidelines</a>\n        <a href=\"/tos\">Terms of Service</a>\n        <a href=\"/privacy\">Privacy Policy</a>\n      </nav>\n      <p class='powered-by-link'>Powered by <a href=\"https://www.discourse.org\">Discourse</a>, best viewed with JavaScript enabled</p>\n    </footer>\n    \n  <script data-cfasync=\"false\" src=\"/cdn-cgi/scripts/5c5dd728/cloudflare-static/email-decode.min.js\"></script></body>\n  \n</html>\n",
  "url": "https://forum.parkinsons.org.uk/t/new-member-would-like-catchup-magazine/16508"
}