{
  "contentId": "c1bf3980-8865-11e9-8f96-97f71b5221d6",
  "html": "<!DOCTYPE html>\n<html lang=\"en\">\n  <head>\n    <meta charset=\"utf-8\">\n    <title>Family doctors seem to lack knowledge of parkinson&#39;s - Daily life - Parkinson&#39;s UK Forum</title>\n    <meta name=\"description\" content=\"Once we have Parkinson’s we notice the signs others show who probably have the disease.  I  really probably should not post on this forum. But for me every day I want to learn how others deal with PD.  I think the other &amp;hellip;\">\n    <meta name=\"author\" content=\"\">\n<meta name=\"generator\" content=\"Discourse 2.2.5 - https://github.com/discourse/discourse version c294ff3609f988dcafb742e91606d60ca13b794d\">\n<link rel=\"icon\" type=\"image/png\" href=\"https://forum.parkinsons.org.uk/uploads/db7928/original/2X/3/311fc84f89f49f38601a2f16b295b6f03d3ce5dd.jpg\">\n<link rel=\"apple-touch-icon\" type=\"image/png\" href=\"https://forum.parkinsons.org.uk/uploads/db7928/original/2X/3/311fc84f89f49f38601a2f16b295b6f03d3ce5dd.jpg\">\n<meta name=\"theme-color\" content=\"#ffffff\">\n<meta name=\"viewport\" content=\"width=device-width, minimum-scale=1.0, maximum-scale=1.0, user-scalable=yes\">\n<link rel=\"canonical\" href=\"https://forum.parkinsons.org.uk/t/family-doctors-seem-to-lack-knowledge-of-parkinsons/17999\" />\n<script type=\"application/ld+json\">{\"@context\":\"http://schema.org\",\"@type\":\"WebSite\",\"url\":\"https://forum.parkinsons.org.uk\",\"potentialAction\":{\"@type\":\"SearchAction\",\"target\":\"https://forum.parkinsons.org.uk/search?q={search_term_string}\",\"query-input\":\"required name=search_term_string\"}}</script>\n<link rel=\"search\" type=\"application/opensearchdescription+xml\" href=\"https://forum.parkinsons.org.uk/opensearch.xml\" title=\"Parkinson&#39;s UK Forum Search\">\n\n      <link href=\"/stylesheets/desktop_f99246ae801b083d3e4cca979d0dade8615b39ac.css?__ws=forum.parkinsons.org.uk\" media=\"all\" rel=\"stylesheet\" data-target=\"desktop\" data-theme-id=\"12\"/>\n      <link href=\"/stylesheets/desktop_theme_12_5d27531cf43f9df0c03a6a6ec3109dd05f9dfc49.css?__ws=forum.parkinsons.org.uk\" media=\"all\" rel=\"stylesheet\" data-target=\"desktop_theme\" data-theme-id=\"12\"/>\n    <link href=\"https://fonts.googleapis.com/css?family=Open+Sans\" rel=\"stylesheet\">\n\n    <meta id=\"data-ga-universal-analytics\" data-tracking-code=\"UA-4855628-1\" data-json=\"{&quot;cookieDomain&quot;:&quot;auto&quot;}\" data-auto-link-domains=\"\">\n\n<link rel='preload' href='/assets/google-universal-analytics-f35b4da49411e6f5559073523aab983da483976a3954c79c756f8579f6fbd6ef.js' as='script'/>\n<script src='/assets/google-universal-analytics-f35b4da49411e6f5559073523aab983da483976a3954c79c756f8579f6fbd6ef.js'></script>\n\n      <link rel=\"alternate\" type=\"application/rss+xml\" title=\"RSS feed of &#39;Family doctors seem to lack knowledge of parkinson&#39;s&#39;\" href=\"https://forum.parkinsons.org.uk/t/family-doctors-seem-to-lack-knowledge-of-parkinsons/17999.rss\" />\n  <meta property=\"og:site_name\" content=\"Parkinson&#39;s UK Forum\" />\n<meta name=\"twitter:card\" content=\"summary\" />\n<meta name=\"twitter:image\" content=\"https://forum.parkinsons.org.uk/uploads/db7928/original/2X/3/311fc84f89f49f38601a2f16b295b6f03d3ce5dd.jpg\" />\n<meta property=\"og:image\" content=\"https://forum.parkinsons.org.uk/uploads/db7928/original/2X/3/311fc84f89f49f38601a2f16b295b6f03d3ce5dd.jpg\" />\n<meta property=\"og:url\" content=\"https://forum.parkinsons.org.uk/t/family-doctors-seem-to-lack-knowledge-of-parkinsons/17999\" />\n<meta name=\"twitter:url\" content=\"https://forum.parkinsons.org.uk/t/family-doctors-seem-to-lack-knowledge-of-parkinsons/17999\" />\n<meta property=\"og:title\" content=\"Family doctors seem to lack knowledge of parkinson&#39;s\" />\n<meta name=\"twitter:title\" content=\"Family doctors seem to lack knowledge of parkinson&#39;s\" />\n<meta property=\"og:description\" content=\"Once we have Parkinson’s we notice the signs others show who probably have the disease.  I  really probably should not post on this forum. But for me every day I want to learn how others deal with PD.  I think the other countries have things to learn from.  In America from talking to others here with PD the time it takes to get a diagnosis might take 5 years or longer.  Our regular family doctors seem to have had just a minimal  course on Parkinson’s.  Our General Family doctors have to give ref...\" />\n<meta name=\"twitter:description\" content=\"Once we have Parkinson’s we notice the signs others show who probably have the disease.  I  really probably should not post on this forum. But for me every day I want to learn how others deal with PD.  I think the other countries have things to learn from.  In America from talking to others here with PD the time it takes to get a diagnosis might take 5 years or longer.  Our regular family doctors seem to have had just a minimal  course on Parkinson’s.  Our General Family doctors have to give ref...\" />\n<meta property=\"article:published_time\" content=\"2019-02-14T16:47:59+00:00\" />\n<meta property=\"og:ignore_canonical\" content=\"true\" />\n\n\n\n    \n  </head>\n  <body class=\"crawler\">\n    <header role=\"banner\">\n    <div class=\"region region-header\">\n        <div class=\"region-header-wrapper\">\n            <div id=\"block-parkinsons-d8-branding\" class=\"block block-system block-system-branding-block\">\n                <a href=\"/\" title=\"Home\" rel=\"home\" class=\"site-logo\">\n                    <img src=\"https://forum.parkinsons.org.uk/uploads/db7928/original/2X/8/862bb7d172e7d127e7f3e147ec43594aa62ac945.png\" alt=\"Parkinson's UK. Change Attitudes. Find a cure. Join us.\">\n                </a>\n            </div>\n            <div id=\"block-helpline\" class=\"block block-block-content block-block-content871cd5af-b938-4947-9dc0-d5c211d08fe3 style-phone\">\n                <div class=\"field field--name-field-link field--type-link field--label-hidden field__item\"><a href=\"tel:+448088000303\">Helpline 0808 800 0303</a></div>\n            </div>\n            <div id=\"block-shop\" class=\"block block-block-content block-block-content6fba5ae5-7797-49cd-8367-f321d8111cd6 style-regular\">\n                <div class=\"field field--name-field-link field--type-link field--label-hidden field__item\"><a href=\"https://shop.parkinsons.org.uk\">Shop</a></div>\n            </div>\n        </div>\n    </div>\n</header>\n\n\n<script src=\"/theme-javascripts/b7e9763fcb584fc8265c56a9f557cd6d2e1e8ed8.js?__ws=forum.parkinsons.org.uk\"></script>\n    <header>\n      <a href=\"/\">\n          <img src=\"https://forum.parkinsons.org.uk/uploads/db7928/original/2X/8/862bb7d172e7d127e7f3e147ec43594aa62ac945.png\" alt=\"Parkinson&#39;s UK Forum\" id=\"site-logo\" style=\"max-width: 150px;\">\n      </a>\n    </header>\n    <div id=\"main-outlet\" class=\"wrap\">\n      <h1>\n  <a href=\"/t/family-doctors-seem-to-lack-knowledge-of-parkinsons/17999\">Family doctors seem to lack knowledge of parkinson&#39;s</a>\n</h1>\n\n<div id='breadcrumbs'>\n    <div id=\"breadcrumb-0\" itemscope itemtype=\"http://data-vocabulary.org/Breadcrumb\"\n        itemref=\"breadcrumb-1\"\n      >\n      <a href=\"/c/living-with-parkinsons\" itemprop=\"url\">\n        <span itemprop=\"title\">Living with Parkinson&#39;s</span>\n      </a>\n    </div>\n    <div id=\"breadcrumb-1\" itemscope itemtype=\"http://data-vocabulary.org/Breadcrumb\"\n>\n      <a href=\"/c/living-with-parkinsons/daily-life\" itemprop=\"url\">\n        <span itemprop=\"title\">Daily life</span>\n      </a>\n    </div>\n</div>\n\n\n\n\n\n<hr>\n\n\n  <div itemscope itemtype='http://schema.org/DiscussionForumPosting'>\n      <div class='creator'>\n        <span>\n          <a href='/u/Omahatom'><b itemprop='author'>Omahatom</b></a>\n          \n          <time datetime='2019-02-14T16:47:59Z' itemprop='datePublished'>\n            2019-02-14 16:47:59 UTC\n          </time>\n        </span>\n        <span itemprop='position'>#1</span>\n      </div>\n      <div class='post' itemprop='articleBody'>\n        <p>Once we have Parkinson’s we notice the signs others show who probably have the disease.  I  really probably should not post on this forum. But for me every day I want to learn how others deal with PD.  I think the other countries have things to learn from.<br>\nIn America from talking to others here with PD the time it takes to get a diagnosis might take 5 years or longer.  Our regular family doctors seem to have had just a minimal  course on Parkinson’s.</p>\n<p>Our General Family doctors have to give referral to get to a neural specialist. In my case a chiropractor looked at x rays, watched me walk and pulled on my limbs.  Then told me to go see a movement specialist. Then my wife an RN went with me to an app. insisted on seeing a specialist.</p>\n<p>Do you feel this problem might be the same in the UK. I look back and wonder if I would of gotten medicine sooner that my daily life would of been better.  There would of been activities my wife and I could of done.  By the time the medicine prescribed to help my disease. The parkies had progressed too far.</p>\n<p>So now as part of my daily life if I know someone well enough and they remind me of the past.  I do not hold back to say that their walk has changed, your voice is different, and so on. I don’t say Parkinson’s for I am no doctor. I just hope it points them to insist why.<br>\nOne of my uncles, and aunt had PD before they passed and a cousin has PD. No one in the family talked about the secret.</p>\n<p>We are taught to stay silent.  But after reading posts on the forums from people who wonder if they might have Parkinson’s. Is the reason for their post because family doctors for the most part are no more aware that parkinson’s is not a one size fits all.  The doctors treat the symptoms never putting the puzzle together.</p>\n<p>So in your opinion is it a rude to mention your observation.  Or should one remain silent.</p>\n      </div>\n      <meta itemprop='interactionCount' content='UserLikes:0'>\n      <meta itemprop='interactionCount' content='UserComments:0'>\n      <meta itemprop='headline' content='Family doctors seem to lack knowledge of parkinson&#39;s'>\n      <hr>\n  </div>\n  <div itemscope itemtype='http://schema.org/DiscussionForumPosting'>\n      <div class='creator'>\n        <span>\n          <a href='/u/malcT'><b itemprop='author'>malcT</b></a>\n          \n          <time datetime='2019-02-15T09:08:04Z' itemprop='datePublished'>\n            2019-02-15 09:08:04 UTC\n          </time>\n        </span>\n        <span itemprop='position'>#2</span>\n      </div>\n      <div class='post' itemprop='articleBody'>\n        <p>Hi <a class=\"mention\" href=\"/u/omahatom\">@Omahatom</a>,<br>\nSometimes ignorance is bliss, but not in this case, I agree with you Tom, I have had many occasion to see my GP and other Professionals in the past few years, not one pointed out they noticed changes in my lifer may be down to PD.<br>\nHaving said that, when I did go to my GP and asked him specifically why \" I was living life in the slow lane\"<br>\nHe did some very simple basic tests and then referred me to a Neurologist who watched me walk up the corridor to meet him, asked me a few questions and again repeated the tests my GP had done, then confirmed t was Parkinson’s<br>\nFrom seeing my GP to being diagnosed by the  Neurologist took only 3 months and within two weeks I  was on medication. I am now reviewed every 6 months at the movement clinic. I am now taking 12 different  pills for various complaints each day,( normally costing about £100 a month) all free on the NHS.;</p>\n<p>Mal.</p>\n      </div>\n      <meta itemprop='interactionCount' content='UserLikes:0'>\n      <meta itemprop='interactionCount' content='UserComments:0'>\n      <meta itemprop='headline' content='Family doctors seem to lack knowledge of parkinson&#39;s'>\n      <hr>\n  </div>\n  <div itemscope itemtype='http://schema.org/DiscussionForumPosting'>\n      <div class='creator'>\n        <span>\n          <a href='/u/Wag'><b itemprop='author'>Wag</b></a>\n          \n          <time datetime='2019-02-16T15:54:53Z' itemprop='datePublished'>\n            2019-02-16 15:54:53 UTC\n          </time>\n        </span>\n        <span itemprop='position'>#3</span>\n      </div>\n      <div class='post' itemprop='articleBody'>\n        <p>I’m in agreement that local GP’s don’t know much about Parkinson’s,neither do the consultants in my eyes,I was diagnosed in January 18 so I’m pretty new to PD ,last Friday I had an appointment with my consultant and questioned him on how he came to the conclusion I have PD,he said from my family history, but when I told him  my mother always said my dad had PD ,although he never progressed to get any worse or had any PD medication,the consultant looked at me and said he’d already thought it being possible I had PD ,he asked me what meds I was on,which were Co-beneldopar and Safinamide,and I told him the bottom dropped out of my world last November when he prescribed the co beneldopar,as my feet have been tremoring ever since,so he thought for a while,then said \"I 'll take you off of all your PD medications now for 3 months and see what your like without them,up to yet I don’t have any tremors anywhere,but a condition I’ve had for years called Parashesia has kicked in ,and my legs are very irritable only at rest,one night the left leg,the night after it’s the other leg,I’m not sleeping very well at all with it,I get up at stupid  o clock,no matter what time I go to bed,this is really getting me down ,somI went to my local GP who was kind of clueless as to what to give me for the Parashesia and help me sleep,he’s gave me something to help me sleep but it didn’t work last night,I went to bed at 22.45 and got up at 23.45 because of the irritable leg thing I get,I hope they don’t take 3 week before they kick in,that’s about it for now,bye.</p>\n      </div>\n      <meta itemprop='interactionCount' content='UserLikes:0'>\n      <meta itemprop='interactionCount' content='UserComments:0'>\n      <meta itemprop='headline' content='Family doctors seem to lack knowledge of parkinson&#39;s'>\n      <hr>\n  </div>\n  <div itemscope itemtype='http://schema.org/DiscussionForumPosting'>\n      <div class='creator'>\n        <span>\n          <a href='/u/Bettyblue'><b itemprop='author'>Bettyblue</b></a>\n          \n          <time datetime='2019-02-16T20:23:37Z' itemprop='datePublished'>\n            2019-02-16 20:23:37 UTC\n          </time>\n        </span>\n        <span itemprop='position'>#4</span>\n      </div>\n      <div class='post' itemprop='articleBody'>\n        <p>Most of us in UK find the process time consuming to fully diagnose pd I am a rare case fully diagnosed within 3 months of gp referral.</p>\n      </div>\n      <meta itemprop='interactionCount' content='UserLikes:0'>\n      <meta itemprop='interactionCount' content='UserComments:0'>\n      <meta itemprop='headline' content='Family doctors seem to lack knowledge of parkinson&#39;s'>\n      <hr>\n  </div>\n  <div itemscope itemtype='http://schema.org/DiscussionForumPosting'>\n      <div class='creator'>\n        <span>\n          <a href='/u/Omahatom'><b itemprop='author'>Omahatom</b></a>\n          \n          <time datetime='2019-02-17T13:20:21Z' itemprop='datePublished'>\n            2019-02-17 13:20:21 UTC\n          </time>\n        </span>\n        <span itemprop='position'>#5</span>\n      </div>\n      <div class='post' itemprop='articleBody'>\n        <p>Hello again Bettyblue.  Here in the states we have to many people trying to get a peace of the pie. MONEY!  One thing about money. If you don’t have much of it.  You worry way less about how much  of it you can accumulate.  Your biggest worry is about people.</p>\n      </div>\n      <meta itemprop='interactionCount' content='UserLikes:0'>\n      <meta itemprop='interactionCount' content='UserComments:1'>\n      <meta itemprop='headline' content='Family doctors seem to lack knowledge of parkinson&#39;s'>\n      <hr>\n  </div>\n  <div itemscope itemtype='http://schema.org/DiscussionForumPosting'>\n      <div class='creator'>\n        <span>\n          <a href='/u/Silver_Tabby'><b itemprop='author'>Silver_Tabby</b></a>\n          \n          <time datetime='2019-02-20T09:34:49Z' itemprop='datePublished'>\n            2019-02-20 09:34:49 UTC\n          </time>\n        </span>\n        <span itemprop='position'>#6</span>\n      </div>\n      <div class='post' itemprop='articleBody'>\n        <p>Not a PD thing, but magnesium supplements can help with restless leg, I believe.</p>\n      </div>\n      <meta itemprop='interactionCount' content='UserLikes:0'>\n      <meta itemprop='interactionCount' content='UserComments:0'>\n      <meta itemprop='headline' content='Family doctors seem to lack knowledge of parkinson&#39;s'>\n      <hr>\n  </div>\n  <div itemscope itemtype='http://schema.org/DiscussionForumPosting'>\n      <div class='creator'>\n        <span>\n          <a href='/u/Jane_L'><b itemprop='author'>Jane_L</b></a>\n          \n          <time datetime='2019-02-20T13:19:07Z' itemprop='datePublished'>\n            2019-02-20 13:19:07 UTC\n          </time>\n        </span>\n        <span itemprop='position'>#7</span>\n      </div>\n      <div class='post' itemprop='articleBody'>\n        <p>From my own experience, I’d say the time to get diagnosed varies quite a lot in the UK.  There are a lot of variables: symptoms, some of which are more easily recognised by GPs and neurologists than others; the GPs experience, the neurologist’s experience and, as always with the NHS, the ‘postcode lottery’ of local resources.</p>\n<p>Due to Parkinson’s in other family members, I recognised the symptoms several years before I was diagnosed, although I kept hoping I was wrong.  I first went to my GP about it 2 years before she referred me to a neurologist.  The NHS neurologist I saw 3 months after referral seemed reluctant to diagnose me.  By that time I was anxious to start on levodopa asap and because of NHS delays I opted to see a neurologist privately to get a diagnosis. The only regret I have about the time it took to diagnose me is that I think I would have benefitted from starting physiotherapy earlier.</p>\n      </div>\n      <meta itemprop='interactionCount' content='UserLikes:0'>\n      <meta itemprop='interactionCount' content='UserComments:0'>\n      <meta itemprop='headline' content='Family doctors seem to lack knowledge of parkinson&#39;s'>\n      <hr>\n  </div>\n  <div itemscope itemtype='http://schema.org/DiscussionForumPosting'>\n      <div class='creator'>\n        <span>\n          <a href='/u/Omahatom'><b itemprop='author'>Omahatom</b></a>\n          \n          <time datetime='2019-02-20T16:58:18Z' itemprop='datePublished'>\n            2019-02-20 16:58:18 UTC\n          </time>\n        </span>\n        <span itemprop='position'>#8</span>\n      </div>\n      <div class='post' itemprop='articleBody'>\n        <p>Jane-L  I feel the same as you about the physiotherapy. My flexibility had diminished that my wife and I passed on activities our friends enjoyed.  The hands of time lost don’t have a rewind like a tv remote. If we had it to do all over again we would have been pushy to get the referrals.</p>\n      </div>\n      <meta itemprop='interactionCount' content='UserLikes:0'>\n      <meta itemprop='interactionCount' content='UserComments:0'>\n      <meta itemprop='headline' content='Family doctors seem to lack knowledge of parkinson&#39;s'>\n      <hr>\n  </div>\n  <div itemscope itemtype='http://schema.org/DiscussionForumPosting'>\n      <div class='creator'>\n        <span>\n          <a href='/u/Westriding'><b itemprop='author'>Westriding</b></a>\n          \n          <time datetime='2019-02-20T22:22:14Z' itemprop='datePublished'>\n            2019-02-20 22:22:14 UTC\n          </time>\n        </span>\n        <span itemprop='position'>#9</span>\n      </div>\n      <div class='post' itemprop='articleBody'>\n        <p>First time I saw my Neuro he said “God you look gormless”.  No, I jest.  What he did say was, 'I knew you had Parkinson’s as soon as you walked through the door, because you have an expressionless face, you don’t smile\".  I was a kind of shocked thinking, that’s funny I always thought I was a happy smiley person.</p>\n<p>That was over ten years ago and bang! I had joined the Club.  They don’t mess about in Wakefield.</p>\n      </div>\n      <meta itemprop='interactionCount' content='UserLikes:0'>\n      <meta itemprop='interactionCount' content='UserComments:2'>\n      <meta itemprop='headline' content='Family doctors seem to lack knowledge of parkinson&#39;s'>\n      <hr>\n  </div>\n  <div itemscope itemtype='http://schema.org/DiscussionForumPosting'>\n      <div class='creator'>\n        <span>\n          <a href='/u/Omahatom'><b itemprop='author'>Omahatom</b></a>\n          \n          <time datetime='2019-02-21T12:02:44Z' itemprop='datePublished'>\n            2019-02-21 12:02:44 UTC\n          </time>\n        </span>\n        <span itemprop='position'>#10</span>\n      </div>\n      <div class='post' itemprop='articleBody'>\n        <p>Westrider thanks for your reply.   From what I am  seeing is in the Uk getting to see the right doctor must be easier.   Been thinking about how Health Insurance set the criteria   on getting the referrals.  Our doctors try to avoid those without insurance.  They know each other often. I suspect that if a doctor sends to many patients without insurance to another doctor he or she knows. It will effect their income.  Money how it changes some people.  Money is one of those things that without it living is more difficult and those that have allot might have a hard time living.  Because they worry about losing it.  Tom</p>\n      </div>\n      <meta itemprop='interactionCount' content='UserLikes:0'>\n      <meta itemprop='interactionCount' content='UserComments:1'>\n      <meta itemprop='headline' content='Family doctors seem to lack knowledge of parkinson&#39;s'>\n      <hr>\n  </div>\n  <div itemscope itemtype='http://schema.org/DiscussionForumPosting'>\n      <div class='creator'>\n        <span>\n          <a href='/u/Eve1'><b itemprop='author'>Eve1</b></a>\n          \n          <time datetime='2019-02-23T12:16:44Z' itemprop='datePublished'>\n            2019-02-23 12:16:44 UTC\n          </time>\n        </span>\n        <span itemprop='position'>#11</span>\n      </div>\n      <div class='post' itemprop='articleBody'>\n        <p>I too feel strongly that GP’s know little about Parkinsons and the need for them to be taught. In my case after I had been diagnosed, my GP didn’t think I needed to see a neurologist.  Also, once my back condition had eventually been diagnosed, I saw my GP (different one, same surgery) for another matter, I asked about my condition (Captocormia) and for some advice as to how I needed to deal with, medication, physio, etc  - my GP went on the internet (google) to see what it was - my GP said in all the years as a GP, had never come across Captocormia !!!</p>\n      </div>\n      <meta itemprop='interactionCount' content='UserLikes:0'>\n      <meta itemprop='interactionCount' content='UserComments:1'>\n      <meta itemprop='headline' content='Family doctors seem to lack knowledge of parkinson&#39;s'>\n      <hr>\n  </div>\n  <div itemscope itemtype='http://schema.org/DiscussionForumPosting'>\n      <div class='creator'>\n        <span>\n          <a href='/u/Wag'><b itemprop='author'>Wag</b></a>\n          \n          <time datetime='2019-02-23T17:45:15Z' itemprop='datePublished'>\n            2019-02-23 17:45:15 UTC\n          </time>\n        </span>\n        <span itemprop='position'>#12</span>\n      </div>\n      <div class='post' itemprop='articleBody'>\n        <p>The what’s coptocomia,I’ve never heard of it either,bye.</p>\n      </div>\n      <meta itemprop='interactionCount' content='UserLikes:0'>\n      <meta itemprop='interactionCount' content='UserComments:0'>\n      <meta itemprop='headline' content='Family doctors seem to lack knowledge of parkinson&#39;s'>\n      <hr>\n  </div>\n  <div itemscope itemtype='http://schema.org/DiscussionForumPosting'>\n      <div class='creator'>\n        <span>\n          <a href='/u/Wag'><b itemprop='author'>Wag</b></a>\n          \n          <time datetime='2019-02-23T18:00:02Z' itemprop='datePublished'>\n            2019-02-23 18:00:02 UTC\n          </time>\n        </span>\n        <span itemprop='position'>#13</span>\n      </div>\n      <div class='post' itemprop='articleBody'>\n        <p>Hello,when I first saw someone about whether I had Parkinson’s it took him about 2 minutes to say yes you have Parkinson’s,a year after I challenged him as to how he came to the conclusion that I had Parkinson’s,he said because you have tremors,I said it could be the medications I was on ,one being Tramadol,he then said that my dad had Parkinson’s that’s why you have it,but my dad had a mental breakdown when I was 15,now I’m 63,my dad never had Parkinson’s I told him,he looked puzzled then my wife said to the PD doctor that in the 20 years she knew my dad he never got any worse,because it was the medication he was taking for his nerves,the consultant looked puzzled again and said to me that he’s taking me off of all my my Parkinson’s medications for 3 months then asking to see me then,that was 2 weeks ago,and up to yet there’s no tremors or anything to do with Parkinson’s,so I’m hoping that if i\"'m ok in 3 months he might discharge me ,saying I don’t have PD,but up to yet it’s only hope,bye.</p>\n      </div>\n      <meta itemprop='interactionCount' content='UserLikes:0'>\n      <meta itemprop='interactionCount' content='UserComments:0'>\n      <meta itemprop='headline' content='Family doctors seem to lack knowledge of parkinson&#39;s'>\n      <hr>\n  </div>\n  <div itemscope itemtype='http://schema.org/DiscussionForumPosting'>\n      <div class='creator'>\n        <span>\n          <a href='/u/Westriding'><b itemprop='author'>Westriding</b></a>\n          \n          <time datetime='2019-02-23T23:58:54Z' itemprop='datePublished'>\n            2019-02-23 23:58:54 UTC\n          </time>\n        </span>\n        <span itemprop='position'>#14</span>\n      </div>\n      <div class='post' itemprop='articleBody'>\n        <p>Hope springs eternal Wag.  I hope your doctor is correct.</p>\n<p>Westriding</p>\n      </div>\n      <meta itemprop='interactionCount' content='UserLikes:0'>\n      <meta itemprop='interactionCount' content='UserComments:0'>\n      <meta itemprop='headline' content='Family doctors seem to lack knowledge of parkinson&#39;s'>\n      <hr>\n  </div>\n  <div itemscope itemtype='http://schema.org/DiscussionForumPosting'>\n      <div class='creator'>\n        <span>\n          <a href='/u/Westriding'><b itemprop='author'>Westriding</b></a>\n          \n          <time datetime='2019-02-24T00:04:43Z' itemprop='datePublished'>\n            2019-02-24 00:04:43 UTC\n          </time>\n        </span>\n        <span itemprop='position'>#15</span>\n      </div>\n      <div class='post' itemprop='articleBody'>\n        <p>Omahatom,</p>\n<p>When you ain’t got nothing, you ain’t nothing to loose.  Dylan.</p>\n<p>Westriding</p>\n      </div>\n      <meta itemprop='interactionCount' content='UserLikes:0'>\n      <meta itemprop='interactionCount' content='UserComments:0'>\n      <meta itemprop='headline' content='Family doctors seem to lack knowledge of parkinson&#39;s'>\n      <hr>\n  </div>\n  <div itemscope itemtype='http://schema.org/DiscussionForumPosting'>\n      <div class='creator'>\n        <span>\n          <a href='/u/Eve1'><b itemprop='author'>Eve1</b></a>\n          \n          <time datetime='2019-02-24T12:23:19Z' itemprop='datePublished'>\n            2019-02-24 12:23:19 UTC\n          </time>\n        </span>\n        <span itemprop='position'>#16</span>\n      </div>\n      <div class='post' itemprop='articleBody'>\n        <p>Hi Wag          Coptocomia - what it means to me - is I have gradually started to bend forward and am now nearly at a 45 deg angle - and my balance is getting worse as I feel and am falling forward.  This has only just begun to happen.  I am fine sitting down or laying down.  I understand only around 10% of Parkinson sufferers get it.</p>\n<p>The message from my brain tells my muscles to send my body forward instead of telling it to stand straight.  It is extremely painful and my stomach upwards muscles cramp up.  It makes stomach acid come up into the throat despite taking medication.  I have found recently it feels harder to breath as muscles are now cramping up under rib cage.  I went onto internet - wish I hadn’t !!!  Just hope that is all that happens.  It doesn’t sound that bad writing it down, but, believe me, it is awful and I mean awful.</p>\n      </div>\n      <meta itemprop='interactionCount' content='UserLikes:0'>\n      <meta itemprop='interactionCount' content='UserComments:0'>\n      <meta itemprop='headline' content='Family doctors seem to lack knowledge of parkinson&#39;s'>\n      <hr>\n  </div>\n  <div itemscope itemtype='http://schema.org/DiscussionForumPosting'>\n      <div class='creator'>\n        <span>\n          <a href='/u/JOANIE'><b itemprop='author'>JOANIE</b></a>\n          \n          <time datetime='2019-02-26T20:44:27Z' itemprop='datePublished'>\n            2019-02-26 20:44:27 UTC\n          </time>\n        </span>\n        <span itemprop='position'>#17</span>\n      </div>\n      <div class='post' itemprop='articleBody'>\n        <p>My Husband was diagnosed with Parkinsons by a Neurologist as he had a slight tremor in one hand. He suggested my Husband come back to see him if it got any worse. His parting remark was we can treat it with medication but did not say Parkinsons is a degenerate condition.We would have had more holidays and outings before it became more difficult if we had known that.</p>\n      </div>\n      <meta itemprop='interactionCount' content='UserLikes:0'>\n      <meta itemprop='interactionCount' content='UserComments:1'>\n      <meta itemprop='headline' content='Family doctors seem to lack knowledge of parkinson&#39;s'>\n      <hr>\n  </div>\n  <div itemscope itemtype='http://schema.org/DiscussionForumPosting'>\n      <div class='creator'>\n        <span>\n          <a href='/u/Wag'><b itemprop='author'>Wag</b></a>\n          \n          <time datetime='2019-03-02T22:38:47Z' itemprop='datePublished'>\n            2019-03-02 22:38:47 UTC\n          </time>\n        </span>\n        <span itemprop='position'>#18</span>\n      </div>\n      <div class='post' itemprop='articleBody'>\n        <p>Don’t worry too much,that’s what I had when I was diagnosed,but I didn’t let it upset me,chin up,worse things happen at sea,bye.</p>\n      </div>\n      <meta itemprop='interactionCount' content='UserLikes:0'>\n      <meta itemprop='interactionCount' content='UserComments:0'>\n      <meta itemprop='headline' content='Family doctors seem to lack knowledge of parkinson&#39;s'>\n      <hr>\n  </div>\n\n\n\n\n\n\n    </div>\n    <footer class=\"container\">\n      <nav class='crawler-nav' itemscope itemtype='http://schema.org/SiteNavigationElement'>\n        <a href='/'>Home</a>\n        <a href=\"/categories\">Categories</a>\n        <a href=\"/guidelines\">FAQ/Guidelines</a>\n        <a href=\"/tos\">Terms of Service</a>\n        <a href=\"/privacy\">Privacy Policy</a>\n      </nav>\n      <p class='powered-by-link'>Powered by <a href=\"https://www.discourse.org\">Discourse</a>, best viewed with JavaScript enabled</p>\n    </footer>\n    \n  </body>\n  \n</html>\n",
  "url": "https://forum.parkinsons.org.uk/t/family-doctors-seem-to-lack-knowledge-of-parkinsons/17999"
}