{
  "contentId": "064ede90-ca4f-11e9-816f-91101a0612dc",
  "html": "<!DOCTYPE html PUBLIC \"-//W3C//DTD XHTML 1.0 Strict//EN\" \"http://www.w3.org/TR/xhtml1/DTD/xhtml1-strict.dtd\">\r\n<html xmlns=\"http://www.w3.org/1999/xhtml\" dir=\"ltr\" lang=\"fr\" xml:lang=\"fr\">\r\n<head>\r\n\r\n<meta http-equiv=\"content-type\" content=\"text/html; charset=UTF-8\" />\r\n<meta http-equiv=\"content-style-type\" content=\"text/css\" />\r\n<meta http-equiv=\"content-language\" content=\"fr\" />\r\n<meta http-equiv=\"imagetoolbar\" content=\"no\" />\r\n<meta name=\"resource-type\" content=\"document\" />\r\n<meta name=\"distribution\" content=\"global\" />\r\n<meta name=\"keywords\" content=\"\" />\r\n<meta name=\"description\" content=\"\" />\r\n<meta name=\"viewport\" content=\"width=device-width, initial-scale=1\">\r\n\r\n<title>Le Forum maladies rares &bull; Lupus</title>\r\n\r\n\r\n\r\n<!--\r\n\tphpBB style name: MRIS\r\n\tBased on style:   prosilver & Metro (PixelGoose Studio)\r\n-->\r\n\r\n<script type=\"text/javascript\">\r\n// <![CDATA[\r\n\tvar jump_page = 'Saisissez le numéro de page où vous souhaitez aller.:';\r\n\tvar on_page = '1';\r\n\tvar per_page = '';\r\n\tvar base_url = '';\r\n\tvar style_cookie = 'phpBBstyle';\r\n\tvar style_cookie_settings = '; path=/; domain=forums.maladiesraresinfo.org; secure';\r\n\tvar onload_functions = new Array();\r\n\tvar onunload_functions = new Array();\r\n\r\n\t\r\n\r\n\t/**\r\n\t* Find a member\r\n\t*/\r\n\tfunction find_username(url)\r\n\t{\r\n\t\tpopup(url, 760, 570, '_usersearch');\r\n\t\treturn false;\r\n\t}\r\n\r\n\t/**\r\n\t* New function for handling multiple calls to window.onload and window.unload by pentapenguin\r\n\t*/\r\n\twindow.onload = function()\r\n\t{\r\n\t\tfor (var i = 0; i < onload_functions.length; i++)\r\n\t\t{\r\n\t\t\teval(onload_functions[i]);\r\n\t\t}\r\n\t};\r\n\r\n\twindow.onunload = function()\r\n\t{\r\n\t\tfor (var i = 0; i < onunload_functions.length; i++)\r\n\t\t{\r\n\t\t\teval(onunload_functions[i]);\r\n\t\t}\r\n\t};\r\n\r\n// ]]>\r\n</script>\r\n<script type=\"text/javascript\" src=\"https://forums.maladiesraresinfo.org/styles/mris/template/styleswitcher.js\"></script>\r\n<script type=\"text/javascript\" src=\"https://forums.maladiesraresinfo.org/styles/mris/template/forum_fn.js\"></script>\r\n\r\n<link href=\"https://forums.maladiesraresinfo.org/styles/mris/theme/print.css\" rel=\"stylesheet\" type=\"text/css\" media=\"print\" title=\"printonly\" />\r\n<link href=\"https://forums.maladiesraresinfo.org/style.php?id=3&amp;lang=fr&amp;sid=a175cd00bd289e19f8d0bf1743c78447\" rel=\"stylesheet\" type=\"text/css\" media=\"screen, projection\" />\r\n<link href=\"https://forums.maladiesraresinfo.org/styles/mris/theme/bootstrap-modal.css\" rel=\"stylesheet\" type=\"text/css\" media=\"screen, projection\" />\r\n\r\n\r\n<link href=\"https://forums.maladiesraresinfo.org/styles/mris/theme/normal.css\" rel=\"stylesheet\" type=\"text/css\" title=\"A\" />\r\n<link href=\"https://forums.maladiesraresinfo.org/styles/mris/theme/medium.css\" rel=\"alternate stylesheet\" type=\"text/css\" title=\"A+\" />\r\n<link href=\"https://forums.maladiesraresinfo.org/styles/mris/theme/large.css\" rel=\"alternate stylesheet\" type=\"text/css\" title=\"A++\" />\r\n\r\n\r\n\r\n<!-- <script type=\"text/javascript\" src=\"//ajax.googleapis.com/ajax/libs/jquery/1.6.4/jquery.min.js\"></script> -->\r\n<script type=\"text/javascript\" src=\"//ajax.googleapis.com/ajax/libs/jquery/1.9.1/jquery.min.js\"></script>\r\n<script type=\"text/javascript\" src=\"https://forums.maladiesraresinfo.org/styles/mris/template/jquery.collapse.js\"></script>\r\n<script type=\"text/javascript\" src=\"https://forums.maladiesraresinfo.org/styles/mris/template/jquery.collapse_storage.js\"></script>\r\n<script type=\"text/javascript\" src=\"https://forums.maladiesraresinfo.org/styles/mris/template/jquery.collapse_cookie_storage.js\"></script>\r\n<script type=\"text/javascript\" src=\"https://forums.maladiesraresinfo.org/styles/mris/template/bootstrap-modal.min.js\"></script>\r\n<script type=\"text/javascript\" src=\"https://forums.maladiesraresinfo.org/styles/mris/template/jquery.cookie.js\"></script>\r\n\r\n<script type=\"text/javascript\">\r\n$(document).ready(function() {\r\n\t$('a.login-window').click(function() {\r\n\t\t\r\n\t\t// Getting the variable's value from a link \r\n\t\tvar loginBox = this.hash;\r\n\r\n\t\t//Fade in the Popup and add close button\r\n\t\t$(loginBox).fadeIn(300);\r\n\t\t\r\n\t\t//Set the center alignment padding + border\r\n\t\tvar popMargTop = ($(loginBox).height() + 24) / 2; \r\n\t\tvar popMargLeft = ($(loginBox).width() + 24) / 2; \r\n\t\t\r\n\t\t$(loginBox).css({ \r\n\t\t\t'margin-top' : -popMargTop,\r\n\t\t\t'margin-left' : -popMargLeft\r\n\t\t});\r\n\t\t\r\n\t\t// Add the mask to body\r\n\t\t$('body').append('<div id=\"mask\"></div>');\r\n\t\t$('#mask').fadeIn(300);\r\n\t\t\r\n\t\treturn false;\r\n\t});\r\n\t\r\n\t// When clicking on the button close or the mask layer the popup closed\r\n\t$('body').on('click','a.close, #mask', function() {\r\n\t  $('#mask , .login-popup').fadeOut(300 , function() {\r\n\t\t$('#mask').remove();  \r\n\t}); \r\n\treturn false;\r\n\t});\r\n\t\r\n\t$('#navbar_username').focus(function() {\r\n\t\t$('#navbar_username').parent().addClass('active');\r\n\t}); \r\n\t$('#navbar_username').blur(function() {\r\n\t\t$('#navbar_username').parent().removeClass('active');\r\n\t}); \r\n\t$('#navbar_password').focus(function() {\r\n\t\t$('#navbar_password').parent().addClass('active');\r\n\t}); \r\n\t$('#navbar_password').blur(function() {\r\n\t\t$('#navbar_password').parent().removeClass('active');\r\n\t}); \r\n\r\n});\r\n</script>\r\n\r\n<script type=\"text/javascript\">\r\n\t$(document).ready(function() {\r\n\t\t$(\".toggleMenuButton\").click(function () {\r\n\t\t\t$(\".tabs\").slideToggle(\"fast\");\r\n\t\t\t$(\".toggleMenuButton\").toggleClass(\"active\");\r\n\t\t})\r\n\r\n\t\t$(window).resize(function() {\r\n\t\t    //small-screen\r\n\t\t    if (window.innerWidth < 767) {\r\n\t\t        $(\".tabs\").css('display', '');\r\n\t\t\t    $('.toggleMenuButton').removeClass('active');\r\n\t\t    }\r\n\t\t        //end small-screen\r\n\t\t}) .resize(); // trigger resize event\r\n\r\n\t});\r\n</script>\r\n\r\n<!--[if lte IE 8]><script type=\"text/javascript\" src=\"https://forums.maladiesraresinfo.org/styles/mris/template/respond.min.js\"></script><![endif]-->\r\n\r\n<!-- Google Web Fonts -->\r\n<link href='//fonts.googleapis.com/css?family=Open+Sans:300,400,600' rel='stylesheet' type='text/css'>\r\n\r\n</head>\r\n\r\n<body id=\"phpbb\" class=\"section-viewforum ltr\">\r\n\r\n<div id=\"wrap\">\r\n\t<!--banner 1201*80 par ex-->\r\n\t<!--/banner-->\r\n\t\r\n\t<a id=\"top\" name=\"top\" accesskey=\"t\"></a>\r\n\t<div id=\"page-header\">\r\n    \t<div id=\"above-headerbar\">\r\n\t\t\t\r\n\t\t\t<ul class=\"user-links\">\r\n                <li><a href=\"https://forums.maladiesraresinfo.org/ucp.php?mode=register&amp;sid=a175cd00bd289e19f8d0bf1743c78447\">Inscription</a>&nbsp;&nbsp;|</li>\r\n                <li><a href=\"#login-box\" class=\"login-window\" title=\"Connexion\" accesskey=\"x\">Connexion</a><a href=\"https://forums.maladiesraresinfo.org/ucp.php?mode=login&amp;sid=a175cd00bd289e19f8d0bf1743c78447\" class=\"login-link\" title=\"Connexion\" accesskey=\"x\">Connexion</a></li>\r\n\t\t\t</ul>\r\n\r\n\t\t\t<div id=\"login-box\" class=\"login-popup\">\r\n\t\t\t    <a href=\"#\" class=\"close\"><img src=\"https://forums.maladiesraresinfo.org/styles/mris/theme/images/close_popup.png\" class=\"close-button\" title=\"Close\" alt=\"Close\" /></a>\r\n\t\t\t    <div id=\"login-text\">Connexion</div>\r\n\r\n\t\t\t\t<form method=\"post\" action=\"https://forums.maladiesraresinfo.org/ucp.php?mode=login&amp;sid=a175cd00bd289e19f8d0bf1743c78447\" class=\"quick-login\">\r\n\t\t\t\t\t<fieldset>\r\n\t\t\t\t\t\t<div class=\"navbar_username_outer\">\r\n\t\t\t\t\t\t\t<label for=\"username\">Pseudonyme:</label>&nbsp;<br /><input type=\"text\" name=\"username\" id=\"navbar_username\" size=\"10\" class=\"inputbox\" title=\"Pseudonyme\" />\r\n\t\t\t\t\t\t</div>\r\n\r\n\t\t\t\t\t\t<div class=\"navbar_password_outer\">\r\n\t\t\t\t\t\t\t<label for=\"password\">Mot de passe:</label>&nbsp;<br /><input type=\"password\" name=\"password\" id=\"navbar_password\" size=\"10\" class=\"inputbox\" title=\"Mot de passe\" />\r\n\t\t\t\t\t\t</div>\r\n\r\n\r\n\r\n\r\n\t\t\t\t\t\t<div class=\"login-buttons\">\r\n\t\t\t\t\t\t\t<input type=\"submit\" name=\"login\" value=\"Connexion\" class=\"button2\" />\r\n\t\t\t\t\t\t\t<input type=\"hidden\" name=\"redirect\" value=\"./viewforum.php?f=56&amp;start=&amp;sid=a175cd00bd289e19f8d0bf1743c78447\" />\n\r\n\t\t\t\t\t\t\t\r\n\t\t\t\t\t\t\t\t<label id=\"autologin_label\" for=\"autologin\">Se souvenir de moi <input type=\"checkbox\" name=\"autologin\" id=\"autologin\" /></label>\r\n\t\t\t\t\t\t\t\r\n\t\t\t\t\t\t</div>\r\n\t\t\t\t\t</fieldset>\r\n\t\t\t\t</form>\t\t\t        \r\n\t\t\t\t\t<a class=\"register-link\" href=\"https://forums.maladiesraresinfo.org/ucp.php?mode=register&amp;sid=a175cd00bd289e19f8d0bf1743c78447\">Inscription</a>\r\n\t\t\t        \r\n\t\t\t</div>\r\n\r\n            \r\n\t\t\t<div class=\"search-box\">\r\n\t\t\t\t<form action=\"https://forums.maladiesraresinfo.org/search.php\" method=\"get\" id=\"search\">\r\n\t\t\t\t<fieldset>\r\n                \t<div class=\"search-box-inner\">\r\n                        <input class=\"button2\" value=\"Rechercher\" type=\"submit\" />\r\n                        <input name=\"keywords\" id=\"keywords\" type=\"text\" maxlength=\"128\" title=\"Rechercher par mots-clés\" class=\"inputbox search\" value=\"Recherche…\" onclick=\"if(this.value=='Recherche…')this.value='';\" onblur=\"if(this.value=='')this.value='Recherche…';\" />\r\n                    </div>\r\n                    &nbsp;<a href=\"https://forums.maladiesraresinfo.org/search.php\" class=\"search-adv-link\" title=\"Voir les options de recherche avancée\">Recherche avancée</a> <input type=\"hidden\" name=\"sid\" value=\"a175cd00bd289e19f8d0bf1743c78447\" />\n\r\n\t\t\t\t</fieldset>\r\n\t\t\t\t</form>\r\n\t\t\t</div>\r\n            \r\n        </div>\r\n        <!-- Modal -->\r\n        <div id=\"modalHibou\" class=\"modal fade popup-hibou\" role=\"dialog\" aria-labelledby=\"myModalLabel\" aria-hidden=\"true\">\r\n            <div class=\"modal-dialog\">\r\n                <div class=\"modal-content\">\r\n                    <div class=\"modal-header\">\r\n                        <img src=\"https://forums.maladiesraresinfo.org/styles/mris/theme/images/close_popup.png\" class=\"close-button\" data-dismiss=\"modal\" title=\"Close\" alt=\"Close\">\r\n                        \r\n                        <h3>Vous cherchez une information ?<br><div style=\"text-indent: 60px;\"> Vous avez besoin d’un conseil&nbsp;?</div></h3>\r\n                        <div class=\"row mt-md\">\r\n                            <div style=\"width:30%; float: left;\">\r\n                                <img class=\"img-responsive\" src=\"https://www.maladiesraresinfo.org/assets/img/chouette.png\" alt=\"Logo SVP EI\">\r\n                            </div>\r\n                            <div style=\"width:70%; float: left; text-align: center;\">\r\n                                <h4>Appelez notre équipe de professionnels<br>au 01 56 53 81 36<br><span style=\"font-size: 14px\">(inclus dans les forfaits)</span>\r\n                                <p class=\"m-sm\">ou</p>\r\n                                <a href=\"https://www.maladiesraresinfo.org/ecoute/par-e-mail.html?utm_source=popupHibou\" class=\"btn btn-lg\">envoyer leur un email</a></h4>\r\n                            </div>\r\n                        </div>\r\n                    </div>\r\n                </div>\r\n            </div>\r\n        </div>\r\n        <!-- /.modal -->\r\n\r\n       <!--  <div id=\"annonce-top\">\r\n\t\t\t\t<img src=\"https://forums.maladiesraresinfo.org/styles/mris/theme/images/medicament.png\" alt=\"\">\r\n\t\t\t\t<strong>Vous ou un proche êtes concerné(e) par les effets indésirables d’un médicament pris pour une maladie rare ?</strong> <br />\r\nDéclarer ces effets indésirables est important et peut être utile à tous les utilisateurs de ce médicament. <br />\r\n<strong><span>Pour bénéficier de cette aide et découvrir la vidéo, <a href=\"http://www.maladiesraresinfo.org/news/effets-indesirables-info-services.html\">cliquez ici</a></span></strong></div>  -->\r\n<!-- debut annonce-top\"\r\n\t\t\t<div id=\"annonce-top\" style=\"margin: 15px 0;\">\r\n\t\t\t\t<a href=\"https://www.youtube.com/watch?v=ymDhprpJm58\" target=\"_blank\"><img src=\"https://forums.maladiesraresinfo.org/styles/mris/theme/images/film-insertion-bg.jpg\" alt=\"\"></a>\r\n\t\t\t\t</div>\r\n fin annonce-top\"-->\r\n\r\n\r\n\r\n\r\n        <div id=\"header\">\r\n        \t<div id=\"logo\">\r\n        \t\t<a href=\"https://forums.maladiesraresinfo.org/\" title=\"Accueil du Forum\"><img src=\"https://forums.maladiesraresinfo.org/styles/mris/imageset/logo-mris2018.png\" width=\"268\" height=\"140\" alt=\"\" title=\"\" /></a>\r\n        \t</div>\t\r\n\r\n\t\t\t<div id=\"heading\">\r\n\t\t\t\t<h1>Le Forum maladies rares</h1>\r\n\t\t\t\t<em>Partageons pour être plus forts !</em>\r\n\t\t\t</div>\r\n<div class=\"tabs-outer\">\r\n            \t<a href=\"javascript:void(0);\" title=\"Menu\" class=\"toggleMenuButton\"></a>\r\n            \t<ul class=\"tabs\">\r\n\t\t\t\t\t\t<li id=\"site-link\"><a href=\"https://www.maladiesraresinfo.org/index.html\" title=\"Visitez le site Internet de Maladies Rares Info Services dans une nouvelle fenêtre\"><span>Aller sur le site Internet</span></a></li>\r\n\t\t\t\t\t\t<li id=\"ei-link\"><a href=\"https://www.maladiesraresinfo.org/effets-indesirables-info-services.html\" title=\"Déclarer les effets indésirables d'un médicament pris pour une maladie rare\"><span>Déclarer un effet indésirable</span></a></li>\r\n\t\t\t\t\t\t<li id=\"newforum-link\"><a href=\"mailto:info-services@maladiesraresinfo.org\" title=\"Demander un nouveau forum\"><span>Demander un nouveau forum</span></a></li>\r\n\r\n                        <!-- Add tabs below -->\r\n                  \r\n            \t</ul>\r\n            </div>\r\n\r\n        </div>\r\n\t\t        \r\n\t\t\t<!--\r\n\t\t\t<div id=\"annonce\">\t\t\t\t\r\n\t\t\t\t<a href=\"http://www.modalisa-enquete.com/mris-avis\" target=\"_blank\">Que pensez-vous du Forum Maladies Rares ?</a>\r\n\t\t\t</div>\r\n\t\t\t-->     \r\n        <div id=\"breadcrumbs\">\r\n        \t<a class=\"icon-home\" href=\"https://forums.maladiesraresinfo.org/\" accesskey=\"h\">Accueil du Forum</a> &nbsp;<img class=\"navbit-arrow\" src=\"https://forums.maladiesraresinfo.org/styles/mris/theme/images/navbit-arrow-right.png\" alt=\"\" />&nbsp;<a href=\"https://forums.maladiesraresinfo.org/maladies-systemiques-auto-immunes-f101.html\">Maladies systémiques et auto immunes</a>&nbsp;<img class=\"navbit-arrow\" src=\"https://forums.maladiesraresinfo.org/styles/mris/theme/images/navbit-arrow-right.png\" alt=\"\" />&nbsp;<a href=\"https://forums.maladiesraresinfo.org/lupus-f56.html\">Lupus</a>\r\n        </div>\r\n\r\n\t\t<ul class=\"thread-icons\">\r\n          \r\n\t\t</ul>\r\n\r\n\t</div>\r\n\r\n\t<a name=\"start_here\"></a>\r\n\r\n\t<div id=\"page-body\">\r\n\t\t\r\n\r\n<h2>Lupus</h2>\r\n\r\n\r\n<div>\r\n\t<!-- NOTE: remove the style=\"display: none\" when you want to have the forum description on the forum body --><div style=\"display: none !important;\">Le lupus érythémateux systémique ou lupus érythémateux disséminé est une maladie hétérogène, d'origine auto-immune, caractérisée par la présence d'auto-anticorps anti-nucléaires. Il peut atteindre tous les organes avec manifestations cliniques très variées. Les plus fréquentes sont un rash, une arthrite et une fatigue.<br /></div>\r\n</div>\r\n\r\n\r\n<div id=\"page-body-inner\" class=\"no-sidebar\">\r\n\r\n\r\n\t<div class=\"topic-actions\" >\r\n\r\n\t\r\n\t\t<div class=\"buttons\">\r\n\t\t\t<div class=\"post-icon\" title=\"Écrire un nouveau sujet de discussion\"><a href=\"https://forums.maladiesraresinfo.org/posting.php?mode=post&amp;f=56&amp;sid=a175cd00bd289e19f8d0bf1743c78447\"><span></span>Écrire un nouveau sujet de discussion</a></div>\r\n\t\t</div>\r\n\t\r\n        <div class=\"search-box\">\r\n\t\t\t<form method=\"get\" id=\"forum-search\" action=\"https://forums.maladiesraresinfo.org/search.php\">\r\n            <fieldset>\r\n                <div class=\"search-box-inner\">\r\n                    <input class=\"button2\" type=\"submit\" value=\"Rechercher\" />\r\n                    <input class=\"inputbox search tiny\" type=\"text\" name=\"keywords\" id=\"keywords\" size=\"20\" value=\"Rechercher dans ce forum…\" onclick=\"if (this.value == 'Rechercher dans ce forum…') this.value = '';\" onblur=\"if (this.value == '') this.value = 'Rechercher dans ce forum…';\" />\r\n                    <input type=\"hidden\" name=\"fid[0]\" value=\"56\" />\n<input type=\"hidden\" name=\"sid\" value=\"a175cd00bd289e19f8d0bf1743c78447\" />\n\r\n                </div>\r\n            </fieldset>\r\n            </form>\r\n        </div>\r\n\t\r\n\t\t<div class=\"pagination\">\r\n\t\t\t24 sujets &bull; Page <strong>1</strong> sur <strong>1</strong>\r\n\t\t</div>\r\n\t\r\n\r\n\t</div>\r\n\r\n\t\t<div class=\"forumbg\">\r\n\t\t<ul class=\"topiclist\">\r\n\t\t\t<li class=\"header\">\r\n\t\t\t\t<dl class=\"icon\">\r\n\t\t\t\t\t<dt><span class=\"forum-name\">Sujets<span></span></dt>\r\n\t\t\t\t\t<dd class=\"posts\">Réponses</dd>\r\n\t\t\t\t\t<dd class=\"views\">Vus</dd>\r\n\t\t\t\t\t<dd class=\"lastpost\"><span>Dernier message</span></dd>\r\n\t\t\t\t</dl>\r\n\t\t\t</li>\r\n\t\t</ul>\r\n\t\t<ul class=\"topiclist topics\">\r\n\t\r\n\r\n\t\t<li class=\"row bg1\">\r\n\t\t\t<dl class=\"icon\" style=\"background-image: url(https://forums.maladiesraresinfo.org/styles/mris/imageset/topic_read_hot.png); background-repeat: no-repeat;\">\r\n\t\t\t\t<dt title=\"Aucun message non lu\"><a href=\"https://forums.maladiesraresinfo.org/contacts-entre-malades-t104.html\" class=\"topictitle\">Contacts entre malades</a>\r\n\t\t\t\t\t<br />\r\n\t\t\t\t\t<strong class=\"pagination\"><span><a href=\"https://forums.maladiesraresinfo.org/contacts-entre-malades-t104.html\">1</a><span class=\"page-sep\">, </span><a href=\"https://forums.maladiesraresinfo.org/contacts-entre-malades-t104-10.html\">2</a><span class=\"page-sep\">, </span><a href=\"https://forums.maladiesraresinfo.org/contacts-entre-malades-t104-20.html\">3</a><span class=\"page-sep\">, </span><a href=\"https://forums.maladiesraresinfo.org/contacts-entre-malades-t104-30.html\">4</a></span></strong>par <a href=\"https://forums.maladiesraresinfo.org/membre301/\">Anais07</a> &raquo; Mer 20 Mar 2013 10:48\r\n\t\t\t\t</dt>\r\n\t\t\t\t<dd class=\"posts\">36 <dfn>Réponses</dfn></dd>\r\n\t\t\t\t<dd class=\"views\">48430 <dfn>Vus</dfn></dd>\r\n\t\t\t\t<dd class=\"lastpost\"><span><dfn>Dernier message </dfn>par <a href=\"https://forums.maladiesraresinfo.org/membre9056/\">Lindaide</a>\r\n\t\t\t\t\t<a href=\"https://forums.maladiesraresinfo.org/contacts-entre-malades-t104-30.html#p20299\"><img src=\"https://forums.maladiesraresinfo.org/styles/mris/imageset/icon_topic_latest.png\" width=\"12\" height=\"10\" alt=\"Voir le dernier message\" title=\"Voir le dernier message\" /></a> <br />Mar 27 Aoû 2019 16:21</span>\r\n\t\t\t\t</dd>\r\n\t\t\t</dl>\r\n\t\t</li>\r\n\r\n\t\r\n\r\n\t\t<li class=\"row bg2\">\r\n\t\t\t<dl class=\"icon\" style=\"background-image: url(https://forums.maladiesraresinfo.org/styles/mris/imageset/topic_read.png); background-repeat: no-repeat;\">\r\n\t\t\t\t<dt title=\"Aucun message non lu\"><a href=\"https://forums.maladiesraresinfo.org/questions-relais-sujet-led-quelle-evolution-t3918.html\" class=\"topictitle\">Questions  ( relais du sujet LED, quelle évolution?)</a>\r\n\t\t\t\t\t<br />\r\n\t\t\t\t\tpar <a href=\"https://forums.maladiesraresinfo.org/membre10652/\">amlise</a> &raquo; Ven 16 Aoû 2019 01:28\r\n\t\t\t\t</dt>\r\n\t\t\t\t<dd class=\"posts\">1 <dfn>Réponses</dfn></dd>\r\n\t\t\t\t<dd class=\"views\">49 <dfn>Vus</dfn></dd>\r\n\t\t\t\t<dd class=\"lastpost\"><span><dfn>Dernier message </dfn>par <a href=\"https://forums.maladiesraresinfo.org/membre57/\">Modérateur</a>\r\n\t\t\t\t\t<a href=\"https://forums.maladiesraresinfo.org/questions-relais-sujet-led-quelle-evolution-t3918.html#p18536\"><img src=\"https://forums.maladiesraresinfo.org/styles/mris/imageset/icon_topic_latest.png\" width=\"12\" height=\"10\" alt=\"Voir le dernier message\" title=\"Voir le dernier message\" /></a> <br />Ven 16 Aoû 2019 12:36</span>\r\n\t\t\t\t</dd>\r\n\t\t\t</dl>\r\n\t\t</li>\r\n\r\n\t\r\n\r\n\t\t<li class=\"row bg1\">\r\n\t\t\t<dl class=\"icon\" style=\"background-image: url(https://forums.maladiesraresinfo.org/styles/mris/imageset/topic_read_locked.png); background-repeat: no-repeat;\">\r\n\t\t\t\t<dt title=\"Ce sujet est verrouillé, vous ne pouvez pas modifier de messages ou poster de réponse.\"><a href=\"https://forums.maladiesraresinfo.org/led-quelle-evolution-t635.html\" class=\"topictitle\">LED, quelle évolution?</a>\r\n\t\t\t\t\t<br />\r\n\t\t\t\t\t<strong class=\"pagination\"><span><a href=\"https://forums.maladiesraresinfo.org/led-quelle-evolution-t635.html\">1</a><span class=\"page-sep\">, </span><a href=\"https://forums.maladiesraresinfo.org/led-quelle-evolution-t635-10.html\">2</a></span></strong>par <a href=\"https://forums.maladiesraresinfo.org/membre981/\">lyllou</a> &raquo; Mer 19 Fév 2014 09:02\r\n\t\t\t\t</dt>\r\n\t\t\t\t<dd class=\"posts\">17 <dfn>Réponses</dfn></dd>\r\n\t\t\t\t<dd class=\"views\">68028 <dfn>Vus</dfn></dd>\r\n\t\t\t\t<dd class=\"lastpost\"><span><dfn>Dernier message </dfn>par <a href=\"https://forums.maladiesraresinfo.org/membre57/\">Modérateur</a>\r\n\t\t\t\t\t<a href=\"https://forums.maladiesraresinfo.org/led-quelle-evolution-t635-10.html#p18535\"><img src=\"https://forums.maladiesraresinfo.org/styles/mris/imageset/icon_topic_latest.png\" width=\"12\" height=\"10\" alt=\"Voir le dernier message\" title=\"Voir le dernier message\" /></a> <br />Ven 16 Aoû 2019 12:30</span>\r\n\t\t\t\t</dd>\r\n\t\t\t</dl>\r\n\t\t</li>\r\n\r\n\t\r\n\r\n\t\t<li class=\"row bg2\">\r\n\t\t\t<dl class=\"icon\" style=\"background-image: url(https://forums.maladiesraresinfo.org/styles/mris/imageset/topic_read.png); background-repeat: no-repeat;\">\r\n\t\t\t\t<dt title=\"Aucun message non lu\"><a href=\"https://forums.maladiesraresinfo.org/perdue-t1665.html\" class=\"topictitle\">Perdue</a>\r\n\t\t\t\t\t<br />\r\n\t\t\t\t\tpar <a href=\"https://forums.maladiesraresinfo.org/membre2742/\">Dotie</a> &raquo; Dim 23 Aoû 2015 13:51\r\n\t\t\t\t</dt>\r\n\t\t\t\t<dd class=\"posts\">3 <dfn>Réponses</dfn></dd>\r\n\t\t\t\t<dd class=\"views\">7210 <dfn>Vus</dfn></dd>\r\n\t\t\t\t<dd class=\"lastpost\"><span><dfn>Dernier message </dfn>par <a href=\"https://forums.maladiesraresinfo.org/membre9874/\">Ghita kacimi</a>\r\n\t\t\t\t\t<a href=\"https://forums.maladiesraresinfo.org/perdue-t1665.html#p16372\"><img src=\"https://forums.maladiesraresinfo.org/styles/mris/imageset/icon_topic_latest.png\" width=\"12\" height=\"10\" alt=\"Voir le dernier message\" title=\"Voir le dernier message\" /></a> <br />Lun 5 Aoû 2019 14:35</span>\r\n\t\t\t\t</dd>\r\n\t\t\t</dl>\r\n\t\t</li>\r\n\r\n\t\r\n\r\n\t\t<li class=\"row bg1\">\r\n\t\t\t<dl class=\"icon\" style=\"background-image: url(https://forums.maladiesraresinfo.org/styles/mris/imageset/topic_read.png); background-repeat: no-repeat;\">\r\n\t\t\t\t<dt title=\"Aucun message non lu\"><a href=\"https://forums.maladiesraresinfo.org/ras-bol-t2042.html\" class=\"topictitle\">ras le bol</a>\r\n\t\t\t\t\t<br />\r\n\t\t\t\t\tpar <a href=\"https://forums.maladiesraresinfo.org/membre3136/\">lupicgirl</a> &raquo; Sam 19 Déc 2015 17:00\r\n\t\t\t\t</dt>\r\n\t\t\t\t<dd class=\"posts\">3 <dfn>Réponses</dfn></dd>\r\n\t\t\t\t<dd class=\"views\">6880 <dfn>Vus</dfn></dd>\r\n\t\t\t\t<dd class=\"lastpost\"><span><dfn>Dernier message </dfn>par <a href=\"https://forums.maladiesraresinfo.org/membre9874/\">Ghita kacimi</a>\r\n\t\t\t\t\t<a href=\"https://forums.maladiesraresinfo.org/ras-bol-t2042.html#p16365\"><img src=\"https://forums.maladiesraresinfo.org/styles/mris/imageset/icon_topic_latest.png\" width=\"12\" height=\"10\" alt=\"Voir le dernier message\" title=\"Voir le dernier message\" /></a> <br />Lun 5 Aoû 2019 14:19</span>\r\n\t\t\t\t</dd>\r\n\t\t\t</dl>\r\n\t\t</li>\r\n\r\n\t\r\n\r\n\t\t<li class=\"row bg2\">\r\n\t\t\t<dl class=\"icon\" style=\"background-image: url(https://forums.maladiesraresinfo.org/styles/mris/imageset/topic_read.png); background-repeat: no-repeat;\">\r\n\t\t\t\t<dt title=\"Aucun message non lu\"><a href=\"https://forums.maladiesraresinfo.org/retinopathie-toxique-aux-aps-victime-des-medicaments-t1584.html\" class=\"topictitle\">Rétinopathie toxique aux APS Victime des médicaments</a>\r\n\t\t\t\t\t<br />\r\n\t\t\t\t\tpar <a href=\"https://forums.maladiesraresinfo.org/membre1435/\">xia999</a> &raquo; Ven 19 Juin 2015 19:58\r\n\t\t\t\t</dt>\r\n\t\t\t\t<dd class=\"posts\">2 <dfn>Réponses</dfn></dd>\r\n\t\t\t\t<dd class=\"views\">7565 <dfn>Vus</dfn></dd>\r\n\t\t\t\t<dd class=\"lastpost\"><span><dfn>Dernier message </dfn>par <a href=\"https://forums.maladiesraresinfo.org/membre57/\">Modérateur</a>\r\n\t\t\t\t\t<a href=\"https://forums.maladiesraresinfo.org/retinopathie-toxique-aux-aps-victime-des-medicaments-t1584.html#p14361\"><img src=\"https://forums.maladiesraresinfo.org/styles/mris/imageset/icon_topic_latest.png\" width=\"12\" height=\"10\" alt=\"Voir le dernier message\" title=\"Voir le dernier message\" /></a> <br />Lun 17 Juin 2019 12:09</span>\r\n\t\t\t\t</dd>\r\n\t\t\t</dl>\r\n\t\t</li>\r\n\r\n\t\r\n\r\n\t\t<li class=\"row bg1\">\r\n\t\t\t<dl class=\"icon\" style=\"background-image: url(https://forums.maladiesraresinfo.org/styles/mris/imageset/topic_read_hot.png); background-repeat: no-repeat;\">\r\n\t\t\t\t<dt title=\"Aucun message non lu\"><a href=\"https://forums.maladiesraresinfo.org/lupus-perte-cheveux-t1246.html\" class=\"topictitle\">Lupus et perte de cheveux</a>\r\n\t\t\t\t\t<br />\r\n\t\t\t\t\t<strong class=\"pagination\"><span><a href=\"https://forums.maladiesraresinfo.org/lupus-perte-cheveux-t1246.html\">1</a><span class=\"page-sep\">, </span><a href=\"https://forums.maladiesraresinfo.org/lupus-perte-cheveux-t1246-10.html\">2</a><span class=\"page-sep\">, </span><a href=\"https://forums.maladiesraresinfo.org/lupus-perte-cheveux-t1246-20.html\">3</a><span class=\"page-sep\">, </span><a href=\"https://forums.maladiesraresinfo.org/lupus-perte-cheveux-t1246-30.html\">4</a></span></strong>par <a href=\"https://forums.maladiesraresinfo.org/membre2202/\">Stéphanie</a> &raquo; Sam 21 Mar 2015 23:21\r\n\t\t\t\t</dt>\r\n\t\t\t\t<dd class=\"posts\">31 <dfn>Réponses</dfn></dd>\r\n\t\t\t\t<dd class=\"views\">49256 <dfn>Vus</dfn></dd>\r\n\t\t\t\t<dd class=\"lastpost\"><span><dfn>Dernier message </dfn>par <a href=\"https://forums.maladiesraresinfo.org/membre9056/\">Lindaide</a>\r\n\t\t\t\t\t<a href=\"https://forums.maladiesraresinfo.org/lupus-perte-cheveux-t1246-30.html#p14353\"><img src=\"https://forums.maladiesraresinfo.org/styles/mris/imageset/icon_topic_latest.png\" width=\"12\" height=\"10\" alt=\"Voir le dernier message\" title=\"Voir le dernier message\" /></a> <br />Ven 14 Juin 2019 23:38</span>\r\n\t\t\t\t</dd>\r\n\t\t\t</dl>\r\n\t\t</li>\r\n\r\n\t\r\n\r\n\t\t<li class=\"row bg2\">\r\n\t\t\t<dl class=\"icon\" style=\"background-image: url(https://forums.maladiesraresinfo.org/styles/mris/imageset/topic_read.png); background-repeat: no-repeat;\">\r\n\t\t\t\t<dt title=\"Aucun message non lu\"><a href=\"https://forums.maladiesraresinfo.org/lupus-engelure-travail-t2325.html\" class=\"topictitle\">Lupus</a>\r\n\t\t\t\t\t<br />\r\n\t\t\t\t\tpar <a href=\"https://forums.maladiesraresinfo.org/membre4353/\">Witchissime</a> &raquo; Mer 19 Oct 2016 00:46\r\n\t\t\t\t</dt>\r\n\t\t\t\t<dd class=\"posts\">9 <dfn>Réponses</dfn></dd>\r\n\t\t\t\t<dd class=\"views\">8628 <dfn>Vus</dfn></dd>\r\n\t\t\t\t<dd class=\"lastpost\"><span><dfn>Dernier message </dfn>par <a href=\"https://forums.maladiesraresinfo.org/membre4353/\">Witchissime</a>\r\n\t\t\t\t\t<a href=\"https://forums.maladiesraresinfo.org/lupus-engelure-travail-t2325.html#p14248\"><img src=\"https://forums.maladiesraresinfo.org/styles/mris/imageset/icon_topic_latest.png\" width=\"12\" height=\"10\" alt=\"Voir le dernier message\" title=\"Voir le dernier message\" /></a> <br />Mar 28 Mai 2019 18:33</span>\r\n\t\t\t\t</dd>\r\n\t\t\t</dl>\r\n\t\t</li>\r\n\r\n\t\r\n\r\n\t\t<li class=\"row bg1\">\r\n\t\t\t<dl class=\"icon\" style=\"background-image: url(https://forums.maladiesraresinfo.org/styles/mris/imageset/topic_read.png); background-repeat: no-repeat;\">\r\n\t\t\t\t<dt title=\"Aucun message non lu\"><a href=\"https://forums.maladiesraresinfo.org/lupus-chez-enfant-t3063.html\" class=\"topictitle\">Lupus chez l'enfant</a>\r\n\t\t\t\t\t<br />\r\n\t\t\t\t\tpar <a href=\"https://forums.maladiesraresinfo.org/membre7703/\">Nelene74</a> &raquo; Mar 18 Sep 2018 14:34\r\n\t\t\t\t</dt>\r\n\t\t\t\t<dd class=\"posts\">1 <dfn>Réponses</dfn></dd>\r\n\t\t\t\t<dd class=\"views\">603 <dfn>Vus</dfn></dd>\r\n\t\t\t\t<dd class=\"lastpost\"><span><dfn>Dernier message </dfn>par <a href=\"https://forums.maladiesraresinfo.org/membre8021/\">Luna</a>\r\n\t\t\t\t\t<a href=\"https://forums.maladiesraresinfo.org/lupus-chez-enfant-t3063.html#p12650\"><img src=\"https://forums.maladiesraresinfo.org/styles/mris/imageset/icon_topic_latest.png\" width=\"12\" height=\"10\" alt=\"Voir le dernier message\" title=\"Voir le dernier message\" /></a> <br />Lun 3 Déc 2018 19:41</span>\r\n\t\t\t\t</dd>\r\n\t\t\t</dl>\r\n\t\t</li>\r\n\r\n\t\r\n\r\n\t\t<li class=\"row bg2\">\r\n\t\t\t<dl class=\"icon\" style=\"background-image: url(https://forums.maladiesraresinfo.org/styles/mris/imageset/topic_read.png); background-repeat: no-repeat;\">\r\n\t\t\t\t<dt title=\"Aucun message non lu\"><a href=\"https://forums.maladiesraresinfo.org/peu-decourage-t721.html\" class=\"topictitle\">Un peu découragé</a>\r\n\t\t\t\t\t<br />\r\n\t\t\t\t\tpar <a href=\"https://forums.maladiesraresinfo.org/membre1322/\">Anatole</a> &raquo; Lun 8 Sep 2014 01:11\r\n\t\t\t\t</dt>\r\n\t\t\t\t<dd class=\"posts\">2 <dfn>Réponses</dfn></dd>\r\n\t\t\t\t<dd class=\"views\">10171 <dfn>Vus</dfn></dd>\r\n\t\t\t\t<dd class=\"lastpost\"><span><dfn>Dernier message </dfn>par <a href=\"https://forums.maladiesraresinfo.org/membre7598/\">Sherazade</a>\r\n\t\t\t\t\t<a href=\"https://forums.maladiesraresinfo.org/peu-decourage-t721.html#p12040\"><img src=\"https://forums.maladiesraresinfo.org/styles/mris/imageset/icon_topic_latest.png\" width=\"12\" height=\"10\" alt=\"Voir le dernier message\" title=\"Voir le dernier message\" /></a> <br />Mar 28 Aoû 2018 21:56</span>\r\n\t\t\t\t</dd>\r\n\t\t\t</dl>\r\n\t\t</li>\r\n\r\n\t\r\n\r\n\t\t<li class=\"row bg1\">\r\n\t\t\t<dl class=\"icon\" style=\"background-image: url(https://forums.maladiesraresinfo.org/styles/mris/imageset/topic_read.png); background-repeat: no-repeat;\">\r\n\t\t\t\t<dt title=\"Aucun message non lu\"><a href=\"https://forums.maladiesraresinfo.org/lupus-miliaire-dissemine-face-t2515.html\" class=\"topictitle\">Lupus miliaire disséminé de la face</a>\r\n\t\t\t\t\t<br />\r\n\t\t\t\t\tpar <a href=\"https://forums.maladiesraresinfo.org/membre5549/\">olivier21</a> &raquo; Mer 12 Avr 2017 13:57\r\n\t\t\t\t</dt>\r\n\t\t\t\t<dd class=\"posts\">1 <dfn>Réponses</dfn></dd>\r\n\t\t\t\t<dd class=\"views\">3384 <dfn>Vus</dfn></dd>\r\n\t\t\t\t<dd class=\"lastpost\"><span><dfn>Dernier message </dfn>par <a href=\"https://forums.maladiesraresinfo.org/membre7434/\">Boutainadumaroc</a>\r\n\t\t\t\t\t<a href=\"https://forums.maladiesraresinfo.org/lupus-miliaire-dissemine-face-t2515.html#p11759\"><img src=\"https://forums.maladiesraresinfo.org/styles/mris/imageset/icon_topic_latest.png\" width=\"12\" height=\"10\" alt=\"Voir le dernier message\" title=\"Voir le dernier message\" /></a> <br />Mar 10 Juil 2018 16:57</span>\r\n\t\t\t\t</dd>\r\n\t\t\t</dl>\r\n\t\t</li>\r\n\r\n\t\r\n\r\n\t\t<li class=\"row bg2\">\r\n\t\t\t<dl class=\"icon\" style=\"background-image: url(https://forums.maladiesraresinfo.org/styles/mris/imageset/topic_read.png); background-repeat: no-repeat;\">\r\n\t\t\t\t<dt title=\"Aucun message non lu\"><a href=\"https://forums.maladiesraresinfo.org/annonce-diagnostic-t2569.html\" class=\"topictitle\">Annonce du diagnostic</a>\r\n\t\t\t\t\t<br />\r\n\t\t\t\t\tpar <a href=\"https://forums.maladiesraresinfo.org/membre5820/\">ouinette</a> &raquo; Jeu 22 Juin 2017 21:26\r\n\t\t\t\t</dt>\r\n\t\t\t\t<dd class=\"posts\">9 <dfn>Réponses</dfn></dd>\r\n\t\t\t\t<dd class=\"views\">11227 <dfn>Vus</dfn></dd>\r\n\t\t\t\t<dd class=\"lastpost\"><span><dfn>Dernier message </dfn>par <a href=\"https://forums.maladiesraresinfo.org/membre6382/\">newLupique</a>\r\n\t\t\t\t\t<a href=\"https://forums.maladiesraresinfo.org/annonce-diagnostic-t2569.html#p10227\"><img src=\"https://forums.maladiesraresinfo.org/styles/mris/imageset/icon_topic_latest.png\" width=\"12\" height=\"10\" alt=\"Voir le dernier message\" title=\"Voir le dernier message\" /></a> <br />Mar 7 Nov 2017 14:02</span>\r\n\t\t\t\t</dd>\r\n\t\t\t</dl>\r\n\t\t</li>\r\n\r\n\t\r\n\r\n\t\t<li class=\"row bg1\">\r\n\t\t\t<dl class=\"icon\" style=\"background-image: url(https://forums.maladiesraresinfo.org/styles/mris/imageset/topic_read.png); background-repeat: no-repeat;\">\r\n\t\t\t\t<dt title=\"Aucun message non lu\"><a href=\"https://forums.maladiesraresinfo.org/perception-votre-entourage-t2359.html\" class=\"topictitle\">la perception de votre entourage?</a>\r\n\t\t\t\t\t<br />\r\n\t\t\t\t\tpar <a href=\"https://forums.maladiesraresinfo.org/membre4492/\">mel09</a> &raquo; Jeu 10 Nov 2016 15:32\r\n\t\t\t\t</dt>\r\n\t\t\t\t<dd class=\"posts\">3 <dfn>Réponses</dfn></dd>\r\n\t\t\t\t<dd class=\"views\">6069 <dfn>Vus</dfn></dd>\r\n\t\t\t\t<dd class=\"lastpost\"><span><dfn>Dernier message </dfn>par <a href=\"https://forums.maladiesraresinfo.org/membre5536/\">titus</a>\r\n\t\t\t\t\t<a href=\"https://forums.maladiesraresinfo.org/perception-votre-entourage-t2359.html#p8982\"><img src=\"https://forums.maladiesraresinfo.org/styles/mris/imageset/icon_topic_latest.png\" width=\"12\" height=\"10\" alt=\"Voir le dernier message\" title=\"Voir le dernier message\" /></a> <br />Sam 8 Avr 2017 22:25</span>\r\n\t\t\t\t</dd>\r\n\t\t\t</dl>\r\n\t\t</li>\r\n\r\n\t\r\n\r\n\t\t<li class=\"row bg2\">\r\n\t\t\t<dl class=\"icon\" style=\"background-image: url(https://forums.maladiesraresinfo.org/styles/mris/imageset/topic_read.png); background-repeat: no-repeat;\">\r\n\t\t\t\t<dt title=\"Aucun message non lu\"><a href=\"https://forums.maladiesraresinfo.org/lupus-absence-diagnostic-t2069.html\" class=\"topictitle\">Lupus absence de diagnostic</a>\r\n\t\t\t\t\t<br />\r\n\t\t\t\t\tpar <a href=\"https://forums.maladiesraresinfo.org/membre3184/\">Yonayo</a> &raquo; Jeu 7 Jan 2016 18:35\r\n\t\t\t\t</dt>\r\n\t\t\t\t<dd class=\"posts\">6 <dfn>Réponses</dfn></dd>\r\n\t\t\t\t<dd class=\"views\">14266 <dfn>Vus</dfn></dd>\r\n\t\t\t\t<dd class=\"lastpost\"><span><dfn>Dernier message </dfn>par <a href=\"https://forums.maladiesraresinfo.org/membre4285/\">kselbouderga</a>\r\n\t\t\t\t\t<a href=\"https://forums.maladiesraresinfo.org/lupus-absence-diagnostic-t2069.html#p7880\"><img src=\"https://forums.maladiesraresinfo.org/styles/mris/imageset/icon_topic_latest.png\" width=\"12\" height=\"10\" alt=\"Voir le dernier message\" title=\"Voir le dernier message\" /></a> <br />Mar 4 Oct 2016 23:24</span>\r\n\t\t\t\t</dd>\r\n\t\t\t</dl>\r\n\t\t</li>\r\n\r\n\t\r\n\r\n\t\t<li class=\"row bg1\">\r\n\t\t\t<dl class=\"icon\" style=\"background-image: url(https://forums.maladiesraresinfo.org/styles/mris/imageset/topic_read.png); background-repeat: no-repeat;\">\r\n\t\t\t\t<dt title=\"Aucun message non lu\"><a href=\"https://forums.maladiesraresinfo.org/neurolupus-t1936.html\" class=\"topictitle\">Neurolupus</a>\r\n\t\t\t\t\t<br />\r\n\t\t\t\t\tpar <a href=\"https://forums.maladiesraresinfo.org/membre2946/\">ho k</a> &raquo; Lun 19 Oct 2015 20:27\r\n\t\t\t\t</dt>\r\n\t\t\t\t<dd class=\"posts\">1 <dfn>Réponses</dfn></dd>\r\n\t\t\t\t<dd class=\"views\">7173 <dfn>Vus</dfn></dd>\r\n\t\t\t\t<dd class=\"lastpost\"><span><dfn>Dernier message </dfn>par <a href=\"https://forums.maladiesraresinfo.org/membre3995/\">Sissiamara</a>\r\n\t\t\t\t\t<a href=\"https://forums.maladiesraresinfo.org/neurolupus-t1936.html#p7388\"><img src=\"https://forums.maladiesraresinfo.org/styles/mris/imageset/icon_topic_latest.png\" width=\"12\" height=\"10\" alt=\"Voir le dernier message\" title=\"Voir le dernier message\" /></a> <br />Mar 12 Juil 2016 02:14</span>\r\n\t\t\t\t</dd>\r\n\t\t\t</dl>\r\n\t\t</li>\r\n\r\n\t\r\n\r\n\t\t<li class=\"row bg2\">\r\n\t\t\t<dl class=\"icon\" style=\"background-image: url(https://forums.maladiesraresinfo.org/styles/mris/imageset/topic_read.png); background-repeat: no-repeat;\">\r\n\t\t\t\t<dt title=\"Aucun message non lu\"><a href=\"https://forums.maladiesraresinfo.org/lupusis-t1626.html\" class=\"topictitle\">Lupusis</a>\r\n\t\t\t\t\t<br />\r\n\t\t\t\t\tpar <a href=\"https://forums.maladiesraresinfo.org/membre2245/\">Clementine</a> &raquo; Mer 29 Juil 2015 13:27\r\n\t\t\t\t</dt>\r\n\t\t\t\t<dd class=\"posts\">4 <dfn>Réponses</dfn></dd>\r\n\t\t\t\t<dd class=\"views\">8214 <dfn>Vus</dfn></dd>\r\n\t\t\t\t<dd class=\"lastpost\"><span><dfn>Dernier message </dfn>par <a href=\"https://forums.maladiesraresinfo.org/membre57/\">Modérateur</a>\r\n\t\t\t\t\t<a href=\"https://forums.maladiesraresinfo.org/lupusis-t1626.html#p6161\"><img src=\"https://forums.maladiesraresinfo.org/styles/mris/imageset/icon_topic_latest.png\" width=\"12\" height=\"10\" alt=\"Voir le dernier message\" title=\"Voir le dernier message\" /></a> <br />Mer 6 Jan 2016 16:41</span>\r\n\t\t\t\t</dd>\r\n\t\t\t</dl>\r\n\t\t</li>\r\n\r\n\t\r\n\r\n\t\t<li class=\"row bg1\">\r\n\t\t\t<dl class=\"icon\" style=\"background-image: url(https://forums.maladiesraresinfo.org/styles/mris/imageset/topic_read.png); background-repeat: no-repeat;\">\r\n\t\t\t\t<dt title=\"Aucun message non lu\"><a href=\"https://forums.maladiesraresinfo.org/micro-kinesitherapie-t1938.html\" class=\"topictitle\">micro kinésithérapie</a>\r\n\t\t\t\t\t<br />\r\n\t\t\t\t\tpar <a href=\"https://forums.maladiesraresinfo.org/membre2951/\">fifi68</a> &raquo; Mer 21 Oct 2015 20:57\r\n\t\t\t\t</dt>\r\n\t\t\t\t<dd class=\"posts\">1 <dfn>Réponses</dfn></dd>\r\n\t\t\t\t<dd class=\"views\">6658 <dfn>Vus</dfn></dd>\r\n\t\t\t\t<dd class=\"lastpost\"><span><dfn>Dernier message </dfn>par <a href=\"https://forums.maladiesraresinfo.org/membre57/\">Modérateur</a>\r\n\t\t\t\t\t<a href=\"https://forums.maladiesraresinfo.org/micro-kinesitherapie-t1938.html#p5814\"><img src=\"https://forums.maladiesraresinfo.org/styles/mris/imageset/icon_topic_latest.png\" width=\"12\" height=\"10\" alt=\"Voir le dernier message\" title=\"Voir le dernier message\" /></a> <br />Jeu 22 Oct 2015 11:49</span>\r\n\t\t\t\t</dd>\r\n\t\t\t</dl>\r\n\t\t</li>\r\n\r\n\t\r\n\r\n\t\t<li class=\"row bg2\">\r\n\t\t\t<dl class=\"icon\" style=\"background-image: url(https://forums.maladiesraresinfo.org/styles/mris/imageset/topic_read.png); background-repeat: no-repeat;\">\r\n\t\t\t\t<dt title=\"Aucun message non lu\"><a href=\"https://forums.maladiesraresinfo.org/lupus-t1640.html\" class=\"topictitle\">lupus</a>\r\n\t\t\t\t\t<br />\r\n\t\t\t\t\tpar <a href=\"https://forums.maladiesraresinfo.org/membre2673/\">imane amouna</a> &raquo; Sam 1 Aoû 2015 19:47\r\n\t\t\t\t</dt>\r\n\t\t\t\t<dd class=\"posts\">1 <dfn>Réponses</dfn></dd>\r\n\t\t\t\t<dd class=\"views\">6993 <dfn>Vus</dfn></dd>\r\n\t\t\t\t<dd class=\"lastpost\"><span><dfn>Dernier message </dfn>par <a href=\"https://forums.maladiesraresinfo.org/membre57/\">Modérateur</a>\r\n\t\t\t\t\t<a href=\"https://forums.maladiesraresinfo.org/lupus-t1640.html#p5204\"><img src=\"https://forums.maladiesraresinfo.org/styles/mris/imageset/icon_topic_latest.png\" width=\"12\" height=\"10\" alt=\"Voir le dernier message\" title=\"Voir le dernier message\" /></a> <br />Lun 3 Aoû 2015 09:55</span>\r\n\t\t\t\t</dd>\r\n\t\t\t</dl>\r\n\t\t</li>\r\n\r\n\t\r\n\r\n\t\t<li class=\"row bg1\">\r\n\t\t\t<dl class=\"icon\" style=\"background-image: url(https://forums.maladiesraresinfo.org/styles/mris/imageset/topic_read.png); background-repeat: no-repeat;\">\r\n\t\t\t\t<dt title=\"Aucun message non lu\"><a href=\"https://forums.maladiesraresinfo.org/lupus-hypertension-grossesse-t1495.html\" class=\"topictitle\">Lupus hypertension grossesse</a>\r\n\t\t\t\t\t<br />\r\n\t\t\t\t\tpar <a href=\"https://forums.maladiesraresinfo.org/membre2437/\">grenouille</a> &raquo; Lun 25 Mai 2015 21:08\r\n\t\t\t\t</dt>\r\n\t\t\t\t<dd class=\"posts\">1 <dfn>Réponses</dfn></dd>\r\n\t\t\t\t<dd class=\"views\">7207 <dfn>Vus</dfn></dd>\r\n\t\t\t\t<dd class=\"lastpost\"><span><dfn>Dernier message </dfn>par <a href=\"https://forums.maladiesraresinfo.org/membre57/\">Modérateur</a>\r\n\t\t\t\t\t<a href=\"https://forums.maladiesraresinfo.org/lupus-hypertension-grossesse-t1495.html#p4729\"><img src=\"https://forums.maladiesraresinfo.org/styles/mris/imageset/icon_topic_latest.png\" width=\"12\" height=\"10\" alt=\"Voir le dernier message\" title=\"Voir le dernier message\" /></a> <br />Mar 26 Mai 2015 11:11</span>\r\n\t\t\t\t</dd>\r\n\t\t\t</dl>\r\n\t\t</li>\r\n\r\n\t\r\n\r\n\t\t<li class=\"row bg2\">\r\n\t\t\t<dl class=\"icon\" style=\"background-image: url(https://forums.maladiesraresinfo.org/styles/mris/imageset/topic_read.png); background-repeat: no-repeat;\">\r\n\t\t\t\t<dt title=\"Aucun message non lu\"><a href=\"https://forums.maladiesraresinfo.org/anticorps-anti-t1460.html\" class=\"topictitle\">Anticorps anti-sm ?</a>\r\n\t\t\t\t\t<br />\r\n\t\t\t\t\tpar <a href=\"https://forums.maladiesraresinfo.org/membre2394/\">Alya</a> &raquo; Ven 8 Mai 2015 00:38\r\n\t\t\t\t</dt>\r\n\t\t\t\t<dd class=\"posts\">2 <dfn>Réponses</dfn></dd>\r\n\t\t\t\t<dd class=\"views\">8333 <dfn>Vus</dfn></dd>\r\n\t\t\t\t<dd class=\"lastpost\"><span><dfn>Dernier message </dfn>par <a href=\"https://forums.maladiesraresinfo.org/membre167/\">arlette</a>\r\n\t\t\t\t\t<a href=\"https://forums.maladiesraresinfo.org/anticorps-anti-t1460.html#p4661\"><img src=\"https://forums.maladiesraresinfo.org/styles/mris/imageset/icon_topic_latest.png\" width=\"12\" height=\"10\" alt=\"Voir le dernier message\" title=\"Voir le dernier message\" /></a> <br />Lun 11 Mai 2015 19:58</span>\r\n\t\t\t\t</dd>\r\n\t\t\t</dl>\r\n\t\t</li>\r\n\r\n\t\r\n\r\n\t\t<li class=\"row bg1\">\r\n\t\t\t<dl class=\"icon\" style=\"background-image: url(https://forums.maladiesraresinfo.org/styles/mris/imageset/topic_read.png); background-repeat: no-repeat;\">\r\n\t\t\t\t<dt title=\"Aucun message non lu\"><a href=\"https://forums.maladiesraresinfo.org/regime-seignalet-t1245.html\" class=\"topictitle\">Régime Seignalet</a>\r\n\t\t\t\t\t<br />\r\n\t\t\t\t\tpar <a href=\"https://forums.maladiesraresinfo.org/membre2202/\">Stéphanie</a> &raquo; Sam 21 Mar 2015 23:12\r\n\t\t\t\t</dt>\r\n\t\t\t\t<dd class=\"posts\">2 <dfn>Réponses</dfn></dd>\r\n\t\t\t\t<dd class=\"views\">9022 <dfn>Vus</dfn></dd>\r\n\t\t\t\t<dd class=\"lastpost\"><span><dfn>Dernier message </dfn>par <a href=\"https://forums.maladiesraresinfo.org/membre2202/\">Stéphanie</a>\r\n\t\t\t\t\t<a href=\"https://forums.maladiesraresinfo.org/regime-seignalet-t1245.html#p4241\"><img src=\"https://forums.maladiesraresinfo.org/styles/mris/imageset/icon_topic_latest.png\" width=\"12\" height=\"10\" alt=\"Voir le dernier message\" title=\"Voir le dernier message\" /></a> <br />Lun 23 Mar 2015 12:22</span>\r\n\t\t\t\t</dd>\r\n\t\t\t</dl>\r\n\t\t</li>\r\n\r\n\t\r\n\r\n\t\t<li class=\"row bg2\">\r\n\t\t\t<dl class=\"icon\" style=\"background-image: url(https://forums.maladiesraresinfo.org/styles/mris/imageset/topic_read.png); background-repeat: no-repeat;\">\r\n\t\t\t\t<dt title=\"Aucun message non lu\"><a href=\"https://forums.maladiesraresinfo.org/lupus-cutane-t97.html\" class=\"topictitle\">Lupus cutané</a>\r\n\t\t\t\t\t<br />\r\n\t\t\t\t\tpar <a href=\"https://forums.maladiesraresinfo.org/membre300/\">soise</a> &raquo; Sam 2 Mar 2013 14:49\r\n\t\t\t\t</dt>\r\n\t\t\t\t<dd class=\"posts\">7 <dfn>Réponses</dfn></dd>\r\n\t\t\t\t<dd class=\"views\">17001 <dfn>Vus</dfn></dd>\r\n\t\t\t\t<dd class=\"lastpost\"><span><dfn>Dernier message </dfn>par <a href=\"https://forums.maladiesraresinfo.org/membre1324/\">sissou79</a>\r\n\t\t\t\t\t<a href=\"https://forums.maladiesraresinfo.org/lupus-cutane-t97.html#p2865\"><img src=\"https://forums.maladiesraresinfo.org/styles/mris/imageset/icon_topic_latest.png\" width=\"12\" height=\"10\" alt=\"Voir le dernier message\" title=\"Voir le dernier message\" /></a> <br />Mer 26 Nov 2014 08:20</span>\r\n\t\t\t\t</dd>\r\n\t\t\t</dl>\r\n\t\t</li>\r\n\r\n\t\r\n\r\n\t\t<li class=\"row bg1\">\r\n\t\t\t<dl class=\"icon\" style=\"background-image: url(https://forums.maladiesraresinfo.org/styles/mris/imageset/topic_read.png); background-repeat: no-repeat;\">\r\n\t\t\t\t<dt title=\"Aucun message non lu\"><a href=\"https://forums.maladiesraresinfo.org/lupus-grossesse-avortement-t663.html\" class=\"topictitle\">Lupus et grossesse/avortement</a>\r\n\t\t\t\t\t<br />\r\n\t\t\t\t\tpar <a href=\"https://forums.maladiesraresinfo.org/membre1117/\">lilipom</a> &raquo; Mer 7 Mai 2014 17:43\r\n\t\t\t\t</dt>\r\n\t\t\t\t<dd class=\"posts\">0 <dfn>Réponses</dfn></dd>\r\n\t\t\t\t<dd class=\"views\">8478 <dfn>Vus</dfn></dd>\r\n\t\t\t\t<dd class=\"lastpost\"><span><dfn>Dernier message </dfn>par <a href=\"https://forums.maladiesraresinfo.org/membre1117/\">lilipom</a>\r\n\t\t\t\t\t<a href=\"https://forums.maladiesraresinfo.org/lupus-grossesse-avortement-t663.html#p2278\"><img src=\"https://forums.maladiesraresinfo.org/styles/mris/imageset/icon_topic_latest.png\" width=\"12\" height=\"10\" alt=\"Voir le dernier message\" title=\"Voir le dernier message\" /></a> <br />Mer 7 Mai 2014 17:43</span>\r\n\t\t\t\t</dd>\r\n\t\t\t</dl>\r\n\t\t</li>\r\n\r\n\t\r\n\r\n\t\t<li class=\"row bg2\">\r\n\t\t\t<dl class=\"icon\" style=\"background-image: url(https://forums.maladiesraresinfo.org/styles/mris/imageset/topic_read.png); background-repeat: no-repeat;\">\r\n\t\t\t\t<dt title=\"Aucun message non lu\"><a href=\"https://forums.maladiesraresinfo.org/erythemalgie-anticorps-nucleaires-mouchetes-positifs1-400-t408.html\" class=\"topictitle\">erythemalgie et anticorps nucleaires mouchetes positifs1/400</a>\r\n\t\t\t\t\t<br />\r\n\t\t\t\t\tpar <a href=\"https://forums.maladiesraresinfo.org/membre735/\">mimi13</a> &raquo; Lun 2 Déc 2013 12:59\r\n\t\t\t\t</dt>\r\n\t\t\t\t<dd class=\"posts\">0 <dfn>Réponses</dfn></dd>\r\n\t\t\t\t<dd class=\"views\">8526 <dfn>Vus</dfn></dd>\r\n\t\t\t\t<dd class=\"lastpost\"><span><dfn>Dernier message </dfn>par <a href=\"https://forums.maladiesraresinfo.org/membre735/\">mimi13</a>\r\n\t\t\t\t\t<a href=\"https://forums.maladiesraresinfo.org/erythemalgie-anticorps-nucleaires-mouchetes-positifs1-400-t408.html#p1386\"><img src=\"https://forums.maladiesraresinfo.org/styles/mris/imageset/icon_topic_latest.png\" width=\"12\" height=\"10\" alt=\"Voir le dernier message\" title=\"Voir le dernier message\" /></a> <br />Lun 2 Déc 2013 12:59</span>\r\n\t\t\t\t</dd>\r\n\t\t\t</dl>\r\n\t\t</li>\r\n\r\n\t\r\n\t\t\t</ul>\r\n\t</div>\r\n\t\r\n\t<form method=\"post\" action=\"https://forums.maladiesraresinfo.org/lupus-f56.html\">\r\n\t\t<fieldset class=\"display-options\">\r\n\t\t\t\r\n\t\t\t<label>Afficher les sujets de discussion postés depuis: <select name=\"st\" id=\"st\"><option value=\"0\" selected=\"selected\">Tous</option><option value=\"1\">1 jour</option><option value=\"7\">7 jours</option><option value=\"14\">2 semaines</option><option value=\"30\">1 mois</option><option value=\"90\">3 mois</option><option value=\"180\">6 mois</option><option value=\"365\">1 an</option></select></label>\r\n\t\t\t<label>Trier par <select name=\"sk\" id=\"sk\"><option value=\"a\">Auteur</option><option value=\"t\" selected=\"selected\">Date</option><option value=\"r\">Réponses</option><option value=\"s\">Sujet de discussion</option><option value=\"v\">Vus</option></select></label>\r\n\t\t\t<label><select name=\"sd\" id=\"sd\"><option value=\"a\">Croissant</option><option value=\"d\" selected=\"selected\">Décroissant</option></select> <input type=\"submit\" name=\"sort\" value=\"Aller\" class=\"button2\" /></label>\r\n\t\r\n\t\t</fieldset>\r\n\t</form>\r\n\t<hr />\r\n\r\n\t<div class=\"topic-actions\">\r\n\t\t\r\n\t\t<div class=\"buttons\">\r\n\t\t\t<div class=\"post-icon\" title=\"Écrire un nouveau sujet de discussion\"><a href=\"https://forums.maladiesraresinfo.org/posting.php?mode=post&amp;f=56&amp;sid=a175cd00bd289e19f8d0bf1743c78447\"><span></span>Écrire un nouveau sujet de discussion</a></div>\r\n\t\t</div>\r\n\t\t\r\n\t\t<div class=\"pagination\">\r\n\t\t\t 24 sujets &bull; Page <strong>1</strong> sur <strong>1</strong>\r\n\t\t</div>\r\n\t\t\r\n\t</div>\r\n\n\t<a href=\"https://forums.maladiesraresinfo.org/\" class=\"left-box left block-link\" accesskey=\"r\">Retourner vers Accueil du Forum</a>\n\n\t<form method=\"post\" id=\"jumpbox\" action=\"https://forums.maladiesraresinfo.org/viewforum.php\" onsubmit=\"if(this.f.value == -1){return false;}\">\n\n\t\n\t\t<fieldset class=\"jumpbox\">\n\t\n\t\t\t<label for=\"f\" accesskey=\"j\">Aller à:</label>\n\t\t\t<select name=\"f\" id=\"f\" onchange=\"if(this.options[this.selectedIndex].value != -1){ document.forms['jumpbox'].submit() }\">\n\t\t\t\n\t\t\t\t<option value=\"-1\">Sélectionner un forum</option>\n\t\t\t<option value=\"-1\">------------------</option>\n\t\t\t\t<option value=\"1\">Thèmes généraux</option>\n\t\t\t\n\t\t\t\t<option value=\"50\">&nbsp; &nbsp;Les aidants familiaux</option>\n\t\t\t\n\t\t\t\t<option value=\"163\">&nbsp; &nbsp;Education thérapeutique</option>\n\t\t\t\n\t\t\t\t<option value=\"10\">&nbsp; &nbsp;Questions génétiques</option>\n\t\t\t\n\t\t\t\t<option value=\"7\">&nbsp; &nbsp;Isolement et maladies rares</option>\n\t\t\t\n\t\t\t\t<option value=\"191\">&nbsp; &nbsp;Parents d’enfants malades</option>\n\t\t\t\n\t\t\t\t<option value=\"8\">&nbsp; &nbsp;Scolarisation et maladies rares</option>\n\t\t\t\n\t\t\t\t<option value=\"5\">&nbsp; &nbsp;Vie professionnelle et maladies rares</option>\n\t\t\t\n\t\t\t\t<option value=\"9\">&nbsp; &nbsp;Remboursement des frais médicaux</option>\n\t\t\t\n\t\t\t\t<option value=\"262\">&nbsp; &nbsp;Prise en charge du handicap</option>\n\t\t\t\n\t\t\t\t<option value=\"261\">&nbsp; &nbsp;Emprunts bancaires et maladies rares</option>\n\t\t\t\n\t\t\t\t<option value=\"266\">Maladies sans diagnostic</option>\n\t\t\t\n\t\t\t\t<option value=\"276\">&nbsp; &nbsp;Aucun des forums ci-dessous ne correspond à votre situation ?</option>\n\t\t\t\n\t\t\t\t<option value=\"267\">&nbsp; &nbsp;Anomalies du développement d'origine génétique sans diagnostic</option>\n\t\t\t\n\t\t\t\t<option value=\"286\">&nbsp; &nbsp;Maladies neurologiques ou musculaires de l'enfant sans diagnostic</option>\n\t\t\t\n\t\t\t\t<option value=\"284\">&nbsp; &nbsp;Maladies neurologiques et musculaires de l'adulte sans diagnostic</option>\n\t\t\t\n\t\t\t\t<option value=\"278\">&nbsp; &nbsp;Maladies systémiques sans orientation diagnostique</option>\n\t\t\t\n\t\t\t\t<option value=\"279\">&nbsp; &nbsp;Maladies auto-immunes de l'adulte sans diagnostic précis</option>\n\t\t\t\n\t\t\t\t<option value=\"280\">&nbsp; &nbsp;Maladies auto-immunes de l'enfant sans diagnostic précis</option>\n\t\t\t\n\t\t\t\t<option value=\"296\">&nbsp; &nbsp;Maladies de l'appareil digestif sans diagnostic</option>\n\t\t\t\n\t\t\t\t<option value=\"495\">&nbsp; &nbsp;Maladies du cœur et des vaisseaux sans diagnostic</option>\n\t\t\t\n\t\t\t\t<option value=\"482\">&nbsp; &nbsp;Maladies endocriniennes sans diagnostic</option>\n\t\t\t\n\t\t\t\t<option value=\"282\">&nbsp; &nbsp;Maladies héréditaires du métabolisme sans diagnostic</option>\n\t\t\t\n\t\t\t\t<option value=\"299\">&nbsp; &nbsp;Maladies de la sphère ORL sans diagnostic</option>\n\t\t\t\n\t\t\t\t<option value=\"288\">&nbsp; &nbsp;Maladies de l'appareil génital sans diagnostic</option>\n\t\t\t\n\t\t\t\t<option value=\"300\">&nbsp; &nbsp;Maladies oculaires sans diagnostic</option>\n\t\t\t\n\t\t\t\t<option value=\"344\">&nbsp; &nbsp;Maladies de la peau sans diagnostic</option>\n\t\t\t\n\t\t\t\t<option value=\"304\">&nbsp; &nbsp;Maladies du sang et déficits immunitaires sans diagnostic</option>\n\t\t\t\n\t\t\t\t<option value=\"103\">Anomalies chromosomiques - Syndromes microdélétionnels</option>\n\t\t\t\n\t\t\t\t<option value=\"396\">&nbsp; &nbsp;Délétion 1q21</option>\n\t\t\t\n\t\t\t\t<option value=\"400\">&nbsp; &nbsp;Duplication 1q22q24</option>\n\t\t\t\n\t\t\t\t<option value=\"429\">&nbsp; &nbsp;Délétion 2q14.3-q22</option>\n\t\t\t\n\t\t\t\t<option value=\"332\">&nbsp; &nbsp;Syndrome du Cri du Chat ou monosomie 5p</option>\n\t\t\t\n\t\t\t\t<option value=\"464\">&nbsp; &nbsp;Microdélétion 7q31.33</option>\n\t\t\t\n\t\t\t\t<option value=\"412\">&nbsp; &nbsp;Syndrome de Kleefstra</option>\n\t\t\t\n\t\t\t\t<option value=\"397\">&nbsp; &nbsp;Délétion 7q36</option>\n\t\t\t\n\t\t\t\t<option value=\"399\">&nbsp; &nbsp;Délétion 15q11.2</option>\n\t\t\t\n\t\t\t\t<option value=\"401\">&nbsp; &nbsp;Délétion 15q13.2</option>\n\t\t\t\n\t\t\t\t<option value=\"405\">&nbsp; &nbsp;Délétion 15q13.3 ou délétion du gène CHRNA7</option>\n\t\t\t\n\t\t\t\t<option value=\"402\">&nbsp; &nbsp;Microdélétion 16p11.2</option>\n\t\t\t\n\t\t\t\t<option value=\"403\">&nbsp; &nbsp;Duplication 16p13.11</option>\n\t\t\t\n\t\t\t\t<option value=\"406\">&nbsp; &nbsp;Duplication 16p13.3 et délétion 7q35</option>\n\t\t\t\n\t\t\t\t<option value=\"499\">&nbsp; &nbsp;Délétion  16p13.11</option>\n\t\t\t\n\t\t\t\t<option value=\"404\">&nbsp; &nbsp;Trisomie 16q23.3</option>\n\t\t\t\n\t\t\t\t<option value=\"381\">&nbsp; &nbsp;Syndrome de Smith Magenis ou délétion 17p11.2</option>\n\t\t\t\n\t\t\t\t<option value=\"431\">&nbsp; &nbsp;Microduplication 17q12</option>\n\t\t\t\n\t\t\t\t<option value=\"407\">&nbsp; &nbsp;Microdélétion 17p13.1</option>\n\t\t\t\n\t\t\t\t<option value=\"408\">&nbsp; &nbsp;Microdélétion 17q21.31 ou syndrome de Koolen-De Vries</option>\n\t\t\t\n\t\t\t\t<option value=\"409\">&nbsp; &nbsp;Monosomie 18 partielle</option>\n\t\t\t\n\t\t\t\t<option value=\"411\">&nbsp; &nbsp;Trisomie 18 partielle et monosomie 8</option>\n\t\t\t\n\t\t\t\t<option value=\"410\">&nbsp; &nbsp;Trisomie 18 partielle et monosomie 17 partielle</option>\n\t\t\t\n\t\t\t\t<option value=\"45\">&nbsp; &nbsp;Microdeletion 22q11</option>\n\t\t\t\n\t\t\t\t<option value=\"34\">&nbsp; &nbsp;Syndrome Phelan-McDermid ou monosomie 22q13</option>\n\t\t\t\n\t\t\t\t<option value=\"49\">&nbsp; &nbsp;Syndrome de Turner</option>\n\t\t\t\n\t\t\t\t<option value=\"466\">&nbsp; &nbsp;Duplication Xq24-q25</option>\n\t\t\t\n\t\t\t\t<option value=\"394\">Anomalies rares du developpement et déficience intellectuelle : syndromes connus et nommés</option>\n\t\t\t\n\t\t\t\t<option value=\"86\">&nbsp; &nbsp;Syndrome d'Angelman</option>\n\t\t\t\n\t\t\t\t<option value=\"421\">&nbsp; &nbsp;Anomalie dans le gène ATRX</option>\n\t\t\t\n\t\t\t\t<option value=\"249\">&nbsp; &nbsp;Syndrome de Beckwith Wiedemann</option>\n\t\t\t\n\t\t\t\t<option value=\"448\">&nbsp; &nbsp;Syndrome de Borjeson Forssman Lehmann</option>\n\t\t\t\n\t\t\t\t<option value=\"219\">&nbsp; &nbsp;Syndrome de Coffin-Lowry</option>\n\t\t\t\n\t\t\t\t<option value=\"326\">&nbsp; &nbsp;Syndrome de Coffin Siris</option>\n\t\t\t\n\t\t\t\t<option value=\"135\">&nbsp; &nbsp;Syndrome de Cornélia de Lange</option>\n\t\t\t\n\t\t\t\t<option value=\"501\">&nbsp; &nbsp;Dysostose mandibulo faciale - microcéphalie (MFDM)</option>\n\t\t\t\n\t\t\t\t<option value=\"242\">&nbsp; &nbsp;Dysplasie septo-optique</option>\n\t\t\t\n\t\t\t\t<option value=\"77\">&nbsp; &nbsp;Syndrome de Greig</option>\n\t\t\t\n\t\t\t\t<option value=\"369\">&nbsp; &nbsp;Syndrome de Heimler</option>\n\t\t\t\n\t\t\t\t<option value=\"339\">&nbsp; &nbsp;Syndrome IMAGe</option>\n\t\t\t\n\t\t\t\t<option value=\"375\">&nbsp; &nbsp;Syndrome KBG</option>\n\t\t\t\n\t\t\t\t<option value=\"178\">&nbsp; &nbsp;Syndrome mégalencéphalie-malformation capillaire</option>\n\t\t\t\n\t\t\t\t<option value=\"136\">&nbsp; &nbsp;Syndrome de Mowat-Wilson</option>\n\t\t\t\n\t\t\t\t<option value=\"159\">&nbsp; &nbsp;Syndrome de Noonan</option>\n\t\t\t\n\t\t\t\t<option value=\"223\">&nbsp; &nbsp;Syndrome de Pierre Robin</option>\n\t\t\t\n\t\t\t\t<option value=\"212\">&nbsp; &nbsp;Syndrome de Pitt Hopkins</option>\n\t\t\t\n\t\t\t\t<option value=\"313\">&nbsp; &nbsp;Syndrome de Seckel</option>\n\t\t\t\n\t\t\t\t<option value=\"459\">&nbsp; &nbsp;Retard mental lié à l’X de type Shashi</option>\n\t\t\t\n\t\t\t\t<option value=\"20\">&nbsp; &nbsp;Syndrome de Silver-Russell</option>\n\t\t\t\n\t\t\t\t<option value=\"315\">&nbsp; &nbsp;Syndrome VACTERL/VATER</option>\n\t\t\t\n\t\t\t\t<option value=\"244\">&nbsp; &nbsp;Syndrome de Wolcott Rallison</option>\n\t\t\t\n\t\t\t\t<option value=\"393\">Anomalies rares du developpement et déficience intellectuelle : anomalies génétiques ultrarares diagnostiquées par séquençage</option>\n\t\t\t\n\t\t\t\t<option value=\"444\">&nbsp; &nbsp;Anomalies dans le gène ADNP-Syndrome de Helsmoortel-van der AA</option>\n\t\t\t\n\t\t\t\t<option value=\"362\">&nbsp; &nbsp;Anomalies dans le gène AHDC1-Syndrome de Xia-Gibbs</option>\n\t\t\t\n\t\t\t\t<option value=\"360\">&nbsp; &nbsp;Anomalies dans le gène ASXL3-Syndrome de Bainbridge-Ropers</option>\n\t\t\t\n\t\t\t\t<option value=\"356\">&nbsp; &nbsp;Anomalies dans le gène BCAP31</option>\n\t\t\t\n\t\t\t\t<option value=\"366\">&nbsp; &nbsp;Anomalies dans le gène CHD3</option>\n\t\t\t\n\t\t\t\t<option value=\"428\">&nbsp; &nbsp;Anomalies dans le gène CHD4-Syndrome de Sifrim-Hitz-Weiss</option>\n\t\t\t\n\t\t\t\t<option value=\"457\">&nbsp; &nbsp;Anomalies dans le gène CNOT3</option>\n\t\t\t\n\t\t\t\t<option value=\"476\">&nbsp; &nbsp;Anomalies dans le gène CSNK2B</option>\n\t\t\t\n\t\t\t\t<option value=\"308\">&nbsp; &nbsp;Anomalies dans le gène DDX3X</option>\n\t\t\t\n\t\t\t\t<option value=\"514\">&nbsp; &nbsp;Anomalies dans le gène DYNC1H1</option>\n\t\t\t\n\t\t\t\t<option value=\"481\">&nbsp; &nbsp;Anomalies dans le gène FGF12</option>\n\t\t\t\n\t\t\t\t<option value=\"426\">&nbsp; &nbsp;Anomalies dans le gène FOXP1</option>\n\t\t\t\n\t\t\t\t<option value=\"463\">&nbsp; &nbsp;Anomalies dans le gène GATAD2B</option>\n\t\t\t\n\t\t\t\t<option value=\"380\">&nbsp; &nbsp;Anomalies dans le gène GRIN1</option>\n\t\t\t\n\t\t\t\t<option value=\"357\">&nbsp; &nbsp;Anomalies dans le gène GRIN2B</option>\n\t\t\t\n\t\t\t\t<option value=\"447\">&nbsp; &nbsp;Anomalies dans le gène HNRNPH2</option>\n\t\t\t\n\t\t\t\t<option value=\"387\">&nbsp; &nbsp;Anomalies dans le gène IQSEC2</option>\n\t\t\t\n\t\t\t\t<option value=\"441\">&nbsp; &nbsp;Anomalies dans le gène KAT6B-Syndrome d'Ohdo variant SBBYS</option>\n\t\t\t\n\t\t\t\t<option value=\"364\">&nbsp; &nbsp;Anomalies dans le gène KCNB1</option>\n\t\t\t\n\t\t\t\t<option value=\"434\">&nbsp; &nbsp;Anomalies dans le gène KCNQ2</option>\n\t\t\t\n\t\t\t\t<option value=\"494\">&nbsp; &nbsp;Anomalies dans le gène KIAA2022</option>\n\t\t\t\n\t\t\t\t<option value=\"417\">&nbsp; &nbsp;Anomalies dans le gène KIF1A</option>\n\t\t\t\n\t\t\t\t<option value=\"505\">&nbsp; &nbsp;Anomalies dans le gène KIF5C</option>\n\t\t\t\n\t\t\t\t<option value=\"221\">&nbsp; &nbsp;Anomalies dans le gène KMT2A-Syndrome de Wiedemann-Steiner</option>\n\t\t\t\n\t\t\t\t<option value=\"365\">&nbsp; &nbsp;Anomalies dans le gène MED13L</option>\n\t\t\t\n\t\t\t\t<option value=\"314\">&nbsp; &nbsp;Anomalies dans le gène MEF2C</option>\n\t\t\t\n\t\t\t\t<option value=\"445\">&nbsp; &nbsp;Anomalies dans le gène MYT1L</option>\n\t\t\t\n\t\t\t\t<option value=\"508\">&nbsp; &nbsp;Anomalies dans le gène NOVA2</option>\n\t\t\t\n\t\t\t\t<option value=\"414\">&nbsp; &nbsp;Anomalie dans le gène NR2F1 - Syndrome de Bosch Boonstra Schaaf</option>\n\t\t\t\n\t\t\t\t<option value=\"468\">&nbsp; &nbsp;Anomalies dans le gène OGT</option>\n\t\t\t\n\t\t\t\t<option value=\"423\">&nbsp; &nbsp;Anomalies dans le gène PACS1 ou syndrome de Schuurs-Hoeijmakers</option>\n\t\t\t\n\t\t\t\t<option value=\"440\">&nbsp; &nbsp;Anomalies dans le gène PACS2</option>\n\t\t\t\n\t\t\t\t<option value=\"490\">&nbsp; &nbsp;Anomalies dans le gène PHIP</option>\n\t\t\t\n\t\t\t\t<option value=\"488\">&nbsp; &nbsp;Syndrome de Pierpont</option>\n\t\t\t\n\t\t\t\t<option value=\"442\">&nbsp; &nbsp;Anomalies dans le gène POGZ-Syndrome de White-Sutton</option>\n\t\t\t\n\t\t\t\t<option value=\"438\">&nbsp; &nbsp;Anomalies dans le gène PPM1D</option>\n\t\t\t\n\t\t\t\t<option value=\"310\">&nbsp; &nbsp;Anomalies dans gène PPP2R5D</option>\n\t\t\t\n\t\t\t\t<option value=\"419\">&nbsp; &nbsp;Anomalies dans le gène SATB2</option>\n\t\t\t\n\t\t\t\t<option value=\"503\">&nbsp; &nbsp;Anomalies dans le gène SCN2A</option>\n\t\t\t\n\t\t\t\t<option value=\"467\">&nbsp; &nbsp;Anomalies dans le gène SCN8A</option>\n\t\t\t\n\t\t\t\t<option value=\"458\">&nbsp; &nbsp;Anomalies dans le gène SETBP1</option>\n\t\t\t\n\t\t\t\t<option value=\"382\">&nbsp; &nbsp;Anomalies dans le gène SMARCA2</option>\n\t\t\t\n\t\t\t\t<option value=\"374\">&nbsp; &nbsp;Anomalies dans le gène STXBP1</option>\n\t\t\t\n\t\t\t\t<option value=\"462\">&nbsp; &nbsp;Anomalies dans le gène TBR1</option>\n\t\t\t\n\t\t\t\t<option value=\"510\">&nbsp; &nbsp;Anomalie dans le gène SLC6A1</option>\n\t\t\t\n\t\t\t\t<option value=\"437\">&nbsp; &nbsp;Anomalies dans le gène TCF20</option>\n\t\t\t\n\t\t\t\t<option value=\"427\">&nbsp; &nbsp;Anomalies dans le gène TFE3</option>\n\t\t\t\n\t\t\t\t<option value=\"512\">&nbsp; &nbsp;Anomalies dans le gène TRRAP</option>\n\t\t\t\n\t\t\t\t<option value=\"348\">&nbsp; &nbsp;Anomalies dans le gène USP7</option>\n\t\t\t\n\t\t\t\t<option value=\"461\">&nbsp; &nbsp;Anomalies dans le gène WWOX</option>\n\t\t\t\n\t\t\t\t<option value=\"245\">&nbsp; &nbsp;Anomalies dans le gène ZBTB20-Syndrome de Primrose</option>\n\t\t\t\n\t\t\t\t<option value=\"101\">Maladies systémiques et auto immunes</option>\n\t\t\t\n\t\t\t\t<option value=\"271\">&nbsp; &nbsp;Maladies systémiques sans orientation diagnostique</option>\n\t\t\t\n\t\t\t\t<option value=\"274\">&nbsp; &nbsp;Maladies auto-immunes de l'adulte sans diagnostic précis</option>\n\t\t\t\n\t\t\t\t<option value=\"275\">&nbsp; &nbsp;Maladies auto-immunes de l'enfant sans diagnostic précis.</option>\n\t\t\t\n\t\t\t\t<option value=\"317\">&nbsp; &nbsp;Angio-œdème</option>\n\t\t\t\n\t\t\t\t<option value=\"83\">&nbsp; &nbsp;Syndrome des antiphospholipides SAPL</option>\n\t\t\t\n\t\t\t\t<option value=\"345\">&nbsp; &nbsp;Syndrome des anti-synthétases</option>\n\t\t\t\n\t\t\t\t<option value=\"12\">&nbsp; &nbsp;Maladie de Behcet</option>\n\t\t\t\n\t\t\t\t<option value=\"14\">&nbsp; &nbsp;Maladie de Churg et Strauss</option>\n\t\t\t\n\t\t\t\t<option value=\"491\">&nbsp; &nbsp;Fasciite à éosinophiles</option>\n\t\t\t\n\t\t\t\t<option value=\"96\">&nbsp; &nbsp;Fièvre périodique type Marshall</option>\n\t\t\t\n\t\t\t\t<option value=\"69\">&nbsp; &nbsp;Syndrome de fuite capillaire</option>\n\t\t\t\n\t\t\t\t<option value=\"121\">&nbsp; &nbsp;Syndrome de Gougerot-Sjögren</option>\n\t\t\t\n\t\t\t\t<option value=\"53\">&nbsp; &nbsp;Histiocytose Langerhansienne</option>\n\t\t\t\n\t\t\t\t<option value=\"358\">&nbsp; &nbsp;Syndrome hyperéosinophilique idiopathique</option>\n\t\t\t\n\t\t\t\t<option value=\"56\" selected=\"selected\">&nbsp; &nbsp;Lupus</option>\n\t\t\t\n\t\t\t\t<option value=\"207\">&nbsp; &nbsp;Purpura rhumatoïde</option>\n\t\t\t\n\t\t\t\t<option value=\"384\">&nbsp; &nbsp;Purpura thrombotique thrombocytémique</option>\n\t\t\t\n\t\t\t\t<option value=\"253\">&nbsp; &nbsp;Périartérite noueuse</option>\n\t\t\t\n\t\t\t\t<option value=\"333\">&nbsp; &nbsp;Sarcoïdose</option>\n\t\t\t\n\t\t\t\t<option value=\"418\">&nbsp; &nbsp;Syndrome de Schnitzler</option>\n\t\t\t\n\t\t\t\t<option value=\"57\">&nbsp; &nbsp;Sclérodermie</option>\n\t\t\t\n\t\t\t\t<option value=\"73\">&nbsp; &nbsp;Syndrome de Sharp</option>\n\t\t\t\n\t\t\t\t<option value=\"177\">&nbsp; &nbsp;Maladie de Still</option>\n\t\t\t\n\t\t\t\t<option value=\"182\">&nbsp; &nbsp;Maladie de Takayasu</option>\n\t\t\t\n\t\t\t\t<option value=\"479\">&nbsp; &nbsp;Vascularite cryoglobulinémique</option>\n\t\t\t\n\t\t\t\t<option value=\"455\">&nbsp; &nbsp;Granulomatose avec polyangéite - Maladie de Wegener</option>\n\t\t\t\n\t\t\t\t<option value=\"102\">Tumeurs cancéreuses ou non</option>\n\t\t\t\n\t\t\t\t<option value=\"229\">&nbsp; &nbsp;Maladie de Castleman</option>\n\t\t\t\n\t\t\t\t<option value=\"336\">&nbsp; &nbsp;Chondrosarcome</option>\n\t\t\t\n\t\t\t\t<option value=\"309\">&nbsp; &nbsp;Syndrome de Cowden</option>\n\t\t\t\n\t\t\t\t<option value=\"32\">&nbsp; &nbsp;Ependymome</option>\n\t\t\t\n\t\t\t\t<option value=\"164\">&nbsp; &nbsp;Maladie gélatineuse du péritoine</option>\n\t\t\t\n\t\t\t\t<option value=\"225\">&nbsp; &nbsp;Gliomatose</option>\n\t\t\t\n\t\t\t\t<option value=\"311\">&nbsp; &nbsp;Maladie de Kaposi</option>\n\t\t\t\n\t\t\t\t<option value=\"371\">&nbsp; &nbsp;Lymphome non hodgkinien</option>\n\t\t\t\n\t\t\t\t<option value=\"226\">&nbsp; &nbsp;Néoplasies endocriniennes multiples - NEM</option>\n\t\t\t\n\t\t\t\t<option value=\"98\">&nbsp; &nbsp;Syndromes paranéoplasiques</option>\n\t\t\t\n\t\t\t\t<option value=\"373\">&nbsp; &nbsp;Polypose adénomateuse familiale</option>\n\t\t\t\n\t\t\t\t<option value=\"123\">&nbsp; &nbsp;Rétinoblastome</option>\n\t\t\t\n\t\t\t\t<option value=\"60\">&nbsp; &nbsp;Rhabdomyosarcome</option>\n\t\t\t\n\t\t\t\t<option value=\"51\">&nbsp; &nbsp;Tumeur Desmoïde</option>\n\t\t\t\n\t\t\t\t<option value=\"386\">&nbsp; &nbsp;Tumeur fibreuse solitaire</option>\n\t\t\t\n\t\t\t\t<option value=\"446\">&nbsp; &nbsp;Tumeurs germinales du médiastin</option>\n\t\t\t\n\t\t\t\t<option value=\"353\">&nbsp; &nbsp;Tumeur de la granulosa de l'ovaire</option>\n\t\t\t\n\t\t\t\t<option value=\"55\">&nbsp; &nbsp;Tumeurs Neuroendocrines</option>\n\t\t\t\n\t\t\t\t<option value=\"509\">&nbsp; &nbsp;Phéochromocytomes</option>\n\t\t\t\n\t\t\t\t<option value=\"236\">Maladies de la cavité buccale</option>\n\t\t\t\n\t\t\t\t<option value=\"237\">&nbsp; &nbsp;Amélogenèse imparfaite</option>\n\t\t\t\n\t\t\t\t<option value=\"104\">Maladies du cœur et des vaisseaux</option>\n\t\t\t\n\t\t\t\t<option value=\"496\">&nbsp; &nbsp;Maladies du cœur et des vaisseaux sans diagnostic</option>\n\t\t\t\n\t\t\t\t<option value=\"122\">&nbsp; &nbsp;Syndrome de Brugada</option>\n\t\t\t\n\t\t\t\t<option value=\"325\">&nbsp; &nbsp;Cardiomyopathie hypertrophique</option>\n\t\t\t\n\t\t\t\t<option value=\"240\">&nbsp; &nbsp;Dysplasie fibromusculaire artérielle</option>\n\t\t\t\n\t\t\t\t<option value=\"485\">&nbsp; &nbsp;Hémangiome vertébral</option>\n\t\t\t\n\t\t\t\t<option value=\"24\">&nbsp; &nbsp;Hypotension orthostatique idiopathique</option>\n\t\t\t\n\t\t\t\t<option value=\"23\">&nbsp; &nbsp;Lymphoedème primaire</option>\n\t\t\t\n\t\t\t\t<option value=\"460\">&nbsp; &nbsp;Péricardite récurrente idiopathique</option>\n\t\t\t\n\t\t\t\t<option value=\"199\">&nbsp; &nbsp;Transposition des gros vaisseaux</option>\n\t\t\t\n\t\t\t\t<option value=\"105\">Maladies de l'appareil digestif</option>\n\t\t\t\n\t\t\t\t<option value=\"297\">&nbsp; &nbsp;Maladie de l'appareil digestif sans diagnostic</option>\n\t\t\t\n\t\t\t\t<option value=\"75\">&nbsp; &nbsp;Achalasie œsophagienne</option>\n\t\t\t\n\t\t\t\t<option value=\"194\">&nbsp; &nbsp;Cholangite sclérosante primitive</option>\n\t\t\t\n\t\t\t\t<option value=\"341\">&nbsp; &nbsp;Cirrhose biliaire primitive</option>\n\t\t\t\n\t\t\t\t<option value=\"176\">&nbsp; &nbsp;Déficit en saccharase-isomaltase</option>\n\t\t\t\n\t\t\t\t<option value=\"192\">&nbsp; &nbsp;Fibrose hépatique congénitale</option>\n\t\t\t\n\t\t\t\t<option value=\"349\">&nbsp; &nbsp;Gastrite hypertrophique de Ménétrier</option>\n\t\t\t\n\t\t\t\t<option value=\"377\">&nbsp; &nbsp;Lymphangectasie intestinale</option>\n\t\t\t\n\t\t\t\t<option value=\"154\">&nbsp; &nbsp;Pancréas annulaire</option>\n\t\t\t\n\t\t\t\t<option value=\"42\">&nbsp; &nbsp;Panniculite mésentérique</option>\n\t\t\t\n\t\t\t\t<option value=\"474\">&nbsp; &nbsp;Syndrome de Shwachman-Diamond</option>\n\t\t\t\n\t\t\t\t<option value=\"478\">&nbsp; &nbsp;Anomalies dans le gène UNC45A</option>\n\t\t\t\n\t\t\t\t<option value=\"106\">Maladies endocriniennes</option>\n\t\t\t\n\t\t\t\t<option value=\"483\">&nbsp; &nbsp;Maladies endocriniennes sans diagnostic</option>\n\t\t\t\n\t\t\t\t<option value=\"11\">&nbsp; &nbsp;Acromégalie</option>\n\t\t\t\n\t\t\t\t<option value=\"206\">&nbsp; &nbsp;Syndrome de Cushing</option>\n\t\t\t\n\t\t\t\t<option value=\"257\">&nbsp; &nbsp;Excès apparent de minéralocorticoïdes</option>\n\t\t\t\n\t\t\t\t<option value=\"484\">&nbsp; &nbsp;Hyperplasie congénitale des surrénales</option>\n\t\t\t\n\t\t\t\t<option value=\"330\">&nbsp; &nbsp;Insuffisance surrénale</option>\n\t\t\t\n\t\t\t\t<option value=\"76\">&nbsp; &nbsp;Syndrome de Kallmann</option>\n\t\t\t\n\t\t\t\t<option value=\"391\">&nbsp; &nbsp;Lipodystrophies</option>\n\t\t\t\n\t\t\t\t<option value=\"376\">&nbsp; &nbsp;Pseudohypoparathyroïdies</option>\n\t\t\t\n\t\t\t\t<option value=\"107\">Maladies héréditaires du métabolisme</option>\n\t\t\t\n\t\t\t\t<option value=\"289\">&nbsp; &nbsp;Maladies héréditaires du métabolisme sans diagnostic</option>\n\t\t\t\n\t\t\t\t<option value=\"128\">&nbsp; &nbsp;Acidémie isovalérique</option>\n\t\t\t\n\t\t\t\t<option value=\"87\">&nbsp; &nbsp;Acidémie méthylmalonique</option>\n\t\t\t\n\t\t\t\t<option value=\"347\">&nbsp; &nbsp;Acidurie 2-hydroxyglutarique</option>\n\t\t\t\n\t\t\t\t<option value=\"497\">&nbsp; &nbsp;Anomalies dans le gène ACO2</option>\n\t\t\t\n\t\t\t\t<option value=\"511\">&nbsp; &nbsp;Syndrome de crises encéphalomyopathiques métaboliques récurrentes</option>\n\t\t\t\n\t\t\t\t<option value=\"449\">&nbsp; &nbsp;Déficit en acyl-CoA déshydrogénase des acides gras à chaîne courte</option>\n\t\t\t\n\t\t\t\t<option value=\"180\">&nbsp; &nbsp;Déficit en Mévalonate Kinase</option>\n\t\t\t\n\t\t\t\t<option value=\"241\">&nbsp; &nbsp;Déficit en OCT</option>\n\t\t\t\n\t\t\t\t<option value=\"473\">&nbsp; &nbsp;Déficit multiple en sulfatases</option>\n\t\t\t\n\t\t\t\t<option value=\"388\">&nbsp; &nbsp;Glycogénoses</option>\n\t\t\t\n\t\t\t\t<option value=\"127\">&nbsp; &nbsp;Homocystinurie classique</option>\n\t\t\t\n\t\t\t\t<option value=\"41\">&nbsp; &nbsp;Hyperglycinémie non cétosique</option>\n\t\t\t\n\t\t\t\t<option value=\"343\">&nbsp; &nbsp;Hyperprolinémie</option>\n\t\t\t\n\t\t\t\t<option value=\"472\">&nbsp; &nbsp;Leucinose</option>\n\t\t\t\n\t\t\t\t<option value=\"190\">&nbsp; &nbsp;Maladie de Wilson</option>\n\t\t\t\n\t\t\t\t<option value=\"334\">&nbsp; &nbsp;Niemann Pick type C</option>\n\t\t\t\n\t\t\t\t<option value=\"238\">&nbsp; &nbsp;Syndrome triple H</option>\n\t\t\t\n\t\t\t\t<option value=\"115\">&nbsp; &nbsp;Tyrosinémie de type 1</option>\n\t\t\t\n\t\t\t\t<option value=\"322\">Maladies infectieuses rares</option>\n\t\t\t\n\t\t\t\t<option value=\"323\">&nbsp; &nbsp;Maladie de Whipple</option>\n\t\t\t\n\t\t\t\t<option value=\"269\">Maladies de l'appareil génital</option>\n\t\t\t\n\t\t\t\t<option value=\"294\">&nbsp; &nbsp;Maladies de l'appareil génital sans diagnostic</option>\n\t\t\t\n\t\t\t\t<option value=\"108\">Maladies neurologiques et musculaires</option>\n\t\t\t\n\t\t\t\t<option value=\"283\">&nbsp; &nbsp;Maladies neurologiques ou musculaires de l'adulte sans diagnostic</option>\n\t\t\t\n\t\t\t\t<option value=\"285\">&nbsp; &nbsp;Maladies neurologiques ou musculaires de l'enfant sans diagnostic</option>\n\t\t\t\n\t\t\t\t<option value=\"90\">&nbsp; &nbsp;Agénésie du corps calleux</option>\n\t\t\t\n\t\t\t\t<option value=\"430\">&nbsp; &nbsp;Anomalies dans les gènes COL4A1 et COL4A2</option>\n\t\t\t\n\t\t\t\t<option value=\"420\">&nbsp; &nbsp;Ataxie cérébelleuse</option>\n\t\t\t\n\t\t\t\t<option value=\"80\">&nbsp; &nbsp;Atrophie multisystématisée</option>\n\t\t\t\n\t\t\t\t<option value=\"337\">&nbsp; &nbsp;CADASIL</option>\n\t\t\t\n\t\t\t\t<option value=\"493\">&nbsp; &nbsp;Calcifications cérébrales primaires familiales</option>\n\t\t\t\n\t\t\t\t<option value=\"13\">&nbsp; &nbsp;Cavernome cérébral</option>\n\t\t\t\n\t\t\t\t<option value=\"216\">&nbsp; &nbsp;Céphalée hypnique</option>\n\t\t\t\n\t\t\t\t<option value=\"200\">&nbsp; &nbsp;Maladie de Charcot-Marie-Tooth</option>\n\t\t\t\n\t\t\t\t<option value=\"125\">&nbsp; &nbsp;Déficit en  tyrosine hydroxylase</option>\n\t\t\t\n\t\t\t\t<option value=\"359\">&nbsp; &nbsp;Dégénérescence cortico-basale</option>\n\t\t\t\n\t\t\t\t<option value=\"15\">&nbsp; &nbsp;Démence fronto temporale</option>\n\t\t\t\n\t\t\t\t<option value=\"17\">&nbsp; &nbsp;Dystonie</option>\n\t\t\t\n\t\t\t\t<option value=\"204\">&nbsp; &nbsp;Dystrophie musculaire oculo-pharyngée</option>\n\t\t\t\n\t\t\t\t<option value=\"246\">&nbsp; &nbsp;Dystrophie myotonique de Steinert</option>\n\t\t\t\n\t\t\t\t<option value=\"84\">&nbsp; &nbsp;Embryopathie au valproate</option>\n\t\t\t\n\t\t\t\t<option value=\"435\">&nbsp; &nbsp;Encéphalite limbique auto-immune</option>\n\t\t\t\n\t\t\t\t<option value=\"443\">&nbsp; &nbsp;Encéphalite de Rasmussen</option>\n\t\t\t\n\t\t\t\t<option value=\"188\">&nbsp; &nbsp;Erythermalgie</option>\n\t\t\t\n\t\t\t\t<option value=\"507\">&nbsp; &nbsp;syndrome de Kearns-Sayre</option>\n\t\t\t\n\t\t\t\t<option value=\"210\">&nbsp; &nbsp;Maladie de Kennedy</option>\n\t\t\t\n\t\t\t\t<option value=\"72\">&nbsp; &nbsp;Kystes de Tarlov</option>\n\t\t\t\n\t\t\t\t<option value=\"157\">&nbsp; &nbsp;Syndrome de Landau-Kleffner</option>\n\t\t\t\n\t\t\t\t<option value=\"453\">&nbsp; &nbsp;Leucoencéphalopathie héréditaire diffuse à sphéroïdes axonaux</option>\n\t\t\t\n\t\t\t\t<option value=\"268\">&nbsp; &nbsp;Malformation d'Arnold Chiari</option>\n\t\t\t\n\t\t\t\t<option value=\"480\">&nbsp; &nbsp;Malformation artério-veineuse cérébrale</option>\n\t\t\t\n\t\t\t\t<option value=\"372\">&nbsp; &nbsp;Syndrome de MELAS</option>\n\t\t\t\n\t\t\t\t<option value=\"211\">&nbsp; &nbsp;Migraine hémiplégique</option>\n\t\t\t\n\t\t\t\t<option value=\"39\">&nbsp; &nbsp;Mouvements en miroir</option>\n\t\t\t\n\t\t\t\t<option value=\"92\">&nbsp; &nbsp;Myasthénie</option>\n\t\t\t\n\t\t\t\t<option value=\"203\">&nbsp; &nbsp;Myosites</option>\n\t\t\t\n\t\t\t\t<option value=\"231\">&nbsp; &nbsp;Neuromyélite optique ou Maladie de DEVIC</option>\n\t\t\t\n\t\t\t\t<option value=\"318\">&nbsp; &nbsp;Neuropathie des petites fibres</option>\n\t\t\t\n\t\t\t\t<option value=\"303\">&nbsp; &nbsp;Neuropathie tomaculaire</option>\n\t\t\t\n\t\t\t\t<option value=\"340\">&nbsp; &nbsp;Paraplégie  spastique héréditaire</option>\n\t\t\t\n\t\t\t\t<option value=\"30\">&nbsp; &nbsp;Polyradiculonévrite chronique</option>\n\t\t\t\n\t\t\t\t<option value=\"351\">&nbsp; &nbsp;Sclérose latérale amyotrophique</option>\n\t\t\t\n\t\t\t\t<option value=\"258\">&nbsp; &nbsp;Syndrome de Stiff Man</option>\n\t\t\t\n\t\t\t\t<option value=\"439\">&nbsp; &nbsp;syndrome de Sturge Weber</option>\n\t\t\t\n\t\t\t\t<option value=\"117\">&nbsp; &nbsp;Syndrome de Susac</option>\n\t\t\t\n\t\t\t\t<option value=\"252\">&nbsp; &nbsp;Syringomyélie</option>\n\t\t\t\n\t\t\t\t<option value=\"184\">&nbsp; &nbsp;Tremblement orthostatique primaire</option>\n\t\t\t\n\t\t\t\t<option value=\"132\">&nbsp; &nbsp;Syndrome de Vivo</option>\n\t\t\t\n\t\t\t\t<option value=\"109\">Maladies oculaires</option>\n\t\t\t\n\t\t\t\t<option value=\"329\">&nbsp; &nbsp;maladies oculaires sans diagnostic</option>\n\t\t\t\n\t\t\t\t<option value=\"220\">&nbsp; &nbsp;Maladie de Coats</option>\n\t\t\t\n\t\t\t\t<option value=\"66\">&nbsp; &nbsp;Choroïdite multifocale</option>\n\t\t\t\n\t\t\t\t<option value=\"475\">&nbsp; &nbsp;Choriorétinite type Birdshot</option>\n\t\t\t\n\t\t\t\t<option value=\"116\">&nbsp; &nbsp;Colobome oculaire</option>\n\t\t\t\n\t\t\t\t<option value=\"209\">&nbsp; &nbsp;Syndrome de Goldmann-Favre</option>\n\t\t\t\n\t\t\t\t<option value=\"22\">&nbsp; &nbsp;Kératoconjonctivite vernale</option>\n\t\t\t\n\t\t\t\t<option value=\"454\">&nbsp; &nbsp;Iridocyclite hétérochromique de Fuchs</option>\n\t\t\t\n\t\t\t\t<option value=\"513\">&nbsp; &nbsp;Syndrome d’iris plateau</option>\n\t\t\t\n\t\t\t\t<option value=\"94\">&nbsp; &nbsp;Microphtalmie Anophtalmie</option>\n\t\t\t\n\t\t\t\t<option value=\"392\">&nbsp; &nbsp;Maladie de Norrie</option>\n\t\t\t\n\t\t\t\t<option value=\"328\">&nbsp; &nbsp;Rosacée oculaire</option>\n\t\t\t\n\t\t\t\t<option value=\"36\">&nbsp; &nbsp;Maladie de Stargardt</option>\n\t\t\t\n\t\t\t\t<option value=\"477\">&nbsp; &nbsp;Vitréorétinopathie exsudative familiale</option>\n\t\t\t\n\t\t\t\t<option value=\"110\">Maladies osseuses et articulaires</option>\n\t\t\t\n\t\t\t\t<option value=\"416\">&nbsp; &nbsp;Maladie de Camurati-Engelmann</option>\n\t\t\t\n\t\t\t\t<option value=\"350\">&nbsp; &nbsp;Dysplasie spondyloépiphysaire congénitale</option>\n\t\t\t\n\t\t\t\t<option value=\"256\">&nbsp; &nbsp;Dysplasie spondyloépiphysaire tardive</option>\n\t\t\t\n\t\t\t\t<option value=\"452\">&nbsp; &nbsp;Enchondromatose d’Ollier</option>\n\t\t\t\n\t\t\t\t<option value=\"487\">&nbsp; &nbsp;Hemi-hypertrophie congénitale isolée</option>\n\t\t\t\n\t\t\t\t<option value=\"368\">&nbsp; &nbsp;Hétéroplasie osseuse progressive</option>\n\t\t\t\n\t\t\t\t<option value=\"361\">&nbsp; &nbsp;Syndrome de Jarcho-Levin</option>\n\t\t\t\n\t\t\t\t<option value=\"224\">&nbsp; &nbsp;Syndrome de Klippel Feil</option>\n\t\t\t\n\t\t\t\t<option value=\"198\">&nbsp; &nbsp;Syndrome de Larsen</option>\n\t\t\t\n\t\t\t\t<option value=\"255\">&nbsp; &nbsp;Nail patella</option>\n\t\t\t\n\t\t\t\t<option value=\"250\">&nbsp; &nbsp;ostéogénèse imparfaite</option>\n\t\t\t\n\t\t\t\t<option value=\"158\">&nbsp; &nbsp;Ostéopathie striée-sclérose cranienne</option>\n\t\t\t\n\t\t\t\t<option value=\"19\">&nbsp; &nbsp;Ostéopétrose</option>\n\t\t\t\n\t\t\t\t<option value=\"21\">&nbsp; &nbsp;Syndrome de Protée</option>\n\t\t\t\n\t\t\t\t<option value=\"270\">Maladies de la sphère ORL</option>\n\t\t\t\n\t\t\t\t<option value=\"292\">&nbsp; &nbsp;Maladies de la sphère ORL sans diagnostic</option>\n\t\t\t\n\t\t\t\t<option value=\"370\">&nbsp; &nbsp;Aplasie de Michel</option>\n\t\t\t\n\t\t\t\t<option value=\"298\">&nbsp; &nbsp;Maladie du débarquement.</option>\n\t\t\t\n\t\t\t\t<option value=\"504\">&nbsp; &nbsp;Déhiscence du canal semi circulaire supérieur</option>\n\t\t\t\n\t\t\t\t<option value=\"321\">&nbsp; &nbsp;Hydrops endolymphatique</option>\n\t\t\t\n\t\t\t\t<option value=\"355\">&nbsp; &nbsp;Neurinome de l'acoustique</option>\n\t\t\t\n\t\t\t\t<option value=\"500\">&nbsp; &nbsp;Syndrome de Pendred</option>\n\t\t\t\n\t\t\t\t<option value=\"352\">&nbsp; &nbsp;Sténose sous-glottique congénitale</option>\n\t\t\t\n\t\t\t\t<option value=\"425\">&nbsp; &nbsp;syndromes de Waardenburg</option>\n\t\t\t\n\t\t\t\t<option value=\"111\">Maladies de la peau et du cuir chevelu</option>\n\t\t\t\n\t\t\t\t<option value=\"331\">&nbsp; &nbsp;Cutis marmorata telengiectatica congenita</option>\n\t\t\t\n\t\t\t\t<option value=\"70\">&nbsp; &nbsp;Dermatose bulleuse à IgA linéaire</option>\n\t\t\t\n\t\t\t\t<option value=\"195\">&nbsp; &nbsp;Epidermolyses bulleuses</option>\n\t\t\t\n\t\t\t\t<option value=\"456\">&nbsp; &nbsp;Syndrome de Gardner-Diamond</option>\n\t\t\t\n\t\t\t\t<option value=\"71\">&nbsp; &nbsp;Hydroa vacciniforme</option>\n\t\t\t\n\t\t\t\t<option value=\"222\">&nbsp; &nbsp;Kératodermies palmo-plantaires</option>\n\t\t\t\n\t\t\t\t<option value=\"424\">&nbsp; &nbsp;KID syndrome</option>\n\t\t\t\n\t\t\t\t<option value=\"81\">&nbsp; &nbsp;Lichen plan pilaire</option>\n\t\t\t\n\t\t\t\t<option value=\"470\">&nbsp; &nbsp;Syndrome de Melkersson-Rosenthal</option>\n\t\t\t\n\t\t\t\t<option value=\"433\">&nbsp; &nbsp;Naevus sébacé et syndrome de Schimmelpenning</option>\n\t\t\t\n\t\t\t\t<option value=\"82\">&nbsp; &nbsp;Syndrome de Netherton</option>\n\t\t\t\n\t\t\t\t<option value=\"78\">&nbsp; &nbsp;Neurofibromatose NF1</option>\n\t\t\t\n\t\t\t\t<option value=\"385\">&nbsp; &nbsp;Panniculite de Weber-Christian</option>\n\t\t\t\n\t\t\t\t<option value=\"390\">&nbsp; &nbsp;Papillomatose confluente et réticulée de Gougerot et Carteaud</option>\n\t\t\t\n\t\t\t\t<option value=\"324\">&nbsp; &nbsp;Syndrome de Parry Romberg</option>\n\t\t\t\n\t\t\t\t<option value=\"173\">&nbsp; &nbsp;Pelade universelle</option>\n\t\t\t\n\t\t\t\t<option value=\"422\">&nbsp; &nbsp;Pemphigoïde bulleuse</option>\n\t\t\t\n\t\t\t\t<option value=\"415\">&nbsp; &nbsp;Porokératose actinique superfielle disséminée</option>\n\t\t\t\n\t\t\t\t<option value=\"469\">&nbsp; &nbsp;Pemphigus</option>\n\t\t\t\n\t\t\t\t<option value=\"471\">&nbsp; &nbsp;Pityriasis rubra pilaire</option>\n\t\t\t\n\t\t\t\t<option value=\"174\">&nbsp; &nbsp;Pseudoxanthome Elastique</option>\n\t\t\t\n\t\t\t\t<option value=\"354\">&nbsp; &nbsp;Syndrome de Sweet</option>\n\t\t\t\n\t\t\t\t<option value=\"124\">&nbsp; &nbsp;Maladie de Verneuil</option>\n\t\t\t\n\t\t\t\t<option value=\"112\">Maladies pulmonaires</option>\n\t\t\t\n\t\t\t\t<option value=\"114\">&nbsp; &nbsp;Bronchiolite obstructive</option>\n\t\t\t\n\t\t\t\t<option value=\"214\">&nbsp; &nbsp;Maladie de Carrington</option>\n\t\t\t\n\t\t\t\t<option value=\"18\">&nbsp; &nbsp;Fibrose pulmonaire idiopathique</option>\n\t\t\t\n\t\t\t\t<option value=\"202\">&nbsp; &nbsp;Papillomatose respiratoire récurrente</option>\n\t\t\t\n\t\t\t\t<option value=\"413\">&nbsp; &nbsp;Pneumopathie interstitielle granulomato-lymphocytaire</option>\n\t\t\t\n\t\t\t\t<option value=\"142\">Maladies rénales</option>\n\t\t\t\n\t\t\t\t<option value=\"465\">&nbsp; &nbsp;Acidose tubulaire rénale distale</option>\n\t\t\t\n\t\t\t\t<option value=\"378\">&nbsp; &nbsp;Syndrome d'Alport</option>\n\t\t\t\n\t\t\t\t<option value=\"165\">&nbsp; &nbsp;Maladie de Cacchi Ricci</option>\n\t\t\t\n\t\t\t\t<option value=\"492\">&nbsp; &nbsp;Syndrome de Gitelman</option>\n\t\t\t\n\t\t\t\t<option value=\"432\">&nbsp; &nbsp;Néphronophtise</option>\n\t\t\t\n\t\t\t\t<option value=\"436\">&nbsp; &nbsp;Polykystose rénale autosomique récessive</option>\n\t\t\t\n\t\t\t\t<option value=\"383\">&nbsp; &nbsp;Syndrome Nutcracker</option>\n\t\t\t\n\t\t\t\t<option value=\"389\">&nbsp; &nbsp;Valves urètre postérieur</option>\n\t\t\t\n\t\t\t\t<option value=\"113\">Maladies sanguines et déficits immunitaires</option>\n\t\t\t\n\t\t\t\t<option value=\"305\">&nbsp; &nbsp;Maladies du sang et déficits immunitaires sans diagnostic</option>\n\t\t\t\n\t\t\t\t<option value=\"498\">&nbsp; &nbsp;Anémies sidéroblastiques congénitales</option>\n\t\t\t\n\t\t\t\t<option value=\"40\">&nbsp; &nbsp;Aplasie médullaire idiopathique</option>\n\t\t\t\n\t\t\t\t<option value=\"43\">&nbsp; &nbsp;Syndrome de Buckley</option>\n\t\t\t\n\t\t\t\t<option value=\"502\">&nbsp; &nbsp;Déficit immunitaire commun variable</option>\n\t\t\t\n\t\t\t\t<option value=\"451\">&nbsp; &nbsp;Déficit en pyruvate kinase dans les globules rouges</option>\n\t\t\t\n\t\t\t\t<option value=\"16\">&nbsp; &nbsp;Drépanocytose</option>\n\t\t\t\n\t\t\t\t<option value=\"506\">&nbsp; &nbsp;Lymphohistiocytose familiale</option>\n\t\t\t\n\t\t\t\t<option value=\"346\">&nbsp; &nbsp;Maladie de Minkowski Chauffard</option>\n\t\t\t\n\t\t\t\t<option value=\"79\">&nbsp; &nbsp;Neutropénie congénitale sévère</option>\n\t\t\t\n\t\t\t\t<option value=\"118\">&nbsp; &nbsp;Purpura Thrombopénique Immunologique</option>\n\t\t\t\n\t\t\t\t<option value=\"327\">&nbsp; &nbsp;Maladie de Willebrand</option>\n\t\t\t\n\t\t\t</select>\n\t\t\t<input type=\"submit\" value=\"Aller\" class=\"button2\" />\n\t\t</fieldset>\n\t</form>\n\n<!-- Suppresion online_list et post_info -->\r\n\r\n</div>\r\n\r\n<!-- Sidebar goes below --></div>\r\n\r\n<ul class=\"linklist\" style=\"margin-bottom:12px\">\r\n\t\t\t\r\n</ul>\r\n\r\n<div id=\"bloc-social2\">\r\n\t<div class=\"social-icons\">\r\n\t\t<h2>Nous suivre</h2>\r\n\t\t<ul>\r\n\t\t\t<li><a href=\"https://twitter.com/maladierareinfo\" target=\"_blank\" class=\"twitter\"></a></li>\r\n\t\t\t<li><a href=\"https://www.facebook.com/Maladies-Rares-Info-Services-141961802618072/\" target=\"_blank\" class=\"facebook\"></a></li>\r\n\t\t\t<li><a href=\"https://www.youtube.com/channel/UCGDbPtHM1LEV1GdvK8KF_Gg\" target=\"_blank\" class=\"youtube\"></a></li>\r\n\t\t</ul>\r\n\t</div>\r\n</div>\r\n\r\n<!-- Prefooter blocks go below -->\r\n\r\n<div id=\"page-footer\">\r\n\r\n\t<div class=\"navbar\">\r\n\r\n\t\t<ul class=\"linklist\">\r\n\t\t\t<li><a href=\"https://forums.maladiesraresinfo.org/faq.php?sid=a175cd00bd289e19f8d0bf1743c78447\">FAQ</a></li>\r\n\t\t\t<li><a href=\"/apropos.php\">À propos du Forum</a></li>\r\n\t\t\t<li><a href=\"/ucp.php?mode=terms\">La Charte</a></li>\r\n\t\t\t<li><a href=\"mailto:info-services@maladiesraresinfo.org?subject=Contact Forum\"> Contacter les modérateurs</a></li>\r\n\t\t</ul>\r\n\r\n\t</div>\r\n\t<div class=\"partenaires\">\r\n\t\tForum créé avec le soutien de\r\n\t\t<img src=\"https://forums.maladiesraresinfo.org/styles/mris/theme/images/logo-fondation_groupama.png\" alt=\"\" />\r\n\t</div>\r\n\t<div class=\"partenaires\">\r\n\t\tLe Forum fonctionne grâce au soutien de\r\n\t\t<img src=\"https://forums.maladiesraresinfo.org/styles/mris/theme/images/logo-afm_telethon.png\" alt=\"\" />\r\n\t</div>\r\n\t<div class=\"copyright\">\r\n\t\t\r\n\t\tNous sommes le Jeu 29 Aoû 2019 13:20<br /><br />\r\n\t\t\r\n\t\t\r\n\t</div>\r\n</div>\r\n\r\n</div>\r\n\r\n<div>\r\n\t<a id=\"bottom\" name=\"bottom\" accesskey=\"z\"></a>\r\n\t\r\n</div>\r\n<!-- Script Modal Popup avec delay -->\r\n<script>\r\n    $(document).ready(function() {\r\n        if ($.cookie('pophibou') == null) {\r\n                 setTimeout(function(){\r\n       $('#modalHibou').modal('show');\r\n   }, 25000);\r\n            $.cookie('pophibou', 'WvKTq9WY1uJ', { expires: 1, domain: 'maladiesraresinfo.org' });\r\n        }\r\n    });\r\n</script>\r\n<!-- \\Script Modal Popup avec delay -->\r\n<script type=\"text/javascript\">\r\n\r\nvar _gaq = _gaq || [];\r\n_gaq.push(['_setAccount', 'UA-1038875-1']);\r\n_gaq.push(['_setDomainName', 'maladiesraresinfo.org']);\r\n_gaq.push(['_trackPageview']);\r\n\r\n(function() {\r\n\tvar ga = document.createElement('script'); ga.type = 'text/javascript'; ga.async = true;\r\n\tga.src = ('https:' == document.location.protocol ? 'https://ssl' : 'http://www') + '.google-analytics.com/ga.js';\r\n\tvar s = document.getElementsByTagName('script')[0]; s.parentNode.insertBefore(ga, s);\r\n})();\r\n\r\n</script>​\r\n</body>\r\n</html>",
  "url": "http://forums.maladiesraresinfo.org/lupus-f56.html"
}