{
  "contentId": "65753890-886b-11e9-8f96-97f71b5221d6",
  "html": "<!DOCTYPE html>\n<html lang=\"en\">\n  <head>\n    <meta charset=\"utf-8\">\n    <title>Ropinrole - Treatments and therapies - Parkinson&#39;s UK Forum</title>\n    <meta name=\"description\" content=\"I’ve just been prescribed Ropinrole in addition to Sinemet and Rasagiline which I’m already taking. After reading up on possible side effects I’m very apprehensive about taking Ropinrole. \nAny views from anyone who is ta&amp;hellip;\">\n    <meta name=\"author\" content=\"\">\n<meta name=\"generator\" content=\"Discourse 2.2.5 - https://github.com/discourse/discourse version c294ff3609f988dcafb742e91606d60ca13b794d\">\n<link rel=\"icon\" type=\"image/png\" href=\"https://forum.parkinsons.org.uk/uploads/db7928/original/2X/3/311fc84f89f49f38601a2f16b295b6f03d3ce5dd.jpg\">\n<link rel=\"apple-touch-icon\" type=\"image/png\" href=\"https://forum.parkinsons.org.uk/uploads/db7928/original/2X/3/311fc84f89f49f38601a2f16b295b6f03d3ce5dd.jpg\">\n<meta name=\"theme-color\" content=\"#ffffff\">\n<meta name=\"viewport\" content=\"width=device-width, minimum-scale=1.0, maximum-scale=1.0, user-scalable=yes\">\n<link rel=\"canonical\" href=\"https://forum.parkinsons.org.uk/t/ropinrole/18569\" />\n<script type=\"application/ld+json\">{\"@context\":\"http://schema.org\",\"@type\":\"WebSite\",\"url\":\"https://forum.parkinsons.org.uk\",\"potentialAction\":{\"@type\":\"SearchAction\",\"target\":\"https://forum.parkinsons.org.uk/search?q={search_term_string}\",\"query-input\":\"required name=search_term_string\"}}</script>\n<link rel=\"search\" type=\"application/opensearchdescription+xml\" href=\"https://forum.parkinsons.org.uk/opensearch.xml\" title=\"Parkinson&#39;s UK Forum Search\">\n\n      <link href=\"/stylesheets/desktop_f99246ae801b083d3e4cca979d0dade8615b39ac.css?__ws=forum.parkinsons.org.uk\" media=\"all\" rel=\"stylesheet\" data-target=\"desktop\" data-theme-id=\"12\"/>\n      <link href=\"/stylesheets/desktop_theme_12_5d27531cf43f9df0c03a6a6ec3109dd05f9dfc49.css?__ws=forum.parkinsons.org.uk\" media=\"all\" rel=\"stylesheet\" data-target=\"desktop_theme\" data-theme-id=\"12\"/>\n    <link href=\"https://fonts.googleapis.com/css?family=Open+Sans\" rel=\"stylesheet\">\n\n    <meta id=\"data-ga-universal-analytics\" data-tracking-code=\"UA-4855628-1\" data-json=\"{&quot;cookieDomain&quot;:&quot;auto&quot;}\" data-auto-link-domains=\"\">\n\n<link rel='preload' href='/assets/google-universal-analytics-f35b4da49411e6f5559073523aab983da483976a3954c79c756f8579f6fbd6ef.js' as='script'/>\n<script src='/assets/google-universal-analytics-f35b4da49411e6f5559073523aab983da483976a3954c79c756f8579f6fbd6ef.js'></script>\n\n      <link rel=\"alternate\" type=\"application/rss+xml\" title=\"RSS feed of &#39;Ropinrole&#39;\" href=\"https://forum.parkinsons.org.uk/t/ropinrole/18569.rss\" />\n  <meta property=\"og:site_name\" content=\"Parkinson&#39;s UK Forum\" />\n<meta name=\"twitter:card\" content=\"summary\" />\n<meta name=\"twitter:image\" content=\"https://forum.parkinsons.org.uk/uploads/db7928/original/2X/3/311fc84f89f49f38601a2f16b295b6f03d3ce5dd.jpg\" />\n<meta property=\"og:image\" content=\"https://forum.parkinsons.org.uk/uploads/db7928/original/2X/3/311fc84f89f49f38601a2f16b295b6f03d3ce5dd.jpg\" />\n<meta property=\"og:url\" content=\"https://forum.parkinsons.org.uk/t/ropinrole/18569\" />\n<meta name=\"twitter:url\" content=\"https://forum.parkinsons.org.uk/t/ropinrole/18569\" />\n<meta property=\"og:title\" content=\"Ropinrole\" />\n<meta name=\"twitter:title\" content=\"Ropinrole\" />\n<meta property=\"og:description\" content=\"I’ve just been prescribed Ropinrole in addition to Sinemet and Rasagiline which I’m already taking. After reading up on possible side effects I’m very apprehensive about taking Ropinrole.  Any views from anyone who is taking it please?  I’ve been prescribed 2mg\" />\n<meta name=\"twitter:description\" content=\"I’ve just been prescribed Ropinrole in addition to Sinemet and Rasagiline which I’m already taking. After reading up on possible side effects I’m very apprehensive about taking Ropinrole.  Any views from anyone who is taking it please?  I’ve been prescribed 2mg\" />\n<meta name=\"twitter:label1\" value=\"Reading time\" />\n<meta name=\"twitter:data1\" value=\"1 mins \uD83D\uDD51\" />\n<meta name=\"twitter:label2\" value=\"Likes\" />\n<meta name=\"twitter:data2\" value=\"1 ❤\" />\n<meta property=\"article:published_time\" content=\"2019-03-25T22:05:36+00:00\" />\n<meta property=\"og:ignore_canonical\" content=\"true\" />\n\n\n\n    \n  </head>\n  <body class=\"crawler\">\n    <header role=\"banner\">\n    <div class=\"region region-header\">\n        <div class=\"region-header-wrapper\">\n            <div id=\"block-parkinsons-d8-branding\" class=\"block block-system block-system-branding-block\">\n                <a href=\"/\" title=\"Home\" rel=\"home\" class=\"site-logo\">\n                    <img src=\"https://forum.parkinsons.org.uk/uploads/db7928/original/2X/8/862bb7d172e7d127e7f3e147ec43594aa62ac945.png\" alt=\"Parkinson's UK. Change Attitudes. Find a cure. Join us.\">\n                </a>\n            </div>\n            <div id=\"block-helpline\" class=\"block block-block-content block-block-content871cd5af-b938-4947-9dc0-d5c211d08fe3 style-phone\">\n                <div class=\"field field--name-field-link field--type-link field--label-hidden field__item\"><a href=\"tel:+448088000303\">Helpline 0808 800 0303</a></div>\n            </div>\n            <div id=\"block-shop\" class=\"block block-block-content block-block-content6fba5ae5-7797-49cd-8367-f321d8111cd6 style-regular\">\n                <div class=\"field field--name-field-link field--type-link field--label-hidden field__item\"><a href=\"https://shop.parkinsons.org.uk\">Shop</a></div>\n            </div>\n        </div>\n    </div>\n</header>\n\n\n<script src=\"/theme-javascripts/b7e9763fcb584fc8265c56a9f557cd6d2e1e8ed8.js?__ws=forum.parkinsons.org.uk\"></script>\n    <header>\n      <a href=\"/\">\n          <img src=\"https://forum.parkinsons.org.uk/uploads/db7928/original/2X/8/862bb7d172e7d127e7f3e147ec43594aa62ac945.png\" alt=\"Parkinson&#39;s UK Forum\" id=\"site-logo\" style=\"max-width: 150px;\">\n      </a>\n    </header>\n    <div id=\"main-outlet\" class=\"wrap\">\n      <h1>\n  <a href=\"/t/ropinrole/18569\">Ropinrole</a>\n</h1>\n\n<div id='breadcrumbs'>\n    <div id=\"breadcrumb-0\" itemscope itemtype=\"http://data-vocabulary.org/Breadcrumb\"\n        itemref=\"breadcrumb-1\"\n      >\n      <a href=\"/c/about-parkinsons-and-health\" itemprop=\"url\">\n        <span itemprop=\"title\">About Parkinson&#39;s and health</span>\n      </a>\n    </div>\n    <div id=\"breadcrumb-1\" itemscope itemtype=\"http://data-vocabulary.org/Breadcrumb\"\n>\n      <a href=\"/c/about-parkinsons-and-health/treatments-and-therapies\" itemprop=\"url\">\n        <span itemprop=\"title\">Treatments and therapies</span>\n      </a>\n    </div>\n</div>\n\n\n\n\n\n<hr>\n\n\n  <div itemscope itemtype='http://schema.org/DiscussionForumPosting'>\n      <div class='creator'>\n        <span>\n          <a href='/u/vb1'><b itemprop='author'>vb1</b></a>\n          \n          <time datetime='2019-03-25T22:05:36Z' itemprop='datePublished'>\n            2019-03-25 22:05:36 UTC\n          </time>\n        </span>\n        <span itemprop='position'>#1</span>\n      </div>\n      <div class='post' itemprop='articleBody'>\n        <p>I’ve just been prescribed Ropinrole in addition to Sinemet and Rasagiline which I’m already taking. After reading up on possible side effects I’m very apprehensive about taking Ropinrole.<br>\nAny views from anyone who is taking it please?<br>\nI’ve been prescribed 2mg</p>\n      </div>\n      <meta itemprop='interactionCount' content='UserLikes:1'>\n      <meta itemprop='interactionCount' content='UserComments:1'>\n      <meta itemprop='headline' content='Ropinrole'>\n      <hr>\n  </div>\n  <div itemscope itemtype='http://schema.org/DiscussionForumPosting'>\n      <div class='creator'>\n        <span>\n          <a href='/u/malcT'><b itemprop='author'>malcT</b></a>\n          \n          <time datetime='2019-03-26T02:14:13Z' itemprop='datePublished'>\n            2019-03-26 02:14:13 UTC\n          </time>\n        </span>\n        <span itemprop='position'>#2</span>\n      </div>\n      <div class='post' itemprop='articleBody'>\n        <p>Hi vb1,<br>\nI have been taking Ropinirole for about 18 months now along with Co Beneldopa and Rasagiline. I was started on 3 x 2mg all to be taken together, first thing on a morning.<br>\nI was very apprehensive too when I read some of the side effects. I am also aware there are some very sad tales regarding the addictive problems, of this type of medication. Many years ago I used to drink too much, far too much, but in more recent years, I have managed to control it.<br>\nI discussed this fear with my wife and Neurologist openly and honestly before agreeing to take the medication and I am pleased to report I can still stop at one pint or one glass of wine.<br>\nI am fortunate to have a supportive wife, and that helps me cope.<br>\nI am not advising you one way or the other but it does help if you have some support at home to keep an eye on you.<br>\nGood luck</p>\n<p>Mal.</p>\n      </div>\n      <meta itemprop='interactionCount' content='UserLikes:0'>\n      <meta itemprop='interactionCount' content='UserComments:0'>\n      <meta itemprop='headline' content='Ropinrole'>\n      <hr>\n  </div>\n  <div itemscope itemtype='http://schema.org/DiscussionForumPosting'>\n      <div class='creator'>\n        <span>\n          <a href='/u/Gerrard'><b itemprop='author'>Gerrard</b></a>\n          \n          <time datetime='2019-03-26T09:14:44Z' itemprop='datePublished'>\n            2019-03-26 09:14:44 UTC\n          </time>\n        </span>\n        <span itemprop='position'>#3</span>\n      </div>\n      <div class='post' itemprop='articleBody'>\n        <p>Hi,<br>\nI have been taking Ropinirole for a approx. 12 months. I take it in addition to Co-careldopa which I have been on  for approx. 5 years. I was prescribed Ropinirole to control advanced tremors. Initially I commenced on 2 mg and have slowly increased to 8 mg.  Whilst I was apprehensive at the beginning, I am pleased to confirm that I believe the ropinirole is now having some effect in controlling my tremors. The only adverse side effects that I can report is a disturbance in my sleep pattern. I previously slept very soundly but now wake at various times throughout the night. I have, in the past, expressed some doubts about the effectiveness of medication as I never felt the Co-careldopa gave me much if any relief. I was diagnosed when I was 77 and am now into my 80’s. With that in mind I do not need to worry unduly about any long term side effects. However, I think that this is an issue a younger person should consider when deliberating over the commencement of medication.</p>\n      </div>\n      <meta itemprop='interactionCount' content='UserLikes:0'>\n      <meta itemprop='interactionCount' content='UserComments:0'>\n      <meta itemprop='headline' content='Ropinrole'>\n      <hr>\n  </div>\n  <div itemscope itemtype='http://schema.org/DiscussionForumPosting'>\n      <div class='creator'>\n        <span>\n          <a href='/u/sheffy'><b itemprop='author'>sheffy</b></a>\n          \n          <time datetime='2019-04-01T19:33:58Z' itemprop='datePublished'>\n            2019-04-01 19:33:58 UTC\n          </time>\n        </span>\n        <span itemprop='position'>#4</span>\n      </div>\n      <div class='post' itemprop='articleBody'>\n        <p>Hi vb1, I have been taking Ropinirole XL REQUIP (slow release) for nearly nine years now, am now on 18mg per day. I am also one of the lucky ones were I do not have any side effects from this medication. As others have said the side effects can be awful for some and can cause problems with married life if the side effects stages are not noticed early enough. It is not a suitable med for all but can be for others, as long as you are aware of these facts you can’t go wrong, but Ropinirole XL (slow release) made by REQUIP has certainly helped with my PD, all the best</p>\n<p>sheffy</p>\n<p>sheffy</p>\n      </div>\n      <meta itemprop='interactionCount' content='UserLikes:0'>\n      <meta itemprop='interactionCount' content='UserComments:0'>\n      <meta itemprop='headline' content='Ropinrole'>\n      <hr>\n  </div>\n  <div itemscope itemtype='http://schema.org/DiscussionForumPosting'>\n      <div class='creator'>\n        <span>\n          <a href='/u/sheffy'><b itemprop='author'>sheffy</b></a>\n          \n          <time datetime='2019-04-01T19:35:43Z' itemprop='datePublished'>\n            2019-04-01 19:35:43 UTC\n          </time>\n        </span>\n        <span itemprop='position'>#5</span>\n      </div>\n      <div class='post' itemprop='articleBody'>\n        <p>I also take Sinimet and Rasagiline!!</p>\n<p>sheffy</p>\n      </div>\n      <meta itemprop='interactionCount' content='UserLikes:0'>\n      <meta itemprop='interactionCount' content='UserComments:0'>\n      <meta itemprop='headline' content='Ropinrole'>\n      <hr>\n  </div>\n\n\n\n\n\n\n    </div>\n    <footer class=\"container\">\n      <nav class='crawler-nav' itemscope itemtype='http://schema.org/SiteNavigationElement'>\n        <a href='/'>Home</a>\n        <a href=\"/categories\">Categories</a>\n        <a href=\"/guidelines\">FAQ/Guidelines</a>\n        <a href=\"/tos\">Terms of Service</a>\n        <a href=\"/privacy\">Privacy Policy</a>\n      </nav>\n      <p class='powered-by-link'>Powered by <a href=\"https://www.discourse.org\">Discourse</a>, best viewed with JavaScript enabled</p>\n    </footer>\n    \n  </body>\n  \n</html>\n",
  "url": "https://forum.parkinsons.org.uk/t/ropinrole/18569"
}