{
  "contentId": "c12549d0-886d-11e9-8f96-97f71b5221d6",
  "html": "<!DOCTYPE html>\n<html lang=\"en\">\n  <head>\n    <meta charset=\"utf-8\">\n    <title>Just my view - Daily life - Parkinson&#39;s UK Forum</title>\n    <meta name=\"description\" content=\"I have just been reading through “The Parkinson Autumn 2018”.  It appears there is nothing in the way of help for those of us with severe hearing loss. Almost everything we do, relies on hearing. From morning to night, t&amp;hellip;\">\n    <meta name=\"author\" content=\"\">\n<meta name=\"generator\" content=\"Discourse 2.2.5 - https://github.com/discourse/discourse version c294ff3609f988dcafb742e91606d60ca13b794d\">\n<link rel=\"icon\" type=\"image/png\" href=\"https://forum.parkinsons.org.uk/uploads/db7928/original/2X/3/311fc84f89f49f38601a2f16b295b6f03d3ce5dd.jpg\">\n<link rel=\"apple-touch-icon\" type=\"image/png\" href=\"https://forum.parkinsons.org.uk/uploads/db7928/original/2X/3/311fc84f89f49f38601a2f16b295b6f03d3ce5dd.jpg\">\n<meta name=\"theme-color\" content=\"#ffffff\">\n<meta name=\"viewport\" content=\"width=device-width, minimum-scale=1.0, maximum-scale=1.0, user-scalable=yes\">\n<link rel=\"canonical\" href=\"https://forum.parkinsons.org.uk/t/just-my-view/16554\" />\n<script type=\"application/ld+json\">{\"@context\":\"http://schema.org\",\"@type\":\"WebSite\",\"url\":\"https://forum.parkinsons.org.uk\",\"potentialAction\":{\"@type\":\"SearchAction\",\"target\":\"https://forum.parkinsons.org.uk/search?q={search_term_string}\",\"query-input\":\"required name=search_term_string\"}}</script>\n<link rel=\"search\" type=\"application/opensearchdescription+xml\" href=\"https://forum.parkinsons.org.uk/opensearch.xml\" title=\"Parkinson&#39;s UK Forum Search\">\n\n      <link href=\"/stylesheets/desktop_f99246ae801b083d3e4cca979d0dade8615b39ac.css?__ws=forum.parkinsons.org.uk\" media=\"all\" rel=\"stylesheet\" data-target=\"desktop\" data-theme-id=\"12\"/>\n      <link href=\"/stylesheets/desktop_theme_12_5d27531cf43f9df0c03a6a6ec3109dd05f9dfc49.css?__ws=forum.parkinsons.org.uk\" media=\"all\" rel=\"stylesheet\" data-target=\"desktop_theme\" data-theme-id=\"12\"/>\n    <link href=\"https://fonts.googleapis.com/css?family=Open+Sans\" rel=\"stylesheet\">\n\n    <meta id=\"data-ga-universal-analytics\" data-tracking-code=\"UA-4855628-1\" data-json=\"{&quot;cookieDomain&quot;:&quot;auto&quot;}\" data-auto-link-domains=\"\">\n\n<link rel='preload' href='/assets/google-universal-analytics-f35b4da49411e6f5559073523aab983da483976a3954c79c756f8579f6fbd6ef.js' as='script'/>\n<script src='/assets/google-universal-analytics-f35b4da49411e6f5559073523aab983da483976a3954c79c756f8579f6fbd6ef.js'></script>\n\n      <link rel=\"alternate\" type=\"application/rss+xml\" title=\"RSS feed of &#39;Just my view&#39;\" href=\"https://forum.parkinsons.org.uk/t/just-my-view/16554.rss\" />\n  <meta property=\"og:site_name\" content=\"Parkinson&#39;s UK Forum\" />\n<meta name=\"twitter:card\" content=\"summary\" />\n<meta name=\"twitter:image\" content=\"https://forum.parkinsons.org.uk/uploads/db7928/original/2X/3/311fc84f89f49f38601a2f16b295b6f03d3ce5dd.jpg\" />\n<meta property=\"og:image\" content=\"https://forum.parkinsons.org.uk/uploads/db7928/original/2X/3/311fc84f89f49f38601a2f16b295b6f03d3ce5dd.jpg\" />\n<meta property=\"og:url\" content=\"https://forum.parkinsons.org.uk/t/just-my-view/16554\" />\n<meta name=\"twitter:url\" content=\"https://forum.parkinsons.org.uk/t/just-my-view/16554\" />\n<meta property=\"og:title\" content=\"Just my view\" />\n<meta name=\"twitter:title\" content=\"Just my view\" />\n<meta property=\"og:description\" content=\"I have just been reading through “The Parkinson Autumn 2018”.  It appears there is nothing in the way of help for those of us with severe hearing loss. Almost everything we do, relies on hearing. From morning to night, there is constant sound from something.  Sound is information. You can learn a lot from the kitchen radio if you can hear it. To me its a constant distorted noise. I often wish I could throw it out of the window, but then my wife wouldnt be able to hear it. Self control is another...\" />\n<meta name=\"twitter:description\" content=\"I have just been reading through “The Parkinson Autumn 2018”.  It appears there is nothing in the way of help for those of us with severe hearing loss. Almost everything we do, relies on hearing. From morning to night, there is constant sound from something.  Sound is information. You can learn a lot from the kitchen radio if you can hear it. To me its a constant distorted noise. I often wish I could throw it out of the window, but then my wife wouldnt be able to hear it. Self control is another...\" />\n<meta property=\"article:published_time\" content=\"2018-11-10T17:14:48+00:00\" />\n<meta property=\"og:ignore_canonical\" content=\"true\" />\n\n\n\n    \n  </head>\n  <body class=\"crawler\">\n    <header role=\"banner\">\n    <div class=\"region region-header\">\n        <div class=\"region-header-wrapper\">\n            <div id=\"block-parkinsons-d8-branding\" class=\"block block-system block-system-branding-block\">\n                <a href=\"/\" title=\"Home\" rel=\"home\" class=\"site-logo\">\n                    <img src=\"https://forum.parkinsons.org.uk/uploads/db7928/original/2X/8/862bb7d172e7d127e7f3e147ec43594aa62ac945.png\" alt=\"Parkinson's UK. Change Attitudes. Find a cure. Join us.\">\n                </a>\n            </div>\n            <div id=\"block-helpline\" class=\"block block-block-content block-block-content871cd5af-b938-4947-9dc0-d5c211d08fe3 style-phone\">\n                <div class=\"field field--name-field-link field--type-link field--label-hidden field__item\"><a href=\"tel:+448088000303\">Helpline 0808 800 0303</a></div>\n            </div>\n            <div id=\"block-shop\" class=\"block block-block-content block-block-content6fba5ae5-7797-49cd-8367-f321d8111cd6 style-regular\">\n                <div class=\"field field--name-field-link field--type-link field--label-hidden field__item\"><a href=\"https://shop.parkinsons.org.uk\">Shop</a></div>\n            </div>\n        </div>\n    </div>\n</header>\n\n\n<script src=\"/theme-javascripts/b7e9763fcb584fc8265c56a9f557cd6d2e1e8ed8.js?__ws=forum.parkinsons.org.uk\"></script>\n    <header>\n      <a href=\"/\">\n          <img src=\"https://forum.parkinsons.org.uk/uploads/db7928/original/2X/8/862bb7d172e7d127e7f3e147ec43594aa62ac945.png\" alt=\"Parkinson&#39;s UK Forum\" id=\"site-logo\" style=\"max-width: 150px;\">\n      </a>\n    </header>\n    <div id=\"main-outlet\" class=\"wrap\">\n      <h1>\n  <a href=\"/t/just-my-view/16554\">Just my view</a>\n</h1>\n\n<div id='breadcrumbs'>\n    <div id=\"breadcrumb-0\" itemscope itemtype=\"http://data-vocabulary.org/Breadcrumb\"\n        itemref=\"breadcrumb-1\"\n      >\n      <a href=\"/c/living-with-parkinsons\" itemprop=\"url\">\n        <span itemprop=\"title\">Living with Parkinson&#39;s</span>\n      </a>\n    </div>\n    <div id=\"breadcrumb-1\" itemscope itemtype=\"http://data-vocabulary.org/Breadcrumb\"\n>\n      <a href=\"/c/living-with-parkinsons/daily-life\" itemprop=\"url\">\n        <span itemprop=\"title\">Daily life</span>\n      </a>\n    </div>\n</div>\n\n\n\n\n\n<hr>\n\n\n  <div itemscope itemtype='http://schema.org/DiscussionForumPosting'>\n      <div class='creator'>\n        <span>\n          <a href='/u/JohnnyD'><b itemprop='author'>JohnnyD</b></a>\n          \n          <time datetime='2018-11-10T17:14:48Z' itemprop='datePublished'>\n            2018-11-10 17:14:48 UTC\n          </time>\n        </span>\n        <span itemprop='position'>#1</span>\n      </div>\n      <div class='post' itemprop='articleBody'>\n        <p>I have just been reading through “The Parkinson Autumn 2018”.  It appears there is nothing in the way of help for those of us with severe hearing loss. Almost everything we do, relies on hearing. From morning to night, there is constant sound from something.<br>\nSound is information. You can learn a lot from the kitchen radio if you can hear it. To me it<code>s a constant distorted noise. I often wish I could throw it out of the window, but then my wife wouldn</code>t be able to hear it. Self control is another thing you learn…</p>\n<p>There are over ten million people in the UK, who are hard of hearing, or deaf. It is not necessary to exercise to music, but simple conversation is almost impossible if you cannot hear.</p>\n<p>I have a moderate to profound loss. There is no hearing aid, that will make me understand in a group of people anywhere, Lip reading is also very difficult if your sight is poor. Going to the theatre, can be a waste of money. Some cinemas do have subtitles, but parties, be they Christmas or Birthday, are a nightmare.<br>\nI have had thirteen years of this, and you can understand why some people shut themselves away, not wanting to meet others. This, we are told, is bad for us, and can cause depression, and other unwanted conditions.</p>\n<p>Fortunately, I do go out. Communication is very difficult, and involves a certain amount of guesswork, and luck. You find other people do not understand your frustrations, and do not know how to help, and often they can<code>t. It</code>s your mess, and you have to get yourself out of it.</p>\n<p>So my Parkinsons, apart from affecting my walking, and trembling hands, is really nothing to worry about- i<code>m glad to say, and I do not think about what the future could bring. Hopefully, that</code>s a long way off.</p>\n      </div>\n      <meta itemprop='interactionCount' content='UserLikes:0'>\n      <meta itemprop='interactionCount' content='UserComments:0'>\n      <meta itemprop='headline' content='Just my view'>\n      <hr>\n  </div>\n  <div itemscope itemtype='http://schema.org/DiscussionForumPosting'>\n      <div class='creator'>\n        <span>\n          <a href='/u/Pippa'><b itemprop='author'>Pippa</b></a>\n          \n          <time datetime='2018-11-11T18:04:56Z' itemprop='datePublished'>\n            2018-11-11 18:04:56 UTC\n          </time>\n        </span>\n        <span itemprop='position'>#2</span>\n      </div>\n      <div class='post' itemprop='articleBody'>\n        <p>As someone who has spent the past 5 or so years adjusting to hearing loss, caused I believe by chemotherapy in my twenties, I have every sympathy and understanding for what you are saying.<br>\nDavid Lodge’s “ Deaf Sentence”  is well worth a read, both for sufferers and their hearing families and friends<br>\nThank goodness for the internet which means that people can communicate regardless of hearing ability or any other difference that would colour the recipient’s view of them  or response.<br>\nI think it is the change from being hearing to hearing impaired, whilst continuing to live among hearing people that is one of the biggest difficulties. Until every child learns sign language, the two communities are going to have this massive gulf separating them. Did you ever see the film “ children of a lesser god”? Brilliantly wrestles with this issue… times are a ‘ changing thanks to various campaign groups , not to mention technological developments with hearing aids and associated equipment , but it can be slow progress.<br>\nLike so often in life, we have to focus on and enjoy what we can do, not what we can’t…but so much easier said than done, esp when it is something you used to be able to do.<br>\nYou are not alone  that is for sure.<br>\nBest wishes, Pippa</p>\n      </div>\n      <meta itemprop='interactionCount' content='UserLikes:0'>\n      <meta itemprop='interactionCount' content='UserComments:1'>\n      <meta itemprop='headline' content='Just my view'>\n      <hr>\n  </div>\n  <div itemscope itemtype='http://schema.org/DiscussionForumPosting'>\n      <div class='creator'>\n        <span>\n          <a href='/u/JohnnyD'><b itemprop='author'>JohnnyD</b></a>\n          \n          <time datetime='2018-11-12T08:15:26Z' itemprop='datePublished'>\n            2018-11-12 08:15:26 UTC\n          </time>\n        </span>\n        <span itemprop='position'>#3</span>\n      </div>\n      <div class='post' itemprop='articleBody'>\n        <p>Hi Pippa.</p>\n<p>Thanks for your reply.</p>\n<p>I agree with your comments. The Internet is often the only way to communicate. I have not read that book, or seen the film. I will have a look round.</p>\n<p>I didn`t learn sign language, because until everyone uses it, you are still on your own.</p>\n<p>Technology has come a long way, but hearing aids are still just that! Hearing in noise is the biggest problem, and although there are adjustments, they don`t work for everyone.</p>\n<p>So we must struggle on, and do our best. Nice to hear from you.</p>\n<p>Regards. John.</p>\n      </div>\n      <meta itemprop='interactionCount' content='UserLikes:0'>\n      <meta itemprop='interactionCount' content='UserComments:1'>\n      <meta itemprop='headline' content='Just my view'>\n      <hr>\n  </div>\n  <div itemscope itemtype='http://schema.org/DiscussionForumPosting'>\n      <div class='creator'>\n        <span>\n          <a href='/u/Gremlin2018'><b itemprop='author'>Gremlin2018</b></a>\n          \n          <time datetime='2018-11-15T22:42:28Z' itemprop='datePublished'>\n            2018-11-15 22:42:28 UTC\n          </time>\n        </span>\n        <span itemprop='position'>#4</span>\n      </div>\n      <div class='post' itemprop='articleBody'>\n        <p>Hi- my husband was diagnosed with PD about 6 years ago and he is 51 years of age now. I feel that we both have changed since his diagnosis and I don’t have much family support from his side of the family. He works full time as for now- but I have notice that husband has change quite bit in terms of selfishness … only wants to do things for himself cause he feels that he may wheelchair bound one day… I have taken on more tasks at home and emotionally I feel lonely. He does not want to plan for the future or talk about it but only wants to serve his direct needs. It’s condusing sometimes and we don’t talk much about his his PD- we are not close physically - sex life is rare now - he has back pains now and I’m just physically exhausted taking care of daily needs of our 3 kids and making all major decisions. I think he avoids talking to me about what I go through and or gets angry with me when I talk to him about our future together. Could you help me., is this what I should I expect - I don’t feel loved or support .</p>\n      </div>\n      <meta itemprop='interactionCount' content='UserLikes:0'>\n      <meta itemprop='interactionCount' content='UserComments:0'>\n      <meta itemprop='headline' content='Just my view'>\n      <hr>\n  </div>\n  <div itemscope itemtype='http://schema.org/DiscussionForumPosting'>\n      <div class='creator'>\n        <span>\n          <a href='/u/Reah'><b itemprop='author'>Reah</b></a>\n          \n          <time datetime='2018-11-16T11:47:12Z' itemprop='datePublished'>\n            2018-11-16 11:47:12 UTC\n          </time>\n        </span>\n        <span itemprop='position'>#5</span>\n      </div>\n      <div class='post' itemprop='articleBody'>\n        <p>Hi <a class=\"mention\" href=\"/u/gremlin2018\">@Gremlin2018</a>,</p>\n<p>A warm welcome to the forum and thank you for being so open about what you’ve been going through. Even though your husband was diagnosed with Parkinson’s some time ago, a diagnosis can still be a shock to the system which could explain his recent behaviour. Neither you or your husband should have to go through this alone which is why our support services is here to help you.</p>\n<p>As well as the forum, you can connect with your local adviser or local group to speak to people who understand what you’re going through,we have more information on this here - <a href=\"https://www.parkinsons.org.uk/information-and-support/newly-diagnosed-parkinsons\">https://www.parkinsons.org.uk/information-and-support/newly-diagnosed-parkinsons</a>. We also have a confidential helpline that you can call and one of our friendly advisers can offer you more info on the emotional support that’s available to you. Feel free to give us a call on 0808 800 0303 or email us at <a href=\"/cdn-cgi/l/email-protection#0e666b6262614e7e6f7c6567607d61607d20617c69207b65\"><span class=\"__cf_email__\" data-cfemail=\"85ede0e9e9eac5f5e4f7eeecebf6eaebf6abeaf7e2abf0ee\">[email&#160;protected]</span></a>.</p>\n<p>I’m sure you’ll receive some words of encouragement from other members on the forum, however, I hope the info I’ve shared is helpful.</p>\n<p>Best wishes,<br>\nReah</p>\n      </div>\n      <meta itemprop='interactionCount' content='UserLikes:0'>\n      <meta itemprop='interactionCount' content='UserComments:0'>\n      <meta itemprop='headline' content='Just my view'>\n      <hr>\n  </div>\n  <div itemscope itemtype='http://schema.org/DiscussionForumPosting'>\n      <div class='creator'>\n        <span>\n          <a href='/u/Gremlin2018'><b itemprop='author'>Gremlin2018</b></a>\n          \n          <time datetime='2018-11-16T21:03:22Z' itemprop='datePublished'>\n            2018-11-16 21:03:22 UTC\n          </time>\n        </span>\n        <span itemprop='position'>#6</span>\n      </div>\n      <div class='post' itemprop='articleBody'>\n        <p>Thank you so much - I’m in counseling he is aware of it but does not wish to go to one. It’s quite sad sometimes for me because I feel as though I’m married to different man. He doesn’t show any signs of emotions. He acts like nothing is wrong… he doesn’t want to talk about living will or even when he can longer chew food and bed bound - would he like to have Gtube… he gets angry with me ! Insist that will never happen. It’s like he is angry with me or maybe even feels sorry for me because he knows that my life maybe physically and emotionally and costly to take care of him. His family is denial - they don’t want to talk to me about it - as matter of fact the moment he was diagnosed with PD they began to treat me poorly - they stop coming to our house. His mother blames me for his disposition in life.</p>\n      </div>\n      <meta itemprop='interactionCount' content='UserLikes:0'>\n      <meta itemprop='interactionCount' content='UserComments:1'>\n      <meta itemprop='headline' content='Just my view'>\n      <hr>\n  </div>\n  <div itemscope itemtype='http://schema.org/DiscussionForumPosting'>\n      <div class='creator'>\n        <span>\n          <a href='/u/Pippa'><b itemprop='author'>Pippa</b></a>\n          \n          <time datetime='2018-11-16T23:17:57Z' itemprop='datePublished'>\n            2018-11-16 23:17:57 UTC\n          </time>\n        </span>\n        <span itemprop='position'>#7</span>\n      </div>\n      <div class='post' itemprop='articleBody'>\n        <p>Hi Gremlin,<br>\nV brave of you to share so much about how tough it is for you, and made so mich worse as result of lack of support and/or understanding from  family members. It sounds to me that a lot of people around you are in denial , which is actually understandable the PDdiagnosis,  not to mention the fact that if one denies, and avoids, then one doens’t Have to do anything and face reality. You don’t have that luxury , given that you will be carrying the can in future,if you stay the course. No wonder you are anticipating and wanting to plan for what is to come, to prepare yourself for it…except that we can never in fact know what is to come, because something else might happen.<br>\nGiven such uncertainty, it is really hard, I find, to get the right balance between living for the day and doing what one can whilst one can, and planning for the future, especially in practical and financial  terms .<br>\nIt can also be difficult, if not impossible, to prevent the disease from taking over one’s whole life, smothering any other interest, activity or conversation, but it cannot be allowed to do that. And I speak as a carer of someone with quite advanced Parkinson’s ( my husband)<br>\n.my husband is the one who looks ahead and see all kinds of horrors lying in wait for him, whilst I tend to say, we will cross those bridges if and when we get to them. Sufficient unto the day is the evil thereof, I am told!<br>\nWe should all be writing down  our wishes for our  end of life care, or whatever, not just those who already have a serious condition…but we don’t because to do so makes it real. Maybe that is why your husband does not want to talk about it. Maybe for your sake and peace of mind he might write something down somewhere and be done with it.<br>\nI wonder if any two people, when partners In this situation, one with and one without the condition, can ever go through the process of dealing with it simultaneously. Like so many challenging life events, we all go through them at our own speed in our own unique  ways, and when that clashes with how others  close to us are doing it, it results in distress and even conflict when people take thier frustrations out on each other rather than on the condition that has brought the situation about.<br>\nNo easy answers that is for sure, but talking about it and wrestling with these  issues can help, if only to help  one realise that one is not alone, and that it is very normal  to have such thoughts and feelings.</p>\n<p>Warm regards,</p>\n<p>Pippa</p>\n      </div>\n      <meta itemprop='interactionCount' content='UserLikes:0'>\n      <meta itemprop='interactionCount' content='UserComments:1'>\n      <meta itemprop='headline' content='Just my view'>\n      <hr>\n  </div>\n  <div itemscope itemtype='http://schema.org/DiscussionForumPosting'>\n      <div class='creator'>\n        <span>\n          <a href='/u/Gremlin2018'><b itemprop='author'>Gremlin2018</b></a>\n          \n          <time datetime='2018-11-17T18:38:27Z' itemprop='datePublished'>\n            2018-11-17 18:38:27 UTC\n          </time>\n        </span>\n        <span itemprop='position'>#8</span>\n      </div>\n      <div class='post' itemprop='articleBody'>\n        <p>Thank you Pippa- I’m trying very hard to take care of myself and find joy in working and helping people and my kids. There are moments when it’s hard for me to not think about the future - sometimes I may have anxiety attacks over it and find it hard to sleep… but for the most part I try to enjoy the simple things - decorating and cooking. I take care of our home now and try to anticipate problems that may arise. I try to be understanding</p>\n      </div>\n      <meta itemprop='interactionCount' content='UserLikes:0'>\n      <meta itemprop='interactionCount' content='UserComments:0'>\n      <meta itemprop='headline' content='Just my view'>\n      <hr>\n  </div>\n\n\n\n\n\n\n    </div>\n    <footer class=\"container\">\n      <nav class='crawler-nav' itemscope itemtype='http://schema.org/SiteNavigationElement'>\n        <a href='/'>Home</a>\n        <a href=\"/categories\">Categories</a>\n        <a href=\"/guidelines\">FAQ/Guidelines</a>\n        <a href=\"/tos\">Terms of Service</a>\n        <a href=\"/privacy\">Privacy Policy</a>\n      </nav>\n      <p class='powered-by-link'>Powered by <a href=\"https://www.discourse.org\">Discourse</a>, best viewed with JavaScript enabled</p>\n    </footer>\n    \n  <script data-cfasync=\"false\" src=\"/cdn-cgi/scripts/5c5dd728/cloudflare-static/email-decode.min.js\"></script></body>\n  \n</html>\n",
  "url": "https://forum.parkinsons.org.uk/t/just-my-view/16554"
}