{
  "contentId": "ad764560-8863-11e9-8f96-97f71b5221d6",
  "html": "<!DOCTYPE html>\n<html lang=\"en\">\n  <head>\n    <meta charset=\"utf-8\">\n    <title>Have PD Symptoms Started - Young Onset Parkinson&#39;s - Parkinson&#39;s UK Forum</title>\n    <meta name=\"description\" content=\"Hi Everyone, \nHoping you can shed a bit of light on something. I have not been to the doctors yet I am planning to go if issues persist, \nI am 32 Male, Roughly two weeks ago I woke up and got out of bed to find my walkin&amp;hellip;\">\n    <meta name=\"author\" content=\"\">\n<meta name=\"generator\" content=\"Discourse 2.2.5 - https://github.com/discourse/discourse version c294ff3609f988dcafb742e91606d60ca13b794d\">\n<link rel=\"icon\" type=\"image/png\" href=\"https://forum.parkinsons.org.uk/uploads/db7928/original/2X/3/311fc84f89f49f38601a2f16b295b6f03d3ce5dd.jpg\">\n<link rel=\"apple-touch-icon\" type=\"image/png\" href=\"https://forum.parkinsons.org.uk/uploads/db7928/original/2X/3/311fc84f89f49f38601a2f16b295b6f03d3ce5dd.jpg\">\n<meta name=\"theme-color\" content=\"#ffffff\">\n<meta name=\"viewport\" content=\"width=device-width, minimum-scale=1.0, maximum-scale=1.0, user-scalable=yes\">\n<link rel=\"canonical\" href=\"https://forum.parkinsons.org.uk/t/have-pd-symptoms-started/18491\" />\n<script type=\"application/ld+json\">{\"@context\":\"http://schema.org\",\"@type\":\"WebSite\",\"url\":\"https://forum.parkinsons.org.uk\",\"potentialAction\":{\"@type\":\"SearchAction\",\"target\":\"https://forum.parkinsons.org.uk/search?q={search_term_string}\",\"query-input\":\"required name=search_term_string\"}}</script>\n<link rel=\"search\" type=\"application/opensearchdescription+xml\" href=\"https://forum.parkinsons.org.uk/opensearch.xml\" title=\"Parkinson&#39;s UK Forum Search\">\n\n      <link href=\"/stylesheets/desktop_f99246ae801b083d3e4cca979d0dade8615b39ac.css?__ws=forum.parkinsons.org.uk\" media=\"all\" rel=\"stylesheet\" data-target=\"desktop\" data-theme-id=\"12\"/>\n      <link href=\"/stylesheets/desktop_theme_12_5d27531cf43f9df0c03a6a6ec3109dd05f9dfc49.css?__ws=forum.parkinsons.org.uk\" media=\"all\" rel=\"stylesheet\" data-target=\"desktop_theme\" data-theme-id=\"12\"/>\n    <link href=\"https://fonts.googleapis.com/css?family=Open+Sans\" rel=\"stylesheet\">\n\n    <meta id=\"data-ga-universal-analytics\" data-tracking-code=\"UA-4855628-1\" data-json=\"{&quot;cookieDomain&quot;:&quot;auto&quot;}\" data-auto-link-domains=\"\">\n\n<link rel='preload' href='/assets/google-universal-analytics-f35b4da49411e6f5559073523aab983da483976a3954c79c756f8579f6fbd6ef.js' as='script'/>\n<script src='/assets/google-universal-analytics-f35b4da49411e6f5559073523aab983da483976a3954c79c756f8579f6fbd6ef.js'></script>\n\n      <link rel=\"alternate\" type=\"application/rss+xml\" title=\"RSS feed of &#39;Have PD Symptoms Started&#39;\" href=\"https://forum.parkinsons.org.uk/t/have-pd-symptoms-started/18491.rss\" />\n  <meta property=\"og:site_name\" content=\"Parkinson&#39;s UK Forum\" />\n<meta name=\"twitter:card\" content=\"summary\" />\n<meta name=\"twitter:image\" content=\"https://forum.parkinsons.org.uk/uploads/db7928/original/2X/3/311fc84f89f49f38601a2f16b295b6f03d3ce5dd.jpg\" />\n<meta property=\"og:image\" content=\"https://forum.parkinsons.org.uk/uploads/db7928/original/2X/3/311fc84f89f49f38601a2f16b295b6f03d3ce5dd.jpg\" />\n<meta property=\"og:url\" content=\"https://forum.parkinsons.org.uk/t/have-pd-symptoms-started/18491\" />\n<meta name=\"twitter:url\" content=\"https://forum.parkinsons.org.uk/t/have-pd-symptoms-started/18491\" />\n<meta property=\"og:title\" content=\"Have PD Symptoms Started\" />\n<meta name=\"twitter:title\" content=\"Have PD Symptoms Started\" />\n<meta property=\"og:description\" content=\"Hi Everyone,  Hoping you can shed a bit of light on something. I have not been to the doctors yet I am planning to go if issues persist,  I am 32 Male, Roughly two weeks ago I woke up and got out of bed to find my walking was atrocious. I had a feeling of that ‘almost-cramp’ (do anything and it will be cramp) in my calves and couldn’t bend up straight. I was stooping and it took a good few hours of walking about to regain posture.  Since then I have had quite severe backache in my lower lumbar a...\" />\n<meta name=\"twitter:description\" content=\"Hi Everyone,  Hoping you can shed a bit of light on something. I have not been to the doctors yet I am planning to go if issues persist,  I am 32 Male, Roughly two weeks ago I woke up and got out of bed to find my walking was atrocious. I had a feeling of that ‘almost-cramp’ (do anything and it will be cramp) in my calves and couldn’t bend up straight. I was stooping and it took a good few hours of walking about to regain posture.  Since then I have had quite severe backache in my lower lumbar a...\" />\n<meta name=\"twitter:label1\" value=\"Reading time\" />\n<meta name=\"twitter:data1\" value=\"4 mins \uD83D\uDD51\" />\n<meta name=\"twitter:label2\" value=\"Likes\" />\n<meta name=\"twitter:data2\" value=\"1 ❤\" />\n<meta property=\"article:published_time\" content=\"2019-03-20T14:26:44+00:00\" />\n<meta property=\"og:ignore_canonical\" content=\"true\" />\n\n\n\n    \n  </head>\n  <body class=\"crawler\">\n    <header role=\"banner\">\n    <div class=\"region region-header\">\n        <div class=\"region-header-wrapper\">\n            <div id=\"block-parkinsons-d8-branding\" class=\"block block-system block-system-branding-block\">\n                <a href=\"/\" title=\"Home\" rel=\"home\" class=\"site-logo\">\n                    <img src=\"https://forum.parkinsons.org.uk/uploads/db7928/original/2X/8/862bb7d172e7d127e7f3e147ec43594aa62ac945.png\" alt=\"Parkinson's UK. Change Attitudes. Find a cure. Join us.\">\n                </a>\n            </div>\n            <div id=\"block-helpline\" class=\"block block-block-content block-block-content871cd5af-b938-4947-9dc0-d5c211d08fe3 style-phone\">\n                <div class=\"field field--name-field-link field--type-link field--label-hidden field__item\"><a href=\"tel:+448088000303\">Helpline 0808 800 0303</a></div>\n            </div>\n            <div id=\"block-shop\" class=\"block block-block-content block-block-content6fba5ae5-7797-49cd-8367-f321d8111cd6 style-regular\">\n                <div class=\"field field--name-field-link field--type-link field--label-hidden field__item\"><a href=\"https://shop.parkinsons.org.uk\">Shop</a></div>\n            </div>\n        </div>\n    </div>\n</header>\n\n\n<script src=\"/theme-javascripts/b7e9763fcb584fc8265c56a9f557cd6d2e1e8ed8.js?__ws=forum.parkinsons.org.uk\"></script>\n    <header>\n      <a href=\"/\">\n          <img src=\"https://forum.parkinsons.org.uk/uploads/db7928/original/2X/8/862bb7d172e7d127e7f3e147ec43594aa62ac945.png\" alt=\"Parkinson&#39;s UK Forum\" id=\"site-logo\" style=\"max-width: 150px;\">\n      </a>\n    </header>\n    <div id=\"main-outlet\" class=\"wrap\">\n      <h1>\n  <a href=\"/t/have-pd-symptoms-started/18491\">Have PD Symptoms Started</a>\n</h1>\n\n<div id='breadcrumbs'>\n    <div id=\"breadcrumb-0\" itemscope itemtype=\"http://data-vocabulary.org/Breadcrumb\"\n        itemref=\"breadcrumb-1\"\n      >\n      <a href=\"/c/living-with-parkinsons\" itemprop=\"url\">\n        <span itemprop=\"title\">Living with Parkinson&#39;s</span>\n      </a>\n    </div>\n    <div id=\"breadcrumb-1\" itemscope itemtype=\"http://data-vocabulary.org/Breadcrumb\"\n>\n      <a href=\"/c/living-with-parkinsons/young-onset-parkinsons\" itemprop=\"url\">\n        <span itemprop=\"title\">Young Onset Parkinson&#39;s</span>\n      </a>\n    </div>\n</div>\n\n\n\n\n\n<hr>\n\n\n  <div itemscope itemtype='http://schema.org/DiscussionForumPosting'>\n      <div class='creator'>\n        <span>\n          <a href='/u/AJ20044'><b itemprop='author'>AJ20044</b></a>\n          \n          <time datetime='2019-03-20T14:26:44Z' itemprop='datePublished'>\n            2019-03-20 14:26:44 UTC\n          </time>\n        </span>\n        <span itemprop='position'>#1</span>\n      </div>\n      <div class='post' itemprop='articleBody'>\n        <p>Hi Everyone,</p>\n<p>Hoping you can shed a bit of light on something. I have not been to the doctors yet I am planning to go if issues persist,</p>\n<p>I am 32 Male, Roughly two weeks ago I woke up and got out of bed to find my walking was atrocious. I had a feeling of that ‘almost-cramp’ (do anything and it will be cramp) in my calves and couldn’t bend up straight. I was stooping and it took a good few hours of walking about to regain posture.</p>\n<p>Since then I have had quite severe backache in my lower lumbar and have found myself walking different, it was more or less identical to the shuffle gait and bradykinesia with stiffness of muscles &amp; rigidity. Walking very slowly and not able to run. In my mind I want to run but physically couldn’t… Arms not swinging when walking. This week, I seem to be walking okay again now (80% improved).</p>\n<p>On the first day I started walking like this I had no tremor at all. A couple of days later I found my right hand had a tremor but my walking had improved a little.</p>\n<p>I have had trouble thinking some days. If too much is happening at once it was like information overload.</p>\n<p>The tremor then went yesterday completely and today has returned in both hands albeit worse in right hand. It seems to keep coming and going. Just when I think I am back to normal I start unintentionally walking stooped or this tremor comes back.</p>\n<p>I have been suffering severe depression for about 4 months. This however seems to now be lifting, fortunately.</p>\n<p>My question is, is there any similarities to others of you with YOPD, does this sound at all like the first symptoms you had?</p>\n<p>I do a fair bit of heavy lifting day to day with my job, but to be fair I used to do weight lifting not so long ago and never get bad backache. it just seems more than a coincidence that I have not only back pain that may or may not be causing me to walk stooped but also these tremors keep coming and going. One evening the lumbar pain subsided and seemed to move up my back almost to just below my shoulders, very strange.</p>\n<p>Not expecting a diagnosis on here of course, just someone to talk to about the symptoms and similarities and what next, just wait a bit longer and see how it pans out?</p>\n<p>Are there any other tell-tale signs I should be looking out for? I have heard that initially, PD symptoms can come and go, I wonder how long can they go for before returning that would be a big help to know. Are we talking hours, days or weeks?</p>\n<p>Thank you,</p>\n<p>Alan</p>\n      </div>\n      <meta itemprop='interactionCount' content='UserLikes:0'>\n      <meta itemprop='interactionCount' content='UserComments:0'>\n      <meta itemprop='headline' content='Have PD Symptoms Started'>\n      <hr>\n  </div>\n  <div itemscope itemtype='http://schema.org/DiscussionForumPosting'>\n      <div class='creator'>\n        <span>\n          <a href='/u/G_Finnegan'><b itemprop='author'>G_Finnegan</b></a>\n          \n          <time datetime='2019-03-20T21:53:04Z' itemprop='datePublished'>\n            2019-03-20 21:53:04 UTC\n          </time>\n        </span>\n        <span itemprop='position'>#2</span>\n      </div>\n      <div class='post' itemprop='articleBody'>\n        <p>Hi Alan,<br>\nI was diagnosed at 39 by a specialist after a few years of visiting my GP with various minor symptoms. My GP just wasn’t expecting a relatively fit and youngish person to have Parkinson’s and put things down to stress even though I’m not a stressy person. Eventually I was referred to a neurologist who told me after the consultation that he had diagnosed me as soon as I walked in. He did this by observing my gait, one non swinging arm and my blank expression… When I told a work colleague, he told me had already guessed that I had Parkinson’s because I walked like his wife who also had it. My point is that you should see your GP as soon as possible and ask to see a neurologist who specialises in Parkinson’s so that you can be assessed by people who are familiar with the various symptoms. My early symptoms were as above, my gait, the non swinging arm and lack of expression. I also had a bout of depression, a frozen shoulder, a tightness in my face that my wife rather lovingly referred to as ‘rat man’ as it exposed my top teeth but which I preferred to call my ‘Elvis sneer’. I also got cramp in my right calf when walking. Before I knew about the non swinging arm being part of Parkinson’s, I described it as if I had broken my arm and was holding my arm in a certain way to protect it. So go to the doctors asap and hopefully they will find out what is causing your symptoms.<br>\nAll the best wishes,<br>\nGary.</p>\n      </div>\n      <meta itemprop='interactionCount' content='UserLikes:1'>\n      <meta itemprop='interactionCount' content='UserComments:1'>\n      <meta itemprop='headline' content='Have PD Symptoms Started'>\n      <hr>\n  </div>\n  <div itemscope itemtype='http://schema.org/DiscussionForumPosting'>\n      <div class='creator'>\n        <span>\n          <a href='/u/AJ20044'><b itemprop='author'>AJ20044</b></a>\n          \n          <time datetime='2019-03-21T13:08:31Z' itemprop='datePublished'>\n            2019-03-21 13:08:31 UTC\n          </time>\n        </span>\n        <span itemprop='position'>#3</span>\n      </div>\n      <div class='post' itemprop='articleBody'>\n        <p>Hi Gary,</p>\n<p>Many thanks for your reply,</p>\n<p>Interesting to read your post. When you first started experiencing your first symptoms, can you recall if you had lower back pain at all?</p>\n<p>I can’t help thinking I may just have trapped a nerve, but why that would then give me hand tremors sounds too unrelated.</p>\n<p>Yesterday I noticed significant improvement all round but was taking cbd oil throughout the day, but today I thought I will have nothing and I have started the shuffle gait again with lumbar pain.</p>\n<p>Must say about a month ago, thats when I first had a tremor in one hand whilst just sat watching TV, thought absolutely nothing of it besides ‘oh hello’. Lasted a few minutes.</p>\n<p>Also, how long between your initial symptoms if you can remember, i.e. would a day pass with no symptoms and then return?</p>\n<p>Only asking as at this early stage this is what I am tending to find, so if so it’s something I can relate with,</p>\n<p>Best regards,</p>\n<p>Alan</p>\n      </div>\n      <meta itemprop='interactionCount' content='UserLikes:0'>\n      <meta itemprop='interactionCount' content='UserComments:0'>\n      <meta itemprop='headline' content='Have PD Symptoms Started'>\n      <hr>\n  </div>\n  <div itemscope itemtype='http://schema.org/DiscussionForumPosting'>\n      <div class='creator'>\n        <span>\n          <a href='/u/G_Finnegan'><b itemprop='author'>G_Finnegan</b></a>\n          \n          <time datetime='2019-03-21T18:39:58Z' itemprop='datePublished'>\n            2019-03-21 18:39:58 UTC\n          </time>\n        </span>\n        <span itemprop='position'>#4</span>\n      </div>\n      <div class='post' itemprop='articleBody'>\n        <p>Hi Alan<br>\nNo, I never had any back pain, I did get aching across the back of my shoulders and the frozen shoulder. As for the symptoms, at first they would be sporadic and were brought on by tiredness. My wife noticed the early changes in me before I did. I only really knew something was wrong when I fell playing football on a hard surface. As I was fell, I could not understand how I wasn’t able to correct myself and stay upright, it felt like slow motion and I imagine it looked a bit like the referee falling after being pushed to the floor by Paolo Di Canio all those years ago (apologies if your not a football fan or too young to remember) but falling forwards instead of backwards. The symptoms became more regular as time wore on until I started on Parkinson’s medications.<br>\nHope that helps.<br>\nRegards<br>\nGary.</p>\n      </div>\n      <meta itemprop='interactionCount' content='UserLikes:0'>\n      <meta itemprop='interactionCount' content='UserComments:0'>\n      <meta itemprop='headline' content='Have PD Symptoms Started'>\n      <hr>\n  </div>\n  <div itemscope itemtype='http://schema.org/DiscussionForumPosting'>\n      <div class='creator'>\n        <span>\n          <a href='/u/Jules47'><b itemprop='author'>Jules47</b></a>\n          \n          <time datetime='2019-03-22T08:59:00Z' itemprop='datePublished'>\n            2019-03-22 08:59:00 UTC\n          </time>\n        </span>\n        <span itemprop='position'>#5</span>\n      </div>\n      <div class='post' itemprop='articleBody'>\n        <p>Hello AJ just read you concern, I started with a achy hand, but everyone is different. If I knew then what I do now. I’d drink lots of water, take steady exercise and then see how things go. I get a lot of back pain, but that’s becuase of the tablets and how they work, I think! It’s a complex condition. However, I was a fifty before and the one thing I regret was not keeping it up, it could have helped me for a lot longer before going onto med and getting a diagnosis. Back to basics on healthy living, you may find your body gets better by itself. J</p>\n      </div>\n      <meta itemprop='interactionCount' content='UserLikes:0'>\n      <meta itemprop='interactionCount' content='UserComments:0'>\n      <meta itemprop='headline' content='Have PD Symptoms Started'>\n      <hr>\n  </div>\n  <div itemscope itemtype='http://schema.org/DiscussionForumPosting'>\n      <div class='creator'>\n        <span>\n          <a href='/u/Eve1'><b itemprop='author'>Eve1</b></a>\n          \n          <time datetime='2019-03-22T12:45:11Z' itemprop='datePublished'>\n            2019-03-22 12:45:11 UTC\n          </time>\n        </span>\n        <span itemprop='position'>#6</span>\n      </div>\n      <div class='post' itemprop='articleBody'>\n        <p>Hi, have just read all your pieces.  I am not young, but your description of some of your back problems rang a bell with me.  I have a stoop and cramp like sensations - I have been diagnosed with a Parkinson related little known back condition it is called Captocormia.  Perhaps you would like to talk this over with your Parkinson Consultant.</p>\n<p>I was originally told this back problem was my discs eroding - it took a Neurologist who had seen this condition before to diagnose it.  Keep pushing for some help with your back.  If you are not happy go back and back</p>\n      </div>\n      <meta itemprop='interactionCount' content='UserLikes:0'>\n      <meta itemprop='interactionCount' content='UserComments:1'>\n      <meta itemprop='headline' content='Have PD Symptoms Started'>\n      <hr>\n  </div>\n  <div itemscope itemtype='http://schema.org/DiscussionForumPosting'>\n      <div class='creator'>\n        <span>\n          <a href='/u/Jules47'><b itemprop='author'>Jules47</b></a>\n          \n          <time datetime='2019-03-26T13:49:49Z' itemprop='datePublished'>\n            2019-03-26 13:49:49 UTC\n          </time>\n        </span>\n        <span itemprop='position'>#7</span>\n      </div>\n      <div class='post' itemprop='articleBody'>\n        <p>Hi had loads of scans, I think med related, I have a very strong back, or used to. Pain is a pain, I just need to loose a stone or so it helps. I like cake too which doesn’t, all in a good days work. Take each day, any more and  I’d struggle. Big hug</p>\n      </div>\n      <meta itemprop='interactionCount' content='UserLikes:0'>\n      <meta itemprop='interactionCount' content='UserComments:0'>\n      <meta itemprop='headline' content='Have PD Symptoms Started'>\n      <hr>\n  </div>\n  <div itemscope itemtype='http://schema.org/DiscussionForumPosting'>\n      <div class='creator'>\n        <span>\n          <a href='/u/Jules47'><b itemprop='author'>Jules47</b></a>\n          \n          <time datetime='2019-03-26T13:53:10Z' itemprop='datePublished'>\n            2019-03-26 13:53:10 UTC\n          </time>\n        </span>\n        <span itemprop='position'>#8</span>\n      </div>\n      <div class='post' itemprop='articleBody'>\n        <p>Sucks doesn’t it, we keep going, but some days it’s ruddy hard. Big hug</p>\n      </div>\n      <meta itemprop='interactionCount' content='UserLikes:0'>\n      <meta itemprop='interactionCount' content='UserComments:0'>\n      <meta itemprop='headline' content='Have PD Symptoms Started'>\n      <hr>\n  </div>\n  <div itemscope itemtype='http://schema.org/DiscussionForumPosting'>\n      <div class='creator'>\n        <span>\n          <a href='/u/G_Finnegan'><b itemprop='author'>G_Finnegan</b></a>\n          \n          <time datetime='2019-03-26T18:47:01Z' itemprop='datePublished'>\n            2019-03-26 18:47:01 UTC\n          </time>\n        </span>\n        <span itemprop='position'>#9</span>\n      </div>\n      <div class='post' itemprop='articleBody'>\n        <p>Thanks for the ‘big hug’, it made me smile. Big hug back.</p>\n      </div>\n      <meta itemprop='interactionCount' content='UserLikes:0'>\n      <meta itemprop='interactionCount' content='UserComments:1'>\n      <meta itemprop='headline' content='Have PD Symptoms Started'>\n      <hr>\n  </div>\n  <div itemscope itemtype='http://schema.org/DiscussionForumPosting'>\n      <div class='creator'>\n        <span>\n          <a href='/u/Eve1'><b itemprop='author'>Eve1</b></a>\n          \n          <time datetime='2019-03-27T06:58:52Z' itemprop='datePublished'>\n            2019-03-27 06:58:52 UTC\n          </time>\n        </span>\n        <span itemprop='position'>#10</span>\n      </div>\n      <div class='post' itemprop='articleBody'>\n        <p>Hi Jules47,  If your back does not improve, perhaps physio would help - I went and it did help in the beginning, but then it got too bad.  My neurologist told me sometimes Botox injections helped as it does when given for dribbling.  But, in my case, due to the length of time it took to come to light , I would need that much Botox it would kill me !!!</p>\n<p>At the beginning it came and went, the stoop was only minor and the ache manageable but over a period of time got worse and exercising stopped working for me, despite going back for more physio.</p>\n<p>The first Neurologist, I have to say, was not that good.  However, my Neurologist and Parkinson Nurse I have now are brilliant and I am very lucky.  At present I am awaiting an appointment for a specialist ‘muscle’ physio for the muscle cramping in my stomach which is gradually moving up my stomach past waist line and now reaching just below my ribs.  This also makes my stoop worse as I can’t make myself stand up straight.</p>\n<p>I do so hope you get some help.  It brings you down when you have constant pain.  Its bad enough fighting PD every day.</p>\n<p>Fortunately, the PD Gym I go to twice a week is brilliant and we all come out on cloud 9.  JD the Physio who takes the class, knows how to lift us and makes you feel you could take on the world.  Perhaps a PD Gym class would help you and just think, the calories you burn up  means your piece of cake is not so fattening ha ha.</p>\n      </div>\n      <meta itemprop='interactionCount' content='UserLikes:0'>\n      <meta itemprop='interactionCount' content='UserComments:0'>\n      <meta itemprop='headline' content='Have PD Symptoms Started'>\n      <hr>\n  </div>\n  <div itemscope itemtype='http://schema.org/DiscussionForumPosting'>\n      <div class='creator'>\n        <span>\n          <a href='/u/Hubby'><b itemprop='author'>Hubby</b></a>\n          \n          <time datetime='2019-03-27T09:08:50Z' itemprop='datePublished'>\n            2019-03-27 09:08:50 UTC\n          </time>\n        </span>\n        <span itemprop='position'>#11</span>\n      </div>\n      <div class='post' itemprop='articleBody'>\n        <p>Just read the  \" broken arm\" syndrome.<br>\nThis was one of the first things that I noticed. Along with the small writing.<br>\nAlso the balance going when playing football was a shock as my balance was always very good<br>\nHubby</p>\n      </div>\n      <meta itemprop='interactionCount' content='UserLikes:0'>\n      <meta itemprop='interactionCount' content='UserComments:0'>\n      <meta itemprop='headline' content='Have PD Symptoms Started'>\n      <hr>\n  </div>\n  <div itemscope itemtype='http://schema.org/DiscussionForumPosting'>\n      <div class='creator'>\n        <span>\n          <a href='/u/Jules47'><b itemprop='author'>Jules47</b></a>\n          \n          <time datetime='2019-03-27T14:39:07Z' itemprop='datePublished'>\n            2019-03-27 14:39:07 UTC\n          </time>\n        </span>\n        <span itemprop='position'>#12</span>\n      </div>\n      <div class='post' itemprop='articleBody'>\n        <p>Nice to have a hug, even if virtual\uD83D\uDC4D Big hug again\uD83D\uDE03</p>\n      </div>\n      <meta itemprop='interactionCount' content='UserLikes:0'>\n      <meta itemprop='interactionCount' content='UserComments:0'>\n      <meta itemprop='headline' content='Have PD Symptoms Started'>\n      <hr>\n  </div>\n  <div itemscope itemtype='http://schema.org/DiscussionForumPosting'>\n      <div class='creator'>\n        <span>\n          <a href='/u/AJ20044'><b itemprop='author'>AJ20044</b></a>\n          \n          <time datetime='2019-03-29T20:26:38Z' itemprop='datePublished'>\n            2019-03-29 20:26:38 UTC\n          </time>\n        </span>\n        <span itemprop='position'>#13</span>\n      </div>\n      <div class='post' itemprop='articleBody'>\n        <p>Hi and thank you everyone for your replies,</p>\n<p>Quick update:</p>\n<p>I have been fine all this week, I have been able to walk normally again all week, until today. It is very strange. I did some gardening and shovelling soil for a couple of hours and since I have been walking stooped and very slowly. Muscles are aching like crazy. I am a normal, otherwise fit person usually.</p>\n<p>No tremors currently at all this week.</p>\n<p>Surely if it was a trapped nerve I would be in agony? There is no back pain.</p>\n<p>Will keep everyone updated. A week without any symptoms though I definitely thought I was ok again.</p>\n<p>Take care, Alan</p>\n      </div>\n      <meta itemprop='interactionCount' content='UserLikes:0'>\n      <meta itemprop='interactionCount' content='UserComments:0'>\n      <meta itemprop='headline' content='Have PD Symptoms Started'>\n      <hr>\n  </div>\n  <div itemscope itemtype='http://schema.org/DiscussionForumPosting'>\n      <div class='creator'>\n        <span>\n          <a href='/u/AJ20044'><b itemprop='author'>AJ20044</b></a>\n          \n          <time datetime='2019-04-01T17:49:09Z' itemprop='datePublished'>\n            2019-04-01 17:49:09 UTC\n          </time>\n        </span>\n        <span itemprop='position'>#14</span>\n      </div>\n      <div class='post' itemprop='articleBody'>\n        <p>I have a question for those with PD.</p>\n<p>If you can think back to the beginning symptoms, how frequent were they. Like the tremors, were they there all the time, or did they come and go for a bit every so many days/weeks?</p>\n<p>Had tremors again today but only for around 30 minutes, walking still iffy, can’t run still either, its a really strange feeling. I go to run and its just like slow motion, ends up a brisk walk.</p>\n<p>I can put up for now in the hope its just a bad back, but if it goes any worse I shall have it checked out I think.</p>\n      </div>\n      <meta itemprop='interactionCount' content='UserLikes:0'>\n      <meta itemprop='interactionCount' content='UserComments:0'>\n      <meta itemprop='headline' content='Have PD Symptoms Started'>\n      <hr>\n  </div>\n  <div itemscope itemtype='http://schema.org/DiscussionForumPosting'>\n      <div class='creator'>\n        <span>\n          <a href='/u/Singing_Gardener'><b itemprop='author'>Singing_Gardener</b></a>\n          \n          <time datetime='2019-04-02T00:48:41Z' itemprop='datePublished'>\n            2019-04-02 00:48:41 UTC\n          </time>\n        </span>\n        <span itemprop='position'>#15</span>\n      </div>\n      <div class='post' itemprop='articleBody'>\n        <p>My first tremors were just briefly every week or so and then gradually increased in frequency. Movement issues came much later on.</p>\n      </div>\n      <meta itemprop='interactionCount' content='UserLikes:0'>\n      <meta itemprop='interactionCount' content='UserComments:0'>\n      <meta itemprop='headline' content='Have PD Symptoms Started'>\n      <hr>\n  </div>\n  <div itemscope itemtype='http://schema.org/DiscussionForumPosting'>\n      <div class='creator'>\n        <span>\n          <a href='/u/AJ20044'><b itemprop='author'>AJ20044</b></a>\n          \n          <time datetime='2019-04-02T11:48:47Z' itemprop='datePublished'>\n            2019-04-02 11:48:47 UTC\n          </time>\n        </span>\n        <span itemprop='position'>#16</span>\n      </div>\n      <div class='post' itemprop='articleBody'>\n        <p>Thanks for your reply Singing_Gardener, much appreciated,</p>\n<p>Those who have (or have had) depression as well, was it before or after physical symptoms started?</p>\n<p>I ask as my depression has subsided hugely over the past month just around the time when  my gait has changed and my tremor started to come and go; but was terrible the months prior to that.</p>\n      </div>\n      <meta itemprop='interactionCount' content='UserLikes:0'>\n      <meta itemprop='interactionCount' content='UserComments:0'>\n      <meta itemprop='headline' content='Have PD Symptoms Started'>\n      <hr>\n  </div>\n  <div itemscope itemtype='http://schema.org/DiscussionForumPosting'>\n      <div class='creator'>\n        <span>\n          <a href='/u/Singing_Gardener'><b itemprop='author'>Singing_Gardener</b></a>\n          \n          <time datetime='2019-04-02T14:01:17Z' itemprop='datePublished'>\n            2019-04-02 14:01:17 UTC\n          </time>\n        </span>\n        <span itemprop='position'>#17</span>\n      </div>\n      <div class='post' itemprop='articleBody'>\n        <p>I don’t suffer from depression but had terrible anxiety and panic attacks for years before any other symptoms. They have got much better since I’ve been on medication but from your account maybe this was due to PD progression rather than the drugs.</p>\n      </div>\n      <meta itemprop='interactionCount' content='UserLikes:0'>\n      <meta itemprop='interactionCount' content='UserComments:0'>\n      <meta itemprop='headline' content='Have PD Symptoms Started'>\n      <hr>\n  </div>\n  <div itemscope itemtype='http://schema.org/DiscussionForumPosting'>\n      <div class='creator'>\n        <span>\n          <a href='/u/Eve1'><b itemprop='author'>Eve1</b></a>\n          \n          <time datetime='2019-04-04T06:59:15Z' itemprop='datePublished'>\n            2019-04-04 06:59:15 UTC\n          </time>\n        </span>\n        <span itemprop='position'>#18</span>\n      </div>\n      <div class='post' itemprop='articleBody'>\n        <p>I don’t get depression, but, have just been away for a week to Northumberland.  I have noticed of late when in a car, I am getting so anxious all the time - I see cars are too near,  cars might cut in, I think my husband is driving too fast, etc, etc. so you can imagine a long drive was a nightmare.</p>\n<p>My other half is a very good driver and is also patient with me but this anxiety in a car is getting worse and worse.  Sometimes my heart races.  I see my Parkinson Nurse this month so will mention it to her.</p>\n<p>My back has also got worse of late - am almost at a 45 deg angle most of the time - have found laying on the floor or bed face down does help the cramp like sensations in my stomach which, in turn helps my stoop.</p>\n<p>Have now got an appointment to see a specialist muscle physio - next month.  Hopefully they will come up with something.</p>\n<p>Think positive, try and find a PD Gym Class - really does help - just by being with people like yourself and not catching people sneaking a look at you and your twitches or stoops, etc.</p>\n      </div>\n      <meta itemprop='interactionCount' content='UserLikes:0'>\n      <meta itemprop='interactionCount' content='UserComments:0'>\n      <meta itemprop='headline' content='Have PD Symptoms Started'>\n      <hr>\n  </div>\n  <div itemscope itemtype='http://schema.org/DiscussionForumPosting'>\n      <div class='creator'>\n        <span>\n          <a href='/u/AJ20044'><b itemprop='author'>AJ20044</b></a>\n          \n          <time datetime='2019-05-08T14:42:59Z' itemprop='datePublished'>\n            2019-05-08 14:42:59 UTC\n          </time>\n        </span>\n        <span itemprop='position'>#19</span>\n      </div>\n      <div class='post' itemprop='articleBody'>\n        <p>Hi Everyone,</p>\n<p>Just wanted to update you all… For the past month I have been great. No symptoms at all. Until a few days ago, I could feel my stiffness coming on again (shuffle gait), fairly intense pain in my lower body muscles making it difficult to walk, especially upstairs.</p>\n<p>Then on a separate occasion my hand tremor came back completely out the blue. I have decided to share a video. Any thoughts would be appreciated. Tremors have since subsided once again. Its very strange.</p>\n<p><a href=\"https://youtu.be/e4On457otIs\" rel=\"nofollow noopener\">https://youtu.be/e4On457otIs</a></p>\n<p>Will report back with any developments. Thanks all.</p>\n      </div>\n      <meta itemprop='interactionCount' content='UserLikes:0'>\n      <meta itemprop='interactionCount' content='UserComments:0'>\n      <meta itemprop='headline' content='Have PD Symptoms Started'>\n      <hr>\n  </div>\n  <div itemscope itemtype='http://schema.org/DiscussionForumPosting'>\n      <div class='creator'>\n        <span>\n          <a href='/u/AJ20044'><b itemprop='author'>AJ20044</b></a>\n          \n          <time datetime='2019-05-08T16:40:03Z' itemprop='datePublished'>\n            2019-05-08 16:40:03 UTC\n          </time>\n        </span>\n        <span itemprop='position'>#20</span>\n      </div>\n      <div class='post' itemprop='articleBody'>\n        <p>Sorry to double post, here is another video:</p>\n<p><a href=\"https://youtu.be/nTzHbSS9z2s\" rel=\"nofollow noopener\">https://youtu.be/nTzHbSS9z2s</a></p>\n      </div>\n      <meta itemprop='interactionCount' content='UserLikes:0'>\n      <meta itemprop='interactionCount' content='UserComments:0'>\n      <meta itemprop='headline' content='Have PD Symptoms Started'>\n      <hr>\n  </div>\n\n\n\n\n\n\n    </div>\n    <footer class=\"container\">\n      <nav class='crawler-nav' itemscope itemtype='http://schema.org/SiteNavigationElement'>\n        <a href='/'>Home</a>\n        <a href=\"/categories\">Categories</a>\n        <a href=\"/guidelines\">FAQ/Guidelines</a>\n        <a href=\"/tos\">Terms of Service</a>\n        <a href=\"/privacy\">Privacy Policy</a>\n      </nav>\n      <p class='powered-by-link'>Powered by <a href=\"https://www.discourse.org\">Discourse</a>, best viewed with JavaScript enabled</p>\n    </footer>\n    \n  </body>\n  \n</html>\n",
  "url": "https://forum.parkinsons.org.uk/t/have-pd-symptoms-started/18491"
}