{
  "contentId": "622a3b00-8865-11e9-8f96-97f71b5221d6",
  "html": "<!DOCTYPE html>\n<html lang=\"en\">\n  <head>\n    <meta charset=\"utf-8\">\n    <title>In limbo - Newly diagnosed - Parkinson&#39;s UK Forum</title>\n    <meta name=\"description\" content=\"I was referred by my GP to a neurologist and saw him for the first time last August 2018. \nHe sent me for an MRI and said all was good from results. \nWe proceeded to DAT scan in February 2019 and I received the following&amp;hellip;\">\n    <meta name=\"author\" content=\"\">\n<meta name=\"generator\" content=\"Discourse 2.2.5 - https://github.com/discourse/discourse version c294ff3609f988dcafb742e91606d60ca13b794d\">\n<link rel=\"icon\" type=\"image/png\" href=\"https://forum.parkinsons.org.uk/uploads/db7928/original/2X/3/311fc84f89f49f38601a2f16b295b6f03d3ce5dd.jpg\">\n<link rel=\"apple-touch-icon\" type=\"image/png\" href=\"https://forum.parkinsons.org.uk/uploads/db7928/original/2X/3/311fc84f89f49f38601a2f16b295b6f03d3ce5dd.jpg\">\n<meta name=\"theme-color\" content=\"#ffffff\">\n<meta name=\"viewport\" content=\"width=device-width, minimum-scale=1.0, maximum-scale=1.0, user-scalable=yes\">\n<link rel=\"canonical\" href=\"https://forum.parkinsons.org.uk/t/in-limbo/18757\" />\n<script type=\"application/ld+json\">{\"@context\":\"http://schema.org\",\"@type\":\"WebSite\",\"url\":\"https://forum.parkinsons.org.uk\",\"potentialAction\":{\"@type\":\"SearchAction\",\"target\":\"https://forum.parkinsons.org.uk/search?q={search_term_string}\",\"query-input\":\"required name=search_term_string\"}}</script>\n<link rel=\"search\" type=\"application/opensearchdescription+xml\" href=\"https://forum.parkinsons.org.uk/opensearch.xml\" title=\"Parkinson&#39;s UK Forum Search\">\n\n      <link href=\"/stylesheets/desktop_f99246ae801b083d3e4cca979d0dade8615b39ac.css?__ws=forum.parkinsons.org.uk\" media=\"all\" rel=\"stylesheet\" data-target=\"desktop\" data-theme-id=\"12\"/>\n      <link href=\"/stylesheets/desktop_theme_12_5d27531cf43f9df0c03a6a6ec3109dd05f9dfc49.css?__ws=forum.parkinsons.org.uk\" media=\"all\" rel=\"stylesheet\" data-target=\"desktop_theme\" data-theme-id=\"12\"/>\n    <link href=\"https://fonts.googleapis.com/css?family=Open+Sans\" rel=\"stylesheet\">\n\n    <meta id=\"data-ga-universal-analytics\" data-tracking-code=\"UA-4855628-1\" data-json=\"{&quot;cookieDomain&quot;:&quot;auto&quot;}\" data-auto-link-domains=\"\">\n\n<link rel='preload' href='/assets/google-universal-analytics-f35b4da49411e6f5559073523aab983da483976a3954c79c756f8579f6fbd6ef.js' as='script'/>\n<script src='/assets/google-universal-analytics-f35b4da49411e6f5559073523aab983da483976a3954c79c756f8579f6fbd6ef.js'></script>\n\n      <link rel=\"alternate\" type=\"application/rss+xml\" title=\"RSS feed of &#39;In limbo&#39;\" href=\"https://forum.parkinsons.org.uk/t/in-limbo/18757.rss\" />\n  <meta property=\"og:site_name\" content=\"Parkinson&#39;s UK Forum\" />\n<meta name=\"twitter:card\" content=\"summary\" />\n<meta name=\"twitter:image\" content=\"https://forum.parkinsons.org.uk/uploads/db7928/original/2X/3/311fc84f89f49f38601a2f16b295b6f03d3ce5dd.jpg\" />\n<meta property=\"og:image\" content=\"https://forum.parkinsons.org.uk/uploads/db7928/original/2X/3/311fc84f89f49f38601a2f16b295b6f03d3ce5dd.jpg\" />\n<meta property=\"og:url\" content=\"https://forum.parkinsons.org.uk/t/in-limbo/18757\" />\n<meta name=\"twitter:url\" content=\"https://forum.parkinsons.org.uk/t/in-limbo/18757\" />\n<meta property=\"og:title\" content=\"In limbo\" />\n<meta name=\"twitter:title\" content=\"In limbo\" />\n<meta property=\"og:description\" content=\"I was referred by my GP to a neurologist and saw him for the first time last August 2018.  He sent me for an MRI and said all was good from results.  We proceeded to DAT scan in February 2019 and I received the following letter &quot; I now have the results of your DAT scan which did show low dopamine levels. I will arrange to see you again in clinic to discuss the results and also the treatment&quot;.  I was then given an appointment date of 15th March to see him. My partner was going to join me for this...\" />\n<meta name=\"twitter:description\" content=\"I was referred by my GP to a neurologist and saw him for the first time last August 2018.  He sent me for an MRI and said all was good from results.  We proceeded to DAT scan in February 2019 and I received the following letter &quot; I now have the results of your DAT scan which did show low dopamine levels. I will arrange to see you again in clinic to discuss the results and also the treatment&quot;.  I was then given an appointment date of 15th March to see him. My partner was going to join me for this...\" />\n<meta name=\"twitter:label1\" value=\"Reading time\" />\n<meta name=\"twitter:data1\" value=\"2 mins \uD83D\uDD51\" />\n<meta name=\"twitter:label2\" value=\"Likes\" />\n<meta name=\"twitter:data2\" value=\"1 ❤\" />\n<meta property=\"article:published_time\" content=\"2019-04-09T13:56:52+00:00\" />\n<meta property=\"og:ignore_canonical\" content=\"true\" />\n\n\n\n    \n  </head>\n  <body class=\"crawler\">\n    <header role=\"banner\">\n    <div class=\"region region-header\">\n        <div class=\"region-header-wrapper\">\n            <div id=\"block-parkinsons-d8-branding\" class=\"block block-system block-system-branding-block\">\n                <a href=\"/\" title=\"Home\" rel=\"home\" class=\"site-logo\">\n                    <img src=\"https://forum.parkinsons.org.uk/uploads/db7928/original/2X/8/862bb7d172e7d127e7f3e147ec43594aa62ac945.png\" alt=\"Parkinson's UK. Change Attitudes. Find a cure. Join us.\">\n                </a>\n            </div>\n            <div id=\"block-helpline\" class=\"block block-block-content block-block-content871cd5af-b938-4947-9dc0-d5c211d08fe3 style-phone\">\n                <div class=\"field field--name-field-link field--type-link field--label-hidden field__item\"><a href=\"tel:+448088000303\">Helpline 0808 800 0303</a></div>\n            </div>\n            <div id=\"block-shop\" class=\"block block-block-content block-block-content6fba5ae5-7797-49cd-8367-f321d8111cd6 style-regular\">\n                <div class=\"field field--name-field-link field--type-link field--label-hidden field__item\"><a href=\"https://shop.parkinsons.org.uk\">Shop</a></div>\n            </div>\n        </div>\n    </div>\n</header>\n\n\n<script src=\"/theme-javascripts/b7e9763fcb584fc8265c56a9f557cd6d2e1e8ed8.js?__ws=forum.parkinsons.org.uk\"></script>\n    <header>\n      <a href=\"/\">\n          <img src=\"https://forum.parkinsons.org.uk/uploads/db7928/original/2X/8/862bb7d172e7d127e7f3e147ec43594aa62ac945.png\" alt=\"Parkinson&#39;s UK Forum\" id=\"site-logo\" style=\"max-width: 150px;\">\n      </a>\n    </header>\n    <div id=\"main-outlet\" class=\"wrap\">\n      <h1>\n  <a href=\"/t/in-limbo/18757\">In limbo</a>\n</h1>\n\n<div id='breadcrumbs'>\n    <div id=\"breadcrumb-0\" itemscope itemtype=\"http://data-vocabulary.org/Breadcrumb\"\n        itemref=\"breadcrumb-1\"\n      >\n      <a href=\"/c/about-parkinsons-and-health\" itemprop=\"url\">\n        <span itemprop=\"title\">About Parkinson&#39;s and health</span>\n      </a>\n    </div>\n    <div id=\"breadcrumb-1\" itemscope itemtype=\"http://data-vocabulary.org/Breadcrumb\"\n>\n      <a href=\"/c/about-parkinsons-and-health/newly-diagnosed\" itemprop=\"url\">\n        <span itemprop=\"title\">Newly diagnosed</span>\n      </a>\n    </div>\n</div>\n\n\n\n\n\n<hr>\n\n\n  <div itemscope itemtype='http://schema.org/DiscussionForumPosting'>\n      <div class='creator'>\n        <span>\n          <a href='/u/Scott10'><b itemprop='author'>Scott10</b></a>\n          \n          <time datetime='2019-04-09T13:56:52Z' itemprop='datePublished'>\n            2019-04-09 13:56:52 UTC\n          </time>\n        </span>\n        <span itemprop='position'>#1</span>\n      </div>\n      <div class='post' itemprop='articleBody'>\n        <p>I was referred by my GP to a neurologist and saw him for the first time last August 2018.<br>\nHe sent me for an MRI and said all was good from results.<br>\nWe proceeded to DAT scan in February 2019 and I received the following letter \" I now have the results of your DAT scan which did show low dopamine levels. I will arrange to see you again in clinic to discuss the results and also the treatment\".<br>\nI was then given an appointment date of 15th March to see him. My partner was going to join me for this and we put together a list of questions to ask.<br>\nUnfortunately five days before this appointment I received a letter to say due to unforeseen circumstances they would have to cancel this and re-schedule. Fair enough.<br>\nI heard nothing and after two weeks decided to call and managed to arrange another date of 28th May. If I did not call i now wonder how long i would have waited to hear back.<br>\nIt is the waiting and worrying that I am finding hardest to deal with.<br>\nI appreciate I am lucky that I am seeing someone and that I am “in the system”.<br>\nFrom the inference in the letter I am reading that it is a Parkisonian diagnosis, but have not heard it face to face yet.<br>\nAnyway, roll on 28th May with my fingers crossed that this is not again cancelled.</p>\n      </div>\n      <meta itemprop='interactionCount' content='UserLikes:0'>\n      <meta itemprop='interactionCount' content='UserComments:0'>\n      <meta itemprop='headline' content='In limbo'>\n      <hr>\n  </div>\n  <div itemscope itemtype='http://schema.org/DiscussionForumPosting'>\n      <div class='creator'>\n        <span>\n          <a href='/u/Tot'><b itemprop='author'>Tot</b></a>\n          \n          <time datetime='2019-04-09T15:41:18Z' itemprop='datePublished'>\n            2019-04-09 15:41:18 UTC\n          </time>\n        </span>\n        <span itemprop='position'>#2</span>\n      </div>\n      <div class='post' itemprop='articleBody'>\n        <p>Hello there, however good your medical team turns out to be and however valid their reasons for cancelling, I do think they sometimes underestimate the impact this has on the patient and their families especially when in your position of waiting for a diagnosis.  I hope your May appointment goes ahead and think you did entirely the right thing in being proactive to securing it.  I was lucky with my ‘diagnosis’ appointments, I did not wait long nor did I have cancellations but I know that is not everybody’s experience and some fight long and hard to get the information, referrals and appointments they need.  I hope they come good at the May appointment so that you know where you stand without further delay.  I can’t do much to help but I do wish you well at this difficult time.</p>\n      </div>\n      <meta itemprop='interactionCount' content='UserLikes:0'>\n      <meta itemprop='interactionCount' content='UserComments:0'>\n      <meta itemprop='headline' content='In limbo'>\n      <hr>\n  </div>\n  <div itemscope itemtype='http://schema.org/DiscussionForumPosting'>\n      <div class='creator'>\n        <span>\n          <a href='/u/Scott10'><b itemprop='author'>Scott10</b></a>\n          \n          <time datetime='2019-04-10T17:03:47Z' itemprop='datePublished'>\n            2019-04-10 17:03:47 UTC\n          </time>\n        </span>\n        <span itemprop='position'>#3</span>\n      </div>\n      <div class='post' itemprop='articleBody'>\n        <p>Thank you Tot for your kind and supportive message. From what I have been reading about PD it is a very cagey bugger to diagnose. And the drugs to treat seem myriad and certainly hit and miss on effective treatment. It appears every individuals experience seems different and unique, linked by hitting four or five scores on a checklist of around 15 symptoms. Maybe there should be something in place to help support patients in the testing/diagnosis phase. It appears to be left to charities like PDUK and this forum.</p>\n<p>Regards</p>\n<p>Scott</p>\n      </div>\n      <meta itemprop='interactionCount' content='UserLikes:1'>\n      <meta itemprop='interactionCount' content='UserComments:1'>\n      <meta itemprop='headline' content='In limbo'>\n      <hr>\n  </div>\n  <div itemscope itemtype='http://schema.org/DiscussionForumPosting'>\n      <div class='creator'>\n        <span>\n          <a href='/u/Tot'><b itemprop='author'>Tot</b></a>\n          \n          <time datetime='2019-04-10T22:02:03Z' itemprop='datePublished'>\n            2019-04-10 22:02:03 UTC\n          </time>\n        </span>\n        <span itemprop='position'>#4</span>\n      </div>\n      <div class='post' itemprop='articleBody'>\n        <p>You’ve got it, the problem is there is not a definitive test, the symptoms can point towards a number of conditions and indeed within PD there is an array of different types.  Obviously they need to be careful as they don’t want to get the diagnosis wrong but it would help I think, if this was better explained and of course only cancel appts if absolutely necessary and giving a new date at the same time.  It doesn’t help if you have to chase, as you found how long do you wait and I think it adds to the impression that you have been forgotten or worse they don’t care.  Still it is what it is, in the meantime the forum can be a good sounding board if you need and try not to let your imagination run too wild while you wait.</p>\n      </div>\n      <meta itemprop='interactionCount' content='UserLikes:0'>\n      <meta itemprop='interactionCount' content='UserComments:0'>\n      <meta itemprop='headline' content='In limbo'>\n      <hr>\n  </div>\n  <div itemscope itemtype='http://schema.org/DiscussionForumPosting'>\n      <div class='creator'>\n        <span>\n          <a href='/u/Vanessa_Bryson'><b itemprop='author'>Vanessa_Bryson</b></a>\n          \n          <time datetime='2019-04-12T08:07:05Z' itemprop='datePublished'>\n            2019-04-12 08:07:05 UTC\n          </time>\n        </span>\n        <span itemprop='position'>#5</span>\n      </div>\n      <div class='post' itemprop='articleBody'>\n        <p>Is it possible for you to request being on the waiting list for a cancellation? Many people need to cancel neuro appointments for various reasons.</p>\n      </div>\n      <meta itemprop='interactionCount' content='UserLikes:0'>\n      <meta itemprop='interactionCount' content='UserComments:1'>\n      <meta itemprop='headline' content='In limbo'>\n      <hr>\n  </div>\n  <div itemscope itemtype='http://schema.org/DiscussionForumPosting'>\n      <div class='creator'>\n        <span>\n          <a href='/u/Scott10'><b itemprop='author'>Scott10</b></a>\n          \n          <time datetime='2019-04-13T09:40:40Z' itemprop='datePublished'>\n            2019-04-13 09:40:40 UTC\n          </time>\n        </span>\n        <span itemprop='position'>#6</span>\n      </div>\n      <div class='post' itemprop='articleBody'>\n        <p>Hi Vanessa,</p>\n<p>That is a really good point and one that hadn’t even crossed my mind. Although they did mention when I re-booked that my neurologist was himself sick/ill.<br>\nI have always been very fit and healthy and even now am only showing loss of fine motor skills in my left hand/fingers.<br>\nI think I’m of the mindset of others more needy can come before me. But now you have put this in my head I will phone and ask. They can only say no.<br>\nKind regards</p>\n<p>Scott</p>\n      </div>\n      <meta itemprop='interactionCount' content='UserLikes:0'>\n      <meta itemprop='interactionCount' content='UserComments:0'>\n      <meta itemprop='headline' content='In limbo'>\n      <hr>\n  </div>\n  <div itemscope itemtype='http://schema.org/DiscussionForumPosting'>\n      <div class='creator'>\n        <span>\n          <a href='/u/Tot'><b itemprop='author'>Tot</b></a>\n          \n          <time datetime='2019-04-13T10:46:46Z' itemprop='datePublished'>\n            2019-04-13 10:46:46 UTC\n          </time>\n        </span>\n        <span itemprop='position'>#7</span>\n      </div>\n      <div class='post' itemprop='articleBody'>\n        <p>Good idea.   Didn’t occur to me as my own journey to diagnosis was without ‘incident’ - which should be the norm but clearly isn’t  - and since then the hospital has had to change my appointments from time to time but have always received a new appointment very quickly.  I would say I’ve been lucky but the reality is that the service I have received is what everyone has a right to expect,  luck shouldn’t really come in to it.</p>\n      </div>\n      <meta itemprop='interactionCount' content='UserLikes:0'>\n      <meta itemprop='interactionCount' content='UserComments:0'>\n      <meta itemprop='headline' content='In limbo'>\n      <hr>\n  </div>\n  <div itemscope itemtype='http://schema.org/DiscussionForumPosting'>\n      <div class='creator'>\n        <span>\n          <a href='/u/Scott10'><b itemprop='author'>Scott10</b></a>\n          \n          <time datetime='2019-04-15T10:09:38Z' itemprop='datePublished'>\n            2019-04-15 10:09:38 UTC\n          </time>\n        </span>\n        <span itemprop='position'>#8</span>\n      </div>\n      <div class='post' itemprop='articleBody'>\n        <p>I have just come off the phone to the outpatients booking line. I was told I am in the “regular appointment” category, so not going to be put on any cancellation list.<br>\nAt least I tried.</p>\n      </div>\n      <meta itemprop='interactionCount' content='UserLikes:0'>\n      <meta itemprop='interactionCount' content='UserComments:1'>\n      <meta itemprop='headline' content='In limbo'>\n      <hr>\n  </div>\n  <div itemscope itemtype='http://schema.org/DiscussionForumPosting'>\n      <div class='creator'>\n        <span>\n          <a href='/u/Gerrard'><b itemprop='author'>Gerrard</b></a>\n          \n          <time datetime='2019-04-15T10:49:50Z' itemprop='datePublished'>\n            2019-04-15 10:49:50 UTC\n          </time>\n        </span>\n        <span itemprop='position'>#9</span>\n      </div>\n      <div class='post' itemprop='articleBody'>\n        <p>Don’t give up - keep trying. Ask to speak to the Neurologists secretary who will be responsible for his appointments and think of a very persuasive reason as to why she should squeeze you in. I have done this on more than one occasion with success.<br>\nGood Luck, Gerrard</p>\n      </div>\n      <meta itemprop='interactionCount' content='UserLikes:0'>\n      <meta itemprop='interactionCount' content='UserComments:1'>\n      <meta itemprop='headline' content='In limbo'>\n      <hr>\n  </div>\n  <div itemscope itemtype='http://schema.org/DiscussionForumPosting'>\n      <div class='creator'>\n        <span>\n          <a href='/u/Scott10'><b itemprop='author'>Scott10</b></a>\n          \n          <time datetime='2019-04-28T09:49:58Z' itemprop='datePublished'>\n            2019-04-28 09:49:58 UTC\n          </time>\n        </span>\n        <span itemprop='position'>#10</span>\n      </div>\n      <div class='post' itemprop='articleBody'>\n        <p>Out of the blue I received an appointments letter yesterday, without any further chasing from me they have brought forward my neuro appointment to 10th May, which is my 54th birthday!<br>\nFair play to them I thought. I haven’t just been forgotten about.<br>\nOn my birthday last year whilst cycling to work, I had the misfortune to have an accident and ended up in A+E, luckily I didn’t suffer too much damage. I hope this birthday medical trend doesn’t continue.<br>\nAnyway, not long to wait now.</p>\n<p>Scott</p>\n      </div>\n      <meta itemprop='interactionCount' content='UserLikes:0'>\n      <meta itemprop='interactionCount' content='UserComments:0'>\n      <meta itemprop='headline' content='In limbo'>\n      <hr>\n  </div>\n\n\n\n\n\n\n    </div>\n    <footer class=\"container\">\n      <nav class='crawler-nav' itemscope itemtype='http://schema.org/SiteNavigationElement'>\n        <a href='/'>Home</a>\n        <a href=\"/categories\">Categories</a>\n        <a href=\"/guidelines\">FAQ/Guidelines</a>\n        <a href=\"/tos\">Terms of Service</a>\n        <a href=\"/privacy\">Privacy Policy</a>\n      </nav>\n      <p class='powered-by-link'>Powered by <a href=\"https://www.discourse.org\">Discourse</a>, best viewed with JavaScript enabled</p>\n    </footer>\n    \n  </body>\n  \n</html>\n",
  "url": "https://forum.parkinsons.org.uk/t/in-limbo/18757"
}