{
  "contentId": "05c06090-886c-11e9-8f96-97f71b5221d6",
  "html": "<!DOCTYPE html>\n<html lang=\"en\">\n  <head>\n    <meta charset=\"utf-8\">\n    <title>Checking For Interest In A UK Parkinson&#39;s Therapy Centre - Ways to take control - Parkinson&#39;s UK Forum</title>\n    <meta name=\"description\" content=\"Hi, I am keen to gauge the level of UK demand that exists for the kind of services offered by the European Parkinson&amp;#39;s Therapy Centre in Italy.  Anyone who has had the good fortune to do the programme in Italy will ackno&amp;hellip;\">\n    <meta name=\"author\" content=\"\">\n<meta name=\"generator\" content=\"Discourse 2.2.5 - https://github.com/discourse/discourse version c294ff3609f988dcafb742e91606d60ca13b794d\">\n<link rel=\"icon\" type=\"image/png\" href=\"https://forum.parkinsons.org.uk/uploads/db7928/original/2X/3/311fc84f89f49f38601a2f16b295b6f03d3ce5dd.jpg\">\n<link rel=\"apple-touch-icon\" type=\"image/png\" href=\"https://forum.parkinsons.org.uk/uploads/db7928/original/2X/3/311fc84f89f49f38601a2f16b295b6f03d3ce5dd.jpg\">\n<meta name=\"theme-color\" content=\"#ffffff\">\n<meta name=\"viewport\" content=\"width=device-width, minimum-scale=1.0, maximum-scale=1.0, user-scalable=yes\">\n<link rel=\"canonical\" href=\"https://forum.parkinsons.org.uk/t/checking-for-interest-in-a-uk-parkinsons-therapy-centre/11201?page=2\" />\n<script type=\"application/ld+json\">{\"@context\":\"http://schema.org\",\"@type\":\"WebSite\",\"url\":\"https://forum.parkinsons.org.uk\",\"potentialAction\":{\"@type\":\"SearchAction\",\"target\":\"https://forum.parkinsons.org.uk/search?q={search_term_string}\",\"query-input\":\"required name=search_term_string\"}}</script>\n<link rel=\"search\" type=\"application/opensearchdescription+xml\" href=\"https://forum.parkinsons.org.uk/opensearch.xml\" title=\"Parkinson&#39;s UK Forum Search\">\n\n      <link href=\"/stylesheets/desktop_f99246ae801b083d3e4cca979d0dade8615b39ac.css?__ws=forum.parkinsons.org.uk\" media=\"all\" rel=\"stylesheet\" data-target=\"desktop\" data-theme-id=\"12\"/>\n      <link href=\"/stylesheets/desktop_theme_12_5d27531cf43f9df0c03a6a6ec3109dd05f9dfc49.css?__ws=forum.parkinsons.org.uk\" media=\"all\" rel=\"stylesheet\" data-target=\"desktop_theme\" data-theme-id=\"12\"/>\n    <link href=\"https://fonts.googleapis.com/css?family=Open+Sans\" rel=\"stylesheet\">\n\n    <meta id=\"data-ga-universal-analytics\" data-tracking-code=\"UA-4855628-1\" data-json=\"{&quot;cookieDomain&quot;:&quot;auto&quot;}\" data-auto-link-domains=\"\">\n\n<link rel='preload' href='/assets/google-universal-analytics-f35b4da49411e6f5559073523aab983da483976a3954c79c756f8579f6fbd6ef.js' as='script'/>\n<script src='/assets/google-universal-analytics-f35b4da49411e6f5559073523aab983da483976a3954c79c756f8579f6fbd6ef.js'></script>\n\n      <link rel=\"alternate\" type=\"application/rss+xml\" title=\"RSS feed of &#39;Checking For Interest In A UK Parkinson&#39;s Therapy Centre&#39;\" href=\"https://forum.parkinsons.org.uk/t/checking-for-interest-in-a-uk-parkinsons-therapy-centre/11201.rss\" />\n  <meta property=\"og:site_name\" content=\"Parkinson&#39;s UK Forum\" />\n<meta name=\"twitter:card\" content=\"summary\" />\n<meta name=\"twitter:image\" content=\"https://forum.parkinsons.org.uk/user_avatar/forum.parkinsons.org.uk/reah/200/1665_2.png\" />\n<meta property=\"og:image\" content=\"https://forum.parkinsons.org.uk/user_avatar/forum.parkinsons.org.uk/reah/200/1665_2.png\" />\n<meta property=\"og:url\" content=\"https://forum.parkinsons.org.uk/t/checking-for-interest-in-a-uk-parkinsons-therapy-centre/11201/21\" />\n<meta name=\"twitter:url\" content=\"https://forum.parkinsons.org.uk/t/checking-for-interest-in-a-uk-parkinsons-therapy-centre/11201/21\" />\n<meta property=\"og:title\" content=\"Checking For Interest In A UK Parkinson&#39;s Therapy Centre\" />\n<meta name=\"twitter:title\" content=\"Checking For Interest In A UK Parkinson&#39;s Therapy Centre\" />\n<meta property=\"og:description\" content=\"Hi @marianwalker and @Steph22,  Glad to see you’re both interested in the Fighting Fit opportunity, we have more information on the &#39;Living with Parkinson’s ’ section on the forum here - Get to know Fighting Fit  Best wishes,  Reah\" />\n<meta name=\"twitter:description\" content=\"Hi @marianwalker and @Steph22,  Glad to see you’re both interested in the Fighting Fit opportunity, we have more information on the &#39;Living with Parkinson’s ’ section on the forum here - Get to know Fighting Fit  Best wishes,  Reah\" />\n<meta property=\"article:published_time\" content=\"2019-03-11T16:08:19+00:00\" />\n<meta property=\"og:ignore_canonical\" content=\"true\" />\n\n\n\n    \n  </head>\n  <body class=\"crawler\">\n    <header role=\"banner\">\n    <div class=\"region region-header\">\n        <div class=\"region-header-wrapper\">\n            <div id=\"block-parkinsons-d8-branding\" class=\"block block-system block-system-branding-block\">\n                <a href=\"/\" title=\"Home\" rel=\"home\" class=\"site-logo\">\n                    <img src=\"https://forum.parkinsons.org.uk/uploads/db7928/original/2X/8/862bb7d172e7d127e7f3e147ec43594aa62ac945.png\" alt=\"Parkinson's UK. Change Attitudes. Find a cure. Join us.\">\n                </a>\n            </div>\n            <div id=\"block-helpline\" class=\"block block-block-content block-block-content871cd5af-b938-4947-9dc0-d5c211d08fe3 style-phone\">\n                <div class=\"field field--name-field-link field--type-link field--label-hidden field__item\"><a href=\"tel:+448088000303\">Helpline 0808 800 0303</a></div>\n            </div>\n            <div id=\"block-shop\" class=\"block block-block-content block-block-content6fba5ae5-7797-49cd-8367-f321d8111cd6 style-regular\">\n                <div class=\"field field--name-field-link field--type-link field--label-hidden field__item\"><a href=\"https://shop.parkinsons.org.uk\">Shop</a></div>\n            </div>\n        </div>\n    </div>\n</header>\n\n\n<script src=\"/theme-javascripts/b7e9763fcb584fc8265c56a9f557cd6d2e1e8ed8.js?__ws=forum.parkinsons.org.uk\"></script>\n    <header>\n      <a href=\"/\">\n          <img src=\"https://forum.parkinsons.org.uk/uploads/db7928/original/2X/8/862bb7d172e7d127e7f3e147ec43594aa62ac945.png\" alt=\"Parkinson&#39;s UK Forum\" id=\"site-logo\" style=\"max-width: 150px;\">\n      </a>\n    </header>\n    <div id=\"main-outlet\" class=\"wrap\">\n      <h1>\n  <a href=\"/t/checking-for-interest-in-a-uk-parkinsons-therapy-centre/11201\">Checking For Interest In A UK Parkinson&#39;s Therapy Centre</a>\n</h1>\n\n<div id='breadcrumbs'>\n    <div id=\"breadcrumb-0\" itemscope itemtype=\"http://data-vocabulary.org/Breadcrumb\"\n        itemref=\"breadcrumb-1\"\n      >\n      <a href=\"/c/taking-control\" itemprop=\"url\">\n        <span itemprop=\"title\">Taking Control</span>\n      </a>\n    </div>\n    <div id=\"breadcrumb-1\" itemscope itemtype=\"http://data-vocabulary.org/Breadcrumb\"\n>\n      <a href=\"/c/taking-control/ways-to-take-control\" itemprop=\"url\">\n        <span itemprop=\"title\">Ways to take control</span>\n      </a>\n    </div>\n</div>\n\n\n\n\n\n<hr>\n\n\n  <div itemscope itemtype='http://schema.org/DiscussionForumPosting'>\n      <div class='creator'>\n        <span>\n          <a href='/u/ANNE29'><b itemprop='author'>ANNE29</b></a>\n          \n          <time datetime='2018-01-13T13:45:15Z' itemprop='datePublished'>\n            2018-01-13 13:45:15 UTC\n          </time>\n        </span>\n        <span itemprop='position'>#3</span>\n      </div>\n      <div class='post' itemprop='articleBody'>\n        <p>Hi I am interested in this</p>\n      </div>\n      <meta itemprop='interactionCount' content='UserLikes:0'>\n      <meta itemprop='interactionCount' content='UserComments:0'>\n      <meta itemprop='headline' content='Checking For Interest In A UK Parkinson&#39;s Therapy Centre'>\n      <hr>\n  </div>\n  <div itemscope itemtype='http://schema.org/DiscussionForumPosting'>\n      <div class='creator'>\n        <span>\n          <a href='/u/Wildrover'><b itemprop='author'>Wildrover</b></a>\n          \n          <time datetime='2018-01-13T13:59:47Z' itemprop='datePublished'>\n            2018-01-13 13:59:47 UTC\n          </time>\n        </span>\n        <span itemprop='position'>#4</span>\n      </div>\n      <div class='post' itemprop='articleBody'>\n        <p>Yes definitley, I am thinking of going to Italy but would prefer the UK</p>\n      </div>\n      <meta itemprop='interactionCount' content='UserLikes:0'>\n      <meta itemprop='interactionCount' content='UserComments:0'>\n      <meta itemprop='headline' content='Checking For Interest In A UK Parkinson&#39;s Therapy Centre'>\n      <hr>\n  </div>\n  <div itemscope itemtype='http://schema.org/DiscussionForumPosting'>\n      <div class='creator'>\n        <span>\n          <a href='/u/Laney_star'><b itemprop='author'>Laney_star</b></a>\n          \n          <time datetime='2018-01-13T17:58:15Z' itemprop='datePublished'>\n            2018-01-13 17:58:15 UTC\n          </time>\n        </span>\n        <span itemprop='position'>#5</span>\n      </div>\n      <div class='post' itemprop='articleBody'>\n        <p>Hi yes I would like to have time at a place where you can learn about your illness have treatments and meet friends.</p>\n      </div>\n      <meta itemprop='interactionCount' content='UserLikes:0'>\n      <meta itemprop='interactionCount' content='UserComments:0'>\n      <meta itemprop='headline' content='Checking For Interest In A UK Parkinson&#39;s Therapy Centre'>\n      <hr>\n  </div>\n  <div itemscope itemtype='http://schema.org/DiscussionForumPosting'>\n      <div class='creator'>\n        <span>\n          <a href='/u/Marigold'><b itemprop='author'>Marigold</b></a>\n          \n          <time datetime='2018-01-14T12:04:43Z' itemprop='datePublished'>\n            2018-01-14 12:04:43 UTC\n          </time>\n        </span>\n        <span itemprop='position'>#6</span>\n      </div>\n      <div class='post' itemprop='articleBody'>\n        <p>Yes - would be very interested in this</p>\n      </div>\n      <meta itemprop='interactionCount' content='UserLikes:0'>\n      <meta itemprop='interactionCount' content='UserComments:0'>\n      <meta itemprop='headline' content='Checking For Interest In A UK Parkinson&#39;s Therapy Centre'>\n      <hr>\n  </div>\n  <div itemscope itemtype='http://schema.org/DiscussionForumPosting'>\n      <div class='creator'>\n        <span>\n          <a href='/u/PeterC'><b itemprop='author'>PeterC</b></a>\n          \n          <time datetime='2018-01-14T15:28:40Z' itemprop='datePublished'>\n            2018-01-14 15:28:40 UTC\n          </time>\n        </span>\n        <span itemprop='position'>#7</span>\n      </div>\n      <div class='post' itemprop='articleBody'>\n        <p>A centre is fine if you live close enough to access it. Which in my case is extremely unlikely.<br>So I'd not support the idea. <br>Disseminated, county-level, access to expertise such as PD.org provide is best: for the many not the few.<br>Peter</p>\n      </div>\n      <meta itemprop='interactionCount' content='UserLikes:0'>\n      <meta itemprop='interactionCount' content='UserComments:0'>\n      <meta itemprop='headline' content='Checking For Interest In A UK Parkinson&#39;s Therapy Centre'>\n      <hr>\n  </div>\n  <div itemscope itemtype='http://schema.org/DiscussionForumPosting'>\n      <div class='creator'>\n        <span>\n          <a href='/u/Ollyboo22'><b itemprop='author'>Ollyboo22</b></a>\n          \n          <time datetime='2018-02-04T16:09:24Z' itemprop='datePublished'>\n            2018-02-04 16:09:24 UTC\n          </time>\n        </span>\n        <span itemprop='position'>#8</span>\n      </div>\n      <div class='post' itemprop='articleBody'>\n        <p>Hi<br>\nI would be very interested. I see a private physio  about every three weeks… He works by trigger point therapy. I’ve not been due to being in neuro hospital for 4 weeks, I went just before Christmas and now struggling to most daily tasks due to pain and more frequent muscle spasms. It would be good to go and get a MOT…</p>\n      </div>\n      <meta itemprop='interactionCount' content='UserLikes:0'>\n      <meta itemprop='interactionCount' content='UserComments:0'>\n      <meta itemprop='headline' content='Checking For Interest In A UK Parkinson&#39;s Therapy Centre'>\n      <hr>\n  </div>\n  <div itemscope itemtype='http://schema.org/DiscussionForumPosting'>\n      <div class='creator'>\n        <span>\n          <a href='/u/Marita'><b itemprop='author'>Marita</b></a>\n          \n          <time datetime='2018-03-24T22:03:00Z' itemprop='datePublished'>\n            2018-03-24 22:03:00 UTC\n          </time>\n        </span>\n        <span itemprop='position'>#9</span>\n      </div>\n      <div class='post' itemprop='articleBody'>\n        <p>This sounds really interesting, and I’m sure my husband would be keen to visit such a centre of excellence.</p>\n      </div>\n      <meta itemprop='interactionCount' content='UserLikes:0'>\n      <meta itemprop='interactionCount' content='UserComments:0'>\n      <meta itemprop='headline' content='Checking For Interest In A UK Parkinson&#39;s Therapy Centre'>\n      <hr>\n  </div>\n  <div itemscope itemtype='http://schema.org/DiscussionForumPosting'>\n      <div class='creator'>\n        <span>\n          <a href='/u/Margs'><b itemprop='author'>Margs</b></a>\n          \n          <time datetime='2018-05-24T07:43:26Z' itemprop='datePublished'>\n            2018-05-24 07:43:26 UTC\n          </time>\n        </span>\n        <span itemprop='position'>#10</span>\n      </div>\n      <div class='post' itemprop='articleBody'>\n        <p>I would be interested.</p>\n      </div>\n      <meta itemprop='interactionCount' content='UserLikes:0'>\n      <meta itemprop='interactionCount' content='UserComments:0'>\n      <meta itemprop='headline' content='Checking For Interest In A UK Parkinson&#39;s Therapy Centre'>\n      <hr>\n  </div>\n  <div itemscope itemtype='http://schema.org/DiscussionForumPosting'>\n      <div class='creator'>\n        <span>\n          <a href='/u/gingermanor'><b itemprop='author'>gingermanor</b></a>\n          \n          <time datetime='2018-06-07T21:29:46Z' itemprop='datePublished'>\n            2018-06-07 21:29:46 UTC\n          </time>\n        </span>\n        <span itemprop='position'>#11</span>\n      </div>\n      <div class='post' itemprop='articleBody'>\n        <p>Very interested on behalf of my husband</p>\n      </div>\n      <meta itemprop='interactionCount' content='UserLikes:0'>\n      <meta itemprop='interactionCount' content='UserComments:0'>\n      <meta itemprop='headline' content='Checking For Interest In A UK Parkinson&#39;s Therapy Centre'>\n      <hr>\n  </div>\n  <div itemscope itemtype='http://schema.org/DiscussionForumPosting'>\n      <div class='creator'>\n        <span>\n          <a href='/u/Jane_L'><b itemprop='author'>Jane_L</b></a>\n          \n          <time datetime='2018-06-08T11:20:47Z' itemprop='datePublished'>\n            2018-06-08 11:20:47 UTC\n          </time>\n        </span>\n        <span itemprop='position'>#12</span>\n      </div>\n      <div class='post' itemprop='articleBody'>\n        <p>I’ve never heard of the Italian centre before.  How much does it cost?</p>\n      </div>\n      <meta itemprop='interactionCount' content='UserLikes:0'>\n      <meta itemprop='interactionCount' content='UserComments:0'>\n      <meta itemprop='headline' content='Checking For Interest In A UK Parkinson&#39;s Therapy Centre'>\n      <hr>\n  </div>\n  <div itemscope itemtype='http://schema.org/DiscussionForumPosting'>\n      <div class='creator'>\n        <span>\n          <a href='/u/Greenhaven'><b itemprop='author'>Greenhaven</b></a>\n          \n          <time datetime='2018-06-08T11:58:09Z' itemprop='datePublished'>\n            2018-06-08 11:58:09 UTC\n          </time>\n        </span>\n        <span itemprop='position'>#13</span>\n      </div>\n      <div class='post' itemprop='articleBody'>\n        <p>Hi Jane,</p>\n<p>Suggest you visit their website for more info at <a href=\"http://www.terapiaparkinson.it/en/\" rel=\"nofollow noopener\">http://www.terapiaparkinson.it/en/</a><br>\nThe fee for the week is €500 but you have to add hotel and travel.<br>\nMy wife and I went in Sept and we paid £1000 for the week for the hotel and full board and about £500 for air travel in addition to the programme fee.</p>\n<p>Hope this helps,<br>\nPeter</p>\n      </div>\n      <meta itemprop='interactionCount' content='UserLikes:0'>\n      <meta itemprop='interactionCount' content='UserComments:1'>\n      <meta itemprop='headline' content='Checking For Interest In A UK Parkinson&#39;s Therapy Centre'>\n      <hr>\n  </div>\n  <div itemscope itemtype='http://schema.org/DiscussionForumPosting'>\n      <div class='creator'>\n        <span>\n          <a href='/u/Jane_L'><b itemprop='author'>Jane_L</b></a>\n          \n          <time datetime='2018-06-08T13:02:54Z' itemprop='datePublished'>\n            2018-06-08 13:02:54 UTC\n          </time>\n        </span>\n        <span itemprop='position'>#14</span>\n      </div>\n      <div class='post' itemprop='articleBody'>\n        <aside class=\"quote no-group\" data-post=\"13\" data-topic=\"11201\">\n<div class=\"title\">\n<div class=\"quote-controls\"></div>\n<img alt width=\"20\" height=\"20\" src=\"//forum.parkinsons.org.uk/letter_avatar_proxy/v2/letter/g/f08c70/40.png\" class=\"avatar\"> Greenhaven:</div>\n<blockquote>\n<p><a href=\"http://www.terapiaparkinson.it/en/\" rel=\"nofollow noopener\">http://www.terapiaparkinson.it/en/</a></p>\n</blockquote>\n</aside>\n<p>Thanks</p>\n      </div>\n      <meta itemprop='interactionCount' content='UserLikes:0'>\n      <meta itemprop='interactionCount' content='UserComments:0'>\n      <meta itemprop='headline' content='Checking For Interest In A UK Parkinson&#39;s Therapy Centre'>\n      <hr>\n  </div>\n  <div itemscope itemtype='http://schema.org/DiscussionForumPosting'>\n      <div class='creator'>\n        <span>\n          <a href='/u/jjbxl'><b itemprop='author'>jjbxl</b></a>\n          \n          <time datetime='2018-12-25T15:53:49Z' itemprop='datePublished'>\n            2018-12-25 15:53:49 UTC\n          </time>\n        </span>\n        <span itemprop='position'>#15</span>\n      </div>\n      <div class='post' itemprop='articleBody'>\n        <p>Yes</p>\n      </div>\n      <meta itemprop='interactionCount' content='UserLikes:0'>\n      <meta itemprop='interactionCount' content='UserComments:0'>\n      <meta itemprop='headline' content='Checking For Interest In A UK Parkinson&#39;s Therapy Centre'>\n      <hr>\n  </div>\n  <div itemscope itemtype='http://schema.org/DiscussionForumPosting'>\n      <div class='creator'>\n        <span>\n          <a href='/u/Knine'><b itemprop='author'>Knine</b></a>\n          \n          <time datetime='2018-12-31T21:54:35Z' itemprop='datePublished'>\n            2018-12-31 21:54:35 UTC\n          </time>\n        </span>\n        <span itemprop='position'>#16</span>\n      </div>\n      <div class='post' itemprop='articleBody'>\n        <p>I am sure there must be loads of people who would be interested. i certainly hope so.</p>\n<p>Audrey</p>\n      </div>\n      <meta itemprop='interactionCount' content='UserLikes:0'>\n      <meta itemprop='interactionCount' content='UserComments:0'>\n      <meta itemprop='headline' content='Checking For Interest In A UK Parkinson&#39;s Therapy Centre'>\n      <hr>\n  </div>\n  <div itemscope itemtype='http://schema.org/DiscussionForumPosting'>\n      <div class='creator'>\n        <span>\n          <a href='/u/Marita'><b itemprop='author'>Marita</b></a>\n          \n          <time datetime='2019-01-13T17:34:44Z' itemprop='datePublished'>\n            2019-01-13 17:34:44 UTC\n          </time>\n        </span>\n        <span itemprop='position'>#17</span>\n      </div>\n      <div class='post' itemprop='articleBody'>\n        <p>This is a really interesting idea, and I think we’d be willing to make the trip from the Isle of Man, where we live, to a centre in the UK.</p>\n      </div>\n      <meta itemprop='interactionCount' content='UserLikes:0'>\n      <meta itemprop='interactionCount' content='UserComments:0'>\n      <meta itemprop='headline' content='Checking For Interest In A UK Parkinson&#39;s Therapy Centre'>\n      <hr>\n  </div>\n  <div itemscope itemtype='http://schema.org/DiscussionForumPosting'>\n      <div class='creator'>\n        <span>\n          <a href='/u/Greenhaven'><b itemprop='author'>Greenhaven</b></a>\n          \n          <time datetime='2019-01-13T19:30:34Z' itemprop='datePublished'>\n            2019-01-13 19:30:34 UTC\n          </time>\n        </span>\n        <span itemprop='position'>#18</span>\n      </div>\n      <div class='post' itemprop='articleBody'>\n        <p><strong>Hi Everyone,</strong><br>\nSince I started this post a year ago we have now developed a UK-based weekend residential programme called Fighting Fit which is designed for working-age people with Parkinson’s. This takes place in Aylesbury and we have three weekends planned for 2019 - March, July and October. The full details are on our website <a href=\"http://www.fighting-fit.org.uk/home/\" rel=\"nofollow noopener\">www.fighting-fit.org.uk/home/</a>. Our inaugural weekend event last November was awesome. Check it out.<br>\nYou can express interest by clicking <a href=\"https://fighting-fit.org.uk/contact-us/\" rel=\"nofollow noopener\">https://fighting-fit.org.uk/contact-us/</a>.<br>\nBest regards,</p>\n      </div>\n      <meta itemprop='interactionCount' content='UserLikes:0'>\n      <meta itemprop='interactionCount' content='UserComments:0'>\n      <meta itemprop='headline' content='Checking For Interest In A UK Parkinson&#39;s Therapy Centre'>\n      <hr>\n  </div>\n  <div itemscope itemtype='http://schema.org/DiscussionForumPosting'>\n      <div class='creator'>\n        <span>\n          <a href='/u/Steph22'><b itemprop='author'>Steph22</b></a>\n          \n          <time datetime='2019-03-09T17:30:56Z' itemprop='datePublished'>\n            2019-03-09 17:30:56 UTC\n          </time>\n        </span>\n        <span itemprop='position'>#19</span>\n      </div>\n      <div class='post' itemprop='articleBody'>\n        <p>Yes definitely, would be wonderful<br>\nI live in Norfolk and there isn’t even any PD warrior classes here <img src=\"https://forum.parkinsons.org.uk/images/emoji/twitter/weary.png?v=6\" title=\":weary:\" class=\"emoji\" alt=\":weary:\"></p>\n      </div>\n      <meta itemprop='interactionCount' content='UserLikes:0'>\n      <meta itemprop='interactionCount' content='UserComments:0'>\n      <meta itemprop='headline' content='Checking For Interest In A UK Parkinson&#39;s Therapy Centre'>\n      <hr>\n  </div>\n  <div itemscope itemtype='http://schema.org/DiscussionForumPosting'>\n      <div class='creator'>\n        <span>\n          <a href='/u/marianwalker'><b itemprop='author'>marianwalker</b></a>\n          \n          <time datetime='2019-03-09T18:46:01Z' itemprop='datePublished'>\n            2019-03-09 18:46:01 UTC\n          </time>\n        </span>\n        <span itemprop='position'>#20</span>\n      </div>\n      <div class='post' itemprop='articleBody'>\n        <p>Hi Greenhaven<br>\nMy husband would definitely be interested in this. We live in Suffolk</p>\n      </div>\n      <meta itemprop='interactionCount' content='UserLikes:0'>\n      <meta itemprop='interactionCount' content='UserComments:0'>\n      <meta itemprop='headline' content='Checking For Interest In A UK Parkinson&#39;s Therapy Centre'>\n      <hr>\n  </div>\n  <div itemscope itemtype='http://schema.org/DiscussionForumPosting'>\n      <div class='creator'>\n        <span>\n          <a href='/u/Reah'><b itemprop='author'>Reah</b></a>\n          \n          <time datetime='2019-03-11T16:08:19Z' itemprop='datePublished'>\n            2019-03-11 16:08:19 UTC\n          </time>\n        </span>\n        <span itemprop='position'>#21</span>\n      </div>\n      <div class='post' itemprop='articleBody'>\n        <p>Hi <a class=\"mention\" href=\"/u/marianwalker\">@marianwalker</a> and <a class=\"mention\" href=\"/u/steph22\">@Steph22</a>,</p>\n<p>Glad to see you’re both interested in the Fighting Fit opportunity, we have more information on the 'Living with Parkinson’s ’ section on the forum here - <a href=\"https://forum.parkinsons.org.uk/t/get-to-know-fighting-fit/18200\" class=\"inline-onebox\">Get to know Fighting Fit</a></p>\n<p>Best wishes,<br>\nReah</p>\n      </div>\n      <meta itemprop='interactionCount' content='UserLikes:0'>\n      <meta itemprop='interactionCount' content='UserComments:0'>\n      <meta itemprop='headline' content='Checking For Interest In A UK Parkinson&#39;s Therapy Centre'>\n      <hr>\n  </div>\n  <div itemscope itemtype='http://schema.org/DiscussionForumPosting'>\n      <div class='creator'>\n        <span>\n          <a href='/u/Plus1'><b itemprop='author'>Plus1</b></a>\n          \n          <time datetime='2019-05-11T09:39:13Z' itemprop='datePublished'>\n            2019-05-11 09:39:13 UTC\n          </time>\n        </span>\n        <span itemprop='position'>#22</span>\n      </div>\n      <div class='post' itemprop='articleBody'>\n        <p>Would very much be interested - my husband is 75 so no longer sits within the working age group although he didn’t retire until he was 73.</p>\n      </div>\n      <meta itemprop='interactionCount' content='UserLikes:0'>\n      <meta itemprop='interactionCount' content='UserComments:0'>\n      <meta itemprop='headline' content='Checking For Interest In A UK Parkinson&#39;s Therapy Centre'>\n      <hr>\n  </div>\n\n\n\n\n\n\n    </div>\n    <footer class=\"container\">\n      <nav class='crawler-nav' itemscope itemtype='http://schema.org/SiteNavigationElement'>\n        <a href='/'>Home</a>\n        <a href=\"/categories\">Categories</a>\n        <a href=\"/guidelines\">FAQ/Guidelines</a>\n        <a href=\"/tos\">Terms of Service</a>\n        <a href=\"/privacy\">Privacy Policy</a>\n      </nav>\n      <p class='powered-by-link'>Powered by <a href=\"https://www.discourse.org\">Discourse</a>, best viewed with JavaScript enabled</p>\n    </footer>\n    \n  </body>\n  \n</html>\n",
  "url": "https://forum.parkinsons.org.uk/t/checking-for-interest-in-a-uk-parkinsons-therapy-centre/11201?page=2"
}