{
  "contentId": "5a81c700-8870-11e9-8f96-97f71b5221d6",
  "html": "<!DOCTYPE html>\n<html lang=\"en\">\n  <head>\n    <meta charset=\"utf-8\">\n    <title>Barriers to getting a job - Work, benefits and money - Parkinson&#39;s UK Forum</title>\n    <meta name=\"description\" content=\"Hi All... just doing a bit of research into the barriers to employment that people with Parkinson&amp;#39;s, Parkinsonism&amp;#39;s face when applying for work.... if you could assist me in my request it would be appreciated. \">\n    <meta name=\"author\" content=\"\">\n<meta name=\"generator\" content=\"Discourse 2.2.5 - https://github.com/discourse/discourse version c294ff3609f988dcafb742e91606d60ca13b794d\">\n<link rel=\"icon\" type=\"image/png\" href=\"https://forum.parkinsons.org.uk/uploads/db7928/original/2X/3/311fc84f89f49f38601a2f16b295b6f03d3ce5dd.jpg\">\n<link rel=\"apple-touch-icon\" type=\"image/png\" href=\"https://forum.parkinsons.org.uk/uploads/db7928/original/2X/3/311fc84f89f49f38601a2f16b295b6f03d3ce5dd.jpg\">\n<meta name=\"theme-color\" content=\"#ffffff\">\n<meta name=\"viewport\" content=\"width=device-width, minimum-scale=1.0, maximum-scale=1.0, user-scalable=yes\">\n<link rel=\"canonical\" href=\"https://forum.parkinsons.org.uk/t/barriers-to-getting-a-job/9619\" />\n<script type=\"application/ld+json\">{\"@context\":\"http://schema.org\",\"@type\":\"WebSite\",\"url\":\"https://forum.parkinsons.org.uk\",\"potentialAction\":{\"@type\":\"SearchAction\",\"target\":\"https://forum.parkinsons.org.uk/search?q={search_term_string}\",\"query-input\":\"required name=search_term_string\"}}</script>\n<link rel=\"search\" type=\"application/opensearchdescription+xml\" href=\"https://forum.parkinsons.org.uk/opensearch.xml\" title=\"Parkinson&#39;s UK Forum Search\">\n\n      <link href=\"/stylesheets/desktop_f99246ae801b083d3e4cca979d0dade8615b39ac.css?__ws=forum.parkinsons.org.uk\" media=\"all\" rel=\"stylesheet\" data-target=\"desktop\" data-theme-id=\"12\"/>\n      <link href=\"/stylesheets/desktop_theme_12_5d27531cf43f9df0c03a6a6ec3109dd05f9dfc49.css?__ws=forum.parkinsons.org.uk\" media=\"all\" rel=\"stylesheet\" data-target=\"desktop_theme\" data-theme-id=\"12\"/>\n    <link href=\"https://fonts.googleapis.com/css?family=Open+Sans\" rel=\"stylesheet\">\n\n    <meta id=\"data-ga-universal-analytics\" data-tracking-code=\"UA-4855628-1\" data-json=\"{&quot;cookieDomain&quot;:&quot;auto&quot;}\" data-auto-link-domains=\"\">\n\n<link rel='preload' href='/assets/google-universal-analytics-f35b4da49411e6f5559073523aab983da483976a3954c79c756f8579f6fbd6ef.js' as='script'/>\n<script src='/assets/google-universal-analytics-f35b4da49411e6f5559073523aab983da483976a3954c79c756f8579f6fbd6ef.js'></script>\n\n      <link rel=\"alternate\" type=\"application/rss+xml\" title=\"RSS feed of &#39;Barriers to getting a job&#39;\" href=\"https://forum.parkinsons.org.uk/t/barriers-to-getting-a-job/9619.rss\" />\n  <meta property=\"og:site_name\" content=\"Parkinson&#39;s UK Forum\" />\n<meta name=\"twitter:card\" content=\"summary\" />\n<meta name=\"twitter:image\" content=\"https://forum.parkinsons.org.uk/uploads/db7928/original/2X/3/311fc84f89f49f38601a2f16b295b6f03d3ce5dd.jpg\" />\n<meta property=\"og:image\" content=\"https://forum.parkinsons.org.uk/uploads/db7928/original/2X/3/311fc84f89f49f38601a2f16b295b6f03d3ce5dd.jpg\" />\n<meta property=\"og:url\" content=\"https://forum.parkinsons.org.uk/t/barriers-to-getting-a-job/9619\" />\n<meta name=\"twitter:url\" content=\"https://forum.parkinsons.org.uk/t/barriers-to-getting-a-job/9619\" />\n<meta property=\"og:title\" content=\"Barriers to getting a job\" />\n<meta name=\"twitter:title\" content=\"Barriers to getting a job\" />\n<meta property=\"og:description\" content=\"Hi All... just doing a bit of research into the barriers to employment that people with Parkinson&#39;s, Parkinsonism&#39;s face when applying for work.... if you could assist me in my request it would be appreciated. \" />\n<meta name=\"twitter:description\" content=\"Hi All... just doing a bit of research into the barriers to employment that people with Parkinson&#39;s, Parkinsonism&#39;s face when applying for work.... if you could assist me in my request it would be appreciated. \" />\n<meta property=\"article:published_time\" content=\"2016-12-20T15:48:31+00:00\" />\n<meta property=\"og:ignore_canonical\" content=\"true\" />\n\n\n\n    \n  </head>\n  <body class=\"crawler\">\n    <header role=\"banner\">\n    <div class=\"region region-header\">\n        <div class=\"region-header-wrapper\">\n            <div id=\"block-parkinsons-d8-branding\" class=\"block block-system block-system-branding-block\">\n                <a href=\"/\" title=\"Home\" rel=\"home\" class=\"site-logo\">\n                    <img src=\"https://forum.parkinsons.org.uk/uploads/db7928/original/2X/8/862bb7d172e7d127e7f3e147ec43594aa62ac945.png\" alt=\"Parkinson's UK. Change Attitudes. Find a cure. Join us.\">\n                </a>\n            </div>\n            <div id=\"block-helpline\" class=\"block block-block-content block-block-content871cd5af-b938-4947-9dc0-d5c211d08fe3 style-phone\">\n                <div class=\"field field--name-field-link field--type-link field--label-hidden field__item\"><a href=\"tel:+448088000303\">Helpline 0808 800 0303</a></div>\n            </div>\n            <div id=\"block-shop\" class=\"block block-block-content block-block-content6fba5ae5-7797-49cd-8367-f321d8111cd6 style-regular\">\n                <div class=\"field field--name-field-link field--type-link field--label-hidden field__item\"><a href=\"https://shop.parkinsons.org.uk\">Shop</a></div>\n            </div>\n        </div>\n    </div>\n</header>\n\n\n<script src=\"/theme-javascripts/b7e9763fcb584fc8265c56a9f557cd6d2e1e8ed8.js?__ws=forum.parkinsons.org.uk\"></script>\n    <header>\n      <a href=\"/\">\n          <img src=\"https://forum.parkinsons.org.uk/uploads/db7928/original/2X/8/862bb7d172e7d127e7f3e147ec43594aa62ac945.png\" alt=\"Parkinson&#39;s UK Forum\" id=\"site-logo\" style=\"max-width: 150px;\">\n      </a>\n    </header>\n    <div id=\"main-outlet\" class=\"wrap\">\n      <h1>\n  <a href=\"/t/barriers-to-getting-a-job/9619\">Barriers to getting a job</a>\n</h1>\n\n<div id='breadcrumbs'>\n    <div id=\"breadcrumb-0\" itemscope itemtype=\"http://data-vocabulary.org/Breadcrumb\"\n        itemref=\"breadcrumb-1\"\n      >\n      <a href=\"/c/living-with-parkinsons\" itemprop=\"url\">\n        <span itemprop=\"title\">Living with Parkinson&#39;s</span>\n      </a>\n    </div>\n    <div id=\"breadcrumb-1\" itemscope itemtype=\"http://data-vocabulary.org/Breadcrumb\"\n>\n      <a href=\"/c/living-with-parkinsons/work-benefits-and-money\" itemprop=\"url\">\n        <span itemprop=\"title\">Work, benefits and money</span>\n      </a>\n    </div>\n</div>\n\n\n\n\n\n<hr>\n\n\n  <div itemscope itemtype='http://schema.org/DiscussionForumPosting'>\n      <div class='creator'>\n        <span>\n          <a href='/u/Shakey_Paul'><b itemprop='author'>Shakey_Paul</b></a>\n          \n          <time datetime='2016-12-20T15:48:31Z' itemprop='datePublished'>\n            2016-12-20 15:48:31 UTC\n          </time>\n        </span>\n        <span itemprop='position'>#1</span>\n      </div>\n      <div class='post' itemprop='articleBody'>\n        <p>Hi All... just doing a bit of research into the barriers to employment&nbsp;that people with Parkinson&#39;s, Parkinsonism&#39;s face when applying for work.... if you could assist me in my request it would be appreciated.&nbsp;</p>\n      </div>\n      <meta itemprop='interactionCount' content='UserLikes:0'>\n      <meta itemprop='interactionCount' content='UserComments:0'>\n      <meta itemprop='headline' content='Barriers to getting a job'>\n      <hr>\n  </div>\n  <div itemscope itemtype='http://schema.org/DiscussionForumPosting'>\n      <div class='creator'>\n        <span>\n          <a href='/u/Jackson'><b itemprop='author'>Jackson</b></a>\n          \n          <time datetime='2016-12-21T01:00:36Z' itemprop='datePublished'>\n            2016-12-21 01:00:36 UTC\n          </time>\n        </span>\n        <span itemprop='position'>#2</span>\n      </div>\n      <div class='post' itemprop='articleBody'>\n        Hi, I'm currently trying to keep my job and I suspect that the barriers to staying in employment are similar to the barriers to getting employment.\r\n\r\n Firstly, employers think that pwp are going to be expensive. I know that my employers are planning to take a fairly aggressive stance on absence in order to save money (and they think I'm going to need significant amounts of time off in the future); I also can't imagine that they are thrilled at the possibility of ill health retirement and they have already dragged their heels on reasonable adjustments that cost money. Linked to this, managing pwp in the workplace can take time as their symptoms progress ( more cost implications)\r\n\r\nSecondly, pwp don't look 'right' - my job is public facing and I don't think that my employers think that Parkinson's symptoms  go down well with the public - and sadly, I have to agree. \r\n\r\nAlso, I think there is a degree of doubt as to our ability to actually to perform well enough in any given job anyway! \r\n\r\nI'm sure that others have had very different experiences but personally, I'd say that concerns about expense and appearance rate pretty highly as barriers to employment.  Hmmm, a guaranteed anonymous questionnaire to employers might shed more light if they were willing to be honest. Too tricky to organise sadly .... \r\nJ\n      </div>\n      <meta itemprop='interactionCount' content='UserLikes:0'>\n      <meta itemprop='interactionCount' content='UserComments:0'>\n      <meta itemprop='headline' content='Barriers to getting a job'>\n      <hr>\n  </div>\n  <div itemscope itemtype='http://schema.org/DiscussionForumPosting'>\n      <div class='creator'>\n        <span>\n          <a href='/u/Shakey_Paul'><b itemprop='author'>Shakey_Paul</b></a>\n          \n          <time datetime='2016-12-21T23:32:17Z' itemprop='datePublished'>\n            2016-12-21 23:32:17 UTC\n          </time>\n        </span>\n        <span itemprop='position'>#3</span>\n      </div>\n      <div class='post' itemprop='articleBody'>\n        <p>Hi Jackson,</p>\r\n<p>Thanks for your response as this is exactly the type of information I need, the barriers you encounter whilst working are just as important as the ones you find when applying for work.</p>\r\n<p>I&#39;ve encountered many barriers as my tremors have got worse, I have even got letters from Consultants to say I&#39;m not a alcoholic because people have used my disability against me for their own gain, I can&#39;t put into words&nbsp;how this has affected my confidence over the years.</p>\r\n<p>I&#39;m looking to do something with the DWP as there is a window of opportunity, contacting Employers will be a part of that process of putting a scheme together, if we know the pitfalls you can explain them to the employer. Your idea for a questionnaire is a good one so if you&#39;d like to offer some questions that I could ask it would be appreciated.</p>\r\n<p>I did ask Parkinson&#39;s for assistance and they directed me to this forum as a means of a resource, hope more will come forward with ideas... as with most problems you have to find the solution, we can all but try.</p>\r\n<p>&nbsp;</p>\n      </div>\n      <meta itemprop='interactionCount' content='UserLikes:0'>\n      <meta itemprop='interactionCount' content='UserComments:0'>\n      <meta itemprop='headline' content='Barriers to getting a job'>\n      <hr>\n  </div>\n\n\n\n\n\n\n    </div>\n    <footer class=\"container\">\n      <nav class='crawler-nav' itemscope itemtype='http://schema.org/SiteNavigationElement'>\n        <a href='/'>Home</a>\n        <a href=\"/categories\">Categories</a>\n        <a href=\"/guidelines\">FAQ/Guidelines</a>\n        <a href=\"/tos\">Terms of Service</a>\n        <a href=\"/privacy\">Privacy Policy</a>\n      </nav>\n      <p class='powered-by-link'>Powered by <a href=\"https://www.discourse.org\">Discourse</a>, best viewed with JavaScript enabled</p>\n    </footer>\n    \n  </body>\n  \n</html>\n",
  "url": "https://forum.parkinsons.org.uk/t/barriers-to-getting-a-job/9619"
}