{
  "contentId": "87573fa0-8864-11e9-8f96-97f71b5221d6",
  "html": "<!DOCTYPE html>\n<html lang=\"en\">\n  <head>\n    <meta charset=\"utf-8\">\n    <title>Newly diagnosed  - Introductions and personal stories - Parkinson&#39;s UK Forum</title>\n    <meta name=\"description\" content=\"I have had tremors in my legs for about 14 years. I cant remember the last time I could  smell anything and have developed quite a few other symptoms over the last 3 years. I woke up witb a numb right forearm, part of my&amp;hellip;\">\n    <meta name=\"author\" content=\"\">\n<meta name=\"generator\" content=\"Discourse 2.2.5 - https://github.com/discourse/discourse version c294ff3609f988dcafb742e91606d60ca13b794d\">\n<link rel=\"icon\" type=\"image/png\" href=\"https://forum.parkinsons.org.uk/uploads/db7928/original/2X/3/311fc84f89f49f38601a2f16b295b6f03d3ce5dd.jpg\">\n<link rel=\"apple-touch-icon\" type=\"image/png\" href=\"https://forum.parkinsons.org.uk/uploads/db7928/original/2X/3/311fc84f89f49f38601a2f16b295b6f03d3ce5dd.jpg\">\n<meta name=\"theme-color\" content=\"#ffffff\">\n<meta name=\"viewport\" content=\"width=device-width, minimum-scale=1.0, maximum-scale=1.0, user-scalable=yes\">\n<link rel=\"canonical\" href=\"https://forum.parkinsons.org.uk/t/newly-diagnosed/19176\" />\n<script type=\"application/ld+json\">{\"@context\":\"http://schema.org\",\"@type\":\"WebSite\",\"url\":\"https://forum.parkinsons.org.uk\",\"potentialAction\":{\"@type\":\"SearchAction\",\"target\":\"https://forum.parkinsons.org.uk/search?q={search_term_string}\",\"query-input\":\"required name=search_term_string\"}}</script>\n<link rel=\"search\" type=\"application/opensearchdescription+xml\" href=\"https://forum.parkinsons.org.uk/opensearch.xml\" title=\"Parkinson&#39;s UK Forum Search\">\n\n      <link href=\"/stylesheets/desktop_f99246ae801b083d3e4cca979d0dade8615b39ac.css?__ws=forum.parkinsons.org.uk\" media=\"all\" rel=\"stylesheet\" data-target=\"desktop\" data-theme-id=\"12\"/>\n      <link href=\"/stylesheets/desktop_theme_12_5d27531cf43f9df0c03a6a6ec3109dd05f9dfc49.css?__ws=forum.parkinsons.org.uk\" media=\"all\" rel=\"stylesheet\" data-target=\"desktop_theme\" data-theme-id=\"12\"/>\n    <link href=\"https://fonts.googleapis.com/css?family=Open+Sans\" rel=\"stylesheet\">\n\n    <meta id=\"data-ga-universal-analytics\" data-tracking-code=\"UA-4855628-1\" data-json=\"{&quot;cookieDomain&quot;:&quot;auto&quot;}\" data-auto-link-domains=\"\">\n\n<link rel='preload' href='/assets/google-universal-analytics-f35b4da49411e6f5559073523aab983da483976a3954c79c756f8579f6fbd6ef.js' as='script'/>\n<script src='/assets/google-universal-analytics-f35b4da49411e6f5559073523aab983da483976a3954c79c756f8579f6fbd6ef.js'></script>\n\n      <link rel=\"alternate\" type=\"application/rss+xml\" title=\"RSS feed of &#39;Newly diagnosed &#39;\" href=\"https://forum.parkinsons.org.uk/t/newly-diagnosed/19176.rss\" />\n  <meta property=\"og:site_name\" content=\"Parkinson&#39;s UK Forum\" />\n<meta name=\"twitter:card\" content=\"summary\" />\n<meta name=\"twitter:image\" content=\"https://forum.parkinsons.org.uk/uploads/db7928/original/2X/3/311fc84f89f49f38601a2f16b295b6f03d3ce5dd.jpg\" />\n<meta property=\"og:image\" content=\"https://forum.parkinsons.org.uk/uploads/db7928/original/2X/3/311fc84f89f49f38601a2f16b295b6f03d3ce5dd.jpg\" />\n<meta property=\"og:url\" content=\"https://forum.parkinsons.org.uk/t/newly-diagnosed/19176\" />\n<meta name=\"twitter:url\" content=\"https://forum.parkinsons.org.uk/t/newly-diagnosed/19176\" />\n<meta property=\"og:title\" content=\"Newly diagnosed \" />\n<meta name=\"twitter:title\" content=\"Newly diagnosed \" />\n<meta property=\"og:description\" content=\"I have had tremors in my legs for about 14 years. I cant remember the last time I could  smell anything and have developed quite a few other symptoms over the last 3 years. I woke up witb a numb right forearm, part of my left leg went numb whilst in Italy, these have never improved. I have severe constipation, shuffle when walking, have 3d vision, memory problems, difficulty swsllowing even saliva sometimes etc etc. I have seen 3 NHS Neurologists who have all said something different and fobbed ...\" />\n<meta name=\"twitter:description\" content=\"I have had tremors in my legs for about 14 years. I cant remember the last time I could  smell anything and have developed quite a few other symptoms over the last 3 years. I woke up witb a numb right forearm, part of my left leg went numb whilst in Italy, these have never improved. I have severe constipation, shuffle when walking, have 3d vision, memory problems, difficulty swsllowing even saliva sometimes etc etc. I have seen 3 NHS Neurologists who have all said something different and fobbed ...\" />\n<meta property=\"article:published_time\" content=\"2019-05-09T09:34:50+00:00\" />\n<meta property=\"og:ignore_canonical\" content=\"true\" />\n\n\n\n    \n  </head>\n  <body class=\"crawler\">\n    <header role=\"banner\">\n    <div class=\"region region-header\">\n        <div class=\"region-header-wrapper\">\n            <div id=\"block-parkinsons-d8-branding\" class=\"block block-system block-system-branding-block\">\n                <a href=\"/\" title=\"Home\" rel=\"home\" class=\"site-logo\">\n                    <img src=\"https://forum.parkinsons.org.uk/uploads/db7928/original/2X/8/862bb7d172e7d127e7f3e147ec43594aa62ac945.png\" alt=\"Parkinson's UK. Change Attitudes. Find a cure. Join us.\">\n                </a>\n            </div>\n            <div id=\"block-helpline\" class=\"block block-block-content block-block-content871cd5af-b938-4947-9dc0-d5c211d08fe3 style-phone\">\n                <div class=\"field field--name-field-link field--type-link field--label-hidden field__item\"><a href=\"tel:+448088000303\">Helpline 0808 800 0303</a></div>\n            </div>\n            <div id=\"block-shop\" class=\"block block-block-content block-block-content6fba5ae5-7797-49cd-8367-f321d8111cd6 style-regular\">\n                <div class=\"field field--name-field-link field--type-link field--label-hidden field__item\"><a href=\"https://shop.parkinsons.org.uk\">Shop</a></div>\n            </div>\n        </div>\n    </div>\n</header>\n\n\n<script src=\"/theme-javascripts/b7e9763fcb584fc8265c56a9f557cd6d2e1e8ed8.js?__ws=forum.parkinsons.org.uk\"></script>\n    <header>\n      <a href=\"/\">\n          <img src=\"https://forum.parkinsons.org.uk/uploads/db7928/original/2X/8/862bb7d172e7d127e7f3e147ec43594aa62ac945.png\" alt=\"Parkinson&#39;s UK Forum\" id=\"site-logo\" style=\"max-width: 150px;\">\n      </a>\n    </header>\n    <div id=\"main-outlet\" class=\"wrap\">\n      <h1>\n  <a href=\"/t/newly-diagnosed/19176\">Newly diagnosed </a>\n</h1>\n\n<div id='breadcrumbs'>\n    <div id=\"breadcrumb-0\" itemscope itemtype=\"http://data-vocabulary.org/Breadcrumb\"\n        itemref=\"breadcrumb-1\"\n      >\n      <a href=\"/c/about-me\" itemprop=\"url\">\n        <span itemprop=\"title\">About me</span>\n      </a>\n    </div>\n    <div id=\"breadcrumb-1\" itemscope itemtype=\"http://data-vocabulary.org/Breadcrumb\"\n>\n      <a href=\"/c/about-me/introductions-and-personal-stories\" itemprop=\"url\">\n        <span itemprop=\"title\">Introductions and personal stories</span>\n      </a>\n    </div>\n</div>\n\n\n\n\n\n<hr>\n\n\n  <div itemscope itemtype='http://schema.org/DiscussionForumPosting'>\n      <div class='creator'>\n        <span>\n          <a href='/u/Michelle65'><b itemprop='author'>Michelle65</b></a>\n          \n          <time datetime='2019-05-09T09:34:50Z' itemprop='datePublished'>\n            2019-05-09 09:34:50 UTC\n          </time>\n        </span>\n        <span itemprop='position'>#1</span>\n      </div>\n      <div class='post' itemprop='articleBody'>\n        <p>I have had tremors in my legs for about 14 years. I cant remember the last time I could  smell anything and have developed quite a few other symptoms over the last 3 years. I woke up witb a numb right forearm, part of my left leg went numb whilst in Italy, these have never improved. I have severe constipation, shuffle when walking, have 3d vision, memory problems, difficulty swsllowing even saliva sometimes etc etc. I have seen 3 NHS Neurologists who have all said something different and fobbed me off basically saying it is in my head  One said I had PTSD cos my father sexually abused me as a child. My hubby and I knew that this wasnt right so we paid to see a private movement neurologist and a private head MRI. She says that I have stenosis of the spine and early stages PD. The tremors are getting worse, I have right side weakness, I hadnt noticed that I dont move my right arm when walking but she did. She was extremely thorough. The scan showed something in the madtoid area of my ear which she is going to speak to my GP about as I have just started with vertigo. There is also more fluid at the front of my brain than should be. She has recommended different drugs, a full body MRI, memory tests and a Datscan. To have theses done private will cost a fortune do she is sending the report and recommendations to my GP to sort out. I am so frustrated and let down by the NHS Neurologists I saw but also worried and a little scared of how the PD is going to pyogress and what impact it will have on my lovely hubby of 32 years. Can I also ask a personal question - does PD affect your sex life and does it set off tremors for anyone else?</p>\n      </div>\n      <meta itemprop='interactionCount' content='UserLikes:0'>\n      <meta itemprop='interactionCount' content='UserComments:0'>\n      <meta itemprop='headline' content='Newly diagnosed '>\n      <hr>\n  </div>\n  <div itemscope itemtype='http://schema.org/DiscussionForumPosting'>\n      <div class='creator'>\n        <span>\n          <a href='/u/Reah'><b itemprop='author'>Reah</b></a>\n          \n          <time datetime='2019-05-09T10:56:04Z' itemprop='datePublished'>\n            2019-05-09 10:56:04 UTC\n          </time>\n        </span>\n        <span itemprop='position'>#2</span>\n      </div>\n      <div class='post' itemprop='articleBody'>\n        <p>Hi <a class=\"mention\" href=\"/u/michelle65\">@Michelle65</a>,</p>\n<p>A warm welcome to the forum. <img src=\"https://forum.parkinsons.org.uk/images/emoji/twitter/slightly_smiling_face.png?v=6\" title=\":slightly_smiling_face:\" class=\"emoji\" alt=\":slightly_smiling_face:\"></p>\n<p>First of all, being diagnosed with Parkinson’s can trigger a range of emotions with it, but there is a lot of support out there to help you take control. Signing up to this forum is a great start, there are loads of people here who have gone through exactly what you are facing now.</p>\n<p>It’s really unfortunate that you’ve had such a bad experience with the NHS, particularly with the neurologists you’ve encountered - I’m truly sorry that you had to go through that. I think you made a good decision to go private; now that you’ve been diagnosed, I think you’ll find the 'newly diagnosed section on our website incredibly helpful. It has information on all the support available to you as well as information and support events that are designed for people who are newly diagnosed with Parkinson’s. You can find this information here - <a href=\"https://www.parkinsons.org.uk/information-and-support/newly-diagnosed-parkinsons\" rel=\"nofollow noopener\">https://www.parkinsons.org.uk/information-and-support/newly-diagnosed-parkinsons</a>.</p>\n<p>We also know that the topic of sex can be quite sensitive and uncomfortable to talk about which is why we have an entire section on website dedicated to it, you can find it here - <a href=\"https://www.parkinsons.org.uk/information-and-support/sex-and-parkinsons\" rel=\"nofollow noopener\">https://www.parkinsons.org.uk/information-and-support/sex-and-parkinsons</a>. This has been quite a common topic on the forum in the past so I’m sure you’ll receive a lot supportive comments from your fellow members.</p>\n<p>Lastly, our helpline is also available to you, if you’d like to speak with a specialist about your worries at the moment. You can call them on 0808 800 0303 from Monday-Friday: 9am-7pm, Saturday: 10am-2pm, or you can email <a href=\"/cdn-cgi/l/email-protection#adc5c8c1c1c2edddccdfc6c4c3dec2c3de83c2dfca83d8c6\"><span class=\"__cf_email__\" data-cfemail=\"b9d1dcd5d5d6f9c9d8cbd2d0d7cad6d7ca97d6cbde97ccd2\">[email&#160;protected]</span></a>.</p>\n<p>I hope you find this information useful.</p>\n<p>Best wishes,<br>\nReah<br>\nForum Community Manager</p>\n      </div>\n      <meta itemprop='interactionCount' content='UserLikes:0'>\n      <meta itemprop='interactionCount' content='UserComments:0'>\n      <meta itemprop='headline' content='Newly diagnosed '>\n      <hr>\n  </div>\n  <div itemscope itemtype='http://schema.org/DiscussionForumPosting'>\n      <div class='creator'>\n        <span>\n          <a href='/u/eubielicious'><b itemprop='author'>eubielicious</b></a>\n          \n          <time datetime='2019-05-11T11:06:42Z' itemprop='datePublished'>\n            2019-05-11 11:06:42 UTC\n          </time>\n        </span>\n        <span itemprop='position'>#3</span>\n      </div>\n      <div class='post' itemprop='articleBody'>\n        <p>Hi Michelle,</p>\n<p>Welcome to the group. I’m newly diagnosed myself so am still coming to terms with it and trying to reorient my life somewhat. I was fortunate in that the neurologist I saw was a bit odd but he didn’t fob me off and was quick to make his diagnosis. I’m waiting to hear from the PD nurses now and at least I have an answer and a way forward (exercise seems to be very important)!</p>\n<p>I’m also thinking about my wife (we’ve been married for 13 years) but she’s determined that we are going to make the best of the situation.</p>\n<p>Take care,</p>\n<p>Euan</p>\n      </div>\n      <meta itemprop='interactionCount' content='UserLikes:0'>\n      <meta itemprop='interactionCount' content='UserComments:0'>\n      <meta itemprop='headline' content='Newly diagnosed '>\n      <hr>\n  </div>\n  <div itemscope itemtype='http://schema.org/DiscussionForumPosting'>\n      <div class='creator'>\n        <span>\n          <a href='/u/frosty'><b itemprop='author'>frosty</b></a>\n          \n          <time datetime='2019-05-11T19:09:10Z' itemprop='datePublished'>\n            2019-05-11 19:09:10 UTC\n          </time>\n        </span>\n        <span itemprop='position'>#4</span>\n      </div>\n      <div class='post' itemprop='articleBody'>\n        <p>Dear Michelle,<br>\nCompared to you my diagnosis of PD was picked up by the first neurologist, my GP referred to. And an MRI scan to rule   out   tumours, stroke history etc… All on NHS.<br>\nDoes PD effect your sex life, you ask? YES…in my case, being a 73year old man,  erectile dysfunction is 100%. Diagnosed 10 years with PD. And no sex for over 9 years. I am married, but it doesn’t worry me at all.</p>\n      </div>\n      <meta itemprop='interactionCount' content='UserLikes:0'>\n      <meta itemprop='interactionCount' content='UserComments:0'>\n      <meta itemprop='headline' content='Newly diagnosed '>\n      <hr>\n  </div>\n  <div itemscope itemtype='http://schema.org/DiscussionForumPosting'>\n      <div class='creator'>\n        <span>\n          <a href='/u/Gerrard'><b itemprop='author'>Gerrard</b></a>\n          \n          <time datetime='2019-05-12T12:20:55Z' itemprop='datePublished'>\n            2019-05-12 12:20:55 UTC\n          </time>\n        </span>\n        <span itemprop='position'>#5</span>\n      </div>\n      <div class='post' itemprop='articleBody'>\n        <p>Hi Michelle<br>\nThere are two problems you raise which I wish to comment on. First, I have suffered quite seriously from Constipation about which you can read elsewhere on this forum. After much experimentation I found the best treatment for myself was to take two Laxido Powders every night. This resolved my major problem of constipation but taking laxatives also brings its own problem of loose bowels. I have to try and ensure my bowels are evacuated before I can leave home in the morning to avoid “Accidents” when I am away from home. Secondly, you ask if PD affects your sex life. Whilst Frosty’s experience of erectile problems may well apply to himself, this has been far from my own experience and that of many others who have PD.<br>\nIndeed, you can also read elsewhere on this forum of  those who have experienced the opposite problem of increased sexual arousal.  I hope my comments remove some of the anxiety you may feel.   Best Wishes, Gerrard</p>\n      </div>\n      <meta itemprop='interactionCount' content='UserLikes:0'>\n      <meta itemprop='interactionCount' content='UserComments:0'>\n      <meta itemprop='headline' content='Newly diagnosed '>\n      <hr>\n  </div>\n  <div itemscope itemtype='http://schema.org/DiscussionForumPosting'>\n      <div class='creator'>\n        <span>\n          <a href='/u/Michelle65'><b itemprop='author'>Michelle65</b></a>\n          \n          <time datetime='2019-05-13T10:23:44Z' itemprop='datePublished'>\n            2019-05-13 10:23:44 UTC\n          </time>\n        </span>\n        <span itemprop='position'>#6</span>\n      </div>\n      <div class='post' itemprop='articleBody'>\n        <p>Thank you for your feedback everyone and I will take a look at the relevant sections you have mentioned. I am so glad to have found some support.</p>\n      </div>\n      <meta itemprop='interactionCount' content='UserLikes:0'>\n      <meta itemprop='interactionCount' content='UserComments:0'>\n      <meta itemprop='headline' content='Newly diagnosed '>\n      <hr>\n  </div>\n\n\n\n\n\n\n    </div>\n    <footer class=\"container\">\n      <nav class='crawler-nav' itemscope itemtype='http://schema.org/SiteNavigationElement'>\n        <a href='/'>Home</a>\n        <a href=\"/categories\">Categories</a>\n        <a href=\"/guidelines\">FAQ/Guidelines</a>\n        <a href=\"/tos\">Terms of Service</a>\n        <a href=\"/privacy\">Privacy Policy</a>\n      </nav>\n      <p class='powered-by-link'>Powered by <a href=\"https://www.discourse.org\">Discourse</a>, best viewed with JavaScript enabled</p>\n    </footer>\n    \n  <script data-cfasync=\"false\" src=\"/cdn-cgi/scripts/5c5dd728/cloudflare-static/email-decode.min.js\"></script></body>\n  \n</html>\n",
  "url": "https://forum.parkinsons.org.uk/t/newly-diagnosed/19176"
}