{
  "contentId": "a90499c0-886b-11e9-8f96-97f71b5221d6",
  "html": "<!DOCTYPE html>\n<html lang=\"en\">\n  <head>\n    <meta charset=\"utf-8\">\n    <title>Gambling - Impulsive and compulsive behaviour - Parkinson&#39;s UK Forum</title>\n    <meta name=\"description\" content=\"hi \r\nsince being prescribed a dopomine agonist ive found it hard to stop gambling. \r\nive always liked a flutter but recently its got worse. Not financially a problem as I gamble with small stakes but they add up and im n&amp;hellip;\">\n    <meta name=\"author\" content=\"\">\n<meta name=\"generator\" content=\"Discourse 2.2.5 - https://github.com/discourse/discourse version c294ff3609f988dcafb742e91606d60ca13b794d\">\n<link rel=\"icon\" type=\"image/png\" href=\"https://forum.parkinsons.org.uk/uploads/db7928/original/2X/3/311fc84f89f49f38601a2f16b295b6f03d3ce5dd.jpg\">\n<link rel=\"apple-touch-icon\" type=\"image/png\" href=\"https://forum.parkinsons.org.uk/uploads/db7928/original/2X/3/311fc84f89f49f38601a2f16b295b6f03d3ce5dd.jpg\">\n<meta name=\"theme-color\" content=\"#ffffff\">\n<meta name=\"viewport\" content=\"width=device-width, minimum-scale=1.0, maximum-scale=1.0, user-scalable=yes\">\n<link rel=\"canonical\" href=\"https://forum.parkinsons.org.uk/t/gambling/7785\" />\n<script type=\"application/ld+json\">{\"@context\":\"http://schema.org\",\"@type\":\"WebSite\",\"url\":\"https://forum.parkinsons.org.uk\",\"potentialAction\":{\"@type\":\"SearchAction\",\"target\":\"https://forum.parkinsons.org.uk/search?q={search_term_string}\",\"query-input\":\"required name=search_term_string\"}}</script>\n<link rel=\"search\" type=\"application/opensearchdescription+xml\" href=\"https://forum.parkinsons.org.uk/opensearch.xml\" title=\"Parkinson&#39;s UK Forum Search\">\n\n      <link href=\"/stylesheets/desktop_f99246ae801b083d3e4cca979d0dade8615b39ac.css?__ws=forum.parkinsons.org.uk\" media=\"all\" rel=\"stylesheet\" data-target=\"desktop\" data-theme-id=\"12\"/>\n      <link href=\"/stylesheets/desktop_theme_12_5d27531cf43f9df0c03a6a6ec3109dd05f9dfc49.css?__ws=forum.parkinsons.org.uk\" media=\"all\" rel=\"stylesheet\" data-target=\"desktop_theme\" data-theme-id=\"12\"/>\n    <link href=\"https://fonts.googleapis.com/css?family=Open+Sans\" rel=\"stylesheet\">\n\n    <meta id=\"data-ga-universal-analytics\" data-tracking-code=\"UA-4855628-1\" data-json=\"{&quot;cookieDomain&quot;:&quot;auto&quot;}\" data-auto-link-domains=\"\">\n\n<link rel='preload' href='/assets/google-universal-analytics-f35b4da49411e6f5559073523aab983da483976a3954c79c756f8579f6fbd6ef.js' as='script'/>\n<script src='/assets/google-universal-analytics-f35b4da49411e6f5559073523aab983da483976a3954c79c756f8579f6fbd6ef.js'></script>\n\n      <link rel=\"alternate\" type=\"application/rss+xml\" title=\"RSS feed of &#39;Gambling&#39;\" href=\"https://forum.parkinsons.org.uk/t/gambling/7785.rss\" />\n  <meta property=\"og:site_name\" content=\"Parkinson&#39;s UK Forum\" />\n<meta name=\"twitter:card\" content=\"summary\" />\n<meta name=\"twitter:image\" content=\"https://forum.parkinsons.org.uk/uploads/db7928/original/2X/3/311fc84f89f49f38601a2f16b295b6f03d3ce5dd.jpg\" />\n<meta property=\"og:image\" content=\"https://forum.parkinsons.org.uk/uploads/db7928/original/2X/3/311fc84f89f49f38601a2f16b295b6f03d3ce5dd.jpg\" />\n<meta property=\"og:url\" content=\"https://forum.parkinsons.org.uk/t/gambling/7785\" />\n<meta name=\"twitter:url\" content=\"https://forum.parkinsons.org.uk/t/gambling/7785\" />\n<meta property=\"og:title\" content=\"Gambling\" />\n<meta name=\"twitter:title\" content=\"Gambling\" />\n<meta property=\"og:description\" content=\"hi \r since being prescribed a dopomine agonist ive found it hard to stop gambling. \r ive always liked a flutter but recently its got worse. Not financially a problem as I gamble with small stakes but they add up and im not kidding myself...and i can see that it could  get to be a problem \r My specialist warned me that rophinerole can cause compulsive issues and told me horror stories of people losing everything \r ive told my parkinsons nurse and am switching to Ldopa (Sinemet) \r Has anyone else ...\" />\n<meta name=\"twitter:description\" content=\"hi \r since being prescribed a dopomine agonist ive found it hard to stop gambling. \r ive always liked a flutter but recently its got worse. Not financially a problem as I gamble with small stakes but they add up and im not kidding myself...and i can see that it could  get to be a problem \r My specialist warned me that rophinerole can cause compulsive issues and told me horror stories of people losing everything \r ive told my parkinsons nurse and am switching to Ldopa (Sinemet) \r Has anyone else ...\" />\n<meta property=\"article:published_time\" content=\"2014-10-05T16:55:01+00:00\" />\n<meta property=\"og:ignore_canonical\" content=\"true\" />\n\n\n\n    \n  </head>\n  <body class=\"crawler\">\n    <header role=\"banner\">\n    <div class=\"region region-header\">\n        <div class=\"region-header-wrapper\">\n            <div id=\"block-parkinsons-d8-branding\" class=\"block block-system block-system-branding-block\">\n                <a href=\"/\" title=\"Home\" rel=\"home\" class=\"site-logo\">\n                    <img src=\"https://forum.parkinsons.org.uk/uploads/db7928/original/2X/8/862bb7d172e7d127e7f3e147ec43594aa62ac945.png\" alt=\"Parkinson's UK. Change Attitudes. Find a cure. Join us.\">\n                </a>\n            </div>\n            <div id=\"block-helpline\" class=\"block block-block-content block-block-content871cd5af-b938-4947-9dc0-d5c211d08fe3 style-phone\">\n                <div class=\"field field--name-field-link field--type-link field--label-hidden field__item\"><a href=\"tel:+448088000303\">Helpline 0808 800 0303</a></div>\n            </div>\n            <div id=\"block-shop\" class=\"block block-block-content block-block-content6fba5ae5-7797-49cd-8367-f321d8111cd6 style-regular\">\n                <div class=\"field field--name-field-link field--type-link field--label-hidden field__item\"><a href=\"https://shop.parkinsons.org.uk\">Shop</a></div>\n            </div>\n        </div>\n    </div>\n</header>\n\n\n<script src=\"/theme-javascripts/b7e9763fcb584fc8265c56a9f557cd6d2e1e8ed8.js?__ws=forum.parkinsons.org.uk\"></script>\n    <header>\n      <a href=\"/\">\n          <img src=\"https://forum.parkinsons.org.uk/uploads/db7928/original/2X/8/862bb7d172e7d127e7f3e147ec43594aa62ac945.png\" alt=\"Parkinson&#39;s UK Forum\" id=\"site-logo\" style=\"max-width: 150px;\">\n      </a>\n    </header>\n    <div id=\"main-outlet\" class=\"wrap\">\n      <h1>\n  <a href=\"/t/gambling/7785\">Gambling</a>\n</h1>\n\n<div id='breadcrumbs'>\n    <div id=\"breadcrumb-0\" itemscope itemtype=\"http://data-vocabulary.org/Breadcrumb\"\n        itemref=\"breadcrumb-1\"\n      >\n      <a href=\"/c/about-parkinsons-and-health\" itemprop=\"url\">\n        <span itemprop=\"title\">About Parkinson&#39;s and health</span>\n      </a>\n    </div>\n    <div id=\"breadcrumb-1\" itemscope itemtype=\"http://data-vocabulary.org/Breadcrumb\"\n>\n      <a href=\"/c/about-parkinsons-and-health/impulsive-and-compulsive-behaviour\" itemprop=\"url\">\n        <span itemprop=\"title\">Impulsive and compulsive behaviour</span>\n      </a>\n    </div>\n</div>\n\n\n\n\n\n<hr>\n\n\n  <div itemscope itemtype='http://schema.org/DiscussionForumPosting'>\n      <div class='creator'>\n        <span>\n          <a href='/u/Mike602'><b itemprop='author'>Mike602</b></a>\n          \n          <time datetime='2014-10-05T16:55:01Z' itemprop='datePublished'>\n            2014-10-05 16:55:01 UTC\n          </time>\n        </span>\n        <span itemprop='position'>#1</span>\n      </div>\n      <div class='post' itemprop='articleBody'>\n        <p>hi</p>\r\n<p>since being prescribed a dopomine agonist ive found it hard to stop gambling.</p>\r\n<p>ive always liked a flutter but recently its got worse. Not financially a problem as I gamble with small stakes but they add up and im not kidding myself...and i can see that it could &nbsp;get to be a problem</p>\r\n<p>My specialist warned me that rophinerole can cause compulsive issues and told me horror stories of people losing everything</p>\r\n<p>ive told my parkinsons nurse and am switching to Ldopa (Sinemet)</p>\r\n<p>Has anyone else had these issues and been able to nip it in the bud so to speak, before it becomes a problem?</p>\r\n<p>&nbsp;</p>\r\n<p>J</p>\n      </div>\n      <meta itemprop='interactionCount' content='UserLikes:0'>\n      <meta itemprop='interactionCount' content='UserComments:0'>\n      <meta itemprop='headline' content='Gambling'>\n      <hr>\n  </div>\n  <div itemscope itemtype='http://schema.org/DiscussionForumPosting'>\n      <div class='creator'>\n        <span>\n          <a href='/u/goldengirl'><b itemprop='author'>goldengirl</b></a>\n          \n          <time datetime='2014-10-05T17:21:00Z' itemprop='datePublished'>\n            2014-10-05 17:21:00 UTC\n          </time>\n        </span>\n        <span itemprop='position'>#2</span>\n      </div>\n      <div class='post' itemprop='articleBody'>\n        <p>Oh Jack,I am so glad to hear that you have recognised the problem before it destroyed your family&#39;s life.</p>\r\n<p>You will be helped to withdraw from the DA slowly and build up the Sinemet.</p>\r\n<p>I won&#39;t lie and say it&#39;s easy but it will lead you to a safe place where your mobility will be as good.</p>\r\n<p>The psychological problems may follow and there is help for that too.</p>\r\n<p>Be strong and thank God you found the way out.</p>\r\n<p>Love</p>\r\n<p>GG</p>\n      </div>\n      <meta itemprop='interactionCount' content='UserLikes:0'>\n      <meta itemprop='interactionCount' content='UserComments:0'>\n      <meta itemprop='headline' content='Gambling'>\n      <hr>\n  </div>\n  <div itemscope itemtype='http://schema.org/DiscussionForumPosting'>\n      <div class='creator'>\n        <span>\n          <a href='/u/Mike602'><b itemprop='author'>Mike602</b></a>\n          \n          <time datetime='2014-10-05T19:30:53Z' itemprop='datePublished'>\n            2014-10-05 19:30:53 UTC\n          </time>\n        </span>\n        <span itemprop='position'>#3</span>\n      </div>\n      <div class='post' itemprop='articleBody'>\n        <p>thanks</p>\n      </div>\n      <meta itemprop='interactionCount' content='UserLikes:0'>\n      <meta itemprop='interactionCount' content='UserComments:0'>\n      <meta itemprop='headline' content='Gambling'>\n      <hr>\n  </div>\n  <div itemscope itemtype='http://schema.org/DiscussionForumPosting'>\n      <div class='creator'>\n        <span>\n          <a href='/u/Mike602'><b itemprop='author'>Mike602</b></a>\n          \n          <time datetime='2014-10-05T19:39:40Z' itemprop='datePublished'>\n            2014-10-05 19:39:40 UTC\n          </time>\n        </span>\n        <span itemprop='position'>#4</span>\n      </div>\n      <div class='post' itemprop='articleBody'>\n        <p>Just been reading some other people&#39;s plights on the forum</p>\r\n<p>if that doesn&#39;t give me the will to Stop nothing will..</p>\r\n<p>&nbsp;</p>\n      </div>\n      <meta itemprop='interactionCount' content='UserLikes:0'>\n      <meta itemprop='interactionCount' content='UserComments:0'>\n      <meta itemprop='headline' content='Gambling'>\n      <hr>\n  </div>\n  <div itemscope itemtype='http://schema.org/DiscussionForumPosting'>\n      <div class='creator'>\n        <span>\n          <a href='/u/shelly65'><b itemprop='author'>shelly65</b></a>\n          \n          <time datetime='2014-10-05T22:48:26Z' itemprop='datePublished'>\n            2014-10-05 22:48:26 UTC\n          </time>\n        </span>\n        <span itemprop='position'>#5</span>\n      </div>\n      <div class='post' itemprop='articleBody'>\n        <p>Hello Jack</p>\r\n<p>The good thing is that you have recognised there is a problem and seeking the help you need</p>\r\n<p>I do not have any experience&nbsp; of dopamine agonists my neurologist offered me the choice a DA or Levodopa i chose Levodopa</p>\r\n<p>I wish you well Jack you will find plenty of support on the forum</p>\n      </div>\n      <meta itemprop='interactionCount' content='UserLikes:0'>\n      <meta itemprop='interactionCount' content='UserComments:0'>\n      <meta itemprop='headline' content='Gambling'>\n      <hr>\n  </div>\n  <div itemscope itemtype='http://schema.org/DiscussionForumPosting'>\n      <div class='creator'>\n        <span>\n          <a href='/u/oldun'><b itemprop='author'>oldun</b></a>\n          \n          <time datetime='2014-10-06T10:40:00Z' itemprop='datePublished'>\n            2014-10-06 10:40:00 UTC\n          </time>\n        </span>\n        <span itemprop='position'>#6</span>\n      </div>\n      <div class='post' itemprop='articleBody'>\n        <p>When I was diagnosed at age 68, two years ago, my Neuro put me on Sinemet straight away. After about a year I asked him, in passing, if there would be any benefit in changing, wholly or partly, to a DA to ward off the dreaded dyskinesias. He became quite agitated, and said that DAs were known to be damaging and dangerous and, in his opinion, Neuros should not be allowed to prescribe them. The strength of his reaction surprised me, particularly in view of his seniority and many years of experience. Needless to say I accepted his advice, now take 5 25/100 Half Sinemet CRs per day - and I&#39;ll worry about the dyskinesias when they occur.</p>\n      </div>\n      <meta itemprop='interactionCount' content='UserLikes:0'>\n      <meta itemprop='interactionCount' content='UserComments:0'>\n      <meta itemprop='headline' content='Gambling'>\n      <hr>\n  </div>\n  <div itemscope itemtype='http://schema.org/DiscussionForumPosting'>\n      <div class='creator'>\n        <span>\n          <a href='/u/shelly65'><b itemprop='author'>shelly65</b></a>\n          \n          <time datetime='2014-10-06T16:26:51Z' itemprop='datePublished'>\n            2014-10-06 16:26:51 UTC\n          </time>\n        </span>\n        <span itemprop='position'>#7</span>\n      </div>\n      <div class='post' itemprop='articleBody'>\n        <p>When i was given the choice a DA or Levodopa i asked my neurologist about dyskenesias and he said that they were not has bad as years ago the drugs have come a long way and if and when dyskenesias caused a problem then he said there was the option of DBS&nbsp; , i currentley take 125mg Madopar 5 times a day at 3 hourly intervals&nbsp; my neurologist did say he did not want to up the Madopar dose any further and if i start the have wearing off then he will add a dopamine agonist to my Madopar , i am very reluctant to add a DA&nbsp; because of the possibility of impulsive behaviour&nbsp; i will avoid this for as long as i can .</p>\n      </div>\n      <meta itemprop='interactionCount' content='UserLikes:0'>\n      <meta itemprop='interactionCount' content='UserComments:0'>\n      <meta itemprop='headline' content='Gambling'>\n      <hr>\n  </div>\n  <div itemscope itemtype='http://schema.org/DiscussionForumPosting'>\n      <div class='creator'>\n        <span>\n          <a href='/u/elegant_fowl'><b itemprop='author'>elegant_fowl</b></a>\n          \n          <time datetime='2014-10-06T21:12:03Z' itemprop='datePublished'>\n            2014-10-06 21:12:03 UTC\n          </time>\n        </span>\n        <span itemprop='position'>#8</span>\n      </div>\n      <div class='post' itemprop='articleBody'>\n        <p>Jack,</p>\r\n<p>There isn&#39;t much to add to the advice already given except to say that I&#39;m another example of someone who managed to step back from DAs before any lasting damage was done. My first awareness of DA issues came from this forum. Even then I didn&#39;t realise the extent of my hypersexuality until, with Neuro support, I reduced and then stopped the DA. Two years on my physical symptoms are well controlled by Sinemet and I feel like I have control of my life again. In some ways I think my current situation is like being a recovering alcoholic. The temptation isn&#39;t gone but it is controllable.</p>\r\n<p>I&#39;d advise anyone who thinks they may have an impulse control problem to speak to their neuro or nurse urgently.&nbsp;</p>\r\n<p>EF</p>\r\n<p>&nbsp;</p>\n      </div>\n      <meta itemprop='interactionCount' content='UserLikes:0'>\n      <meta itemprop='interactionCount' content='UserComments:0'>\n      <meta itemprop='headline' content='Gambling'>\n      <hr>\n  </div>\n  <div itemscope itemtype='http://schema.org/DiscussionForumPosting'>\n      <div class='creator'>\n        <span>\n          <a href='/u/titan'><b itemprop='author'>titan</b></a>\n          \n          <time datetime='2014-10-15T14:41:48Z' itemprop='datePublished'>\n            2014-10-15 14:41:48 UTC\n          </time>\n        </span>\n        <span itemprop='position'>#9</span>\n      </div>\n      <div class='post' itemprop='articleBody'>\n        <p>Hi Jack,</p>\r\n<p>&nbsp; &nbsp; &nbsp; &nbsp; &nbsp; I was diagnosed in Nov 09.I was prescribed Azilect(rasagiline) and Pramipexole(mirapexin),a Dopamine Agonist.The Pramipexole increased steadily until i was at the maximum recommended dose.I was on this for over 3 years,before coming off.I suppose i am still in denial about my behaviour whilst on the DA&#39;s.I think the problem with me was.The new lease of life and renewed interest in everything was the ideal remedy for the depression i didn&#39;t admit i had.In fact,the Neuro wanted to put me on Anti-depressants on diagnosis and i refused.</p>\r\n<p>&nbsp; &nbsp; &nbsp; &nbsp; &nbsp; As well as refusing the anti-depressants when first seeing the Neuro,i was also non committal in certain areas when evaluating what drug i would benefit the most being on.In other words,i said i only gambled now and again,when in fact it was on a daily basis for over 25 years.I was an e-bay addict,had countless obsessive interests and a very high sex drive.I also could drink a lot(alcohol)and quite often.So i was basically probably the wrong candidate from the start.</p>\r\n<p>&nbsp; &nbsp; &nbsp; &nbsp; &nbsp; &nbsp;The trouble is,i was only 45 on diagnosis and the Neuro explained to me that if possible,Levadopa based treatment was preferably delayed because of other side effects which can be a bigger nuisance than pd itself.So i quite naturally gravitated towards the Neuros DA suggestion and kept my mouth shut.</p>\r\n<p>&nbsp; &nbsp; &nbsp; &nbsp; &nbsp; &nbsp; &nbsp;As time went on and the dosage increased my sleep pattern totally flipped,in fact i hardly slept,apart from nodding off at the wrong times,for instance,doing 100 mph in the fast lane with my family in the car.I suppose i wouldn&#39;t be told,was invincible.I was only working part time.So spent most of my days gambling and most of my nights and evenings on the computer where i discovered a whole network of people going through and on similar.</p>\r\n<p>&nbsp; &nbsp; &nbsp; &nbsp; &nbsp; &nbsp; &nbsp; I thought i wasn&#39;t doing harm,consenting adults and all that.But i suppose i was Two different people at times,the stable Husband,Father,Grandad even.Then this other person who had fun,took massive risks,just diden&#39;t care.I always said to myself that as long as i drew a boundary line that should not be crossed.Then everything would be fine.I was a staunch pro DA&#39;s advocate.Having many a discussion(okay,sometimes argument)on the benefits of DA&#39;s and condemning the what i called&quot;hate campaign&quot;against them.The problem was the boundary became completely obscure at times.People tried to help me,but i thought they were just trying to spoil my fun.The depression i was still masking,came creeping in causing me to hit out at those trying to help me,plus turned inward on myself.</p>\r\n<p>&nbsp; &nbsp; &nbsp; &nbsp; &nbsp; &nbsp; &nbsp; &nbsp;Some&nbsp;<span style=\"line-height: 1.4;\">mornings,i found myself drinking from the night before.I&#39;d take valium,pain killers,anything mixed with my meds and drink.I could not sleep,i must have lost a stone in weight,and i wasn&#39;t even overweight.I would not remember posting stuff,i had lots of sexual chat and more on line.Nothing had boudaries any more.I was self harming and my poetry which turned more and more bizaar was full of self harm,self hate and upsetting for many people to read.My family became increasingly concerned and my Wife finally left me because my on line acquaintences,amount of time gambling and everything else that comes along with somebody hooked on drugs.I also didn&#39;t realise that i was sufferring from borderline personality disorder,had been all my life.So traits in my behaviour i already had became exaggerated,yet i just didn&#39;t see it.So it has taken some time for me to actual admit that the DA&#39;s actually had more of a detrimental effect on me than good.</span></p>\r\n<p>&nbsp; &nbsp; &nbsp; &nbsp; &nbsp; &nbsp; &nbsp; &nbsp; &nbsp;The withdrawals i had coming off were crazy.The sweats,especially at night.I thought i was going to die.On evaluating the whole DA experience now.I would say that things were fine up to a point.However,once that point was reached,things i thought i had control of slipped out of control.It is hard for me to be totally negative about DA&#39;s,because they did delay the Sinemet for a few years.Plus i was fortunate,i held on to my marriage(just),had minimal financial setback and subsequent events then set me on the road to therapy(still undergoing)for things i should have been facing years ago.However,there are people who are still paying the financial and personal price out there.Something i thought could never affect me,which did,but would have been a lot worse if i hadn&#39;t visited here and another site and finally admitted my problems and state of mind.</p>\r\n<p>&nbsp; &nbsp; &nbsp; &nbsp; &nbsp; &nbsp; &nbsp; &nbsp; &nbsp; I have tried not to go into too much detail,but is hard not to</p>\r\n<p>&nbsp; &nbsp; &nbsp; &nbsp; &nbsp; &nbsp; &nbsp; &nbsp; &nbsp; &nbsp; &nbsp; &nbsp; &nbsp; &nbsp; &nbsp; &nbsp; &nbsp;Take care</p>\r\n<p>&nbsp; &nbsp; &nbsp; &nbsp; &nbsp; &nbsp; &nbsp; &nbsp; &nbsp; &nbsp; &nbsp; &nbsp; &nbsp; &nbsp; &nbsp; &nbsp; &nbsp; &nbsp; &nbsp; &nbsp;Titan&nbsp;</p>\n      </div>\n      <meta itemprop='interactionCount' content='UserLikes:0'>\n      <meta itemprop='interactionCount' content='UserComments:0'>\n      <meta itemprop='headline' content='Gambling'>\n      <hr>\n  </div>\n  <div itemscope itemtype='http://schema.org/DiscussionForumPosting'>\n      <div class='creator'>\n        <span>\n          <a href='/u/goldengirl'><b itemprop='author'>goldengirl</b></a>\n          \n          <time datetime='2014-10-15T17:40:26Z' itemprop='datePublished'>\n            2014-10-15 17:40:26 UTC\n          </time>\n        </span>\n        <span itemprop='position'>#10</span>\n      </div>\n      <div class='post' itemprop='articleBody'>\n        <p>Dearest Titan</p>\r\n<p>It is so good to hear from you and to know that you have overcome the compulsions caused by the DAs.</p>\r\n<p>You have spelt out so clearly the way in which the drugs affected your mind and behaviour and the difficulties in admitting to yourself the damage being done.</p>\r\n<p>I am so pleased your marriage survived and that you are getting the help you need.</p>\r\n<p>I wish you so much good luck!</p>\r\n<p>Love</p>\r\n<p>GG</p>\n      </div>\n      <meta itemprop='interactionCount' content='UserLikes:0'>\n      <meta itemprop='interactionCount' content='UserComments:0'>\n      <meta itemprop='headline' content='Gambling'>\n      <hr>\n  </div>\n\n\n\n\n\n\n    </div>\n    <footer class=\"container\">\n      <nav class='crawler-nav' itemscope itemtype='http://schema.org/SiteNavigationElement'>\n        <a href='/'>Home</a>\n        <a href=\"/categories\">Categories</a>\n        <a href=\"/guidelines\">FAQ/Guidelines</a>\n        <a href=\"/tos\">Terms of Service</a>\n        <a href=\"/privacy\">Privacy Policy</a>\n      </nav>\n      <p class='powered-by-link'>Powered by <a href=\"https://www.discourse.org\">Discourse</a>, best viewed with JavaScript enabled</p>\n    </footer>\n    \n  </body>\n  \n</html>\n",
  "url": "https://forum.parkinsons.org.uk/t/gambling/7785"
}