{
  "contentId": "e659dea0-8863-11e9-8f96-97f71b5221d6",
  "html": "<!DOCTYPE html>\n<html lang=\"en\">\n  <head>\n    <meta charset=\"utf-8\">\n    <title>Does the Neurologist&#39;s attitude matter? - Ways to take control - Parkinson&#39;s UK Forum</title>\n    <meta name=\"description\" content=\"Hi, I’m not sure if this will be accepted but feel that I need to write. For a while, I’d been aware of stiffness but put it down to lack of exercise. Then I was diagnosed 7 years ago. Well not so much diagnosed, but tol&amp;hellip;\">\n    <meta name=\"author\" content=\"\">\n<meta name=\"generator\" content=\"Discourse 2.2.5 - https://github.com/discourse/discourse version c294ff3609f988dcafb742e91606d60ca13b794d\">\n<link rel=\"icon\" type=\"image/png\" href=\"https://forum.parkinsons.org.uk/uploads/db7928/original/2X/3/311fc84f89f49f38601a2f16b295b6f03d3ce5dd.jpg\">\n<link rel=\"apple-touch-icon\" type=\"image/png\" href=\"https://forum.parkinsons.org.uk/uploads/db7928/original/2X/3/311fc84f89f49f38601a2f16b295b6f03d3ce5dd.jpg\">\n<meta name=\"theme-color\" content=\"#ffffff\">\n<meta name=\"viewport\" content=\"width=device-width, minimum-scale=1.0, maximum-scale=1.0, user-scalable=yes\">\n<link rel=\"canonical\" href=\"https://forum.parkinsons.org.uk/t/does-the-neurologists-attitude-matter/14225\" />\n<script type=\"application/ld+json\">{\"@context\":\"http://schema.org\",\"@type\":\"WebSite\",\"url\":\"https://forum.parkinsons.org.uk\",\"potentialAction\":{\"@type\":\"SearchAction\",\"target\":\"https://forum.parkinsons.org.uk/search?q={search_term_string}\",\"query-input\":\"required name=search_term_string\"}}</script>\n<link rel=\"search\" type=\"application/opensearchdescription+xml\" href=\"https://forum.parkinsons.org.uk/opensearch.xml\" title=\"Parkinson&#39;s UK Forum Search\">\n\n      <link href=\"/stylesheets/desktop_f99246ae801b083d3e4cca979d0dade8615b39ac.css?__ws=forum.parkinsons.org.uk\" media=\"all\" rel=\"stylesheet\" data-target=\"desktop\" data-theme-id=\"12\"/>\n      <link href=\"/stylesheets/desktop_theme_12_5d27531cf43f9df0c03a6a6ec3109dd05f9dfc49.css?__ws=forum.parkinsons.org.uk\" media=\"all\" rel=\"stylesheet\" data-target=\"desktop_theme\" data-theme-id=\"12\"/>\n    <link href=\"https://fonts.googleapis.com/css?family=Open+Sans\" rel=\"stylesheet\">\n\n    <meta id=\"data-ga-universal-analytics\" data-tracking-code=\"UA-4855628-1\" data-json=\"{&quot;cookieDomain&quot;:&quot;auto&quot;}\" data-auto-link-domains=\"\">\n\n<link rel='preload' href='/assets/google-universal-analytics-f35b4da49411e6f5559073523aab983da483976a3954c79c756f8579f6fbd6ef.js' as='script'/>\n<script src='/assets/google-universal-analytics-f35b4da49411e6f5559073523aab983da483976a3954c79c756f8579f6fbd6ef.js'></script>\n\n      <link rel=\"alternate\" type=\"application/rss+xml\" title=\"RSS feed of &#39;Does the Neurologist&#39;s attitude matter?&#39;\" href=\"https://forum.parkinsons.org.uk/t/does-the-neurologists-attitude-matter/14225.rss\" />\n  <meta property=\"og:site_name\" content=\"Parkinson&#39;s UK Forum\" />\n<meta name=\"twitter:card\" content=\"summary\" />\n<meta name=\"twitter:image\" content=\"https://forum.parkinsons.org.uk/uploads/db7928/original/2X/3/311fc84f89f49f38601a2f16b295b6f03d3ce5dd.jpg\" />\n<meta property=\"og:image\" content=\"https://forum.parkinsons.org.uk/uploads/db7928/original/2X/3/311fc84f89f49f38601a2f16b295b6f03d3ce5dd.jpg\" />\n<meta property=\"og:url\" content=\"https://forum.parkinsons.org.uk/t/does-the-neurologists-attitude-matter/14225\" />\n<meta name=\"twitter:url\" content=\"https://forum.parkinsons.org.uk/t/does-the-neurologists-attitude-matter/14225\" />\n<meta property=\"og:title\" content=\"Does the Neurologist&#39;s attitude matter?\" />\n<meta name=\"twitter:title\" content=\"Does the Neurologist&#39;s attitude matter?\" />\n<meta property=\"og:description\" content=\"Hi, I’m not sure if this will be accepted but feel that I need to write. For a while, I’d been aware of stiffness but put it down to lack of exercise. Then I was diagnosed 7 years ago. Well not so much diagnosed, but told very abruptly by a GP that his predecessor’s diagnosis of a trapped nerve was probably Parkinson’s. The appointment with the Neurologist was very difficult because I was crammed into the end of a clinic at an unfamiliar hospital with a doctor who was very rushed. He fired a lis...\" />\n<meta name=\"twitter:description\" content=\"Hi, I’m not sure if this will be accepted but feel that I need to write. For a while, I’d been aware of stiffness but put it down to lack of exercise. Then I was diagnosed 7 years ago. Well not so much diagnosed, but told very abruptly by a GP that his predecessor’s diagnosis of a trapped nerve was probably Parkinson’s. The appointment with the Neurologist was very difficult because I was crammed into the end of a clinic at an unfamiliar hospital with a doctor who was very rushed. He fired a lis...\" />\n<meta name=\"twitter:label1\" value=\"Reading time\" />\n<meta name=\"twitter:data1\" value=\"2 mins \uD83D\uDD51\" />\n<meta name=\"twitter:label2\" value=\"Likes\" />\n<meta name=\"twitter:data2\" value=\"4 ❤\" />\n<meta property=\"article:published_time\" content=\"2018-06-24T22:06:23+00:00\" />\n<meta property=\"og:ignore_canonical\" content=\"true\" />\n\n\n\n    \n  </head>\n  <body class=\"crawler\">\n    <header role=\"banner\">\n    <div class=\"region region-header\">\n        <div class=\"region-header-wrapper\">\n            <div id=\"block-parkinsons-d8-branding\" class=\"block block-system block-system-branding-block\">\n                <a href=\"/\" title=\"Home\" rel=\"home\" class=\"site-logo\">\n                    <img src=\"https://forum.parkinsons.org.uk/uploads/db7928/original/2X/8/862bb7d172e7d127e7f3e147ec43594aa62ac945.png\" alt=\"Parkinson's UK. Change Attitudes. Find a cure. Join us.\">\n                </a>\n            </div>\n            <div id=\"block-helpline\" class=\"block block-block-content block-block-content871cd5af-b938-4947-9dc0-d5c211d08fe3 style-phone\">\n                <div class=\"field field--name-field-link field--type-link field--label-hidden field__item\"><a href=\"tel:+448088000303\">Helpline 0808 800 0303</a></div>\n            </div>\n            <div id=\"block-shop\" class=\"block block-block-content block-block-content6fba5ae5-7797-49cd-8367-f321d8111cd6 style-regular\">\n                <div class=\"field field--name-field-link field--type-link field--label-hidden field__item\"><a href=\"https://shop.parkinsons.org.uk\">Shop</a></div>\n            </div>\n        </div>\n    </div>\n</header>\n\n\n<script src=\"/theme-javascripts/b7e9763fcb584fc8265c56a9f557cd6d2e1e8ed8.js?__ws=forum.parkinsons.org.uk\"></script>\n    <header>\n      <a href=\"/\">\n          <img src=\"https://forum.parkinsons.org.uk/uploads/db7928/original/2X/8/862bb7d172e7d127e7f3e147ec43594aa62ac945.png\" alt=\"Parkinson&#39;s UK Forum\" id=\"site-logo\" style=\"max-width: 150px;\">\n      </a>\n    </header>\n    <div id=\"main-outlet\" class=\"wrap\">\n      <h1>\n  <a href=\"/t/does-the-neurologists-attitude-matter/14225\">Does the Neurologist&#39;s attitude matter?</a>\n</h1>\n\n<div id='breadcrumbs'>\n    <div id=\"breadcrumb-0\" itemscope itemtype=\"http://data-vocabulary.org/Breadcrumb\"\n        itemref=\"breadcrumb-1\"\n      >\n      <a href=\"/c/taking-control\" itemprop=\"url\">\n        <span itemprop=\"title\">Taking Control</span>\n      </a>\n    </div>\n    <div id=\"breadcrumb-1\" itemscope itemtype=\"http://data-vocabulary.org/Breadcrumb\"\n>\n      <a href=\"/c/taking-control/ways-to-take-control\" itemprop=\"url\">\n        <span itemprop=\"title\">Ways to take control</span>\n      </a>\n    </div>\n</div>\n\n\n\n\n\n<hr>\n\n\n  <div itemscope itemtype='http://schema.org/DiscussionForumPosting'>\n      <div class='creator'>\n        <span>\n          <a href='/u/lynlace'><b itemprop='author'>lynlace</b></a>\n          \n          <time datetime='2018-06-24T22:06:23Z' itemprop='datePublished'>\n            2018-06-24 22:06:23 UTC\n          </time>\n        </span>\n        <span itemprop='position'>#1</span>\n      </div>\n      <div class='post' itemprop='articleBody'>\n        <p>Hi, I’m not sure if this will be accepted but feel that I need to write. For a while, I’d been aware of stiffness but put it down to lack of exercise. Then I was diagnosed 7 years ago. Well not so much diagnosed, but told very abruptly by a GP that his predecessor’s diagnosis of a trapped nerve was probably Parkinson’s. The appointment with the Neurologist was very difficult because I was crammed into the end of a clinic at an unfamiliar hospital with a doctor who was very rushed. He fired a list of questions at me and didn’t seem to understand that every question signified something else that was going to go wrong with me. At that time, I worked with people with dementia and I had seen how doctors break the news gently. A few years previously, I had been diagnosed with cancer and had immediately been handed to a support nurse. when I left the doctor’s room, I expected this to happen again, but everyone was standing in their coats waiting  for me to go. I accepted the diagnosis but feel that I’ve been frozen emotionally for those seven years. Reading the posts in the Forum is helping me to relax and feel that I’m not on my own. Thanks.</p>\n      </div>\n      <meta itemprop='interactionCount' content='UserLikes:2'>\n      <meta itemprop='interactionCount' content='UserComments:0'>\n      <meta itemprop='headline' content='Does the Neurologist&#39;s attitude matter?'>\n      <hr>\n  </div>\n  <div itemscope itemtype='http://schema.org/DiscussionForumPosting'>\n      <div class='creator'>\n        <span>\n          <a href='/u/Reah'><b itemprop='author'>Reah</b></a>\n          \n          <time datetime='2018-06-25T13:21:34Z' itemprop='datePublished'>\n            2018-06-25 13:21:34 UTC\n          </time>\n        </span>\n        <span itemprop='position'>#2</span>\n      </div>\n      <div class='post' itemprop='articleBody'>\n        <p>Hi <a class=\"mention\" href=\"/u/lynlace\">@lynlace</a>,</p>\n<p>A warm welcome to the forum.</p>\n<p>I’m sure you’ll receive some responses from our lovely forum members soon. I’m really sorry that your diagnosis wasn’t delivered with more care and compassion. It’s no wonder that this has affected you emotionally, please know that you can always speak to one of our trusted advisers via our helpline on 0808 800 0303 if you ever need someone to speak to.</p>\n<p>We also have an emotional and support section on the Parkinson’s UK website which has a lot of useful information that you may wish to explore - you can find it here, <a href=\"https://www.parkinsons.org.uk/information-and-support/emotional-support-and-counselling\">https://www.parkinsons.org.uk/information-and-support/emotional-support-and-counselling</a>.</p>\n<p>I hope you enjoy engaging on the forum.</p>\n<p>Best wishes,<br>\nReah - Forum Community Manager</p>\n      </div>\n      <meta itemprop='interactionCount' content='UserLikes:0'>\n      <meta itemprop='interactionCount' content='UserComments:1'>\n      <meta itemprop='headline' content='Does the Neurologist&#39;s attitude matter?'>\n      <hr>\n  </div>\n  <div itemscope itemtype='http://schema.org/DiscussionForumPosting'>\n      <div class='creator'>\n        <span>\n          <a href='/u/ElleMac'><b itemprop='author'>ElleMac</b></a>\n          \n          <time datetime='2018-06-25T13:55:01Z' itemprop='datePublished'>\n            2018-06-25 13:55:01 UTC\n          </time>\n        </span>\n        <span itemprop='position'>#3</span>\n      </div>\n      <div class='post' itemprop='articleBody'>\n        <p>Hi lynlace,</p>\n<p>I don’t know why I read your post, as I usually head straight for the social and creative section. The heading must have caught my eye. I too was diagnosed about 7 years ago, and like you, the neurologist just told me it was PD, and sent me packing.However I was fortunate to have bee n forewarned by my GP to the likelihood of having PD. Also, I was given an appointment with a Parkinsons nurse, who was kind and helpful. Do you know if there are Parkinsons nurses where you are? If so, they are wonderful. Anyway, I hope things improve for you. And keep visiting the forum. Best wishes. EM</p>\n      </div>\n      <meta itemprop='interactionCount' content='UserLikes:0'>\n      <meta itemprop='interactionCount' content='UserComments:1'>\n      <meta itemprop='headline' content='Does the Neurologist&#39;s attitude matter?'>\n      <hr>\n  </div>\n  <div itemscope itemtype='http://schema.org/DiscussionForumPosting'>\n      <div class='creator'>\n        <span>\n          <a href='/u/babswood'><b itemprop='author'>babswood</b></a>\n          \n          <time datetime='2018-06-25T14:11:12Z' itemprop='datePublished'>\n            2018-06-25 14:11:12 UTC\n          </time>\n        </span>\n        <span itemprop='position'>#4</span>\n      </div>\n      <div class='post' itemprop='articleBody'>\n        <p>Hi there<br>\nI  must be  so Lucky as my Neurologist is so down to earth and really  makes you feel that he cares. He listens to what I have to say. I always come away from an appointment<br>\nfeeling quite positive.<br>\nTo answer your question YES  the NEurologist’S attitude matters.</p>\n      </div>\n      <meta itemprop='interactionCount' content='UserLikes:0'>\n      <meta itemprop='interactionCount' content='UserComments:0'>\n      <meta itemprop='headline' content='Does the Neurologist&#39;s attitude matter?'>\n      <hr>\n  </div>\n  <div itemscope itemtype='http://schema.org/DiscussionForumPosting'>\n      <div class='creator'>\n        <span>\n          <a href='/u/lynlace'><b itemprop='author'>lynlace</b></a>\n          \n          <time datetime='2018-06-25T16:10:34Z' itemprop='datePublished'>\n            2018-06-25 16:10:34 UTC\n          </time>\n        </span>\n        <span itemprop='position'>#5</span>\n      </div>\n      <div class='post' itemprop='articleBody'>\n        <p>Thanks for your reply. There are three PD nurses at my clinic. Two are really nice but the one I was allocated to was very formal and had difficulty even making eye to eye contact. I finally worked out that as I was part of a research study, she spent her time looking at the computer where her colleagues had a technique of humanising the questions and recording the results later.  I don’t know if it is common, but the attitude at my clinic seems to be that medication is the be all and end all. They mention exercise but don’t advice on the best type. Until now, I have felt a need for something I could contact to get a reply within a few hours. An appointment in two weeks is a bit far away.  However, it looks as though the Forum will fill this need.</p>\n      </div>\n      <meta itemprop='interactionCount' content='UserLikes:1'>\n      <meta itemprop='interactionCount' content='UserComments:0'>\n      <meta itemprop='headline' content='Does the Neurologist&#39;s attitude matter?'>\n      <hr>\n  </div>\n  <div itemscope itemtype='http://schema.org/DiscussionForumPosting'>\n      <div class='creator'>\n        <span>\n          <a href='/u/JaniceofGREENOCK'><b itemprop='author'>JaniceofGREENOCK</b></a>\n          \n          <time datetime='2018-06-25T22:28:01Z' itemprop='datePublished'>\n            2018-06-25 22:28:01 UTC\n          </time>\n        </span>\n        <span itemprop='position'>#6</span>\n      </div>\n      <div class='post' itemprop='articleBody'>\n        <p>hi lynlace   i had trouble getting diagnosed because at 44 i was deemed as unlikely to have pd. i went to hospital clinics and staff would walk past me thinking i was there to pick up a parent or other elderly person and were really shocked when told i was the patient.my amazing gp secured me another consultation with the neurologist who had diagnosed me and unbelieveably i was in the waiting room and 2 ladies chatting to me   we all had same appointment time  same neurologist  same original diagnosis…stress   when in fact one had MS  one had dementia and i had pd. he told me he didnt have time to answer my questions and for the first time since diagnosis, i actually cried like a baby. since then however my care has been second to none at my local hospital   so yes the attitude is so important    but more important is your determination not to let it dictate how you live your life.things may take more effort  more time  but put in the effort and enjoy your doing the things you always did   take a rest the next day   you will find a way    keep your chin up xx</p>\n      </div>\n      <meta itemprop='interactionCount' content='UserLikes:0'>\n      <meta itemprop='interactionCount' content='UserComments:1'>\n      <meta itemprop='headline' content='Does the Neurologist&#39;s attitude matter?'>\n      <hr>\n  </div>\n  <div itemscope itemtype='http://schema.org/DiscussionForumPosting'>\n      <div class='creator'>\n        <span>\n          <a href='/u/lynlace'><b itemprop='author'>lynlace</b></a>\n          \n          <time datetime='2018-06-26T11:39:35Z' itemprop='datePublished'>\n            2018-06-26 11:39:35 UTC\n          </time>\n        </span>\n        <span itemprop='position'>#7</span>\n      </div>\n      <div class='post' itemprop='articleBody'>\n        <p>Hi Janice<br>\nThank you for your message You must have had a terrible time initially. I’m  particularly interested in the bit about  the importance of your own attitude, because I suspect I’ve been letting the PD take control. However the contact from the Forum is helping a lot.<br>\nTake care</p>\n      </div>\n      <meta itemprop='interactionCount' content='UserLikes:1'>\n      <meta itemprop='interactionCount' content='UserComments:0'>\n      <meta itemprop='headline' content='Does the Neurologist&#39;s attitude matter?'>\n      <hr>\n  </div>\n  <div itemscope itemtype='http://schema.org/DiscussionForumPosting'>\n      <div class='creator'>\n        <span>\n          <a href='/u/JohnyWalter'><b itemprop='author'>JohnyWalter</b></a>\n          \n          <time datetime='2018-07-14T10:07:30Z' itemprop='datePublished'>\n            2018-07-14 10:07:30 UTC\n          </time>\n        </span>\n        <span itemprop='position'>#8</span>\n      </div>\n      <div class='post' itemprop='articleBody'>\n        <p>I have an interest in neuroscience and have an interest in neurology as a specialty, but I also consider neurosurgery from time to time. My question is why did you choose neurosurgery over neurology?</p>\n<p>Also as an aside. I was wondering how much research relating to robotics is done in both these specialties?</p>\n      </div>\n      <meta itemprop='interactionCount' content='UserLikes:0'>\n      <meta itemprop='interactionCount' content='UserComments:0'>\n      <meta itemprop='headline' content='Does the Neurologist&#39;s attitude matter?'>\n      <hr>\n  </div>\n  <div itemscope itemtype='http://schema.org/DiscussionForumPosting'>\n      <div class='creator'>\n        <span>\n          <a href='/u/JohnyWalter'><b itemprop='author'>JohnyWalter</b></a>\n          \n          <time datetime='2018-07-15T06:48:31Z' itemprop='datePublished'>\n            2018-07-15 06:48:31 UTC\n          </time>\n        </span>\n        <span itemprop='position'>#9</span>\n      </div>\n      <div class='post' itemprop='articleBody'>\n        <p>Do you/ did you guys ever call a doctor to ask if you can shadow him? I found several names in a directory from the hospital i volunteer at, but only one NS had an email, so i shot him an email. I still want to get more feelers out there and shadow a few neurologists too. All the other docs only have phone numbers listed.</p>\n      </div>\n      <meta itemprop='interactionCount' content='UserLikes:0'>\n      <meta itemprop='interactionCount' content='UserComments:0'>\n      <meta itemprop='headline' content='Does the Neurologist&#39;s attitude matter?'>\n      <hr>\n  </div>\n  <div itemscope itemtype='http://schema.org/DiscussionForumPosting'>\n      <div class='creator'>\n        <span>\n          <a href='/u/KeithS'><b itemprop='author'>KeithS</b></a>\n          \n          <time datetime='2018-07-15T21:50:10Z' itemprop='datePublished'>\n            2018-07-15 21:50:10 UTC\n          </time>\n        </span>\n        <span itemprop='position'>#10</span>\n      </div>\n      <div class='post' itemprop='articleBody'>\n        <p>Hi, I must  say my experience was completely different, I was only diagnosed last week. My GP had sent me to the Neurologist as a precaution after I reported a slight tremor in my right hand. The neurologist was quite thorough in his questions and tests, such as they are, and he carefully went through his conclusions and diagnosis. Stage 1 . I have an appointment with the specialist nurse.<br>\nA better experience all round i believe,</p>\n      </div>\n      <meta itemprop='interactionCount' content='UserLikes:0'>\n      <meta itemprop='interactionCount' content='UserComments:0'>\n      <meta itemprop='headline' content='Does the Neurologist&#39;s attitude matter?'>\n      <hr>\n  </div>\n  <div itemscope itemtype='http://schema.org/DiscussionForumPosting'>\n      <div class='creator'>\n        <span>\n          <a href='/u/Reah'><b itemprop='author'>Reah</b></a>\n          \n          <time datetime='2018-07-16T15:18:50Z' itemprop='datePublished'>\n            2018-07-16 15:18:50 UTC\n          </time>\n        </span>\n        <span itemprop='position'>#11</span>\n      </div>\n      <div class='post' itemprop='articleBody'>\n        <p>Hi <a class=\"mention\" href=\"/u/keiths\">@KeithS</a>,</p>\n<p>A warm welcome to the forum.</p>\n<p>I’m glad to hear that you’ve had such a positive experience with your GP. If  you need additional support,we have some helpful information for you on the ‘newly diagnosed’ section on our website here - <a href=\"https://www.parkinsons.org.uk/information-and-support/newly-diagnosed-parkinsons\">https://www.parkinsons.org.uk/information-and-support/newly-diagnosed-parkinsons</a>.</p>\n<p>We also have a team of highly trained advisers via our helpline for additional help and support. You can reach us on 0808 800 0303 Monday-Friday: 9am-7pm, Saturday: 10am-2pm or you can email at <a href=\"/cdn-cgi/l/email-protection#254d4049494a655544574e4c4b564a4b560b4a57420b504e\"><span class=\"__cf_email__\" data-cfemail=\"c5ada0a9a9aa85b5a4b7aeacabb6aaabb6ebaab7a2ebb0ae\">[email&#160;protected]</span></a>.</p>\n<p>I’m sure you’ll receive more warm welcomes from our members soon, however, do take care in the interim.</p>\n<p>Best wishes,<br>\nReah - Forum Community Manager</p>\n      </div>\n      <meta itemprop='interactionCount' content='UserLikes:0'>\n      <meta itemprop='interactionCount' content='UserComments:0'>\n      <meta itemprop='headline' content='Does the Neurologist&#39;s attitude matter?'>\n      <hr>\n  </div>\n  <div itemscope itemtype='http://schema.org/DiscussionForumPosting'>\n      <div class='creator'>\n        <span>\n          <a href='/u/Roy_S'><b itemprop='author'>Roy_S</b></a>\n          \n          <time datetime='2018-07-16T15:32:13Z' itemprop='datePublished'>\n            2018-07-16 15:32:13 UTC\n          </time>\n        </span>\n        <span itemprop='position'>#12</span>\n      </div>\n      <div class='post' itemprop='articleBody'>\n        <p>My neurologist’s ‘bedside manner’ stunk. After the usual tests he seemed almost elated to announce what I had, made some barbed comment about me not being able to smell my own aftershave then said I’ll see you in 6 months!</p>\n<p>Luckily the local PD nurse, who I saw a month or so after, was so much better and was very helpful but I feel, as the OP did, that after the initial diagnosis you really need to have the opportunity to ask all the questions you need to sooner rather than later.</p>\n      </div>\n      <meta itemprop='interactionCount' content='UserLikes:0'>\n      <meta itemprop='interactionCount' content='UserComments:0'>\n      <meta itemprop='headline' content='Does the Neurologist&#39;s attitude matter?'>\n      <hr>\n  </div>\n\n\n\n\n\n\n    </div>\n    <footer class=\"container\">\n      <nav class='crawler-nav' itemscope itemtype='http://schema.org/SiteNavigationElement'>\n        <a href='/'>Home</a>\n        <a href=\"/categories\">Categories</a>\n        <a href=\"/guidelines\">FAQ/Guidelines</a>\n        <a href=\"/tos\">Terms of Service</a>\n        <a href=\"/privacy\">Privacy Policy</a>\n      </nav>\n      <p class='powered-by-link'>Powered by <a href=\"https://www.discourse.org\">Discourse</a>, best viewed with JavaScript enabled</p>\n    </footer>\n    \n  <script data-cfasync=\"false\" src=\"/cdn-cgi/scripts/5c5dd728/cloudflare-static/email-decode.min.js\"></script></body>\n  \n</html>\n",
  "url": "https://forum.parkinsons.org.uk/t/does-the-neurologists-attitude-matter/14225"
}