{
  "contentId": "bc9e7840-8864-11e9-8f96-97f71b5221d6",
  "html": "<!DOCTYPE html>\n<html lang=\"en\">\n  <head>\n    <meta charset=\"utf-8\">\n    <title>Latest post first? - Our forum is changing - Parkinson&#39;s UK Forum</title>\n    <meta name=\"description\" content=\"Anyone else wanting the latest post to be first instead of last? \nHave just had to scroll through posts since 2011 to post a new one… \nIs there any reason for this strange time-consuming construction? \nGG\">\n    <meta name=\"author\" content=\"\">\n<meta name=\"generator\" content=\"Discourse 2.2.5 - https://github.com/discourse/discourse version c294ff3609f988dcafb742e91606d60ca13b794d\">\n<link rel=\"icon\" type=\"image/png\" href=\"https://forum.parkinsons.org.uk/uploads/db7928/original/2X/3/311fc84f89f49f38601a2f16b295b6f03d3ce5dd.jpg\">\n<link rel=\"apple-touch-icon\" type=\"image/png\" href=\"https://forum.parkinsons.org.uk/uploads/db7928/original/2X/3/311fc84f89f49f38601a2f16b295b6f03d3ce5dd.jpg\">\n<meta name=\"theme-color\" content=\"#ffffff\">\n<meta name=\"viewport\" content=\"width=device-width, minimum-scale=1.0, maximum-scale=1.0, user-scalable=yes\">\n<link rel=\"canonical\" href=\"https://forum.parkinsons.org.uk/t/latest-post-first/12575?page=2\" />\n<script type=\"application/ld+json\">{\"@context\":\"http://schema.org\",\"@type\":\"WebSite\",\"url\":\"https://forum.parkinsons.org.uk\",\"potentialAction\":{\"@type\":\"SearchAction\",\"target\":\"https://forum.parkinsons.org.uk/search?q={search_term_string}\",\"query-input\":\"required name=search_term_string\"}}</script>\n<link rel=\"search\" type=\"application/opensearchdescription+xml\" href=\"https://forum.parkinsons.org.uk/opensearch.xml\" title=\"Parkinson&#39;s UK Forum Search\">\n\n      <link href=\"/stylesheets/desktop_f99246ae801b083d3e4cca979d0dade8615b39ac.css?__ws=forum.parkinsons.org.uk\" media=\"all\" rel=\"stylesheet\" data-target=\"desktop\" data-theme-id=\"12\"/>\n      <link href=\"/stylesheets/desktop_theme_12_5d27531cf43f9df0c03a6a6ec3109dd05f9dfc49.css?__ws=forum.parkinsons.org.uk\" media=\"all\" rel=\"stylesheet\" data-target=\"desktop_theme\" data-theme-id=\"12\"/>\n    <link href=\"https://fonts.googleapis.com/css?family=Open+Sans\" rel=\"stylesheet\">\n\n    <meta id=\"data-ga-universal-analytics\" data-tracking-code=\"UA-4855628-1\" data-json=\"{&quot;cookieDomain&quot;:&quot;auto&quot;}\" data-auto-link-domains=\"\">\n\n<link rel='preload' href='/assets/google-universal-analytics-f35b4da49411e6f5559073523aab983da483976a3954c79c756f8579f6fbd6ef.js' as='script'/>\n<script src='/assets/google-universal-analytics-f35b4da49411e6f5559073523aab983da483976a3954c79c756f8579f6fbd6ef.js'></script>\n\n      <link rel=\"alternate\" type=\"application/rss+xml\" title=\"RSS feed of &#39;Latest post first?&#39;\" href=\"https://forum.parkinsons.org.uk/t/latest-post-first/12575.rss\" />\n  <meta property=\"og:site_name\" content=\"Parkinson&#39;s UK Forum\" />\n<meta name=\"twitter:card\" content=\"summary\" />\n<meta name=\"twitter:image\" content=\"https://forum.parkinsons.org.uk/uploads/db7928/original/2X/3/311fc84f89f49f38601a2f16b295b6f03d3ce5dd.jpg\" />\n<meta property=\"og:image\" content=\"https://forum.parkinsons.org.uk/uploads/db7928/original/2X/3/311fc84f89f49f38601a2f16b295b6f03d3ce5dd.jpg\" />\n<meta property=\"og:url\" content=\"https://forum.parkinsons.org.uk/t/latest-post-first/12575?page=2\" />\n<meta name=\"twitter:url\" content=\"https://forum.parkinsons.org.uk/t/latest-post-first/12575?page=2\" />\n<meta property=\"og:title\" content=\"Latest post first?\" />\n<meta name=\"twitter:title\" content=\"Latest post first?\" />\n<meta property=\"og:description\" content=\"Hi @T1,  No need to apologise at all and I’m sorry to hear that you’ve been experiencing problems with insomnia. Based on what you’ve described, I think the blue dot that you’re referring to is a notification that you’ve received a private message.  You can view your private messages by clicking on your icon image and by clicking on the envelope image. Please see the imaged attached for further assistance.   I hope that answers your questions, if not, feel free to get back to me.  Thanks,  Reah\" />\n<meta name=\"twitter:description\" content=\"Hi @T1,  No need to apologise at all and I’m sorry to hear that you’ve been experiencing problems with insomnia. Based on what you’ve described, I think the blue dot that you’re referring to is a notification that you’ve received a private message.  You can view your private messages by clicking on your icon image and by clicking on the envelope image. Please see the imaged attached for further assistance.   I hope that answers your questions, if not, feel free to get back to me.  Thanks,  Reah\" />\n<meta name=\"twitter:label1\" value=\"Reading time\" />\n<meta name=\"twitter:data1\" value=\"8 mins \uD83D\uDD51\" />\n<meta name=\"twitter:label2\" value=\"Likes\" />\n<meta name=\"twitter:data2\" value=\"3 ❤\" />\n<meta property=\"article:published_time\" content=\"2018-04-12T15:44:54+00:00\" />\n<meta property=\"og:ignore_canonical\" content=\"true\" />\n\n      <link rel=\"prev\" href=\"/t/latest-post-first/12575\">\n      <link rel=\"next\" href=\"/t/latest-post-first/12575?page=3\">\n\n\n    \n  </head>\n  <body class=\"crawler\">\n    <header role=\"banner\">\n    <div class=\"region region-header\">\n        <div class=\"region-header-wrapper\">\n            <div id=\"block-parkinsons-d8-branding\" class=\"block block-system block-system-branding-block\">\n                <a href=\"/\" title=\"Home\" rel=\"home\" class=\"site-logo\">\n                    <img src=\"https://forum.parkinsons.org.uk/uploads/db7928/original/2X/8/862bb7d172e7d127e7f3e147ec43594aa62ac945.png\" alt=\"Parkinson's UK. Change Attitudes. Find a cure. Join us.\">\n                </a>\n            </div>\n            <div id=\"block-helpline\" class=\"block block-block-content block-block-content871cd5af-b938-4947-9dc0-d5c211d08fe3 style-phone\">\n                <div class=\"field field--name-field-link field--type-link field--label-hidden field__item\"><a href=\"tel:+448088000303\">Helpline 0808 800 0303</a></div>\n            </div>\n            <div id=\"block-shop\" class=\"block block-block-content block-block-content6fba5ae5-7797-49cd-8367-f321d8111cd6 style-regular\">\n                <div class=\"field field--name-field-link field--type-link field--label-hidden field__item\"><a href=\"https://shop.parkinsons.org.uk\">Shop</a></div>\n            </div>\n        </div>\n    </div>\n</header>\n\n\n<script src=\"/theme-javascripts/b7e9763fcb584fc8265c56a9f557cd6d2e1e8ed8.js?__ws=forum.parkinsons.org.uk\"></script>\n    <header>\n      <a href=\"/\">\n          <img src=\"https://forum.parkinsons.org.uk/uploads/db7928/original/2X/8/862bb7d172e7d127e7f3e147ec43594aa62ac945.png\" alt=\"Parkinson&#39;s UK Forum\" id=\"site-logo\" style=\"max-width: 150px;\">\n      </a>\n    </header>\n    <div id=\"main-outlet\" class=\"wrap\">\n      <h1>\n  <a href=\"/t/latest-post-first/12575\">Latest post first?</a>\n</h1>\n\n<div id='breadcrumbs'>\n    <div id=\"breadcrumb-0\" itemscope itemtype=\"http://data-vocabulary.org/Breadcrumb\"\n        itemref=\"breadcrumb-1\"\n      >\n      <a href=\"/c/about-the-forum\" itemprop=\"url\">\n        <span itemprop=\"title\">About the forum</span>\n      </a>\n    </div>\n    <div id=\"breadcrumb-1\" itemscope itemtype=\"http://data-vocabulary.org/Breadcrumb\"\n>\n      <a href=\"/c/about-the-forum/our-forum-is-changing\" itemprop=\"url\">\n        <span itemprop=\"title\">Our forum is changing</span>\n      </a>\n    </div>\n</div>\n\n\n\n\n\n<hr>\n\n\n  <div itemscope itemtype='http://schema.org/DiscussionForumPosting'>\n      <div class='creator'>\n        <span>\n          <a href='/u/Reah'><b itemprop='author'>Reah</b></a>\n          \n          <time datetime='2018-04-12T15:44:54Z' itemprop='datePublished'>\n            2018-04-12 15:44:54 UTC\n          </time>\n        </span>\n        <span itemprop='position'>#21</span>\n      </div>\n      <div class='post' itemprop='articleBody'>\n        <p>Hi <a class=\"mention\" href=\"/u/t1\">@T1</a>,</p>\n<p>No need to apologise at all and I’m sorry to hear that you’ve been experiencing problems with insomnia. Based on what you’ve described, I think the blue dot that you’re referring to is a notification that you’ve received a private message.</p>\n<p>You can view your private messages by clicking on your icon image and by clicking on the envelope image. Please see the imaged attached for further assistance. <img src=\"//forum.parkinsons.org.uk/uploads/db7928/original/2X/a/ae44d189af6ec616ff3677572e1d6283e6cdc26e.jpg\" alt=\"Profile pic 2\" width=\"488\" height=\"120\"></p>\n<p>I hope that answers your questions, if not, feel free to get back to me.</p>\n<p>Thanks,<br>\nReah</p>\n      </div>\n      <meta itemprop='interactionCount' content='UserLikes:0'>\n      <meta itemprop='interactionCount' content='UserComments:2'>\n      <meta itemprop='headline' content='Latest post first?'>\n      <hr>\n  </div>\n  <div itemscope itemtype='http://schema.org/DiscussionForumPosting'>\n      <div class='creator'>\n        <span>\n          <a href='/u/T1'><b itemprop='author'>T1</b></a>\n          \n          <time datetime='2018-04-12T17:03:47Z' itemprop='datePublished'>\n            2018-04-12 17:03:47 UTC\n          </time>\n        </span>\n        <span itemprop='position'>#22</span>\n      </div>\n      <div class='post' itemprop='articleBody'>\n        <p>Thanks Reah<br>\nMaybe before they close the curtains on me whilst playing Nighswimming by R.E.M. i too could become an I.T. expert<br>\nThat was a long way to say croak it but I might as well use the grey matter while I still can.<br>\nAnyway I.T. expert is probably pushing the envelope so I think I’ll settle for using a smartphone. It’s more than the dinosaurs managed. Thanks Again dark humored Tommy</p>\n      </div>\n      <meta itemprop='interactionCount' content='UserLikes:0'>\n      <meta itemprop='interactionCount' content='UserComments:0'>\n      <meta itemprop='headline' content='Latest post first?'>\n      <hr>\n  </div>\n  <div itemscope itemtype='http://schema.org/DiscussionForumPosting'>\n      <div class='creator'>\n        <span>\n          <a href='/u/T1'><b itemprop='author'>T1</b></a>\n          \n          <time datetime='2018-04-13T19:12:30Z' itemprop='datePublished'>\n            2018-04-13 19:12:30 UTC\n          </time>\n        </span>\n        <span itemprop='position'>#23</span>\n      </div>\n      <div class='post' itemprop='articleBody'>\n        <p>Hi Reah<br>\nAs you probably know I live in Oxfordshire I’ve just been talking to my son in Glasgow and he said if he types in 4am club forum on Google he can read my posts is this true<br>\nAnd is there any way to make it just for pduk users?<br>\nTommy</p>\n      </div>\n      <meta itemprop='interactionCount' content='UserLikes:0'>\n      <meta itemprop='interactionCount' content='UserComments:0'>\n      <meta itemprop='headline' content='Latest post first?'>\n      <hr>\n  </div>\n  <div itemscope itemtype='http://schema.org/DiscussionForumPosting'>\n      <div class='creator'>\n        <span>\n          <a href='/u/Reah'><b itemprop='author'>Reah</b></a>\n          \n          <time datetime='2018-04-16T09:38:14Z' itemprop='datePublished'>\n            2018-04-16 09:38:14 UTC\n          </time>\n        </span>\n        <span itemprop='position'>#24</span>\n      </div>\n      <div class='post' itemprop='articleBody'>\n        <p>Hi <a class=\"mention\" href=\"/u/t1\">@T1</a>,</p>\n<p>I hope all is well.</p>\n<p>I noticed that you sent me a private message which I’ve now responded to.</p>\n<p>Best wishes,<br>\nReah</p>\n      </div>\n      <meta itemprop='interactionCount' content='UserLikes:0'>\n      <meta itemprop='interactionCount' content='UserComments:1'>\n      <meta itemprop='headline' content='Latest post first?'>\n      <hr>\n  </div>\n  <div itemscope itemtype='http://schema.org/DiscussionForumPosting'>\n      <div class='creator'>\n        <span>\n          <a href='/u/T1'><b itemprop='author'>T1</b></a>\n          \n          <time datetime='2018-04-16T12:27:19Z' itemprop='datePublished'>\n            2018-04-16 12:27:19 UTC\n          </time>\n        </span>\n        <span itemprop='position'>#25</span>\n      </div>\n      <div class='post' itemprop='articleBody'>\n        <p>Thanks for explaining that Reah<br>\nI guess I’ll have to be a bit more careful what I post.<br>\nYou see my son is a bit of a computer nerd .<br>\nMy fault really I bought him an Amstrad when he was 6 years old and he had learned BBC basic by about, 7<br>\nJust as well I didn’t mention his huge nose or the fact that he was useless at football when younger.<br>\nOOPS oh well I’m sure he’ll get over that last bit.<br>\nAnd anyway I’ve already received my birthday present this year HaHa all the best… Tommy</p>\n      </div>\n      <meta itemprop='interactionCount' content='UserLikes:0'>\n      <meta itemprop='interactionCount' content='UserComments:0'>\n      <meta itemprop='headline' content='Latest post first?'>\n      <hr>\n  </div>\n  <div itemscope itemtype='http://schema.org/DiscussionForumPosting'>\n      <div class='creator'>\n        <span>\n          <a href='/u/benji'><b itemprop='author'>benji</b></a>\n          \n          <time datetime='2018-04-19T22:44:06Z' itemprop='datePublished'>\n            2018-04-19 22:44:06 UTC\n          </time>\n        </span>\n        <span itemprop='position'>#26</span>\n      </div>\n      <div class='post' itemprop='articleBody'>\n        <p>\"I’ve spoken to our forum developers and they’ve confirmed that by changing the chronological order of posts, <strong>it will cause a variety of implications elsewhere on the forum which won’t be in the best interest of our members.\"</strong></p>\n<p>Such as?</p>\n      </div>\n      <meta itemprop='interactionCount' content='UserLikes:0'>\n      <meta itemprop='interactionCount' content='UserComments:0'>\n      <meta itemprop='headline' content='Latest post first?'>\n      <hr>\n  </div>\n  <div itemscope itemtype='http://schema.org/DiscussionForumPosting'>\n      <div class='creator'>\n        <span>\n          <a href='/u/benji'><b itemprop='author'>benji</b></a>\n          \n          <time datetime='2018-04-19T22:51:00Z' itemprop='datePublished'>\n            2018-04-19 22:51:00 UTC\n          </time>\n        </span>\n        <span itemprop='position'>#27</span>\n      </div>\n      <div class='post' itemprop='articleBody'>\n        <p>I’ve just been talking to my son in Glasgow and he said if he types in 4am club forum on Google he can read my posts.</p>\n<p>Just tried this and it really does lead you to this forum. Appalling!! But, we’ve been there before many times and nothing will change. Anything you post on the here is there for all to see, if they use the right search  words.Sadly this is not a closed forum, so, poster beware.</p>\n      </div>\n      <meta itemprop='interactionCount' content='UserLikes:0'>\n      <meta itemprop='interactionCount' content='UserComments:0'>\n      <meta itemprop='headline' content='Latest post first?'>\n      <hr>\n  </div>\n  <div itemscope itemtype='http://schema.org/DiscussionForumPosting'>\n      <div class='creator'>\n        <span>\n          <a href='/u/Reah'><b itemprop='author'>Reah</b></a>\n          \n          <time datetime='2018-04-20T09:29:25Z' itemprop='datePublished'>\n            2018-04-20 09:29:25 UTC\n          </time>\n        </span>\n        <span itemprop='position'>#28</span>\n      </div>\n      <div class='post' itemprop='articleBody'>\n        <p>Hi <a class=\"mention\" href=\"/u/benji\">@benji</a>,</p>\n<p>Thank you for your comment. I’m sorry you feel this way, however, we’ve made it clear in our <a href=\"https://forum.parkinsons.org.uk/faq\">forum rules</a> that the forum is public and the threads can be found on search engines (aside from the social club) which is why your son was able to view the ‘4am club’ thread.</p>\n<p>If you have any further concerns or questions about our privacy settings, please feel free to send an email to <a href=\"/cdn-cgi/l/email-protection#40262525242221232b003021322b292e332f2e336e2f32276e352b\"><span class=\"__cf_email__\" data-cfemail=\"bed8dbdbdadcdfddd5fecedfccd5d7d0cdd1d0cd90d1ccd990cbd5\">[email&#160;protected]</span></a>.</p>\n<p>Best wishes,<br>\nReah</p>\n      </div>\n      <meta itemprop='interactionCount' content='UserLikes:0'>\n      <meta itemprop='interactionCount' content='UserComments:0'>\n      <meta itemprop='headline' content='Latest post first?'>\n      <hr>\n  </div>\n  <div itemscope itemtype='http://schema.org/DiscussionForumPosting'>\n      <div class='creator'>\n        <span>\n          <a href='/u/benji'><b itemprop='author'>benji</b></a>\n          \n          <time datetime='2018-04-20T11:00:06Z' itemprop='datePublished'>\n            2018-04-20 11:00:06 UTC\n          </time>\n        </span>\n        <span itemprop='position'>#29</span>\n      </div>\n      <div class='post' itemprop='articleBody'>\n        <p>I quoted a post by T1 and added my comment. I don’t have a son.<img src=\"//forum.parkinsons.org.uk/images/emoji/twitter/face_with_raised_eyebrow.png?v=5\" title=\":face_with_raised_eyebrow:\" class=\"emoji\" alt=\":face_with_raised_eyebrow:\"></p>\n      </div>\n      <meta itemprop='interactionCount' content='UserLikes:0'>\n      <meta itemprop='interactionCount' content='UserComments:0'>\n      <meta itemprop='headline' content='Latest post first?'>\n      <hr>\n  </div>\n  <div itemscope itemtype='http://schema.org/DiscussionForumPosting'>\n      <div class='creator'>\n        <span>\n          <a href='/u/Eileenpatricia'><b itemprop='author'>Eileenpatricia</b></a>\n          \n          <time datetime='2018-04-20T18:15:05Z' itemprop='datePublished'>\n            2018-04-20 18:15:05 UTC\n          </time>\n        </span>\n        <span itemprop='position'>#30</span>\n      </div>\n      <div class='post' itemprop='articleBody'>\n        <p>Last time i looked at this site it had made a distinct improvement.Now someone has dug it up  to see if it’s growing</p>\n      </div>\n      <meta itemprop='interactionCount' content='UserLikes:0'>\n      <meta itemprop='interactionCount' content='UserComments:0'>\n      <meta itemprop='headline' content='Latest post first?'>\n      <hr>\n  </div>\n  <div itemscope itemtype='http://schema.org/DiscussionForumPosting'>\n      <div class='creator'>\n        <span>\n          <a href='/u/benji'><b itemprop='author'>benji</b></a>\n          \n          <time datetime='2018-04-21T21:58:47Z' itemprop='datePublished'>\n            2018-04-21 21:58:47 UTC\n          </time>\n        </span>\n        <span itemprop='position'>#31</span>\n      </div>\n      <div class='post' itemprop='articleBody'>\n        <p>I just hope that that the money that is sent from our branch  to HO for research, is not used for research into forum improvements!</p>\n<p>I wonder how many thousand of pounds this re incarnation of the forum cost? And, for what purpose???</p>\n<p>I think that many members were happy with  how it was before. The old  adage comes to mind…if it ain’t broke, why fix it?</p>\n<p>I was locked out of the new forum for months, just when I needed advice and support at a very difficult time.</p>\n<p>I asked if Admin could delete my account and I could register again with a new name, very similar to my user name of years, and explain that in a post. The answer was great big NO.</p>\n<p>All I received was numerous e mails telling me to click on the link to reset my password, OR, be on the phone whilst this was resolved. I was at the hospital most of the day so that was a no no.Nothing worked.</p>\n<p>Ultimately I tried something, don’t know what I did, and that did it after weeks of not being able to gain access.</p>\n<p>I frequent holiday forums and when such a glitch in access has happened, it is very easy for the Admin on there to sort this out very quickly. Why not here???</p>\n<p>How many times now have we had a ‘new’ forum and all the accompanying problems with usage??</p>\n      </div>\n      <meta itemprop='interactionCount' content='UserLikes:0'>\n      <meta itemprop='interactionCount' content='UserComments:0'>\n      <meta itemprop='headline' content='Latest post first?'>\n      <hr>\n  </div>\n  <div itemscope itemtype='http://schema.org/DiscussionForumPosting'>\n      <div class='creator'>\n        <span>\n          <a href='/u/benji'><b itemprop='author'>benji</b></a>\n          \n          <time datetime='2018-04-21T22:27:34Z' itemprop='datePublished'>\n            2018-04-21 22:27:34 UTC\n          </time>\n        </span>\n        <span itemprop='position'>#32</span>\n      </div>\n      <div class='post' itemprop='articleBody'>\n        <p>benji2d<br>\n\"I’ve spoken to our forum developers and they’ve confirmed that by changing the chronological order of posts, it will cause a variety of implications elsewhere on the forum which won’t be in the best interest of our members.\"</p>\n<p>Such as?</p>\n      </div>\n      <meta itemprop='interactionCount' content='UserLikes:0'>\n      <meta itemprop='interactionCount' content='UserComments:0'>\n      <meta itemprop='headline' content='Latest post first?'>\n      <hr>\n  </div>\n  <div itemscope itemtype='http://schema.org/DiscussionForumPosting'>\n      <div class='creator'>\n        <span>\n          <a href='/u/goldengirl'><b itemprop='author'>goldengirl</b></a>\n          \n          <time datetime='2018-04-23T09:00:21Z' itemprop='datePublished'>\n            2018-04-23 09:00:21 UTC\n          </time>\n        </span>\n        <span itemprop='position'>#33</span>\n      </div>\n      <div class='post' itemprop='articleBody'>\n        <p>I also would like to know…<br>\nGG</p>\n      </div>\n      <meta itemprop='interactionCount' content='UserLikes:0'>\n      <meta itemprop='interactionCount' content='UserComments:0'>\n      <meta itemprop='headline' content='Latest post first?'>\n      <hr>\n  </div>\n  <div itemscope itemtype='http://schema.org/DiscussionForumPosting'>\n      <div class='creator'>\n        <span>\n          <a href='/u/Reah'><b itemprop='author'>Reah</b></a>\n          \n          <time datetime='2018-04-23T16:48:48Z' itemprop='datePublished'>\n            2018-04-23 16:48:48 UTC\n          </time>\n        </span>\n        <span itemprop='position'>#34</span>\n      </div>\n      <div class='post' itemprop='articleBody'>\n        <p>Hi benji,</p>\n<p>Thanks for your feedback on the new forum.</p>\n<p>We had to change the old platform that the Parkinson’s UK website was hosted on and as the forum was hosted on this too, we had no choice but to change it as well. I can assure you that we got a really cost-effective solution that offers a lot more than our old forum and we also user tested the new forum with other forum members who found it easy to use during the testing phase. Most of our members have adapted to the new forum pretty well and I am more than happy to support you so that you can get to  this stage too.</p>\n<p>We really wanted (and tried) to support you when you couldn’t access the forum but in just creating a new account we ran the risk of the same problem happening again. However, I appreciate that was very frustrating for you and I am here to help if you continue to experience any more issues on the forum.</p>\n<p>Regarding the chronological order of the posts, by changing this it would cause disruptions on the back end of the forum with our settings which has more technical implications. Without boring you with too much techy jargon, everything on the forum assumes chronological order and if we were to change this, it would break that assumption everywhere.</p>\n<p>We always appreciate feedback from our members and again, if you have any more feedback that you’d like to share with us, please email our feedback department (I think I noted the email address in my previous response).</p>\n<p>I hope this provides more clarity for you and please let me know if there is anything else we can do to support you.</p>\n<p>Best wishes,<br>\nReah</p>\n      </div>\n      <meta itemprop='interactionCount' content='UserLikes:0'>\n      <meta itemprop='interactionCount' content='UserComments:2'>\n      <meta itemprop='headline' content='Latest post first?'>\n      <hr>\n  </div>\n  <div itemscope itemtype='http://schema.org/DiscussionForumPosting'>\n      <div class='creator'>\n        <span>\n          <a href='/u/benji'><b itemprop='author'>benji</b></a>\n          \n          <time datetime='2018-04-25T23:21:45Z' itemprop='datePublished'>\n            2018-04-25 23:21:45 UTC\n          </time>\n        </span>\n        <span itemprop='position'>#35</span>\n      </div>\n      <div class='post' itemprop='articleBody'>\n        <aside class=\"quote\" data-post=\"34\" data-topic=\"12575\">\n<div class=\"title\">\n<div class=\"quote-controls\"></div>\n<img alt width=\"20\" height=\"20\" src=\"//forum.parkinsons.org.uk/user_avatar/forum.parkinsons.org.uk/reah/40/1665_1.png\" class=\"avatar\"> Reah:</div>\n<blockquote>\n<p>We had to change the old platform that the Parkinson’s UK website was hosted on</p>\n</blockquote>\n</aside>\n<p>Why? was it broke. The old adage… 'if it aint broke why fix it?</p>\n<p><em>‘offers a lot more than our old forum.’</em> What exactly?</p>\n<p>I would have loved to tested the new forum BUT I had no access!!! I even signed in, as advised to do so, before the required date and still had no access.<br>\nAs is evident I managed somehow, don’t know how, to gain access eventually.</p>\n<p>'we ran the risk of the same problem happening again’explain what that problem might have been, because, I said before, when similar problems have been encountered on other forums that I use…there has never been a problem with deleting an account and creating a new one.</p>\n<p>Money spent on this debacle would have been better spent elsewhere, IMO.</p>\n      </div>\n      <meta itemprop='interactionCount' content='UserLikes:0'>\n      <meta itemprop='interactionCount' content='UserComments:0'>\n      <meta itemprop='headline' content='Latest post first?'>\n      <hr>\n  </div>\n  <div itemscope itemtype='http://schema.org/DiscussionForumPosting'>\n      <div class='creator'>\n        <span>\n          <a href='/u/benji'><b itemprop='author'>benji</b></a>\n          \n          <time datetime='2018-04-25T23:27:16Z' itemprop='datePublished'>\n            2018-04-25 23:27:16 UTC\n          </time>\n        </span>\n        <span itemprop='position'>#36</span>\n      </div>\n      <div class='post' itemprop='articleBody'>\n        <aside class=\"quote\" data-post=\"34\" data-topic=\"12575\">\n<div class=\"title\">\n<div class=\"quote-controls\"></div>\n<img alt width=\"20\" height=\"20\" src=\"//forum.parkinsons.org.uk/user_avatar/forum.parkinsons.org.uk/reah/40/1665_1.png\" class=\"avatar\"> Reah:</div>\n<blockquote>\n<p>Regarding the chronological order of the posts, by changing this <em>it would cause disruptions on the back end of the forum with our settings</em> which has more technical implications. Without boring you with too much techy jargon, <em>everything on the forum assumes chronological order and if we were to change this, it would break that assumption everywhere.</em></p>\n</blockquote>\n</aside>\n<p>I frequently comment on plain English summaries by researcher applying for grants from PUK via my involvement with the RSN and the off shoot, the area RIG group.</p>\n<p>Could you put this into plain English?</p>\n      </div>\n      <meta itemprop='interactionCount' content='UserLikes:0'>\n      <meta itemprop='interactionCount' content='UserComments:0'>\n      <meta itemprop='headline' content='Latest post first?'>\n      <hr>\n  </div>\n  <div itemscope itemtype='http://schema.org/DiscussionForumPosting'>\n      <div class='creator'>\n        <span>\n          <a href='/u/Reah'><b itemprop='author'>Reah</b></a>\n          \n          <time datetime='2018-04-27T17:01:17Z' itemprop='datePublished'>\n            2018-04-27 17:01:17 UTC\n          </time>\n        </span>\n        <span itemprop='position'>#37</span>\n      </div>\n      <div class='post' itemprop='articleBody'>\n        <p>Hi <a class=\"mention\" href=\"/u/benji\">@benji</a>,</p>\n<p>Thanks for your response.</p>\n<p>To answer your question about the old platform, we had to change it in order to update the website to make it more user friendly for our visitors and the old platform could not facilitate these changes. This also affected the forum as mentioned in my previous comment.</p>\n<p>Regarding the order of threads, when members come to a tread they are automatically taken to the most recent comment and this is common practice across many forums. Unfortunately, due to more technical reasons that affect the general management of the forum, we cannot change the chronological order of the posts.</p>\n<p>Again, if you have any more queries or feedback on the forum, please feel free to email our feedback department at <a href=\"/cdn-cgi/l/email-protection#1d7b7878797f7c7e765d6d7c6f7674736e72736e33726f7a336876\"><span class=\"__cf_email__\" data-cfemail=\"ef898a8a8b8d8e8c84af9f8e9d8486819c80819cc1809d88c19a84\">[email&#160;protected]</span></a>.</p>\n<p>Kind regards,<br>\nReah</p>\n      </div>\n      <meta itemprop='interactionCount' content='UserLikes:1'>\n      <meta itemprop='interactionCount' content='UserComments:0'>\n      <meta itemprop='headline' content='Latest post first?'>\n      <hr>\n  </div>\n  <div itemscope itemtype='http://schema.org/DiscussionForumPosting'>\n      <div class='creator'>\n        <span>\n          <a href='/u/goldengirl'><b itemprop='author'>goldengirl</b></a>\n          \n          <time datetime='2018-04-27T17:48:35Z' itemprop='datePublished'>\n            2018-04-27 17:48:35 UTC\n          </time>\n        </span>\n        <span itemprop='position'>#38</span>\n      </div>\n      <div class='post' itemprop='articleBody'>\n        <p>What am I doing wrong?<br>\nI don’t get taken to the latest post!<br>\nI have to scroll through them or faff with the ‘Jump to’ procedure…which I wouldn’t have known about without a member’s help.<br>\nHow do new users find out how to do it?<br>\nStill wondering about the knickers and crackers…<br>\nJust clicked on the heart above and accidentally 'liked’<br>\nIt!</p>\n      </div>\n      <meta itemprop='interactionCount' content='UserLikes:1'>\n      <meta itemprop='interactionCount' content='UserComments:0'>\n      <meta itemprop='headline' content='Latest post first?'>\n      <hr>\n  </div>\n  <div itemscope itemtype='http://schema.org/DiscussionForumPosting'>\n      <div class='creator'>\n        <span>\n          <a href='/u/benji'><b itemprop='author'>benji</b></a>\n          \n          <time datetime='2018-04-27T18:34:00Z' itemprop='datePublished'>\n            2018-04-27 18:34:00 UTC\n          </time>\n        </span>\n        <span itemprop='position'>#39</span>\n      </div>\n      <div class='post' itemprop='articleBody'>\n        <p>GG</p>\n<p>I am none the wiser even after Admin’s reply.</p>\n<p>They changed/updated the website to make it…_____<em>'more user</em> <em>friendly</em>.’_Excuse me whilst I splutter in to my G&amp;T.</p>\n      </div>\n      <meta itemprop='interactionCount' content='UserLikes:0'>\n      <meta itemprop='interactionCount' content='UserComments:0'>\n      <meta itemprop='headline' content='Latest post first?'>\n      <hr>\n  </div>\n  <div itemscope itemtype='http://schema.org/DiscussionForumPosting'>\n      <div class='creator'>\n        <span>\n          <a href='/u/benji'><b itemprop='author'>benji</b></a>\n          \n          <time datetime='2018-04-27T18:42:22Z' itemprop='datePublished'>\n            2018-04-27 18:42:22 UTC\n          </time>\n        </span>\n        <span itemprop='position'>#40</span>\n      </div>\n      <div class='post' itemprop='articleBody'>\n        <p>Below is what I just got when I searched ‘cutlery’ on the PUK shop.<br>\nThe picture showed the clothing protectors but the blurb was all about a tray???</p>\n<p><em>Self adhesive clothing protectors (pack of 100)</em></p>\n<p>_  _<br>\n_Regular price  £17.00    _</p>\n<p>_ _</p>\n<p>_ Add to cart  _<br>\n_   _</p>\n<p><em>Product information</em></p>\n<p><em>Delivery and returns</em></p>\n<p><em>VAT exemption</em></p>\n<p><em>Stop splashes and spills with this oak finish non-slip tray. It’s ideal for people who are less steady or those who have tremors. Compact and durable, the tray has a special non-slip coating, perfect to use at home or outside. It has an outside lip, two handles and can hold a glass, cup or plate at angles of up to 40 degrees.</em></p>\n<p><em>Product information</em><br>\n<em>•45.5cm x 32.5cm</em></p>\n      </div>\n      <meta itemprop='interactionCount' content='UserLikes:0'>\n      <meta itemprop='interactionCount' content='UserComments:1'>\n      <meta itemprop='headline' content='Latest post first?'>\n      <hr>\n  </div>\n\n  <div role='navigation' itemscope itemtype='http://schema.org/SiteNavigationElement'>\n      <span itemprop='name'><a rel=\"prev\" itemprop=\"url\" href=\"/t/latest-post-first/12575\">← previous page</a></span>\n      <span itemprop='name'><b><a rel=\"next\" itemprop=\"url\" href=\"/t/latest-post-first/12575?page=3\">next page →</a></b></span>\n  </div>\n\n\n\n\n\n    </div>\n    <footer class=\"container\">\n      <nav class='crawler-nav' itemscope itemtype='http://schema.org/SiteNavigationElement'>\n        <a href='/'>Home</a>\n        <a href=\"/categories\">Categories</a>\n        <a href=\"/guidelines\">FAQ/Guidelines</a>\n        <a href=\"/tos\">Terms of Service</a>\n        <a href=\"/privacy\">Privacy Policy</a>\n      </nav>\n      <p class='powered-by-link'>Powered by <a href=\"https://www.discourse.org\">Discourse</a>, best viewed with JavaScript enabled</p>\n    </footer>\n    \n  <script data-cfasync=\"false\" src=\"/cdn-cgi/scripts/5c5dd728/cloudflare-static/email-decode.min.js\"></script></body>\n  \n</html>\n",
  "url": "https://forum.parkinsons.org.uk/t/latest-post-first/12575?page=2"
}