{
  "contentId": "ecffdc20-886b-11e9-8f96-97f71b5221d6",
  "html": "<!DOCTYPE html>\n<html lang=\"en\">\n  <head>\n    <meta charset=\"utf-8\">\n    <title>Newly Diagnosed  - Newly diagnosed - Parkinson&#39;s UK Forum</title>\n    <meta name=\"description\" content=\"Hi All, \nJust been to see a specialist to get confirmed what I’d suspected was wrong. \nI know many will have asked so apologies for asking again. \nWhat questions did people find invaluable in asking especially for people&amp;hellip;\">\n    <meta name=\"author\" content=\"\">\n<meta name=\"generator\" content=\"Discourse 2.2.5 - https://github.com/discourse/discourse version c294ff3609f988dcafb742e91606d60ca13b794d\">\n<link rel=\"icon\" type=\"image/png\" href=\"https://forum.parkinsons.org.uk/uploads/db7928/original/2X/3/311fc84f89f49f38601a2f16b295b6f03d3ce5dd.jpg\">\n<link rel=\"apple-touch-icon\" type=\"image/png\" href=\"https://forum.parkinsons.org.uk/uploads/db7928/original/2X/3/311fc84f89f49f38601a2f16b295b6f03d3ce5dd.jpg\">\n<meta name=\"theme-color\" content=\"#ffffff\">\n<meta name=\"viewport\" content=\"width=device-width, minimum-scale=1.0, maximum-scale=1.0, user-scalable=yes\">\n<link rel=\"canonical\" href=\"https://forum.parkinsons.org.uk/t/newly-diagnosed/13647\" />\n<script type=\"application/ld+json\">{\"@context\":\"http://schema.org\",\"@type\":\"WebSite\",\"url\":\"https://forum.parkinsons.org.uk\",\"potentialAction\":{\"@type\":\"SearchAction\",\"target\":\"https://forum.parkinsons.org.uk/search?q={search_term_string}\",\"query-input\":\"required name=search_term_string\"}}</script>\n<link rel=\"search\" type=\"application/opensearchdescription+xml\" href=\"https://forum.parkinsons.org.uk/opensearch.xml\" title=\"Parkinson&#39;s UK Forum Search\">\n\n      <link href=\"/stylesheets/desktop_f99246ae801b083d3e4cca979d0dade8615b39ac.css?__ws=forum.parkinsons.org.uk\" media=\"all\" rel=\"stylesheet\" data-target=\"desktop\" data-theme-id=\"12\"/>\n      <link href=\"/stylesheets/desktop_theme_12_5d27531cf43f9df0c03a6a6ec3109dd05f9dfc49.css?__ws=forum.parkinsons.org.uk\" media=\"all\" rel=\"stylesheet\" data-target=\"desktop_theme\" data-theme-id=\"12\"/>\n    <link href=\"https://fonts.googleapis.com/css?family=Open+Sans\" rel=\"stylesheet\">\n\n    <meta id=\"data-ga-universal-analytics\" data-tracking-code=\"UA-4855628-1\" data-json=\"{&quot;cookieDomain&quot;:&quot;auto&quot;}\" data-auto-link-domains=\"\">\n\n<link rel='preload' href='/assets/google-universal-analytics-f35b4da49411e6f5559073523aab983da483976a3954c79c756f8579f6fbd6ef.js' as='script'/>\n<script src='/assets/google-universal-analytics-f35b4da49411e6f5559073523aab983da483976a3954c79c756f8579f6fbd6ef.js'></script>\n\n      <link rel=\"alternate\" type=\"application/rss+xml\" title=\"RSS feed of &#39;Newly Diagnosed &#39;\" href=\"https://forum.parkinsons.org.uk/t/newly-diagnosed/13647.rss\" />\n  <meta property=\"og:site_name\" content=\"Parkinson&#39;s UK Forum\" />\n<meta name=\"twitter:card\" content=\"summary\" />\n<meta name=\"twitter:image\" content=\"https://forum.parkinsons.org.uk/uploads/db7928/original/2X/3/311fc84f89f49f38601a2f16b295b6f03d3ce5dd.jpg\" />\n<meta property=\"og:image\" content=\"https://forum.parkinsons.org.uk/uploads/db7928/original/2X/3/311fc84f89f49f38601a2f16b295b6f03d3ce5dd.jpg\" />\n<meta property=\"og:url\" content=\"https://forum.parkinsons.org.uk/t/newly-diagnosed/13647\" />\n<meta name=\"twitter:url\" content=\"https://forum.parkinsons.org.uk/t/newly-diagnosed/13647\" />\n<meta property=\"og:title\" content=\"Newly Diagnosed \" />\n<meta name=\"twitter:title\" content=\"Newly Diagnosed \" />\n<meta property=\"og:description\" content=\"Hi All,  Just been to see a specialist to get confirmed what I’d suspected was wrong.  I know many will have asked so apologies for asking again.  What questions did people find invaluable in asking especially for people my age which is 44  Cheers, Shane\" />\n<meta name=\"twitter:description\" content=\"Hi All,  Just been to see a specialist to get confirmed what I’d suspected was wrong.  I know many will have asked so apologies for asking again.  What questions did people find invaluable in asking especially for people my age which is 44  Cheers, Shane\" />\n<meta property=\"article:published_time\" content=\"2018-05-22T21:05:01+00:00\" />\n<meta property=\"og:ignore_canonical\" content=\"true\" />\n\n\n\n    \n  </head>\n  <body class=\"crawler\">\n    <header role=\"banner\">\n    <div class=\"region region-header\">\n        <div class=\"region-header-wrapper\">\n            <div id=\"block-parkinsons-d8-branding\" class=\"block block-system block-system-branding-block\">\n                <a href=\"/\" title=\"Home\" rel=\"home\" class=\"site-logo\">\n                    <img src=\"https://forum.parkinsons.org.uk/uploads/db7928/original/2X/8/862bb7d172e7d127e7f3e147ec43594aa62ac945.png\" alt=\"Parkinson's UK. Change Attitudes. Find a cure. Join us.\">\n                </a>\n            </div>\n            <div id=\"block-helpline\" class=\"block block-block-content block-block-content871cd5af-b938-4947-9dc0-d5c211d08fe3 style-phone\">\n                <div class=\"field field--name-field-link field--type-link field--label-hidden field__item\"><a href=\"tel:+448088000303\">Helpline 0808 800 0303</a></div>\n            </div>\n            <div id=\"block-shop\" class=\"block block-block-content block-block-content6fba5ae5-7797-49cd-8367-f321d8111cd6 style-regular\">\n                <div class=\"field field--name-field-link field--type-link field--label-hidden field__item\"><a href=\"https://shop.parkinsons.org.uk\">Shop</a></div>\n            </div>\n        </div>\n    </div>\n</header>\n\n\n<script src=\"/theme-javascripts/b7e9763fcb584fc8265c56a9f557cd6d2e1e8ed8.js?__ws=forum.parkinsons.org.uk\"></script>\n    <header>\n      <a href=\"/\">\n          <img src=\"https://forum.parkinsons.org.uk/uploads/db7928/original/2X/8/862bb7d172e7d127e7f3e147ec43594aa62ac945.png\" alt=\"Parkinson&#39;s UK Forum\" id=\"site-logo\" style=\"max-width: 150px;\">\n      </a>\n    </header>\n    <div id=\"main-outlet\" class=\"wrap\">\n      <h1>\n  <a href=\"/t/newly-diagnosed/13647\">Newly Diagnosed </a>\n</h1>\n\n<div id='breadcrumbs'>\n    <div id=\"breadcrumb-0\" itemscope itemtype=\"http://data-vocabulary.org/Breadcrumb\"\n        itemref=\"breadcrumb-1\"\n      >\n      <a href=\"/c/about-parkinsons-and-health\" itemprop=\"url\">\n        <span itemprop=\"title\">About Parkinson&#39;s and health</span>\n      </a>\n    </div>\n    <div id=\"breadcrumb-1\" itemscope itemtype=\"http://data-vocabulary.org/Breadcrumb\"\n>\n      <a href=\"/c/about-parkinsons-and-health/newly-diagnosed\" itemprop=\"url\">\n        <span itemprop=\"title\">Newly diagnosed</span>\n      </a>\n    </div>\n</div>\n\n\n\n\n\n<hr>\n\n\n  <div itemscope itemtype='http://schema.org/DiscussionForumPosting'>\n      <div class='creator'>\n        <span>\n          <a href='/u/Shane'><b itemprop='author'>Shane</b></a>\n          \n          <time datetime='2018-05-22T21:05:01Z' itemprop='datePublished'>\n            2018-05-22 21:05:01 UTC\n          </time>\n        </span>\n        <span itemprop='position'>#1</span>\n      </div>\n      <div class='post' itemprop='articleBody'>\n        <p>Hi All,</p>\n<p>Just been to see a specialist to get confirmed what I’d suspected was wrong.</p>\n<p>I know many will have asked so apologies for asking again.</p>\n<p>What questions did people find invaluable in asking especially for people my age which is 44</p>\n<p>Cheers, Shane</p>\n      </div>\n      <meta itemprop='interactionCount' content='UserLikes:0'>\n      <meta itemprop='interactionCount' content='UserComments:0'>\n      <meta itemprop='headline' content='Newly Diagnosed '>\n      <hr>\n  </div>\n  <div itemscope itemtype='http://schema.org/DiscussionForumPosting'>\n      <div class='creator'>\n        <span>\n          <a href='/u/Hubby'><b itemprop='author'>Hubby</b></a>\n          \n          <time datetime='2018-05-23T04:09:59Z' itemprop='datePublished'>\n            2018-05-23 04:09:59 UTC\n          </time>\n        </span>\n        <span itemprop='position'>#2</span>\n      </div>\n      <div class='post' itemprop='articleBody'>\n        <p>Hi Shane.<br>\nYour head must be spinning.<br>\nWrite things down as they come to you.<br>\nNothing is too trivial.<br>\nKeep asking questions.<br>\nWork,driving,excercising,sex,drugs…<br>\nSo many things to remember.<br>\nThis forum is a lifesaver.<br>\nPut it on your favourites!!<br>\nWe’re here for you mate!!</p>\n      </div>\n      <meta itemprop='interactionCount' content='UserLikes:1'>\n      <meta itemprop='interactionCount' content='UserComments:0'>\n      <meta itemprop='headline' content='Newly Diagnosed '>\n      <hr>\n  </div>\n  <div itemscope itemtype='http://schema.org/DiscussionForumPosting'>\n      <div class='creator'>\n        <span>\n          <a href='/u/Divine1'><b itemprop='author'>Divine1</b></a>\n          \n          <time datetime='2018-05-23T08:34:54Z' itemprop='datePublished'>\n            2018-05-23 08:34:54 UTC\n          </time>\n        </span>\n        <span itemprop='position'>#3</span>\n      </div>\n      <div class='post' itemprop='articleBody'>\n        <p>Shane, as Hubby says, write questions down as you think of them. Think of your most aggravating symptoms and research which meds would help that. Think do the benefits outweigh the negatives of that medication. Assess your diet and exercise routine and see where you tweak. Most neurologist are not clued up on this so finding PD sites (ie FB) with other people with PD can be informative.</p>\n      </div>\n      <meta itemprop='interactionCount' content='UserLikes:1'>\n      <meta itemprop='interactionCount' content='UserComments:0'>\n      <meta itemprop='headline' content='Newly Diagnosed '>\n      <hr>\n  </div>\n  <div itemscope itemtype='http://schema.org/DiscussionForumPosting'>\n      <div class='creator'>\n        <span>\n          <a href='/u/Shane'><b itemprop='author'>Shane</b></a>\n          \n          <time datetime='2018-05-23T09:23:46Z' itemprop='datePublished'>\n            2018-05-23 09:23:46 UTC\n          </time>\n        </span>\n        <span itemprop='position'>#4</span>\n      </div>\n      <div class='post' itemprop='articleBody'>\n        <p>Hi Hubby</p>\n<p>Thanks for the reply. I’ve been suspecting it since December 2017 (Joined then <img src=\"//forum.parkinsons.org.uk/images/emoji/twitter/grin.png?v=5\" title=\":grin:\" class=\"emoji\" alt=\":grin:\">) and fell ill September 2016</p>\n<p>Upon till Monday, everything I’ve done has been self help and I’d I’ve got quite a way (I run at least 40k (gym &amp; out doors) a week and 30k on my bike). I’m very positive all-be-it, apart from the last two days where I’ve been letting family, close friends and work know. That’s very tough as you all know, no one knows what to say and everyone is shocked.</p>\n<p>Im just trying to keep an open mind now.</p>\n<p>One question my wife has been asking is how long do the tablets take to take effect, weeks, months year? I know I’ll never be better now, which is fine as I know where I am, but to get a little relief and revert back to how I was if the treatment works well would be brilliant</p>\n<p>Cheers, Shane</p>\n      </div>\n      <meta itemprop='interactionCount' content='UserLikes:0'>\n      <meta itemprop='interactionCount' content='UserComments:0'>\n      <meta itemprop='headline' content='Newly Diagnosed '>\n      <hr>\n  </div>\n  <div itemscope itemtype='http://schema.org/DiscussionForumPosting'>\n      <div class='creator'>\n        <span>\n          <a href='/u/Reah'><b itemprop='author'>Reah</b></a>\n          \n          <time datetime='2018-05-23T11:00:31Z' itemprop='datePublished'>\n            2018-05-23 11:00:31 UTC\n          </time>\n        </span>\n        <span itemprop='position'>#5</span>\n      </div>\n      <div class='post' itemprop='articleBody'>\n        <p>Hi Shane,</p>\n<p>A warm welcome to the forum.</p>\n<p>I can see you’ve received a lot of positive advice from Hubby and Divine1 that you should definitely take on board. I’m also happy to see that you have a positive attitude regarding your diagnosis - this will really help you along your Parkinson’s journey. <img src=\"//forum.parkinsons.org.uk/images/emoji/twitter/slightly_smiling_face.png?v=5\" title=\":slightly_smiling_face:\" class=\"emoji\" alt=\":slightly_smiling_face:\"></p>\n<p>We have a <a href=\"https://www.parkinsons.org.uk/information-and-support/newly-diagnosed-parkinsons\">'Newly Diagnosed</a>’ section on the Parkinson’s UK website with a lot of information that will be useful to you following your recent diagnosis. There’s information about exercise, work, driving and financial help.</p>\n<p>Feel free to explore the above page and please let me know if you have any more questions as we are here to help and support you.</p>\n<p>Best wishes,<br>\nReah</p>\n      </div>\n      <meta itemprop='interactionCount' content='UserLikes:1'>\n      <meta itemprop='interactionCount' content='UserComments:0'>\n      <meta itemprop='headline' content='Newly Diagnosed '>\n      <hr>\n  </div>\n  <div itemscope itemtype='http://schema.org/DiscussionForumPosting'>\n      <div class='creator'>\n        <span>\n          <a href='/u/Shane'><b itemprop='author'>Shane</b></a>\n          \n          <time datetime='2018-05-23T14:57:29Z' itemprop='datePublished'>\n            2018-05-23 14:57:29 UTC\n          </time>\n        </span>\n        <span itemprop='position'>#6</span>\n      </div>\n      <div class='post' itemprop='articleBody'>\n        <p>Thanks Hubby, Divine1 and Reah for your comments</p>\n<p>I shall check the Newly Diagnosed section, I’d seen this part, although I didn’t really know where to start hence the questions <img src=\"//forum.parkinsons.org.uk/images/emoji/twitter/grinning.png?v=5\" title=\":grinning:\" class=\"emoji\" alt=\":grinning:\"></p>\n<p>Cheers, Shane</p>\n      </div>\n      <meta itemprop='interactionCount' content='UserLikes:1'>\n      <meta itemprop='interactionCount' content='UserComments:0'>\n      <meta itemprop='headline' content='Newly Diagnosed '>\n      <hr>\n  </div>\n\n\n\n\n\n\n    </div>\n    <footer class=\"container\">\n      <nav class='crawler-nav' itemscope itemtype='http://schema.org/SiteNavigationElement'>\n        <a href='/'>Home</a>\n        <a href=\"/categories\">Categories</a>\n        <a href=\"/guidelines\">FAQ/Guidelines</a>\n        <a href=\"/tos\">Terms of Service</a>\n        <a href=\"/privacy\">Privacy Policy</a>\n      </nav>\n      <p class='powered-by-link'>Powered by <a href=\"https://www.discourse.org\">Discourse</a>, best viewed with JavaScript enabled</p>\n    </footer>\n    \n  </body>\n  \n</html>\n",
  "url": "https://forum.parkinsons.org.uk/t/newly-diagnosed/13647"
}