{
  "contentId": "43dc0910-886c-11e9-8f96-97f71b5221d6",
  "html": "<!DOCTYPE html>\n<html lang=\"en\">\n  <head>\n    <meta charset=\"utf-8\">\n    <title>What ever happened to the Mali Jenkins Trust Fund? - Work, benefits and money - Parkinson&#39;s UK Forum</title>\n    <meta name=\"description\" content=\"Hi All \r\nMali Jenkins started this PD organisation and she&amp;#39;d be turning in her grave if she knew that the present trustees of her legacy had stopped assisting those people that this very charity was designed for! \r\nWhere&amp;hellip;\">\n    <meta name=\"author\" content=\"\">\n<meta name=\"generator\" content=\"Discourse 2.2.5 - https://github.com/discourse/discourse version c294ff3609f988dcafb742e91606d60ca13b794d\">\n<link rel=\"icon\" type=\"image/png\" href=\"https://forum.parkinsons.org.uk/uploads/db7928/original/2X/3/311fc84f89f49f38601a2f16b295b6f03d3ce5dd.jpg\">\n<link rel=\"apple-touch-icon\" type=\"image/png\" href=\"https://forum.parkinsons.org.uk/uploads/db7928/original/2X/3/311fc84f89f49f38601a2f16b295b6f03d3ce5dd.jpg\">\n<meta name=\"theme-color\" content=\"#ffffff\">\n<meta name=\"viewport\" content=\"width=device-width, minimum-scale=1.0, maximum-scale=1.0, user-scalable=yes\">\n<link rel=\"canonical\" href=\"https://forum.parkinsons.org.uk/t/what-ever-happened-to-the-mali-jenkins-trust-fund/8916\" />\n<script type=\"application/ld+json\">{\"@context\":\"http://schema.org\",\"@type\":\"WebSite\",\"url\":\"https://forum.parkinsons.org.uk\",\"potentialAction\":{\"@type\":\"SearchAction\",\"target\":\"https://forum.parkinsons.org.uk/search?q={search_term_string}\",\"query-input\":\"required name=search_term_string\"}}</script>\n<link rel=\"search\" type=\"application/opensearchdescription+xml\" href=\"https://forum.parkinsons.org.uk/opensearch.xml\" title=\"Parkinson&#39;s UK Forum Search\">\n\n      <link href=\"/stylesheets/desktop_f99246ae801b083d3e4cca979d0dade8615b39ac.css?__ws=forum.parkinsons.org.uk\" media=\"all\" rel=\"stylesheet\" data-target=\"desktop\" data-theme-id=\"12\"/>\n      <link href=\"/stylesheets/desktop_theme_12_5d27531cf43f9df0c03a6a6ec3109dd05f9dfc49.css?__ws=forum.parkinsons.org.uk\" media=\"all\" rel=\"stylesheet\" data-target=\"desktop_theme\" data-theme-id=\"12\"/>\n    <link href=\"https://fonts.googleapis.com/css?family=Open+Sans\" rel=\"stylesheet\">\n\n    <meta id=\"data-ga-universal-analytics\" data-tracking-code=\"UA-4855628-1\" data-json=\"{&quot;cookieDomain&quot;:&quot;auto&quot;}\" data-auto-link-domains=\"\">\n\n<link rel='preload' href='/assets/google-universal-analytics-f35b4da49411e6f5559073523aab983da483976a3954c79c756f8579f6fbd6ef.js' as='script'/>\n<script src='/assets/google-universal-analytics-f35b4da49411e6f5559073523aab983da483976a3954c79c756f8579f6fbd6ef.js'></script>\n\n      <link rel=\"alternate\" type=\"application/rss+xml\" title=\"RSS feed of &#39;What ever happened to the Mali Jenkins Trust Fund?&#39;\" href=\"https://forum.parkinsons.org.uk/t/what-ever-happened-to-the-mali-jenkins-trust-fund/8916.rss\" />\n  <meta property=\"og:site_name\" content=\"Parkinson&#39;s UK Forum\" />\n<meta name=\"twitter:card\" content=\"summary\" />\n<meta name=\"twitter:image\" content=\"https://forum.parkinsons.org.uk/uploads/db7928/original/2X/3/311fc84f89f49f38601a2f16b295b6f03d3ce5dd.jpg\" />\n<meta property=\"og:image\" content=\"https://forum.parkinsons.org.uk/uploads/db7928/original/2X/3/311fc84f89f49f38601a2f16b295b6f03d3ce5dd.jpg\" />\n<meta property=\"og:url\" content=\"https://forum.parkinsons.org.uk/t/what-ever-happened-to-the-mali-jenkins-trust-fund/8916\" />\n<meta name=\"twitter:url\" content=\"https://forum.parkinsons.org.uk/t/what-ever-happened-to-the-mali-jenkins-trust-fund/8916\" />\n<meta property=\"og:title\" content=\"What ever happened to the Mali Jenkins Trust Fund?\" />\n<meta name=\"twitter:title\" content=\"What ever happened to the Mali Jenkins Trust Fund?\" />\n<meta property=\"og:description\" content=\"Hi All \r Mali Jenkins started this PD organisation and she&#39;d be turning in her grave if she knew that the present trustees of her legacy had stopped assisting those people that this very charity was designed for! \r Where oh where has the money gone? \r Disillusioned PwP!!! \r http://www.parkinsons.org.uk/content/mali-jenkins-fund\" />\n<meta name=\"twitter:description\" content=\"Hi All \r Mali Jenkins started this PD organisation and she&#39;d be turning in her grave if she knew that the present trustees of her legacy had stopped assisting those people that this very charity was designed for! \r Where oh where has the money gone? \r Disillusioned PwP!!! \r http://www.parkinsons.org.uk/content/mali-jenkins-fund\" />\n<meta name=\"twitter:label1\" value=\"Reading time\" />\n<meta name=\"twitter:data1\" value=\"5 mins \uD83D\uDD51\" />\n<meta name=\"twitter:label2\" value=\"Likes\" />\n<meta name=\"twitter:data2\" value=\"3 ❤\" />\n<meta property=\"article:published_time\" content=\"2016-02-14T05:52:36+00:00\" />\n<meta property=\"og:ignore_canonical\" content=\"true\" />\n\n\n\n    \n  </head>\n  <body class=\"crawler\">\n    <header role=\"banner\">\n    <div class=\"region region-header\">\n        <div class=\"region-header-wrapper\">\n            <div id=\"block-parkinsons-d8-branding\" class=\"block block-system block-system-branding-block\">\n                <a href=\"/\" title=\"Home\" rel=\"home\" class=\"site-logo\">\n                    <img src=\"https://forum.parkinsons.org.uk/uploads/db7928/original/2X/8/862bb7d172e7d127e7f3e147ec43594aa62ac945.png\" alt=\"Parkinson's UK. Change Attitudes. Find a cure. Join us.\">\n                </a>\n            </div>\n            <div id=\"block-helpline\" class=\"block block-block-content block-block-content871cd5af-b938-4947-9dc0-d5c211d08fe3 style-phone\">\n                <div class=\"field field--name-field-link field--type-link field--label-hidden field__item\"><a href=\"tel:+448088000303\">Helpline 0808 800 0303</a></div>\n            </div>\n            <div id=\"block-shop\" class=\"block block-block-content block-block-content6fba5ae5-7797-49cd-8367-f321d8111cd6 style-regular\">\n                <div class=\"field field--name-field-link field--type-link field--label-hidden field__item\"><a href=\"https://shop.parkinsons.org.uk\">Shop</a></div>\n            </div>\n        </div>\n    </div>\n</header>\n\n\n<script src=\"/theme-javascripts/b7e9763fcb584fc8265c56a9f557cd6d2e1e8ed8.js?__ws=forum.parkinsons.org.uk\"></script>\n    <header>\n      <a href=\"/\">\n          <img src=\"https://forum.parkinsons.org.uk/uploads/db7928/original/2X/8/862bb7d172e7d127e7f3e147ec43594aa62ac945.png\" alt=\"Parkinson&#39;s UK Forum\" id=\"site-logo\" style=\"max-width: 150px;\">\n      </a>\n    </header>\n    <div id=\"main-outlet\" class=\"wrap\">\n      <h1>\n  <a href=\"/t/what-ever-happened-to-the-mali-jenkins-trust-fund/8916\">What ever happened to the Mali Jenkins Trust Fund?</a>\n</h1>\n\n<div id='breadcrumbs'>\n    <div id=\"breadcrumb-0\" itemscope itemtype=\"http://data-vocabulary.org/Breadcrumb\"\n        itemref=\"breadcrumb-1\"\n      >\n      <a href=\"/c/living-with-parkinsons\" itemprop=\"url\">\n        <span itemprop=\"title\">Living with Parkinson&#39;s</span>\n      </a>\n    </div>\n    <div id=\"breadcrumb-1\" itemscope itemtype=\"http://data-vocabulary.org/Breadcrumb\"\n>\n      <a href=\"/c/living-with-parkinsons/work-benefits-and-money\" itemprop=\"url\">\n        <span itemprop=\"title\">Work, benefits and money</span>\n      </a>\n    </div>\n</div>\n\n\n\n\n\n<hr>\n\n\n  <div itemscope itemtype='http://schema.org/DiscussionForumPosting'>\n      <div class='creator'>\n        <span>\n          <a href='/u/the_Pokermid'><b itemprop='author'>the_Pokermid</b></a>\n          \n          <time datetime='2016-02-14T05:52:36Z' itemprop='datePublished'>\n            2016-02-14 05:52:36 UTC\n          </time>\n        </span>\n        <span itemprop='position'>#1</span>\n      </div>\n      <div class='post' itemprop='articleBody'>\n        <p>Hi All</p>\r\n<p>Mali Jenkins started this PD organisation and she&#39;d be turning in her grave if she knew that the present trustees of her legacy had stopped assisting those people that this very charity was designed for!</p>\r\n<p>Where oh where has the money gone?</p>\r\n<p>Disillusioned PwP!!!<img alt=\"eek\" height=\"23\" src=\"http://www.parkinsons.org.uk/sites/all/modules/custom/park_smilies/images/gifs/eek.gif\" title=\"eek\" width=\"23\" /></p>\r\n<p><span style=\"line-height: 1.4;\"><a href=\"http://www.parkinsons.org.uk/content/mali-jenkins-fund\" target=\"_blank\">http://www.parkinsons.org.uk/content/mali-jenkins-fund</a></span></p>\n      </div>\n      <meta itemprop='interactionCount' content='UserLikes:0'>\n      <meta itemprop='interactionCount' content='UserComments:0'>\n      <meta itemprop='headline' content='What ever happened to the Mali Jenkins Trust Fund?'>\n      <hr>\n  </div>\n  <div itemscope itemtype='http://schema.org/DiscussionForumPosting'>\n      <div class='creator'>\n        <span>\n          <a href='/u/deleted.user'><b itemprop='author'>deleted.user</b></a>\n          \n          <time datetime='2016-02-17T14:44:00Z' itemprop='datePublished'>\n            2016-02-17 14:44:00 UTC\n          </time>\n        </span>\n        <span itemprop='position'>#2</span>\n      </div>\n      <div class='post' itemprop='articleBody'>\n        <p>Hi Pokermid,</p>\r\n<p>Thank you for your message which is quite timely. We are currently developing a new scheme to offer financial assistance to offer a broad range of support to people living with the condition. We will be piloting this in early 2016 before rolling out across the UK.</p>\r\n<p>Our local group network continues to offer financial assistance to those in need. The 2015 figures are still being collated but in 2014 this amounted to over &pound;330,000.</p>\r\n<p>Our vision for the future is to continue the legacy set up in Mali Jenkins&rsquo; name by offering fair and equitable financial assistance to those who she set up the charity to support.</p>\r\n<p>If you&#39;d like anymore information please feel free to contact Stacey at <a href=\"/cdn-cgi/l/email-protection#2f5c5c5b405d4a566f5f4e5d4446415c40415c01405d48015a44\" target=\"_blank\"><span class=\"__cf_email__\" data-cfemail=\"a3d0d0d7ccd1c6dae3d3c2d1c8cacdd0cccdd08dccd1c48dd6c8\">[email&#160;protected]</span></a>.</p>\r\n<p>Best wishes,</p>\r\n<p>Joanne&nbsp;</p>\r\n<p>(Digital team)&nbsp;</p>\r\n<p>&nbsp;</p>\n      </div>\n      <meta itemprop='interactionCount' content='UserLikes:0'>\n      <meta itemprop='interactionCount' content='UserComments:0'>\n      <meta itemprop='headline' content='What ever happened to the Mali Jenkins Trust Fund?'>\n      <hr>\n  </div>\n  <div itemscope itemtype='http://schema.org/DiscussionForumPosting'>\n      <div class='creator'>\n        <span>\n          <a href='/u/Leyther'><b itemprop='author'>Leyther</b></a>\n          \n          <time datetime='2016-02-26T05:59:00Z' itemprop='datePublished'>\n            2016-02-26 05:59:00 UTC\n          </time>\n        </span>\n        <span itemprop='position'>#3</span>\n      </div>\n      <div class='post' itemprop='articleBody'>\n        <p>Joanne</p>\r\n<p>Please would you outline the current MJ award scheme ie:</p>\r\n<p>what help it gives</p>\r\n<p>who qualifies</p>\r\n<p>and how the new scheme will differ</p>\r\n<p>thanks</p>\r\n<p>L</p>\n      </div>\n      <meta itemprop='interactionCount' content='UserLikes:0'>\n      <meta itemprop='interactionCount' content='UserComments:0'>\n      <meta itemprop='headline' content='What ever happened to the Mali Jenkins Trust Fund?'>\n      <hr>\n  </div>\n  <div itemscope itemtype='http://schema.org/DiscussionForumPosting'>\n      <div class='creator'>\n        <span>\n          <a href='/u/deleted.user'><b itemprop='author'>deleted.user</b></a>\n          \n          <time datetime='2016-02-29T13:51:08Z' itemprop='datePublished'>\n            2016-02-29 13:51:08 UTC\n          </time>\n        </span>\n        <span itemprop='position'>#4</span>\n      </div>\n      <div class='post' itemprop='articleBody'>\n        <p>Hi Leyther,</p>\r\n<p>Thanks for your message. For a breakdown of how financial assistance works currently and for details about how the new scheme will work, please contact Stacey at <a href=\"/cdn-cgi/l/email-protection#88fbfbfce7faedf1c8f8e9fae3e1e6fbe7e6fba6e7faefa6fde3\" target=\"_blank\"><span class=\"__cf_email__\" data-cfemail=\"f28181869d80978bb2829380999b9c819d9c81dc9d8095dc8799\">[email&#160;protected]</span></a>.&nbsp;</p>\r\n<p>Best wishes,</p>\r\n<p>Joanne&nbsp;</p>\n      </div>\n      <meta itemprop='interactionCount' content='UserLikes:0'>\n      <meta itemprop='interactionCount' content='UserComments:0'>\n      <meta itemprop='headline' content='What ever happened to the Mali Jenkins Trust Fund?'>\n      <hr>\n  </div>\n  <div itemscope itemtype='http://schema.org/DiscussionForumPosting'>\n      <div class='creator'>\n        <span>\n          <a href='/u/blueeyes47'><b itemprop='author'>blueeyes47</b></a>\n          \n          <time datetime='2018-03-07T23:41:15Z' itemprop='datePublished'>\n            2018-03-07 23:41:15 UTC\n          </time>\n        </span>\n        <span itemprop='position'>#5</span>\n      </div>\n      <div class='post' itemprop='articleBody'>\n        <p>This is becoming a joke. First of all Parkinson’s uk close the Mali Jenkins fund in 2014 with a promise to design, trail and rollout a new scheme in 2016. Here we are in 2018 and they haven’t done anything. Apart from taking the old scheme and giving it a new name but only making it available in a very limited number of locations during 2017.  I’m now informed the earliest date for new help fund to be fully launched is sometime in 2019 ?</p>\n<p>Shame on you Parkinson’s uk for turning your back on the most vulnerable and needy.  I for one would like to know what you have done with the £300K per year since 2014 because it ammouts to £1.5m over 5 years</p>\n      </div>\n      <meta itemprop='interactionCount' content='UserLikes:0'>\n      <meta itemprop='interactionCount' content='UserComments:0'>\n      <meta itemprop='headline' content='What ever happened to the Mali Jenkins Trust Fund?'>\n      <hr>\n  </div>\n  <div itemscope itemtype='http://schema.org/DiscussionForumPosting'>\n      <div class='creator'>\n        <span>\n          <a href='/u/Reah'><b itemprop='author'>Reah</b></a>\n          \n          <time datetime='2018-03-08T15:09:42Z' itemprop='datePublished'>\n            2018-03-08 15:09:42 UTC\n          </time>\n        </span>\n        <span itemprop='position'>#6</span>\n      </div>\n      <div class='post' itemprop='articleBody'>\n        <p>Hi <a class=\"mention\" href=\"/u/blueeyes47\">@blueeyes47</a>,</p>\n<p>We appreciate you raising your concerns about the Mali Jenkins Trust Fund. We have raised this with our internal team and will get back to you on this as soon as we can.</p>\n<p>Best wishes,<br>\nReah</p>\n      </div>\n      <meta itemprop='interactionCount' content='UserLikes:0'>\n      <meta itemprop='interactionCount' content='UserComments:1'>\n      <meta itemprop='headline' content='What ever happened to the Mali Jenkins Trust Fund?'>\n      <hr>\n  </div>\n  <div itemscope itemtype='http://schema.org/DiscussionForumPosting'>\n      <div class='creator'>\n        <span>\n          <a href='/u/goldengirl'><b itemprop='author'>goldengirl</b></a>\n          \n          <time datetime='2018-03-08T18:54:15Z' itemprop='datePublished'>\n            2018-03-08 18:54:15 UTC\n          </time>\n        </span>\n        <span itemprop='position'>#7</span>\n      </div>\n      <div class='post' itemprop='articleBody'>\n        <p>How nice to hear you are still around Blue-eyes!<br>\nHow are you?<br>\nWell I hope…<br>\nLove<br>\nGG<br>\nXxx</p>\n      </div>\n      <meta itemprop='interactionCount' content='UserLikes:0'>\n      <meta itemprop='interactionCount' content='UserComments:1'>\n      <meta itemprop='headline' content='What ever happened to the Mali Jenkins Trust Fund?'>\n      <hr>\n  </div>\n  <div itemscope itemtype='http://schema.org/DiscussionForumPosting'>\n      <div class='creator'>\n        <span>\n          <a href='/u/goldengirl'><b itemprop='author'>goldengirl</b></a>\n          \n          <time datetime='2018-03-08T19:09:03Z' itemprop='datePublished'>\n            2018-03-08 19:09:03 UTC\n          </time>\n        </span>\n        <span itemprop='position'>#8</span>\n      </div>\n      <div class='post' itemprop='articleBody'>\n        <p>Add my name to the list of people who want to know how this Money was used or why it was not used.<br>\nGG</p>\n      </div>\n      <meta itemprop='interactionCount' content='UserLikes:0'>\n      <meta itemprop='interactionCount' content='UserComments:0'>\n      <meta itemprop='headline' content='What ever happened to the Mali Jenkins Trust Fund?'>\n      <hr>\n  </div>\n  <div itemscope itemtype='http://schema.org/DiscussionForumPosting'>\n      <div class='creator'>\n        <span>\n          <a href='/u/blueeyes47'><b itemprop='author'>blueeyes47</b></a>\n          \n          <time datetime='2018-03-08T23:46:44Z' itemprop='datePublished'>\n            2018-03-08 23:46:44 UTC\n          </time>\n        </span>\n        <span itemprop='position'>#9</span>\n      </div>\n      <div class='post' itemprop='articleBody'>\n        <p>GG you are a legend a warrior and a woman of courage. But most of all your the flag bearer to truth, compassion and justice for the thousands of people who’s lives were destroyed by something 100 times more dangerous than any drug and that thing is “reputations”  Be they a pharmaceutical company or health professional or even a charity . Protecting individual or organisations reputation from my bitter experience is way ahead of compassion help truth or justice<br>\nAnyway bluey is back, maybe more blurry than bluey and 47 is now 59\uD83D\uDE29 which is Parkinson’s years is 17 years living with Parkinson’s. My diagnoses was in 2001 and I joined this forum 2006/07</p>\n<p>GG I will post a significant update on the “who kidnapped the Mali Jenkins fund” tomorrow morning as I’ve just secured a urgent meeting with Steve Ford on the subject</p>\n<p>Regards<br>\nBluey</p>\n      </div>\n      <meta itemprop='interactionCount' content='UserLikes:1'>\n      <meta itemprop='interactionCount' content='UserComments:2'>\n      <meta itemprop='headline' content='What ever happened to the Mali Jenkins Trust Fund?'>\n      <hr>\n  </div>\n  <div itemscope itemtype='http://schema.org/DiscussionForumPosting'>\n      <div class='creator'>\n        <span>\n          <a href='/u/the_Pokermid'><b itemprop='author'>the_Pokermid</b></a>\n          \n          <time datetime='2018-03-09T12:21:26Z' itemprop='datePublished'>\n            2018-03-09 12:21:26 UTC\n          </time>\n        </span>\n        <span itemprop='position'>#10</span>\n      </div>\n      <div class='post' itemprop='articleBody'>\n        <p>Now there’s an unholy alliance if ever I heard of one!<br>\nJust kidding bluey:sunglasses:</p>\n      </div>\n      <meta itemprop='interactionCount' content='UserLikes:1'>\n      <meta itemprop='interactionCount' content='UserComments:0'>\n      <meta itemprop='headline' content='What ever happened to the Mali Jenkins Trust Fund?'>\n      <hr>\n  </div>\n  <div itemscope itemtype='http://schema.org/DiscussionForumPosting'>\n      <div class='creator'>\n        <span>\n          <a href='/u/goldengirl'><b itemprop='author'>goldengirl</b></a>\n          \n          <time datetime='2018-03-09T17:26:13Z' itemprop='datePublished'>\n            2018-03-09 17:26:13 UTC\n          </time>\n        </span>\n        <span itemprop='position'>#11</span>\n      </div>\n      <div class='post' itemprop='articleBody'>\n        <p>Thank you Blueeyes…I fought for years but lost to the greed of Big Oharma…unsupported by PDUK sadly.<br>\nIt is good to hear you are surviving.<br>\nMy husband has been in hospital for the last 3 months and life is pretty grim.<br>\nWonder what happened to our comrades…Ray of Sunshine? Glennchas? … and many others who were victims of the DA scandal…<br>\nLove<br>\nGG</p>\n      </div>\n      <meta itemprop='interactionCount' content='UserLikes:0'>\n      <meta itemprop='interactionCount' content='UserComments:1'>\n      <meta itemprop='headline' content='What ever happened to the Mali Jenkins Trust Fund?'>\n      <hr>\n  </div>\n  <div itemscope itemtype='http://schema.org/DiscussionForumPosting'>\n      <div class='creator'>\n        <span>\n          <a href='/u/blueeyes47'><b itemprop='author'>blueeyes47</b></a>\n          \n          <time datetime='2018-03-11T11:00:37Z' itemprop='datePublished'>\n            2018-03-11 11:00:37 UTC\n          </time>\n        </span>\n        <span itemprop='position'>#13</span>\n      </div>\n      <div class='post' itemprop='articleBody'>\n        <p>I have a meeting booked next Thursday with Steve Ford to try and resolve this issue and get the Mali Jenkins help fund back and available for all to access not just a few.</p>\n<p>Will update you after the meeting</p>\n<p>Bluey</p>\n      </div>\n      <meta itemprop='interactionCount' content='UserLikes:1'>\n      <meta itemprop='interactionCount' content='UserComments:0'>\n      <meta itemprop='headline' content='What ever happened to the Mali Jenkins Trust Fund?'>\n      <hr>\n  </div>\n  <div itemscope itemtype='http://schema.org/DiscussionForumPosting'>\n      <div class='creator'>\n        <span>\n          <a href='/u/benji'><b itemprop='author'>benji</b></a>\n          \n          <time datetime='2018-03-11T23:50:50Z' itemprop='datePublished'>\n            2018-03-11 23:50:50 UTC\n          </time>\n        </span>\n        <span itemprop='position'>#14</span>\n      </div>\n      <div class='post' itemprop='articleBody'>\n        <p>Sorry to hear that GG; same position here , OH has been 101 days in hospital; hence my lack of posts. They are  home now BUT it’s 24/7 care and I am exhausted.</p>\n      </div>\n      <meta itemprop='interactionCount' content='UserLikes:0'>\n      <meta itemprop='interactionCount' content='UserComments:0'>\n      <meta itemprop='headline' content='What ever happened to the Mali Jenkins Trust Fund?'>\n      <hr>\n  </div>\n  <div itemscope itemtype='http://schema.org/DiscussionForumPosting'>\n      <div class='creator'>\n        <span>\n          <a href='/u/goldengirl'><b itemprop='author'>goldengirl</b></a>\n          \n          <time datetime='2018-03-12T09:30:43Z' itemprop='datePublished'>\n            2018-03-12 09:30:43 UTC\n          </time>\n        </span>\n        <span itemprop='position'>#15</span>\n      </div>\n      <div class='post' itemprop='articleBody'>\n        <p>Oh Benji,<br>\nI am so sorry.<br>\nThe daily visiting, the battle to get physio, to stop him being written ipoff…it is exhausting.<br>\nI am at the point of applying for Continuous Health Care…either to,pay for his care at home or in a care home. Not means tested.<br>\nAnother battle.<br>\nI have lots of information and guidance if you want any sending.<br>\nVery hard to get but worth applying.<br>\nBe strong and take care.<br>\nLove<br>\nGG<br>\nXx</p>\n      </div>\n      <meta itemprop='interactionCount' content='UserLikes:0'>\n      <meta itemprop='interactionCount' content='UserComments:0'>\n      <meta itemprop='headline' content='What ever happened to the Mali Jenkins Trust Fund?'>\n      <hr>\n  </div>\n  <div itemscope itemtype='http://schema.org/DiscussionForumPosting'>\n      <div class='creator'>\n        <span>\n          <a href='/u/blueeyes47'><b itemprop='author'>blueeyes47</b></a>\n          \n          <time datetime='2018-03-19T13:18:09Z' itemprop='datePublished'>\n            2018-03-19 13:18:09 UTC\n          </time>\n        </span>\n        <span itemprop='position'>#16</span>\n      </div>\n      <div class='post' itemprop='articleBody'>\n        <p>This is an update following my discussion with PUK last week.</p>\n<p>Parkinson’s Uk seem unmovable in terms of continuing with a year long trail of the new Take Control Help Fun. This being the help fund that’s supposed to be replacing mali jenkins.  When you compare the criteria of the old Mali Jenkins help fund to the new Take Control help fund, there’s very little difference between them.  So i for one seriously question why are they introducing a new help fund, that is broadly the same as the old one?</p>\n<p>Communication of the purpose of having such a lengthy trial has been confusingly poor as has the rationale for having no help fund for yet another year. Along with unresolved concern over running a trial with only limited coverage of the whole UK.  All of which is a source of mystery and confusion, not only to me but also among the several people I’ve spoken with at Parkinson’s UK following my discussion with senior management.</p>\n<p>Looking back at mali jenkins fund historical data, it would suggest a serious mis-match in terms of the need for a new scheme, let alone one with a year long trail that nobody really understands. This being compared with getting on with operating a national help fund that’s supporting some of the most vulnerable and indeed the poorest of people living with Parkinson’s disease.</p>\n<p>Its now been nearly 3 years since the Mali Jenkins fund was withdrawn (July 2015) and will be at least another year before any national rollout of the new take control scheme.  This is totally unacceptable and in my considered opinion, Parkinson’s UK have knowingly and deliberately been refusing to help those in most need since 2015.</p>\n<p>For example previous mali jenkins grants data shows the following four areas accounted for almost two thirds of all means tested approved applications;  North West England  and North East of England, Scotland and the East Midlands.</p>\n<p>By comparison the four areas with the lowest level of approved grant applications were;  Southern England, the South East and London, Northern Ireland and East Anglia.<br>\nIf you compare this data to the trail areas selected, none of the historical areas with the highest number of approved applications from people most in need of help are included in the current trial.  Furthermore three out of four of the areas listed above with historically the lowest number of applications are included in the current trial. This is plain crazy or could it be a deliberate attempt to dum down the future money alloted to the new Take Control help fund?</p>\n<p>Since July 2015 (date mali jenkins fund withdrawn), i estimate around 350 people living with Parkinson’s and who are classified by the UK government as;  “Living in absloute and persistent poverty” are being denied access to help by the charity who’s since 2015 have been refusing to help them.  Not to mention errasing its founders name (mali jenkins) along with her mission purpose for establishing this charity in 1969 almost 50 years ago.</p>\n<p>So once again I ask parkinson’s uk to scrap the trail and immediately make available a means tested help fund and stop playing with the lives of vulnerable people.</p>\n<p>blueeyes47</p>\n      </div>\n      <meta itemprop='interactionCount' content='UserLikes:0'>\n      <meta itemprop='interactionCount' content='UserComments:0'>\n      <meta itemprop='headline' content='What ever happened to the Mali Jenkins Trust Fund?'>\n      <hr>\n  </div>\n  <div itemscope itemtype='http://schema.org/DiscussionForumPosting'>\n      <div class='creator'>\n        <span>\n          <a href='/u/goldengirl'><b itemprop='author'>goldengirl</b></a>\n          \n          <time datetime='2018-03-19T15:28:32Z' itemprop='datePublished'>\n            2018-03-19 15:28:32 UTC\n          </time>\n        </span>\n        <span itemprop='position'>#17</span>\n      </div>\n      <div class='post' itemprop='articleBody'>\n        <p>Hi Blue-eyes,<br>\nFirst of all…why do Ihave to scroll through 2 years of old posts to get to the new one?<br>\nI agree that the running of the trust is dreadful…particularly removing her name.<br>\nSometimes I despair of PDUK.<br>\nNo support for the fight against DA horrors, a forum that gets harder to use, no update on promising research e.g. prosavin.<br>\nI am sure they help a lot of people but at the moment I am feeling let down.<br>\nKeep fighting!<br>\nLove<br>\nGG</p>\n      </div>\n      <meta itemprop='interactionCount' content='UserLikes:0'>\n      <meta itemprop='interactionCount' content='UserComments:1'>\n      <meta itemprop='headline' content='What ever happened to the Mali Jenkins Trust Fund?'>\n      <hr>\n  </div>\n  <div itemscope itemtype='http://schema.org/DiscussionForumPosting'>\n      <div class='creator'>\n        <span>\n          <a href='/u/benji'><b itemprop='author'>benji</b></a>\n          \n          <time datetime='2018-03-25T22:46:45Z' itemprop='datePublished'>\n            2018-03-25 22:46:45 UTC\n          </time>\n        </span>\n        <span itemprop='position'>#18</span>\n      </div>\n      <div class='post' itemprop='articleBody'>\n        <p>Me too.</p>\n      </div>\n      <meta itemprop='interactionCount' content='UserLikes:0'>\n      <meta itemprop='interactionCount' content='UserComments:0'>\n      <meta itemprop='headline' content='What ever happened to the Mali Jenkins Trust Fund?'>\n      <hr>\n  </div>\n  <div itemscope itemtype='http://schema.org/DiscussionForumPosting'>\n      <div class='creator'>\n        <span>\n          <a href='/u/Reah'><b itemprop='author'>Reah</b></a>\n          \n          <time datetime='2018-03-26T11:02:26Z' itemprop='datePublished'>\n            2018-03-26 11:02:26 UTC\n          </time>\n        </span>\n        <span itemprop='position'>#19</span>\n      </div>\n      <div class='post' itemprop='articleBody'>\n        <p>Hi all,</p>\n<p>We’d like to update everyone on what we have been doing since the last Mali Jenkins grant was awarded in June 2015.</p>\n<p>In 2016, we ran a pilot scheme in Surrey, financed by a generous local legacy. We used this to test how local knowledge could help us reach those in most need and trial new ways to respond quickly to applications. Throughout 2017 we continued to award grants in the pilot area and if our Local Advisers found cases of particular need in other areas we were also able to offer help.</p>\n<p>We’ve chosen four areas to start rolling out the new grants and together these areas provide a mix of urban and rural challenge, pockets of significant economic deprivation and areas of high ethnic diversity. They account in total for approximately 23% of the total number of people with Parkinson’s across the UK. We’re testing new processes and procedures out in these areas, and plan to move to full UK wide access in 2019. We’re sorry it’s taken so long to get the new process up and running but hope that the new scheme will ultimately help us to reach more people, and those who are in the greatest need.</p>\n<p>We’ve made changes to improve the way we offer grants. Our updated materials now comply with recommendations from the Disability Rights Consortium and application packs can be downloaded so that more people can choose to access information from our website. We’re recruiting and training more grants panel members and holding more frequent panel reviews so applications move quickly to award.<br>\nWe’ve introduced an ‘activities’ grant to bring exercise and therapeutic activity to people coping with financial need. We’ve put greater emphasis on what an applicant tells us about the impact the grant will have on their quality of life and every applicant is now offered support to ensure that they are accessing their full benefits entitlement.</p>\n<p>We’d also like to remind people that our information and support services work directly with families living with Parkinson’s. People living everywhere in the UK can access our Helpline, our Local Adviser service. Our Local Advisers are based all around the country, and are well placed to support people in helping them to access local financial support.  We’ve invested in a  specialist  benefits and employment service in response to feedback from people living with Parkinson’s. Cases are escalated to the service and Tim Moore, the service manager says:-</p>\n<p>“The team can spend many months working with a client and their family, often through a reconsideration or appeal when they are turned down for a sickness or disability benefit. This gives the client representation to help them to navigate through a really complicated legal process and make their case.</p>\n<p>Nationally, the number of benefit appeals has risen significantly in recent years, so this support is more important than ever. The team’s current success rate in changing benefit decisions is over 90%, compared to the national average of around 60%.<br>\nI’d like to share a couple of examples of the team’s successes:-</p>\n<ul>\n<li>\n<p>A client in his 50s, had to stop work for health and safety reasons due to Parkinson’s. He claimed sickness benefit (ESA) but was assessed and found fit to work.  The DWP gave him 0 points for all activities. We supported him through the appeal process, where he was awarded the highest rate of sickness benefit and his local adviser also helped him claim a Blue Badge and disability benefit (PIP) which he has received at the highest rate for both daily living and mobility. He is now £12,934/year better off.</p>\n</li>\n<li>\n<p>A client  has been paid over £13,000 in backdated premiums on Pension Credit due to a benefit check and subsequent advice. “</p>\n</li>\n</ul>\n<p>While all this has been going on our amazing local groups have continued to offer grants in their communities totalling between £250,000 and £300,000 each year - so with their help we’ve continued to support those who need financial help.</p>\n<p>You can read more about Take Control Grants at <a href=\"http://www.parkinsons.org.uk/about-us/parkinsons-uk-take-control-grants\">http://www.parkinsons.org.uk/about-us/parkinsons-uk-take-control-grants</a> where you’ll also find information about other sources of financial help, and more detail about how to access our information and support services. And if you’d like to discuss any of this in more detail, please contact our Director of Support and Local Networks, Katherine Crawford on 0344 225 3720 or at <a href=\"/cdn-cgi/l/email-protection#84efe7f6e5f3e2ebf6e0c4f4e5f6efedeaf7ebeaf7aaebf6e3aaf1ef\"><span class=\"__cf_email__\" data-cfemail=\"3b5058495a4c5d54495f7b4b5a49505255485455481554495c154e50\">[email&#160;protected]</span></a></p>\n<p>Many thanks,<br>\nParkinson’s UK Moderation Team</p>\n      </div>\n      <meta itemprop='interactionCount' content='UserLikes:0'>\n      <meta itemprop='interactionCount' content='UserComments:0'>\n      <meta itemprop='headline' content='What ever happened to the Mali Jenkins Trust Fund?'>\n      <hr>\n  </div>\n\n\n\n\n\n\n    </div>\n    <footer class=\"container\">\n      <nav class='crawler-nav' itemscope itemtype='http://schema.org/SiteNavigationElement'>\n        <a href='/'>Home</a>\n        <a href=\"/categories\">Categories</a>\n        <a href=\"/guidelines\">FAQ/Guidelines</a>\n        <a href=\"/tos\">Terms of Service</a>\n        <a href=\"/privacy\">Privacy Policy</a>\n      </nav>\n      <p class='powered-by-link'>Powered by <a href=\"https://www.discourse.org\">Discourse</a>, best viewed with JavaScript enabled</p>\n    </footer>\n    \n  <script data-cfasync=\"false\" src=\"/cdn-cgi/scripts/5c5dd728/cloudflare-static/email-decode.min.js\"></script></body>\n  \n</html>\n",
  "url": "https://forum.parkinsons.org.uk/t/what-ever-happened-to-the-mali-jenkins-trust-fund/8916"
}