{
  "contentId": "75dd33e0-886b-11e9-8f96-97f71b5221d6",
  "html": "<!DOCTYPE html>\n<html lang=\"en\">\n  <head>\n    <meta charset=\"utf-8\">\n    <title>Thoughts on the BBC programme for GDNF? - Treatments and therapies - Parkinson&#39;s UK Forum</title>\n    <meta name=\"description\" content=\"Thoughts on the BBC programme on GDNF? \nI feel compelled to speak out about the BBC programme. \nI have cried many times throughout the two episodes. I commend the courage of the people who entered the trial and of course&amp;hellip;\">\n    <meta name=\"author\" content=\"\">\n<meta name=\"generator\" content=\"Discourse 2.2.5 - https://github.com/discourse/discourse version c294ff3609f988dcafb742e91606d60ca13b794d\">\n<link rel=\"icon\" type=\"image/png\" href=\"https://forum.parkinsons.org.uk/uploads/db7928/original/2X/3/311fc84f89f49f38601a2f16b295b6f03d3ce5dd.jpg\">\n<link rel=\"apple-touch-icon\" type=\"image/png\" href=\"https://forum.parkinsons.org.uk/uploads/db7928/original/2X/3/311fc84f89f49f38601a2f16b295b6f03d3ce5dd.jpg\">\n<meta name=\"theme-color\" content=\"#ffffff\">\n<meta name=\"viewport\" content=\"width=device-width, minimum-scale=1.0, maximum-scale=1.0, user-scalable=yes\">\n<link rel=\"canonical\" href=\"https://forum.parkinsons.org.uk/t/thoughts-on-the-bbc-programme-for-gdnf/18300?page=2\" />\n<script type=\"application/ld+json\">{\"@context\":\"http://schema.org\",\"@type\":\"WebSite\",\"url\":\"https://forum.parkinsons.org.uk\",\"potentialAction\":{\"@type\":\"SearchAction\",\"target\":\"https://forum.parkinsons.org.uk/search?q={search_term_string}\",\"query-input\":\"required name=search_term_string\"}}</script>\n<link rel=\"search\" type=\"application/opensearchdescription+xml\" href=\"https://forum.parkinsons.org.uk/opensearch.xml\" title=\"Parkinson&#39;s UK Forum Search\">\n\n      <link href=\"/stylesheets/desktop_f99246ae801b083d3e4cca979d0dade8615b39ac.css?__ws=forum.parkinsons.org.uk\" media=\"all\" rel=\"stylesheet\" data-target=\"desktop\" data-theme-id=\"12\"/>\n      <link href=\"/stylesheets/desktop_theme_12_5d27531cf43f9df0c03a6a6ec3109dd05f9dfc49.css?__ws=forum.parkinsons.org.uk\" media=\"all\" rel=\"stylesheet\" data-target=\"desktop_theme\" data-theme-id=\"12\"/>\n    <link href=\"https://fonts.googleapis.com/css?family=Open+Sans\" rel=\"stylesheet\">\n\n    <meta id=\"data-ga-universal-analytics\" data-tracking-code=\"UA-4855628-1\" data-json=\"{&quot;cookieDomain&quot;:&quot;auto&quot;}\" data-auto-link-domains=\"\">\n\n<link rel='preload' href='/assets/google-universal-analytics-f35b4da49411e6f5559073523aab983da483976a3954c79c756f8579f6fbd6ef.js' as='script'/>\n<script src='/assets/google-universal-analytics-f35b4da49411e6f5559073523aab983da483976a3954c79c756f8579f6fbd6ef.js'></script>\n\n      <link rel=\"alternate\" type=\"application/rss+xml\" title=\"RSS feed of &#39;Thoughts on the BBC programme for GDNF?&#39;\" href=\"https://forum.parkinsons.org.uk/t/thoughts-on-the-bbc-programme-for-gdnf/18300.rss\" />\n  <meta property=\"og:site_name\" content=\"Parkinson&#39;s UK Forum\" />\n<meta name=\"twitter:card\" content=\"summary\" />\n<meta name=\"twitter:image\" content=\"https://forum.parkinsons.org.uk/uploads/db7928/original/2X/3/311fc84f89f49f38601a2f16b295b6f03d3ce5dd.jpg\" />\n<meta property=\"og:image\" content=\"https://forum.parkinsons.org.uk/uploads/db7928/original/2X/3/311fc84f89f49f38601a2f16b295b6f03d3ce5dd.jpg\" />\n<meta property=\"og:url\" content=\"https://forum.parkinsons.org.uk/t/thoughts-on-the-bbc-programme-for-gdnf/18300?page=2\" />\n<meta name=\"twitter:url\" content=\"https://forum.parkinsons.org.uk/t/thoughts-on-the-bbc-programme-for-gdnf/18300?page=2\" />\n<meta property=\"og:title\" content=\"Thoughts on the BBC programme for GDNF?\" />\n<meta name=\"twitter:title\" content=\"Thoughts on the BBC programme for GDNF?\" />\n<meta property=\"og:description\" content=\"I actually thought the programme was well done and was effective at raising awareness of the ups and downs that we Parkies go through. The outcome was easy to find out ahead of the second episode with a quick Internet search.  There have been many trials over recent years but they have nearly all failed. My humble view is that the reason for this is that there are different  types of PD that respond to different treatments. This seems to be the case with GDNF: some people showed significant impr...\" />\n<meta name=\"twitter:description\" content=\"I actually thought the programme was well done and was effective at raising awareness of the ups and downs that we Parkies go through. The outcome was easy to find out ahead of the second episode with a quick Internet search.  There have been many trials over recent years but they have nearly all failed. My humble view is that the reason for this is that there are different  types of PD that respond to different treatments. This seems to be the case with GDNF: some people showed significant impr...\" />\n<meta name=\"twitter:label1\" value=\"Reading time\" />\n<meta name=\"twitter:data1\" value=\"17 mins \uD83D\uDD51\" />\n<meta name=\"twitter:label2\" value=\"Likes\" />\n<meta name=\"twitter:data2\" value=\"66 ❤\" />\n<meta property=\"article:published_time\" content=\"2019-03-08T22:47:03+00:00\" />\n<meta property=\"og:ignore_canonical\" content=\"true\" />\n\n      <link rel=\"prev\" href=\"/t/thoughts-on-the-bbc-programme-for-gdnf/18300\">\n      <link rel=\"next\" href=\"/t/thoughts-on-the-bbc-programme-for-gdnf/18300?page=3\">\n\n\n    \n  </head>\n  <body class=\"crawler\">\n    <header role=\"banner\">\n    <div class=\"region region-header\">\n        <div class=\"region-header-wrapper\">\n            <div id=\"block-parkinsons-d8-branding\" class=\"block block-system block-system-branding-block\">\n                <a href=\"/\" title=\"Home\" rel=\"home\" class=\"site-logo\">\n                    <img src=\"https://forum.parkinsons.org.uk/uploads/db7928/original/2X/8/862bb7d172e7d127e7f3e147ec43594aa62ac945.png\" alt=\"Parkinson's UK. Change Attitudes. Find a cure. Join us.\">\n                </a>\n            </div>\n            <div id=\"block-helpline\" class=\"block block-block-content block-block-content871cd5af-b938-4947-9dc0-d5c211d08fe3 style-phone\">\n                <div class=\"field field--name-field-link field--type-link field--label-hidden field__item\"><a href=\"tel:+448088000303\">Helpline 0808 800 0303</a></div>\n            </div>\n            <div id=\"block-shop\" class=\"block block-block-content block-block-content6fba5ae5-7797-49cd-8367-f321d8111cd6 style-regular\">\n                <div class=\"field field--name-field-link field--type-link field--label-hidden field__item\"><a href=\"https://shop.parkinsons.org.uk\">Shop</a></div>\n            </div>\n        </div>\n    </div>\n</header>\n\n\n<script src=\"/theme-javascripts/b7e9763fcb584fc8265c56a9f557cd6d2e1e8ed8.js?__ws=forum.parkinsons.org.uk\"></script>\n    <header>\n      <a href=\"/\">\n          <img src=\"https://forum.parkinsons.org.uk/uploads/db7928/original/2X/8/862bb7d172e7d127e7f3e147ec43594aa62ac945.png\" alt=\"Parkinson&#39;s UK Forum\" id=\"site-logo\" style=\"max-width: 150px;\">\n      </a>\n    </header>\n    <div id=\"main-outlet\" class=\"wrap\">\n      <h1>\n  <a href=\"/t/thoughts-on-the-bbc-programme-for-gdnf/18300\">Thoughts on the BBC programme for GDNF?</a>\n</h1>\n\n<div id='breadcrumbs'>\n    <div id=\"breadcrumb-0\" itemscope itemtype=\"http://data-vocabulary.org/Breadcrumb\"\n        itemref=\"breadcrumb-1\"\n      >\n      <a href=\"/c/about-parkinsons-and-health\" itemprop=\"url\">\n        <span itemprop=\"title\">About Parkinson&#39;s and health</span>\n      </a>\n    </div>\n    <div id=\"breadcrumb-1\" itemscope itemtype=\"http://data-vocabulary.org/Breadcrumb\"\n>\n      <a href=\"/c/about-parkinsons-and-health/treatments-and-therapies\" itemprop=\"url\">\n        <span itemprop=\"title\">Treatments and therapies</span>\n      </a>\n    </div>\n</div>\n\n\n\n\n\n<hr>\n\n\n  <div itemscope itemtype='http://schema.org/DiscussionForumPosting'>\n      <div class='creator'>\n        <span>\n          <a href='/u/JF'><b itemprop='author'>JF</b></a>\n          \n          <time datetime='2019-03-08T22:47:03Z' itemprop='datePublished'>\n            2019-03-08 22:47:03 UTC\n          </time>\n        </span>\n        <span itemprop='position'>#21</span>\n      </div>\n      <div class='post' itemprop='articleBody'>\n        <p>I actually thought the programme was well done and was effective at raising awareness of the ups and downs that we Parkies go through. The outcome was easy to find out ahead of the second episode with a quick Internet search.</p>\n<p>There have been many trials over recent years but they have nearly all failed. My humble view is that the reason for this is that there are different  types of PD that respond to different treatments. This seems to be the case with GDNF: some people showed significant improvement, others didn’t. Overall the average improvement across all the participants did not pass the theshold, but if the treatment had been better targeted, I suspect it would have done… so hopefully this is not the end of the GDNF story…</p>\n      </div>\n      <meta itemprop='interactionCount' content='UserLikes:0'>\n      <meta itemprop='interactionCount' content='UserComments:0'>\n      <meta itemprop='headline' content='Thoughts on the BBC programme for GDNF?'>\n      <hr>\n  </div>\n  <div itemscope itemtype='http://schema.org/DiscussionForumPosting'>\n      <div class='creator'>\n        <span>\n          <a href='/u/caterc'><b itemprop='author'>caterc</b></a>\n          \n          <time datetime='2019-03-09T15:07:16Z' itemprop='datePublished'>\n            2019-03-09 15:07:16 UTC\n          </time>\n        </span>\n        <span itemprop='position'>#22</span>\n      </div>\n      <div class='post' itemprop='articleBody'>\n        <p>Why didn’t they, at the end of the programme ask for donations for Parkinson’s ??</p>\n      </div>\n      <meta itemprop='interactionCount' content='UserLikes:0'>\n      <meta itemprop='interactionCount' content='UserComments:1'>\n      <meta itemprop='headline' content='Thoughts on the BBC programme for GDNF?'>\n      <hr>\n  </div>\n  <div itemscope itemtype='http://schema.org/DiscussionForumPosting'>\n      <div class='creator'>\n        <span>\n          <a href='/u/roberto'><b itemprop='author'>roberto</b></a>\n          \n          <time datetime='2019-03-09T20:11:34Z' itemprop='datePublished'>\n            2019-03-09 20:11:34 UTC\n          </time>\n        </span>\n        <span itemprop='position'>#23</span>\n      </div>\n      <div class='post' itemprop='articleBody'>\n        <p>well I for one will avoid Pfizer drugs where ever possible, I mean £3m is nothing to these guys. Its about time the government got a grip and went all out to find a cure. They can send money all over the world and find money to fight wars and write off bad loans and bail out the banks to the tune of billions!.  it makes me sick! They need to get their priority’s in order . Finding a cure would be a great investment.</p>\n      </div>\n      <meta itemprop='interactionCount' content='UserLikes:1'>\n      <meta itemprop='interactionCount' content='UserComments:1'>\n      <meta itemprop='headline' content='Thoughts on the BBC programme for GDNF?'>\n      <hr>\n  </div>\n  <div itemscope itemtype='http://schema.org/DiscussionForumPosting'>\n      <div class='creator'>\n        <span>\n          <a href='/u/HavanaS'><b itemprop='author'>HavanaS</b></a>\n          \n          <time datetime='2019-03-09T20:52:49Z' itemprop='datePublished'>\n            2019-03-09 20:52:49 UTC\n          </time>\n        </span>\n        <span itemprop='position'>#24</span>\n      </div>\n      <div class='post' itemprop='articleBody'>\n        <p>Yes! Completely agree. It baffles me. If it was one of the Stand Up to Cancer programmes, they would be asking for donations.</p>\n      </div>\n      <meta itemprop='interactionCount' content='UserLikes:1'>\n      <meta itemprop='interactionCount' content='UserComments:0'>\n      <meta itemprop='headline' content='Thoughts on the BBC programme for GDNF?'>\n      <hr>\n  </div>\n  <div itemscope itemtype='http://schema.org/DiscussionForumPosting'>\n      <div class='creator'>\n        <span>\n          <a href='/u/HavanaS'><b itemprop='author'>HavanaS</b></a>\n          \n          <time datetime='2019-03-09T21:07:12Z' itemprop='datePublished'>\n            2019-03-09 21:07:12 UTC\n          </time>\n        </span>\n        <span itemprop='position'>#25</span>\n      </div>\n      <div class='post' itemprop='articleBody'>\n        <p>It’s so true Roberto. If people understood how distressing a disease Parkinsons can be for all involved, then the money would be found. It brings me to tears regularly when I think about how brave my mum has to be on a daily basis, having had the disease for almost 16 years now. The weight of what my mum is having to carry now is just too much for a person to bear.</p>\n<p>I know a cure will be found. And it just makes me sad when I know this research project first began in 2001 before my mum even realised she had it.</p>\n<p>I have voiced my concerns that I raised in my initial post to the BBC, and to Parkinsons organisation CEO and to Pfizer. It’s something I felt very strongly about.  Let’s hope some breakthrough and funding comes soon.</p>\n      </div>\n      <meta itemprop='interactionCount' content='UserLikes:0'>\n      <meta itemprop='interactionCount' content='UserComments:1'>\n      <meta itemprop='headline' content='Thoughts on the BBC programme for GDNF?'>\n      <hr>\n  </div>\n  <div itemscope itemtype='http://schema.org/DiscussionForumPosting'>\n      <div class='creator'>\n        <span>\n          <a href='/u/roberto'><b itemprop='author'>roberto</b></a>\n          \n          <time datetime='2019-03-09T22:00:49Z' itemprop='datePublished'>\n            2019-03-09 22:00:49 UTC\n          </time>\n        </span>\n        <span itemprop='position'>#26</span>\n      </div>\n      <div class='post' itemprop='articleBody'>\n        <p>it makes my blood boil when I think of what those patients went through to test this drug and then just thrown to the wolves. It shows where their loyalties lie. It was never about finding  cure but about extending the life of the patient so they can squeeze more money out of the NHS. It’s a disgrace. surely the government  could deflect a few million from the lottery to push for a cure, or why can’t we choose which charity our bit goes to. it makes you wonder if they really want to cure it at all. I mean £3M IS PEANUTS.</p>\n      </div>\n      <meta itemprop='interactionCount' content='UserLikes:0'>\n      <meta itemprop='interactionCount' content='UserComments:0'>\n      <meta itemprop='headline' content='Thoughts on the BBC programme for GDNF?'>\n      <hr>\n  </div>\n  <div itemscope itemtype='http://schema.org/DiscussionForumPosting'>\n      <div class='creator'>\n        <span>\n          <a href='/u/Eve1'><b itemprop='author'>Eve1</b></a>\n          \n          <time datetime='2019-03-11T10:27:26Z' itemprop='datePublished'>\n            2019-03-11 10:27:26 UTC\n          </time>\n        </span>\n        <span itemprop='position'>#27</span>\n      </div>\n      <div class='post' itemprop='articleBody'>\n        <p>I too am disgusted how Parkinson sufferers hopes were raised only to be let down so, as I think, coldly.</p>\n<p>All my PD friends feel the same.  One lady did say she would have been terrified to watch the programs was it not for the Parkinson Gym Class giving her strength not only physically but mentally.  Which is thanks to our PD Physio.</p>\n<p>I agree with everything Roberto says.</p>\n      </div>\n      <meta itemprop='interactionCount' content='UserLikes:0'>\n      <meta itemprop='interactionCount' content='UserComments:0'>\n      <meta itemprop='headline' content='Thoughts on the BBC programme for GDNF?'>\n      <hr>\n  </div>\n  <div itemscope itemtype='http://schema.org/DiscussionForumPosting'>\n      <div class='creator'>\n        <span>\n          <a href='/u/Reah'><b itemprop='author'>Reah</b></a>\n          \n          <time datetime='2019-03-11T13:25:01Z' itemprop='datePublished'>\n            2019-03-11 13:25:01 UTC\n          </time>\n        </span>\n        <span itemprop='position'>#28</span>\n      </div>\n      <div class='post' itemprop='articleBody'>\n        <p>Hi <a class=\"mention\" href=\"/u/genteche1\">@GentechE1</a>,</p>\n<p>I’m truly sorry you feel this way, I can assure the documentary wasn’t a fundraising documentary for Parkinson’s UK.</p>\n<p>Since the clinical trials of GDNF came to an end in February 2017 the research team have worked tirelessly to analyse and understand the results so that they can be shared with the wider Parkinson’s community.</p>\n<p>This has taken longer than expected partly because of the sheer volume and complexity of the data which took time to understand, but also because it is more challenging to publish ‘negative’ findings so this has added to the delays.</p>\n<p>I hope this clarifies some of your concerns.</p>\n<p>Best wishes,<br>\nReah</p>\n      </div>\n      <meta itemprop='interactionCount' content='UserLikes:2'>\n      <meta itemprop='interactionCount' content='UserComments:0'>\n      <meta itemprop='headline' content='Thoughts on the BBC programme for GDNF?'>\n      <hr>\n  </div>\n  <div itemscope itemtype='http://schema.org/DiscussionForumPosting'>\n      <div class='creator'>\n        <span>\n          <a href='/u/frosty'><b itemprop='author'>frosty</b></a>\n          \n          <time datetime='2019-03-12T10:29:27Z' itemprop='datePublished'>\n            2019-03-12 10:29:27 UTC\n          </time>\n        </span>\n        <span itemprop='position'>#29</span>\n      </div>\n      <div class='post' itemprop='articleBody'>\n        <p>With ref. to the GDNF trial outcome considered to have failed, one thing wasn’t mentioned. I am referring to the surgically installed brain implants for  the trial participants. Have they been left in, or in the process of being removed?</p>\n      </div>\n      <meta itemprop='interactionCount' content='UserLikes:0'>\n      <meta itemprop='interactionCount' content='UserComments:0'>\n      <meta itemprop='headline' content='Thoughts on the BBC programme for GDNF?'>\n      <hr>\n  </div>\n  <div itemscope itemtype='http://schema.org/DiscussionForumPosting'>\n      <div class='creator'>\n        <span>\n          <a href='/u/The_Retreat'><b itemprop='author'>The_Retreat</b></a>\n          \n          <time datetime='2019-03-12T10:42:20Z' itemprop='datePublished'>\n            2019-03-12 10:42:20 UTC\n          </time>\n        </span>\n        <span itemprop='position'>#30</span>\n      </div>\n      <div class='post' itemprop='articleBody'>\n        <p>I was one of the participants in the GDNF trial and feel i must defend the documentary, what you saw was exactly what happened all the ups and downs, celebration and disappointment we may not like the end results but remember this is research, we do something , we learn from it and we move on wards towards the cure.<br>\nThe results are not the failure you think it is, we know the delivery system works, we know that infusions of GDNF are safe , we have exciting PET scan results. We are several steps closer to a cure and i personally think that GDNF is the way forward, just look around at all the participants who have come forward to tell of their experiences and improvements.<br>\nWhen carrying out research you hope for the best but must except some knock backs, we are learning as we go and the documentary showed this. We would all like the fairy tale ending but this is reality and some times reality is disappointing  or upsetting.</p>\n      </div>\n      <meta itemprop='interactionCount' content='UserLikes:6'>\n      <meta itemprop='interactionCount' content='UserComments:2'>\n      <meta itemprop='headline' content='Thoughts on the BBC programme for GDNF?'>\n      <hr>\n  </div>\n  <div itemscope itemtype='http://schema.org/DiscussionForumPosting'>\n      <div class='creator'>\n        <span>\n          <a href='/u/Tot'><b itemprop='author'>Tot</b></a>\n          \n          <time datetime='2019-03-12T12:28:53Z' itemprop='datePublished'>\n            2019-03-12 12:28:53 UTC\n          </time>\n        </span>\n        <span itemprop='position'>#31</span>\n      </div>\n      <div class='post' itemprop='articleBody'>\n        <p>You make valid points and I doubt many would disagree.  From what I have been reading of the comments my interpretation it is  the way the programme presented the information rather than the outcome itself which has caused so much anger and distress.  I did feel that there was a strong inference within the first programme that a positive outcome was anticipated and the stunned silence that followed the announcement would seem to support this view.  If this is so I can understand how so many feel they had their hopes raised and then cruelly dashed; to then have the drugs company withdraw, was the final nail in the coffin.</p>\n      </div>\n      <meta itemprop='interactionCount' content='UserLikes:0'>\n      <meta itemprop='interactionCount' content='UserComments:0'>\n      <meta itemprop='headline' content='Thoughts on the BBC programme for GDNF?'>\n      <hr>\n  </div>\n  <div itemscope itemtype='http://schema.org/DiscussionForumPosting'>\n      <div class='creator'>\n        <span>\n          <a href='/u/minim'><b itemprop='author'>minim</b></a>\n          \n          <time datetime='2019-03-12T14:09:19Z' itemprop='datePublished'>\n            2019-03-12 14:09:19 UTC\n          </time>\n        </span>\n        <span itemprop='position'>#32</span>\n      </div>\n      <div class='post' itemprop='articleBody'>\n        <p>I’m afraid I don’t agree that Parkinson’s UK didn’t keep us informed about the GDNF trial. They have written about it in their research roundup. They also told us about Pfizer pulling out of Parkinson’s research. Also there was no need to wait for the second part of the documentary to be aired to see what the final outcome of the trial was as Parkinson’s UK gave us a link to be able to read the results of the study before hand.<br>\nLike my fellow pd sufferers I was depressed to hear that the research would not continue due to lack of funding. I think Parkinson’s UK really should have used the opportunity to ask for donations at the end of the programme. It is probably still not too late to have a fund raising campaign while the programme is still fresh in people’s mind.</p>\n      </div>\n      <meta itemprop='interactionCount' content='UserLikes:1'>\n      <meta itemprop='interactionCount' content='UserComments:1'>\n      <meta itemprop='headline' content='Thoughts on the BBC programme for GDNF?'>\n      <hr>\n  </div>\n  <div itemscope itemtype='http://schema.org/DiscussionForumPosting'>\n      <div class='creator'>\n        <span>\n          <a href='/u/Tot'><b itemprop='author'>Tot</b></a>\n          \n          <time datetime='2019-03-12T15:56:28Z' itemprop='datePublished'>\n            2019-03-12 15:56:28 UTC\n          </time>\n        </span>\n        <span itemprop='position'>#33</span>\n      </div>\n      <div class='post' itemprop='articleBody'>\n        <p>I have no problem with your disagreeing at all but I think I perhaps didn’t make my point very clear.  It was simply a strong impression that I got from reading the comments and watching the programmes.  You are clearly well informed about the trial and that’s fine.  I would also acknowledge that Parkinson’s UK do a great job in trying to keep people informed and to do so in a plain English way.  Not everybody would have done the reading that you have done, I know from my own work experience that for a variety of reasons some are put off reading information of that nature and that some would therefore have been expressing a reaction based only on the two programmes.  Taken as a ‘stand alone reaction’ I think my comments will strike a chord,  indeed pretty much reflect my own based on the two programmes alone.  I am well aware that this is a simplistic point of view.  I know because of my background these things are hugely complex and that the headlines are rarely the full story.  I also personally believe that the honesty of these programmes has to be beneficial to those of us with Parkinson’s and other neurological conditions.  Equally though, these programmes have clearly caused many people much upset and anger for whatever reason and that does raise questions I think, about the way the programmes were presented and which have led to such distressing comments being made.  It may all have been unintentional but nevertheless more than a few PWP have been caused a great deal of distress and that, in my opinion, is not right.</p>\n      </div>\n      <meta itemprop='interactionCount' content='UserLikes:0'>\n      <meta itemprop='interactionCount' content='UserComments:0'>\n      <meta itemprop='headline' content='Thoughts on the BBC programme for GDNF?'>\n      <hr>\n  </div>\n  <div itemscope itemtype='http://schema.org/DiscussionForumPosting'>\n      <div class='creator'>\n        <span>\n          <a href='/u/The_Retreat'><b itemprop='author'>The_Retreat</b></a>\n          \n          <time datetime='2019-03-12T18:18:53Z' itemprop='datePublished'>\n            2019-03-12 18:18:53 UTC\n          </time>\n        </span>\n        <span itemprop='position'>#34</span>\n      </div>\n      <div class='post' itemprop='articleBody'>\n        <p>I agree with Tot the stunned silence did capture the moment when it was realised that there would not be a positive outcome  particularly when as most participants had improved in one way or the other and therefore expected a successful outcome.<br>\nThe documentary accurately showed what actually happened, the upbeat feeling in the trial was shattered by the results and when Pfizer pulled out people were devastated, all the documentary did was show it as it was.<br>\nThe purpose of the documentary was to rise awareness of Parkinson’s and the trial which i think you will agree it did. By showing the ‘warts and all’ version the viewing public had a taste of some of the emotions we all experienced, when we started we did not know how things would develop and the documentary title did have a question mark at the end.<br>\nSome people have asked why fund raising wasn’t highlighted, if you are interested one of the participants is actively trying to raise money to help kick start a stage 3 trial,please follow the link and give generously.<br>\n<aside class=\"onebox whitelistedgeneric\">\n  <header class=\"source\">\n      <img src=\"https://static.xx.fbcdn.net/rsrc.php/yz/r/KFyVIAWzntM.ico\" class=\"site-icon\" width=\"16\" height=\"16\">\n      <a href=\"https://www.facebook.com/darren.calder.73/posts/116526312834798\" target=\"_blank\" rel=\"nofollow noopener\">facebook.com</a>\n  </header>\n  <article class=\"onebox-body\">\n    <img src=\"https://forum.parkinsons.org.uk/uploads/db7928/original/2X/8/87ecc1fe4989ef98f04b2b60b6e2302d18a362e1.jpeg\" class=\"thumbnail onebox-avatar\" width=\"400\" height=\"400\">\n\n<h3><a href=\"https://www.facebook.com/darren.calder.73/posts/116526312834798\" target=\"_blank\" rel=\"nofollow noopener\">Darren Calder</a></h3>\n\n<p>Darren Calder hat einen Link geteilt.</p>\n\n\n  </article>\n  <div class=\"onebox-metadata\">\n    \n    \n  </div>\n  <div style=\"clear: both\"></div>\n</aside>\n</p>\n      </div>\n      <meta itemprop='interactionCount' content='UserLikes:0'>\n      <meta itemprop='interactionCount' content='UserComments:0'>\n      <meta itemprop='headline' content='Thoughts on the BBC programme for GDNF?'>\n      <hr>\n  </div>\n  <div itemscope itemtype='http://schema.org/DiscussionForumPosting'>\n      <div class='creator'>\n        <span>\n          <a href='/u/penfold'><b itemprop='author'>penfold</b></a>\n          \n          <time datetime='2019-03-12T19:55:43Z' itemprop='datePublished'>\n            2019-03-12 19:55:43 UTC\n          </time>\n        </span>\n        <span itemprop='position'>#35</span>\n      </div>\n      <div class='post' itemprop='articleBody'>\n        <p>yes i thought the program was a bit of a disappointment in the end .but iot just goes to show the reality of our position     YES there may be a cure for PD and god hopes a cure for a neurological conditions we just aint there yet its going to take a lot more research and money we(this generation ) of suffers are just going to realize that there may not be an answer in our time.good luck all</p>\n      </div>\n      <meta itemprop='interactionCount' content='UserLikes:0'>\n      <meta itemprop='interactionCount' content='UserComments:0'>\n      <meta itemprop='headline' content='Thoughts on the BBC programme for GDNF?'>\n      <hr>\n  </div>\n  <div itemscope itemtype='http://schema.org/DiscussionForumPosting'>\n      <div class='creator'>\n        <span>\n          <a href='/u/roberto'><b itemprop='author'>roberto</b></a>\n          \n          <time datetime='2019-03-12T21:10:51Z' itemprop='datePublished'>\n            2019-03-12 21:10:51 UTC\n          </time>\n        </span>\n        <span itemprop='position'>#36</span>\n      </div>\n      <div class='post' itemprop='articleBody'>\n        <p>this is exactly what I am getting at, for Pfizer to pull out at this stage is crazy, they could have funded further research even if was just to wash out the placebo factor. It’s the nearest thing we have had to cure, it deserves a better chance!</p>\n      </div>\n      <meta itemprop='interactionCount' content='UserLikes:1'>\n      <meta itemprop='interactionCount' content='UserComments:0'>\n      <meta itemprop='headline' content='Thoughts on the BBC programme for GDNF?'>\n      <hr>\n  </div>\n  <div itemscope itemtype='http://schema.org/DiscussionForumPosting'>\n      <div class='creator'>\n        <span>\n          <a href='/u/HavanaS'><b itemprop='author'>HavanaS</b></a>\n          \n          <time datetime='2019-03-12T22:42:13Z' itemprop='datePublished'>\n            2019-03-12 22:42:13 UTC\n          </time>\n        </span>\n        <span itemprop='position'>#37</span>\n      </div>\n      <div class='post' itemprop='articleBody'>\n        <p>Thank you everyone for your considered thoughts. It is really great to hear from someone who was actually in the trial and to get all the different perspectives.</p>\n<p>I’m also happy to hear that Darren has a fundraising page. I haven’t heard back from the BBC on my complaint. As people have said- it really wasn’t the content or the programme I was angry about- just the way it was split into two parts with the misleading title and treated like a thriller- giving false hope and unfairly dragging out the outcome. I guess in these situations, it always depends on what your personal situation/ viewpoint is as to how you will be affected by these things. For me personally, after watching the first programme, my mum wanted the surgery to be able to play with her x2 grandchildren aged under 3. To then wait a week to find out it wasn’t successful and that ‘the Miracle’ cure wasn’t actually the case- felt cruel.</p>\n<p>I really would like the BBC to apologise for the way they approached the broadcasting of the programme- not the programme itself- just the way it was positioned. I at least think they could apologise and begin the donations to Parkinsons organisation with a considerable sum.</p>\n      </div>\n      <meta itemprop='interactionCount' content='UserLikes:0'>\n      <meta itemprop='interactionCount' content='UserComments:0'>\n      <meta itemprop='headline' content='Thoughts on the BBC programme for GDNF?'>\n      <hr>\n  </div>\n  <div itemscope itemtype='http://schema.org/DiscussionForumPosting'>\n      <div class='creator'>\n        <span>\n          <a href='/u/vicki'><b itemprop='author'>vicki</b></a>\n          \n          <time datetime='2019-03-13T05:44:33Z' itemprop='datePublished'>\n            2019-03-13 05:44:33 UTC\n          </time>\n        </span>\n        <span itemprop='position'>#38</span>\n      </div>\n      <div class='post' itemprop='articleBody'>\n        <p>Reading the comments… gobsmacked by some<br>\nI was in the documentary, one of the first six thru as part of the initial safety aspect<br>\nI went into this trial altruistically believing it was for the greater good of us all<br>\nI still believe that<br>\nThe trial was not a fail<br>\nWe proved that we can deliver drugs past blood brain barrier<br>\nWe proved the delivery system was safe<br>\nWe proved that Gdnf created Neuron regrowth<br>\nAnd much more<br>\nWe made medical history<br>\nIt was a trial- a learning curve<br>\nDu not realise how far we ve come???<br>\nHonest to God I can not believe some of the pointless slagging off!<br>\nInvaluable data captured<br>\nMuch more than what you saw<br>\nAnd has raised the awareness of Pd hugely in the uk and will do worldwide-<br>\nTo slate it is sadly missing all the giant steps made<br>\nYes it was distressing and hard hitting / that’s the reality it’s not cinderfeckingrella<br>\nThe people involved - patients, medical team and film makers gave more than you could ever know to help us<br>\nStop and think before criticising<br>\nSeriously</p>\n      </div>\n      <meta itemprop='interactionCount' content='UserLikes:4'>\n      <meta itemprop='interactionCount' content='UserComments:1'>\n      <meta itemprop='headline' content='Thoughts on the BBC programme for GDNF?'>\n      <hr>\n  </div>\n  <div itemscope itemtype='http://schema.org/DiscussionForumPosting'>\n      <div class='creator'>\n        <span>\n          <a href='/u/TheFallen'><b itemprop='author'>TheFallen</b></a>\n          \n          <time datetime='2019-03-13T07:15:28Z' itemprop='datePublished'>\n            2019-03-13 07:15:28 UTC\n          </time>\n        </span>\n        <span itemprop='position'>#39</span>\n      </div>\n      <div class='post' itemprop='articleBody'>\n        <p>It sounds like a couple of steps forward</p>\n      </div>\n      <meta itemprop='interactionCount' content='UserLikes:0'>\n      <meta itemprop='interactionCount' content='UserComments:1'>\n      <meta itemprop='headline' content='Thoughts on the BBC programme for GDNF?'>\n      <hr>\n  </div>\n  <div itemscope itemtype='http://schema.org/DiscussionForumPosting'>\n      <div class='creator'>\n        <span>\n          <a href='/u/vicki'><b itemprop='author'>vicki</b></a>\n          \n          <time datetime='2019-03-13T08:54:06Z' itemprop='datePublished'>\n            2019-03-13 08:54:06 UTC\n          </time>\n        </span>\n        <span itemprop='position'>#40</span>\n      </div>\n      <div class='post' itemprop='articleBody'>\n        <p>Are you serious?</p>\n      </div>\n      <meta itemprop='interactionCount' content='UserLikes:0'>\n      <meta itemprop='interactionCount' content='UserComments:1'>\n      <meta itemprop='headline' content='Thoughts on the BBC programme for GDNF?'>\n      <hr>\n  </div>\n\n  <div role='navigation' itemscope itemtype='http://schema.org/SiteNavigationElement'>\n      <span itemprop='name'><a rel=\"prev\" itemprop=\"url\" href=\"/t/thoughts-on-the-bbc-programme-for-gdnf/18300\">← previous page</a></span>\n      <span itemprop='name'><b><a rel=\"next\" itemprop=\"url\" href=\"/t/thoughts-on-the-bbc-programme-for-gdnf/18300?page=3\">next page →</a></b></span>\n  </div>\n\n\n\n\n\n    </div>\n    <footer class=\"container\">\n      <nav class='crawler-nav' itemscope itemtype='http://schema.org/SiteNavigationElement'>\n        <a href='/'>Home</a>\n        <a href=\"/categories\">Categories</a>\n        <a href=\"/guidelines\">FAQ/Guidelines</a>\n        <a href=\"/tos\">Terms of Service</a>\n        <a href=\"/privacy\">Privacy Policy</a>\n      </nav>\n      <p class='powered-by-link'>Powered by <a href=\"https://www.discourse.org\">Discourse</a>, best viewed with JavaScript enabled</p>\n    </footer>\n    \n  </body>\n  \n</html>\n",
  "url": "https://forum.parkinsons.org.uk/t/thoughts-on-the-bbc-programme-for-gdnf/18300?page=2"
}