{
  "contentId": "460e1300-8866-11e9-8f96-97f71b5221d6",
  "html": "<!DOCTYPE html>\n<html lang=\"en\">\n  <head>\n    <meta charset=\"utf-8\">\n    <title>Advertising and &quot;Getting it out there&quot; - Research opportunities - Parkinson&#39;s UK Forum</title>\n    <meta name=\"description\" content=\"Not really sure where to post this but maybe someone could bump this to wherever is meant to be please? \r\n​During the month of December I looked in all the card shops,supermarkets,charity shops etc to find Christmas card&amp;hellip;\">\n    <meta name=\"author\" content=\"\">\n<meta name=\"generator\" content=\"Discourse 2.2.5 - https://github.com/discourse/discourse version c294ff3609f988dcafb742e91606d60ca13b794d\">\n<link rel=\"icon\" type=\"image/png\" href=\"https://forum.parkinsons.org.uk/uploads/db7928/original/2X/3/311fc84f89f49f38601a2f16b295b6f03d3ce5dd.jpg\">\n<link rel=\"apple-touch-icon\" type=\"image/png\" href=\"https://forum.parkinsons.org.uk/uploads/db7928/original/2X/3/311fc84f89f49f38601a2f16b295b6f03d3ce5dd.jpg\">\n<meta name=\"theme-color\" content=\"#ffffff\">\n<meta name=\"viewport\" content=\"width=device-width, minimum-scale=1.0, maximum-scale=1.0, user-scalable=yes\">\n<link rel=\"canonical\" href=\"https://forum.parkinsons.org.uk/t/advertising-and-getting-it-out-there/10315\" />\n<script type=\"application/ld+json\">{\"@context\":\"http://schema.org\",\"@type\":\"WebSite\",\"url\":\"https://forum.parkinsons.org.uk\",\"potentialAction\":{\"@type\":\"SearchAction\",\"target\":\"https://forum.parkinsons.org.uk/search?q={search_term_string}\",\"query-input\":\"required name=search_term_string\"}}</script>\n<link rel=\"search\" type=\"application/opensearchdescription+xml\" href=\"https://forum.parkinsons.org.uk/opensearch.xml\" title=\"Parkinson&#39;s UK Forum Search\">\n\n      <link href=\"/stylesheets/desktop_f99246ae801b083d3e4cca979d0dade8615b39ac.css?__ws=forum.parkinsons.org.uk\" media=\"all\" rel=\"stylesheet\" data-target=\"desktop\" data-theme-id=\"12\"/>\n      <link href=\"/stylesheets/desktop_theme_12_5d27531cf43f9df0c03a6a6ec3109dd05f9dfc49.css?__ws=forum.parkinsons.org.uk\" media=\"all\" rel=\"stylesheet\" data-target=\"desktop_theme\" data-theme-id=\"12\"/>\n    <link href=\"https://fonts.googleapis.com/css?family=Open+Sans\" rel=\"stylesheet\">\n\n    <meta id=\"data-ga-universal-analytics\" data-tracking-code=\"UA-4855628-1\" data-json=\"{&quot;cookieDomain&quot;:&quot;auto&quot;}\" data-auto-link-domains=\"\">\n\n<link rel='preload' href='/assets/google-universal-analytics-f35b4da49411e6f5559073523aab983da483976a3954c79c756f8579f6fbd6ef.js' as='script'/>\n<script src='/assets/google-universal-analytics-f35b4da49411e6f5559073523aab983da483976a3954c79c756f8579f6fbd6ef.js'></script>\n\n      <link rel=\"alternate\" type=\"application/rss+xml\" title=\"RSS feed of &#39;Advertising and &quot;Getting it out there&quot;&#39;\" href=\"https://forum.parkinsons.org.uk/t/advertising-and-getting-it-out-there/10315.rss\" />\n  <meta property=\"og:site_name\" content=\"Parkinson&#39;s UK Forum\" />\n<meta name=\"twitter:card\" content=\"summary\" />\n<meta name=\"twitter:image\" content=\"https://forum.parkinsons.org.uk/uploads/db7928/original/2X/3/311fc84f89f49f38601a2f16b295b6f03d3ce5dd.jpg\" />\n<meta property=\"og:image\" content=\"https://forum.parkinsons.org.uk/uploads/db7928/original/2X/3/311fc84f89f49f38601a2f16b295b6f03d3ce5dd.jpg\" />\n<meta property=\"og:url\" content=\"https://forum.parkinsons.org.uk/t/advertising-and-getting-it-out-there/10315\" />\n<meta name=\"twitter:url\" content=\"https://forum.parkinsons.org.uk/t/advertising-and-getting-it-out-there/10315\" />\n<meta property=\"og:title\" content=\"Advertising and &quot;Getting it out there&quot;\" />\n<meta name=\"twitter:title\" content=\"Advertising and &quot;Getting it out there&quot;\" />\n<meta property=\"og:description\" content=\"Not really sure where to post this but maybe someone could bump this to wherever is meant to be please? \r ​During the month of December I looked in all the card shops,supermarkets,charity shops etc to find Christmas cards supporting PD charity...I unfortunately could find none anywhere.Today I have just checked all our own cards sent to us... Lots are sold for various charities supporting them. The ones here are supporting at least 10 charities from animals,children,cancer and others along the l...\" />\n<meta name=\"twitter:description\" content=\"Not really sure where to post this but maybe someone could bump this to wherever is meant to be please? \r ​During the month of December I looked in all the card shops,supermarkets,charity shops etc to find Christmas cards supporting PD charity...I unfortunately could find none anywhere.Today I have just checked all our own cards sent to us... Lots are sold for various charities supporting them. The ones here are supporting at least 10 charities from animals,children,cancer and others along the l...\" />\n<meta property=\"article:published_time\" content=\"2018-01-02T16:23:46+00:00\" />\n<meta property=\"og:ignore_canonical\" content=\"true\" />\n\n\n\n    \n  </head>\n  <body class=\"crawler\">\n    <header role=\"banner\">\n    <div class=\"region region-header\">\n        <div class=\"region-header-wrapper\">\n            <div id=\"block-parkinsons-d8-branding\" class=\"block block-system block-system-branding-block\">\n                <a href=\"/\" title=\"Home\" rel=\"home\" class=\"site-logo\">\n                    <img src=\"https://forum.parkinsons.org.uk/uploads/db7928/original/2X/8/862bb7d172e7d127e7f3e147ec43594aa62ac945.png\" alt=\"Parkinson's UK. Change Attitudes. Find a cure. Join us.\">\n                </a>\n            </div>\n            <div id=\"block-helpline\" class=\"block block-block-content block-block-content871cd5af-b938-4947-9dc0-d5c211d08fe3 style-phone\">\n                <div class=\"field field--name-field-link field--type-link field--label-hidden field__item\"><a href=\"tel:+448088000303\">Helpline 0808 800 0303</a></div>\n            </div>\n            <div id=\"block-shop\" class=\"block block-block-content block-block-content6fba5ae5-7797-49cd-8367-f321d8111cd6 style-regular\">\n                <div class=\"field field--name-field-link field--type-link field--label-hidden field__item\"><a href=\"https://shop.parkinsons.org.uk\">Shop</a></div>\n            </div>\n        </div>\n    </div>\n</header>\n\n\n<script src=\"/theme-javascripts/b7e9763fcb584fc8265c56a9f557cd6d2e1e8ed8.js?__ws=forum.parkinsons.org.uk\"></script>\n    <header>\n      <a href=\"/\">\n          <img src=\"https://forum.parkinsons.org.uk/uploads/db7928/original/2X/8/862bb7d172e7d127e7f3e147ec43594aa62ac945.png\" alt=\"Parkinson&#39;s UK Forum\" id=\"site-logo\" style=\"max-width: 150px;\">\n      </a>\n    </header>\n    <div id=\"main-outlet\" class=\"wrap\">\n      <h1>\n  <a href=\"/t/advertising-and-getting-it-out-there/10315\">Advertising and &quot;Getting it out there&quot;</a>\n</h1>\n\n<div id='breadcrumbs'>\n    <div id=\"breadcrumb-0\" itemscope itemtype=\"http://data-vocabulary.org/Breadcrumb\"\n        itemref=\"breadcrumb-1\"\n      >\n      <a href=\"/c/research\" itemprop=\"url\">\n        <span itemprop=\"title\">Research</span>\n      </a>\n    </div>\n    <div id=\"breadcrumb-1\" itemscope itemtype=\"http://data-vocabulary.org/Breadcrumb\"\n>\n      <a href=\"/c/research/research-opportunities\" itemprop=\"url\">\n        <span itemprop=\"title\">Research opportunities</span>\n      </a>\n    </div>\n</div>\n\n\n\n\n\n<hr>\n\n\n  <div itemscope itemtype='http://schema.org/DiscussionForumPosting'>\n      <div class='creator'>\n        <span>\n          <a href='/u/Babesbrown'><b itemprop='author'>Babesbrown</b></a>\n          \n          <time datetime='2018-01-02T16:23:46Z' itemprop='datePublished'>\n            2018-01-02 16:23:46 UTC\n          </time>\n        </span>\n        <span itemprop='position'>#1</span>\n      </div>\n      <div class='post' itemprop='articleBody'>\n        <p><em>Not really sure where to post this but maybe someone could bump this to wherever is meant to be please?</em></p>\r\n<p><em>​During the month of December I looked in all the card shops,supermarkets,charity shops etc to find Christmas cards supporting PD charity...I unfortunately could find none anywhere.Today I have just checked all our own cards sent to us... Lots are sold for various charities supporting them. The ones here are supporting at least 10 charities from animals,children,cancer and others along the line......my question is&nbsp; Why arent PDUK using this way to advertise the charity and get more income in? When Parkinsons awareness week was on last year the area where I live(and I live in a city not a tiny village) had nothing to raise awareness of people with PD.....I know that cards are available on line to purchase but surely the people who go on line to search charities are usually the ones with the actual disease? I feel that PDUK are missing an enormous advertising area for the public.........I feel that we are overlooked in a lot of areas of advertising....hence we come across lots of ignorance around people not affected by the disease???</em></p>\n      </div>\n      <meta itemprop='interactionCount' content='UserLikes:0'>\n      <meta itemprop='interactionCount' content='UserComments:0'>\n      <meta itemprop='headline' content='Advertising and &quot;Getting it out there&quot;'>\n      <hr>\n  </div>\n  <div itemscope itemtype='http://schema.org/DiscussionForumPosting'>\n      <div class='creator'>\n        <span>\n          <a href='/u/Virginia_Ann_Klein'><b itemprop='author'>Virginia_Ann_Klein</b></a>\n          \n          <time datetime='2018-01-02T18:05:33Z' itemprop='datePublished'>\n            2018-01-02 18:05:33 UTC\n          </time>\n        </span>\n        <span itemprop='position'>#2</span>\n      </div>\n      <div class='post' itemprop='articleBody'>\n        <p>I do agree,Alzheimer&#39;s and dementia ,cancer research are some that get a much higher profile .I always purchase charity Christmas cards from a church in town that has a variety of charities represented ,Just found only 4 packs for PD..</p>\r\n<p>It is sad that after all these years there is such little public awareness of PD.</p>\r\n<p>Suzi2</p>\n      </div>\n      <meta itemprop='interactionCount' content='UserLikes:0'>\n      <meta itemprop='interactionCount' content='UserComments:0'>\n      <meta itemprop='headline' content='Advertising and &quot;Getting it out there&quot;'>\n      <hr>\n  </div>\n  <div itemscope itemtype='http://schema.org/DiscussionForumPosting'>\n      <div class='creator'>\n        <span>\n          <a href='/u/sheffy'><b itemprop='author'>sheffy</b></a>\n          \n          <time datetime='2018-01-02T23:10:45Z' itemprop='datePublished'>\n            2018-01-02 23:10:45 UTC\n          </time>\n        </span>\n        <span itemprop='position'>#3</span>\n      </div>\n      <div class='post' itemprop='articleBody'>\n        <p>&nbsp;</p>\r\n<p>Hi Suzi2 - hope you had a lovely christmas and hope you have a good new year. Thank you for lovely&nbsp;the Christmas card. I&#39;m sorry I would have sent you one but unfortunately mislaid the diary I had the names and addresses in I&nbsp;used in York, but great news I have found it and will write to you.</p>\r\n<p>&nbsp;Sheila x</p>\n      </div>\n      <meta itemprop='interactionCount' content='UserLikes:0'>\n      <meta itemprop='interactionCount' content='UserComments:0'>\n      <meta itemprop='headline' content='Advertising and &quot;Getting it out there&quot;'>\n      <hr>\n  </div>\n  <div itemscope itemtype='http://schema.org/DiscussionForumPosting'>\n      <div class='creator'>\n        <span>\n          <a href='/u/Daffy'><b itemprop='author'>Daffy</b></a>\n          \n          <time datetime='2018-01-04T19:25:31Z' itemprop='datePublished'>\n            2018-01-04 19:25:31 UTC\n          </time>\n        </span>\n        <span itemprop='position'>#4</span>\n      </div>\n      <div class='post' itemprop='articleBody'>\n        <p>Hi</p>\r\n<p>I agree there seems to be very little information about PD generally in the public domain. A lot of people have never even heard of it.</p>\r\n<p>Of those that have heard of it, unless they have experience of it via PWP friend or family member, they usually know next to nothing about it.</p>\r\n<p>In my experience most think. PD is just &quot;a bit of shaking&quot;. They don&#39;t know it&#39;s incurable and progressive and comes with a whole load of other &quot;stuff&quot;. I should know, I used to be one of them until I got PD!</p>\r\n<p>How do you begin to explain what doesn&#39;t show when outwardly you look ok? The sleepless, broken nights, waves of fatigue, anxiety, stiffness, funny wobble feelings, stupidly slow movements or inability to get out of the way at times. It all sounds so vague until you experience it. l mean - &quot;if you&#39;re tired enough you&#39;ll sleep won&#39;t you?&quot; Er no</p>\r\n<p>Loss of sense of smell - ha ha, minor detail.</p>\r\n<p>Constipation - you can get pills for that..... And so on</p>\r\n<p>Sorry for the rant, but sometimes....</p>\r\n<p>My son in laws father has had a form of MND for 30 years and is in a poor way now. Which makes me feel a fraud for moaning about my little lot, especially to family. So thanks for the opportunity to post here and get it off my chest and thanks for reading this. Tomorrow will be a better day. Daffy</p>\r\n<p>&nbsp;</p>\n      </div>\n      <meta itemprop='interactionCount' content='UserLikes:0'>\n      <meta itemprop='interactionCount' content='UserComments:0'>\n      <meta itemprop='headline' content='Advertising and &quot;Getting it out there&quot;'>\n      <hr>\n  </div>\n  <div itemscope itemtype='http://schema.org/DiscussionForumPosting'>\n      <div class='creator'>\n        <span>\n          <a href='/u/benji'><b itemprop='author'>benji</b></a>\n          \n          <time datetime='2018-01-04T21:48:00Z' itemprop='datePublished'>\n            2018-01-04 21:48:00 UTC\n          </time>\n        </span>\n        <span itemprop='position'>#5</span>\n      </div>\n      <div class='post' itemprop='articleBody'>\n        <p>If you read the small print on the back of packs of charity Christmas Cards very little actually goes to the charity/charities that&nbsp;the sale purports to support.; 5%&nbsp; or less on some cases.</p>\r\n<p>PUK have their cards, OK, only available via their website or&nbsp; the P magazine. However, I&#39;m sure by going down this road, PUK gain more than a measly profit margin than&nbsp;would be gained by stocking many outlets with cards that did not sell.</p>\r\n<p>Maybe Admin can give some insight as to why PUK cardsare not widely available though I have no grievance with their present set up.</p>\n      </div>\n      <meta itemprop='interactionCount' content='UserLikes:0'>\n      <meta itemprop='interactionCount' content='UserComments:0'>\n      <meta itemprop='headline' content='Advertising and &quot;Getting it out there&quot;'>\n      <hr>\n  </div>\n  <div itemscope itemtype='http://schema.org/DiscussionForumPosting'>\n      <div class='creator'>\n        <span>\n          <a href='/u/sheffy'><b itemprop='author'>sheffy</b></a>\n          \n          <time datetime='2018-01-05T00:47:46Z' itemprop='datePublished'>\n            2018-01-05 00:47:46 UTC\n          </time>\n        </span>\n        <span itemprop='position'>#6</span>\n      </div>\n      <div class='post' itemprop='articleBody'>\n        <p>&nbsp;</p>\r\n<p>&nbsp;</p>\r\n<p>You don&#39;t even see leaflets in the GP surgeries or in hospital waiting room about PD, I wonder why?? &nbsp;Is it not an important disease?? That&#39;s why no one knows very little about it.</p>\r\n<p>In fact I even took some leaflets&nbsp;to our GP surgery to ask them &nbsp;to show them, the receptionist said she would have to ask permission, and to this day I have not seen them on show!</p>\n      </div>\n      <meta itemprop='interactionCount' content='UserLikes:0'>\n      <meta itemprop='interactionCount' content='UserComments:0'>\n      <meta itemprop='headline' content='Advertising and &quot;Getting it out there&quot;'>\n      <hr>\n  </div>\n  <div itemscope itemtype='http://schema.org/DiscussionForumPosting'>\n      <div class='creator'>\n        <span>\n          <a href='/u/Daffy'><b itemprop='author'>Daffy</b></a>\n          \n          <time datetime='2018-01-05T06:46:11Z' itemprop='datePublished'>\n            2018-01-05 06:46:11 UTC\n          </time>\n        </span>\n        <span itemprop='position'>#7</span>\n      </div>\n      <div class='post' itemprop='articleBody'>\n        <p>Hi shefinn</p>\r\n<p>You have a good point there. There&#39;s a rack full of leaflets at our Doctor&#39;s surgery about pretty much any condition you can think of - but not a single one on Parkinson&#39;s.</p>\r\n<p>When I was first diagnosed I felt fairly confident because my own GP was very knowledgeable but he retired within a couple of months. When I asked reception if any other GP in the practice had experience in Parkinson&#39;s Disease there was an awkward silence - they hadn&#39;t a clue what I was on about. It&#39;s a bit worrying.</p>\r\n<p>It would be helpful if there was just a little more readily available info out there for the general public. I wonder if Parkinson&#39;s uk has considered this issue. I for one would be happy to approach local GPs and pharmacies to ask if they would display leaflets if they were any but I don&#39;t know if there are</p>\n      </div>\n      <meta itemprop='interactionCount' content='UserLikes:0'>\n      <meta itemprop='interactionCount' content='UserComments:0'>\n      <meta itemprop='headline' content='Advertising and &quot;Getting it out there&quot;'>\n      <hr>\n  </div>\n  <div itemscope itemtype='http://schema.org/DiscussionForumPosting'>\n      <div class='creator'>\n        <span>\n          <a href='/u/Babesbrown'><b itemprop='author'>Babesbrown</b></a>\n          \n          <time datetime='2018-01-05T08:50:26Z' itemprop='datePublished'>\n            2018-01-05 08:50:26 UTC\n          </time>\n        </span>\n        <span itemprop='position'>#8</span>\n      </div>\n      <div class='post' itemprop='articleBody'>\n        <p>When my PWP was finally diagnoised after mis diagnosis for 4+years..... Frozen shoulder,trapped nerve,arthritis,age the list goes on...until the tremor became apparant and I went to see GP with him and insisted he was refered to a consultant (who told him as soon as he saw him it was PD it was so apparant)....when we went back to see our GP he said &quot;I am sorry I probably misdiagnoised you for a long time. As you are only 58 I thought you were too young for PD...I actually dont know much about PD you are better off talking to the consultant for info &quot;.......I realise that even with an earlier diagnosis nothing would have changed but it doesnt instill a great deal of faith in the GP...our surgery has no GP who knows more than the &quot;text book&quot; information about PD...We still see and hear so much ignorance about PD and hear &quot;its only a bit of shaking isnt it&quot;......</p>\r\n<p>Sad times......</p>\n      </div>\n      <meta itemprop='interactionCount' content='UserLikes:0'>\n      <meta itemprop='interactionCount' content='UserComments:0'>\n      <meta itemprop='headline' content='Advertising and &quot;Getting it out there&quot;'>\n      <hr>\n  </div>\n  <div itemscope itemtype='http://schema.org/DiscussionForumPosting'>\n      <div class='creator'>\n        <span>\n          <a href='/u/Reah'><b itemprop='author'>Reah</b></a>\n          \n          <time datetime='2018-01-05T15:14:47Z' itemprop='datePublished'>\n            2018-01-05 15:14:47 UTC\n          </time>\n        </span>\n        <span itemprop='position'>#9</span>\n      </div>\n      <div class='post' itemprop='articleBody'>\n        <p>Hi Babesbrown,</p>\r\n<p>We understand your frustration. Unfortunately, Parkinson&#39;s UK does not have any shops.</p>\r\n<p>There is one exception, QEF sell 1959 group cards in some of their shops. We are a member charity and our name appears on the back of the cards along with the other 22 member charities (QEF are also members of the 1959 group).</p>\r\n<p>Our logo also appears on the back of Medici and Ling multi charity cards, these cards are sold in non-chain greetings card shops, gift shops and some department stores nationwide.</p>\r\n<p>We are a member of Cards for Good Causes and sell a range of Parkinson&#39;s UK cards in the 340 outlets throughout the UK. The 1959 cards described above are sold in all Cards For Good Causes pop up shops.</p>\r\n<p>We are a guest charity for the Midland Christmas card shops, there are three shops who stock our cards.</p>\r\n<p>Our cards are also available to order via our catalogue and online shop.</p>\r\n<p>Some Parkinson&#39;s UK groups purchase our Christmas cards to sell at group meetings, Christmas fairs, school fetes and Christmas Markets.</p>\r\n<p>It would be lovely for a department store, supermarket or high street chain to stock our cards, competition is steep and inclusion is usually part of a charity of the year agreement.</p>\r\n<p>Some chains produce their own charity Christmas cards and invite a small number of charities to be part of their charity Christmas card scheme. The percentage donated to charity on these cards is very small and must be divided amongst all the charities whose logo appears on the cards, in reality just pence per pack.</p>\r\n<p>We&rsquo;re also aware of the lack of awareness and understanding of Parkinson&rsquo;s compared to some of the more prominent conditions such as Cancer, Alzheimer&rsquo;s plus children and animal causes. It&rsquo;s something we&rsquo;re doing our best to combat and we&rsquo;re investing more into our marketing this year to try and educate people on what Parkinson&rsquo;s is and the complexities around it. In December, we launched the first of our &lsquo;This is Parkinson&rsquo;s series of campaigns addressing the symptoms (including hidden ones) and lifestyle changes that can come with the condition which will continue throughout the year. We&rsquo;re committed to doing more, higher impact activity to help educate and change attitudes.</p>\r\n<p>In reference to the GP surgeries, we unfortunately don&rsquo;t have the resources to get our leaflets into every GP surgery. We are also reviewing our approach to this as we know how important it is to have information available for those who need it.&nbsp;</p>\r\n<p>Apologies for the lengthy response, however, I do hope the above information provides more context to your concerns.</p>\r\n<p>All the best.</p>\r\n<p>Many thanks,</p>\r\n<p>Reah</p>\n      </div>\n      <meta itemprop='interactionCount' content='UserLikes:0'>\n      <meta itemprop='interactionCount' content='UserComments:0'>\n      <meta itemprop='headline' content='Advertising and &quot;Getting it out there&quot;'>\n      <hr>\n  </div>\n  <div itemscope itemtype='http://schema.org/DiscussionForumPosting'>\n      <div class='creator'>\n        <span>\n          <a href='/u/benji'><b itemprop='author'>benji</b></a>\n          \n          <time datetime='2018-01-06T23:27:44Z' itemprop='datePublished'>\n            2018-01-06 23:27:44 UTC\n          </time>\n        </span>\n        <span itemprop='position'>#10</span>\n      </div>\n      <div class='post' itemprop='articleBody'>\n        <p>Local PSN&#39;s and local group members&nbsp;can put posters in to local surgeries, we have done it locally.</p>\r\n<p>GP&#39;s are not experts on every condition, our now retired GP told us that after he referred us to an MS specialist first as that was what he thought was the problem.They see very few cases of Parkinson&#39;s.</p>\r\n<p>Our local branch uses every opportunity to promote awareness of Parkinson&#39;s via fundraising &nbsp;events which include the local community, monthly meetings where outside providers come in, ( we get many more contacts from this alone), and using the local press to promote our&nbsp;fundraising events and what is happening at our monthly meetings.</p>\r\n<p>You cannot sit back and hope that it just happens, you have to be proactive if you want IT, (awareness),&nbsp;out there!</p>\r\n<p>Reah, I remember some years ago participating in such an exercise to get information out there to GP&#39;s surgeries; maybe before your time on here?</p>\r\n<p>If&nbsp;&nbsp;every member of this forum who was able to, got out there and distributed, leaflets, posters&nbsp;and information to just a few surgeries in their area, it would make a difference.</p>\n      </div>\n      <meta itemprop='interactionCount' content='UserLikes:0'>\n      <meta itemprop='interactionCount' content='UserComments:0'>\n      <meta itemprop='headline' content='Advertising and &quot;Getting it out there&quot;'>\n      <hr>\n  </div>\n\n\n\n\n\n\n    </div>\n    <footer class=\"container\">\n      <nav class='crawler-nav' itemscope itemtype='http://schema.org/SiteNavigationElement'>\n        <a href='/'>Home</a>\n        <a href=\"/categories\">Categories</a>\n        <a href=\"/guidelines\">FAQ/Guidelines</a>\n        <a href=\"/tos\">Terms of Service</a>\n        <a href=\"/privacy\">Privacy Policy</a>\n      </nav>\n      <p class='powered-by-link'>Powered by <a href=\"https://www.discourse.org\">Discourse</a>, best viewed with JavaScript enabled</p>\n    </footer>\n    \n  </body>\n  \n</html>\n",
  "url": "https://forum.parkinsons.org.uk/t/advertising-and-getting-it-out-there/10315"
}