{
  "contentId": "084a6b00-8865-11e9-8f96-97f71b5221d6",
  "html": "<!DOCTYPE html>\n<html lang=\"en\">\n  <head>\n    <meta charset=\"utf-8\">\n    <title>Can I have a rant about exercise claims?! - Wellbeing - Parkinson&#39;s UK Forum</title>\n    <meta name=\"description\" content=\"Can I have a rant about exercise claims - you know the PD Warrior-type claims of ‘this will slow down your parkinsons’ - well how does she honestly know?  Really and truly?  Where’s the scientific evidence.   And of cour&amp;hellip;\">\n    <meta name=\"author\" content=\"\">\n<meta name=\"generator\" content=\"Discourse 2.2.5 - https://github.com/discourse/discourse version c294ff3609f988dcafb742e91606d60ca13b794d\">\n<link rel=\"icon\" type=\"image/png\" href=\"https://forum.parkinsons.org.uk/uploads/db7928/original/2X/3/311fc84f89f49f38601a2f16b295b6f03d3ce5dd.jpg\">\n<link rel=\"apple-touch-icon\" type=\"image/png\" href=\"https://forum.parkinsons.org.uk/uploads/db7928/original/2X/3/311fc84f89f49f38601a2f16b295b6f03d3ce5dd.jpg\">\n<meta name=\"theme-color\" content=\"#ffffff\">\n<meta name=\"viewport\" content=\"width=device-width, minimum-scale=1.0, maximum-scale=1.0, user-scalable=yes\">\n<link rel=\"canonical\" href=\"https://forum.parkinsons.org.uk/t/can-i-have-a-rant-about-exercise-claims/18494\" />\n<script type=\"application/ld+json\">{\"@context\":\"http://schema.org\",\"@type\":\"WebSite\",\"url\":\"https://forum.parkinsons.org.uk\",\"potentialAction\":{\"@type\":\"SearchAction\",\"target\":\"https://forum.parkinsons.org.uk/search?q={search_term_string}\",\"query-input\":\"required name=search_term_string\"}}</script>\n<link rel=\"search\" type=\"application/opensearchdescription+xml\" href=\"https://forum.parkinsons.org.uk/opensearch.xml\" title=\"Parkinson&#39;s UK Forum Search\">\n\n      <link href=\"/stylesheets/desktop_f99246ae801b083d3e4cca979d0dade8615b39ac.css?__ws=forum.parkinsons.org.uk\" media=\"all\" rel=\"stylesheet\" data-target=\"desktop\" data-theme-id=\"12\"/>\n      <link href=\"/stylesheets/desktop_theme_12_5d27531cf43f9df0c03a6a6ec3109dd05f9dfc49.css?__ws=forum.parkinsons.org.uk\" media=\"all\" rel=\"stylesheet\" data-target=\"desktop_theme\" data-theme-id=\"12\"/>\n    <link href=\"https://fonts.googleapis.com/css?family=Open+Sans\" rel=\"stylesheet\">\n\n    <meta id=\"data-ga-universal-analytics\" data-tracking-code=\"UA-4855628-1\" data-json=\"{&quot;cookieDomain&quot;:&quot;auto&quot;}\" data-auto-link-domains=\"\">\n\n<link rel='preload' href='/assets/google-universal-analytics-f35b4da49411e6f5559073523aab983da483976a3954c79c756f8579f6fbd6ef.js' as='script'/>\n<script src='/assets/google-universal-analytics-f35b4da49411e6f5559073523aab983da483976a3954c79c756f8579f6fbd6ef.js'></script>\n\n      <link rel=\"alternate\" type=\"application/rss+xml\" title=\"RSS feed of &#39;Can I have a rant about exercise claims?!&#39;\" href=\"https://forum.parkinsons.org.uk/t/can-i-have-a-rant-about-exercise-claims/18494.rss\" />\n  <meta property=\"og:site_name\" content=\"Parkinson&#39;s UK Forum\" />\n<meta name=\"twitter:card\" content=\"summary\" />\n<meta name=\"twitter:image\" content=\"https://forum.parkinsons.org.uk/uploads/db7928/original/2X/3/311fc84f89f49f38601a2f16b295b6f03d3ce5dd.jpg\" />\n<meta property=\"og:image\" content=\"https://forum.parkinsons.org.uk/uploads/db7928/original/2X/3/311fc84f89f49f38601a2f16b295b6f03d3ce5dd.jpg\" />\n<meta property=\"og:url\" content=\"https://forum.parkinsons.org.uk/t/can-i-have-a-rant-about-exercise-claims/18494\" />\n<meta name=\"twitter:url\" content=\"https://forum.parkinsons.org.uk/t/can-i-have-a-rant-about-exercise-claims/18494\" />\n<meta property=\"og:title\" content=\"Can I have a rant about exercise claims?!\" />\n<meta name=\"twitter:title\" content=\"Can I have a rant about exercise claims?!\" />\n<meta property=\"og:description\" content=\"Can I have a rant about exercise claims - you know the PD Warrior-type claims of ‘this will slow down your parkinsons’ - well how does she honestly know?  Really and truly?  Where’s the scientific evidence.   And of course when emailing her to ask where trained teachers are in London she’ll tell you there aren’t any, because she wants to franchise it and make money from it, and will tell you to go to Marlow, 35 miles outside London, like thats really convenient.   I found my own trained PD Warri...\" />\n<meta name=\"twitter:description\" content=\"Can I have a rant about exercise claims - you know the PD Warrior-type claims of ‘this will slow down your parkinsons’ - well how does she honestly know?  Really and truly?  Where’s the scientific evidence.   And of course when emailing her to ask where trained teachers are in London she’ll tell you there aren’t any, because she wants to franchise it and make money from it, and will tell you to go to Marlow, 35 miles outside London, like thats really convenient.   I found my own trained PD Warri...\" />\n<meta name=\"twitter:label1\" value=\"Reading time\" />\n<meta name=\"twitter:data1\" value=\"6 mins \uD83D\uDD51\" />\n<meta name=\"twitter:label2\" value=\"Likes\" />\n<meta name=\"twitter:data2\" value=\"5 ❤\" />\n<meta property=\"article:published_time\" content=\"2019-03-20T17:36:00+00:00\" />\n<meta property=\"og:ignore_canonical\" content=\"true\" />\n\n      <link rel=\"next\" href=\"/t/can-i-have-a-rant-about-exercise-claims/18494?page=2\">\n\n\n    \n  </head>\n  <body class=\"crawler\">\n    <header role=\"banner\">\n    <div class=\"region region-header\">\n        <div class=\"region-header-wrapper\">\n            <div id=\"block-parkinsons-d8-branding\" class=\"block block-system block-system-branding-block\">\n                <a href=\"/\" title=\"Home\" rel=\"home\" class=\"site-logo\">\n                    <img src=\"https://forum.parkinsons.org.uk/uploads/db7928/original/2X/8/862bb7d172e7d127e7f3e147ec43594aa62ac945.png\" alt=\"Parkinson's UK. Change Attitudes. Find a cure. Join us.\">\n                </a>\n            </div>\n            <div id=\"block-helpline\" class=\"block block-block-content block-block-content871cd5af-b938-4947-9dc0-d5c211d08fe3 style-phone\">\n                <div class=\"field field--name-field-link field--type-link field--label-hidden field__item\"><a href=\"tel:+448088000303\">Helpline 0808 800 0303</a></div>\n            </div>\n            <div id=\"block-shop\" class=\"block block-block-content block-block-content6fba5ae5-7797-49cd-8367-f321d8111cd6 style-regular\">\n                <div class=\"field field--name-field-link field--type-link field--label-hidden field__item\"><a href=\"https://shop.parkinsons.org.uk\">Shop</a></div>\n            </div>\n        </div>\n    </div>\n</header>\n\n\n<script src=\"/theme-javascripts/b7e9763fcb584fc8265c56a9f557cd6d2e1e8ed8.js?__ws=forum.parkinsons.org.uk\"></script>\n    <header>\n      <a href=\"/\">\n          <img src=\"https://forum.parkinsons.org.uk/uploads/db7928/original/2X/8/862bb7d172e7d127e7f3e147ec43594aa62ac945.png\" alt=\"Parkinson&#39;s UK Forum\" id=\"site-logo\" style=\"max-width: 150px;\">\n      </a>\n    </header>\n    <div id=\"main-outlet\" class=\"wrap\">\n      <h1>\n  <a href=\"/t/can-i-have-a-rant-about-exercise-claims/18494\">Can I have a rant about exercise claims?!</a>\n</h1>\n\n<div id='breadcrumbs'>\n    <div id=\"breadcrumb-0\" itemscope itemtype=\"http://data-vocabulary.org/Breadcrumb\"\n        itemref=\"breadcrumb-1\"\n      >\n      <a href=\"/c/about-parkinsons-and-health\" itemprop=\"url\">\n        <span itemprop=\"title\">About Parkinson&#39;s and health</span>\n      </a>\n    </div>\n    <div id=\"breadcrumb-1\" itemscope itemtype=\"http://data-vocabulary.org/Breadcrumb\"\n>\n      <a href=\"/c/about-parkinsons-and-health/wellbeing\" itemprop=\"url\">\n        <span itemprop=\"title\">Wellbeing</span>\n      </a>\n    </div>\n</div>\n\n\n\n\n\n<hr>\n\n\n  <div itemscope itemtype='http://schema.org/DiscussionForumPosting'>\n      <div class='creator'>\n        <span>\n          <a href='/u/sarah007'><b itemprop='author'>sarah007</b></a>\n          \n          <time datetime='2019-03-20T17:36:00Z' itemprop='datePublished'>\n            2019-03-20 17:36:00 UTC\n          </time>\n        </span>\n        <span itemprop='position'>#1</span>\n      </div>\n      <div class='post' itemprop='articleBody'>\n        <p>Can I have a rant about exercise claims - you know the PD Warrior-type claims of ‘this will slow down your parkinsons’ - well how does she honestly know?  Really and truly?  Where’s the scientific evidence.   And of course when emailing her to ask where trained teachers are in London she’ll tell you there aren’t any, because she wants to franchise it and make money from it, and will tell you to go to Marlow, 35 miles outside London, like thats really convenient.   I found my own trained PD Warrior teacher who was fabulous, until she moved abroad.  We’re desperate to feel better so we will try many methods and I feel exploited.</p>\n<p>The conference in Leicester in April - will this just be more claims, feel goodery, and motivational mumbo jumbo by self promoting ‘well-being’ gurus or will it have some real scientific truth and evidence based research and content. Having the disease is enough motivation, I don’t need life coaching.</p>\n<p>What REALLY works for you exercise wise?  Do you do PD Warrior, for how long have you done it and how many times per week, and do you feel it has and is slowing down your progression?  What other exercise works for you?</p>\n      </div>\n      <meta itemprop='interactionCount' content='UserLikes:1'>\n      <meta itemprop='interactionCount' content='UserComments:1'>\n      <meta itemprop='headline' content='Can I have a rant about exercise claims?!'>\n      <hr>\n  </div>\n  <div itemscope itemtype='http://schema.org/DiscussionForumPosting'>\n      <div class='creator'>\n        <span>\n          <a href='/u/Singing_Gardener'><b itemprop='author'>Singing_Gardener</b></a>\n          \n          <time datetime='2019-03-20T18:35:52Z' itemprop='datePublished'>\n            2019-03-20 18:35:52 UTC\n          </time>\n        </span>\n        <span itemprop='position'>#2</span>\n      </div>\n      <div class='post' itemprop='articleBody'>\n        <p>I do PD Warrior classes locally and do find them useful but have no idea if they’ve slowed progression. I probably don’t do enough practice at home but do a lot of gardening which keeps me active. If I can’t get out in the garden I do practice the exercises.<br>\nWhether or not it slows progression, it certainly helps my mood and makes me feel that I am doing something positive. It is also good to meet other people with PD at the class.</p>\n      </div>\n      <meta itemprop='interactionCount' content='UserLikes:2'>\n      <meta itemprop='interactionCount' content='UserComments:0'>\n      <meta itemprop='headline' content='Can I have a rant about exercise claims?!'>\n      <hr>\n  </div>\n  <div itemscope itemtype='http://schema.org/DiscussionForumPosting'>\n      <div class='creator'>\n        <span>\n          <a href='/u/PaulSmith'><b itemprop='author'>PaulSmith</b></a>\n          \n          <time datetime='2019-03-20T20:11:25Z' itemprop='datePublished'>\n            2019-03-20 20:11:25 UTC\n          </time>\n        </span>\n        <span itemprop='position'>#3</span>\n      </div>\n      <div class='post' itemprop='articleBody'>\n        <p>There’s a problem doing scientific studies over the period necessary to prove the case in people, and there are so many other variables it would be almost impossible. There are studies which show the benefit in a mouse model.<br>\nThere appears to be some concensus around 2 1/2 hours per week being “good” and there are many other options other than PD warrior. Question is - would you rather do the recommended amount and know that you’ve done your best or skip it, and then always wonder would I be better now if I’d done more? My PwP was never told exercise could slow down PD, only that it could improve balance etc. Well if you don’t have any problems with balance you’re unlikely to want to improve it! We’ve tried to walk a couple of miles everyday, and 15 years in she can still walk two+ miles, although 5 to 10 minutes slower than years ago. Has it slowed other symptoms - I don’t know, and don’t know how she would be if we hadn’t walked a lot.<br>\nThere’s a review of the evidence of what works in this book :<br>\n<aside class=\"onebox amazon\">\n  <header class=\"source\">\n      <a href=\"https://www.amazon.co.uk/Neurorehabilitation-Parkinsons-Disease-Evidence-Based-Treatment/dp/1556427719\" target=\"_blank\" rel=\"nofollow noopener\">amazon.co.uk</a>\n  </header>\n  <article class=\"onebox-body\">\n    <div class=\"aspect-image\" style=\"--aspect-ratio:280/400;\"><img src=\"https://forum.parkinsons.org.uk/uploads/db7928/original/2X/d/d4a20b45c378d5dbccb0fbd3f5a19085dde3797e.jpeg\" class=\"thumbnail\"></div>\n\n<h3><a href=\"https://www.amazon.co.uk/Neurorehabilitation-Parkinsons-Disease-Evidence-Based-Treatment/dp/1556427719\" target=\"_blank\" rel=\"nofollow noopener\">Neurorehabilitation in Parkinson's Disease: An Evidence-Based Treatment Model\n\n</a></h3>\n<b>Marilyn Trail, Elizabeth Protas, Eugene Lai</b>\n\n<p>\n  \n  \n  \n  \n  <strong>\n£66.50\n</strong>\n</p>\n\n  </article>\n  <div class=\"onebox-metadata\">\n    \n    \n  </div>\n  <div style=\"clear: both\"></div>\n</aside>\n<br>\nbut it’s highly academic. Available from inter library loans.</p>\n      </div>\n      <meta itemprop='interactionCount' content='UserLikes:0'>\n      <meta itemprop='interactionCount' content='UserComments:0'>\n      <meta itemprop='headline' content='Can I have a rant about exercise claims?!'>\n      <hr>\n  </div>\n  <div itemscope itemtype='http://schema.org/DiscussionForumPosting'>\n      <div class='creator'>\n        <span>\n          <a href='/u/Eve1'><b itemprop='author'>Eve1</b></a>\n          \n          <time datetime='2019-03-21T06:39:14Z' itemprop='datePublished'>\n            2019-03-21 06:39:14 UTC\n          </time>\n        </span>\n        <span itemprop='position'>#4</span>\n      </div>\n      <div class='post' itemprop='articleBody'>\n        <p>I tried PD Warrior classes and didn’t like it - felt it was too regimented almost like being bullied.  BUT I now go to Bridge4 Gym Classes in Birstall twice a week and it is brilliant.  Not only do we learn serious things like how to get up if we have a fall but, all of us have PD and you are just yourself - we can talk about something that is worrying us and there is always someone who has or knows someone who had that particular PD problem and can talk it out we have a laugh at ourselves but also do serious exercises - plus we have the best PD Physio ever (his name is JD)  he is also on the Leicester Parkinson Committee and will no doubt be part of the conference in Leicester in April.  I think it is a matter of joining the right gym.</p>\n<p>Knowing JD I don’t for one minute think the Conference in April will be about ‘self promoting well-being gurus’  He has worked at LOROS a local hospice  and when the need arises is very companionate as well as being firm he knows instinctively when you are down and need a bit of tlc.  Like I said exercise is good for you if you get the right class - we all go away feeling good and feeling like we have given the dreaded PD a kick in the pants.</p>\n<p>Hope you find one like ours.  I have been going for around 2 plus years and find it really helps me.</p>\n      </div>\n      <meta itemprop='interactionCount' content='UserLikes:0'>\n      <meta itemprop='interactionCount' content='UserComments:0'>\n      <meta itemprop='headline' content='Can I have a rant about exercise claims?!'>\n      <hr>\n  </div>\n  <div itemscope itemtype='http://schema.org/DiscussionForumPosting'>\n      <div class='creator'>\n        <span>\n          <a href='/u/Wildrover'><b itemprop='author'>Wildrover</b></a>\n          \n          <time datetime='2019-03-21T08:40:53Z' itemprop='datePublished'>\n            2019-03-21 08:40:53 UTC\n          </time>\n        </span>\n        <span itemprop='position'>#5</span>\n      </div>\n      <div class='post' itemprop='articleBody'>\n        <p>Personally I think any form of exercise is beneficial. The benefit of PD specific classes are that you are all in the same boat and have similar issues to overcome. So physcologically you don’t feel as intimidated like you maybe would in say a mainstream Pilates class with the fit and healthy.</p>\n<p>I dont believe that any specific exercise regime is better than another as we are all different. The main thing is to keep moving</p>\n      </div>\n      <meta itemprop='interactionCount' content='UserLikes:0'>\n      <meta itemprop='interactionCount' content='UserComments:0'>\n      <meta itemprop='headline' content='Can I have a rant about exercise claims?!'>\n      <hr>\n  </div>\n  <div itemscope itemtype='http://schema.org/DiscussionForumPosting'>\n      <div class='creator'>\n        <span>\n          <a href='/u/mike_700'><b itemprop='author'>mike_700</b></a>\n          \n          <time datetime='2019-03-21T10:01:39Z' itemprop='datePublished'>\n            2019-03-21 10:01:39 UTC\n          </time>\n        </span>\n        <span itemprop='position'>#6</span>\n      </div>\n      <div class='post' itemprop='articleBody'>\n        <p>I am 72 years of age , overweight through lack of exercise, and was diagnosed with Parkinson’s in 2010, although I probably suffered with it for 3 to 5 years prior to diagnosis?</p>\n<p>Since diagnosis, I have made 7 or 8 new ‘close’ friends, in the age group 68 to 75, each of whom has been diagnosed for as long, if not longer, than me.</p>\n<p>We all have the same Neurologist, and he consistently states that my PD has not developed at anywhere near the same rate as the others in my peer group, and the only real difference that he can see between us is that I take a lot  more exercise than the others-  chair exercise, gymnasium machines, walking football ( with my rollator, because my balance is shot, and I fall without it ), voice exercises, and playing bridge - badly.</p>\n<p>Exercise keeps me reasonably physically fit, mentally alert, and I am told that it helps to digest and distribute my medication  more quickly and efficiently!</p>\n<p>Sometimes, it doesn’t take scientific proof of results, it just takes perseverance to get over the initial reluctance, and if you feel better than you did before you started taking regular exercise, then it works for you, ( as it does for me )!</p>\n      </div>\n      <meta itemprop='interactionCount' content='UserLikes:1'>\n      <meta itemprop='interactionCount' content='UserComments:0'>\n      <meta itemprop='headline' content='Can I have a rant about exercise claims?!'>\n      <hr>\n  </div>\n  <div itemscope itemtype='http://schema.org/DiscussionForumPosting'>\n      <div class='creator'>\n        <span>\n          <a href='/u/Stoakview'><b itemprop='author'>Stoakview</b></a>\n          \n          <time datetime='2019-03-21T11:14:05Z' itemprop='datePublished'>\n            2019-03-21 11:14:05 UTC\n          </time>\n        </span>\n        <span itemprop='position'>#7</span>\n      </div>\n      <div class='post' itemprop='articleBody'>\n        <p>Hi Sarah. I asked my neurologist about exercise and progression. His said as we have no marker for the progression of PD it is impossible to say if those who exercise slow down their disease, or if it’s those whose disease is progressing slowly  who are able to keep up the exercise.  Chicken and egg. Having said that,  there is obvious advantage in keeping moving and as fit as we can. Plus all the advantage of meeting others along the way. I found this really helpful as it’s easy for me to get persecuted by the idea that I’m not trying hard enough!</p>\n      </div>\n      <meta itemprop='interactionCount' content='UserLikes:0'>\n      <meta itemprop='interactionCount' content='UserComments:0'>\n      <meta itemprop='headline' content='Can I have a rant about exercise claims?!'>\n      <hr>\n  </div>\n  <div itemscope itemtype='http://schema.org/DiscussionForumPosting'>\n      <div class='creator'>\n        <span>\n          <a href='/u/Justthisguy'><b itemprop='author'>Justthisguy</b></a>\n          \n          <time datetime='2019-03-22T21:23:29Z' itemprop='datePublished'>\n            2019-03-22 21:23:29 UTC\n          </time>\n        </span>\n        <span itemprop='position'>#8</span>\n      </div>\n      <div class='post' itemprop='articleBody'>\n        <p>Speaking of my personal experience I suppose I’ve always done something since leaving school - long walks or jogging or push ups or skipping - even a little weight training. There were gaps - some years when I didn’t do much especially from April 2017 when my  line manager wanted staff to remain in the office until evening which left me little time to do fit any exercising in. That break lasted until October last year when I had been diagnosed and was on sick leave.<br>\nI had noticed that if I sat still for a day I would feel that I had started to seize up. In October I started going for walks of between 2 and 5 miles a day. I certainly stopped feeling seized up. About 4 weeks ago I injured my Achilles heel (new pair of walking shoes which I just might never wear again). Since then I have spent 40 minutes alternating between jogging on the spot and push and crunches and star jumps - every day. I haven’t had a day off since October.<br>\nI saw a PD consultant for the first time last week and he said “We have exercise classes for people who need to learn but you would do what the trainers would to” then he  laughed and said “You could probably run the course”. It’s impossible to be 100 percent certain if exercising is helping but I won’t be giving up any time soon.<br>\nBest wishes to you all!</p>\n      </div>\n      <meta itemprop='interactionCount' content='UserLikes:0'>\n      <meta itemprop='interactionCount' content='UserComments:0'>\n      <meta itemprop='headline' content='Can I have a rant about exercise claims?!'>\n      <hr>\n  </div>\n  <div itemscope itemtype='http://schema.org/DiscussionForumPosting'>\n      <div class='creator'>\n        <span>\n          <a href='/u/Sa11val'><b itemprop='author'>Sa11val</b></a>\n          \n          <time datetime='2019-03-22T21:28:01Z' itemprop='datePublished'>\n            2019-03-22 21:28:01 UTC\n          </time>\n        </span>\n        <span itemprop='position'>#9</span>\n      </div>\n      <div class='post' itemprop='articleBody'>\n        <p>I have always found the harder I push myself the harder the fall - not sure of the answers?</p>\n      </div>\n      <meta itemprop='interactionCount' content='UserLikes:0'>\n      <meta itemprop='interactionCount' content='UserComments:0'>\n      <meta itemprop='headline' content='Can I have a rant about exercise claims?!'>\n      <hr>\n  </div>\n  <div itemscope itemtype='http://schema.org/DiscussionForumPosting'>\n      <div class='creator'>\n        <span>\n          <a href='/u/Justthisguy'><b itemprop='author'>Justthisguy</b></a>\n          \n          <time datetime='2019-03-22T23:07:29Z' itemprop='datePublished'>\n            2019-03-22 23:07:29 UTC\n          </time>\n        </span>\n        <span itemprop='position'>#10</span>\n      </div>\n      <div class='post' itemprop='articleBody'>\n        <p>Of course - what works for one won’t necessarily work for another but I don’t  push too hard but jog or walk rather than run and alternate between only 10 push up and 10 crunches and 30 seconds of star jumps and one minute jogging- not forgetting that the first and last minute of jogging should be extra slow and gentle and to include some stretching and several sips of water - almost a sip every minute.<br>\nI really am hoping that there will be long term benefit. I have also done a little tai chi and hope to get back into it soon</p>\n      </div>\n      <meta itemprop='interactionCount' content='UserLikes:0'>\n      <meta itemprop='interactionCount' content='UserComments:0'>\n      <meta itemprop='headline' content='Can I have a rant about exercise claims?!'>\n      <hr>\n  </div>\n  <div itemscope itemtype='http://schema.org/DiscussionForumPosting'>\n      <div class='creator'>\n        <span>\n          <a href='/u/Courts'><b itemprop='author'>Courts</b></a>\n          \n          <time datetime='2019-03-22T23:50:52Z' itemprop='datePublished'>\n            2019-03-22 23:50:52 UTC\n          </time>\n        </span>\n        <span itemprop='position'>#11</span>\n      </div>\n      <div class='post' itemprop='articleBody'>\n        <p>Can I ask how long it took everyone to get referred as my grandad is still waiting after being told 12 weeks and now it’s 39weeks? My grandad isn’t getting any better, tonight he couldn’t move his legs and had to be guided to his chair. I just would like some answers and doctors aren’t really doing much and nothing seems to be moving forward xx</p>\n      </div>\n      <meta itemprop='interactionCount' content='UserLikes:0'>\n      <meta itemprop='interactionCount' content='UserComments:2'>\n      <meta itemprop='headline' content='Can I have a rant about exercise claims?!'>\n      <hr>\n  </div>\n  <div itemscope itemtype='http://schema.org/DiscussionForumPosting'>\n      <div class='creator'>\n        <span>\n          <a href='/u/Justthisguy'><b itemprop='author'>Justthisguy</b></a>\n          \n          <time datetime='2019-03-23T00:08:11Z' itemprop='datePublished'>\n            2019-03-23 00:08:11 UTC\n          </time>\n        </span>\n        <span itemprop='position'>#12</span>\n      </div>\n      <div class='post' itemprop='articleBody'>\n        <p>When my GP referred me to a neurologist I was told that there was a 6 month waiting list but I didn’t wait that long before going private</p>\n      </div>\n      <meta itemprop='interactionCount' content='UserLikes:0'>\n      <meta itemprop='interactionCount' content='UserComments:0'>\n      <meta itemprop='headline' content='Can I have a rant about exercise claims?!'>\n      <hr>\n  </div>\n  <div itemscope itemtype='http://schema.org/DiscussionForumPosting'>\n      <div class='creator'>\n        <span>\n          <a href='/u/Tot'><b itemprop='author'>Tot</b></a>\n          \n          <time datetime='2019-03-23T06:22:18Z' itemprop='datePublished'>\n            2019-03-23 06:22:18 UTC\n          </time>\n        </span>\n        <span itemprop='position'>#13</span>\n      </div>\n      <div class='post' itemprop='articleBody'>\n        <p>I only waited three weeks but that was nine years ago.</p>\n      </div>\n      <meta itemprop='interactionCount' content='UserLikes:0'>\n      <meta itemprop='interactionCount' content='UserComments:0'>\n      <meta itemprop='headline' content='Can I have a rant about exercise claims?!'>\n      <hr>\n  </div>\n  <div itemscope itemtype='http://schema.org/DiscussionForumPosting'>\n      <div class='creator'>\n        <span>\n          <a href='/u/Tenorhorn'><b itemprop='author'>Tenorhorn</b></a>\n          \n          <time datetime='2019-03-23T07:38:41Z' itemprop='datePublished'>\n            2019-03-23 07:38:41 UTC\n          </time>\n        </span>\n        <span itemprop='position'>#14</span>\n      </div>\n      <div class='post' itemprop='articleBody'>\n        <p>In South Australia I was told six months if I went private, but as a public patient it could be a year or more - at least. In the end it took three months as a private patient. I was lucky! We don’t have enough neurologists.<br>\nAnd back on the topic of exercise - I’ve been trying to be “vigorous” but ended up with excruciating back and groin pain. I have an appointment with a PD warrior physio in three weeks. She said they can work round my other problems. Fingers crossed.</p>\n      </div>\n      <meta itemprop='interactionCount' content='UserLikes:0'>\n      <meta itemprop='interactionCount' content='UserComments:0'>\n      <meta itemprop='headline' content='Can I have a rant about exercise claims?!'>\n      <hr>\n  </div>\n  <div itemscope itemtype='http://schema.org/DiscussionForumPosting'>\n      <div class='creator'>\n        <span>\n          <a href='/u/Margs'><b itemprop='author'>Margs</b></a>\n          \n          <time datetime='2019-03-23T11:29:55Z' itemprop='datePublished'>\n            2019-03-23 11:29:55 UTC\n          </time>\n        </span>\n        <span itemprop='position'>#15</span>\n      </div>\n      <div class='post' itemprop='articleBody'>\n        <p>I used to really enjoy my PD Warrior class once a week until i got sciatica.  Sure it was the penquin move that caused it so i have not been back since.</p>\n      </div>\n      <meta itemprop='interactionCount' content='UserLikes:1'>\n      <meta itemprop='interactionCount' content='UserComments:0'>\n      <meta itemprop='headline' content='Can I have a rant about exercise claims?!'>\n      <hr>\n  </div>\n  <div itemscope itemtype='http://schema.org/DiscussionForumPosting'>\n      <div class='creator'>\n        <span>\n          <a href='/u/Hubby'><b itemprop='author'>Hubby</b></a>\n          \n          <time datetime='2019-03-24T09:31:50Z' itemprop='datePublished'>\n            2019-03-24 09:31:50 UTC\n          </time>\n        </span>\n        <span itemprop='position'>#16</span>\n      </div>\n      <div class='post' itemprop='articleBody'>\n        <p>Immediately after my diagnosis I went from a physically fit middle aged man to an old man who couldn’t see the point of exercise when I was never going to get better anyway. I have been eating and drinking what I want to for two years.<br>\nI feel dreadful.<br>\nExercise has been my life before pd. I have to get back to it.<br>\nI know I have this mental block about nothing being worth doing because nobody beats Parkinsons but if I can reawaken my fighting spirit I’m sure I can give it a run for its money.</p>\n      </div>\n      <meta itemprop='interactionCount' content='UserLikes:0'>\n      <meta itemprop='interactionCount' content='UserComments:1'>\n      <meta itemprop='headline' content='Can I have a rant about exercise claims?!'>\n      <hr>\n  </div>\n  <div itemscope itemtype='http://schema.org/DiscussionForumPosting'>\n      <div class='creator'>\n        <span>\n          <a href='/u/Tot'><b itemprop='author'>Tot</b></a>\n          \n          <time datetime='2019-03-24T11:40:28Z' itemprop='datePublished'>\n            2019-03-24 11:40:28 UTC\n          </time>\n        </span>\n        <span itemprop='position'>#17</span>\n      </div>\n      <div class='post' itemprop='articleBody'>\n        <p>That you have recognised that in yourself is half the battle won.  Why not test yourself.  Start an exercise regime for say a month and keep a diary of what you did and how you feel before and after.  At the end of the month read your diary.  You will have some evidence one way or the other as to whether it is helping or not.  We may not beat Parkinson’s at the end of the day but there is a certain satisfaction in not letting it take over by giving up.  My mantra - I have Parkinson’s,  it doesn’t have me.<br>\nGood luck - go on, take the first step.</p>\n      </div>\n      <meta itemprop='interactionCount' content='UserLikes:0'>\n      <meta itemprop='interactionCount' content='UserComments:0'>\n      <meta itemprop='headline' content='Can I have a rant about exercise claims?!'>\n      <hr>\n  </div>\n  <div itemscope itemtype='http://schema.org/DiscussionForumPosting'>\n      <div class='creator'>\n        <span>\n          <a href='/u/Daffy'><b itemprop='author'>Daffy</b></a>\n          \n          <time datetime='2019-03-24T16:26:32Z' itemprop='datePublished'>\n            2019-03-24 16:26:32 UTC\n          </time>\n        </span>\n        <span itemprop='position'>#18</span>\n      </div>\n      <div class='post' itemprop='articleBody'>\n        <p>Hi Everyone,<br>\nI’ve been diagnosed 3 years but had suspected PD a good 2 years earlier.<br>\nI tend to feel the important thing is to make sure you do something. Be it a walk, a stroll, tai chi or follow a few youtube PD exercises. Anything rather than nothing.<br>\nI’ve never been a fan of vigorous exercise but have always enjoyed a walk. Now I do tai chi and a few youtube PD exercises as well. It’s easier to do an activity you enjoy than to force yourself to do one you don’t like but feel obliged to do.<br>\nI always feel stiffer and less mobile on rare days when I have not exercised at all.<br>\nI have no idea whether this will make any difference in the long run but it seems to help me at the moment</p>\n      </div>\n      <meta itemprop='interactionCount' content='UserLikes:0'>\n      <meta itemprop='interactionCount' content='UserComments:0'>\n      <meta itemprop='headline' content='Can I have a rant about exercise claims?!'>\n      <hr>\n  </div>\n  <div itemscope itemtype='http://schema.org/DiscussionForumPosting'>\n      <div class='creator'>\n        <span>\n          <a href='/u/jps1926'><b itemprop='author'>jps1926</b></a>\n          \n          <time datetime='2019-03-26T05:46:21Z' itemprop='datePublished'>\n            2019-03-26 05:46:21 UTC\n          </time>\n        </span>\n        <span itemprop='position'>#19</span>\n      </div>\n      <div class='post' itemprop='articleBody'>\n        <p>Hi Sarah007,<br>\nI am not going to claim exercise slows down or has slowed downed my PD progression. What I will say is exercising be that just going for a walk with my dog or light exercise at home (I have always hated gyms) makes me feel good. I do believe by feeling good or happy about myself with all the struggles with PD is good for my mental well being and overall health. So what I would say is give it a go you never know, it might help.</p>\n      </div>\n      <meta itemprop='interactionCount' content='UserLikes:0'>\n      <meta itemprop='interactionCount' content='UserComments:0'>\n      <meta itemprop='headline' content='Can I have a rant about exercise claims?!'>\n      <hr>\n  </div>\n  <div itemscope itemtype='http://schema.org/DiscussionForumPosting'>\n      <div class='creator'>\n        <span>\n          <a href='/u/Justthisguy'><b itemprop='author'>Justthisguy</b></a>\n          \n          <time datetime='2019-03-26T10:03:48Z' itemprop='datePublished'>\n            2019-03-26 10:03:48 UTC\n          </time>\n        </span>\n        <span itemprop='position'>#20</span>\n      </div>\n      <div class='post' itemprop='articleBody'>\n        <p>My back was aching and felt stiff yesterday so I didn’t do any push ups. It was the first day without push ups for weeks - I think the back ache might have been caused by my doing so many push ups. However, <a href=\"https://parkinsonslife.eu/video-5-exercises-to-improve-parkinsons-symptoms/\" rel=\"nofollow noopener\">https://parkinsonslife.eu/video-5-exercises-to-improve-parkinsons-symptoms/</a> seems to have helped as I felt a lot better soon after doing the 5 exercises</p>\n      </div>\n      <meta itemprop='interactionCount' content='UserLikes:0'>\n      <meta itemprop='interactionCount' content='UserComments:1'>\n      <meta itemprop='headline' content='Can I have a rant about exercise claims?!'>\n      <hr>\n  </div>\n\n  <div role='navigation' itemscope itemtype='http://schema.org/SiteNavigationElement'>\n      <span itemprop='name'><b><a rel=\"next\" itemprop=\"url\" href=\"/t/can-i-have-a-rant-about-exercise-claims/18494?page=2\">next page →</a></b></span>\n  </div>\n\n\n\n\n\n    </div>\n    <footer class=\"container\">\n      <nav class='crawler-nav' itemscope itemtype='http://schema.org/SiteNavigationElement'>\n        <a href='/'>Home</a>\n        <a href=\"/categories\">Categories</a>\n        <a href=\"/guidelines\">FAQ/Guidelines</a>\n        <a href=\"/tos\">Terms of Service</a>\n        <a href=\"/privacy\">Privacy Policy</a>\n      </nav>\n      <p class='powered-by-link'>Powered by <a href=\"https://www.discourse.org\">Discourse</a>, best viewed with JavaScript enabled</p>\n    </footer>\n    \n  </body>\n  \n</html>\n",
  "url": "https://forum.parkinsons.org.uk/t/can-i-have-a-rant-about-exercise-claims/18494"
}