{
  "contentId": "f8b920a0-8864-11e9-8f96-97f71b5221d6",
  "html": "<!DOCTYPE html>\n<html lang=\"en\">\n  <head>\n    <meta charset=\"utf-8\">\n    <title>Handwriting - Symptoms - Parkinson&#39;s UK Forum</title>\n    <meta name=\"description\" content=\"Hello All \nI was diagnosed with Early Onset PD last year.  I saw a specialist who said that my symptoms were so mild that I didn’t need any medication.  Due to an error booking an appointment, I then saw a different cons&amp;hellip;\">\n    <meta name=\"author\" content=\"\">\n<meta name=\"generator\" content=\"Discourse 2.2.5 - https://github.com/discourse/discourse version c294ff3609f988dcafb742e91606d60ca13b794d\">\n<link rel=\"icon\" type=\"image/png\" href=\"https://forum.parkinsons.org.uk/uploads/db7928/original/2X/3/311fc84f89f49f38601a2f16b295b6f03d3ce5dd.jpg\">\n<link rel=\"apple-touch-icon\" type=\"image/png\" href=\"https://forum.parkinsons.org.uk/uploads/db7928/original/2X/3/311fc84f89f49f38601a2f16b295b6f03d3ce5dd.jpg\">\n<meta name=\"theme-color\" content=\"#ffffff\">\n<meta name=\"viewport\" content=\"width=device-width, minimum-scale=1.0, maximum-scale=1.0, user-scalable=yes\">\n<link rel=\"canonical\" href=\"https://forum.parkinsons.org.uk/t/handwriting/19075\" />\n<script type=\"application/ld+json\">{\"@context\":\"http://schema.org\",\"@type\":\"WebSite\",\"url\":\"https://forum.parkinsons.org.uk\",\"potentialAction\":{\"@type\":\"SearchAction\",\"target\":\"https://forum.parkinsons.org.uk/search?q={search_term_string}\",\"query-input\":\"required name=search_term_string\"}}</script>\n<link rel=\"search\" type=\"application/opensearchdescription+xml\" href=\"https://forum.parkinsons.org.uk/opensearch.xml\" title=\"Parkinson&#39;s UK Forum Search\">\n\n      <link href=\"/stylesheets/desktop_f99246ae801b083d3e4cca979d0dade8615b39ac.css?__ws=forum.parkinsons.org.uk\" media=\"all\" rel=\"stylesheet\" data-target=\"desktop\" data-theme-id=\"12\"/>\n      <link href=\"/stylesheets/desktop_theme_12_5d27531cf43f9df0c03a6a6ec3109dd05f9dfc49.css?__ws=forum.parkinsons.org.uk\" media=\"all\" rel=\"stylesheet\" data-target=\"desktop_theme\" data-theme-id=\"12\"/>\n    <link href=\"https://fonts.googleapis.com/css?family=Open+Sans\" rel=\"stylesheet\">\n\n    <meta id=\"data-ga-universal-analytics\" data-tracking-code=\"UA-4855628-1\" data-json=\"{&quot;cookieDomain&quot;:&quot;auto&quot;}\" data-auto-link-domains=\"\">\n\n<link rel='preload' href='/assets/google-universal-analytics-f35b4da49411e6f5559073523aab983da483976a3954c79c756f8579f6fbd6ef.js' as='script'/>\n<script src='/assets/google-universal-analytics-f35b4da49411e6f5559073523aab983da483976a3954c79c756f8579f6fbd6ef.js'></script>\n\n      <link rel=\"alternate\" type=\"application/rss+xml\" title=\"RSS feed of &#39;Handwriting&#39;\" href=\"https://forum.parkinsons.org.uk/t/handwriting/19075.rss\" />\n  <meta property=\"og:site_name\" content=\"Parkinson&#39;s UK Forum\" />\n<meta name=\"twitter:card\" content=\"summary\" />\n<meta name=\"twitter:image\" content=\"https://forum.parkinsons.org.uk/uploads/db7928/original/2X/3/311fc84f89f49f38601a2f16b295b6f03d3ce5dd.jpg\" />\n<meta property=\"og:image\" content=\"https://forum.parkinsons.org.uk/uploads/db7928/original/2X/3/311fc84f89f49f38601a2f16b295b6f03d3ce5dd.jpg\" />\n<meta property=\"og:url\" content=\"https://forum.parkinsons.org.uk/t/handwriting/19075\" />\n<meta name=\"twitter:url\" content=\"https://forum.parkinsons.org.uk/t/handwriting/19075\" />\n<meta property=\"og:title\" content=\"Handwriting\" />\n<meta name=\"twitter:title\" content=\"Handwriting\" />\n<meta property=\"og:description\" content=\"Hello All  I was diagnosed with Early Onset PD last year.  I saw a specialist who said that my symptoms were so mild that I didn’t need any medication.  Due to an error booking an appointment, I then saw a different consultant who said that I should start medication sooner rather than later.  I am now waiting to be referred back to the original consultant to see what he says.  I don’t know how long this is going to take.  One of the most irritating symptoms is my inability to write; it looks lik...\" />\n<meta name=\"twitter:description\" content=\"Hello All  I was diagnosed with Early Onset PD last year.  I saw a specialist who said that my symptoms were so mild that I didn’t need any medication.  Due to an error booking an appointment, I then saw a different consultant who said that I should start medication sooner rather than later.  I am now waiting to be referred back to the original consultant to see what he says.  I don’t know how long this is going to take.  One of the most irritating symptoms is my inability to write; it looks lik...\" />\n<meta name=\"twitter:label1\" value=\"Reading time\" />\n<meta name=\"twitter:data1\" value=\"2 mins \uD83D\uDD51\" />\n<meta name=\"twitter:label2\" value=\"Likes\" />\n<meta name=\"twitter:data2\" value=\"11 ❤\" />\n<meta property=\"article:published_time\" content=\"2019-05-01T14:48:17+00:00\" />\n<meta property=\"og:ignore_canonical\" content=\"true\" />\n\n\n\n    \n  </head>\n  <body class=\"crawler\">\n    <header role=\"banner\">\n    <div class=\"region region-header\">\n        <div class=\"region-header-wrapper\">\n            <div id=\"block-parkinsons-d8-branding\" class=\"block block-system block-system-branding-block\">\n                <a href=\"/\" title=\"Home\" rel=\"home\" class=\"site-logo\">\n                    <img src=\"https://forum.parkinsons.org.uk/uploads/db7928/original/2X/8/862bb7d172e7d127e7f3e147ec43594aa62ac945.png\" alt=\"Parkinson's UK. Change Attitudes. Find a cure. Join us.\">\n                </a>\n            </div>\n            <div id=\"block-helpline\" class=\"block block-block-content block-block-content871cd5af-b938-4947-9dc0-d5c211d08fe3 style-phone\">\n                <div class=\"field field--name-field-link field--type-link field--label-hidden field__item\"><a href=\"tel:+448088000303\">Helpline 0808 800 0303</a></div>\n            </div>\n            <div id=\"block-shop\" class=\"block block-block-content block-block-content6fba5ae5-7797-49cd-8367-f321d8111cd6 style-regular\">\n                <div class=\"field field--name-field-link field--type-link field--label-hidden field__item\"><a href=\"https://shop.parkinsons.org.uk\">Shop</a></div>\n            </div>\n        </div>\n    </div>\n</header>\n\n\n<script src=\"/theme-javascripts/b7e9763fcb584fc8265c56a9f557cd6d2e1e8ed8.js?__ws=forum.parkinsons.org.uk\"></script>\n    <header>\n      <a href=\"/\">\n          <img src=\"https://forum.parkinsons.org.uk/uploads/db7928/original/2X/8/862bb7d172e7d127e7f3e147ec43594aa62ac945.png\" alt=\"Parkinson&#39;s UK Forum\" id=\"site-logo\" style=\"max-width: 150px;\">\n      </a>\n    </header>\n    <div id=\"main-outlet\" class=\"wrap\">\n      <h1>\n  <a href=\"/t/handwriting/19075\">Handwriting</a>\n</h1>\n\n<div id='breadcrumbs'>\n    <div id=\"breadcrumb-0\" itemscope itemtype=\"http://data-vocabulary.org/Breadcrumb\"\n        itemref=\"breadcrumb-1\"\n      >\n      <a href=\"/c/about-parkinsons-and-health\" itemprop=\"url\">\n        <span itemprop=\"title\">About Parkinson&#39;s and health</span>\n      </a>\n    </div>\n    <div id=\"breadcrumb-1\" itemscope itemtype=\"http://data-vocabulary.org/Breadcrumb\"\n>\n      <a href=\"/c/about-parkinsons-and-health/symptoms\" itemprop=\"url\">\n        <span itemprop=\"title\">Symptoms</span>\n      </a>\n    </div>\n</div>\n\n\n\n\n\n<hr>\n\n\n  <div itemscope itemtype='http://schema.org/DiscussionForumPosting'>\n      <div class='creator'>\n        <span>\n          <a href='/u/Bexby'><b itemprop='author'>Bexby</b></a>\n          \n          <time datetime='2019-05-01T14:48:17Z' itemprop='datePublished'>\n            2019-05-01 14:48:17 UTC\n          </time>\n        </span>\n        <span itemprop='position'>#1</span>\n      </div>\n      <div class='post' itemprop='articleBody'>\n        <p>Hello All<br>\nI was diagnosed with Early Onset PD last year.  I saw a specialist who said that my symptoms were so mild that I didn’t need any medication.  Due to an error booking an appointment, I then saw a different consultant who said that I should start medication sooner rather than later.  I am now waiting to be referred back to the original consultant to see what he says.  I don’t know how long this is going to take.<br>\nOne of the most irritating symptoms is my inability to write; it looks like a spider with only 3 legs has crawled across the page on it’s way to die.  Has anyone else had this problem and did medication help this; can anything help this?<br>\nThanks.</p>\n      </div>\n      <meta itemprop='interactionCount' content='UserLikes:0'>\n      <meta itemprop='interactionCount' content='UserComments:0'>\n      <meta itemprop='headline' content='Handwriting'>\n      <hr>\n  </div>\n  <div itemscope itemtype='http://schema.org/DiscussionForumPosting'>\n      <div class='creator'>\n        <span>\n          <a href='/u/babswood'><b itemprop='author'>babswood</b></a>\n          \n          <time datetime='2019-05-01T17:23:52Z' itemprop='datePublished'>\n            2019-05-01 17:23:52 UTC\n          </time>\n        </span>\n        <span itemprop='position'>#2</span>\n      </div>\n      <div class='post' itemprop='articleBody'>\n        <p>Hi there unfortunately my handwriting is absolutely terrible and no medication has not helped me, but on that note we are all different.<br>\nI hope that you get your medication sorted</p>\n<p>Babs</p>\n      </div>\n      <meta itemprop='interactionCount' content='UserLikes:1'>\n      <meta itemprop='interactionCount' content='UserComments:0'>\n      <meta itemprop='headline' content='Handwriting'>\n      <hr>\n  </div>\n  <div itemscope itemtype='http://schema.org/DiscussionForumPosting'>\n      <div class='creator'>\n        <span>\n          <a href='/u/Martini'><b itemprop='author'>Martini</b></a>\n          \n          <time datetime='2019-05-01T23:20:08Z' itemprop='datePublished'>\n            2019-05-01 23:20:08 UTC\n          </time>\n        </span>\n        <span itemprop='position'>#3</span>\n      </div>\n      <div class='post' itemprop='articleBody'>\n        <p>I remember I signed a cheque one hour after taking my first Sinemet tablet.  My signature was noticeably larger and clearer.  Yes, medication helped me a lot.</p>\n      </div>\n      <meta itemprop='interactionCount' content='UserLikes:2'>\n      <meta itemprop='interactionCount' content='UserComments:0'>\n      <meta itemprop='headline' content='Handwriting'>\n      <hr>\n  </div>\n  <div itemscope itemtype='http://schema.org/DiscussionForumPosting'>\n      <div class='creator'>\n        <span>\n          <a href='/u/Roy_S'><b itemprop='author'>Roy_S</b></a>\n          \n          <time datetime='2019-05-02T08:37:22Z' itemprop='datePublished'>\n            2019-05-02 08:37:22 UTC\n          </time>\n        </span>\n        <span itemprop='position'>#4</span>\n      </div>\n      <div class='post' itemprop='articleBody'>\n        <p>One of the tests the neurologist made me do to assist him in his diagnosis was to draw a spiral &amp; write something, according to him my small writing was down to PD, my view was just that he hadn’t left me enough room on the notepad after demonstrating what he wanted me to do so I had to write small (and my spiral was better than his).</p>\n<p>Joking aside I do struggle to write &amp; I don’t find the meds help particularly (Rasagiline &amp; Ropinirole) but, thankfully, we don’t have to write much these days.</p>\n      </div>\n      <meta itemprop='interactionCount' content='UserLikes:2'>\n      <meta itemprop='interactionCount' content='UserComments:1'>\n      <meta itemprop='headline' content='Handwriting'>\n      <hr>\n  </div>\n  <div itemscope itemtype='http://schema.org/DiscussionForumPosting'>\n      <div class='creator'>\n        <span>\n          <a href='/u/Tam64'><b itemprop='author'>Tam64</b></a>\n          \n          <time datetime='2019-05-04T19:08:11Z' itemprop='datePublished'>\n            2019-05-04 19:08:11 UTC\n          </time>\n        </span>\n        <span itemprop='position'>#5</span>\n      </div>\n      <div class='post' itemprop='articleBody'>\n        <p>Hi Roy,<br>\nI found handwriting very difficult as one of my symptoms. My letters had diminished in size and I could not write numbers like 2 or 8. I could not knit or manipulate a toothbrush etc. I found buttons hard to fasten. I’m taking Madopar and once I started it all my hand functions returned.<br>\nGood luck with your consultants. X</p>\n      </div>\n      <meta itemprop='interactionCount' content='UserLikes:1'>\n      <meta itemprop='interactionCount' content='UserComments:1'>\n      <meta itemprop='headline' content='Handwriting'>\n      <hr>\n  </div>\n  <div itemscope itemtype='http://schema.org/DiscussionForumPosting'>\n      <div class='creator'>\n        <span>\n          <a href='/u/Roy_S'><b itemprop='author'>Roy_S</b></a>\n          \n          <time datetime='2019-05-04T20:31:39Z' itemprop='datePublished'>\n            2019-05-04 20:31:39 UTC\n          </time>\n        </span>\n        <span itemprop='position'>#6</span>\n      </div>\n      <div class='post' itemprop='articleBody'>\n        <aside class=\"quote no-group\" data-post=\"5\" data-topic=\"19075\">\n<div class=\"title\">\n<div class=\"quote-controls\"></div>\n<img alt width=\"20\" height=\"20\" src=\"https://forum.parkinsons.org.uk/letter_avatar_proxy/v3/letter/t/f9ae1b/40.png\" class=\"avatar\"> Tam64:</div>\n<blockquote>\n<p>I’m taking Madopar and once I started it all my hand functions returned.</p>\n</blockquote>\n</aside>\n<p>That’s interesting, thanks.</p>\n      </div>\n      <meta itemprop='interactionCount' content='UserLikes:1'>\n      <meta itemprop='interactionCount' content='UserComments:0'>\n      <meta itemprop='headline' content='Handwriting'>\n      <hr>\n  </div>\n  <div itemscope itemtype='http://schema.org/DiscussionForumPosting'>\n      <div class='creator'>\n        <span>\n          <a href='/u/VW'><b itemprop='author'>VW</b></a>\n          \n          <time datetime='2019-05-05T21:04:55Z' itemprop='datePublished'>\n            2019-05-05 21:04:55 UTC\n          </time>\n        </span>\n        <span itemprop='position'>#7</span>\n      </div>\n      <div class='post' itemprop='articleBody'>\n        <p>Yes I noticed my handwriting had become much smaller.  As soon as I started taking sinemet and premipaxole my writing improved, although as I wear off it gets bad again until I take the next dose.</p>\n      </div>\n      <meta itemprop='interactionCount' content='UserLikes:1'>\n      <meta itemprop='interactionCount' content='UserComments:0'>\n      <meta itemprop='headline' content='Handwriting'>\n      <hr>\n  </div>\n  <div itemscope itemtype='http://schema.org/DiscussionForumPosting'>\n      <div class='creator'>\n        <span>\n          <a href='/u/FF'><b itemprop='author'>FF</b></a>\n          \n          <time datetime='2019-05-06T14:54:29Z' itemprop='datePublished'>\n            2019-05-06 14:54:29 UTC\n          </time>\n        </span>\n        <span itemprop='position'>#8</span>\n      </div>\n      <div class='post' itemprop='articleBody'>\n        <p>My dad has beautiful writing. While I’ll in hospital it was unreadable. Once his meds were sorted out (&amp; he got coffee with his meds - “coffee as an aid”) his beautiful writing was back. Now we just keep an eye on his writing, speech and movement as these are the first indications if things start to dip so we get a warning to adjust</p>\n      </div>\n      <meta itemprop='interactionCount' content='UserLikes:1'>\n      <meta itemprop='interactionCount' content='UserComments:0'>\n      <meta itemprop='headline' content='Handwriting'>\n      <hr>\n  </div>\n  <div itemscope itemtype='http://schema.org/DiscussionForumPosting'>\n      <div class='creator'>\n        <span>\n          <a href='/u/SueHey48'><b itemprop='author'>SueHey48</b></a>\n          \n          <time datetime='2019-05-07T20:31:42Z' itemprop='datePublished'>\n            2019-05-07 20:31:42 UTC\n          </time>\n        </span>\n        <span itemprop='position'>#9</span>\n      </div>\n      <div class='post' itemprop='articleBody'>\n        <p>Bexby, I sympathise as I too have had awful and at times illegible handwriting since being diagnosed with PD five years ago. Recently whilst taking part in a PD research project the person running the project told me that she had been told by another participant that the following worked.<br>\nYou pretend you are writing on a wall or blackboard in very large letters before you attempt to write on paper. Amazingly this works or at least it does for me so I recommend you give it a try.</p>\n      </div>\n      <meta itemprop='interactionCount' content='UserLikes:2'>\n      <meta itemprop='interactionCount' content='UserComments:0'>\n      <meta itemprop='headline' content='Handwriting'>\n      <hr>\n  </div>\n  <div itemscope itemtype='http://schema.org/DiscussionForumPosting'>\n      <div class='creator'>\n        <span>\n          <a href='/u/Bexby'><b itemprop='author'>Bexby</b></a>\n          \n          <time datetime='2019-05-10T15:17:29Z' itemprop='datePublished'>\n            2019-05-10 15:17:29 UTC\n          </time>\n        </span>\n        <span itemprop='position'>#10</span>\n      </div>\n      <div class='post' itemprop='articleBody'>\n        <p>Thank you everyone.  I’ve now been offered an appointment with my original consultant which I’m really happy about.<br>\nThere seems to be a lot of comments about the positive effects of medication on handwriting so thank you all, I feel better about it now.  I haven’t told my children about this yet; waiting for my youngest to finish her exams, and my inability to write properly is getting difficult to hide - onwards and upwards!</p>\n      </div>\n      <meta itemprop='interactionCount' content='UserLikes:0'>\n      <meta itemprop='interactionCount' content='UserComments:0'>\n      <meta itemprop='headline' content='Handwriting'>\n      <hr>\n  </div>\n  <div itemscope itemtype='http://schema.org/DiscussionForumPosting'>\n      <div class='creator'>\n        <span>\n          <a href='/u/phil_63'><b itemprop='author'>phil_63</b></a>\n          \n          <time datetime='2019-05-19T14:57:58Z' itemprop='datePublished'>\n            2019-05-19 14:57:58 UTC\n          </time>\n        </span>\n        <span itemprop='position'>#11</span>\n      </div>\n      <div class='post' itemprop='articleBody'>\n        <p>Small handwriting, and a feeling of stiffness in my writing movement was one of the final indicators for me, but my medication - Madopar- although successful in most of my symptoms, made little difference to my handwriting unlike “Tam64” above. Other symptoms were loss of sense of smell, tremor in hand, constipation, and during a conversation a certain ‘slowness in my thinking’ and absorbing what the other party has said, sometimes]<br>\nLoss of smell started 15+ years ago!</p>\n<p>Phil</p>\n      </div>\n      <meta itemprop='interactionCount' content='UserLikes:0'>\n      <meta itemprop='interactionCount' content='UserComments:1'>\n      <meta itemprop='headline' content='Handwriting'>\n      <hr>\n  </div>\n  <div itemscope itemtype='http://schema.org/DiscussionForumPosting'>\n      <div class='creator'>\n        <span>\n          <a href='/u/Bexby'><b itemprop='author'>Bexby</b></a>\n          \n          <time datetime='2019-05-21T08:39:45Z' itemprop='datePublished'>\n            2019-05-21 08:39:45 UTC\n          </time>\n        </span>\n        <span itemprop='position'>#12</span>\n      </div>\n      <div class='post' itemprop='articleBody'>\n        <p>Thanks Phil<br>\nHandwriting was my first symptom too, about two years before I was diagnosed.  I suppose I will just have to wait and see.<br>\nAs to conversations, its not the slowness of thinking as you described but the increased speed at which I speak that can cause my words to jumble into each other, causing people to ask  me too repeat  myself - so annoying!<br>\nI’ve heard other people mention the  loss of smell, it seems quite common.  So far, this hasn’t  happened to me, has it affected your sense of taste too?<br>\nB</p>\n      </div>\n      <meta itemprop='interactionCount' content='UserLikes:0'>\n      <meta itemprop='interactionCount' content='UserComments:1'>\n      <meta itemprop='headline' content='Handwriting'>\n      <hr>\n  </div>\n  <div itemscope itemtype='http://schema.org/DiscussionForumPosting'>\n      <div class='creator'>\n        <span>\n          <a href='/u/phil_63'><b itemprop='author'>phil_63</b></a>\n          \n          <time datetime='2019-05-21T12:39:11Z' itemprop='datePublished'>\n            2019-05-21 12:39:11 UTC\n          </time>\n        </span>\n        <span itemprop='position'>#13</span>\n      </div>\n      <div class='post' itemprop='articleBody'>\n        <p>Yes, certain foods are just completely bland. This is to be expected in anyone who looses their sense of smell though - regardless of the reason - as the two senses work together, I’m led to believe.</p>\n<p>Phil</p>\n      </div>\n      <meta itemprop='interactionCount' content='UserLikes:0'>\n      <meta itemprop='interactionCount' content='UserComments:1'>\n      <meta itemprop='headline' content='Handwriting'>\n      <hr>\n  </div>\n  <div itemscope itemtype='http://schema.org/DiscussionForumPosting'>\n      <div class='creator'>\n        <span>\n          <a href='/u/Bexby'><b itemprop='author'>Bexby</b></a>\n          \n          <time datetime='2019-05-22T10:21:06Z' itemprop='datePublished'>\n            2019-05-22 10:21:06 UTC\n          </time>\n        </span>\n        <span itemprop='position'>#14</span>\n      </div>\n      <div class='post' itemprop='articleBody'>\n        <p>Bummer, that’s what I thought.<br>\nThanks.<br>\nB</p>\n      </div>\n      <meta itemprop='interactionCount' content='UserLikes:0'>\n      <meta itemprop='interactionCount' content='UserComments:1'>\n      <meta itemprop='headline' content='Handwriting'>\n      <hr>\n  </div>\n  <div itemscope itemtype='http://schema.org/DiscussionForumPosting'>\n      <div class='creator'>\n        <span>\n          <a href='/u/T1'><b itemprop='author'>T1</b></a>\n          \n          <time datetime='2019-05-22T11:58:17Z' itemprop='datePublished'>\n            2019-05-22 11:58:17 UTC\n          </time>\n        </span>\n        <span itemprop='position'>#15</span>\n      </div>\n      <div class='post' itemprop='articleBody'>\n        <p>Hi Bexby<br>\nMy own handwriting has become very illegible.<br>\nAnd I recognise the same issue as you with my speech being too fast not withstanding the fact that I am a glaswegian.<br>\nThree weeks ago a neuropsychologist asked me to slow down as I “seem to be in a permanent state of Arousal”<br>\nI did apologise whilst stating that he was a fine looking lad.<br>\nUnfortunately humour was a trait that seems to have passed by the gentleman in question.<br>\nAs for handwriting, I’m so grateful to be living in the digital age but I still dread it when asked for a signature at the bank etc.<br>\nDon’t know why that bothers me so much but I simply can’t help it.</p>\n<p>Tommy <img src=\"https://forum.parkinsons.org.uk/images/emoji/twitter/pill.png?v=6\" title=\":pill:\" class=\"emoji\" alt=\":pill:\"> <img src=\"https://forum.parkinsons.org.uk/images/emoji/twitter/pill.png?v=6\" title=\":pill:\" class=\"emoji\" alt=\":pill:\"> <img src=\"https://forum.parkinsons.org.uk/images/emoji/twitter/pill.png?v=6\" title=\":pill:\" class=\"emoji\" alt=\":pill:\"> ™</p>\n      </div>\n      <meta itemprop='interactionCount' content='UserLikes:0'>\n      <meta itemprop='interactionCount' content='UserComments:0'>\n      <meta itemprop='headline' content='Handwriting'>\n      <hr>\n  </div>\n  <div itemscope itemtype='http://schema.org/DiscussionForumPosting'>\n      <div class='creator'>\n        <span>\n          <a href='/u/Johnc1'><b itemprop='author'>Johnc1</b></a>\n          \n          <time datetime='2019-05-22T13:54:49Z' itemprop='datePublished'>\n            2019-05-22 13:54:49 UTC\n          </time>\n        </span>\n        <span itemprop='position'>#16</span>\n      </div>\n      <div class='post' itemprop='articleBody'>\n        <p>Hi Bexby, I was diagnosed with PD 4 years ago aged 70. Smaill handwriting, tremor etc are my symptoms but my biggest problem is rapid speech, and I mean rapid!  You’re the first person to describe this problem as  most people speak quietly rather than quickly. I ve had limited success with speech therapy but I am going on LSVT course for an hour a day for four weeks in June. I know that LSVT is predominantly to help volume but it also helps with tempo and general communication-I’ll let you know how I get on in July.</p>\n      </div>\n      <meta itemprop='interactionCount' content='UserLikes:0'>\n      <meta itemprop='interactionCount' content='UserComments:0'>\n      <meta itemprop='headline' content='Handwriting'>\n      <hr>\n  </div>\n  <div itemscope itemtype='http://schema.org/DiscussionForumPosting'>\n      <div class='creator'>\n        <span>\n          <a href='/u/Bevroc'><b itemprop='author'>Bevroc</b></a>\n          \n          <time datetime='2019-05-23T21:37:17Z' itemprop='datePublished'>\n            2019-05-23 21:37:17 UTC\n          </time>\n        </span>\n        <span itemprop='position'>#17</span>\n      </div>\n      <div class='post' itemprop='articleBody'>\n        <p>My handwriting was my first symptom.  I first was put on Rasagaline no change but then Madopar was added five times a day and I could write again. This was eleven years ago<br>\nAt the moment I am being assessed for DBS as I seem to be on the maximum tablets. Unfortunately they are trying to find my ‘endpoint’ as I don’t seem to have an off time. Therefore they’ve taken 4mgs of my Repinex away and now I’m back to square one with my handwriting.</p>\n      </div>\n      <meta itemprop='interactionCount' content='UserLikes:0'>\n      <meta itemprop='interactionCount' content='UserComments:0'>\n      <meta itemprop='headline' content='Handwriting'>\n      <hr>\n  </div>\n\n\n\n\n\n\n    </div>\n    <footer class=\"container\">\n      <nav class='crawler-nav' itemscope itemtype='http://schema.org/SiteNavigationElement'>\n        <a href='/'>Home</a>\n        <a href=\"/categories\">Categories</a>\n        <a href=\"/guidelines\">FAQ/Guidelines</a>\n        <a href=\"/tos\">Terms of Service</a>\n        <a href=\"/privacy\">Privacy Policy</a>\n      </nav>\n      <p class='powered-by-link'>Powered by <a href=\"https://www.discourse.org\">Discourse</a>, best viewed with JavaScript enabled</p>\n    </footer>\n    \n  </body>\n  \n</html>\n",
  "url": "https://forum.parkinsons.org.uk/t/handwriting/19075"
}