{
  "contentId": "656f3330-886d-11e9-8f96-97f71b5221d6",
  "html": "<!DOCTYPE html>\n<html lang=\"en\">\n  <head>\n    <meta charset=\"utf-8\">\n    <title>A happy place a smiley face - Introductions and personal stories - Parkinson&#39;s UK Forum</title>\n    <meta name=\"description\" content=\"anyone up for a chat about anything ?  Would like to hear from you ., daffy  are you doing alright with cherry ? \">\n    <meta name=\"author\" content=\"\">\n<meta name=\"generator\" content=\"Discourse 2.2.5 - https://github.com/discourse/discourse version c294ff3609f988dcafb742e91606d60ca13b794d\">\n<link rel=\"icon\" type=\"image/png\" href=\"https://forum.parkinsons.org.uk/uploads/db7928/original/2X/3/311fc84f89f49f38601a2f16b295b6f03d3ce5dd.jpg\">\n<link rel=\"apple-touch-icon\" type=\"image/png\" href=\"https://forum.parkinsons.org.uk/uploads/db7928/original/2X/3/311fc84f89f49f38601a2f16b295b6f03d3ce5dd.jpg\">\n<meta name=\"theme-color\" content=\"#ffffff\">\n<meta name=\"viewport\" content=\"width=device-width, minimum-scale=1.0, maximum-scale=1.0, user-scalable=yes\">\n<link rel=\"canonical\" href=\"https://forum.parkinsons.org.uk/t/a-happy-place-a-smiley-face/10138?page=13\" />\n<script type=\"application/ld+json\">{\"@context\":\"http://schema.org\",\"@type\":\"WebSite\",\"url\":\"https://forum.parkinsons.org.uk\",\"potentialAction\":{\"@type\":\"SearchAction\",\"target\":\"https://forum.parkinsons.org.uk/search?q={search_term_string}\",\"query-input\":\"required name=search_term_string\"}}</script>\n<link rel=\"search\" type=\"application/opensearchdescription+xml\" href=\"https://forum.parkinsons.org.uk/opensearch.xml\" title=\"Parkinson&#39;s UK Forum Search\">\n\n      <link href=\"/stylesheets/desktop_f99246ae801b083d3e4cca979d0dade8615b39ac.css?__ws=forum.parkinsons.org.uk\" media=\"all\" rel=\"stylesheet\" data-target=\"desktop\" data-theme-id=\"12\"/>\n      <link href=\"/stylesheets/desktop_theme_12_5d27531cf43f9df0c03a6a6ec3109dd05f9dfc49.css?__ws=forum.parkinsons.org.uk\" media=\"all\" rel=\"stylesheet\" data-target=\"desktop_theme\" data-theme-id=\"12\"/>\n    <link href=\"https://fonts.googleapis.com/css?family=Open+Sans\" rel=\"stylesheet\">\n\n    <meta id=\"data-ga-universal-analytics\" data-tracking-code=\"UA-4855628-1\" data-json=\"{&quot;cookieDomain&quot;:&quot;auto&quot;}\" data-auto-link-domains=\"\">\n\n<link rel='preload' href='/assets/google-universal-analytics-f35b4da49411e6f5559073523aab983da483976a3954c79c756f8579f6fbd6ef.js' as='script'/>\n<script src='/assets/google-universal-analytics-f35b4da49411e6f5559073523aab983da483976a3954c79c756f8579f6fbd6ef.js'></script>\n\n      <link rel=\"alternate\" type=\"application/rss+xml\" title=\"RSS feed of &#39;A happy place a smiley face&#39;\" href=\"https://forum.parkinsons.org.uk/t/a-happy-place-a-smiley-face/10138.rss\" />\n  <meta property=\"og:site_name\" content=\"Parkinson&#39;s UK Forum\" />\n<meta name=\"twitter:card\" content=\"summary\" />\n<meta name=\"twitter:image\" content=\"https://forum.parkinsons.org.uk/uploads/db7928/original/2X/3/311fc84f89f49f38601a2f16b295b6f03d3ce5dd.jpg\" />\n<meta property=\"og:image\" content=\"https://forum.parkinsons.org.uk/uploads/db7928/original/2X/3/311fc84f89f49f38601a2f16b295b6f03d3ce5dd.jpg\" />\n<meta property=\"og:url\" content=\"https://forum.parkinsons.org.uk/t/a-happy-place-a-smiley-face/10138?page=13\" />\n<meta name=\"twitter:url\" content=\"https://forum.parkinsons.org.uk/t/a-happy-place-a-smiley-face/10138?page=13\" />\n<meta property=\"og:title\" content=\"A happy place a smiley face\" />\n<meta name=\"twitter:title\" content=\"A happy place a smiley face\" />\n<meta property=\"og:description\" content=\"TOMMY really thought a lot about you Ian and obviously enjoyed the banter.\" />\n<meta name=\"twitter:description\" content=\"TOMMY really thought a lot about you Ian and obviously enjoyed the banter.\" />\n<meta name=\"twitter:label1\" value=\"Reading time\" />\n<meta name=\"twitter:data1\" value=\"38 mins \uD83D\uDD51\" />\n<meta name=\"twitter:label2\" value=\"Likes\" />\n<meta name=\"twitter:data2\" value=\"4 ❤\" />\n<meta property=\"article:published_time\" content=\"2018-04-30T20:09:25+00:00\" />\n<meta property=\"og:ignore_canonical\" content=\"true\" />\n\n      <link rel=\"prev\" href=\"/t/a-happy-place-a-smiley-face/10138?page=12\">\n      <link rel=\"next\" href=\"/t/a-happy-place-a-smiley-face/10138?page=14\">\n\n\n    \n  </head>\n  <body class=\"crawler\">\n    <header role=\"banner\">\n    <div class=\"region region-header\">\n        <div class=\"region-header-wrapper\">\n            <div id=\"block-parkinsons-d8-branding\" class=\"block block-system block-system-branding-block\">\n                <a href=\"/\" title=\"Home\" rel=\"home\" class=\"site-logo\">\n                    <img src=\"https://forum.parkinsons.org.uk/uploads/db7928/original/2X/8/862bb7d172e7d127e7f3e147ec43594aa62ac945.png\" alt=\"Parkinson's UK. Change Attitudes. Find a cure. Join us.\">\n                </a>\n            </div>\n            <div id=\"block-helpline\" class=\"block block-block-content block-block-content871cd5af-b938-4947-9dc0-d5c211d08fe3 style-phone\">\n                <div class=\"field field--name-field-link field--type-link field--label-hidden field__item\"><a href=\"tel:+448088000303\">Helpline 0808 800 0303</a></div>\n            </div>\n            <div id=\"block-shop\" class=\"block block-block-content block-block-content6fba5ae5-7797-49cd-8367-f321d8111cd6 style-regular\">\n                <div class=\"field field--name-field-link field--type-link field--label-hidden field__item\"><a href=\"https://shop.parkinsons.org.uk\">Shop</a></div>\n            </div>\n        </div>\n    </div>\n</header>\n\n\n<script src=\"/theme-javascripts/b7e9763fcb584fc8265c56a9f557cd6d2e1e8ed8.js?__ws=forum.parkinsons.org.uk\"></script>\n    <header>\n      <a href=\"/\">\n          <img src=\"https://forum.parkinsons.org.uk/uploads/db7928/original/2X/8/862bb7d172e7d127e7f3e147ec43594aa62ac945.png\" alt=\"Parkinson&#39;s UK Forum\" id=\"site-logo\" style=\"max-width: 150px;\">\n      </a>\n    </header>\n    <div id=\"main-outlet\" class=\"wrap\">\n      <h1>\n  <a href=\"/t/a-happy-place-a-smiley-face/10138\">A happy place a smiley face</a>\n</h1>\n\n<div id='breadcrumbs'>\n    <div id=\"breadcrumb-0\" itemscope itemtype=\"http://data-vocabulary.org/Breadcrumb\"\n        itemref=\"breadcrumb-1\"\n      >\n      <a href=\"/c/about-me\" itemprop=\"url\">\n        <span itemprop=\"title\">About me</span>\n      </a>\n    </div>\n    <div id=\"breadcrumb-1\" itemscope itemtype=\"http://data-vocabulary.org/Breadcrumb\"\n>\n      <a href=\"/c/about-me/introductions-and-personal-stories\" itemprop=\"url\">\n        <span itemprop=\"title\">Introductions and personal stories</span>\n      </a>\n    </div>\n</div>\n\n\n\n\n\n<hr>\n\n\n  <div itemscope itemtype='http://schema.org/DiscussionForumPosting'>\n      <div class='creator'>\n        <span>\n          <a href='/u/babswood'><b itemprop='author'>babswood</b></a>\n          \n          <time datetime='2018-04-30T20:09:25Z' itemprop='datePublished'>\n            2018-04-30 20:09:25 UTC\n          </time>\n        </span>\n        <span itemprop='position'>#242</span>\n      </div>\n      <div class='post' itemprop='articleBody'>\n        <p>TOMMY really thought a lot about you Ian and obviously enjoyed the banter.</p>\n      </div>\n      <meta itemprop='interactionCount' content='UserLikes:0'>\n      <meta itemprop='interactionCount' content='UserComments:2'>\n      <meta itemprop='headline' content='A happy place a smiley face'>\n      <hr>\n  </div>\n  <div itemscope itemtype='http://schema.org/DiscussionForumPosting'>\n      <div class='creator'>\n        <span>\n          <a href='/u/Ian_shearer1'><b itemprop='author'>Ian_shearer1</b></a>\n          \n          <time datetime='2018-04-30T20:11:56Z' itemprop='datePublished'>\n            2018-04-30 20:11:56 UTC\n          </time>\n        </span>\n        <span itemprop='position'>#243</span>\n      </div>\n      <div class='post' itemprop='articleBody'>\n        <p>Aw for     Sake is that all</p>\n      </div>\n      <meta itemprop='interactionCount' content='UserLikes:0'>\n      <meta itemprop='interactionCount' content='UserComments:0'>\n      <meta itemprop='headline' content='A happy place a smiley face'>\n      <hr>\n  </div>\n  <div itemscope itemtype='http://schema.org/DiscussionForumPosting'>\n      <div class='creator'>\n        <span>\n          <a href='/u/Ian_shearer1'><b itemprop='author'>Ian_shearer1</b></a>\n          \n          <time datetime='2018-04-30T20:24:48Z' itemprop='datePublished'>\n            2018-04-30 20:24:48 UTC\n          </time>\n        </span>\n        <span itemprop='position'>#244</span>\n      </div>\n      <div class='post' itemprop='articleBody'>\n        <p>I am jealous I never got a letter <img src=\"//forum.parkinsons.org.uk/images/emoji/twitter/weary.png?v=5\" title=\":weary:\" class=\"emoji\" alt=\":weary:\"> It’s no fare I want a letter too</p>\n      </div>\n      <meta itemprop='interactionCount' content='UserLikes:0'>\n      <meta itemprop='interactionCount' content='UserComments:0'>\n      <meta itemprop='headline' content='A happy place a smiley face'>\n      <hr>\n  </div>\n  <div itemscope itemtype='http://schema.org/DiscussionForumPosting'>\n      <div class='creator'>\n        <span>\n          <a href='/u/sheffy'><b itemprop='author'>sheffy</b></a>\n          \n          <time datetime='2018-04-30T22:11:47Z' itemprop='datePublished'>\n            2018-04-30 22:11:47 UTC\n          </time>\n        </span>\n        <span itemprop='position'>#245</span>\n      </div>\n      <div class='post' itemprop='articleBody'>\n        <p>Hi babswood and Ian, sad that Tommy decided to call it a day, there will be hardly any of us left to have a banter with. Lets hope he comes back!!He messaged me this morning to tell me about Keith as well.</p>\n<p>Ian don’t you go anywhere - Sheila</p>\n      </div>\n      <meta itemprop='interactionCount' content='UserLikes:0'>\n      <meta itemprop='interactionCount' content='UserComments:2'>\n      <meta itemprop='headline' content='A happy place a smiley face'>\n      <hr>\n  </div>\n  <div itemscope itemtype='http://schema.org/DiscussionForumPosting'>\n      <div class='creator'>\n        <span>\n          <a href='/u/Ian_shearer1'><b itemprop='author'>Ian_shearer1</b></a>\n          \n          <time datetime='2018-04-30T22:51:43Z' itemprop='datePublished'>\n            2018-04-30 22:51:43 UTC\n          </time>\n        </span>\n        <span itemprop='position'>#246</span>\n      </div>\n      <div class='post' itemprop='articleBody'>\n        <p>Ian don’t you go anymore ??  Jesus chuckles you’ll be the next one to get a letter from our wonderful moderation team speaking like that <img src=\"//forum.parkinsons.org.uk/images/emoji/twitter/joy.png?v=5\" title=\":joy:\" class=\"emoji\" alt=\":joy:\"><img src=\"//forum.parkinsons.org.uk/images/emoji/twitter/joy.png?v=5\" title=\":joy:\" class=\"emoji\" alt=\":joy:\"><img src=\"//forum.parkinsons.org.uk/images/emoji/twitter/joy.png?v=5\" title=\":joy:\" class=\"emoji\" alt=\":joy:\"><img src=\"//forum.parkinsons.org.uk/images/emoji/twitter/joy.png?v=5\" title=\":joy:\" class=\"emoji\" alt=\":joy:\"><img src=\"//forum.parkinsons.org.uk/images/emoji/twitter/joy.png?v=5\" title=\":joy:\" class=\"emoji\" alt=\":joy:\"><img src=\"//forum.parkinsons.org.uk/images/emoji/twitter/joy.png?v=5\" title=\":joy:\" class=\"emoji\" alt=\":joy:\"></p>\n      </div>\n      <meta itemprop='interactionCount' content='UserLikes:0'>\n      <meta itemprop='interactionCount' content='UserComments:0'>\n      <meta itemprop='headline' content='A happy place a smiley face'>\n      <hr>\n  </div>\n  <div itemscope itemtype='http://schema.org/DiscussionForumPosting'>\n      <div class='creator'>\n        <span>\n          <a href='/u/babswood'><b itemprop='author'>babswood</b></a>\n          \n          <time datetime='2018-05-01T06:00:03Z' itemprop='datePublished'>\n            2018-05-01 06:00:03 UTC\n          </time>\n        </span>\n        <span itemprop='position'>#247</span>\n      </div>\n      <div class='post' itemprop='articleBody'>\n        <p>Hi Friends</p>\n<p>A beautiful morning here hopefully stays all day…</p>\n<p>Feeling really sad today as my pal Tommy has left the forum.Cant quite believe it.<br>\nPlease 're consider Tommy this forum needs you and I want my pal back.</p>\n<p>On an other note Can everyone on the forum please send a message to Keith who has had a rotten time and still in hospital.i could not stop shaking yesterday after getting the message.</p>\n<p>Cheers folks have a good one x x x</p>\n      </div>\n      <meta itemprop='interactionCount' content='UserLikes:0'>\n      <meta itemprop='interactionCount' content='UserComments:0'>\n      <meta itemprop='headline' content='A happy place a smiley face'>\n      <hr>\n  </div>\n  <div itemscope itemtype='http://schema.org/DiscussionForumPosting'>\n      <div class='creator'>\n        <span>\n          <a href='/u/babswood'><b itemprop='author'>babswood</b></a>\n          \n          <time datetime='2018-05-01T06:04:54Z' itemprop='datePublished'>\n            2018-05-01 06:04:54 UTC\n          </time>\n        </span>\n        <span itemprop='position'>#248</span>\n      </div>\n      <div class='post' itemprop='articleBody'>\n        <p>I apologise for putting the details on the forum as should have private message but was in such a state I could not even think right.</p>\n      </div>\n      <meta itemprop='interactionCount' content='UserLikes:0'>\n      <meta itemprop='interactionCount' content='UserComments:1'>\n      <meta itemprop='headline' content='A happy place a smiley face'>\n      <hr>\n  </div>\n  <div itemscope itemtype='http://schema.org/DiscussionForumPosting'>\n      <div class='creator'>\n        <span>\n          <a href='/u/Ian_shearer1'><b itemprop='author'>Ian_shearer1</b></a>\n          \n          <time datetime='2018-05-01T06:10:47Z' itemprop='datePublished'>\n            2018-05-01 06:10:47 UTC\n          </time>\n        </span>\n        <span itemprop='position'>#249</span>\n      </div>\n      <div class='post' itemprop='articleBody'>\n        <p>Keith ???</p>\n      </div>\n      <meta itemprop='interactionCount' content='UserLikes:0'>\n      <meta itemprop='interactionCount' content='UserComments:1'>\n      <meta itemprop='headline' content='A happy place a smiley face'>\n      <hr>\n  </div>\n  <div itemscope itemtype='http://schema.org/DiscussionForumPosting'>\n      <div class='creator'>\n        <span>\n          <a href='/u/babswood'><b itemprop='author'>babswood</b></a>\n          \n          <time datetime='2018-05-01T06:23:00Z' itemprop='datePublished'>\n            2018-05-01 06:23:00 UTC\n          </time>\n        </span>\n        <span itemprop='position'>#250</span>\n      </div>\n      <div class='post' itemprop='articleBody'>\n        <p>He used to be on the forum. Just before you came back.<br>\nHe was mugged walking home and suffered a heart attack. He posted under itsmylfe.</p>\n      </div>\n      <meta itemprop='interactionCount' content='UserLikes:0'>\n      <meta itemprop='interactionCount' content='UserComments:1'>\n      <meta itemprop='headline' content='A happy place a smiley face'>\n      <hr>\n  </div>\n  <div itemscope itemtype='http://schema.org/DiscussionForumPosting'>\n      <div class='creator'>\n        <span>\n          <a href='/u/Ian_shearer1'><b itemprop='author'>Ian_shearer1</b></a>\n          \n          <time datetime='2018-05-01T06:45:08Z' itemprop='datePublished'>\n            2018-05-01 06:45:08 UTC\n          </time>\n        </span>\n        <span itemprop='position'>#251</span>\n      </div>\n      <div class='post' itemprop='articleBody'>\n        <p>Aye that’s a shame. I didn’t Know him , there’s always something To upset things , hope he gets on okay</p>\n      </div>\n      <meta itemprop='interactionCount' content='UserLikes:0'>\n      <meta itemprop='interactionCount' content='UserComments:1'>\n      <meta itemprop='headline' content='A happy place a smiley face'>\n      <hr>\n  </div>\n  <div itemscope itemtype='http://schema.org/DiscussionForumPosting'>\n      <div class='creator'>\n        <span>\n          <a href='/u/Ian_shearer1'><b itemprop='author'>Ian_shearer1</b></a>\n          \n          <time datetime='2018-05-01T10:09:12Z' itemprop='datePublished'>\n            2018-05-01 10:09:12 UTC\n          </time>\n        </span>\n        <span itemprop='position'>#252</span>\n      </div>\n      <div class='post' itemprop='articleBody'>\n        <p>Well thing are not going to well jammed my hand under a traylor this morning cut my knuckles bugger ! The forums giving bad news Christ what next , on a lighter note the weathers good here <img src=\"//forum.parkinsons.org.uk/images/emoji/twitter/smile.png?v=5\" title=\":smile:\" class=\"emoji\" alt=\":smile:\">Am off oot to start again , hope you readers are having. A good day<br>\nTooraloo Lord o the highlands am gone</p>\n      </div>\n      <meta itemprop='interactionCount' content='UserLikes:0'>\n      <meta itemprop='interactionCount' content='UserComments:1'>\n      <meta itemprop='headline' content='A happy place a smiley face'>\n      <hr>\n  </div>\n  <div itemscope itemtype='http://schema.org/DiscussionForumPosting'>\n      <div class='creator'>\n        <span>\n          <a href='/u/Ian_shearer1'><b itemprop='author'>Ian_shearer1</b></a>\n          \n          <time datetime='2018-05-01T11:32:40Z' itemprop='datePublished'>\n            2018-05-01 11:32:40 UTC\n          </time>\n        </span>\n        <span itemprop='position'>#253</span>\n      </div>\n      <div class='post' itemprop='articleBody'>\n        <p>Came here for a. Visit spoke to this Tommy bloke<br>\nThe crack was pretty good as he liked a  laugh and joke<br>\nWhenever there is mistcheve he was an instigator<br>\nBut that was swiftly closed down by our moderator<br>\nSo now I feel quiet lonley nobody to torment<br>\nIt was all in fun the time on here we spent<br>\nAw  well farewell then Tommy my last farewell to you<br>\nAs always it’s the Lord here saying tooraloo</p>\n      </div>\n      <meta itemprop='interactionCount' content='UserLikes:0'>\n      <meta itemprop='interactionCount' content='UserComments:0'>\n      <meta itemprop='headline' content='A happy place a smiley face'>\n      <hr>\n  </div>\n  <div itemscope itemtype='http://schema.org/DiscussionForumPosting'>\n      <div class='creator'>\n        <span>\n          <a href='/u/Daffy'><b itemprop='author'>Daffy</b></a>\n          \n          <time datetime='2018-05-01T12:27:58Z' itemprop='datePublished'>\n            2018-05-01 12:27:58 UTC\n          </time>\n        </span>\n        <span itemprop='position'>#254</span>\n      </div>\n      <div class='post' itemprop='articleBody'>\n        <p>Hi Ian,<br>\nI haven’t been on here for a while. A lot seems to have been going on and I never seem to get as much done as I think I will. I’m learning how to put off non important things though.<br>\nIt’s amazing how PD changes your outlook isn’t it. Last year I broke a front tooth. It just broke right off! Nothing for it but a plate (or a £3000 implant! - er no). Not so long ago I would have been absolutely devastated but when it happened I was surprised to find myself just thinking \"oh **** \"<br>\nBees are fine thanks, very busy as we have lots (and I mean lots) of dandelions and the local farmer has 100 acres of rape in flower nearby (hay fever time). Daffy</p>\n      </div>\n      <meta itemprop='interactionCount' content='UserLikes:0'>\n      <meta itemprop='interactionCount' content='UserComments:1'>\n      <meta itemprop='headline' content='A happy place a smiley face'>\n      <hr>\n  </div>\n  <div itemscope itemtype='http://schema.org/DiscussionForumPosting'>\n      <div class='creator'>\n        <span>\n          <a href='/u/Ian_shearer1'><b itemprop='author'>Ian_shearer1</b></a>\n          \n          <time datetime='2018-05-01T13:43:18Z' itemprop='datePublished'>\n            2018-05-01 13:43:18 UTC\n          </time>\n        </span>\n        <span itemprop='position'>#255</span>\n      </div>\n      <div class='post' itemprop='articleBody'>\n        <p>Aye aye daffy     Sake what a price for a tooth !!  Watch you dont end up like nanny McPhee     Jokes aside hope you get on okay .  Don’t know if you have pet insurance but a lady nearby us paid. Insurance for ten years for her dog then one day the dog wasn’t eating so the vet said teeth had to come out and the insurance wouldn’t pay up as they said it was cosmetic  ,  got to go justnow tooraloo Ruth</p>\n      </div>\n      <meta itemprop='interactionCount' content='UserLikes:0'>\n      <meta itemprop='interactionCount' content='UserComments:1'>\n      <meta itemprop='headline' content='A happy place a smiley face'>\n      <hr>\n  </div>\n  <div itemscope itemtype='http://schema.org/DiscussionForumPosting'>\n      <div class='creator'>\n        <span>\n          <a href='/u/Ian_shearer1'><b itemprop='author'>Ian_shearer1</b></a>\n          \n          <time datetime='2018-05-01T16:12:52Z' itemprop='datePublished'>\n            2018-05-01 16:12:52 UTC\n          </time>\n        </span>\n        <span itemprop='position'>#256</span>\n      </div>\n      <div class='post' itemprop='articleBody'>\n        <p>Aye I had to stop typing as someone came to visit , well it sounds like your bees will do well this year , aye and I know what you mean about just doing what you can when you can I just leave things struggling is just not worth it , buddy’s a lot more laid back now he has been dressed  ( poor buddy )  your getting on alright though ? Just slow down we have to it’s the only way . Well Ruth my suppers ready take care of yourself<br>\nTooraloo xx</p>\n      </div>\n      <meta itemprop='interactionCount' content='UserLikes:0'>\n      <meta itemprop='interactionCount' content='UserComments:0'>\n      <meta itemprop='headline' content='A happy place a smiley face'>\n      <hr>\n  </div>\n  <div itemscope itemtype='http://schema.org/DiscussionForumPosting'>\n      <div class='creator'>\n        <span>\n          <a href='/u/Daffy'><b itemprop='author'>Daffy</b></a>\n          \n          <time datetime='2018-05-02T12:37:42Z' itemprop='datePublished'>\n            2018-05-02 12:37:42 UTC\n          </time>\n        </span>\n        <span itemprop='position'>#257</span>\n      </div>\n      <div class='post' itemprop='articleBody'>\n        <p>Hi Ian,<br>\nI’m ok thanks. Hope you are doing reasonably ok too.<br>\nYes Cherry’s insured for the moment. We usually insure for a couple of years just in case a big health problem appears. Then we put what would have been the premium into an isa just for the dog so that hopefully will cover any unexpected expense. Suggested by another dog owner. We have a “dog issa” for Merlin and cherry can use that too when the time comes. Fortunately it hasn’t had to be touched yet!<br>\nCherry had “the girly snip” a little while ago. I would have loved her to have had puppies but all things considered it wouldn’t have been a good idea. Anyway I would have been far too picky about who was “good enough to have one” and probably have ended up keeping the lot. And my normally tolerant husband would definitely not like that.<br>\nRe nanny Mcphee - my nhs  replacement tooth on a plate took a bit of getting used to but looks good, not at all obvious.<br>\nOff to babysit grandchildren for a bit. Take care. Ruth</p>\n      </div>\n      <meta itemprop='interactionCount' content='UserLikes:0'>\n      <meta itemprop='interactionCount' content='UserComments:1'>\n      <meta itemprop='headline' content='A happy place a smiley face'>\n      <hr>\n  </div>\n  <div itemscope itemtype='http://schema.org/DiscussionForumPosting'>\n      <div class='creator'>\n        <span>\n          <a href='/u/Ian_shearer1'><b itemprop='author'>Ian_shearer1</b></a>\n          \n          <time datetime='2018-05-03T06:10:23Z' itemprop='datePublished'>\n            2018-05-03 06:10:23 UTC\n          </time>\n        </span>\n        <span itemprop='position'>#260</span>\n      </div>\n      <div class='post' itemprop='articleBody'>\n        <p>Aye aye daffy<br>\nHope you got on babysitting the wee monsters , I am jealous as we don’t have any yet we have two boys they both have girlfriends but they won’t marry them and for us we tell them and all we get told is phew no yet ! <img src=\"//forum.parkinsons.org.uk/images/emoji/twitter/roll_eyes.png?v=5\" title=\":roll_eyes:\" class=\"emoji\" alt=\":roll_eyes:\">Our youngest sons girlfriend says no baby’s till she has a ring on her finger    (Fair play to her )   Weather wasn’t great yesterday so I spend time in my workshop when it’s like that , aye I bet after a while you won’t think about the tooth they can make a good job of that sort of things nowadays , but as for those implants @. £3000 that’s residuals, well Ruth I better go start  my day so tooraloo for now xx</p>\n      </div>\n      <meta itemprop='interactionCount' content='UserLikes:0'>\n      <meta itemprop='interactionCount' content='UserComments:1'>\n      <meta itemprop='headline' content='A happy place a smiley face'>\n      <hr>\n  </div>\n  <div itemscope itemtype='http://schema.org/DiscussionForumPosting'>\n      <div class='creator'>\n        <span>\n          <a href='/u/babswood'><b itemprop='author'>babswood</b></a>\n          \n          <time datetime='2018-05-03T19:30:51Z' itemprop='datePublished'>\n            2018-05-03 19:30:51 UTC\n          </time>\n        </span>\n        <span itemprop='position'>#261</span>\n      </div>\n      <div class='post' itemprop='articleBody'>\n        <p>Hi Ian you will be missing your pal Tommy on the forum.Did you get his email address as I have it if you don’t.<br>\nTAKE CARE<br>\nBabs x x</p>\n      </div>\n      <meta itemprop='interactionCount' content='UserLikes:0'>\n      <meta itemprop='interactionCount' content='UserComments:2'>\n      <meta itemprop='headline' content='A happy place a smiley face'>\n      <hr>\n  </div>\n  <div itemscope itemtype='http://schema.org/DiscussionForumPosting'>\n      <div class='creator'>\n        <span>\n          <a href='/u/Ian_shearer1'><b itemprop='author'>Ian_shearer1</b></a>\n          \n          <time datetime='2018-05-03T19:55:19Z' itemprop='datePublished'>\n            2018-05-03 19:55:19 UTC\n          </time>\n        </span>\n        <span itemprop='position'>#262</span>\n      </div>\n      <div class='post' itemprop='articleBody'>\n        <p>Aye babs<br>\nI will leave poor Tommy in peace jha ha !! Never been told why he’s no here but then again it’s none of my business, hope your all well  o we will be now that scots canna afford a drink , good heavens they will try and tax us for farting next  money grabbing tards !! Ach dinna get me started<br>\nTooraloo am gone xx</p>\n      </div>\n      <meta itemprop='interactionCount' content='UserLikes:0'>\n      <meta itemprop='interactionCount' content='UserComments:0'>\n      <meta itemprop='headline' content='A happy place a smiley face'>\n      <hr>\n  </div>\n  <div itemscope itemtype='http://schema.org/DiscussionForumPosting'>\n      <div class='creator'>\n        <span>\n          <a href='/u/Ian_shearer1'><b itemprop='author'>Ian_shearer1</b></a>\n          \n          <time datetime='2018-05-04T20:56:47Z' itemprop='datePublished'>\n            2018-05-04 20:56:47 UTC\n          </time>\n        </span>\n        <span itemprop='position'>#263</span>\n      </div>\n      <div class='post' itemprop='articleBody'>\n        <p>Aye aye there<br>\nHope your all well . I have been busy in my workshop making a sawdust burner to heat the workshop and it wouldn’t  burn as sawdust was too wet so I mixed coal in with sawdust o and it burnt then it didn’t seem to burn Then all of a sudden there was a rush of sparks blew out the bottom of it like a firework it built up gas inside the barrel then ignited with. Force it’s a wonder I didn’t burn tthe place doon !! Poor buddy shook his head and walked away giving me a side look bugger it why me eh I do my best but there you go !!!</p>\n<p>Sawdust stove for sale going free to good home<br>\nApply Lord o the highlands<br>\nTooraloo folks am gone</p>\n      </div>\n      <meta itemprop='interactionCount' content='UserLikes:0'>\n      <meta itemprop='interactionCount' content='UserComments:0'>\n      <meta itemprop='headline' content='A happy place a smiley face'>\n      <hr>\n  </div>\n\n  <div role='navigation' itemscope itemtype='http://schema.org/SiteNavigationElement'>\n      <span itemprop='name'><a rel=\"prev\" itemprop=\"url\" href=\"/t/a-happy-place-a-smiley-face/10138?page=12\">← previous page</a></span>\n      <span itemprop='name'><b><a rel=\"next\" itemprop=\"url\" href=\"/t/a-happy-place-a-smiley-face/10138?page=14\">next page →</a></b></span>\n  </div>\n\n\n\n\n\n    </div>\n    <footer class=\"container\">\n      <nav class='crawler-nav' itemscope itemtype='http://schema.org/SiteNavigationElement'>\n        <a href='/'>Home</a>\n        <a href=\"/categories\">Categories</a>\n        <a href=\"/guidelines\">FAQ/Guidelines</a>\n        <a href=\"/tos\">Terms of Service</a>\n        <a href=\"/privacy\">Privacy Policy</a>\n      </nav>\n      <p class='powered-by-link'>Powered by <a href=\"https://www.discourse.org\">Discourse</a>, best viewed with JavaScript enabled</p>\n    </footer>\n    \n  </body>\n  \n</html>\n",
  "url": "https://forum.parkinsons.org.uk/t/a-happy-place-a-smiley-face/10138?page=13"
}