{
  "contentId": "28c84900-8870-11e9-8f96-97f71b5221d6",
  "html": "<!DOCTYPE html>\n<html lang=\"en\">\n  <head>\n    <meta charset=\"utf-8\">\n    <title>Medicinal Cannabis - Brainwashing On An Industrial Scale - Treatments and therapies - Parkinson&#39;s UK Forum</title>\n    <meta name=\"description\" content=\"Hi all \nThis is a link to my vlog about medicinal cannabis. \n\nCheers, \nIan\">\n    <meta name=\"author\" content=\"\">\n<meta name=\"generator\" content=\"Discourse 2.2.5 - https://github.com/discourse/discourse version c294ff3609f988dcafb742e91606d60ca13b794d\">\n<link rel=\"icon\" type=\"image/png\" href=\"https://forum.parkinsons.org.uk/uploads/db7928/original/2X/3/311fc84f89f49f38601a2f16b295b6f03d3ce5dd.jpg\">\n<link rel=\"apple-touch-icon\" type=\"image/png\" href=\"https://forum.parkinsons.org.uk/uploads/db7928/original/2X/3/311fc84f89f49f38601a2f16b295b6f03d3ce5dd.jpg\">\n<meta name=\"theme-color\" content=\"#ffffff\">\n<meta name=\"viewport\" content=\"width=device-width, minimum-scale=1.0, maximum-scale=1.0, user-scalable=yes\">\n<link rel=\"canonical\" href=\"https://forum.parkinsons.org.uk/t/medicinal-cannabis-brainwashing-on-an-industrial-scale/14697\" />\n<script type=\"application/ld+json\">{\"@context\":\"http://schema.org\",\"@type\":\"WebSite\",\"url\":\"https://forum.parkinsons.org.uk\",\"potentialAction\":{\"@type\":\"SearchAction\",\"target\":\"https://forum.parkinsons.org.uk/search?q={search_term_string}\",\"query-input\":\"required name=search_term_string\"}}</script>\n<link rel=\"search\" type=\"application/opensearchdescription+xml\" href=\"https://forum.parkinsons.org.uk/opensearch.xml\" title=\"Parkinson&#39;s UK Forum Search\">\n\n      <link href=\"/stylesheets/desktop_f99246ae801b083d3e4cca979d0dade8615b39ac.css?__ws=forum.parkinsons.org.uk\" media=\"all\" rel=\"stylesheet\" data-target=\"desktop\" data-theme-id=\"12\"/>\n      <link href=\"/stylesheets/desktop_theme_12_5d27531cf43f9df0c03a6a6ec3109dd05f9dfc49.css?__ws=forum.parkinsons.org.uk\" media=\"all\" rel=\"stylesheet\" data-target=\"desktop_theme\" data-theme-id=\"12\"/>\n    <link href=\"https://fonts.googleapis.com/css?family=Open+Sans\" rel=\"stylesheet\">\n\n    <meta id=\"data-ga-universal-analytics\" data-tracking-code=\"UA-4855628-1\" data-json=\"{&quot;cookieDomain&quot;:&quot;auto&quot;}\" data-auto-link-domains=\"\">\n\n<link rel='preload' href='/assets/google-universal-analytics-f35b4da49411e6f5559073523aab983da483976a3954c79c756f8579f6fbd6ef.js' as='script'/>\n<script src='/assets/google-universal-analytics-f35b4da49411e6f5559073523aab983da483976a3954c79c756f8579f6fbd6ef.js'></script>\n\n      <link rel=\"alternate\" type=\"application/rss+xml\" title=\"RSS feed of &#39;Medicinal Cannabis - Brainwashing On An Industrial Scale&#39;\" href=\"https://forum.parkinsons.org.uk/t/medicinal-cannabis-brainwashing-on-an-industrial-scale/14697.rss\" />\n  <meta property=\"og:site_name\" content=\"Parkinson&#39;s UK Forum\" />\n<meta name=\"twitter:card\" content=\"summary\" />\n<meta name=\"twitter:image\" content=\"https://forum.parkinsons.org.uk/uploads/db7928/original/2X/3/311fc84f89f49f38601a2f16b295b6f03d3ce5dd.jpg\" />\n<meta property=\"og:image\" content=\"https://forum.parkinsons.org.uk/uploads/db7928/original/2X/3/311fc84f89f49f38601a2f16b295b6f03d3ce5dd.jpg\" />\n<meta property=\"og:url\" content=\"https://forum.parkinsons.org.uk/t/medicinal-cannabis-brainwashing-on-an-industrial-scale/14697\" />\n<meta name=\"twitter:url\" content=\"https://forum.parkinsons.org.uk/t/medicinal-cannabis-brainwashing-on-an-industrial-scale/14697\" />\n<meta property=\"og:title\" content=\"Medicinal Cannabis - Brainwashing On An Industrial Scale\" />\n<meta name=\"twitter:title\" content=\"Medicinal Cannabis - Brainwashing On An Industrial Scale\" />\n<meta property=\"og:description\" content=\"Hi all  This is a link to my vlog about medicinal cannabis.   Cheers,  Ian\" />\n<meta name=\"twitter:description\" content=\"Hi all  This is a link to my vlog about medicinal cannabis.   Cheers,  Ian\" />\n<meta name=\"twitter:label1\" value=\"Reading time\" />\n<meta name=\"twitter:data1\" value=\"2 mins \uD83D\uDD51\" />\n<meta name=\"twitter:label2\" value=\"Likes\" />\n<meta name=\"twitter:data2\" value=\"12 ❤\" />\n<meta property=\"article:published_time\" content=\"2018-07-20T19:45:57+00:00\" />\n<meta property=\"og:ignore_canonical\" content=\"true\" />\n\n\n\n    \n  </head>\n  <body class=\"crawler\">\n    <header role=\"banner\">\n    <div class=\"region region-header\">\n        <div class=\"region-header-wrapper\">\n            <div id=\"block-parkinsons-d8-branding\" class=\"block block-system block-system-branding-block\">\n                <a href=\"/\" title=\"Home\" rel=\"home\" class=\"site-logo\">\n                    <img src=\"https://forum.parkinsons.org.uk/uploads/db7928/original/2X/8/862bb7d172e7d127e7f3e147ec43594aa62ac945.png\" alt=\"Parkinson's UK. Change Attitudes. Find a cure. Join us.\">\n                </a>\n            </div>\n            <div id=\"block-helpline\" class=\"block block-block-content block-block-content871cd5af-b938-4947-9dc0-d5c211d08fe3 style-phone\">\n                <div class=\"field field--name-field-link field--type-link field--label-hidden field__item\"><a href=\"tel:+448088000303\">Helpline 0808 800 0303</a></div>\n            </div>\n            <div id=\"block-shop\" class=\"block block-block-content block-block-content6fba5ae5-7797-49cd-8367-f321d8111cd6 style-regular\">\n                <div class=\"field field--name-field-link field--type-link field--label-hidden field__item\"><a href=\"https://shop.parkinsons.org.uk\">Shop</a></div>\n            </div>\n        </div>\n    </div>\n</header>\n\n\n<script src=\"/theme-javascripts/b7e9763fcb584fc8265c56a9f557cd6d2e1e8ed8.js?__ws=forum.parkinsons.org.uk\"></script>\n    <header>\n      <a href=\"/\">\n          <img src=\"https://forum.parkinsons.org.uk/uploads/db7928/original/2X/8/862bb7d172e7d127e7f3e147ec43594aa62ac945.png\" alt=\"Parkinson&#39;s UK Forum\" id=\"site-logo\" style=\"max-width: 150px;\">\n      </a>\n    </header>\n    <div id=\"main-outlet\" class=\"wrap\">\n      <h1>\n  <a href=\"/t/medicinal-cannabis-brainwashing-on-an-industrial-scale/14697\">Medicinal Cannabis - Brainwashing On An Industrial Scale</a>\n</h1>\n\n<div id='breadcrumbs'>\n    <div id=\"breadcrumb-0\" itemscope itemtype=\"http://data-vocabulary.org/Breadcrumb\"\n        itemref=\"breadcrumb-1\"\n      >\n      <a href=\"/c/about-parkinsons-and-health\" itemprop=\"url\">\n        <span itemprop=\"title\">About Parkinson&#39;s and health</span>\n      </a>\n    </div>\n    <div id=\"breadcrumb-1\" itemscope itemtype=\"http://data-vocabulary.org/Breadcrumb\"\n>\n      <a href=\"/c/about-parkinsons-and-health/treatments-and-therapies\" itemprop=\"url\">\n        <span itemprop=\"title\">Treatments and therapies</span>\n      </a>\n    </div>\n</div>\n\n\n\n\n\n<hr>\n\n\n  <div itemscope itemtype='http://schema.org/DiscussionForumPosting'>\n      <div class='creator'>\n        <span>\n          <a href='/u/Selfbuilder'><b itemprop='author'>Selfbuilder</b></a>\n          \n          <time datetime='2018-07-20T19:45:57Z' itemprop='datePublished'>\n            2018-07-20 19:45:57 UTC\n          </time>\n        </span>\n        <span itemprop='position'>#1</span>\n      </div>\n      <div class='post' itemprop='articleBody'>\n        <p>Hi all</p>\n<p>This is a link to my vlog about medicinal cannabis.</p>\n<div class=\"lazyYT\" data-youtube-id=\"o7VSjVrBAf0\" data-youtube-title=\"Vlog #85   Medicinal Cannabis   Brainwashing On An Industrial Scale\" data-width=\"480\" data-height=\"270\" data-parameters=\"feature=oembed&amp;wmode=opaque\"></div>\n<p>Cheers,</p>\n<p>Ian</p>\n      </div>\n      <meta itemprop='interactionCount' content='UserLikes:1'>\n      <meta itemprop='interactionCount' content='UserComments:0'>\n      <meta itemprop='headline' content='Medicinal Cannabis - Brainwashing On An Industrial Scale'>\n      <hr>\n  </div>\n  <div itemscope itemtype='http://schema.org/DiscussionForumPosting'>\n      <div class='creator'>\n        <span>\n          <a href='/u/Wildrover'><b itemprop='author'>Wildrover</b></a>\n          \n          <time datetime='2018-07-20T20:30:54Z' itemprop='datePublished'>\n            2018-07-20 20:30:54 UTC\n          </time>\n        </span>\n        <span itemprop='position'>#2</span>\n      </div>\n      <div class='post' itemprop='articleBody'>\n        <p>Totally agree, nice to see you on channel 4 aswell</p>\n      </div>\n      <meta itemprop='interactionCount' content='UserLikes:1'>\n      <meta itemprop='interactionCount' content='UserComments:0'>\n      <meta itemprop='headline' content='Medicinal Cannabis - Brainwashing On An Industrial Scale'>\n      <hr>\n  </div>\n  <div itemscope itemtype='http://schema.org/DiscussionForumPosting'>\n      <div class='creator'>\n        <span>\n          <a href='/u/penfold'><b itemprop='author'>penfold</b></a>\n          \n          <time datetime='2018-07-23T21:39:31Z' itemprop='datePublished'>\n            2018-07-23 21:39:31 UTC\n          </time>\n        </span>\n        <span itemprop='position'>#3</span>\n      </div>\n      <div class='post' itemprop='articleBody'>\n        <p>chemical companies are legalized drug dealers</p>\n      </div>\n      <meta itemprop='interactionCount' content='UserLikes:1'>\n      <meta itemprop='interactionCount' content='UserComments:0'>\n      <meta itemprop='headline' content='Medicinal Cannabis - Brainwashing On An Industrial Scale'>\n      <hr>\n  </div>\n  <div itemscope itemtype='http://schema.org/DiscussionForumPosting'>\n      <div class='creator'>\n        <span>\n          <a href='/u/Vanessa_Bryson'><b itemprop='author'>Vanessa_Bryson</b></a>\n          \n          <time datetime='2018-07-29T11:19:14Z' itemprop='datePublished'>\n            2018-07-29 11:19:14 UTC\n          </time>\n        </span>\n        <span itemprop='position'>#4</span>\n      </div>\n      <div class='post' itemprop='articleBody'>\n        <p>What about non medical Cannabis oil? Available from health shops. Have you a view?</p>\n      </div>\n      <meta itemprop='interactionCount' content='UserLikes:0'>\n      <meta itemprop='interactionCount' content='UserComments:1'>\n      <meta itemprop='headline' content='Medicinal Cannabis - Brainwashing On An Industrial Scale'>\n      <hr>\n  </div>\n  <div itemscope itemtype='http://schema.org/DiscussionForumPosting'>\n      <div class='creator'>\n        <span>\n          <a href='/u/newdidit'><b itemprop='author'>newdidit</b></a>\n          \n          <time datetime='2018-07-29T21:03:31Z' itemprop='datePublished'>\n            2018-07-29 21:03:31 UTC\n          </time>\n        </span>\n        <span itemprop='position'>#5</span>\n      </div>\n      <div class='post' itemprop='articleBody'>\n        <p>Brilliant piece of work I can see how frustrated and angry you feel and I am with you every step of the way.<br>\nCannabis has so many therapeutic qualities and I really need to learn more about the detail.<br>\nIt never fails to amaze me how we take what the government, media and in some cases medical professionals say as gospel…please please people get out there research and come to your own conclusions.<br>\nThis very poor attempt at making Cbd oil available on prescription has been hyped up to make those responsible look like saviours what a crock of sh** sorry to say. I will endeavour to find some links to post re’ strengths of Cbd oil to make a difference which will vary from condition to condition and person to person. Please do not rely on this proposed government crap you can purchase Cbd oil and search benefits etc etc on line it will take some sifting but anything worth while often does and not everyone will find it beneficial. Just lastly to say Cbd oil from health shops in the uk is not really worth the bottle its in. Hopefully will get back with some more info</p>\n      </div>\n      <meta itemprop='interactionCount' content='UserLikes:3'>\n      <meta itemprop='interactionCount' content='UserComments:0'>\n      <meta itemprop='headline' content='Medicinal Cannabis - Brainwashing On An Industrial Scale'>\n      <hr>\n  </div>\n  <div itemscope itemtype='http://schema.org/DiscussionForumPosting'>\n      <div class='creator'>\n        <span>\n          <a href='/u/Selfbuilder'><b itemprop='author'>Selfbuilder</b></a>\n          \n          <time datetime='2018-08-01T10:17:54Z' itemprop='datePublished'>\n            2018-08-01 10:17:54 UTC\n          </time>\n        </span>\n        <span itemprop='position'>#6</span>\n      </div>\n      <div class='post' itemprop='articleBody'>\n        <p>Good quality, potent CBD oils can be useful, although I find that I need some THC as well.  Many (or most) CBD oils are not strong enough to have a noticeable effect, and they are eye wateringly expensive.  CBD Brothers appear to be a reputable company, and their oils get good reviews.</p>\n      </div>\n      <meta itemprop='interactionCount' content='UserLikes:2'>\n      <meta itemprop='interactionCount' content='UserComments:0'>\n      <meta itemprop='headline' content='Medicinal Cannabis - Brainwashing On An Industrial Scale'>\n      <hr>\n  </div>\n  <div itemscope itemtype='http://schema.org/DiscussionForumPosting'>\n      <div class='creator'>\n        <span>\n          <a href='/u/Gerrard'><b itemprop='author'>Gerrard</b></a>\n          \n          <time datetime='2018-08-01T11:25:37Z' itemprop='datePublished'>\n            2018-08-01 11:25:37 UTC\n          </time>\n        </span>\n        <span itemprop='position'>#7</span>\n      </div>\n      <div class='post' itemprop='articleBody'>\n        <p>Hi Ian, We have communicated before… Please bear with me if this posting gets in a mess but I shake so violently I have difficulty controlling the mouse and keyboard. So far so good. I am confused by your unguarded reference to the use of THC which I understand to be an illegal substance. Am I missing something and is it possible to acquire CBD Oil containing THC legally? Or are you just challenging the outdated Laws?<br>\nKind Regards,  Gerrard</p>\n      </div>\n      <meta itemprop='interactionCount' content='UserLikes:0'>\n      <meta itemprop='interactionCount' content='UserComments:1'>\n      <meta itemprop='headline' content='Medicinal Cannabis - Brainwashing On An Industrial Scale'>\n      <hr>\n  </div>\n  <div itemscope itemtype='http://schema.org/DiscussionForumPosting'>\n      <div class='creator'>\n        <span>\n          <a href='/u/Selfbuilder'><b itemprop='author'>Selfbuilder</b></a>\n          \n          <time datetime='2018-08-03T20:36:47Z' itemprop='datePublished'>\n            2018-08-03 20:36:47 UTC\n          </time>\n        </span>\n        <span itemprop='position'>#8</span>\n      </div>\n      <div class='post' itemprop='articleBody'>\n        <p>Hi Gerrard</p>\n<p>In theory you should now be able to be prescribed cannabis based medicines in the UK which contain THC.  In practice it’s almost impossible to access, hence my latest vlog!  So yes, I am challenging a law that is outdated, unjust and downright cruel.</p>\n<p>Cheers,</p>\n<p>Ian</p>\n      </div>\n      <meta itemprop='interactionCount' content='UserLikes:0'>\n      <meta itemprop='interactionCount' content='UserComments:0'>\n      <meta itemprop='headline' content='Medicinal Cannabis - Brainwashing On An Industrial Scale'>\n      <hr>\n  </div>\n  <div itemscope itemtype='http://schema.org/DiscussionForumPosting'>\n      <div class='creator'>\n        <span>\n          <a href='/u/MB420'><b itemprop='author'>MB420</b></a>\n          \n          <time datetime='2018-11-21T13:35:38Z' itemprop='datePublished'>\n            2018-11-21 13:35:38 UTC\n          </time>\n        </span>\n        <span itemprop='position'>#9</span>\n      </div>\n      <div class='post' itemprop='articleBody'>\n        <p>Cannabis, full proper THC~rich Cannabis is the best medicine for me. So far have just used herbal and hash <em>removed content</em> . I found it almost miraculous for some symptoms, most notably depression. Lifted in a flash, every time! My daughter/carer can tell when I have self medicated. Because I can walk without a stick, I can stand up straight, my balance improves, I have 75% less pain, my appetite gets stimulated and I laugh a lot more. Sadly, changed circumstances have meant I can no longer grow my own. However, I am about to test some FECO (=Full Extract Cannabis Oil), which will give me the highest possible potency/dose. I should add, I have been living with Chronic Pain (often Acute, too) from Degenerative Spinal Stenosis for 25 years now, as well as havig PD diagnosed some 5 or more years ago (? I think ~ hopeless time memory!). Herbal cannabis helped enormously with that, and I am hoping FECO will do even better. In which case I shall drop my prsecribed daily cocktail of 160mg Oxycontin every 12 hours, and up to 150mg of Morphine for breakthroughs. I shall be well pleased if I can come off that lot, and the Clonazapam at night too. If FECO proves effective for PD symtoms, i may well reduce and eventually come off the Stanek and Rasagaline too. But I’ll just have to wait and see. The test starts later this week, with any luck. I am not suggesting that everyone should do this! Nor claiming Cannabis to be any kind of cure. But it is a proven neuro-protective, and experience has been all positive for me, so far. I have been living on Pharmaceuticals for too long, and don’t honestly know what they do, if anything, to help me. I’ll soon find out…</p>\n      </div>\n      <meta itemprop='interactionCount' content='UserLikes:2'>\n      <meta itemprop='interactionCount' content='UserComments:1'>\n      <meta itemprop='headline' content='Medicinal Cannabis - Brainwashing On An Industrial Scale'>\n      <hr>\n  </div>\n  <div itemscope itemtype='http://schema.org/DiscussionForumPosting'>\n      <div class='creator'>\n        <span>\n          <a href='/u/Selfbuilder'><b itemprop='author'>Selfbuilder</b></a>\n          \n          <time datetime='2018-11-23T19:38:43Z' itemprop='datePublished'>\n            2018-11-23 19:38:43 UTC\n          </time>\n        </span>\n        <span itemprop='position'>#10</span>\n      </div>\n      <div class='post' itemprop='articleBody'>\n        <p>I look forward to hearing how you get on…</p>\n      </div>\n      <meta itemprop='interactionCount' content='UserLikes:0'>\n      <meta itemprop='interactionCount' content='UserComments:0'>\n      <meta itemprop='headline' content='Medicinal Cannabis - Brainwashing On An Industrial Scale'>\n      <hr>\n  </div>\n  <div itemscope itemtype='http://schema.org/DiscussionForumPosting'>\n      <div class='creator'>\n        <span>\n          <a href='/u/MB420'><b itemprop='author'>MB420</b></a>\n          \n          <time datetime='2018-12-23T13:26:00Z' itemprop='datePublished'>\n            2018-12-23 13:26:00 UTC\n          </time>\n        </span>\n        <span itemprop='position'>#11</span>\n      </div>\n      <div class='post' itemprop='articleBody'>\n        <p>Update: The main gain so far is sleep. Without Cannabis I average sleeping in 90 minute “blocks”, before either pain or just restlessness wake me. Or urgent bladder issues. With Cannabis I have been sleeping in 4 hour “blocks”. Even the bladder issue seems more under control. There is some moderate added pain relief, and I find I’m stronger psychologically to handle the pain, especially the spikes. Mood is improved 100 fold. Although still poor, motivation is improving, with the result that I am now walking about four days a week for an hour each outing. Yesterday I nearly managed a mile. And paid in pain last night! All round, I am walking much better. Still very much a “Parkie-shuffle”, maximum speed is about 1.25mph! However, balance is generally mildly improved, gait is much better, my right foot stays straight without turning in with every step. Appetite is slightly up, but I still have food problems ~ swallowing, and feeling “full” after a meagre child sized portion (having my gastro- system checked out as something is not right in there). So there is improvement, and I suspect that if I could afford it, an increased dose would bring further gain. I am in no doubt that Cannabis has value for helping us Parkie’s. Such a shame we live in the age of hostility and oppression. I am even more convinced that Pharmaceutical cannabis is not what is needed. What we need is the freedom to grow our own. Then we could match chemovar to patient, which is a very unique relationship. But that’s a long story for another day. One further observation: I am finding it best not to rely on one form of ingesting Cannabis. For me, the best way is to use herbal cannabis during the day (smoked or vaped) and take FECO about 2 or 3 hours before bedtime, preferably on an empty stomach, with a light snack taken about 45 minutes to an hour after the FECO. That’s what works best for me, others may find a different regime suits them better.</p>\n      </div>\n      <meta itemprop='interactionCount' content='UserLikes:1'>\n      <meta itemprop='interactionCount' content='UserComments:0'>\n      <meta itemprop='headline' content='Medicinal Cannabis - Brainwashing On An Industrial Scale'>\n      <hr>\n  </div>\n  <div itemscope itemtype='http://schema.org/DiscussionForumPosting'>\n      <div class='creator'>\n        <span>\n          <a href='/u/Omahatom'><b itemprop='author'>Omahatom</b></a>\n          \n          <time datetime='2018-12-24T20:59:46Z' itemprop='datePublished'>\n            2018-12-24 20:59:46 UTC\n          </time>\n        </span>\n        <span itemprop='position'>#12</span>\n      </div>\n      <div class='post' itemprop='articleBody'>\n        <p>This just an opinion. I have Rem Sleep Disorder. I Think there is some research I read at one time. that there is greater chance to get dementia when you have the disorder. There is a chemical THC in Cannibus that can cause halucinations and delusions. Both Halucinations and delusions are part of dementia (And bad Spelling) maybe. For me the fights that I have in Rem hopefully will stay there. But if there is some very sound research it is helpful. I might try it to sleep better if the dreams are happy ones.</p>\n      </div>\n      <meta itemprop='interactionCount' content='UserLikes:0'>\n      <meta itemprop='interactionCount' content='UserComments:1'>\n      <meta itemprop='headline' content='Medicinal Cannabis - Brainwashing On An Industrial Scale'>\n      <hr>\n  </div>\n  <div itemscope itemtype='http://schema.org/DiscussionForumPosting'>\n      <div class='creator'>\n        <span>\n          <a href='/u/MB420'><b itemprop='author'>MB420</b></a>\n          \n          <time datetime='2019-01-11T15:53:37Z' itemprop='datePublished'>\n            2019-01-11 15:53:37 UTC\n          </time>\n        </span>\n        <span itemprop='position'>#13</span>\n      </div>\n      <div class='post' itemprop='articleBody'>\n        <p>Omahatom: In good quality Cannabis, THC is balanced by other Cannabinoids. Most notably CBD which counters the effects of THC you mentioned. Sadly prohibition has led to people hybridising differing strains to raise the THC levels. The problem then is that in so doing they breed out the CBD. The result is OK, even good for many who need THC as medicine (self included), but it can be an edgy and scary experience for others. If you use Cannabis as medicine and find the “high” an unwanted and scary thing, I would recommend you start taking some daily CBD (NOT “Holland &amp; Barrets” which is quite useless; I can advise on sources if you want. CBD is perfectly legal). This will counter-balance the high, leaving you relaxed, mellow and smiling. The only real side effect I have ever noticed with Cannabis is “The munchies”, so buy in some extra chocolate! Hope this helps?</p>\n      </div>\n      <meta itemprop='interactionCount' content='UserLikes:1'>\n      <meta itemprop='interactionCount' content='UserComments:0'>\n      <meta itemprop='headline' content='Medicinal Cannabis - Brainwashing On An Industrial Scale'>\n      <hr>\n  </div>\n  <div itemscope itemtype='http://schema.org/DiscussionForumPosting'>\n      <div class='creator'>\n        <span>\n          <a href='/u/ChasC'><b itemprop='author'>ChasC</b></a>\n          \n          <time datetime='2019-01-12T08:11:04Z' itemprop='datePublished'>\n            2019-01-12 08:11:04 UTC\n          </time>\n        </span>\n        <span itemprop='position'>#14</span>\n      </div>\n      <div class='post' itemprop='articleBody'>\n        <p>I think for many people, myself included, the issue is not so much the using of cannabis for medicinal purposes, as the having to go to a <em>edited by moderator</em> and purchase material of dubious quality and origin. Until the law changes and allows the use of medicinal cannabis, many parkinson’s sufferers will be denied the opportunity to at least try it, and make their own minds up.</p>\n      </div>\n      <meta itemprop='interactionCount' content='UserLikes:0'>\n      <meta itemprop='interactionCount' content='UserComments:1'>\n      <meta itemprop='headline' content='Medicinal Cannabis - Brainwashing On An Industrial Scale'>\n      <hr>\n  </div>\n  <div itemscope itemtype='http://schema.org/DiscussionForumPosting'>\n      <div class='creator'>\n        <span>\n          <a href='/u/MB420'><b itemprop='author'>MB420</b></a>\n          \n          <time datetime='2019-03-06T13:03:27Z' itemprop='datePublished'>\n            2019-03-06 13:03:27 UTC\n          </time>\n        </span>\n        <span itemprop='position'>#15</span>\n      </div>\n      <div class='post' itemprop='articleBody'>\n        <p><em>content edited by moderator to remove reference to illegal activity.</em> For me, cannabis is much more effecive than any of the other Prescription meds like Stanek and/or Rasagiline. But its an individual choice, and not for everyone.</p>\n      </div>\n      <meta itemprop='interactionCount' content='UserLikes:0'>\n      <meta itemprop='interactionCount' content='UserComments:0'>\n      <meta itemprop='headline' content='Medicinal Cannabis - Brainwashing On An Industrial Scale'>\n      <hr>\n  </div>\n\n\n\n\n\n\n    </div>\n    <footer class=\"container\">\n      <nav class='crawler-nav' itemscope itemtype='http://schema.org/SiteNavigationElement'>\n        <a href='/'>Home</a>\n        <a href=\"/categories\">Categories</a>\n        <a href=\"/guidelines\">FAQ/Guidelines</a>\n        <a href=\"/tos\">Terms of Service</a>\n        <a href=\"/privacy\">Privacy Policy</a>\n      </nav>\n      <p class='powered-by-link'>Powered by <a href=\"https://www.discourse.org\">Discourse</a>, best viewed with JavaScript enabled</p>\n    </footer>\n    \n  </body>\n  \n</html>\n",
  "url": "https://forum.parkinsons.org.uk/t/medicinal-cannabis-brainwashing-on-an-industrial-scale/14697"
}