{
  "contentId": "256db3b0-886d-11e9-8f96-97f71b5221d6",
  "html": "<!DOCTYPE html>\n<html lang=\"en\">\n  <head>\n    <meta charset=\"utf-8\">\n    <title>Remembering Dr Jonny - Picturing Parkinson&#39;s - Research discussion - Parkinson&#39;s UK Forum</title>\n    <meta name=\"description\" content=\"Parkinson&amp;#39;s UK have just announced the winner of the Picturing Parkinson&amp;#39;s competition. This is a photographic competition for researchers to showcase images derived from their research. The competition is named in memor&amp;hellip;\">\n    <meta name=\"author\" content=\"\">\n<meta name=\"generator\" content=\"Discourse 2.2.5 - https://github.com/discourse/discourse version c294ff3609f988dcafb742e91606d60ca13b794d\">\n<link rel=\"icon\" type=\"image/png\" href=\"https://forum.parkinsons.org.uk/uploads/db7928/original/2X/3/311fc84f89f49f38601a2f16b295b6f03d3ce5dd.jpg\">\n<link rel=\"apple-touch-icon\" type=\"image/png\" href=\"https://forum.parkinsons.org.uk/uploads/db7928/original/2X/3/311fc84f89f49f38601a2f16b295b6f03d3ce5dd.jpg\">\n<meta name=\"theme-color\" content=\"#ffffff\">\n<meta name=\"viewport\" content=\"width=device-width, minimum-scale=1.0, maximum-scale=1.0, user-scalable=yes\">\n<link rel=\"canonical\" href=\"https://forum.parkinsons.org.uk/t/remembering-dr-jonny-picturing-parkinsons/8748\" />\n<script type=\"application/ld+json\">{\"@context\":\"http://schema.org\",\"@type\":\"WebSite\",\"url\":\"https://forum.parkinsons.org.uk\",\"potentialAction\":{\"@type\":\"SearchAction\",\"target\":\"https://forum.parkinsons.org.uk/search?q={search_term_string}\",\"query-input\":\"required name=search_term_string\"}}</script>\n<link rel=\"search\" type=\"application/opensearchdescription+xml\" href=\"https://forum.parkinsons.org.uk/opensearch.xml\" title=\"Parkinson&#39;s UK Forum Search\">\n\n      <link href=\"/stylesheets/desktop_f99246ae801b083d3e4cca979d0dade8615b39ac.css?__ws=forum.parkinsons.org.uk\" media=\"all\" rel=\"stylesheet\" data-target=\"desktop\" data-theme-id=\"12\"/>\n      <link href=\"/stylesheets/desktop_theme_12_5d27531cf43f9df0c03a6a6ec3109dd05f9dfc49.css?__ws=forum.parkinsons.org.uk\" media=\"all\" rel=\"stylesheet\" data-target=\"desktop_theme\" data-theme-id=\"12\"/>\n    <link href=\"https://fonts.googleapis.com/css?family=Open+Sans\" rel=\"stylesheet\">\n\n    <meta id=\"data-ga-universal-analytics\" data-tracking-code=\"UA-4855628-1\" data-json=\"{&quot;cookieDomain&quot;:&quot;auto&quot;}\" data-auto-link-domains=\"\">\n\n<link rel='preload' href='/assets/google-universal-analytics-f35b4da49411e6f5559073523aab983da483976a3954c79c756f8579f6fbd6ef.js' as='script'/>\n<script src='/assets/google-universal-analytics-f35b4da49411e6f5559073523aab983da483976a3954c79c756f8579f6fbd6ef.js'></script>\n\n      <link rel=\"alternate\" type=\"application/rss+xml\" title=\"RSS feed of &#39;Remembering Dr Jonny - Picturing Parkinson&#39;s&#39;\" href=\"https://forum.parkinsons.org.uk/t/remembering-dr-jonny-picturing-parkinsons/8748.rss\" />\n  <meta property=\"og:site_name\" content=\"Parkinson&#39;s UK Forum\" />\n<meta name=\"twitter:card\" content=\"summary\" />\n<meta name=\"twitter:image\" content=\"https://forum.parkinsons.org.uk/uploads/db7928/original/2X/3/311fc84f89f49f38601a2f16b295b6f03d3ce5dd.jpg\" />\n<meta property=\"og:image\" content=\"https://forum.parkinsons.org.uk/uploads/db7928/original/2X/3/311fc84f89f49f38601a2f16b295b6f03d3ce5dd.jpg\" />\n<meta property=\"og:url\" content=\"https://forum.parkinsons.org.uk/t/remembering-dr-jonny-picturing-parkinsons/8748\" />\n<meta name=\"twitter:url\" content=\"https://forum.parkinsons.org.uk/t/remembering-dr-jonny-picturing-parkinsons/8748\" />\n<meta property=\"og:title\" content=\"Remembering Dr Jonny - Picturing Parkinson&#39;s\" />\n<meta name=\"twitter:title\" content=\"Remembering Dr Jonny - Picturing Parkinson&#39;s\" />\n<meta property=\"og:description\" content=\"Parkinson&#39;s UK have just announced the winner of the Picturing Parkinson&#39;s competition. This is a photographic competition for researchers to showcase images derived from their research. The competition is named in memory of Dr Jonathan Stevens who sadly died in December 2013. Jonathan was a scientist, pwp, blogger, research supporter, photographer and a member of this forum under the name &#39;Dr Jonny&#39;.  \r You can read some of the forum tributes to Dr Jonny at http://www.parkinsons.org.uk/forum/th...\" />\n<meta name=\"twitter:description\" content=\"Parkinson&#39;s UK have just announced the winner of the Picturing Parkinson&#39;s competition. This is a photographic competition for researchers to showcase images derived from their research. The competition is named in memory of Dr Jonathan Stevens who sadly died in December 2013. Jonathan was a scientist, pwp, blogger, research supporter, photographer and a member of this forum under the name &#39;Dr Jonny&#39;.  \r You can read some of the forum tributes to Dr Jonny at http://www.parkinsons.org.uk/forum/th...\" />\n<meta property=\"article:published_time\" content=\"2015-12-04T01:34:04+00:00\" />\n<meta property=\"og:ignore_canonical\" content=\"true\" />\n\n\n\n    \n  </head>\n  <body class=\"crawler\">\n    <header role=\"banner\">\n    <div class=\"region region-header\">\n        <div class=\"region-header-wrapper\">\n            <div id=\"block-parkinsons-d8-branding\" class=\"block block-system block-system-branding-block\">\n                <a href=\"/\" title=\"Home\" rel=\"home\" class=\"site-logo\">\n                    <img src=\"https://forum.parkinsons.org.uk/uploads/db7928/original/2X/8/862bb7d172e7d127e7f3e147ec43594aa62ac945.png\" alt=\"Parkinson's UK. Change Attitudes. Find a cure. Join us.\">\n                </a>\n            </div>\n            <div id=\"block-helpline\" class=\"block block-block-content block-block-content871cd5af-b938-4947-9dc0-d5c211d08fe3 style-phone\">\n                <div class=\"field field--name-field-link field--type-link field--label-hidden field__item\"><a href=\"tel:+448088000303\">Helpline 0808 800 0303</a></div>\n            </div>\n            <div id=\"block-shop\" class=\"block block-block-content block-block-content6fba5ae5-7797-49cd-8367-f321d8111cd6 style-regular\">\n                <div class=\"field field--name-field-link field--type-link field--label-hidden field__item\"><a href=\"https://shop.parkinsons.org.uk\">Shop</a></div>\n            </div>\n        </div>\n    </div>\n</header>\n\n\n<script src=\"/theme-javascripts/b7e9763fcb584fc8265c56a9f557cd6d2e1e8ed8.js?__ws=forum.parkinsons.org.uk\"></script>\n    <header>\n      <a href=\"/\">\n          <img src=\"https://forum.parkinsons.org.uk/uploads/db7928/original/2X/8/862bb7d172e7d127e7f3e147ec43594aa62ac945.png\" alt=\"Parkinson&#39;s UK Forum\" id=\"site-logo\" style=\"max-width: 150px;\">\n      </a>\n    </header>\n    <div id=\"main-outlet\" class=\"wrap\">\n      <h1>\n  <a href=\"/t/remembering-dr-jonny-picturing-parkinsons/8748\">Remembering Dr Jonny - Picturing Parkinson&#39;s</a>\n</h1>\n\n<div id='breadcrumbs'>\n    <div id=\"breadcrumb-0\" itemscope itemtype=\"http://data-vocabulary.org/Breadcrumb\"\n        itemref=\"breadcrumb-1\"\n      >\n      <a href=\"/c/research\" itemprop=\"url\">\n        <span itemprop=\"title\">Research</span>\n      </a>\n    </div>\n    <div id=\"breadcrumb-1\" itemscope itemtype=\"http://data-vocabulary.org/Breadcrumb\"\n>\n      <a href=\"/c/research/research-discussion\" itemprop=\"url\">\n        <span itemprop=\"title\">Research discussion</span>\n      </a>\n    </div>\n</div>\n\n\n\n\n\n<hr>\n\n\n  <div itemscope itemtype='http://schema.org/DiscussionForumPosting'>\n      <div class='creator'>\n        <span>\n          <a href='/u/elegant_fowl'><b itemprop='author'>elegant_fowl</b></a>\n          \n          <time datetime='2015-12-04T01:34:04Z' itemprop='datePublished'>\n            2015-12-04 01:34:04 UTC\n          </time>\n        </span>\n        <span itemprop='position'>#1</span>\n      </div>\n      <div class='post' itemprop='articleBody'>\n        <p><span style=\"line-height: 1.4;\">Parkinson&#39;s UK have just announced the winner of the Picturing Parkinson&#39;s competition. This is a photographic competition for researchers to showcase images derived from their research. The competition is named in memory of Dr Jonathan Stevens who&nbsp;</span><span style=\"line-height: 1.4;\">sadly died in December 2013</span><span style=\"line-height: 1.4;\">. Jonathan was a scientist, </span>pwp<span style=\"line-height: 1.4;\">, </span>blogger<span style=\"line-height: 1.4;\">, research supporter, photographer and a member of this forum under the name &#39;Dr </span>Jonny<span style=\"line-height: 1.4;\">&#39;.&nbsp;</span></p>\r\n<p>You can read some of the forum tributes to Dr Jonny at<a href=\"http://www.parkinsons.org.uk/forum/thread/57839\"> http://www.parkinsons.org.uk/forum/thread/57839</a></p>\r\n<p>Jonathan&#39;s blog can be seen at&nbsp;<a href=\"https://dialoguewithdisability.blogspot.co.uk/\">http://dialoguewithdisability.blogspot.co.uk/</a><br />\r\n\tAnd his photography at&nbsp;<a href=\"https://lightwavestrawberries.wordpress.com/\">https://lightwavestrawberries.wordpress.com/</a></p>\r\n<p>More detail of the photographic competition is at&nbsp;<a href=\"http://www.parkinsons.org.uk/picturingparkinsons\">http://www.parkinsons.org.uk/picturingparkinsons</a></p>\r\n<p>This award which was judged by Jonathan&#39;s family is a particularly appropriate way of remembering him</p>\r\n<p>Elegant Fowl</p>\n      </div>\n      <meta itemprop='interactionCount' content='UserLikes:0'>\n      <meta itemprop='interactionCount' content='UserComments:0'>\n      <meta itemprop='headline' content='Remembering Dr Jonny - Picturing Parkinson&#39;s'>\n      <hr>\n  </div>\n  <div itemscope itemtype='http://schema.org/DiscussionForumPosting'>\n      <div class='creator'>\n        <span>\n          <a href='/u/Leyther'><b itemprop='author'>Leyther</b></a>\n          \n          <time datetime='2015-12-05T10:04:29Z' itemprop='datePublished'>\n            2015-12-05 10:04:29 UTC\n          </time>\n        </span>\n        <span itemprop='position'>#2</span>\n      </div>\n      <div class='post' itemprop='articleBody'>\n        <p>Dr Jonnny was a very eloquent writer who wrote about pd from his own perspective. His posts were often thought&nbsp;provoking and always interesting.</p>\r\n<p>A sad loss to us all.</p>\r\n<p>L</p>\n      </div>\n      <meta itemprop='interactionCount' content='UserLikes:0'>\n      <meta itemprop='interactionCount' content='UserComments:0'>\n      <meta itemprop='headline' content='Remembering Dr Jonny - Picturing Parkinson&#39;s'>\n      <hr>\n  </div>\n  <div itemscope itemtype='http://schema.org/DiscussionForumPosting'>\n      <div class='creator'>\n        <span>\n          <a href='/u/Hikoi'><b itemprop='author'>Hikoi</b></a>\n          \n          <time datetime='2016-02-13T11:27:05Z' itemprop='datePublished'>\n            2016-02-13 11:27:05 UTC\n          </time>\n        </span>\n        <span itemprop='position'>#3</span>\n      </div>\n      <div class='post' itemprop='articleBody'>\n        <p>Good to see he is remembered in this way. &nbsp;Hard to believe he died over 2 yrs ago. &nbsp;Such an interesting writer. &nbsp;</p>\n      </div>\n      <meta itemprop='interactionCount' content='UserLikes:0'>\n      <meta itemprop='interactionCount' content='UserComments:0'>\n      <meta itemprop='headline' content='Remembering Dr Jonny - Picturing Parkinson&#39;s'>\n      <hr>\n  </div>\n\n\n\n\n\n\n    </div>\n    <footer class=\"container\">\n      <nav class='crawler-nav' itemscope itemtype='http://schema.org/SiteNavigationElement'>\n        <a href='/'>Home</a>\n        <a href=\"/categories\">Categories</a>\n        <a href=\"/guidelines\">FAQ/Guidelines</a>\n        <a href=\"/tos\">Terms of Service</a>\n        <a href=\"/privacy\">Privacy Policy</a>\n      </nav>\n      <p class='powered-by-link'>Powered by <a href=\"https://www.discourse.org\">Discourse</a>, best viewed with JavaScript enabled</p>\n    </footer>\n    \n  </body>\n  \n</html>\n",
  "url": "https://forum.parkinsons.org.uk/t/remembering-dr-jonny-picturing-parkinsons/8748"
}