{
  "contentId": "4de719a0-886b-11e9-8f96-97f71b5221d6",
  "html": "<!DOCTYPE html>\n<html lang=\"en\">\n  <head>\n    <meta charset=\"utf-8\">\n    <title>Exercise and PD - Wellbeing - Parkinson&#39;s UK Forum</title>\n    <meta name=\"description\" content=\"what does everyone do about exercise. My PD nurse has suggested hydrotherapy. Has anyone else been to hydratherapy classes or pilates / tai chi. Did it help?\">\n    <meta name=\"author\" content=\"\">\n<meta name=\"generator\" content=\"Discourse 2.2.5 - https://github.com/discourse/discourse version c294ff3609f988dcafb742e91606d60ca13b794d\">\n<link rel=\"icon\" type=\"image/png\" href=\"https://forum.parkinsons.org.uk/uploads/db7928/original/2X/3/311fc84f89f49f38601a2f16b295b6f03d3ce5dd.jpg\">\n<link rel=\"apple-touch-icon\" type=\"image/png\" href=\"https://forum.parkinsons.org.uk/uploads/db7928/original/2X/3/311fc84f89f49f38601a2f16b295b6f03d3ce5dd.jpg\">\n<meta name=\"theme-color\" content=\"#ffffff\">\n<meta name=\"viewport\" content=\"width=device-width, minimum-scale=1.0, maximum-scale=1.0, user-scalable=yes\">\n<link rel=\"canonical\" href=\"https://forum.parkinsons.org.uk/t/exercise-and-pd/748?page=2\" />\n<script type=\"application/ld+json\">{\"@context\":\"http://schema.org\",\"@type\":\"WebSite\",\"url\":\"https://forum.parkinsons.org.uk\",\"potentialAction\":{\"@type\":\"SearchAction\",\"target\":\"https://forum.parkinsons.org.uk/search?q={search_term_string}\",\"query-input\":\"required name=search_term_string\"}}</script>\n<link rel=\"search\" type=\"application/opensearchdescription+xml\" href=\"https://forum.parkinsons.org.uk/opensearch.xml\" title=\"Parkinson&#39;s UK Forum Search\">\n\n      <link href=\"/stylesheets/desktop_f99246ae801b083d3e4cca979d0dade8615b39ac.css?__ws=forum.parkinsons.org.uk\" media=\"all\" rel=\"stylesheet\" data-target=\"desktop\" data-theme-id=\"12\"/>\n      <link href=\"/stylesheets/desktop_theme_12_5d27531cf43f9df0c03a6a6ec3109dd05f9dfc49.css?__ws=forum.parkinsons.org.uk\" media=\"all\" rel=\"stylesheet\" data-target=\"desktop_theme\" data-theme-id=\"12\"/>\n    <link href=\"https://fonts.googleapis.com/css?family=Open+Sans\" rel=\"stylesheet\">\n\n    <meta id=\"data-ga-universal-analytics\" data-tracking-code=\"UA-4855628-1\" data-json=\"{&quot;cookieDomain&quot;:&quot;auto&quot;}\" data-auto-link-domains=\"\">\n\n<link rel='preload' href='/assets/google-universal-analytics-f35b4da49411e6f5559073523aab983da483976a3954c79c756f8579f6fbd6ef.js' as='script'/>\n<script src='/assets/google-universal-analytics-f35b4da49411e6f5559073523aab983da483976a3954c79c756f8579f6fbd6ef.js'></script>\n\n      <link rel=\"alternate\" type=\"application/rss+xml\" title=\"RSS feed of &#39;Exercise and PD&#39;\" href=\"https://forum.parkinsons.org.uk/t/exercise-and-pd/748.rss\" />\n  <meta property=\"og:site_name\" content=\"Parkinson&#39;s UK Forum\" />\n<meta name=\"twitter:card\" content=\"summary\" />\n<meta name=\"twitter:image\" content=\"https://forum.parkinsons.org.uk/uploads/db7928/original/2X/3/311fc84f89f49f38601a2f16b295b6f03d3ce5dd.jpg\" />\n<meta property=\"og:image\" content=\"https://forum.parkinsons.org.uk/uploads/db7928/original/2X/3/311fc84f89f49f38601a2f16b295b6f03d3ce5dd.jpg\" />\n<meta property=\"og:url\" content=\"https://forum.parkinsons.org.uk/t/exercise-and-pd/748?page=2\" />\n<meta name=\"twitter:url\" content=\"https://forum.parkinsons.org.uk/t/exercise-and-pd/748?page=2\" />\n<meta property=\"og:title\" content=\"Exercise and PD\" />\n<meta name=\"twitter:title\" content=\"Exercise and PD\" />\n<meta property=\"og:description\" content=\"http://www.northjersey.com/news/health/121822944_Exercise_shows_potential_for_Parkinson_s_patients.html\" />\n<meta name=\"twitter:description\" content=\"http://www.northjersey.com/news/health/121822944_Exercise_shows_potential_for_Parkinson_s_patients.html\" />\n<meta property=\"article:published_time\" content=\"2011-05-14T22:44:37+00:00\" />\n<meta property=\"og:ignore_canonical\" content=\"true\" />\n\n      <link rel=\"prev\" href=\"/t/exercise-and-pd/748\">\n\n\n    \n  </head>\n  <body class=\"crawler\">\n    <header role=\"banner\">\n    <div class=\"region region-header\">\n        <div class=\"region-header-wrapper\">\n            <div id=\"block-parkinsons-d8-branding\" class=\"block block-system block-system-branding-block\">\n                <a href=\"/\" title=\"Home\" rel=\"home\" class=\"site-logo\">\n                    <img src=\"https://forum.parkinsons.org.uk/uploads/db7928/original/2X/8/862bb7d172e7d127e7f3e147ec43594aa62ac945.png\" alt=\"Parkinson's UK. Change Attitudes. Find a cure. Join us.\">\n                </a>\n            </div>\n            <div id=\"block-helpline\" class=\"block block-block-content block-block-content871cd5af-b938-4947-9dc0-d5c211d08fe3 style-phone\">\n                <div class=\"field field--name-field-link field--type-link field--label-hidden field__item\"><a href=\"tel:+448088000303\">Helpline 0808 800 0303</a></div>\n            </div>\n            <div id=\"block-shop\" class=\"block block-block-content block-block-content6fba5ae5-7797-49cd-8367-f321d8111cd6 style-regular\">\n                <div class=\"field field--name-field-link field--type-link field--label-hidden field__item\"><a href=\"https://shop.parkinsons.org.uk\">Shop</a></div>\n            </div>\n        </div>\n    </div>\n</header>\n\n\n<script src=\"/theme-javascripts/b7e9763fcb584fc8265c56a9f557cd6d2e1e8ed8.js?__ws=forum.parkinsons.org.uk\"></script>\n    <header>\n      <a href=\"/\">\n          <img src=\"https://forum.parkinsons.org.uk/uploads/db7928/original/2X/8/862bb7d172e7d127e7f3e147ec43594aa62ac945.png\" alt=\"Parkinson&#39;s UK Forum\" id=\"site-logo\" style=\"max-width: 150px;\">\n      </a>\n    </header>\n    <div id=\"main-outlet\" class=\"wrap\">\n      <h1>\n  <a href=\"/t/exercise-and-pd/748\">Exercise and PD</a>\n</h1>\n\n<div id='breadcrumbs'>\n    <div id=\"breadcrumb-0\" itemscope itemtype=\"http://data-vocabulary.org/Breadcrumb\"\n        itemref=\"breadcrumb-1\"\n      >\n      <a href=\"/c/about-parkinsons-and-health\" itemprop=\"url\">\n        <span itemprop=\"title\">About Parkinson&#39;s and health</span>\n      </a>\n    </div>\n    <div id=\"breadcrumb-1\" itemscope itemtype=\"http://data-vocabulary.org/Breadcrumb\"\n>\n      <a href=\"/c/about-parkinsons-and-health/wellbeing\" itemprop=\"url\">\n        <span itemprop=\"title\">Wellbeing</span>\n      </a>\n    </div>\n</div>\n\n\n\n\n\n<hr>\n\n\n  <div itemscope itemtype='http://schema.org/DiscussionForumPosting'>\n      <div class='creator'>\n        <span>\n          <a href='/u/butterfly19553'><b itemprop='author'>butterfly19553</b></a>\n          \n          <time datetime='2011-05-14T22:44:37Z' itemprop='datePublished'>\n            2011-05-14 22:44:37 UTC\n          </time>\n        </span>\n        <span itemprop='position'>#21</span>\n      </div>\n      <div class='post' itemprop='articleBody'>\n        <a href=\"http://www.northjersey.com/news/health/121822944_Exercise_shows_potential_for_Parkinson_s_patients.html\" target=\"_blank\">http://www.northjersey.com/news/health/121822944_Exercise_shows_potential_for_Parkinson_s_patients.html</a>\n      </div>\n      <meta itemprop='interactionCount' content='UserLikes:0'>\n      <meta itemprop='interactionCount' content='UserComments:0'>\n      <meta itemprop='headline' content='Exercise and PD'>\n      <hr>\n  </div>\n  <div itemscope itemtype='http://schema.org/DiscussionForumPosting'>\n      <div class='creator'>\n        <span>\n          <a href='/u/butterfly19553'><b itemprop='author'>butterfly19553</b></a>\n          \n          <time datetime='2011-05-16T20:44:23Z' itemprop='datePublished'>\n            2011-05-16 20:44:23 UTC\n          </time>\n        </span>\n        <span itemprop='position'>#22</span>\n      </div>\n      <div class='post' itemprop='articleBody'>\n        At the risk of getting boring, but I thought this article taken from \"Neurotalk\" was really interesting. I realise some may have read it already as it's from last year. I think I may try it, and once again get an exercise bike.(I've never stuck to it for long).It's amazing how a diagnosis of PD gives an added incentive.<br><br>\"Department of Biomedical Engineering, Cleveland Clinic, Cleveland, OH 44195, USA.<br><br>BACKGROUND: Animal studies indicate forced exercise (FE) improves overall motor function in Parkinsonian rodents. Global improvements in motor function following voluntary exercise (VE) are not widely reported in human Parkinson's disease (PD) patients. OBJECTIVE: The aim of this study was to compare the effects of VE and FE on PD symptoms, motor function, and bimanual dexterity. METHODS: Ten patients with mild to moderate PD were randomly assigned to complete 8 weeks of FE or VE. With the assistance of a trainer, patients in the FE group pedaled at a rate 30% greater than their preferred voluntary rate, whereas patients in the VE group pedaled at their preferred rate. Aerobic intensity for both groups was identical, 60% to 80% of their individualized training heart rate. RESULTS: Aerobic fitness improved for both groups. Following FE, Unified Parkinson's Disease Rating Scale (<a href=\"http://www.parkinsons.org.uk/about_us/using_the_website/my_account.aspxUPDRS\" target=\"_blank\">http://www.parkinsons.org.uk/about_us/using_the_website/my_account.aspxUPDRS</a>) motor scores improved 35%, whereas patients completing VE did not exhibit any improvement. The control and coordination of grasping forces during the performance of a functional bimanual dexterity task improved significantly for patients in the FE group, whereas no changes in motor performance were observed following VE. Improvements in clinical measures of rigidity and bradykinesia and biomechanical measures of bimanual dexterity were maintained 4 weeks after FE cessation. CONCLUSIONS: Aerobic fitness can be improved in PD patients following both VE and FE interventions. However, only FE results in significant improvements in motor function and bimanual dexterity. Biomechanical data indicate that FE leads to a shift in motor control strategy, from feedback to a greater reliance on feedforward processes, which suggests FE may be altering central motor control processes.\"\n      </div>\n      <meta itemprop='interactionCount' content='UserLikes:0'>\n      <meta itemprop='interactionCount' content='UserComments:0'>\n      <meta itemprop='headline' content='Exercise and PD'>\n      <hr>\n  </div>\n  <div itemscope itemtype='http://schema.org/DiscussionForumPosting'>\n      <div class='creator'>\n        <span>\n          <a href='/u/denmac'><b itemprop='author'>denmac</b></a>\n          \n          <time datetime='2011-05-18T21:21:40Z' itemprop='datePublished'>\n            2011-05-18 21:21:40 UTC\n          </time>\n        </span>\n        <span itemprop='position'>#23</span>\n      </div>\n      <div class='post' itemprop='articleBody'>\n        Hello there folks. Just wondering if anyone has tried the MOTOMED VIVA2 for exercise. <br><br>I have seen an advert for it and thet say the have a Parkinsons specific model.<br><br>Denmac\n      </div>\n      <meta itemprop='interactionCount' content='UserLikes:0'>\n      <meta itemprop='interactionCount' content='UserComments:0'>\n      <meta itemprop='headline' content='Exercise and PD'>\n      <hr>\n  </div>\n  <div itemscope itemtype='http://schema.org/DiscussionForumPosting'>\n      <div class='creator'>\n        <span>\n          <a href='/u/carolineb211'><b itemprop='author'>carolineb211</b></a>\n          \n          <time datetime='2011-05-19T06:27:29Z' itemprop='datePublished'>\n            2011-05-19 06:27:29 UTC\n          </time>\n        </span>\n        <span itemprop='position'>#24</span>\n      </div>\n      <div class='post' itemprop='articleBody'>\n        Hi Denmac<br><br>Welcome to the forum ! Lovely to hear from someone new.<br><br>I haven't heard of this at all, what is it?  I have been told to exercise to help keep me healthy but not really my thing, so Im looking at options at the moment.<br><br>Caroline\n      </div>\n      <meta itemprop='interactionCount' content='UserLikes:0'>\n      <meta itemprop='interactionCount' content='UserComments:0'>\n      <meta itemprop='headline' content='Exercise and PD'>\n      <hr>\n  </div>\n  <div itemscope itemtype='http://schema.org/DiscussionForumPosting'>\n      <div class='creator'>\n        <span>\n          <a href='/u/denmac'><b itemprop='author'>denmac</b></a>\n          \n          <time datetime='2011-05-19T18:32:38Z' itemprop='datePublished'>\n            2011-05-19 18:32:38 UTC\n          </time>\n        </span>\n        <span itemprop='position'>#25</span>\n      </div>\n      <div class='post' itemprop='articleBody'>\n        Hi Caroline<br><br>MOTOmed is an exercise machine. It seems expensive but also can be hired for 3 months so you could try it out.<br><br>More info can be got at     <a href=\"http://www.motomed.com\" target=\"_blank\">www.motomed.com</a><br><br>They say they have MOTOmed viva2_Parkinson but don't give much detail.<br><br>I got the brochure but again it seems short on detail so was wondering if anyone had any experience of it. <br><br>Denmac<img src='/images/emoji/emoji_one/flushed.png?v=3' alt=':flushed:' title=':flushed:' class='emoji' />\n      </div>\n      <meta itemprop='interactionCount' content='UserLikes:0'>\n      <meta itemprop='interactionCount' content='UserComments:1'>\n      <meta itemprop='headline' content='Exercise and PD'>\n      <hr>\n  </div>\n  <div itemscope itemtype='http://schema.org/DiscussionForumPosting'>\n      <div class='creator'>\n        <span>\n          <a href='/u/droflet'><b itemprop='author'>droflet</b></a>\n          \n          <time datetime='2011-05-29T09:49:25Z' itemprop='datePublished'>\n            2011-05-29 09:49:25 UTC\n          </time>\n        </span>\n        <span itemprop='position'>#26</span>\n      </div>\n      <div class='post' itemprop='articleBody'>\n        I thought people looking at this topic would be interested to know that a conference was held by the bit of Parkinson's UK known as SPRING in September 2009.  There is a lot of information at <a href=\"http://spring.parkinsons.org.uk/content/blogcategory/90/349/\" target=\"_blank\">http://spring.parkinsons.org.uk/content/blogcategory/90/349/</a> including some good videos of the presentations.  Certainly exercise is good for you, especially if you have PD!\n      </div>\n      <meta itemprop='interactionCount' content='UserLikes:0'>\n      <meta itemprop='interactionCount' content='UserComments:0'>\n      <meta itemprop='headline' content='Exercise and PD'>\n      <hr>\n  </div>\n  <div itemscope itemtype='http://schema.org/DiscussionForumPosting'>\n      <div class='creator'>\n        <span>\n          <a href='/u/nylex'><b itemprop='author'>nylex</b></a>\n          \n          <time datetime='2011-07-16T02:52:43Z' itemprop='datePublished'>\n            2011-07-16 02:52:43 UTC\n          </time>\n        </span>\n        <span itemprop='position'>#27</span>\n      </div>\n      <div class='post' itemprop='articleBody'>\n        Hello I am new to the forum (but couldn't seem to post anything on the meet and greet)... <br><br>I was diagnosed at 43 and exercise has always been a part of my day.  Until recently I was running everyday for 30 minutes. Have found that when I get in rhythm it can be easier than walking!! <br> It seems I have now peroneal tendon subluxation which means my ankle tendon has moved across the ankle bone and won't go back. (Think it's because of PD muscles not often relaxed.)  Has anyone suffered from ankle injuries? Orthopaedic Surgeon suggested to hold off from surgery for as long as I can. <br>Would appreciate any suggestions for non surgical options for foot problems with Parkinsons and how to reduce risk of further injury . Also my foot aches when driving (have to have teenagers and work)  Suggestions would be appreciated.\n      </div>\n      <meta itemprop='interactionCount' content='UserLikes:0'>\n      <meta itemprop='interactionCount' content='UserComments:0'>\n      <meta itemprop='headline' content='Exercise and PD'>\n      <hr>\n  </div>\n  <div itemscope itemtype='http://schema.org/DiscussionForumPosting'>\n      <div class='creator'>\n        <span>\n          <a href='/u/mati'><b itemprop='author'>mati</b></a>\n          \n          <time datetime='2018-09-21T21:16:45Z' itemprop='datePublished'>\n            2018-09-21 21:16:45 UTC\n          </time>\n        </span>\n        <span itemprop='position'>#28</span>\n      </div>\n      <div class='post' itemprop='articleBody'>\n        <p>Hi Denmac!  I wanted to ask the same question you did. Since you posted this message in May, I wonder if you have already tried the Motomed. I’d like to get more information about that machine too!!!</p>\n      </div>\n      <meta itemprop='interactionCount' content='UserLikes:0'>\n      <meta itemprop='interactionCount' content='UserComments:0'>\n      <meta itemprop='headline' content='Exercise and PD'>\n      <hr>\n  </div>\n  <div itemscope itemtype='http://schema.org/DiscussionForumPosting'>\n      <div class='creator'>\n        <span>\n          <a href='/u/Duffers'><b itemprop='author'>Duffers</b></a>\n          \n          <time datetime='2019-01-01T18:43:29Z' itemprop='datePublished'>\n            2019-01-01 18:43:29 UTC\n          </time>\n        </span>\n        <span itemprop='position'>#29</span>\n      </div>\n      <div class='post' itemprop='articleBody'>\n        <p>Prior to my recent diagnosis I was an armchair warrior. I might hurry down to the pub a few times a week, but other than that I was n’t interested.</p>\n<p>I have just joined a PD warrior course which after a couple of weeks has improved my flexibility and more importantly, my outlook.</p>\n<p>The guy training me has PD, but manages exceptionally well with meds and exercise.</p>\n      </div>\n      <meta itemprop='interactionCount' content='UserLikes:0'>\n      <meta itemprop='interactionCount' content='UserComments:0'>\n      <meta itemprop='headline' content='Exercise and PD'>\n      <hr>\n  </div>\n\n  <div role='navigation' itemscope itemtype='http://schema.org/SiteNavigationElement'>\n      <span itemprop='name'><a rel=\"prev\" itemprop=\"url\" href=\"/t/exercise-and-pd/748\">← previous page</a></span>\n  </div>\n\n\n\n\n\n    </div>\n    <footer class=\"container\">\n      <nav class='crawler-nav' itemscope itemtype='http://schema.org/SiteNavigationElement'>\n        <a href='/'>Home</a>\n        <a href=\"/categories\">Categories</a>\n        <a href=\"/guidelines\">FAQ/Guidelines</a>\n        <a href=\"/tos\">Terms of Service</a>\n        <a href=\"/privacy\">Privacy Policy</a>\n      </nav>\n      <p class='powered-by-link'>Powered by <a href=\"https://www.discourse.org\">Discourse</a>, best viewed with JavaScript enabled</p>\n    </footer>\n    \n  </body>\n  \n</html>\n",
  "url": "https://forum.parkinsons.org.uk/t/exercise-and-pd/748?page=2"
}