{
  "contentId": "036d7310-8870-11e9-8f96-97f71b5221d6",
  "html": "<!DOCTYPE html>\n<html lang=\"en\">\n  <head>\n    <meta charset=\"utf-8\">\n    <title>Did anyone watch Doctors on BBC1 this afternoon? - Impulsive and compulsive behaviour - Parkinson&#39;s UK Forum</title>\n    <meta name=\"description\" content=\"A patient with Parkinson&amp;#39;s is displaying some strange symptoms, can her nurse convince her to get the help she needs? \r\nhttp://www.bbc.co.uk/iplayer/episode/b03g8c1d/Doctors_Series_15_Carpe/ \r\nDid anyone watch it? \r\n \">\n    <meta name=\"author\" content=\"\">\n<meta name=\"generator\" content=\"Discourse 2.2.5 - https://github.com/discourse/discourse version c294ff3609f988dcafb742e91606d60ca13b794d\">\n<link rel=\"icon\" type=\"image/png\" href=\"https://forum.parkinsons.org.uk/uploads/db7928/original/2X/3/311fc84f89f49f38601a2f16b295b6f03d3ce5dd.jpg\">\n<link rel=\"apple-touch-icon\" type=\"image/png\" href=\"https://forum.parkinsons.org.uk/uploads/db7928/original/2X/3/311fc84f89f49f38601a2f16b295b6f03d3ce5dd.jpg\">\n<meta name=\"theme-color\" content=\"#ffffff\">\n<meta name=\"viewport\" content=\"width=device-width, minimum-scale=1.0, maximum-scale=1.0, user-scalable=yes\">\n<link rel=\"canonical\" href=\"https://forum.parkinsons.org.uk/t/did-anyone-watch-doctors-on-bbc1-this-afternoon/6842\" />\n<script type=\"application/ld+json\">{\"@context\":\"http://schema.org\",\"@type\":\"WebSite\",\"url\":\"https://forum.parkinsons.org.uk\",\"potentialAction\":{\"@type\":\"SearchAction\",\"target\":\"https://forum.parkinsons.org.uk/search?q={search_term_string}\",\"query-input\":\"required name=search_term_string\"}}</script>\n<link rel=\"search\" type=\"application/opensearchdescription+xml\" href=\"https://forum.parkinsons.org.uk/opensearch.xml\" title=\"Parkinson&#39;s UK Forum Search\">\n\n      <link href=\"/stylesheets/desktop_f99246ae801b083d3e4cca979d0dade8615b39ac.css?__ws=forum.parkinsons.org.uk\" media=\"all\" rel=\"stylesheet\" data-target=\"desktop\" data-theme-id=\"12\"/>\n      <link href=\"/stylesheets/desktop_theme_12_5d27531cf43f9df0c03a6a6ec3109dd05f9dfc49.css?__ws=forum.parkinsons.org.uk\" media=\"all\" rel=\"stylesheet\" data-target=\"desktop_theme\" data-theme-id=\"12\"/>\n    <link href=\"https://fonts.googleapis.com/css?family=Open+Sans\" rel=\"stylesheet\">\n\n    <meta id=\"data-ga-universal-analytics\" data-tracking-code=\"UA-4855628-1\" data-json=\"{&quot;cookieDomain&quot;:&quot;auto&quot;}\" data-auto-link-domains=\"\">\n\n<link rel='preload' href='/assets/google-universal-analytics-f35b4da49411e6f5559073523aab983da483976a3954c79c756f8579f6fbd6ef.js' as='script'/>\n<script src='/assets/google-universal-analytics-f35b4da49411e6f5559073523aab983da483976a3954c79c756f8579f6fbd6ef.js'></script>\n\n      <link rel=\"alternate\" type=\"application/rss+xml\" title=\"RSS feed of &#39;Did anyone watch Doctors on BBC1 this afternoon?&#39;\" href=\"https://forum.parkinsons.org.uk/t/did-anyone-watch-doctors-on-bbc1-this-afternoon/6842.rss\" />\n  <meta property=\"og:site_name\" content=\"Parkinson&#39;s UK Forum\" />\n<meta name=\"twitter:card\" content=\"summary\" />\n<meta name=\"twitter:image\" content=\"https://forum.parkinsons.org.uk/uploads/db7928/original/2X/3/311fc84f89f49f38601a2f16b295b6f03d3ce5dd.jpg\" />\n<meta property=\"og:image\" content=\"https://forum.parkinsons.org.uk/uploads/db7928/original/2X/3/311fc84f89f49f38601a2f16b295b6f03d3ce5dd.jpg\" />\n<meta property=\"og:url\" content=\"https://forum.parkinsons.org.uk/t/did-anyone-watch-doctors-on-bbc1-this-afternoon/6842\" />\n<meta name=\"twitter:url\" content=\"https://forum.parkinsons.org.uk/t/did-anyone-watch-doctors-on-bbc1-this-afternoon/6842\" />\n<meta property=\"og:title\" content=\"Did anyone watch Doctors on BBC1 this afternoon?\" />\n<meta name=\"twitter:title\" content=\"Did anyone watch Doctors on BBC1 this afternoon?\" />\n<meta property=\"og:description\" content=\"A patient with Parkinson&#39;s is displaying some strange symptoms, can her nurse convince her to get the help she needs? \r http://www.bbc.co.uk/iplayer/episode/b03g8c1d/Doctors_Series_15_Carpe/ \r Did anyone watch it? \r  \" />\n<meta name=\"twitter:description\" content=\"A patient with Parkinson&#39;s is displaying some strange symptoms, can her nurse convince her to get the help she needs? \r http://www.bbc.co.uk/iplayer/episode/b03g8c1d/Doctors_Series_15_Carpe/ \r Did anyone watch it? \r  \" />\n<meta property=\"article:published_time\" content=\"2013-11-01T16:14:48+00:00\" />\n<meta property=\"og:ignore_canonical\" content=\"true\" />\n\n\n\n    \n  </head>\n  <body class=\"crawler\">\n    <header role=\"banner\">\n    <div class=\"region region-header\">\n        <div class=\"region-header-wrapper\">\n            <div id=\"block-parkinsons-d8-branding\" class=\"block block-system block-system-branding-block\">\n                <a href=\"/\" title=\"Home\" rel=\"home\" class=\"site-logo\">\n                    <img src=\"https://forum.parkinsons.org.uk/uploads/db7928/original/2X/8/862bb7d172e7d127e7f3e147ec43594aa62ac945.png\" alt=\"Parkinson's UK. Change Attitudes. Find a cure. Join us.\">\n                </a>\n            </div>\n            <div id=\"block-helpline\" class=\"block block-block-content block-block-content871cd5af-b938-4947-9dc0-d5c211d08fe3 style-phone\">\n                <div class=\"field field--name-field-link field--type-link field--label-hidden field__item\"><a href=\"tel:+448088000303\">Helpline 0808 800 0303</a></div>\n            </div>\n            <div id=\"block-shop\" class=\"block block-block-content block-block-content6fba5ae5-7797-49cd-8367-f321d8111cd6 style-regular\">\n                <div class=\"field field--name-field-link field--type-link field--label-hidden field__item\"><a href=\"https://shop.parkinsons.org.uk\">Shop</a></div>\n            </div>\n        </div>\n    </div>\n</header>\n\n\n<script src=\"/theme-javascripts/b7e9763fcb584fc8265c56a9f557cd6d2e1e8ed8.js?__ws=forum.parkinsons.org.uk\"></script>\n    <header>\n      <a href=\"/\">\n          <img src=\"https://forum.parkinsons.org.uk/uploads/db7928/original/2X/8/862bb7d172e7d127e7f3e147ec43594aa62ac945.png\" alt=\"Parkinson&#39;s UK Forum\" id=\"site-logo\" style=\"max-width: 150px;\">\n      </a>\n    </header>\n    <div id=\"main-outlet\" class=\"wrap\">\n      <h1>\n  <a href=\"/t/did-anyone-watch-doctors-on-bbc1-this-afternoon/6842\">Did anyone watch Doctors on BBC1 this afternoon?</a>\n</h1>\n\n<div id='breadcrumbs'>\n    <div id=\"breadcrumb-0\" itemscope itemtype=\"http://data-vocabulary.org/Breadcrumb\"\n        itemref=\"breadcrumb-1\"\n      >\n      <a href=\"/c/about-parkinsons-and-health\" itemprop=\"url\">\n        <span itemprop=\"title\">About Parkinson&#39;s and health</span>\n      </a>\n    </div>\n    <div id=\"breadcrumb-1\" itemscope itemtype=\"http://data-vocabulary.org/Breadcrumb\"\n>\n      <a href=\"/c/about-parkinsons-and-health/impulsive-and-compulsive-behaviour\" itemprop=\"url\">\n        <span itemprop=\"title\">Impulsive and compulsive behaviour</span>\n      </a>\n    </div>\n</div>\n\n\n\n\n\n<hr>\n\n\n  <div itemscope itemtype='http://schema.org/DiscussionForumPosting'>\n      <div class='creator'>\n        <span>\n          <a href='/u/Cutiepie'><b itemprop='author'>Cutiepie</b></a>\n          \n          <time datetime='2013-11-01T16:14:48Z' itemprop='datePublished'>\n            2013-11-01 16:14:48 UTC\n          </time>\n        </span>\n        <span itemprop='position'>#1</span>\n      </div>\n      <div class='post' itemprop='articleBody'>\n        <p>A patient with Parkinson&#39;s is displaying some strange symptoms, can her nurse convince her to get the help she needs?</p>\r\n<p><a href=\"http://www.bbc.co.uk/iplayer/episode/b03g8c1d/Doctors_Series_15_Carpe/\">http://www.bbc.co.uk/iplayer/episode/b03g8c1d/Doctors_Series_15_Carpe/</a></p>\r\n<p>Did anyone watch it?</p>\r\n<p>&nbsp;</p>\n      </div>\n      <meta itemprop='interactionCount' content='UserLikes:0'>\n      <meta itemprop='interactionCount' content='UserComments:0'>\n      <meta itemprop='headline' content='Did anyone watch Doctors on BBC1 this afternoon?'>\n      <hr>\n  </div>\n  <div itemscope itemtype='http://schema.org/DiscussionForumPosting'>\n      <div class='creator'>\n        <span>\n          <a href='/u/mrtoad'><b itemprop='author'>mrtoad</b></a>\n          \n          <time datetime='2013-11-02T18:49:14Z' itemprop='datePublished'>\n            2013-11-02 18:49:14 UTC\n          </time>\n        </span>\n        <span itemprop='position'>#2</span>\n      </div>\n      <div class='post' itemprop='articleBody'>\n        <p>Hi Cutiepie</p>\r\n<p>I watched the programme with the lovely Judy Cornwell&nbsp;playing the pwp.&nbsp;</p>\r\n<p>I have to say I was a bit disappointed. It tried to portray the compulsive behavioural effects of dopamine agonists but by trying to cram the whole story into half of a 30 minute episode it trivialised it. I think they have missed an opportunity to build up the story over a week as they often do on doctors. This would &nbsp; &nbsp; have enabled them to show the desperate situations compulsive behaviour can result in and also make the general public more Parkinson&#39;s aware.</p>\r\n<p>Having said all that, a big pat on the back for the&nbsp;beeb&nbsp;for raising the issue at all.</p>\r\n<p>Mrtoad.</p>\n      </div>\n      <meta itemprop='interactionCount' content='UserLikes:0'>\n      <meta itemprop='interactionCount' content='UserComments:0'>\n      <meta itemprop='headline' content='Did anyone watch Doctors on BBC1 this afternoon?'>\n      <hr>\n  </div>\n  <div itemscope itemtype='http://schema.org/DiscussionForumPosting'>\n      <div class='creator'>\n        <span>\n          <a href='/u/titan'><b itemprop='author'>titan</b></a>\n          \n          <time datetime='2013-11-06T20:14:01Z' itemprop='datePublished'>\n            2013-11-06 20:14:01 UTC\n          </time>\n        </span>\n        <span itemprop='position'>#3</span>\n      </div>\n      <div class='post' itemprop='articleBody'>\n        <p>Hi Cutiepie,</p>\r\n<p>&nbsp; &nbsp; &nbsp; &nbsp; &nbsp; &nbsp; &nbsp; &nbsp; &nbsp; Watched the episode you flagged up last night on i player via the TV.Then watched a further 2 episodes.Then found myself watching todays episode to see the outcome of the unfortunate sozzled&nbsp;woman who was knocked down by her partners reversing car.</p>\r\n<p>&nbsp; &nbsp; &nbsp; &nbsp; &nbsp; &nbsp; &nbsp; &nbsp; &nbsp; Anyway,I hope I can now tear myself away from another possible addiction.Not only that,my hypochondria is through the roof now.</p>\r\n<p>&nbsp; &nbsp; &nbsp; &nbsp; &nbsp; &nbsp; &nbsp; &nbsp; &nbsp; Seriously though,thanks for pointing the episode out.Even though short in duration,it can be viewed as a valuable&nbsp;precis account regarding compulsive behaviour due to the effects of DA&#39;s,which could be useful to those suffering from similar problems.</p>\r\n<p>&nbsp; &nbsp; &nbsp; &nbsp; &nbsp; &nbsp; &nbsp; &nbsp; &nbsp; &nbsp; &nbsp; &nbsp; &nbsp; &nbsp; Keep up the good work you do in this area</p>\r\n<p>&nbsp; &nbsp; &nbsp; &nbsp; &nbsp; &nbsp; &nbsp; &nbsp; &nbsp; &nbsp; &nbsp; &nbsp; &nbsp; &nbsp; &nbsp; &nbsp; &nbsp; &nbsp; &nbsp; &nbsp;Take care</p>\r\n<p>&nbsp; &nbsp; &nbsp; &nbsp; &nbsp; &nbsp; &nbsp; &nbsp; &nbsp; &nbsp; &nbsp; &nbsp; &nbsp; &nbsp; &nbsp; &nbsp; &nbsp; &nbsp; &nbsp; &nbsp; &nbsp; &nbsp; &nbsp; Titan</p>\r\n<p>&nbsp; &nbsp; &nbsp; &nbsp; &nbsp; &nbsp; &nbsp; &nbsp; &nbsp; &nbsp; &nbsp; &nbsp; &nbsp; &nbsp; &nbsp; &nbsp; &nbsp; &nbsp; &nbsp; &nbsp; &nbsp; &nbsp; &nbsp; &nbsp;</p>\n      </div>\n      <meta itemprop='interactionCount' content='UserLikes:0'>\n      <meta itemprop='interactionCount' content='UserComments:0'>\n      <meta itemprop='headline' content='Did anyone watch Doctors on BBC1 this afternoon?'>\n      <hr>\n  </div>\n  <div itemscope itemtype='http://schema.org/DiscussionForumPosting'>\n      <div class='creator'>\n        <span>\n          <a href='/u/titan'><b itemprop='author'>titan</b></a>\n          \n          <time datetime='2013-11-12T16:05:17Z' itemprop='datePublished'>\n            2013-11-12 16:05:17 UTC\n          </time>\n        </span>\n        <span itemprop='position'>#4</span>\n      </div>\n      <div class='post' itemprop='articleBody'>\n        <p>Hi,</p>\r\n<p>&nbsp; &nbsp; &nbsp;Rather than start a new thread,I thought I would just post this under this&quot;Did anybody see&quot;thread.</p>\r\n<p>This morning on BBC1&nbsp;at 11.00-11.45.A programme called &quot;Saints or Scroungers&quot;highlighted a &quot;saint&quot;case in which the person was diagnosed with MSA(multiple system Atrophy),also known as&quot;parkinsons plus&quot;.</p>\r\n<p>&nbsp; &nbsp; &nbsp;It highlighted</p>\r\n<p>1)The condition itself</p>\r\n<p>2)The complications and struggles of</p>\r\n<p>3)Emotional and physical support for both sufferer and carer,including respite</p>\r\n<p>4)Welfare benefits Adviser and other advise</p>\r\n<p>5)Local hospice assistance</p>\r\n<p>5)Disability living allowance(DLD),higher rate</p>\r\n<p>6)Employment support Allowance(ESA)</p>\r\n<p>7)Alternate housing to accommodate change in needs</p>\r\n<p>8)Charitable organisations&nbsp;and grants</p>\r\n<p>The programme can be watched on i-player,catch-up TV.</p>\r\n<p>Take care</p>\r\n<p>Titan</p>\n      </div>\n      <meta itemprop='interactionCount' content='UserLikes:0'>\n      <meta itemprop='interactionCount' content='UserComments:0'>\n      <meta itemprop='headline' content='Did anyone watch Doctors on BBC1 this afternoon?'>\n      <hr>\n  </div>\n\n\n\n\n\n\n    </div>\n    <footer class=\"container\">\n      <nav class='crawler-nav' itemscope itemtype='http://schema.org/SiteNavigationElement'>\n        <a href='/'>Home</a>\n        <a href=\"/categories\">Categories</a>\n        <a href=\"/guidelines\">FAQ/Guidelines</a>\n        <a href=\"/tos\">Terms of Service</a>\n        <a href=\"/privacy\">Privacy Policy</a>\n      </nav>\n      <p class='powered-by-link'>Powered by <a href=\"https://www.discourse.org\">Discourse</a>, best viewed with JavaScript enabled</p>\n    </footer>\n    \n  </body>\n  \n</html>\n",
  "url": "https://forum.parkinsons.org.uk/t/did-anyone-watch-doctors-on-bbc1-this-afternoon/6842"
}