{
  "contentId": "75445370-8864-11e9-8f96-97f71b5221d6",
  "html": "<!DOCTYPE html>\n<html lang=\"en\">\n  <head>\n    <meta charset=\"utf-8\">\n    <title>Moving house  - Introductions and personal stories - Parkinson&#39;s UK Forum</title>\n    <meta name=\"description\" content=\"Hello everyone, I am the carer for my father who has P.D., diagnosed in February 2018. My mother died in August 2018 so it is just the two of us living in Sale, Greater Manchester. At the moment his symptoms are quite st&amp;hellip;\">\n    <meta name=\"author\" content=\"\">\n<meta name=\"generator\" content=\"Discourse 2.2.5 - https://github.com/discourse/discourse version c294ff3609f988dcafb742e91606d60ca13b794d\">\n<link rel=\"icon\" type=\"image/png\" href=\"https://forum.parkinsons.org.uk/uploads/db7928/original/2X/3/311fc84f89f49f38601a2f16b295b6f03d3ce5dd.jpg\">\n<link rel=\"apple-touch-icon\" type=\"image/png\" href=\"https://forum.parkinsons.org.uk/uploads/db7928/original/2X/3/311fc84f89f49f38601a2f16b295b6f03d3ce5dd.jpg\">\n<meta name=\"theme-color\" content=\"#ffffff\">\n<meta name=\"viewport\" content=\"width=device-width, minimum-scale=1.0, maximum-scale=1.0, user-scalable=yes\">\n<link rel=\"canonical\" href=\"https://forum.parkinsons.org.uk/t/moving-house/19479\" />\n<script type=\"application/ld+json\">{\"@context\":\"http://schema.org\",\"@type\":\"WebSite\",\"url\":\"https://forum.parkinsons.org.uk\",\"potentialAction\":{\"@type\":\"SearchAction\",\"target\":\"https://forum.parkinsons.org.uk/search?q={search_term_string}\",\"query-input\":\"required name=search_term_string\"}}</script>\n<link rel=\"search\" type=\"application/opensearchdescription+xml\" href=\"https://forum.parkinsons.org.uk/opensearch.xml\" title=\"Parkinson&#39;s UK Forum Search\">\n\n      <link href=\"/stylesheets/desktop_f99246ae801b083d3e4cca979d0dade8615b39ac.css?__ws=forum.parkinsons.org.uk\" media=\"all\" rel=\"stylesheet\" data-target=\"desktop\" data-theme-id=\"12\"/>\n      <link href=\"/stylesheets/desktop_theme_12_5d27531cf43f9df0c03a6a6ec3109dd05f9dfc49.css?__ws=forum.parkinsons.org.uk\" media=\"all\" rel=\"stylesheet\" data-target=\"desktop_theme\" data-theme-id=\"12\"/>\n    <link href=\"https://fonts.googleapis.com/css?family=Open+Sans\" rel=\"stylesheet\">\n\n    <meta id=\"data-ga-universal-analytics\" data-tracking-code=\"UA-4855628-1\" data-json=\"{&quot;cookieDomain&quot;:&quot;auto&quot;}\" data-auto-link-domains=\"\">\n\n<link rel='preload' href='/assets/google-universal-analytics-f35b4da49411e6f5559073523aab983da483976a3954c79c756f8579f6fbd6ef.js' as='script'/>\n<script src='/assets/google-universal-analytics-f35b4da49411e6f5559073523aab983da483976a3954c79c756f8579f6fbd6ef.js'></script>\n\n      <link rel=\"alternate\" type=\"application/rss+xml\" title=\"RSS feed of &#39;Moving house &#39;\" href=\"https://forum.parkinsons.org.uk/t/moving-house/19479.rss\" />\n  <meta property=\"og:site_name\" content=\"Parkinson&#39;s UK Forum\" />\n<meta name=\"twitter:card\" content=\"summary\" />\n<meta name=\"twitter:image\" content=\"https://forum.parkinsons.org.uk/uploads/db7928/original/2X/3/311fc84f89f49f38601a2f16b295b6f03d3ce5dd.jpg\" />\n<meta property=\"og:image\" content=\"https://forum.parkinsons.org.uk/uploads/db7928/original/2X/3/311fc84f89f49f38601a2f16b295b6f03d3ce5dd.jpg\" />\n<meta property=\"og:url\" content=\"https://forum.parkinsons.org.uk/t/moving-house/19479\" />\n<meta name=\"twitter:url\" content=\"https://forum.parkinsons.org.uk/t/moving-house/19479\" />\n<meta property=\"og:title\" content=\"Moving house \" />\n<meta name=\"twitter:title\" content=\"Moving house \" />\n<meta property=\"og:description\" content=\"Hello everyone, I am the carer for my father who has P.D., diagnosed in February 2018. My mother died in August 2018 so it is just the two of us living in Sale, Greater Manchester. At the moment his symptoms are quite steady but just before the diagnosis I noticed him wasting away a bit and becoming wobbly, so that was why we went to the G.P. and P.D. was the verdict.  I sometimes find it depressing (sorry!) reading this forum because I don’t want to know about new symptoms Dad may develop in th...\" />\n<meta name=\"twitter:description\" content=\"Hello everyone, I am the carer for my father who has P.D., diagnosed in February 2018. My mother died in August 2018 so it is just the two of us living in Sale, Greater Manchester. At the moment his symptoms are quite steady but just before the diagnosis I noticed him wasting away a bit and becoming wobbly, so that was why we went to the G.P. and P.D. was the verdict.  I sometimes find it depressing (sorry!) reading this forum because I don’t want to know about new symptoms Dad may develop in th...\" />\n<meta property=\"article:published_time\" content=\"2019-05-27T21:01:32+00:00\" />\n<meta property=\"og:ignore_canonical\" content=\"true\" />\n\n\n\n    \n  </head>\n  <body class=\"crawler\">\n    <header role=\"banner\">\n    <div class=\"region region-header\">\n        <div class=\"region-header-wrapper\">\n            <div id=\"block-parkinsons-d8-branding\" class=\"block block-system block-system-branding-block\">\n                <a href=\"/\" title=\"Home\" rel=\"home\" class=\"site-logo\">\n                    <img src=\"https://forum.parkinsons.org.uk/uploads/db7928/original/2X/8/862bb7d172e7d127e7f3e147ec43594aa62ac945.png\" alt=\"Parkinson's UK. Change Attitudes. Find a cure. Join us.\">\n                </a>\n            </div>\n            <div id=\"block-helpline\" class=\"block block-block-content block-block-content871cd5af-b938-4947-9dc0-d5c211d08fe3 style-phone\">\n                <div class=\"field field--name-field-link field--type-link field--label-hidden field__item\"><a href=\"tel:+448088000303\">Helpline 0808 800 0303</a></div>\n            </div>\n            <div id=\"block-shop\" class=\"block block-block-content block-block-content6fba5ae5-7797-49cd-8367-f321d8111cd6 style-regular\">\n                <div class=\"field field--name-field-link field--type-link field--label-hidden field__item\"><a href=\"https://shop.parkinsons.org.uk\">Shop</a></div>\n            </div>\n        </div>\n    </div>\n</header>\n\n\n<script src=\"/theme-javascripts/b7e9763fcb584fc8265c56a9f557cd6d2e1e8ed8.js?__ws=forum.parkinsons.org.uk\"></script>\n    <header>\n      <a href=\"/\">\n          <img src=\"https://forum.parkinsons.org.uk/uploads/db7928/original/2X/8/862bb7d172e7d127e7f3e147ec43594aa62ac945.png\" alt=\"Parkinson&#39;s UK Forum\" id=\"site-logo\" style=\"max-width: 150px;\">\n      </a>\n    </header>\n    <div id=\"main-outlet\" class=\"wrap\">\n      <h1>\n  <a href=\"/t/moving-house/19479\">Moving house </a>\n</h1>\n\n<div id='breadcrumbs'>\n    <div id=\"breadcrumb-0\" itemscope itemtype=\"http://data-vocabulary.org/Breadcrumb\"\n        itemref=\"breadcrumb-1\"\n      >\n      <a href=\"/c/about-me\" itemprop=\"url\">\n        <span itemprop=\"title\">About me</span>\n      </a>\n    </div>\n    <div id=\"breadcrumb-1\" itemscope itemtype=\"http://data-vocabulary.org/Breadcrumb\"\n>\n      <a href=\"/c/about-me/introductions-and-personal-stories\" itemprop=\"url\">\n        <span itemprop=\"title\">Introductions and personal stories</span>\n      </a>\n    </div>\n</div>\n\n\n\n\n\n<hr>\n\n\n  <div itemscope itemtype='http://schema.org/DiscussionForumPosting'>\n      <div class='creator'>\n        <span>\n          <a href='/u/DadwithPD'><b itemprop='author'>DadwithPD</b></a>\n          \n          <time datetime='2019-05-27T21:01:32Z' itemprop='datePublished'>\n            2019-05-27 21:01:32 UTC\n          </time>\n        </span>\n        <span itemprop='position'>#1</span>\n      </div>\n      <div class='post' itemprop='articleBody'>\n        <p>Hello everyone, I am the carer for my father who has P.D., diagnosed in February 2018. My mother died in August 2018 so it is just the two of us living in Sale, Greater Manchester. At the moment his symptoms are quite steady but just before the diagnosis I noticed him wasting away a bit and becoming wobbly, so that was why we went to the G.P. and P.D. was the verdict.<br>\nI sometimes find it depressing (sorry!) reading this forum because I don’t want to know about new symptoms Dad may develop in the future.<br>\nWe only recently became aware that constipation is a P.D. symptom, my Dad had struggled with this for a while before the diagnosis but I was surprised that we weren’t told sooner about the constipation through the Neurology appointments etc…<br>\nAre there any other symptoms of P.D. that you are surprised are not better known? Once we became aware of the constipation as a P.D. symptom my Dad was able to get laxatives on prescription instead of buying DulcoEase and DulcoLax over the counter.</p>\n<p>Anyway, the main topic is ‘Moving house’ because the property we are in is rather large (albeit with junk in some rooms we haven’t got rid of) and we are 3 hours drive from my brother and his wife who live in Milton Keynes. The idea of the house falling apart around us (it is showing its age a lot) while Dad’s health gets worse and no family living nearby is rather scary for me.<br>\nHowever, the idea of moving house understandably causes my Dad anxiety. He also has Diabetes, is registered Blind (has some eyesight but not enough to drive etc.) and is on hormone treatment for a benign brain lump (a whole other story!).<br>\nHow could we best mitigate the problems associated with moving house? I worry about Dad in an unfamiliar environment, also the actual practicalities of the move itself, such as making sure he can take his tablets at the right times with meals etc…<br>\nAny help would be appreciated, thanks.</p>\n      </div>\n      <meta itemprop='interactionCount' content='UserLikes:0'>\n      <meta itemprop='interactionCount' content='UserComments:0'>\n      <meta itemprop='headline' content='Moving house '>\n      <hr>\n  </div>\n  <div itemscope itemtype='http://schema.org/DiscussionForumPosting'>\n      <div class='creator'>\n        <span>\n          <a href='/u/T1'><b itemprop='author'>T1</b></a>\n          \n          <time datetime='2019-05-27T22:32:59Z' itemprop='datePublished'>\n            2019-05-27 22:32:59 UTC\n          </time>\n        </span>\n        <span itemprop='position'>#2</span>\n      </div>\n      <div class='post' itemprop='articleBody'>\n        <p>Hi <a class=\"mention\" href=\"/u/dadwithpd\">@DadwithPD</a><br>\nI’m Tommy a sweaty sock now living in Oxfordshire.<br>\nYou seem to have a lot on your plate at the moment.<br>\nReply at any time if you need to talk.<br>\nBecause I’ll be up most of the night.<br>\nInsomnia that’s another annoying symptom you might not have associated with pd.<br>\nTommy <img src=\"https://forum.parkinsons.org.uk/images/emoji/twitter/pill.png?v=6\" title=\":pill:\" class=\"emoji\" alt=\":pill:\"> <img src=\"https://forum.parkinsons.org.uk/images/emoji/twitter/pill.png?v=6\" title=\":pill:\" class=\"emoji\" alt=\":pill:\"> <img src=\"https://forum.parkinsons.org.uk/images/emoji/twitter/pill.png?v=6\" title=\":pill:\" class=\"emoji\" alt=\":pill:\"> ™</p>\n      </div>\n      <meta itemprop='interactionCount' content='UserLikes:0'>\n      <meta itemprop='interactionCount' content='UserComments:1'>\n      <meta itemprop='headline' content='Moving house '>\n      <hr>\n  </div>\n  <div itemscope itemtype='http://schema.org/DiscussionForumPosting'>\n      <div class='creator'>\n        <span>\n          <a href='/u/Moderators2'><b itemprop='author'>Moderators2</b></a>\n          \n          <time datetime='2019-05-27T23:06:15Z' itemprop='datePublished'>\n            2019-05-27 23:06:15 UTC\n          </time>\n        </span>\n        <span itemprop='position'>#3</span>\n      </div>\n      <div class='post' itemprop='articleBody'>\n        <p>Hi there and a warm welcome to the forum!</p>\n<p>As Tommy says, it does sound like you and your Dad have got a lot on your plate and we want to let you know that we’re here for you. There’s amazing support here on the forum and you can also reach out to our friendly helpline for all kinds of different matters - all the contact info can be found <a href=\"https://parkinsons.org.uk/information-and-support/helpline-and-local-advisers\" rel=\"nofollow noopener\">here</a>.</p>\n<p>Best Wishes<br>\nTom A, Moderation Team.</p>\n      </div>\n      <meta itemprop='interactionCount' content='UserLikes:0'>\n      <meta itemprop='interactionCount' content='UserComments:0'>\n      <meta itemprop='headline' content='Moving house '>\n      <hr>\n  </div>\n  <div itemscope itemtype='http://schema.org/DiscussionForumPosting'>\n      <div class='creator'>\n        <span>\n          <a href='/u/T1'><b itemprop='author'>T1</b></a>\n          \n          <time datetime='2019-05-27T23:37:42Z' itemprop='datePublished'>\n            2019-05-27 23:37:42 UTC\n          </time>\n        </span>\n        <span itemprop='position'>#4</span>\n      </div>\n      <div class='post' itemprop='articleBody'>\n        <p>Hi <a class=\"mention\" href=\"/u/dadwithpd\">@DadwithPD</a><br>\nThe moderator is spot on.<br>\nI have just seen your profile and noticed that you joined almost a year ago now.</p>\n<p>Quite a load to be carrying on your own.<br>\nI have a few questions as I’m sure you do as well.<br>\nAnyway you have taken the first step now and if you make the call in the morning you will be on your way to lightening the load a little.<br>\nTrouble is right now that plateful you have to deal with at the moment is too much for anyone and it’s now time for you to break it down to smaller portions.<br>\nPut them into priority and sort them out one by one<br>\nOtherwise they could quite easily make you unwell /unhappy.<br>\nBut that ain’t going to happen now as you have a whole forum full of experienced people to ease your way.<br>\nTake care friend<br>\nTommy <img src=\"https://forum.parkinsons.org.uk/images/emoji/twitter/pill.png?v=6\" title=\":pill:\" class=\"emoji\" alt=\":pill:\"> <img src=\"https://forum.parkinsons.org.uk/images/emoji/twitter/pill.png?v=6\" title=\":pill:\" class=\"emoji\" alt=\":pill:\"> <img src=\"https://forum.parkinsons.org.uk/images/emoji/twitter/pill.png?v=6\" title=\":pill:\" class=\"emoji\" alt=\":pill:\"> ™</p>\n      </div>\n      <meta itemprop='interactionCount' content='UserLikes:0'>\n      <meta itemprop='interactionCount' content='UserComments:0'>\n      <meta itemprop='headline' content='Moving house '>\n      <hr>\n  </div>\n\n\n\n\n\n\n    </div>\n    <footer class=\"container\">\n      <nav class='crawler-nav' itemscope itemtype='http://schema.org/SiteNavigationElement'>\n        <a href='/'>Home</a>\n        <a href=\"/categories\">Categories</a>\n        <a href=\"/guidelines\">FAQ/Guidelines</a>\n        <a href=\"/tos\">Terms of Service</a>\n        <a href=\"/privacy\">Privacy Policy</a>\n      </nav>\n      <p class='powered-by-link'>Powered by <a href=\"https://www.discourse.org\">Discourse</a>, best viewed with JavaScript enabled</p>\n    </footer>\n    \n  </body>\n  \n</html>\n",
  "url": "https://forum.parkinsons.org.uk/t/moving-house/19479"
}