{
  "contentId": "b5483fc0-886b-11e9-8f96-97f71b5221d6",
  "html": "<!DOCTYPE html>\n<html lang=\"en\">\n  <head>\n    <meta charset=\"utf-8\">\n    <title>Dopamine Agonists and catastrophic Obsessive/Compulsive Disorders (2) - Impulsive and compulsive behaviour - Parkinson&#39;s UK Forum</title>\n    <meta name=\"description\" content=\"could anyone tell me when u been on mirapexon meds at all,the actual amount and the strengh that it has caused bad effects on you.the reson im askin this is cus last year i was on 6 of them and they got to me in a bad wa&amp;hellip;\">\n    <meta name=\"author\" content=\"\">\n<meta name=\"generator\" content=\"Discourse 2.2.5 - https://github.com/discourse/discourse version c294ff3609f988dcafb742e91606d60ca13b794d\">\n<link rel=\"icon\" type=\"image/png\" href=\"https://forum.parkinsons.org.uk/uploads/db7928/original/2X/3/311fc84f89f49f38601a2f16b295b6f03d3ce5dd.jpg\">\n<link rel=\"apple-touch-icon\" type=\"image/png\" href=\"https://forum.parkinsons.org.uk/uploads/db7928/original/2X/3/311fc84f89f49f38601a2f16b295b6f03d3ce5dd.jpg\">\n<meta name=\"theme-color\" content=\"#ffffff\">\n<meta name=\"viewport\" content=\"width=device-width, minimum-scale=1.0, maximum-scale=1.0, user-scalable=yes\">\n<link rel=\"canonical\" href=\"https://forum.parkinsons.org.uk/t/dopamine-agonists-and-catastrophic-obsessive-compulsive-disorders-2/416\" />\n<script type=\"application/ld+json\">{\"@context\":\"http://schema.org\",\"@type\":\"WebSite\",\"url\":\"https://forum.parkinsons.org.uk\",\"potentialAction\":{\"@type\":\"SearchAction\",\"target\":\"https://forum.parkinsons.org.uk/search?q={search_term_string}\",\"query-input\":\"required name=search_term_string\"}}</script>\n<link rel=\"search\" type=\"application/opensearchdescription+xml\" href=\"https://forum.parkinsons.org.uk/opensearch.xml\" title=\"Parkinson&#39;s UK Forum Search\">\n\n      <link href=\"/stylesheets/desktop_f99246ae801b083d3e4cca979d0dade8615b39ac.css?__ws=forum.parkinsons.org.uk\" media=\"all\" rel=\"stylesheet\" data-target=\"desktop\" data-theme-id=\"12\"/>\n      <link href=\"/stylesheets/desktop_theme_12_5d27531cf43f9df0c03a6a6ec3109dd05f9dfc49.css?__ws=forum.parkinsons.org.uk\" media=\"all\" rel=\"stylesheet\" data-target=\"desktop_theme\" data-theme-id=\"12\"/>\n    <link href=\"https://fonts.googleapis.com/css?family=Open+Sans\" rel=\"stylesheet\">\n\n    <meta id=\"data-ga-universal-analytics\" data-tracking-code=\"UA-4855628-1\" data-json=\"{&quot;cookieDomain&quot;:&quot;auto&quot;}\" data-auto-link-domains=\"\">\n\n<link rel='preload' href='/assets/google-universal-analytics-f35b4da49411e6f5559073523aab983da483976a3954c79c756f8579f6fbd6ef.js' as='script'/>\n<script src='/assets/google-universal-analytics-f35b4da49411e6f5559073523aab983da483976a3954c79c756f8579f6fbd6ef.js'></script>\n\n      <link rel=\"alternate\" type=\"application/rss+xml\" title=\"RSS feed of &#39;Dopamine Agonists and catastrophic Obsessive/Compulsive Disorders (2)&#39;\" href=\"https://forum.parkinsons.org.uk/t/dopamine-agonists-and-catastrophic-obsessive-compulsive-disorders-2/416.rss\" />\n  <meta property=\"og:site_name\" content=\"Parkinson&#39;s UK Forum\" />\n<meta name=\"twitter:card\" content=\"summary\" />\n<meta name=\"twitter:image\" content=\"https://forum.parkinsons.org.uk/uploads/db7928/original/2X/3/311fc84f89f49f38601a2f16b295b6f03d3ce5dd.jpg\" />\n<meta property=\"og:image\" content=\"https://forum.parkinsons.org.uk/uploads/db7928/original/2X/3/311fc84f89f49f38601a2f16b295b6f03d3ce5dd.jpg\" />\n<meta property=\"og:url\" content=\"https://forum.parkinsons.org.uk/t/dopamine-agonists-and-catastrophic-obsessive-compulsive-disorders-2/416\" />\n<meta name=\"twitter:url\" content=\"https://forum.parkinsons.org.uk/t/dopamine-agonists-and-catastrophic-obsessive-compulsive-disorders-2/416\" />\n<meta property=\"og:title\" content=\"Dopamine Agonists and catastrophic Obsessive/Compulsive Disorders (2)\" />\n<meta name=\"twitter:title\" content=\"Dopamine Agonists and catastrophic Obsessive/Compulsive Disorders (2)\" />\n<meta property=\"og:description\" content=\"could anyone tell me when u been on mirapexon meds at all,the actual amount and the strengh that it has caused bad effects on you.the reson im askin this is cus last year i was on 6 of them and they got to me in a bad way,im on 3 at the mo,but still have a small effect goin on ,not the same as before ,but neither the less there effectin me.me neuro says that added stress levels can actually play a role in all of this,not just the meds consernd.has anyone else found simular to me,and wot the neur...\" />\n<meta name=\"twitter:description\" content=\"could anyone tell me when u been on mirapexon meds at all,the actual amount and the strengh that it has caused bad effects on you.the reson im askin this is cus last year i was on 6 of them and they got to me in a bad way,im on 3 at the mo,but still have a small effect goin on ,not the same as before ,but neither the less there effectin me.me neuro says that added stress levels can actually play a role in all of this,not just the meds consernd.has anyone else found simular to me,and wot the neur...\" />\n<meta property=\"article:published_time\" content=\"2012-01-27T13:17:47+00:00\" />\n<meta property=\"og:ignore_canonical\" content=\"true\" />\n\n      <link rel=\"next\" href=\"/t/dopamine-agonists-and-catastrophic-obsessive-compulsive-disorders-2/416?page=2\">\n\n\n    \n  </head>\n  <body class=\"crawler\">\n    <header role=\"banner\">\n    <div class=\"region region-header\">\n        <div class=\"region-header-wrapper\">\n            <div id=\"block-parkinsons-d8-branding\" class=\"block block-system block-system-branding-block\">\n                <a href=\"/\" title=\"Home\" rel=\"home\" class=\"site-logo\">\n                    <img src=\"https://forum.parkinsons.org.uk/uploads/db7928/original/2X/8/862bb7d172e7d127e7f3e147ec43594aa62ac945.png\" alt=\"Parkinson's UK. Change Attitudes. Find a cure. Join us.\">\n                </a>\n            </div>\n            <div id=\"block-helpline\" class=\"block block-block-content block-block-content871cd5af-b938-4947-9dc0-d5c211d08fe3 style-phone\">\n                <div class=\"field field--name-field-link field--type-link field--label-hidden field__item\"><a href=\"tel:+448088000303\">Helpline 0808 800 0303</a></div>\n            </div>\n            <div id=\"block-shop\" class=\"block block-block-content block-block-content6fba5ae5-7797-49cd-8367-f321d8111cd6 style-regular\">\n                <div class=\"field field--name-field-link field--type-link field--label-hidden field__item\"><a href=\"https://shop.parkinsons.org.uk\">Shop</a></div>\n            </div>\n        </div>\n    </div>\n</header>\n\n\n<script src=\"/theme-javascripts/b7e9763fcb584fc8265c56a9f557cd6d2e1e8ed8.js?__ws=forum.parkinsons.org.uk\"></script>\n    <header>\n      <a href=\"/\">\n          <img src=\"https://forum.parkinsons.org.uk/uploads/db7928/original/2X/8/862bb7d172e7d127e7f3e147ec43594aa62ac945.png\" alt=\"Parkinson&#39;s UK Forum\" id=\"site-logo\" style=\"max-width: 150px;\">\n      </a>\n    </header>\n    <div id=\"main-outlet\" class=\"wrap\">\n      <h1>\n  <a href=\"/t/dopamine-agonists-and-catastrophic-obsessive-compulsive-disorders-2/416\">Dopamine Agonists and catastrophic Obsessive/Compulsive Disorders (2)</a>\n</h1>\n\n<div id='breadcrumbs'>\n    <div id=\"breadcrumb-0\" itemscope itemtype=\"http://data-vocabulary.org/Breadcrumb\"\n        itemref=\"breadcrumb-1\"\n      >\n      <a href=\"/c/about-parkinsons-and-health\" itemprop=\"url\">\n        <span itemprop=\"title\">About Parkinson&#39;s and health</span>\n      </a>\n    </div>\n    <div id=\"breadcrumb-1\" itemscope itemtype=\"http://data-vocabulary.org/Breadcrumb\"\n>\n      <a href=\"/c/about-parkinsons-and-health/impulsive-and-compulsive-behaviour\" itemprop=\"url\">\n        <span itemprop=\"title\">Impulsive and compulsive behaviour</span>\n      </a>\n    </div>\n</div>\n\n\n\n\n\n<hr>\n\n\n  <div itemscope itemtype='http://schema.org/DiscussionForumPosting'>\n      <div class='creator'>\n        <span>\n          <a href='/u/ali_j'><b itemprop='author'>ali_j</b></a>\n          \n          <time datetime='2012-01-27T13:17:47Z' itemprop='datePublished'>\n            2012-01-27 13:17:47 UTC\n          </time>\n        </span>\n        <span itemprop='position'>#1</span>\n      </div>\n      <div class='post' itemprop='articleBody'>\n        could anyone tell me when u been on mirapexon meds at all,the actual amount and the strengh that it has caused bad effects on you.the reson im askin this is cus last year i was on 6 of them and they got to me in a bad way,im on 3 at the mo,but still have a small effect goin on ,not the same as before ,but neither the less there effectin me.me neuro says that added stress levels can actually play a role in all of this,not just the meds consernd.has anyone else found simular to me,and wot the neuro says also?<img src='/images/emoji/emoji_one/smile.png?v=3' alt=':smile:' title=':smile:' class='emoji' />\n      </div>\n      <meta itemprop='interactionCount' content='UserLikes:0'>\n      <meta itemprop='interactionCount' content='UserComments:0'>\n      <meta itemprop='headline' content='Dopamine Agonists and catastrophic Obsessive/Compulsive Disorders (2)'>\n      <hr>\n  </div>\n  <div itemscope itemtype='http://schema.org/DiscussionForumPosting'>\n      <div class='creator'>\n        <span>\n          <a href='/u/ali_j'><b itemprop='author'>ali_j</b></a>\n          \n          <time datetime='2012-01-07T07:29:29Z' itemprop='datePublished'>\n            2012-01-07 07:29:29 UTC\n          </time>\n        </span>\n        <span itemprop='position'>#2</span>\n      </div>\n      <div class='post' itemprop='articleBody'>\n        hiya sunray,ep that is the same drug im speakin about<img src='/images/emoji/emoji_one/smile.png?v=3' alt=':smile:' title=':smile:' class='emoji' />you did the rite thing for your hubby at the time wot you thought was rite,you no him beter than anyone<img src='/images/emoji/emoji_one/smile.png?v=3' alt=':smile:' title=':smile:' class='emoji' />ifelt me self it was haelpin me pd,but the effects was the prob,my neuro says there nothin he can put me on at the mo till she had a chat with another neuro up at brummy,cus of all the other meds im on.to me it simple they look it up and do it,but she said the other drugs react to the drugs im on ,and it not that simple.so im stook as iam for now,till i here from her agin <img src='/images/emoji/emoji_one/rolling_eyes.png?v=3' alt=':rolling_eyes:' title=':rolling_eyes:' class='emoji' />and to be honest there not the fastest of people are they ,if i was goin to do  big harm to me self,or others that different,but doin wot im doin ,i have to get on with it for time bein,crazy eh,but to me it is doin me harm<img src='/images/emoji/emoji_one/rolling_eyes.png?v=3' alt=':rolling_eyes:' title=':rolling_eyes:' class='emoji' />agin with me like ur hubby if i ween me self off them and have just levodopa ,pd then struggles,its a waitin game\n      </div>\n      <meta itemprop='interactionCount' content='UserLikes:0'>\n      <meta itemprop='interactionCount' content='UserComments:0'>\n      <meta itemprop='headline' content='Dopamine Agonists and catastrophic Obsessive/Compulsive Disorders (2)'>\n      <hr>\n  </div>\n  <div itemscope itemtype='http://schema.org/DiscussionForumPosting'>\n      <div class='creator'>\n        <span>\n          <a href='/u/ali_j'><b itemprop='author'>ali_j</b></a>\n          \n          <time datetime='2012-01-07T12:34:42Z' itemprop='datePublished'>\n            2012-01-07 12:34:42 UTC\n          </time>\n        </span>\n        <span itemprop='position'>#3</span>\n      </div>\n      <div class='post' itemprop='articleBody'>\n        goldern girl,i read ur post 2 times,and had tears in me eyes,feelin for u and ur hubby.these drugs dont half have some thin to asnwer for.but iam so pleased he has come out the other end and he has yourself there for him<img src='/images/emoji/emoji_one/smile.png?v=3' alt=':smile:' title=':smile:' class='emoji' />im on sinemet as well as the mirpexon,u say ur hubby was on sinemet and madapar,im wonderin if this is one of the drugs,madapar which is bein questioned with the other drugs im on.end of the day i just wonna feel beter with in me self,pd wise.but i no there alot of us out there who wishin for this also<img src='/images/emoji/emoji_one/smile.png?v=3' alt=':smile:' title=':smile:' class='emoji' />gg u and hubby keep strong too<img src='/images/emoji/emoji_one/wink.png?v=3' alt=':wink:' title=':wink:' class='emoji' />\n      </div>\n      <meta itemprop='interactionCount' content='UserLikes:0'>\n      <meta itemprop='interactionCount' content='UserComments:0'>\n      <meta itemprop='headline' content='Dopamine Agonists and catastrophic Obsessive/Compulsive Disorders (2)'>\n      <hr>\n  </div>\n  <div itemscope itemtype='http://schema.org/DiscussionForumPosting'>\n      <div class='creator'>\n        <span>\n          <a href='/u/goldengirl'><b itemprop='author'>goldengirl</b></a>\n          \n          <time datetime='2012-01-07T23:18:29Z' itemprop='datePublished'>\n            2012-01-07 23:18:29 UTC\n          </time>\n        </span>\n        <span itemprop='position'>#4</span>\n      </div>\n      <div class='post' itemprop='articleBody'>\n        Thanks Ali for your good wishes.<br>Madopar is a levadopa drug very like Sinemet.<br>It is not a DA.<br>The reason my husband takes it is because it can be prescribed as a dispersible tablet which gets into the system when food is in your stomach and Sinemet just lies there and doesn't work.<br>It makes life a lot easier after a big meal when initially he found he couldn't move for 2 hours until the next dose.<br>Hope that helps!<br>He has been offered an Apo pen for when all else fails and he is frozen but after the horrors of the DA OCDs he daren't use a DA based pen.<br>Has anyone tried it after coming off DAs and not had the OCD starting again?<br>X<br>GG\n      </div>\n      <meta itemprop='interactionCount' content='UserLikes:0'>\n      <meta itemprop='interactionCount' content='UserComments:0'>\n      <meta itemprop='headline' content='Dopamine Agonists and catastrophic Obsessive/Compulsive Disorders (2)'>\n      <hr>\n  </div>\n  <div itemscope itemtype='http://schema.org/DiscussionForumPosting'>\n      <div class='creator'>\n        <span>\n          <a href='/u/blueeyes47'><b itemprop='author'>blueeyes47</b></a>\n          \n          <time datetime='2012-01-08T06:56:09Z' itemprop='datePublished'>\n            2012-01-08 06:56:09 UTC\n          </time>\n        </span>\n        <span itemprop='position'>#5</span>\n      </div>\n      <div class='post' itemprop='articleBody'>\n        Yes goldengirl i have done the DA to Levadopa back to DA journey.  Although its fair to say my two experiences of taking DA's are not exactly comparable.  Between 2002 and 2005 i was on Cabergoline maximum daily dosage with life changing consequences. Then after nearly 6 years of taking Sinemet, I'm now taking a combination of Apo morphine and Sinemet since April 2011.  This time round my DA experience has been very different and without consequences!  I believe this is because the dosage level of Apo Morphine is much lower compared to Cabergoline.  Also this time round all the checks and balances are in place to ensure I'm being monitored. <br><br>I'm under no illusion that Apo Morphine has the same potential as any other DA to cause massive Impulsive/Compulsive side effects, if not managed correctly.  By this i mean things like, too high a dosage level or being unaware of the risks etc. I also believe there is a very fine line between benefit and consequence when it comes to taking DA's.  These drugs without doubt do help with relieving symptoms of PD.  However they also have the ability to destroy lives if they are not correctly managed.  This is why we are running a national campaign to raise awareness among ALL health professionals. I was staggered to find out the biggest group of health professionals who prescribe DA's are in fact GP's not neuro's?  At the same time awareness and understanding of the risks vs benefits among GP's could currently be described at best as patchy!  We are now in 2012 and its been 10 years since this issue hit the airwaves therefore \"patchy\" is not good enough!  We need to raise the bar and that's why we are in the middle of planning a major campaign to educate and inform everyone from GP'S to Pharmacists down to district nurses.     <br><br>regards<br>bluey\n      </div>\n      <meta itemprop='interactionCount' content='UserLikes:0'>\n      <meta itemprop='interactionCount' content='UserComments:0'>\n      <meta itemprop='headline' content='Dopamine Agonists and catastrophic Obsessive/Compulsive Disorders (2)'>\n      <hr>\n  </div>\n  <div itemscope itemtype='http://schema.org/DiscussionForumPosting'>\n      <div class='creator'>\n        <span>\n          <a href='/u/ali_j'><b itemprop='author'>ali_j</b></a>\n          \n          <time datetime='2012-01-08T09:04:36Z' itemprop='datePublished'>\n            2012-01-08 09:04:36 UTC\n          </time>\n        </span>\n        <span itemprop='position'>#6</span>\n      </div>\n      <div class='post' itemprop='articleBody'>\n        hi goldern girl thankyou for that informatinabout madapar,sinemet and mirapexon.<img src='/images/emoji/emoji_one/smile.png?v=3' alt=':smile:' title=':smile:' class='emoji' />blueeyes,i been lucky with my gp,he will NOT prescribe any pd meds at all out,with out gettin confiramtion from the neuro first,and thats how it should be,but i do no other members whos gps have,like you say ,need to raise the bar much further up,and i think you are doin a great job in the part you play in the campaign.<img src='/images/emoji/emoji_one/smile.png?v=3' alt=':smile:' title=':smile:' class='emoji' />\n      </div>\n      <meta itemprop='interactionCount' content='UserLikes:0'>\n      <meta itemprop='interactionCount' content='UserComments:0'>\n      <meta itemprop='headline' content='Dopamine Agonists and catastrophic Obsessive/Compulsive Disorders (2)'>\n      <hr>\n  </div>\n  <div itemscope itemtype='http://schema.org/DiscussionForumPosting'>\n      <div class='creator'>\n        <span>\n          <a href='/u/goldengirl'><b itemprop='author'>goldengirl</b></a>\n          \n          <time datetime='2012-01-08T17:45:34Z' itemprop='datePublished'>\n            2012-01-08 17:45:34 UTC\n          </time>\n        </span>\n        <span itemprop='position'>#7</span>\n      </div>\n      <div class='post' itemprop='articleBody'>\n        Thanks Blue-eyes<br>It is encouraging to hear that you have positive experiences using the Apo pen.<br>Our Parkinson's nurse tells us to be cautious because of the extreme nature of the DA OCD effects he suffered, but we will think again about using it in emergencies only.<br>My husband freely admits that if he is prescribed one he will be very tempted to inject himself repeatedly to gain the highs that he used to have!<br>I shall store it in my handbag!<br>Good luck in your work on bringing the problem into the light at last.<br>X\n      </div>\n      <meta itemprop='interactionCount' content='UserLikes:0'>\n      <meta itemprop='interactionCount' content='UserComments:0'>\n      <meta itemprop='headline' content='Dopamine Agonists and catastrophic Obsessive/Compulsive Disorders (2)'>\n      <hr>\n  </div>\n  <div itemscope itemtype='http://schema.org/DiscussionForumPosting'>\n      <div class='creator'>\n        <span>\n          <a href='/u/Radar47'><b itemprop='author'>Radar47</b></a>\n          \n          <time datetime='2012-01-13T13:08:32Z' itemprop='datePublished'>\n            2012-01-13 13:08:32 UTC\n          </time>\n        </span>\n        <span itemprop='position'>#8</span>\n      </div>\n      <div class='post' itemprop='articleBody'>\n        I read through all 70 odd pages of this thread last night thought it should be brought back to the front line again.<br><br>I know from my own families experience this thread really helped us to try understand what was happening to our brother.<br><br>I noticed new members were speaking of OCD's so maybe this thread might answer some of their questions.<br><br>Here's hoping<br><br><br>Radz x\n      </div>\n      <meta itemprop='interactionCount' content='UserLikes:0'>\n      <meta itemprop='interactionCount' content='UserComments:0'>\n      <meta itemprop='headline' content='Dopamine Agonists and catastrophic Obsessive/Compulsive Disorders (2)'>\n      <hr>\n  </div>\n  <div itemscope itemtype='http://schema.org/DiscussionForumPosting'>\n      <div class='creator'>\n        <span>\n          <a href='/u/ali_j'><b itemprop='author'>ali_j</b></a>\n          \n          <time datetime='2012-01-13T15:34:25Z' itemprop='datePublished'>\n            2012-01-13 15:34:25 UTC\n          </time>\n        </span>\n        <span itemprop='position'>#9</span>\n      </div>\n      <div class='post' itemprop='articleBody'>\n        im still havin probs with my das drug,and still the neuro has not done nothin bout it till i have the brain scan which is now got the app for beginin of february,i no i put it off,just everything got to me and at the time of askin i was goin through more stress and it just was rong time for me.to me i feel like im gettin worse,and also tears keep flowin cus i no its rong wot im doin but i can not stop,it got hold of me and has spiraled out of control.i no i belive in my religion ,and i pray alot,and i guess there is many folk out there that would not belive prayin helps the mind,nowin god is listernin to me,i belive he has his part in healin me to.but looks like im stook like this till ive had the brain scan and neuro decides then wot to do with my meds.is any other members in simualr postion as me,have a bad reaction to a da but feel like ur life is on hold cus of neuros desion wot to do?i feel lost and alone like this,and feel like no one understands how bad ive got<img src='/images/emoji/emoji_one/disappointed.png?v=3' alt=':disappointed:' title=':disappointed:' class='emoji' />\n      </div>\n      <meta itemprop='interactionCount' content='UserLikes:0'>\n      <meta itemprop='interactionCount' content='UserComments:0'>\n      <meta itemprop='headline' content='Dopamine Agonists and catastrophic Obsessive/Compulsive Disorders (2)'>\n      <hr>\n  </div>\n  <div itemscope itemtype='http://schema.org/DiscussionForumPosting'>\n      <div class='creator'>\n        <span>\n          <a href='/u/blueeyes47'><b itemprop='author'>blueeyes47</b></a>\n          \n          <time datetime='2012-01-13T19:53:36Z' itemprop='datePublished'>\n            2012-01-13 19:53:36 UTC\n          </time>\n        </span>\n        <span itemprop='position'>#10</span>\n      </div>\n      <div class='post' itemprop='articleBody'>\n        hi Radz<br><br>The good news is you wont need to refresh threads like this after the 17th January.  Because without stealing Parkinson's UK thunder, they are launching a dedicated and highly visible area on this forum for ICB's (Impulsive and compulsive behaviour) side effects.<br><br>So watch this space for next week!<br><br>regards<br>bluey\n      </div>\n      <meta itemprop='interactionCount' content='UserLikes:0'>\n      <meta itemprop='interactionCount' content='UserComments:0'>\n      <meta itemprop='headline' content='Dopamine Agonists and catastrophic Obsessive/Compulsive Disorders (2)'>\n      <hr>\n  </div>\n  <div itemscope itemtype='http://schema.org/DiscussionForumPosting'>\n      <div class='creator'>\n        <span>\n          <a href='/u/ali_j'><b itemprop='author'>ali_j</b></a>\n          \n          <time datetime='2012-01-13T20:21:28Z' itemprop='datePublished'>\n            2012-01-13 20:21:28 UTC\n          </time>\n        </span>\n        <span itemprop='position'>#11</span>\n      </div>\n      <div class='post' itemprop='articleBody'>\n        great stuff,<img src='/images/emoji/emoji_one/smile.png?v=3' alt=':smile:' title=':smile:' class='emoji' />\n      </div>\n      <meta itemprop='interactionCount' content='UserLikes:0'>\n      <meta itemprop='interactionCount' content='UserComments:0'>\n      <meta itemprop='headline' content='Dopamine Agonists and catastrophic Obsessive/Compulsive Disorders (2)'>\n      <hr>\n  </div>\n  <div itemscope itemtype='http://schema.org/DiscussionForumPosting'>\n      <div class='creator'>\n        <span>\n          <a href='/u/Radar47'><b itemprop='author'>Radar47</b></a>\n          \n          <time datetime='2012-01-13T21:04:50Z' itemprop='datePublished'>\n            2012-01-13 21:04:50 UTC\n          </time>\n        </span>\n        <span itemprop='position'>#12</span>\n      </div>\n      <div class='post' itemprop='articleBody'>\n        Thank you for that info Bluey, I do think this thread must be easily seen.  I have no doubt that many many others will gain so much knowledge from it.<br><br>I hope you are as well as you can be.<br><br>Radz xx\n      </div>\n      <meta itemprop='interactionCount' content='UserLikes:0'>\n      <meta itemprop='interactionCount' content='UserComments:0'>\n      <meta itemprop='headline' content='Dopamine Agonists and catastrophic Obsessive/Compulsive Disorders (2)'>\n      <hr>\n  </div>\n  <div itemscope itemtype='http://schema.org/DiscussionForumPosting'>\n      <div class='creator'>\n        <span>\n          <a href='/u/ali_j'><b itemprop='author'>ali_j</b></a>\n          \n          <time datetime='2012-01-23T18:06:47Z' itemprop='datePublished'>\n            2012-01-23 18:06:47 UTC\n          </time>\n        </span>\n        <span itemprop='position'>#13</span>\n      </div>\n      <div class='post' itemprop='articleBody'>\n        its still happinin to me spend spend spend,cry cry cry ,feel like poop,i thought spendin money is ment to make u feel good bought ur self,well it does when im actually doin it,but then it weres off when back home,i go low agin and just cry and wonder why me.ijust wish there somethin i can do now to stop me self from doin it,neuro still says i got to wait for feb for the scan agin ,but in mean time are just feelin crappy bout me self.i come on the laptop and try really hard to push me self,take me mind off it.but it dont last im then goin on ebay etc,lookin for wot i can buy over the internett.anyone out there who can give advice wot i can do now,cus neuro dont seem to be bothered just yet,no mater how much i tell her,just get the answer,dont wont to take u off mira just yet till we no wot we are facin with ur scan,one month to go, amonth to me feelin like a year rite now<img src='/images/emoji/emoji_one/rolling_eyes.png?v=3' alt=':rolling_eyes:' title=':rolling_eyes:' class='emoji' />and also were is the new area on the forum for ocds ,i thought it was goin to be here,ive been waitin for anyone for advice for me.<img src='/images/emoji/emoji_one/disappointed.png?v=3' alt=':disappointed:' title=':disappointed:' class='emoji' />\n      </div>\n      <meta itemprop='interactionCount' content='UserLikes:0'>\n      <meta itemprop='interactionCount' content='UserComments:0'>\n      <meta itemprop='headline' content='Dopamine Agonists and catastrophic Obsessive/Compulsive Disorders (2)'>\n      <hr>\n  </div>\n  <div itemscope itemtype='http://schema.org/DiscussionForumPosting'>\n      <div class='creator'>\n        <span>\n          <a href='/u/carolineb211'><b itemprop='author'>carolineb211</b></a>\n          \n          <time datetime='2012-01-23T20:54:19Z' itemprop='datePublished'>\n            2012-01-23 20:54:19 UTC\n          </time>\n        </span>\n        <span itemprop='position'>#14</span>\n      </div>\n      <div class='post' itemprop='articleBody'>\n        Stop dwelling on things you can't change and do something about the things you can !!\n      </div>\n      <meta itemprop='interactionCount' content='UserLikes:0'>\n      <meta itemprop='interactionCount' content='UserComments:0'>\n      <meta itemprop='headline' content='Dopamine Agonists and catastrophic Obsessive/Compulsive Disorders (2)'>\n      <hr>\n  </div>\n  <div itemscope itemtype='http://schema.org/DiscussionForumPosting'>\n      <div class='creator'>\n        <span>\n          <a href='/u/ali_j'><b itemprop='author'>ali_j</b></a>\n          \n          <time datetime='2012-01-23T20:58:17Z' itemprop='datePublished'>\n            2012-01-23 20:58:17 UTC\n          </time>\n        </span>\n        <span itemprop='position'>#15</span>\n      </div>\n      <div class='post' itemprop='articleBody'>\n        pardon,im not dwellin on anything caroline,ur post does not make sence to me,sorry<img src='/images/emoji/emoji_one/confused.png?v=3' alt=':confused:' title=':confused:' class='emoji' />\n      </div>\n      <meta itemprop='interactionCount' content='UserLikes:0'>\n      <meta itemprop='interactionCount' content='UserComments:0'>\n      <meta itemprop='headline' content='Dopamine Agonists and catastrophic Obsessive/Compulsive Disorders (2)'>\n      <hr>\n  </div>\n  <div itemscope itemtype='http://schema.org/DiscussionForumPosting'>\n      <div class='creator'>\n        <span>\n          <a href='/u/Drobb'><b itemprop='author'>Drobb</b></a>\n          \n          <time datetime='2012-01-23T22:15:23Z' itemprop='datePublished'>\n            2012-01-23 22:15:23 UTC\n          </time>\n        </span>\n        <span itemprop='position'>#16</span>\n      </div>\n      <div class='post' itemprop='articleBody'>\n        ali, if your neuro putting you off and your obviously feeling desperate and frightened either call pduk for moral support or beg your neuro to bring apt forward to simply get it over with, that way you and neuro can plan ahead best course of action for you. If your still not ready for mri/scan? then write down your thoughts about meds and how you feel their impacting on you and evaluate others experiences of meds increasing/decreasing or even changing maybe and phone neuro/pd nurse/pduk with your thoughts and see what advice you get. I'm not sure this is the best plan but at least it will give you a self-focus and take up some of that time when your feeling low. Message me if you need to get everything of your chest. Sorry i'm  not much help :( <br><br>Thinking of you as always <br><br>Diane\n      </div>\n      <meta itemprop='interactionCount' content='UserLikes:0'>\n      <meta itemprop='interactionCount' content='UserComments:0'>\n      <meta itemprop='headline' content='Dopamine Agonists and catastrophic Obsessive/Compulsive Disorders (2)'>\n      <hr>\n  </div>\n  <div itemscope itemtype='http://schema.org/DiscussionForumPosting'>\n      <div class='creator'>\n        <span>\n          <a href='/u/Tootsie'><b itemprop='author'>Tootsie</b></a>\n          \n          <time datetime='2012-01-24T06:52:49Z' itemprop='datePublished'>\n            2012-01-24 06:52:49 UTC\n          </time>\n        </span>\n        <span itemprop='position'>#17</span>\n      </div>\n      <div class='post' itemprop='articleBody'>\n        Life is not about expecting, hoping, and wishing. It is about doing, being and becoming. The more you depend on forces outside yourself the more you are dominated by them.Stop looking for a scapegoat in your life, but be willing to face the truth within yourself and right your own wrongs.<br> <br>  \"A Guide For The Advanced Soul\"    - Susan Hayward.<br><br> PD changes how you feel and what you do but it will only change who you are if you let it.\n      </div>\n      <meta itemprop='interactionCount' content='UserLikes:0'>\n      <meta itemprop='interactionCount' content='UserComments:0'>\n      <meta itemprop='headline' content='Dopamine Agonists and catastrophic Obsessive/Compulsive Disorders (2)'>\n      <hr>\n  </div>\n  <div itemscope itemtype='http://schema.org/DiscussionForumPosting'>\n      <div class='creator'>\n        <span>\n          <a href='/u/Tootsie'><b itemprop='author'>Tootsie</b></a>\n          \n          <time datetime='2012-01-24T07:17:16Z' itemprop='datePublished'>\n            2012-01-24 07:17:16 UTC\n          </time>\n        </span>\n        <span itemprop='position'>#18</span>\n      </div>\n      <div class='post' itemprop='articleBody'>\n        My apologies for straying off topic. Its just that although I have real sympathy for people who have severe problems in their lives from the awful side effects of Parkinsons medications and that these issues impact on their lives with sometimes tragic results, there  seems to be a culture among some people that means that they blame everything that is wrong in their lives on PD and PD meds. Its similar to  some people who are talented artists blaming their \"artistic temperament\" for being rude, illmannered and anti social.<br><br>  PD changes what you do and how you do it. It will only change who you are if you let it. <br><br>   Now I sound condiscending.<img src='/images/emoji/emoji_one/flushed.png?v=3' alt=':flushed:' title=':flushed:' class='emoji' /><br><br>   I shall now apologise once more and make my exit. (stage left)<br><br>   Toots\n      </div>\n      <meta itemprop='interactionCount' content='UserLikes:0'>\n      <meta itemprop='interactionCount' content='UserComments:0'>\n      <meta itemprop='headline' content='Dopamine Agonists and catastrophic Obsessive/Compulsive Disorders (2)'>\n      <hr>\n  </div>\n  <div itemscope itemtype='http://schema.org/DiscussionForumPosting'>\n      <div class='creator'>\n        <span>\n          <a href='/u/carolineb211'><b itemprop='author'>carolineb211</b></a>\n          \n          <time datetime='2012-01-24T07:29:53Z' itemprop='datePublished'>\n            2012-01-24 07:29:53 UTC\n          </time>\n        </span>\n        <span itemprop='position'>#19</span>\n      </div>\n      <div class='post' itemprop='articleBody'>\n        Hi Tootsie,<br><br>That is exactly what I was trying to say.!! <br><br>Caroline x\n      </div>\n      <meta itemprop='interactionCount' content='UserLikes:0'>\n      <meta itemprop='interactionCount' content='UserComments:0'>\n      <meta itemprop='headline' content='Dopamine Agonists and catastrophic Obsessive/Compulsive Disorders (2)'>\n      <hr>\n  </div>\n  <div itemscope itemtype='http://schema.org/DiscussionForumPosting'>\n      <div class='creator'>\n        <span>\n          <a href='/u/ali_j'><b itemprop='author'>ali_j</b></a>\n          \n          <time datetime='2012-01-24T07:53:57Z' itemprop='datePublished'>\n            2012-01-24 07:53:57 UTC\n          </time>\n        </span>\n        <span itemprop='position'>#20</span>\n      </div>\n      <div class='post' itemprop='articleBody'>\n        drobb,i had a long convo with a nurse off puk helpline,a while back,she was very helpful,and very kind too.my app wont be brought forward now cus its in feb ,not long to go ,i guess,but feels ages to me,i wonted to no if any one was havin the prob iam ,the waitin game ,waitin for meds to be changed,waitin for another scan cus neuro thinks there more things goin on with parkinisum.and wot ur doin to help your self in the mean time with the effect the mira is havin on you,im spendin money like anything.all i can think of is dont go out ,and i wont.but its then to keep off ebay etc.beci last nite took my visa card off me,im so frustrated about it,but deep down i no she doin the rite thing.i really wish i never put the scan off before xmas when they offered it me,ino its my fault i would have answers by now,but i got scared.\n      </div>\n      <meta itemprop='interactionCount' content='UserLikes:0'>\n      <meta itemprop='interactionCount' content='UserComments:0'>\n      <meta itemprop='headline' content='Dopamine Agonists and catastrophic Obsessive/Compulsive Disorders (2)'>\n      <hr>\n  </div>\n\n  <div role='navigation' itemscope itemtype='http://schema.org/SiteNavigationElement'>\n      <span itemprop='name'><b><a rel=\"next\" itemprop=\"url\" href=\"/t/dopamine-agonists-and-catastrophic-obsessive-compulsive-disorders-2/416?page=2\">next page →</a></b></span>\n  </div>\n\n\n\n\n\n    </div>\n    <footer class=\"container\">\n      <nav class='crawler-nav' itemscope itemtype='http://schema.org/SiteNavigationElement'>\n        <a href='/'>Home</a>\n        <a href=\"/categories\">Categories</a>\n        <a href=\"/guidelines\">FAQ/Guidelines</a>\n        <a href=\"/tos\">Terms of Service</a>\n        <a href=\"/privacy\">Privacy Policy</a>\n      </nav>\n      <p class='powered-by-link'>Powered by <a href=\"https://www.discourse.org\">Discourse</a>, best viewed with JavaScript enabled</p>\n    </footer>\n    \n  </body>\n  \n</html>\n",
  "url": "https://forum.parkinsons.org.uk/t/dopamine-agonists-and-catastrophic-obsessive-compulsive-disorders-2/416"
}