{
  "contentId": "51847df0-8866-11e9-8f96-97f71b5221d6",
  "html": "<!DOCTYPE html>\n<html lang=\"en\">\n  <head>\n    <meta charset=\"utf-8\">\n    <title>Does dance help with Parkinson&#39;s symptoms? - Research opportunities - Parkinson&#39;s UK Forum</title>\n    <meta name=\"description\" content=\"Researchers at the University of Hertfordshire are looking for people with and without Parkinson’s to take part in a study examining the benefits of dance on the symptoms of Parkinson’s. If you’re over the age of 50, you&amp;hellip;\">\n    <meta name=\"author\" content=\"\">\n<meta name=\"generator\" content=\"Discourse 2.2.5 - https://github.com/discourse/discourse version c294ff3609f988dcafb742e91606d60ca13b794d\">\n<link rel=\"icon\" type=\"image/png\" href=\"https://forum.parkinsons.org.uk/uploads/db7928/original/2X/3/311fc84f89f49f38601a2f16b295b6f03d3ce5dd.jpg\">\n<link rel=\"apple-touch-icon\" type=\"image/png\" href=\"https://forum.parkinsons.org.uk/uploads/db7928/original/2X/3/311fc84f89f49f38601a2f16b295b6f03d3ce5dd.jpg\">\n<meta name=\"theme-color\" content=\"#ffffff\">\n<meta name=\"viewport\" content=\"width=device-width, minimum-scale=1.0, maximum-scale=1.0, user-scalable=yes\">\n<link rel=\"canonical\" href=\"https://forum.parkinsons.org.uk/t/does-dance-help-with-parkinsons-symptoms/4300?page=2\" />\n<script type=\"application/ld+json\">{\"@context\":\"http://schema.org\",\"@type\":\"WebSite\",\"url\":\"https://forum.parkinsons.org.uk\",\"potentialAction\":{\"@type\":\"SearchAction\",\"target\":\"https://forum.parkinsons.org.uk/search?q={search_term_string}\",\"query-input\":\"required name=search_term_string\"}}</script>\n<link rel=\"search\" type=\"application/opensearchdescription+xml\" href=\"https://forum.parkinsons.org.uk/opensearch.xml\" title=\"Parkinson&#39;s UK Forum Search\">\n\n      <link href=\"/stylesheets/desktop_f99246ae801b083d3e4cca979d0dade8615b39ac.css?__ws=forum.parkinsons.org.uk\" media=\"all\" rel=\"stylesheet\" data-target=\"desktop\" data-theme-id=\"12\"/>\n      <link href=\"/stylesheets/desktop_theme_12_5d27531cf43f9df0c03a6a6ec3109dd05f9dfc49.css?__ws=forum.parkinsons.org.uk\" media=\"all\" rel=\"stylesheet\" data-target=\"desktop_theme\" data-theme-id=\"12\"/>\n    <link href=\"https://fonts.googleapis.com/css?family=Open+Sans\" rel=\"stylesheet\">\n\n    <meta id=\"data-ga-universal-analytics\" data-tracking-code=\"UA-4855628-1\" data-json=\"{&quot;cookieDomain&quot;:&quot;auto&quot;}\" data-auto-link-domains=\"\">\n\n<link rel='preload' href='/assets/google-universal-analytics-f35b4da49411e6f5559073523aab983da483976a3954c79c756f8579f6fbd6ef.js' as='script'/>\n<script src='/assets/google-universal-analytics-f35b4da49411e6f5559073523aab983da483976a3954c79c756f8579f6fbd6ef.js'></script>\n\n      <link rel=\"alternate\" type=\"application/rss+xml\" title=\"RSS feed of &#39;Does dance help with Parkinson&#39;s symptoms?&#39;\" href=\"https://forum.parkinsons.org.uk/t/does-dance-help-with-parkinsons-symptoms/4300.rss\" />\n  <meta property=\"og:site_name\" content=\"Parkinson&#39;s UK Forum\" />\n<meta name=\"twitter:card\" content=\"summary\" />\n<meta name=\"twitter:image\" content=\"https://forum.parkinsons.org.uk/uploads/db7928/original/2X/3/311fc84f89f49f38601a2f16b295b6f03d3ce5dd.jpg\" />\n<meta property=\"og:image\" content=\"https://forum.parkinsons.org.uk/uploads/db7928/original/2X/3/311fc84f89f49f38601a2f16b295b6f03d3ce5dd.jpg\" />\n<meta property=\"og:url\" content=\"https://forum.parkinsons.org.uk/t/does-dance-help-with-parkinsons-symptoms/4300?page=2\" />\n<meta name=\"twitter:url\" content=\"https://forum.parkinsons.org.uk/t/does-dance-help-with-parkinsons-symptoms/4300?page=2\" />\n<meta property=\"og:title\" content=\"Does dance help with Parkinson&#39;s symptoms?\" />\n<meta name=\"twitter:title\" content=\"Does dance help with Parkinson&#39;s symptoms?\" />\n<meta property=\"og:description\" content=\"Those with mild pd symptoms can go to a normal dance session. Folk dance club welcome beginners.\" />\n<meta name=\"twitter:description\" content=\"Those with mild pd symptoms can go to a normal dance session. Folk dance club welcome beginners.\" />\n<meta property=\"article:published_time\" content=\"2011-06-12T08:04:07+00:00\" />\n<meta property=\"og:ignore_canonical\" content=\"true\" />\n\n      <link rel=\"prev\" href=\"/t/does-dance-help-with-parkinsons-symptoms/4300\">\n      <link rel=\"next\" href=\"/t/does-dance-help-with-parkinsons-symptoms/4300?page=3\">\n\n\n    \n  </head>\n  <body class=\"crawler\">\n    <header role=\"banner\">\n    <div class=\"region region-header\">\n        <div class=\"region-header-wrapper\">\n            <div id=\"block-parkinsons-d8-branding\" class=\"block block-system block-system-branding-block\">\n                <a href=\"/\" title=\"Home\" rel=\"home\" class=\"site-logo\">\n                    <img src=\"https://forum.parkinsons.org.uk/uploads/db7928/original/2X/8/862bb7d172e7d127e7f3e147ec43594aa62ac945.png\" alt=\"Parkinson's UK. Change Attitudes. Find a cure. Join us.\">\n                </a>\n            </div>\n            <div id=\"block-helpline\" class=\"block block-block-content block-block-content871cd5af-b938-4947-9dc0-d5c211d08fe3 style-phone\">\n                <div class=\"field field--name-field-link field--type-link field--label-hidden field__item\"><a href=\"tel:+448088000303\">Helpline 0808 800 0303</a></div>\n            </div>\n            <div id=\"block-shop\" class=\"block block-block-content block-block-content6fba5ae5-7797-49cd-8367-f321d8111cd6 style-regular\">\n                <div class=\"field field--name-field-link field--type-link field--label-hidden field__item\"><a href=\"https://shop.parkinsons.org.uk\">Shop</a></div>\n            </div>\n        </div>\n    </div>\n</header>\n\n\n<script src=\"/theme-javascripts/b7e9763fcb584fc8265c56a9f557cd6d2e1e8ed8.js?__ws=forum.parkinsons.org.uk\"></script>\n    <header>\n      <a href=\"/\">\n          <img src=\"https://forum.parkinsons.org.uk/uploads/db7928/original/2X/8/862bb7d172e7d127e7f3e147ec43594aa62ac945.png\" alt=\"Parkinson&#39;s UK Forum\" id=\"site-logo\" style=\"max-width: 150px;\">\n      </a>\n    </header>\n    <div id=\"main-outlet\" class=\"wrap\">\n      <h1>\n  <a href=\"/t/does-dance-help-with-parkinsons-symptoms/4300\">Does dance help with Parkinson&#39;s symptoms?</a>\n</h1>\n\n<div id='breadcrumbs'>\n    <div id=\"breadcrumb-0\" itemscope itemtype=\"http://data-vocabulary.org/Breadcrumb\"\n        itemref=\"breadcrumb-1\"\n      >\n      <a href=\"/c/research\" itemprop=\"url\">\n        <span itemprop=\"title\">Research</span>\n      </a>\n    </div>\n    <div id=\"breadcrumb-1\" itemscope itemtype=\"http://data-vocabulary.org/Breadcrumb\"\n>\n      <a href=\"/c/research/research-opportunities\" itemprop=\"url\">\n        <span itemprop=\"title\">Research opportunities</span>\n      </a>\n    </div>\n</div>\n\n\n\n\n\n<hr>\n\n\n  <div itemscope itemtype='http://schema.org/DiscussionForumPosting'>\n      <div class='creator'>\n        <span>\n          <a href='/u/mandybike'><b itemprop='author'>mandybike</b></a>\n          \n          <time datetime='2011-06-12T08:04:07Z' itemprop='datePublished'>\n            2011-06-12 08:04:07 UTC\n          </time>\n        </span>\n        <span itemprop='position'>#21</span>\n      </div>\n      <div class='post' itemprop='articleBody'>\n        Those with mild pd symptoms can go to a normal dance session. Folk dance club welcome beginners.\n      </div>\n      <meta itemprop='interactionCount' content='UserLikes:0'>\n      <meta itemprop='interactionCount' content='UserComments:0'>\n      <meta itemprop='headline' content='Does dance help with Parkinson&#39;s symptoms?'>\n      <hr>\n  </div>\n  <div itemscope itemtype='http://schema.org/DiscussionForumPosting'>\n      <div class='creator'>\n        <span>\n          <a href='/u/chrissie_w'><b itemprop='author'>chrissie_w</b></a>\n          \n          <time datetime='2011-06-14T09:36:49Z' itemprop='datePublished'>\n            2011-06-14 09:36:49 UTC\n          </time>\n        </span>\n        <span itemprop='position'>#22</span>\n      </div>\n      <div class='post' itemprop='articleBody'>\n        Hello, all. I've only just got back to the forum; still cant quite work it out! Thanks for your replies and pleased to see such interest in dancing for Parkinsons. I have searched the web again and found a few sites I had missed before, but NOTHING remotely near this part of the country (Chelmsford, Essex). We have a good dance school in Chelmsford and I am sure I could persuade them to set up a 'Dance for Parkinsons' class. I know it would be popular. Is there any training they could do?<br>Keep dancing <img src='/images/emoji/emoji_one/grin.png?v=3' alt=':grin:' title=':grin:' class='emoji' />\n      </div>\n      <meta itemprop='interactionCount' content='UserLikes:0'>\n      <meta itemprop='interactionCount' content='UserComments:0'>\n      <meta itemprop='headline' content='Does dance help with Parkinson&#39;s symptoms?'>\n      <hr>\n  </div>\n  <div itemscope itemtype='http://schema.org/DiscussionForumPosting'>\n      <div class='creator'>\n        <span>\n          <a href='/u/Alice_in_Wonderland'><b itemprop='author'>Alice_in_Wonderland</b></a>\n          \n          <time datetime='2011-06-14T22:32:12Z' itemprop='datePublished'>\n            2011-06-14 22:32:12 UTC\n          </time>\n        </span>\n        <span itemprop='position'>#23</span>\n      </div>\n      <div class='post' itemprop='articleBody'>\n        I found the dance sessions I attended at the WPC in Glasgow last year quite a revelation.<br>It was great fun and everyone moved round the room without any problems and we did not bump into each other at all. I find it very difficult not to bump into other people in crowded situations. Does anyone else have this problem or know why this happens ?<br><br>I would love to join a dance class, but in North Wales there seems to be very little available for adults that is not too far to go and is suitable for someone with PD.  Does anyone know of any groups I could join in Conwy county, eg Llandudno or Colwyn Bay?<img src='/images/emoji/emoji_one/question.png?v=3' alt=':question:' title=':question:' class='emoji' />\n      </div>\n      <meta itemprop='interactionCount' content='UserLikes:0'>\n      <meta itemprop='interactionCount' content='UserComments:0'>\n      <meta itemprop='headline' content='Does dance help with Parkinson&#39;s symptoms?'>\n      <hr>\n  </div>\n  <div itemscope itemtype='http://schema.org/DiscussionForumPosting'>\n      <div class='creator'>\n        <span>\n          <a href='/u/Lorna'><b itemprop='author'>Lorna</b></a>\n          \n          <time datetime='2011-06-23T15:38:52Z' itemprop='datePublished'>\n            2011-06-23 15:38:52 UTC\n          </time>\n        </span>\n        <span itemprop='position'>#24</span>\n      </div>\n      <div class='post' itemprop='articleBody'>\n        Hi all,<br>     Have not posted for a little while , main reason being low feeling  - must be something in the air , seems to be quite a few of us struggling lately. Am working through new meds. regime as well , so every morning , have to pull myself up by the boot straps , so to speak.<br>   Anyway, this is to encourage , cos it's a good day today !<br>This is the 5 th week of the class i've been doing to for pwp's. Today a chap came down from London to show us Indian swinging clubs.     No , it's nothing to do with pole dancing or suchlike , sorry gentlemen.<br> Have a look on ' you tube ' for a demo !<br>The exercise was really fantastic , easy to follow and , best of all , my stiff shoulder feels so good.<br>We must try to get more of these classes set up around the country , so many would benefit. Next week , some PD nurses from a different area , are coming to find out what it's all about.<br> I better get practising for next week !      <img src='/images/emoji/emoji_one/smile.png?v=3' alt=':smile:' title=':smile:' class='emoji' />\n      </div>\n      <meta itemprop='interactionCount' content='UserLikes:0'>\n      <meta itemprop='interactionCount' content='UserComments:0'>\n      <meta itemprop='headline' content='Does dance help with Parkinson&#39;s symptoms?'>\n      <hr>\n  </div>\n  <div itemscope itemtype='http://schema.org/DiscussionForumPosting'>\n      <div class='creator'>\n        <span>\n          <a href='/u/titan'><b itemprop='author'>titan</b></a>\n          \n          <time datetime='2011-06-23T19:56:15Z' itemprop='datePublished'>\n            2011-06-23 19:56:15 UTC\n          </time>\n        </span>\n        <span itemprop='position'>#25</span>\n      </div>\n      <div class='post' itemprop='articleBody'>\n        Hi Lorna,<br>        Sounds different,exercise using what could be classed as weapons.Seeing as my sons do Martial arts,i,ll go and have a look.Will get back to you on what i and they think.Mind you our living room is that small we would be knocking each other out if trying it at home.Keep it up though,sounds like physically its doing you good.<br>        Mentally,take my hand and we shall help each other climb out of this low that ive dragged us into.Wimbledon is in full swing,so with clubs and rackets lets beat the blues and serve some aces.<img src='/images/emoji/emoji_one/smile.png?v=3' alt=':smile:' title=':smile:' class='emoji' /><br>                   Tight hold now<br>                         Titan\n      </div>\n      <meta itemprop='interactionCount' content='UserLikes:0'>\n      <meta itemprop='interactionCount' content='UserComments:0'>\n      <meta itemprop='headline' content='Does dance help with Parkinson&#39;s symptoms?'>\n      <hr>\n  </div>\n  <div itemscope itemtype='http://schema.org/DiscussionForumPosting'>\n      <div class='creator'>\n        <span>\n          <a href='/u/Lorna'><b itemprop='author'>Lorna</b></a>\n          \n          <time datetime='2011-06-23T20:15:18Z' itemprop='datePublished'>\n            2011-06-23 20:15:18 UTC\n          </time>\n        </span>\n        <span itemprop='position'>#26</span>\n      </div>\n      <div class='post' itemprop='articleBody'>\n        T.<br>  Dusting off the spiders webs , there's my racket, off we go.<br>  Aces lining up to be served.  <img src='/images/emoji/emoji_one/smile.png?v=3' alt=':smile:' title=':smile:' class='emoji' /><br>Note of warning to any other potential club swingers , better do it outside !<br>I pushed back my settee and switched on Elton -- could do the basic moves in that space , but ideally -- a field or parade ground ! You're right , Titan   <img src='/images/emoji/emoji_one/rolling_eyes.png?v=3' alt=':rolling_eyes:' title=':rolling_eyes:' class='emoji' />\n      </div>\n      <meta itemprop='interactionCount' content='UserLikes:0'>\n      <meta itemprop='interactionCount' content='UserComments:0'>\n      <meta itemprop='headline' content='Does dance help with Parkinson&#39;s symptoms?'>\n      <hr>\n  </div>\n  <div itemscope itemtype='http://schema.org/DiscussionForumPosting'>\n      <div class='creator'>\n        <span>\n          <a href='/u/titan'><b itemprop='author'>titan</b></a>\n          \n          <time datetime='2011-06-23T21:00:24Z' itemprop='datePublished'>\n            2011-06-23 21:00:24 UTC\n          </time>\n        </span>\n        <span itemprop='position'>#27</span>\n      </div>\n      <div class='post' itemprop='articleBody'>\n        Lorna,<br>      Had a look and the club swinging looks like good physio but it would have to be gradually introduced.The footage i watched,the guy had his arms in all sorts of weird positions.My sons were not to impressed though.If you saw them in action you would understand why,the physical moves and kicks they use,and the flexibility would have you amazed.<br>      Would be good for pwp though.<br>                keep it up<br>                   Titan\n      </div>\n      <meta itemprop='interactionCount' content='UserLikes:0'>\n      <meta itemprop='interactionCount' content='UserComments:0'>\n      <meta itemprop='headline' content='Does dance help with Parkinson&#39;s symptoms?'>\n      <hr>\n  </div>\n  <div itemscope itemtype='http://schema.org/DiscussionForumPosting'>\n      <div class='creator'>\n        <span>\n          <a href='/u/Lorna'><b itemprop='author'>Lorna</b></a>\n          \n          <time datetime='2011-06-23T21:25:12Z' itemprop='datePublished'>\n            2011-06-23 21:25:12 UTC\n          </time>\n        </span>\n        <span itemprop='position'>#28</span>\n      </div>\n      <div class='post' itemprop='articleBody'>\n        HI Titan,<br>   Have also been looking on the you tube films of Indian Club swinging and see that it was even an Olympic sport , early in the 20th century.<br>  We learned only a few basic moves , it was very enjoyable , done in a small group with lively music, though i think any type, fast or slow would be ok.<br> The potential for display , is also there.<br>It would be good if i could find a proper instructor  for the group, as this is a whole new activity , aside from dance/ exercise.<br> Its evening time , and my back and shoulder still feel good!<br>Can't be bad.<br>Lorna.\n      </div>\n      <meta itemprop='interactionCount' content='UserLikes:0'>\n      <meta itemprop='interactionCount' content='UserComments:0'>\n      <meta itemprop='headline' content='Does dance help with Parkinson&#39;s symptoms?'>\n      <hr>\n  </div>\n  <div itemscope itemtype='http://schema.org/DiscussionForumPosting'>\n      <div class='creator'>\n        <span>\n          <a href='/u/Carine_Lewis'><b itemprop='author'>Carine_Lewis</b></a>\n          \n          <time datetime='2011-06-28T09:27:39Z' itemprop='datePublished'>\n            2011-06-28 09:27:39 UTC\n          </time>\n        </span>\n        <span itemprop='position'>#29</span>\n      </div>\n      <div class='post' itemprop='articleBody'>\n        Hi all<br><br>We have now added a new venue (and therefore new dates) for our research looking at the benefits that dance can have on Parkinson's. We will now be running once weekly sessions at the University of Hertfordshire, based in Hatfield starting the last week of September. <br><br>If you are interested in taking part, or wish to find out more information or whether you are eligible for the study, please contact the researchers directly:<br>  Carine Lewis, <br>Project Coordinator  <br>School of Psychology, <br>University of Hertfordshire <br> Hertfordshire <br>AL10 9AB   <br>Tel: 01707 281340  <br>Email: <a href=\"/cdn-cgi/l/email-protection#96f2f7f8f5f3d6fef3e4e2e5b8f7f5b8e3fd\" target=\"_blank\"><span class=\"__cf_email__\" data-cfemail=\"c6a2a7a8a5a386aea3b4b2b5e8a7a5e8b3ad\">[email&#160;protected]</span></a>\n      </div>\n      <meta itemprop='interactionCount' content='UserLikes:0'>\n      <meta itemprop='interactionCount' content='UserComments:0'>\n      <meta itemprop='headline' content='Does dance help with Parkinson&#39;s symptoms?'>\n      <hr>\n  </div>\n  <div itemscope itemtype='http://schema.org/DiscussionForumPosting'>\n      <div class='creator'>\n        <span>\n          <a href='/u/Lorna'><b itemprop='author'>Lorna</b></a>\n          \n          <time datetime='2011-07-02T12:22:37Z' itemprop='datePublished'>\n            2011-07-02 12:22:37 UTC\n          </time>\n        </span>\n        <span itemprop='position'>#30</span>\n      </div>\n      <div class='post' itemprop='articleBody'>\n        Hi all,<br>    I expect you're wondering what I got up to at the last session of Dance/exercise for pwp.<br> Well , it was Tap this week !  There we were kitted out with umbrella's and walking sticks, and even one fellow had a broom handle ! The music from ' Singing in the rain' came drifting over the speakers and we learned a simple routine with very easy steps, over the next hour and a half.<br>   Really good fun , and satisfying.<br>I was pleased because the session was attended by ; Get ready for fancy title -- the Community Matron in P.D.  who , give her , her due, did join in , in between making and receiving phone calls !  I'm sure they'd have never stood for that at the Royal Ballet !<br> When all was over , I had a chat with her and she had to agree, it was marvellous , the way we were moving all through the session. There is one very 'tubby' man there, who has difficulty even standing. Well I won't say he was quite as good as Gene Kelly, but with a bit more practise , well...................... you never know !<br> The P.D. Matron was saying how hard it is to get people to try new things. And how reluctant they are to try an unfamiliar activity.  Makes me very frustrated , as I feel incredibly lucky to be able to go to these sessions, and am concerned it may not continue if not enough people come.<br> Our teacher is working towards having us make a short video , to show , not sure where , as only a small number attend the local P.D. branch meetings.<br> Anyway, if you get the chance and already have , or even try to find a teacher to run  such an activity , I thoroughly recommend it.<br> Better than sitting in front of our screens too much, be they Computer or T.V.<br><br> Found two good quotes to encourage you ;<br><br>  If you can talk, you can sing.<br>  If you can walk (even if only a little)<br>  you can dance.<br><br>     AND<br><br>Life isn't about waiting for the storm to be over.<br>It's about learning to dance in the rain.<br><br>All the best<br>Lorna.\n      </div>\n      <meta itemprop='interactionCount' content='UserLikes:0'>\n      <meta itemprop='interactionCount' content='UserComments:0'>\n      <meta itemprop='headline' content='Does dance help with Parkinson&#39;s symptoms?'>\n      <hr>\n  </div>\n  <div itemscope itemtype='http://schema.org/DiscussionForumPosting'>\n      <div class='creator'>\n        <span>\n          <a href='/u/ray_of_sunshine'><b itemprop='author'>ray_of_sunshine</b></a>\n          \n          <time datetime='2011-07-02T15:23:13Z' itemprop='datePublished'>\n            2011-07-02 15:23:13 UTC\n          </time>\n        </span>\n        <span itemprop='position'>#31</span>\n      </div>\n      <div class='post' itemprop='articleBody'>\n        Who was this Jean Kelly lady anyway?\n      </div>\n      <meta itemprop='interactionCount' content='UserLikes:0'>\n      <meta itemprop='interactionCount' content='UserComments:0'>\n      <meta itemprop='headline' content='Does dance help with Parkinson&#39;s symptoms?'>\n      <hr>\n  </div>\n  <div itemscope itemtype='http://schema.org/DiscussionForumPosting'>\n      <div class='creator'>\n        <span>\n          <a href='/u/Lorna'><b itemprop='author'>Lorna</b></a>\n          \n          <time datetime='2011-07-02T16:28:41Z' itemprop='datePublished'>\n            2011-07-02 16:28:41 UTC\n          </time>\n        </span>\n        <span itemprop='position'>#32</span>\n      </div>\n      <div class='post' itemprop='articleBody'>\n        Jean Kelly ?<br><br>Sister of Freda Stare i think , Ray , isn't she ?\n      </div>\n      <meta itemprop='interactionCount' content='UserLikes:0'>\n      <meta itemprop='interactionCount' content='UserComments:0'>\n      <meta itemprop='headline' content='Does dance help with Parkinson&#39;s symptoms?'>\n      <hr>\n  </div>\n  <div itemscope itemtype='http://schema.org/DiscussionForumPosting'>\n      <div class='creator'>\n        <span>\n          <a href='/u/ray_of_sunshine'><b itemprop='author'>ray_of_sunshine</b></a>\n          \n          <time datetime='2011-07-02T20:08:40Z' itemprop='datePublished'>\n            2011-07-02 20:08:40 UTC\n          </time>\n        </span>\n        <span itemprop='position'>#33</span>\n      </div>\n      <div class='post' itemprop='articleBody'>\n        Oh yes, they were 2 RAF pilots: Ginger and Rogers\n      </div>\n      <meta itemprop='interactionCount' content='UserLikes:0'>\n      <meta itemprop='interactionCount' content='UserComments:0'>\n      <meta itemprop='headline' content='Does dance help with Parkinson&#39;s symptoms?'>\n      <hr>\n  </div>\n  <div itemscope itemtype='http://schema.org/DiscussionForumPosting'>\n      <div class='creator'>\n        <span>\n          <a href='/u/Research'><b itemprop='author'>Research</b></a>\n          \n          <time datetime='2011-08-19T16:44:21Z' itemprop='datePublished'>\n            2011-08-19 16:44:21 UTC\n          </time>\n        </span>\n        <span itemprop='position'>#34</span>\n      </div>\n      <div class='post' itemprop='articleBody'>\n        \"Prevention: Activity is the best medicine\"<br><br>That's the title of a really interesting article in the journal Nature. It's about how lifestyle factors like dancing might help stave off dementia. <br><br>Take a look:<br> <br><a href=\"https://www.nature.com/nature/journal/v475/n7355_supp/full/475S16a.html\" target=\"_blank\">http://www.nature.com/nature/journal/v475/n7355_supp/full/475S16a.html</a>\n      </div>\n      <meta itemprop='interactionCount' content='UserLikes:0'>\n      <meta itemprop='interactionCount' content='UserComments:0'>\n      <meta itemprop='headline' content='Does dance help with Parkinson&#39;s symptoms?'>\n      <hr>\n  </div>\n  <div itemscope itemtype='http://schema.org/DiscussionForumPosting'>\n      <div class='creator'>\n        <span>\n          <a href='/u/lindylanka'><b itemprop='author'>lindylanka</b></a>\n          \n          <time datetime='2011-08-29T04:16:56Z' itemprop='datePublished'>\n            2011-08-29 04:16:56 UTC\n          </time>\n        </span>\n        <span itemprop='position'>#35</span>\n      </div>\n      <div class='post' itemprop='articleBody'>\n        Are there any plans for this to come to Birmingham or anywhere close. I would love to take part in this, but London and Manchester are too far.......\n      </div>\n      <meta itemprop='interactionCount' content='UserLikes:0'>\n      <meta itemprop='interactionCount' content='UserComments:0'>\n      <meta itemprop='headline' content='Does dance help with Parkinson&#39;s symptoms?'>\n      <hr>\n  </div>\n  <div itemscope itemtype='http://schema.org/DiscussionForumPosting'>\n      <div class='creator'>\n        <span>\n          <a href='/u/Lorna'><b itemprop='author'>Lorna</b></a>\n          \n          <time datetime='2012-06-14T18:55:58Z' itemprop='datePublished'>\n            2012-06-14 18:55:58 UTC\n          </time>\n        </span>\n        <span itemprop='position'>#36</span>\n      </div>\n      <div class='post' itemprop='articleBody'>\n        Hi All,<br>   Just to give those interested, an update on this subject.<br>Not so good news first. Today I learned that our Dance and exercise  sessions for PD. were finishing. <img src='/images/emoji/emoji_one/disappointed.png?v=3' alt=':disappointed:' title=':disappointed:' class='emoji' /><br>  The reason, falling numbers , combined with injuries.<br>I'm afraid I fall into the injuries group, as a while ago , I fell and caused trauma to my knee. Not at the class , I hasten to reassure you. It happened at home ! I've been managing on crutches for about 3 months now as advised by the Dr, who hopes by taking this 'wait and see approach', I may avoid surgery.<br>I'm hoping he's right.<br> Now for some better news. Our teacher is going to be involved with the English National Ballet initive for the introduction of 'Dancing for Parkinsons' to a wider number of people in the U.K.  Bournemouth, Dorset, Liverpool, and the South-East area are  the places planned.<br> If you'd like to find out more, type  English National Ballet, Parkinson's. into your search engine.<br>You can also see part of a documentary shown earlier this year , where Toby Anstis , who is also a trained dancer as well as a DJ, takes part in a session.<br>Hopefully I'll be on the mend soon, and get into it again. The classes are due to start in the Autumn.<br>I hope this may be of interest.<br>All the best.\n      </div>\n      <meta itemprop='interactionCount' content='UserLikes:0'>\n      <meta itemprop='interactionCount' content='UserComments:0'>\n      <meta itemprop='headline' content='Does dance help with Parkinson&#39;s symptoms?'>\n      <hr>\n  </div>\n  <div itemscope itemtype='http://schema.org/DiscussionForumPosting'>\n      <div class='creator'>\n        <span>\n          <a href='/u/Eileenpatricia'><b itemprop='author'>Eileenpatricia</b></a>\n          \n          <time datetime='2012-06-14T21:27:36Z' itemprop='datePublished'>\n            2012-06-14 21:27:36 UTC\n          </time>\n        </span>\n        <span itemprop='position'>#37</span>\n      </div>\n      <div class='post' itemprop='articleBody'>\n        Thanks for that.  I hope this initiative gets going sooner rather than later.\n      </div>\n      <meta itemprop='interactionCount' content='UserLikes:0'>\n      <meta itemprop='interactionCount' content='UserComments:0'>\n      <meta itemprop='headline' content='Does dance help with Parkinson&#39;s symptoms?'>\n      <hr>\n  </div>\n  <div itemscope itemtype='http://schema.org/DiscussionForumPosting'>\n      <div class='creator'>\n        <span>\n          <a href='/u/pax'><b itemprop='author'>pax</b></a>\n          \n          <time datetime='2012-06-15T06:09:50Z' itemprop='datePublished'>\n            2012-06-15 06:09:50 UTC\n          </time>\n        </span>\n        <span itemprop='position'>#38</span>\n      </div>\n      <div class='post' itemprop='articleBody'>\n        Lorna, the main reason the dance class is finishing is not principally because of injuries and falling numbers.  It is because a new class has started up 2 miles away and our teacher is going to join them and is refusing to continue with our class.    This new class is an extension of English National Ballet and they started up the new class without apparently knowing of our existence.   In fact the existing class this week had 50% more people attending than last week.<br><br>pax\n      </div>\n      <meta itemprop='interactionCount' content='UserLikes:0'>\n      <meta itemprop='interactionCount' content='UserComments:0'>\n      <meta itemprop='headline' content='Does dance help with Parkinson&#39;s symptoms?'>\n      <hr>\n  </div>\n  <div itemscope itemtype='http://schema.org/DiscussionForumPosting'>\n      <div class='creator'>\n        <span>\n          <a href='/u/Alice_in_Wonderland'><b itemprop='author'>Alice_in_Wonderland</b></a>\n          \n          <time datetime='2014-05-14T20:38:24Z' itemprop='datePublished'>\n            2014-05-14 20:38:24 UTC\n          </time>\n        </span>\n        <span itemprop='position'>#39</span>\n      </div>\n      <div class='post' itemprop='articleBody'>\n        <p>Good news!</p>\r\n<p>We have now been running a dance class in North Wales for about a year. We meet once a month in Llandudno Junction and have a super teacher who has already made a very artistic video of our efforts.</p>\r\n<p>We had some funding to run it which will last until this autumn, but some generous donations from local organisations will fill the gap for us, once initial funding is used up.</p>\r\n<p>Currently those attending the session are all members of the Llandudno and District Support Group but if anyone else with Parkinson&#39;s in the area would like to join us they would be welcome, provided they are members of Parkinson&#39;s UK.</p>\n      </div>\n      <meta itemprop='interactionCount' content='UserLikes:0'>\n      <meta itemprop='interactionCount' content='UserComments:0'>\n      <meta itemprop='headline' content='Does dance help with Parkinson&#39;s symptoms?'>\n      <hr>\n  </div>\n  <div itemscope itemtype='http://schema.org/DiscussionForumPosting'>\n      <div class='creator'>\n        <span>\n          <a href='/u/Dollymaz'><b itemprop='author'>Dollymaz</b></a>\n          \n          <time datetime='2014-05-15T20:43:25Z' itemprop='datePublished'>\n            2014-05-15 20:43:25 UTC\n          </time>\n        </span>\n        <span itemprop='position'>#40</span>\n      </div>\n      <div class='post' itemprop='articleBody'>\n        <p><strong>Hi i took up ballroom dancing in my 50s&nbsp;also line dancing and Sequence.........i found it was becoming more difficult with &nbsp;tight muscles and rigidity and other various symptoms from around 2009...in Feb&nbsp;2013 i was diagnosed with PD and once my meds were controlling the symptoms my dancing and energy improved. i have prolapse&nbsp;discs and arthritis as well as PD but i love music and dancing and when i go on holiday i am generally one of the last to leave the dance floor! it helps very much with my balance and co-ordination and i feel alive.......Dancing for me is the best exercise there is with or without PD. I don&#39;t live anywhere near Manchester or London but i just thought i would add my input and i wish you well in your findings.</strong></p>\n      </div>\n      <meta itemprop='interactionCount' content='UserLikes:0'>\n      <meta itemprop='interactionCount' content='UserComments:0'>\n      <meta itemprop='headline' content='Does dance help with Parkinson&#39;s symptoms?'>\n      <hr>\n  </div>\n\n  <div role='navigation' itemscope itemtype='http://schema.org/SiteNavigationElement'>\n      <span itemprop='name'><a rel=\"prev\" itemprop=\"url\" href=\"/t/does-dance-help-with-parkinsons-symptoms/4300\">← previous page</a></span>\n      <span itemprop='name'><b><a rel=\"next\" itemprop=\"url\" href=\"/t/does-dance-help-with-parkinsons-symptoms/4300?page=3\">next page →</a></b></span>\n  </div>\n\n\n\n\n\n    </div>\n    <footer class=\"container\">\n      <nav class='crawler-nav' itemscope itemtype='http://schema.org/SiteNavigationElement'>\n        <a href='/'>Home</a>\n        <a href=\"/categories\">Categories</a>\n        <a href=\"/guidelines\">FAQ/Guidelines</a>\n        <a href=\"/tos\">Terms of Service</a>\n        <a href=\"/privacy\">Privacy Policy</a>\n      </nav>\n      <p class='powered-by-link'>Powered by <a href=\"https://www.discourse.org\">Discourse</a>, best viewed with JavaScript enabled</p>\n    </footer>\n    \n  <script data-cfasync=\"false\" src=\"/cdn-cgi/scripts/5c5dd728/cloudflare-static/email-decode.min.js\"></script></body>\n  \n</html>\n",
  "url": "https://forum.parkinsons.org.uk/t/does-dance-help-with-parkinsons-symptoms/4300?page=2"
}