{
  "contentId": "88253e00-8864-11e9-8f96-97f71b5221d6",
  "html": "<!DOCTYPE html>\n<html lang=\"en\">\n  <head>\n    <meta charset=\"utf-8\">\n    <title>About Introductions and personal stories - Introductions and personal stories - Parkinson&#39;s UK Forum</title>\n    <meta name=\"description\" content=\"If you are a new member, welcome to the forum! \r\nThis is the place for introductions and for you to tell us a little bit about yourself. Do you have Parkinson&amp;#39;s? When were you diagnosed? Do you still work? What&amp;#39;s your fa&amp;hellip;\">\n    <meta name=\"author\" content=\"\">\n<meta name=\"generator\" content=\"Discourse 2.2.5 - https://github.com/discourse/discourse version c294ff3609f988dcafb742e91606d60ca13b794d\">\n<link rel=\"icon\" type=\"image/png\" href=\"https://forum.parkinsons.org.uk/uploads/db7928/original/2X/3/311fc84f89f49f38601a2f16b295b6f03d3ce5dd.jpg\">\n<link rel=\"apple-touch-icon\" type=\"image/png\" href=\"https://forum.parkinsons.org.uk/uploads/db7928/original/2X/3/311fc84f89f49f38601a2f16b295b6f03d3ce5dd.jpg\">\n<meta name=\"theme-color\" content=\"#ffffff\">\n<meta name=\"viewport\" content=\"width=device-width, minimum-scale=1.0, maximum-scale=1.0, user-scalable=yes\">\n<link rel=\"canonical\" href=\"https://forum.parkinsons.org.uk/t/about-introductions-and-personal-stories/6658?page=6\" />\n<script type=\"application/ld+json\">{\"@context\":\"http://schema.org\",\"@type\":\"WebSite\",\"url\":\"https://forum.parkinsons.org.uk\",\"potentialAction\":{\"@type\":\"SearchAction\",\"target\":\"https://forum.parkinsons.org.uk/search?q={search_term_string}\",\"query-input\":\"required name=search_term_string\"}}</script>\n<link rel=\"search\" type=\"application/opensearchdescription+xml\" href=\"https://forum.parkinsons.org.uk/opensearch.xml\" title=\"Parkinson&#39;s UK Forum Search\">\n\n      <link href=\"/stylesheets/desktop_f99246ae801b083d3e4cca979d0dade8615b39ac.css?__ws=forum.parkinsons.org.uk\" media=\"all\" rel=\"stylesheet\" data-target=\"desktop\" data-theme-id=\"12\"/>\n      <link href=\"/stylesheets/desktop_theme_12_5d27531cf43f9df0c03a6a6ec3109dd05f9dfc49.css?__ws=forum.parkinsons.org.uk\" media=\"all\" rel=\"stylesheet\" data-target=\"desktop_theme\" data-theme-id=\"12\"/>\n    <link href=\"https://fonts.googleapis.com/css?family=Open+Sans\" rel=\"stylesheet\">\n\n    <meta id=\"data-ga-universal-analytics\" data-tracking-code=\"UA-4855628-1\" data-json=\"{&quot;cookieDomain&quot;:&quot;auto&quot;}\" data-auto-link-domains=\"\">\n\n<link rel='preload' href='/assets/google-universal-analytics-f35b4da49411e6f5559073523aab983da483976a3954c79c756f8579f6fbd6ef.js' as='script'/>\n<script src='/assets/google-universal-analytics-f35b4da49411e6f5559073523aab983da483976a3954c79c756f8579f6fbd6ef.js'></script>\n\n      <link rel=\"alternate\" type=\"application/rss+xml\" title=\"RSS feed of &#39;About Introductions and personal stories&#39;\" href=\"https://forum.parkinsons.org.uk/t/about-introductions-and-personal-stories/6658.rss\" />\n  <meta property=\"og:site_name\" content=\"Parkinson&#39;s UK Forum\" />\n<meta name=\"twitter:card\" content=\"summary\" />\n<meta name=\"twitter:image\" content=\"https://forum.parkinsons.org.uk/uploads/db7928/original/2X/3/311fc84f89f49f38601a2f16b295b6f03d3ce5dd.jpg\" />\n<meta property=\"og:image\" content=\"https://forum.parkinsons.org.uk/uploads/db7928/original/2X/3/311fc84f89f49f38601a2f16b295b6f03d3ce5dd.jpg\" />\n<meta property=\"og:url\" content=\"https://forum.parkinsons.org.uk/t/about-introductions-and-personal-stories/6658?page=6\" />\n<meta name=\"twitter:url\" content=\"https://forum.parkinsons.org.uk/t/about-introductions-and-personal-stories/6658?page=6\" />\n<meta property=\"og:title\" content=\"About Introductions and personal stories\" />\n<meta name=\"twitter:title\" content=\"About Introductions and personal stories\" />\n<meta property=\"og:description\" content=\"Hi Martin  You are most welcome , I must say many times when I need to talk to someone about what I am going though I all ways get a answer and with in that answer I get hope and see that I can do it too, so good luck and keep in touch .  Kind regards Raz\" />\n<meta name=\"twitter:description\" content=\"Hi Martin  You are most welcome , I must say many times when I need to talk to someone about what I am going though I all ways get a answer and with in that answer I get hope and see that I can do it too, so good luck and keep in touch .  Kind regards Raz\" />\n<meta name=\"twitter:label1\" value=\"Reading time\" />\n<meta name=\"twitter:data1\" value=\"25 mins \uD83D\uDD51\" />\n<meta name=\"twitter:label2\" value=\"Likes\" />\n<meta name=\"twitter:data2\" value=\"28 ❤\" />\n<meta property=\"article:published_time\" content=\"2019-04-10T18:13:50+00:00\" />\n<meta property=\"og:ignore_canonical\" content=\"true\" />\n\n      <link rel=\"prev\" href=\"/t/about-introductions-and-personal-stories/6658?page=5\">\n\n\n    \n  </head>\n  <body class=\"crawler\">\n    <header role=\"banner\">\n    <div class=\"region region-header\">\n        <div class=\"region-header-wrapper\">\n            <div id=\"block-parkinsons-d8-branding\" class=\"block block-system block-system-branding-block\">\n                <a href=\"/\" title=\"Home\" rel=\"home\" class=\"site-logo\">\n                    <img src=\"https://forum.parkinsons.org.uk/uploads/db7928/original/2X/8/862bb7d172e7d127e7f3e147ec43594aa62ac945.png\" alt=\"Parkinson's UK. Change Attitudes. Find a cure. Join us.\">\n                </a>\n            </div>\n            <div id=\"block-helpline\" class=\"block block-block-content block-block-content871cd5af-b938-4947-9dc0-d5c211d08fe3 style-phone\">\n                <div class=\"field field--name-field-link field--type-link field--label-hidden field__item\"><a href=\"tel:+448088000303\">Helpline 0808 800 0303</a></div>\n            </div>\n            <div id=\"block-shop\" class=\"block block-block-content block-block-content6fba5ae5-7797-49cd-8367-f321d8111cd6 style-regular\">\n                <div class=\"field field--name-field-link field--type-link field--label-hidden field__item\"><a href=\"https://shop.parkinsons.org.uk\">Shop</a></div>\n            </div>\n        </div>\n    </div>\n</header>\n\n\n<script src=\"/theme-javascripts/b7e9763fcb584fc8265c56a9f557cd6d2e1e8ed8.js?__ws=forum.parkinsons.org.uk\"></script>\n    <header>\n      <a href=\"/\">\n          <img src=\"https://forum.parkinsons.org.uk/uploads/db7928/original/2X/8/862bb7d172e7d127e7f3e147ec43594aa62ac945.png\" alt=\"Parkinson&#39;s UK Forum\" id=\"site-logo\" style=\"max-width: 150px;\">\n      </a>\n    </header>\n    <div id=\"main-outlet\" class=\"wrap\">\n      <h1>\n  <a href=\"/t/about-introductions-and-personal-stories/6658\">About Introductions and personal stories</a>\n</h1>\n\n<div id='breadcrumbs'>\n    <div id=\"breadcrumb-0\" itemscope itemtype=\"http://data-vocabulary.org/Breadcrumb\"\n        itemref=\"breadcrumb-1\"\n      >\n      <a href=\"/c/about-me\" itemprop=\"url\">\n        <span itemprop=\"title\">About me</span>\n      </a>\n    </div>\n    <div id=\"breadcrumb-1\" itemscope itemtype=\"http://data-vocabulary.org/Breadcrumb\"\n>\n      <a href=\"/c/about-me/introductions-and-personal-stories\" itemprop=\"url\">\n        <span itemprop=\"title\">Introductions and personal stories</span>\n      </a>\n    </div>\n</div>\n\n\n\n\n\n<hr>\n\n\n  <div itemscope itemtype='http://schema.org/DiscussionForumPosting'>\n      <div class='creator'>\n        <span>\n          <a href='/u/Raz1'><b itemprop='author'>Raz1</b></a>\n          \n          <time datetime='2019-04-10T18:13:50Z' itemprop='datePublished'>\n            2019-04-10 18:13:50 UTC\n          </time>\n        </span>\n        <span itemprop='position'>#102</span>\n      </div>\n      <div class='post' itemprop='articleBody'>\n        <p>Hi Martin</p>\n<p>You are most welcome , I must say many times when I need to talk to someone about what I am going though I all ways get a answer and with in that answer I get hope and see that I can do it too, so good luck and keep in touch .<br>\nKind regards Raz</p>\n      </div>\n      <meta itemprop='interactionCount' content='UserLikes:0'>\n      <meta itemprop='interactionCount' content='UserComments:0'>\n      <meta itemprop='headline' content='About Introductions and personal stories'>\n      <hr>\n  </div>\n  <div itemscope itemtype='http://schema.org/DiscussionForumPosting'>\n      <div class='creator'>\n        <span>\n          <a href='/u/Claracupcake'><b itemprop='author'>Claracupcake</b></a>\n          \n          <time datetime='2019-04-17T21:00:35Z' itemprop='datePublished'>\n            2019-04-17 21:00:35 UTC\n          </time>\n        </span>\n        <span itemprop='position'>#103</span>\n      </div>\n      <div class='post' itemprop='articleBody'>\n        <p>Hi there ~ I’m Claire and my dad is the Parkinson’s sufferer; bit of a tale of woe because he was diagnosed with Giant Cell Arteritis a week after my parents’ Golden Wedding anniversary last June and lost sight in his left eye. He started to get shaky and had a repetitive bouts of a bad hallucination where he was fighting his way out from a dark house in a wood! We knew nothing about Parkinson’s and thought his symptoms were part of the Arteritis; trying to get a diagnosis was difficult till we went private and saw a neurologist who confirmed it was Parkinson’s, which had been fast-forwarded by the Arteritis. He’s bedridden and needs full nursing care so is moving to a nursing home in next few days. Just horrible to see how vile this disease is!!!</p>\n      </div>\n      <meta itemprop='interactionCount' content='UserLikes:0'>\n      <meta itemprop='interactionCount' content='UserComments:0'>\n      <meta itemprop='headline' content='About Introductions and personal stories'>\n      <hr>\n  </div>\n  <div itemscope itemtype='http://schema.org/DiscussionForumPosting'>\n      <div class='creator'>\n        <span>\n          <a href='/u/Chas13'><b itemprop='author'>Chas13</b></a>\n          \n          <time datetime='2019-05-27T20:58:50Z' itemprop='datePublished'>\n            2019-05-27 20:58:50 UTC\n          </time>\n        </span>\n        <span itemprop='position'>#104</span>\n      </div>\n      <div class='post' itemprop='articleBody'>\n        <p>Hello<br>\nMy name is Chas and I have had Parkinson’s for 4 years, my older brother also has Parkinson’s as did my father. I have been told that it is does not run in the family, and I would be interested to know if there are any other family linked cases.<br>\nRegards. Chas</p>\n      </div>\n      <meta itemprop='interactionCount' content='UserLikes:0'>\n      <meta itemprop='interactionCount' content='UserComments:1'>\n      <meta itemprop='headline' content='About Introductions and personal stories'>\n      <hr>\n  </div>\n  <div itemscope itemtype='http://schema.org/DiscussionForumPosting'>\n      <div class='creator'>\n        <span>\n          <a href='/u/Gerrard'><b itemprop='author'>Gerrard</b></a>\n          \n          <time datetime='2019-05-28T11:06:38Z' itemprop='datePublished'>\n            2019-05-28 11:06:38 UTC\n          </time>\n        </span>\n        <span itemprop='position'>#105</span>\n      </div>\n      <div class='post' itemprop='articleBody'>\n        <p>Hi, There clearly must be some family connection. I was diagnosed in 2011 and both my older brother and sister (now deceased) also suffered from PD.  Others who contribute to this forum have reported in the past of more than one PD within the family. Gerrard</p>\n      </div>\n      <meta itemprop='interactionCount' content='UserLikes:0'>\n      <meta itemprop='interactionCount' content='UserComments:1'>\n      <meta itemprop='headline' content='About Introductions and personal stories'>\n      <hr>\n  </div>\n  <div itemscope itemtype='http://schema.org/DiscussionForumPosting'>\n      <div class='creator'>\n        <span>\n          <a href='/u/Chas13'><b itemprop='author'>Chas13</b></a>\n          \n          <time datetime='2019-05-28T14:36:02Z' itemprop='datePublished'>\n            2019-05-28 14:36:02 UTC\n          </time>\n        </span>\n        <span itemprop='position'>#106</span>\n      </div>\n      <div class='post' itemprop='articleBody'>\n        <p>Thanks Gerrard, I have just been out to lunch with my brother and I showed him your response and he is going to join up to the forum . Chas</p>\n      </div>\n      <meta itemprop='interactionCount' content='UserLikes:0'>\n      <meta itemprop='interactionCount' content='UserComments:0'>\n      <meta itemprop='headline' content='About Introductions and personal stories'>\n      <hr>\n  </div>\n\n  <div role='navigation' itemscope itemtype='http://schema.org/SiteNavigationElement'>\n      <span itemprop='name'><a rel=\"prev\" itemprop=\"url\" href=\"/t/about-introductions-and-personal-stories/6658?page=5\">← previous page</a></span>\n  </div>\n\n\n\n\n\n    </div>\n    <footer class=\"container\">\n      <nav class='crawler-nav' itemscope itemtype='http://schema.org/SiteNavigationElement'>\n        <a href='/'>Home</a>\n        <a href=\"/categories\">Categories</a>\n        <a href=\"/guidelines\">FAQ/Guidelines</a>\n        <a href=\"/tos\">Terms of Service</a>\n        <a href=\"/privacy\">Privacy Policy</a>\n      </nav>\n      <p class='powered-by-link'>Powered by <a href=\"https://www.discourse.org\">Discourse</a>, best viewed with JavaScript enabled</p>\n    </footer>\n    \n  </body>\n  \n</html>\n",
  "url": "https://forum.parkinsons.org.uk/t/about-introductions-and-personal-stories/6658?page=6"
}