{
  "contentId": "0e0dc950-8870-11e9-8f96-97f71b5221d6",
  "html": "<!DOCTYPE html>\n<html lang=\"en\">\n  <head>\n    <meta charset=\"utf-8\">\n    <title>Madopar and Diarrhoea - Symptoms - Parkinson&#39;s UK Forum</title>\n    <meta name=\"description\" content=\"Hi I am new to this forum.  My dear dad was diagnosed roughly 4 to 5 years ago with Parkinsons disease.  It took a while to get a diagnosis which was eventually achieved through a Dat scan as my dad has never  had the tr&amp;hellip;\">\n    <meta name=\"author\" content=\"\">\n<meta name=\"generator\" content=\"Discourse 2.2.5 - https://github.com/discourse/discourse version c294ff3609f988dcafb742e91606d60ca13b794d\">\n<link rel=\"icon\" type=\"image/png\" href=\"https://forum.parkinsons.org.uk/uploads/db7928/original/2X/3/311fc84f89f49f38601a2f16b295b6f03d3ce5dd.jpg\">\n<link rel=\"apple-touch-icon\" type=\"image/png\" href=\"https://forum.parkinsons.org.uk/uploads/db7928/original/2X/3/311fc84f89f49f38601a2f16b295b6f03d3ce5dd.jpg\">\n<meta name=\"theme-color\" content=\"#ffffff\">\n<meta name=\"viewport\" content=\"width=device-width, minimum-scale=1.0, maximum-scale=1.0, user-scalable=yes\">\n<link rel=\"canonical\" href=\"https://forum.parkinsons.org.uk/t/madopar-and-diarrhoea/9548\" />\n<script type=\"application/ld+json\">{\"@context\":\"http://schema.org\",\"@type\":\"WebSite\",\"url\":\"https://forum.parkinsons.org.uk\",\"potentialAction\":{\"@type\":\"SearchAction\",\"target\":\"https://forum.parkinsons.org.uk/search?q={search_term_string}\",\"query-input\":\"required name=search_term_string\"}}</script>\n<link rel=\"search\" type=\"application/opensearchdescription+xml\" href=\"https://forum.parkinsons.org.uk/opensearch.xml\" title=\"Parkinson&#39;s UK Forum Search\">\n\n      <link href=\"/stylesheets/desktop_f99246ae801b083d3e4cca979d0dade8615b39ac.css?__ws=forum.parkinsons.org.uk\" media=\"all\" rel=\"stylesheet\" data-target=\"desktop\" data-theme-id=\"12\"/>\n      <link href=\"/stylesheets/desktop_theme_12_5d27531cf43f9df0c03a6a6ec3109dd05f9dfc49.css?__ws=forum.parkinsons.org.uk\" media=\"all\" rel=\"stylesheet\" data-target=\"desktop_theme\" data-theme-id=\"12\"/>\n    <link href=\"https://fonts.googleapis.com/css?family=Open+Sans\" rel=\"stylesheet\">\n\n    <meta id=\"data-ga-universal-analytics\" data-tracking-code=\"UA-4855628-1\" data-json=\"{&quot;cookieDomain&quot;:&quot;auto&quot;}\" data-auto-link-domains=\"\">\n\n<link rel='preload' href='/assets/google-universal-analytics-f35b4da49411e6f5559073523aab983da483976a3954c79c756f8579f6fbd6ef.js' as='script'/>\n<script src='/assets/google-universal-analytics-f35b4da49411e6f5559073523aab983da483976a3954c79c756f8579f6fbd6ef.js'></script>\n\n      <link rel=\"alternate\" type=\"application/rss+xml\" title=\"RSS feed of &#39;Madopar and Diarrhoea&#39;\" href=\"https://forum.parkinsons.org.uk/t/madopar-and-diarrhoea/9548.rss\" />\n  <meta property=\"og:site_name\" content=\"Parkinson&#39;s UK Forum\" />\n<meta name=\"twitter:card\" content=\"summary\" />\n<meta name=\"twitter:image\" content=\"https://forum.parkinsons.org.uk/uploads/db7928/original/2X/3/311fc84f89f49f38601a2f16b295b6f03d3ce5dd.jpg\" />\n<meta property=\"og:image\" content=\"https://forum.parkinsons.org.uk/uploads/db7928/original/2X/3/311fc84f89f49f38601a2f16b295b6f03d3ce5dd.jpg\" />\n<meta property=\"og:url\" content=\"https://forum.parkinsons.org.uk/t/madopar-and-diarrhoea/9548\" />\n<meta name=\"twitter:url\" content=\"https://forum.parkinsons.org.uk/t/madopar-and-diarrhoea/9548\" />\n<meta property=\"og:title\" content=\"Madopar and Diarrhoea\" />\n<meta name=\"twitter:title\" content=\"Madopar and Diarrhoea\" />\n<meta property=\"og:description\" content=\"Hi I am new to this forum.  My dear dad was diagnosed roughly 4 to 5 years ago with Parkinsons disease.  It took a while to get a diagnosis which was eventually achieved through a Dat scan as my dad has never  had the tremor that can be typically associated with Parkinsons disease.  My dad was 70 years old this year and he has aged at least 20 years in the last 4 as a result of this awful disease.  The reason for me posting on this forum is to try and better understand whether anyone has had any...\" />\n<meta name=\"twitter:description\" content=\"Hi I am new to this forum.  My dear dad was diagnosed roughly 4 to 5 years ago with Parkinsons disease.  It took a while to get a diagnosis which was eventually achieved through a Dat scan as my dad has never  had the tremor that can be typically associated with Parkinsons disease.  My dad was 70 years old this year and he has aged at least 20 years in the last 4 as a result of this awful disease.  The reason for me posting on this forum is to try and better understand whether anyone has had any...\" />\n<meta property=\"article:published_time\" content=\"2016-11-17T19:51:34+00:00\" />\n<meta property=\"og:ignore_canonical\" content=\"true\" />\n\n\n\n    \n  </head>\n  <body class=\"crawler\">\n    <header role=\"banner\">\n    <div class=\"region region-header\">\n        <div class=\"region-header-wrapper\">\n            <div id=\"block-parkinsons-d8-branding\" class=\"block block-system block-system-branding-block\">\n                <a href=\"/\" title=\"Home\" rel=\"home\" class=\"site-logo\">\n                    <img src=\"https://forum.parkinsons.org.uk/uploads/db7928/original/2X/8/862bb7d172e7d127e7f3e147ec43594aa62ac945.png\" alt=\"Parkinson's UK. Change Attitudes. Find a cure. Join us.\">\n                </a>\n            </div>\n            <div id=\"block-helpline\" class=\"block block-block-content block-block-content871cd5af-b938-4947-9dc0-d5c211d08fe3 style-phone\">\n                <div class=\"field field--name-field-link field--type-link field--label-hidden field__item\"><a href=\"tel:+448088000303\">Helpline 0808 800 0303</a></div>\n            </div>\n            <div id=\"block-shop\" class=\"block block-block-content block-block-content6fba5ae5-7797-49cd-8367-f321d8111cd6 style-regular\">\n                <div class=\"field field--name-field-link field--type-link field--label-hidden field__item\"><a href=\"https://shop.parkinsons.org.uk\">Shop</a></div>\n            </div>\n        </div>\n    </div>\n</header>\n\n\n<script src=\"/theme-javascripts/b7e9763fcb584fc8265c56a9f557cd6d2e1e8ed8.js?__ws=forum.parkinsons.org.uk\"></script>\n    <header>\n      <a href=\"/\">\n          <img src=\"https://forum.parkinsons.org.uk/uploads/db7928/original/2X/8/862bb7d172e7d127e7f3e147ec43594aa62ac945.png\" alt=\"Parkinson&#39;s UK Forum\" id=\"site-logo\" style=\"max-width: 150px;\">\n      </a>\n    </header>\n    <div id=\"main-outlet\" class=\"wrap\">\n      <h1>\n  <a href=\"/t/madopar-and-diarrhoea/9548\">Madopar and Diarrhoea</a>\n</h1>\n\n<div id='breadcrumbs'>\n    <div id=\"breadcrumb-0\" itemscope itemtype=\"http://data-vocabulary.org/Breadcrumb\"\n        itemref=\"breadcrumb-1\"\n      >\n      <a href=\"/c/about-parkinsons-and-health\" itemprop=\"url\">\n        <span itemprop=\"title\">About Parkinson&#39;s and health</span>\n      </a>\n    </div>\n    <div id=\"breadcrumb-1\" itemscope itemtype=\"http://data-vocabulary.org/Breadcrumb\"\n>\n      <a href=\"/c/about-parkinsons-and-health/symptoms\" itemprop=\"url\">\n        <span itemprop=\"title\">Symptoms</span>\n      </a>\n    </div>\n</div>\n\n\n\n\n\n<hr>\n\n\n  <div itemscope itemtype='http://schema.org/DiscussionForumPosting'>\n      <div class='creator'>\n        <span>\n          <a href='/u/RunDMc'><b itemprop='author'>RunDMc</b></a>\n          \n          <time datetime='2016-11-17T19:51:34Z' itemprop='datePublished'>\n            2016-11-17 19:51:34 UTC\n          </time>\n        </span>\n        <span itemprop='position'>#1</span>\n      </div>\n      <div class='post' itemprop='articleBody'>\n        <p>Hi I am new to this forum. &nbsp;My dear dad was diagnosed roughly 4 to 5 years ago with Parkinsons disease. &nbsp;It took a while to get a diagnosis which was eventually achieved through a Dat scan as my dad has never &nbsp;had the tremor that can be typically associated with Parkinsons disease.&nbsp; My dad was 70 years old this year and he has aged at least 20 years in the last 4 as a result of this awful disease. &nbsp;The reason for me posting on this forum is to try and better understand whether anyone has had any side effects from taking Madopar, in particular, diarrhoea. &nbsp;My dad was on Ropinerole for maybe the last coupe of years however this year his neurologist has decided that my dads speech and mobility had worsened and that he would get greater benefit from going on to one of the Levodopa drugs. &nbsp;He started on Stelevo and was fine for about 6 weeks in fact the Stelevo&nbsp;did improve his Parkinsons symptoms it has to be said. &nbsp;I should add that alongside the slow speech, shuffling gait and stiff limbs my dad also suffers with debilitating lower to middle back pain, which we have mostly attributed to the stoop that he has developed. &nbsp;He had a steroid injection last year and this did nothing for his pain. 6 weeks in to the Stelevo, my dad started getting diarrhoea. &nbsp;At first he and my mum put it down to a stomach bug but 10 days later it was still present and thinking it was the Stelevo he stopped taking it. &nbsp;He ended up admitted to A&amp;E in agony with his back pain that none of his pain medication would touch. a week later he was discharged home and this time he was given Madopar (at the same time he was still taking Ropinerole alongside). &nbsp;Within 10 days my dad was back in hospital. &nbsp;As soon as he had increased his dose from 2x62.5mg to 3x62.5mg the diarrhoea started again and within 2 days the excruciating pain and inability to get comfortable was back, this time combined with an inability to swallow and a terrible cough. &nbsp;This time he has now been in hospital nearly 4 weeks... in the beginning he had a chest infection which they said was likely due to him having aspirated some food, so again he was nil by mouth. &nbsp;this caused alot of problems with his meds in the early days in hospital and he suffered very badly with confusion and paranoid delusions which he has never had. After 4 days he had a naso gastric tube put in so he was able to be fed but was also able to re-start his slow release ropinerole. &nbsp;However his neurologist has really wanted to get his drugs stable and scale back the number of opioids he has been on for pain. In the last 2 to 3 weeks, he has been back on Madopar, given through his NG tube, however the diarrhoea has remained a consistent feature. &nbsp;It is absolutely awful seeing him suffer like this, he is red raw from the diarrhoea, his mobility and speech we believe has improved at times and very likely due to the madopar but then he will have these bouts of diarrhoea, that subsequently impact his mobility and his speech and his nutrition! &nbsp;he is painfully thin and utterly depressed. &nbsp;The neurologist wont take him off the madopar&nbsp;as he doesn&#39;t think it is the madopar that is causing it. In my frustration I have looked to the internet and decided that what better place to ask questions than on a forum where there are many people who may also have experienced similar rather than just accepting what the neurologist has to say.</p>\r\n<p>Thank you in advance to any readers and apologies for the long story I am not very good at keeping things short sorry!</p>\r\n<p>&nbsp;</p>\r\n<p>&nbsp;</p>\n      </div>\n      <meta itemprop='interactionCount' content='UserLikes:0'>\n      <meta itemprop='interactionCount' content='UserComments:0'>\n      <meta itemprop='headline' content='Madopar and Diarrhoea'>\n      <hr>\n  </div>\n  <div itemscope itemtype='http://schema.org/DiscussionForumPosting'>\n      <div class='creator'>\n        <span>\n          <a href='/u/RunDMc'><b itemprop='author'>RunDMc</b></a>\n          \n          <time datetime='2016-11-18T16:54:49Z' itemprop='datePublished'>\n            2016-11-18 16:54:49 UTC\n          </time>\n        </span>\n        <span itemprop='position'>#2</span>\n      </div>\n      <div class='post' itemprop='articleBody'>\n        <p>anyone??</p>\n      </div>\n      <meta itemprop='interactionCount' content='UserLikes:0'>\n      <meta itemprop='interactionCount' content='UserComments:0'>\n      <meta itemprop='headline' content='Madopar and Diarrhoea'>\n      <hr>\n  </div>\n  <div itemscope itemtype='http://schema.org/DiscussionForumPosting'>\n      <div class='creator'>\n        <span>\n          <a href='/u/deleted.user'><b itemprop='author'>deleted.user</b></a>\n          \n          <time datetime='2016-11-18T17:17:50Z' itemprop='datePublished'>\n            2016-11-18 17:17:50 UTC\n          </time>\n        </span>\n        <span itemprop='position'>#3</span>\n      </div>\n      <div class='post' itemprop='articleBody'>\n        <p>&nbsp;</p>\r\n<p>Hi</p>\r\n<p>sorry your dad is having problems</p>\r\n<p>I&#39;ve been on madopar for some considerable time now and havent had the side effects or any to be honest, but i have also entacapone, and was told 1 in 10 don&#39;t tolerate it for the reasons you have given, stalevo or how ever its spelt contains entacapone.</p>\r\n<p>sorry i cant be more helpfull</p>\n      </div>\n      <meta itemprop='interactionCount' content='UserLikes:0'>\n      <meta itemprop='interactionCount' content='UserComments:0'>\n      <meta itemprop='headline' content='Madopar and Diarrhoea'>\n      <hr>\n  </div>\n  <div itemscope itemtype='http://schema.org/DiscussionForumPosting'>\n      <div class='creator'>\n        <span>\n          <a href='/u/Supa'><b itemprop='author'>Supa</b></a>\n          \n          <time datetime='2016-11-18T23:06:25Z' itemprop='datePublished'>\n            2016-11-18 23:06:25 UTC\n          </time>\n        </span>\n        <span itemprop='position'>#4</span>\n      </div>\n      <div class='post' itemprop='articleBody'>\n        <p>Hi</p>\r\n<p>I think a common side effect of Entacapone is diarrhoea six weeks after starting it. As Sea Angler says, stavelo has same medication in it, so presumably can have same side effect.</p>\r\n<p>I have had no probs with Madopar, nor diarrhoea with Entacapone, just indigestion&nbsp; !</p>\r\n<p>Hope you can find solution.</p>\r\n<p>You could phone the P UK helpline for advice, they are very good . Click on &#39;Support&#39; then &#39;Helpline&#39;.</p>\r\n<p>S</p>\n      </div>\n      <meta itemprop='interactionCount' content='UserLikes:0'>\n      <meta itemprop='interactionCount' content='UserComments:0'>\n      <meta itemprop='headline' content='Madopar and Diarrhoea'>\n      <hr>\n  </div>\n  <div itemscope itemtype='http://schema.org/DiscussionForumPosting'>\n      <div class='creator'>\n        <span>\n          <a href='/u/RunDMc'><b itemprop='author'>RunDMc</b></a>\n          \n          <time datetime='2016-11-20T15:08:50Z' itemprop='datePublished'>\n            2016-11-20 15:08:50 UTC\n          </time>\n        </span>\n        <span itemprop='position'>#5</span>\n      </div>\n      <div class='post' itemprop='articleBody'>\n        <p>Thank you for your responses. The neurologist has now conceded that there may be a link between his diarrhoea and the madopar. &nbsp;his doses were halved yesterday and already the diarrhoea has eased. In place of this they have put a ritigotine patch on him. &nbsp;I do feel that my dads neurologist knows what he is talking about and is trying to do the right thing. &nbsp;He doesn&#39;t feel that diarrhoea is a common side effect with madopar so although his dosage has now been reduced he has also got a referral to see a gastroenterologist to have further investigation in to his bowel to rule out any other potential issues.</p>\r\n<p>&nbsp;</p>\r\n<p>&nbsp;</p>\n      </div>\n      <meta itemprop='interactionCount' content='UserLikes:0'>\n      <meta itemprop='interactionCount' content='UserComments:0'>\n      <meta itemprop='headline' content='Madopar and Diarrhoea'>\n      <hr>\n  </div>\n  <div itemscope itemtype='http://schema.org/DiscussionForumPosting'>\n      <div class='creator'>\n        <span>\n          <a href='/u/Supa'><b itemprop='author'>Supa</b></a>\n          \n          <time datetime='2016-11-20T17:46:40Z' itemprop='datePublished'>\n            2016-11-20 17:46:40 UTC\n          </time>\n        </span>\n        <span itemprop='position'>#6</span>\n      </div>\n      <div class='post' itemprop='articleBody'>\n        <p>Hi DD</p>\r\n<p>Glad to hear something is helping your dad. Having had a lot of diarrhoea he may need something to put the put the lining back into his intestines. Bio-active yoghurts usually do the trick!</p>\r\n<p>S</p>\n      </div>\n      <meta itemprop='interactionCount' content='UserLikes:0'>\n      <meta itemprop='interactionCount' content='UserComments:0'>\n      <meta itemprop='headline' content='Madopar and Diarrhoea'>\n      <hr>\n  </div>\n  <div itemscope itemtype='http://schema.org/DiscussionForumPosting'>\n      <div class='creator'>\n        <span>\n          <a href='/u/MB420'><b itemprop='author'>MB420</b></a>\n          \n          <time datetime='2017-01-12T11:01:21Z' itemprop='datePublished'>\n            2017-01-12 11:01:21 UTC\n          </time>\n        </span>\n        <span itemprop='position'>#7</span>\n      </div>\n      <div class='post' itemprop='articleBody'>\n        <p>As well as PD I have a chronic spinal disease that has left me with chronic pain every day for the last 20 plus years. I am on a shedload of daily Opioids (Oxycodone, Morphine) to help deal with this.</p>\r\n<p>After the PD diagnosis, I have been put on Sinemet, but now it has been decided I should move onto Stalevo. Given the Opioids I am on leave me massively constipated, I would rather welcome a bit of a bowel loosener! I&#39;ll post any results back up here.</p>\r\n<p>Hope you find a way forward for your Dad. Your post chimed with me in so many ways. I am 64 this year, and have suddenly started losing loads of weight, due perhaps to my total loss of appetite (I have swallowing problems, and get queezy very easily). I had started to age and deteriorate until I went onto the Levodopa drugs. I am told I &quot;Look&quot; a lot better? Can&#39;t say as that I feel it, though!</p>\n      </div>\n      <meta itemprop='interactionCount' content='UserLikes:0'>\n      <meta itemprop='interactionCount' content='UserComments:0'>\n      <meta itemprop='headline' content='Madopar and Diarrhoea'>\n      <hr>\n  </div>\n  <div itemscope itemtype='http://schema.org/DiscussionForumPosting'>\n      <div class='creator'>\n        <span>\n          <a href='/u/gus'><b itemprop='author'>gus</b></a>\n          \n          <time datetime='2017-01-12T21:06:22Z' itemprop='datePublished'>\n            2017-01-12 21:06:22 UTC\n          </time>\n        </span>\n        <span itemprop='position'>#8</span>\n      </div>\n      <div class='post' itemprop='articleBody'>\n        Hi mb420   \r\n                       I to suffer with pain two crumbling discs and early signs arthritis degenerating spine and lower back pain also nerve ending damage so yes i am also on a lot ,but recently I've started gopo also goes by the name litozin have a look it's meant to drop your pain meds and it does not interfere with your meds rosewater capsules\n      </div>\n      <meta itemprop='interactionCount' content='UserLikes:0'>\n      <meta itemprop='interactionCount' content='UserComments:0'>\n      <meta itemprop='headline' content='Madopar and Diarrhoea'>\n      <hr>\n  </div>\n  <div itemscope itemtype='http://schema.org/DiscussionForumPosting'>\n      <div class='creator'>\n        <span>\n          <a href='/u/gus'><b itemprop='author'>gus</b></a>\n          \n          <time datetime='2017-01-12T21:07:00Z' itemprop='datePublished'>\n            2017-01-12 21:07:00 UTC\n          </time>\n        </span>\n        <span itemprop='position'>#9</span>\n      </div>\n      <div class='post' itemprop='articleBody'>\n        Gopo cheaper\n      </div>\n      <meta itemprop='interactionCount' content='UserLikes:0'>\n      <meta itemprop='interactionCount' content='UserComments:0'>\n      <meta itemprop='headline' content='Madopar and Diarrhoea'>\n      <hr>\n  </div>\n  <div itemscope itemtype='http://schema.org/DiscussionForumPosting'>\n      <div class='creator'>\n        <span>\n          <a href='/u/MB420'><b itemprop='author'>MB420</b></a>\n          \n          <time datetime='2017-02-23T09:31:48Z' itemprop='datePublished'>\n            2017-02-23 09:31:48 UTC\n          </time>\n        </span>\n        <span itemprop='position'>#10</span>\n      </div>\n      <div class='post' itemprop='articleBody'>\n        <p>Gus ~ sorry for the delayed response, and thanks for your input. I have looked into Gopo, but am unsure if I should try it as I am having stomach/bowel/bladder problems right not. I had hoped the switch to Stalevo would loosen things up, but not at all! Not only constipated, I am also getting awful nausea every morning, get bad heartburn and have lost most of my appetite. Not surprisingly I have lost a lot of weight! So I&#39;m just not sure I want to add anything into my diet that has even the slightest possible effect &quot;down there&quot;.</p>\r\n<p>Ha! I used to drink coffee (proper organic beans, ground on the day by myself), but that started to upset my insides, so I went to Cocoa, which was fine for 2 weeks then that began to upset things. At the moment about the only drinks I can cope with are Organic Non-Homogenised Whole Cream Milk, and Ribena. Barley water used to be okay, but that makes me nauseous now too!</p>\n      </div>\n      <meta itemprop='interactionCount' content='UserLikes:0'>\n      <meta itemprop='interactionCount' content='UserComments:0'>\n      <meta itemprop='headline' content='Madopar and Diarrhoea'>\n      <hr>\n  </div>\n  <div itemscope itemtype='http://schema.org/DiscussionForumPosting'>\n      <div class='creator'>\n        <span>\n          <a href='/u/gus'><b itemprop='author'>gus</b></a>\n          \n          <time datetime='2017-02-23T10:51:13Z' itemprop='datePublished'>\n            2017-02-23 10:51:13 UTC\n          </time>\n        </span>\n        <span itemprop='position'>#11</span>\n      </div>\n      <div class='post' itemprop='articleBody'>\n        <p>nice to hear from you mb220 how life treating you ,not long to go daffodils&nbsp;are out sun to follow soon hopefully</p>\n      </div>\n      <meta itemprop='interactionCount' content='UserLikes:0'>\n      <meta itemprop='interactionCount' content='UserComments:0'>\n      <meta itemprop='headline' content='Madopar and Diarrhoea'>\n      <hr>\n  </div>\n  <div itemscope itemtype='http://schema.org/DiscussionForumPosting'>\n      <div class='creator'>\n        <span>\n          <a href='/u/FEDEXLIKE2'><b itemprop='author'>FEDEXLIKE2</b></a>\n          \n          <time datetime='2017-03-08T23:41:31Z' itemprop='datePublished'>\n            2017-03-08 23:41:31 UTC\n          </time>\n        </span>\n        <span itemprop='position'>#12</span>\n      </div>\n      <div class='post' itemprop='articleBody'>\n        <p>&nbsp;</p>\r\n<p>&nbsp;</p>\r\n<p>&nbsp;&nbsp;&nbsp;&nbsp;&nbsp;&nbsp;&nbsp; Well DizyDory&nbsp;&nbsp; ,Gus&nbsp;&nbsp; Sea Angler&nbsp; Supa every thing I have read so far, has been&nbsp; me, so I wont go over&nbsp; it&nbsp; all again&nbsp;&nbsp; your&nbsp; poor Dad has&nbsp;&nbsp;&nbsp;&nbsp;suffered as&nbsp; did&nbsp; my&nbsp; Father but&nbsp; throw&nbsp; in that deadly miners disease&nbsp; pneumopconiosis,&nbsp; known as the&nbsp; black&nbsp; lung&nbsp; disease and&nbsp; he&nbsp; died horribly and&nbsp; yes&nbsp; watching a&nbsp;&nbsp; loved one&nbsp; slowly closing down&nbsp; is&nbsp; not&nbsp; nice, but&nbsp; you can&nbsp; fight&nbsp; back I have suffered all&nbsp; the&nbsp; heinous&nbsp; horrible&nbsp; symptoms&nbsp; your&nbsp; father&nbsp; has&nbsp; some&nbsp; worked some did&nbsp; not but eventually it became evident that Madopar&nbsp; was&nbsp; my way&nbsp; back to&nbsp; semi&nbsp; normality&nbsp; if&nbsp; you&nbsp; can describe&nbsp; me&nbsp; as normal,&nbsp; and&nbsp; things&nbsp; really&nbsp; panned&nbsp;&nbsp; out&nbsp; when&nbsp; I had&nbsp; the&nbsp; Duodopa system&nbsp; installed and I mean&nbsp; installed as if&nbsp; fitting&nbsp; a&nbsp; new&nbsp; fuel pump&nbsp; to&nbsp; a&nbsp; 747,&nbsp; however&nbsp; once&nbsp; the&nbsp; unpleasant bits&nbsp; were&nbsp; behind me, I could&nbsp; walk&nbsp; talk&nbsp; write, all&nbsp; within&nbsp;&nbsp; reason&nbsp; of&nbsp; course&nbsp; no&nbsp; marathons or heavy&nbsp;&nbsp; work&nbsp; in&nbsp; the&nbsp; garden&nbsp; , the&nbsp; system&nbsp; consists&nbsp; of&nbsp; a&nbsp; small&nbsp; but&nbsp; weighty pump&nbsp; which delivers a&nbsp; precice amount of&nbsp; Levadopa Carbidopa to my&nbsp; small intestine where it is immediately absorbed by&nbsp; passing the stomach and&nbsp; having a immediate effect&nbsp; on&nbsp; parky, its&nbsp; been&nbsp; installed for 4yrs, and though its been tweaked a couple of&nbsp; times to&nbsp; arrest&nbsp; some slight&nbsp;&nbsp; shuttng down, its&nbsp; more&nbsp; or&nbsp; slightly less&nbsp; working as spec but theres always a&nbsp; but&nbsp; isnt there,&nbsp; upping&nbsp; the&nbsp; dose to&nbsp; keep&nbsp; me on&nbsp; song&nbsp; if&nbsp; you&nbsp; like is causing very annoying&nbsp; diarrhea but&nbsp; if&nbsp; I reduce&nbsp; the&nbsp; dose&nbsp; to&nbsp; stop&nbsp; the&nbsp; runs&nbsp; well&nbsp; I freeze, but&nbsp; as&nbsp; in&nbsp;&nbsp; the&nbsp; past&nbsp; my&nbsp; body&nbsp; will&nbsp; addapt&nbsp; and&nbsp; things&nbsp; willl&nbsp; equalise,&nbsp; I hope&nbsp; so&nbsp; then&nbsp; the&nbsp; back&nbsp;&nbsp; pain I had&nbsp; the&nbsp; same&nbsp; OP&nbsp;&nbsp; for the&nbsp; same&nbsp; result,&nbsp; so&nbsp; we&nbsp; run&nbsp; the&nbsp; same&nbsp; race&nbsp; my&nbsp; friends&nbsp; a&nbsp; race we&nbsp; cannot&nbsp; afford&nbsp; to&nbsp; lose</p>\r\n<p>&nbsp;&nbsp;&nbsp;&nbsp;&nbsp;&nbsp;&nbsp;&nbsp;&nbsp;&nbsp;&nbsp;&nbsp;&nbsp;&nbsp;&nbsp;&nbsp;&nbsp;&nbsp;&nbsp;&nbsp;&nbsp;&nbsp;&nbsp;&nbsp;&nbsp;&nbsp;&nbsp;&nbsp;&nbsp;&nbsp;&nbsp;&nbsp;&nbsp;&nbsp;&nbsp;&nbsp;&nbsp;&nbsp;&nbsp;&nbsp;&nbsp;&nbsp;&nbsp;&nbsp; The&nbsp; very&nbsp; highest&nbsp; regards&nbsp; FED</p>\n      </div>\n      <meta itemprop='interactionCount' content='UserLikes:0'>\n      <meta itemprop='interactionCount' content='UserComments:0'>\n      <meta itemprop='headline' content='Madopar and Diarrhoea'>\n      <hr>\n  </div>\n  <div itemscope itemtype='http://schema.org/DiscussionForumPosting'>\n      <div class='creator'>\n        <span>\n          <a href='/u/gus'><b itemprop='author'>gus</b></a>\n          \n          <time datetime='2017-03-09T10:42:59Z' itemprop='datePublished'>\n            2017-03-09 10:42:59 UTC\n          </time>\n        </span>\n        <span itemprop='position'>#13</span>\n      </div>\n      <div class='post' itemprop='articleBody'>\n        Fed always wondered why you had pump and not dbs .\n      </div>\n      <meta itemprop='interactionCount' content='UserLikes:0'>\n      <meta itemprop='interactionCount' content='UserComments:0'>\n      <meta itemprop='headline' content='Madopar and Diarrhoea'>\n      <hr>\n  </div>\n  <div itemscope itemtype='http://schema.org/DiscussionForumPosting'>\n      <div class='creator'>\n        <span>\n          <a href='/u/Nicwat1'><b itemprop='author'>Nicwat1</b></a>\n          \n          <time datetime='2017-09-24T22:37:21Z' itemprop='datePublished'>\n            2017-09-24 22:37:21 UTC\n          </time>\n        </span>\n        <span itemprop='position'>#14</span>\n      </div>\n      <div class='post' itemprop='articleBody'>\n        <p>Hey Dizzydory</p>\r\n<p>where are you now with your dad &amp; what meds does he take??</p>\r\n<p>i believe madopar is the worst drug ever. Same as what you said - my dad at 57 was diagnosed - 3 years later still does not have a tremor</p>\r\n<p>he had sever restless legs to begin with &amp; his meds were upped - with that his symptoms worsened.</p>\r\n<p>he now can&#39;t even move his hands for long periods of times during the day.&nbsp;</p>\r\n<p>I&#39;m certain the meds &amp; induced Parkinsonism. Would love to hear back from you &amp; your dads situation. X</p>\n      </div>\n      <meta itemprop='interactionCount' content='UserLikes:0'>\n      <meta itemprop='interactionCount' content='UserComments:0'>\n      <meta itemprop='headline' content='Madopar and Diarrhoea'>\n      <hr>\n  </div>\n  <div itemscope itemtype='http://schema.org/DiscussionForumPosting'>\n      <div class='creator'>\n        <span>\n          <a href='/u/Jude13'><b itemprop='author'>Jude13</b></a>\n          \n          <time datetime='2018-12-09T21:58:27Z' itemprop='datePublished'>\n            2018-12-09 21:58:27 UTC\n          </time>\n        </span>\n        <span itemprop='position'>#15</span>\n      </div>\n      <div class='post' itemprop='articleBody'>\n        <p>Hello there. This is my first attempt at writing in.  I took Madopar for a whole year with no problems.  Then I took Acarbose for my diabetes and within four weeks was suffering from diarrhoea. I have stoped the Acarbose but 40 days later I am still suffering. It starts at about 5am and continues for about 4 hours daily. I am at my wits end. They say you can’t stop taking Parkinson’s medication but I can’t  see myself putting up with this for ever. I have lost weight, my appetite and feel awful. Is this common among diabetics with Parkinson’s ?</p>\n      </div>\n      <meta itemprop='interactionCount' content='UserLikes:0'>\n      <meta itemprop='interactionCount' content='UserComments:1'>\n      <meta itemprop='headline' content='Madopar and Diarrhoea'>\n      <hr>\n  </div>\n  <div itemscope itemtype='http://schema.org/DiscussionForumPosting'>\n      <div class='creator'>\n        <span>\n          <a href='/u/Moderators2'><b itemprop='author'>Moderators2</b></a>\n          \n          <time datetime='2018-12-09T22:09:32Z' itemprop='datePublished'>\n            2018-12-09 22:09:32 UTC\n          </time>\n        </span>\n        <span itemprop='position'>#16</span>\n      </div>\n      <div class='post' itemprop='articleBody'>\n        <p>Hi Jude13,</p>\n<p>Sorry that you’ve been having these symptoms, it’s understandable that you are worried about this. We’re sure other members will get back to you with their experiences, but meanwhile<br>\nyou can always give our Helpline a call on 0808 800 0303 if you have any medical queries. They are open from Monday-Friday: 9am-7pm and Saturday: 10am-2pm, or you can email <a href=\"/cdn-cgi/l/email-protection#751d1019191a350514071e1c1b061a1b065b1a07125b001e\"><span class=\"__cf_email__\" data-cfemail=\"f8909d949497b888998a9391968b97968bd6978a9fd68d93\">[email&#160;protected]</span></a>. They will be happy to talk through your concerns and offer advice.</p>\n<p>Best wishes,<br>\nEdwina<br>\nModeration Team</p>\n      </div>\n      <meta itemprop='interactionCount' content='UserLikes:0'>\n      <meta itemprop='interactionCount' content='UserComments:0'>\n      <meta itemprop='headline' content='Madopar and Diarrhoea'>\n      <hr>\n  </div>\n\n\n\n\n\n\n    </div>\n    <footer class=\"container\">\n      <nav class='crawler-nav' itemscope itemtype='http://schema.org/SiteNavigationElement'>\n        <a href='/'>Home</a>\n        <a href=\"/categories\">Categories</a>\n        <a href=\"/guidelines\">FAQ/Guidelines</a>\n        <a href=\"/tos\">Terms of Service</a>\n        <a href=\"/privacy\">Privacy Policy</a>\n      </nav>\n      <p class='powered-by-link'>Powered by <a href=\"https://www.discourse.org\">Discourse</a>, best viewed with JavaScript enabled</p>\n    </footer>\n    \n  <script data-cfasync=\"false\" src=\"/cdn-cgi/scripts/5c5dd728/cloudflare-static/email-decode.min.js\"></script></body>\n  \n</html>\n",
  "url": "https://forum.parkinsons.org.uk/t/madopar-and-diarrhoea/9548"
}