{
  "contentId": "00dae150-8870-11e9-8f96-97f71b5221d6",
  "html": "<!DOCTYPE html>\n<html lang=\"en\">\n  <head>\n    <meta charset=\"utf-8\">\n    <title>Gambling with the cure - Impulsive and compulsive behaviour - Parkinson&#39;s UK Forum</title>\n    <meta name=\"description\" content=\"At ladbrooks you can get 2000-1 if you name a day for parkinsons to be cured . I put 1000 pounds on october 6th (at about 11.30) frankle runs that day also so i  put   a pound on him as an accuminater . So on 5th october&amp;hellip;\">\n    <meta name=\"author\" content=\"\">\n<meta name=\"generator\" content=\"Discourse 2.2.5 - https://github.com/discourse/discourse version c294ff3609f988dcafb742e91606d60ca13b794d\">\n<link rel=\"icon\" type=\"image/png\" href=\"https://forum.parkinsons.org.uk/uploads/db7928/original/2X/3/311fc84f89f49f38601a2f16b295b6f03d3ce5dd.jpg\">\n<link rel=\"apple-touch-icon\" type=\"image/png\" href=\"https://forum.parkinsons.org.uk/uploads/db7928/original/2X/3/311fc84f89f49f38601a2f16b295b6f03d3ce5dd.jpg\">\n<meta name=\"theme-color\" content=\"#ffffff\">\n<meta name=\"viewport\" content=\"width=device-width, minimum-scale=1.0, maximum-scale=1.0, user-scalable=yes\">\n<link rel=\"canonical\" href=\"https://forum.parkinsons.org.uk/t/gambling-with-the-cure/3260\" />\n<script type=\"application/ld+json\">{\"@context\":\"http://schema.org\",\"@type\":\"WebSite\",\"url\":\"https://forum.parkinsons.org.uk\",\"potentialAction\":{\"@type\":\"SearchAction\",\"target\":\"https://forum.parkinsons.org.uk/search?q={search_term_string}\",\"query-input\":\"required name=search_term_string\"}}</script>\n<link rel=\"search\" type=\"application/opensearchdescription+xml\" href=\"https://forum.parkinsons.org.uk/opensearch.xml\" title=\"Parkinson&#39;s UK Forum Search\">\n\n      <link href=\"/stylesheets/desktop_f99246ae801b083d3e4cca979d0dade8615b39ac.css?__ws=forum.parkinsons.org.uk\" media=\"all\" rel=\"stylesheet\" data-target=\"desktop\" data-theme-id=\"12\"/>\n      <link href=\"/stylesheets/desktop_theme_12_5d27531cf43f9df0c03a6a6ec3109dd05f9dfc49.css?__ws=forum.parkinsons.org.uk\" media=\"all\" rel=\"stylesheet\" data-target=\"desktop_theme\" data-theme-id=\"12\"/>\n    <link href=\"https://fonts.googleapis.com/css?family=Open+Sans\" rel=\"stylesheet\">\n\n    <meta id=\"data-ga-universal-analytics\" data-tracking-code=\"UA-4855628-1\" data-json=\"{&quot;cookieDomain&quot;:&quot;auto&quot;}\" data-auto-link-domains=\"\">\n\n<link rel='preload' href='/assets/google-universal-analytics-f35b4da49411e6f5559073523aab983da483976a3954c79c756f8579f6fbd6ef.js' as='script'/>\n<script src='/assets/google-universal-analytics-f35b4da49411e6f5559073523aab983da483976a3954c79c756f8579f6fbd6ef.js'></script>\n\n      <link rel=\"alternate\" type=\"application/rss+xml\" title=\"RSS feed of &#39;Gambling with the cure&#39;\" href=\"https://forum.parkinsons.org.uk/t/gambling-with-the-cure/3260.rss\" />\n  <meta property=\"og:site_name\" content=\"Parkinson&#39;s UK Forum\" />\n<meta name=\"twitter:card\" content=\"summary\" />\n<meta name=\"twitter:image\" content=\"https://forum.parkinsons.org.uk/uploads/db7928/original/2X/3/311fc84f89f49f38601a2f16b295b6f03d3ce5dd.jpg\" />\n<meta property=\"og:image\" content=\"https://forum.parkinsons.org.uk/uploads/db7928/original/2X/3/311fc84f89f49f38601a2f16b295b6f03d3ce5dd.jpg\" />\n<meta property=\"og:url\" content=\"https://forum.parkinsons.org.uk/t/gambling-with-the-cure/3260\" />\n<meta name=\"twitter:url\" content=\"https://forum.parkinsons.org.uk/t/gambling-with-the-cure/3260\" />\n<meta property=\"og:title\" content=\"Gambling with the cure\" />\n<meta name=\"twitter:title\" content=\"Gambling with the cure\" />\n<meta property=\"og:description\" content=\"At ladbrooks you can get 2000-1 if you name a day for parkinsons to be cured . I put 1000 pounds on october 6th (at about 11.30) frankle runs that day also so i  put   a pound on him as an accuminater . So on 5th october i get the all important call    from head office .the cure is on for tommorow rubbish . Ok thankyou (insider knowledge) anyway that is a lot of money to win , i keep my side of the bargain so half goes to head office as agreed .this was a very strange dream from last nightagreed...\" />\n<meta name=\"twitter:description\" content=\"At ladbrooks you can get 2000-1 if you name a day for parkinsons to be cured . I put 1000 pounds on october 6th (at about 11.30) frankle runs that day also so i  put   a pound on him as an accuminater . So on 5th october i get the all important call    from head office .the cure is on for tommorow rubbish . Ok thankyou (insider knowledge) anyway that is a lot of money to win , i keep my side of the bargain so half goes to head office as agreed .this was a very strange dream from last nightagreed...\" />\n<meta property=\"article:published_time\" content=\"2012-09-02T01:19:49+00:00\" />\n<meta property=\"og:ignore_canonical\" content=\"true\" />\n\n\n\n    \n  </head>\n  <body class=\"crawler\">\n    <header role=\"banner\">\n    <div class=\"region region-header\">\n        <div class=\"region-header-wrapper\">\n            <div id=\"block-parkinsons-d8-branding\" class=\"block block-system block-system-branding-block\">\n                <a href=\"/\" title=\"Home\" rel=\"home\" class=\"site-logo\">\n                    <img src=\"https://forum.parkinsons.org.uk/uploads/db7928/original/2X/8/862bb7d172e7d127e7f3e147ec43594aa62ac945.png\" alt=\"Parkinson's UK. Change Attitudes. Find a cure. Join us.\">\n                </a>\n            </div>\n            <div id=\"block-helpline\" class=\"block block-block-content block-block-content871cd5af-b938-4947-9dc0-d5c211d08fe3 style-phone\">\n                <div class=\"field field--name-field-link field--type-link field--label-hidden field__item\"><a href=\"tel:+448088000303\">Helpline 0808 800 0303</a></div>\n            </div>\n            <div id=\"block-shop\" class=\"block block-block-content block-block-content6fba5ae5-7797-49cd-8367-f321d8111cd6 style-regular\">\n                <div class=\"field field--name-field-link field--type-link field--label-hidden field__item\"><a href=\"https://shop.parkinsons.org.uk\">Shop</a></div>\n            </div>\n        </div>\n    </div>\n</header>\n\n\n<script src=\"/theme-javascripts/b7e9763fcb584fc8265c56a9f557cd6d2e1e8ed8.js?__ws=forum.parkinsons.org.uk\"></script>\n    <header>\n      <a href=\"/\">\n          <img src=\"https://forum.parkinsons.org.uk/uploads/db7928/original/2X/8/862bb7d172e7d127e7f3e147ec43594aa62ac945.png\" alt=\"Parkinson&#39;s UK Forum\" id=\"site-logo\" style=\"max-width: 150px;\">\n      </a>\n    </header>\n    <div id=\"main-outlet\" class=\"wrap\">\n      <h1>\n  <a href=\"/t/gambling-with-the-cure/3260\">Gambling with the cure</a>\n</h1>\n\n<div id='breadcrumbs'>\n    <div id=\"breadcrumb-0\" itemscope itemtype=\"http://data-vocabulary.org/Breadcrumb\"\n        itemref=\"breadcrumb-1\"\n      >\n      <a href=\"/c/about-parkinsons-and-health\" itemprop=\"url\">\n        <span itemprop=\"title\">About Parkinson&#39;s and health</span>\n      </a>\n    </div>\n    <div id=\"breadcrumb-1\" itemscope itemtype=\"http://data-vocabulary.org/Breadcrumb\"\n>\n      <a href=\"/c/about-parkinsons-and-health/impulsive-and-compulsive-behaviour\" itemprop=\"url\">\n        <span itemprop=\"title\">Impulsive and compulsive behaviour</span>\n      </a>\n    </div>\n</div>\n\n\n\n\n\n<hr>\n\n\n  <div itemscope itemtype='http://schema.org/DiscussionForumPosting'>\n      <div class='creator'>\n        <span>\n          <a href='/u/rubbish'><b itemprop='author'>rubbish</b></a>\n          \n          <time datetime='2012-09-02T01:19:49Z' itemprop='datePublished'>\n            2012-09-02 01:19:49 UTC\n          </time>\n        </span>\n        <span itemprop='position'>#1</span>\n      </div>\n      <div class='post' itemprop='articleBody'>\n        At ladbrooks you can get 2000-1 if you name a day for parkinsons to be cured . I put<br>1000 pounds on october 6th (at about 11.30) frankle runs that day also so i <br>put   a pound on him as an accuminater . So on 5th october i get the all important call<br><br><br> from head office .the cure is on for tommorow rubbish . Ok thankyou (insider knowledge) anyway that is a lot of money to win , i keep my side of the bargain so half goes to head office as agreed .this was a very strange dream from last nightagreed .this was s very strange dream i had asy night .\n      </div>\n      <meta itemprop='interactionCount' content='UserLikes:0'>\n      <meta itemprop='interactionCount' content='UserComments:0'>\n      <meta itemprop='headline' content='Gambling with the cure'>\n      <hr>\n  </div>\n  <div itemscope itemtype='http://schema.org/DiscussionForumPosting'>\n      <div class='creator'>\n        <span>\n          <a href='/u/turnip'><b itemprop='author'>turnip</b></a>\n          \n          <time datetime='2012-09-02T01:58:21Z' itemprop='datePublished'>\n            2012-09-02 01:58:21 UTC\n          </time>\n        </span>\n        <span itemprop='position'>#2</span>\n      </div>\n      <div class='post' itemprop='articleBody'>\n        have a good time spending your winnings tonight.\n      </div>\n      <meta itemprop='interactionCount' content='UserLikes:0'>\n      <meta itemprop='interactionCount' content='UserComments:0'>\n      <meta itemprop='headline' content='Gambling with the cure'>\n      <hr>\n  </div>\n  <div itemscope itemtype='http://schema.org/DiscussionForumPosting'>\n      <div class='creator'>\n        <span>\n          <a href='/u/blueeyes47'><b itemprop='author'>blueeyes47</b></a>\n          \n          <time datetime='2012-09-02T10:10:49Z' itemprop='datePublished'>\n            2012-09-02 10:10:49 UTC\n          </time>\n        </span>\n        <span itemprop='position'>#3</span>\n      </div>\n      <div class='post' itemprop='articleBody'>\n        Let me reassure you rubbish, your dream last night had nothing to do with Impulsive or Compulsive gambling.  What you experienced was no more than a serious attack of pathological wishful thinking!  <br><br>The symptoms of Pathological wishful thinking (PWT) are in the main harmless.  However severe bouts of uncontrolled PWT, can lead to a feeling of disappointment as you emerge from the PWT.  It could be you are showing the first signs of PWT? Believing a bookie would really offer odds as short as 2000-1, on finding a cure for parkinsons within the next month?  You could get similar odds on me being this years winner of the X Factor?  I cant sing a single note, not even when drunk in a Karaoke bar! However given the choice between backing a cure for PD by 6th October and me winning this years X Factor?  <br><br>Trust me stick your thousand quid on me being crowned 2012 winner of the X Factor thus becoming the latest TV wannabe celeb to become Simon Cowell's best friend.<br><br>Anyway must dash, I'm of to a session with my singing coach...!!!<br><br>bluey\n      </div>\n      <meta itemprop='interactionCount' content='UserLikes:0'>\n      <meta itemprop='interactionCount' content='UserComments:0'>\n      <meta itemprop='headline' content='Gambling with the cure'>\n      <hr>\n  </div>\n  <div itemscope itemtype='http://schema.org/DiscussionForumPosting'>\n      <div class='creator'>\n        <span>\n          <a href='/u/goldengirl'><b itemprop='author'>goldengirl</b></a>\n          \n          <time datetime='2012-09-02T19:37:15Z' itemprop='datePublished'>\n            2012-09-02 19:37:15 UTC\n          </time>\n        </span>\n        <span itemprop='position'>#4</span>\n      </div>\n      <div class='post' itemprop='articleBody'>\n        I think you are being very harsh, Blue-eyes, on Rubbish and yourself.<br>With lots of practice I feel you will do very well on the X factor.<br> I personally am entering Miss World this year.<br>I am 67, 5 foot tall and 2 stones overwight but otherwise quite lovely!<br>Will you both be betting on me??It will be money well spent.<br>GG<br>X\n      </div>\n      <meta itemprop='interactionCount' content='UserLikes:0'>\n      <meta itemprop='interactionCount' content='UserComments:0'>\n      <meta itemprop='headline' content='Gambling with the cure'>\n      <hr>\n  </div>\n  <div itemscope itemtype='http://schema.org/DiscussionForumPosting'>\n      <div class='creator'>\n        <span>\n          <a href='/u/blueeyes47'><b itemprop='author'>blueeyes47</b></a>\n          \n          <time datetime='2012-09-03T09:08:56Z' itemprop='datePublished'>\n            2012-09-03 09:08:56 UTC\n          </time>\n        </span>\n        <span itemprop='position'>#5</span>\n      </div>\n      <div class='post' itemprop='articleBody'>\n        Hi goldengirl<br><br>Sounds like you could be the red hot favourite to win that prodigious crown.<br><br>I would gladly back you with a tenner to win, if i could afford it!  However i lost all my money after depositing everything i had into the International Bank of Cabergoline.  I was told (by my trusted \"adviser\") the Bank of Cabergoline was a safe bet and i would receive positive returns.  But alas the Bank of Cabergoline lost all my money, via its high risk casino style investment banking policies.  Now while I'm left broke and without much hope for the future, the good old Bank of Cabergoline has closed up shop on its casino style banking.  Instead re-emerging in a completely different and growing market?  Cabergoline has moved its entire product range into the Sex industry?  Now Cabergoline is being hailed as the new \"ecstasy brand\" available on-line for anyone wishing to join in a sexual revolution of free love, flower power and of course lots of sex sex sex and (pop another pill) more sex...!! <br><br>Every week that passes and despite trying to move on, something happens to remind me of the past and all the damage done by cabergoline.  Last week was yet another one of those reminders.  When for the second time in 3 years i ended up in hospital following a fall.  On both occasions i spent 3 nightmare days and nights on a NHS ward suffering not from pain caused by my injury, but from the constant battles to get my PD medication from NHS staff who either didn't care or were completely unaware of what \"get it on time\" meant to someone with PD.  For them it might as well of been called \"somewhere in time\".  During the same period i was in hospital last week, my cousin was having treatment following an accident at the private Cromwell road hospital in London, courtesy of her company private medical insurance.  <br><br>I remember those days when i could rely on private health care either via my employer or being able to afford it myself.  Now i dread my next unplanned hospital visit and a continuation of the constant battle to educate NHS ward staff about parkinsons and our medications.  <br><br>Maybe the manufacturers of cabergoline would either pay for NHS staff to be trained or give me the funds, so i can afford private health cover?   Who am i kidding, they are far too busy selling \"cabergoline\" as the new wonder sex drug!<br><br>bluey\n      </div>\n      <meta itemprop='interactionCount' content='UserLikes:0'>\n      <meta itemprop='interactionCount' content='UserComments:0'>\n      <meta itemprop='headline' content='Gambling with the cure'>\n      <hr>\n  </div>\n  <div itemscope itemtype='http://schema.org/DiscussionForumPosting'>\n      <div class='creator'>\n        <span>\n          <a href='/u/Vivian'><b itemprop='author'>Vivian</b></a>\n          \n          <time datetime='2012-09-03T16:16:38Z' itemprop='datePublished'>\n            2012-09-03 16:16:38 UTC\n          </time>\n        </span>\n        <span itemprop='position'>#6</span>\n      </div>\n      <div class='post' itemprop='articleBody'>\n        Hi Bluey,<br><br>  I have been banging the drum about meds on time for the last 25 years and told N/O that the literature they sent out seems to only get as far as the management office as most nurses don't seem to have heard of it in our experience, now am doing the same at the nursing home where my husband is,it needs all you younger one to keep on and kick up a fuss or give talks to student nurses and doctors where ever you can as I am getting passed it. I enjoyed all posts though it brightens up the day.<br>best wishes<br>vivian\n      </div>\n      <meta itemprop='interactionCount' content='UserLikes:0'>\n      <meta itemprop='interactionCount' content='UserComments:0'>\n      <meta itemprop='headline' content='Gambling with the cure'>\n      <hr>\n  </div>\n  <div itemscope itemtype='http://schema.org/DiscussionForumPosting'>\n      <div class='creator'>\n        <span>\n          <a href='/u/Westby'><b itemprop='author'>Westby</b></a>\n          \n          <time datetime='2012-09-06T20:09:18Z' itemprop='datePublished'>\n            2012-09-06 20:09:18 UTC\n          </time>\n        </span>\n        <span itemprop='position'>#7</span>\n      </div>\n      <div class='post' itemprop='articleBody'>\n        Hi !<br>  Do you think its the cost that stops the NHS giving PD drugs on time ?   Last week at the GPs I couldn't help noticing that 100 Madopar cost about £7 ( 7p each) whilst Mirapexin was £226 for 30 slow release tables (£7.50 each)<br><br>A bit of a no brainer if you want to save some money<br><br>westby\n      </div>\n      <meta itemprop='interactionCount' content='UserLikes:0'>\n      <meta itemprop='interactionCount' content='UserComments:0'>\n      <meta itemprop='headline' content='Gambling with the cure'>\n      <hr>\n  </div>\n  <div itemscope itemtype='http://schema.org/DiscussionForumPosting'>\n      <div class='creator'>\n        <span>\n          <a href='/u/Blue_Angel'><b itemprop='author'>Blue_Angel</b></a>\n          \n          <time datetime='2013-01-11T19:53:50Z' itemprop='datePublished'>\n            2013-01-11 19:53:50 UTC\n          </time>\n        </span>\n        <span itemprop='position'>#8</span>\n      </div>\n      <div class='post' itemprop='articleBody'>\n        HI,  I have been to see my Parkinsons Advisiory nurse today.  I have been having a problem with anxiety.  At the moment I take Madapor, which I must add, I am happy with.  My PAN wants me to try MIRAPEXIN.  But I have been told it can causer the taker to develop an extreme urge to gamble, and/or, an extreme urge to watch porn on television ,or other means.<br><br>I can assure everyone that I am neither a gambler, and I do not have any wish to watch porn on TV, or anywhere else for that matter.<br>Can  anyone who reads this post please tell me if they have been affected  in any way by taking this drug. I don't understand, why, if this drug is known to cause such side effects, why is it produced, and why do people take it?  Or, does it not affect everyone in this way ?\n      </div>\n      <meta itemprop='interactionCount' content='UserLikes:0'>\n      <meta itemprop='interactionCount' content='UserComments:0'>\n      <meta itemprop='headline' content='Gambling with the cure'>\n      <hr>\n  </div>\n  <div itemscope itemtype='http://schema.org/DiscussionForumPosting'>\n      <div class='creator'>\n        <span>\n          <a href='/u/titan'><b itemprop='author'>titan</b></a>\n          \n          <time datetime='2013-01-11T23:44:44Z' itemprop='datePublished'>\n            2013-01-11 23:44:44 UTC\n          </time>\n        </span>\n        <span itemprop='position'>#9</span>\n      </div>\n      <div class='post' itemprop='articleBody'>\n        Hi Blue Angel,<br>    The answer is Yes.It is a very long and complicated story.Not yet finished.<br>              Mirapexin,that is<br>                    Titan\n      </div>\n      <meta itemprop='interactionCount' content='UserLikes:0'>\n      <meta itemprop='interactionCount' content='UserComments:0'>\n      <meta itemprop='headline' content='Gambling with the cure'>\n      <hr>\n  </div>\n  <div itemscope itemtype='http://schema.org/DiscussionForumPosting'>\n      <div class='creator'>\n        <span>\n          <a href='/u/Eileenpatricia'><b itemprop='author'>Eileenpatricia</b></a>\n          \n          <time datetime='2013-01-12T00:22:28Z' itemprop='datePublished'>\n            2013-01-12 00:22:28 UTC\n          </time>\n        </span>\n        <span itemprop='position'>#10</span>\n      </div>\n      <div class='post' itemprop='articleBody'>\n        Hi Blue Angel,<br><br>I have no personal experience but if your Parkinsons Nurse has suggested this without giving you the warning that appproximatley 1:5 suffer compulsive behaviours associated with the dopamine agonist class of drugs then I would proceed with caution especially if you live alone and no one will notice any changes in behaviour.    As you will no doubt know people react differently to the same PD drugs.   The benefit I have had from Sinemet far outweighs any fears of diskinesia later on. For others, younger than me, this is a major consideration.  There is a lot on this forum about dopamine agonists including mirapixen.  No doubt, others will be giving you the benefit of their personal experience, positive and negative.\n      </div>\n      <meta itemprop='interactionCount' content='UserLikes:0'>\n      <meta itemprop='interactionCount' content='UserComments:0'>\n      <meta itemprop='headline' content='Gambling with the cure'>\n      <hr>\n  </div>\n  <div itemscope itemtype='http://schema.org/DiscussionForumPosting'>\n      <div class='creator'>\n        <span>\n          <a href='/u/the_Pokermid'><b itemprop='author'>the_Pokermid</b></a>\n          \n          <time datetime='2013-01-12T02:48:33Z' itemprop='datePublished'>\n            2013-01-12 02:48:33 UTC\n          </time>\n        </span>\n        <span itemprop='position'>#11</span>\n      </div>\n      <div class='post' itemprop='articleBody'>\n        After everything that's ever been written, said, shouted, whispered, read, pleaded, begged, gagged, explained, empathized, sympathized, chastised, spewed and puked about DA's, you'd think the message what have gotten through by now, wouldn't ya?<br><br>What the hell, go for it!<br><br>Try it and see! <img src='/images/emoji/emoji_one/bulb.png?v=3' alt=':bulb:' title=':bulb:' class='emoji' />\n      </div>\n      <meta itemprop='interactionCount' content='UserLikes:0'>\n      <meta itemprop='interactionCount' content='UserComments:0'>\n      <meta itemprop='headline' content='Gambling with the cure'>\n      <hr>\n  </div>\n  <div itemscope itemtype='http://schema.org/DiscussionForumPosting'>\n      <div class='creator'>\n        <span>\n          <a href='/u/the_Pokermid'><b itemprop='author'>the_Pokermid</b></a>\n          \n          <time datetime='2013-01-12T02:53:46Z' itemprop='datePublished'>\n            2013-01-12 02:53:46 UTC\n          </time>\n        </span>\n        <span itemprop='position'>#12</span>\n      </div>\n      <div class='post' itemprop='articleBody'>\n        Maybe a bit of reverse psychology will work! <img src='/images/emoji/emoji_one/bulb.png?v=3' alt=':bulb:' title=':bulb:' class='emoji' />\n      </div>\n      <meta itemprop='interactionCount' content='UserLikes:0'>\n      <meta itemprop='interactionCount' content='UserComments:0'>\n      <meta itemprop='headline' content='Gambling with the cure'>\n      <hr>\n  </div>\n  <div itemscope itemtype='http://schema.org/DiscussionForumPosting'>\n      <div class='creator'>\n        <span>\n          <a href='/u/Blue_Angel'><b itemprop='author'>Blue_Angel</b></a>\n          \n          <time datetime='2013-01-12T16:47:02Z' itemprop='datePublished'>\n            2013-01-12 16:47:02 UTC\n          </time>\n        </span>\n        <span itemprop='position'>#13</span>\n      </div>\n      <div class='post' itemprop='articleBody'>\n        Hi Everyone, Just wanted to say Thank you for your advice,\n      </div>\n      <meta itemprop='interactionCount' content='UserLikes:0'>\n      <meta itemprop='interactionCount' content='UserComments:0'>\n      <meta itemprop='headline' content='Gambling with the cure'>\n      <hr>\n  </div>\n\n\n\n\n\n\n    </div>\n    <footer class=\"container\">\n      <nav class='crawler-nav' itemscope itemtype='http://schema.org/SiteNavigationElement'>\n        <a href='/'>Home</a>\n        <a href=\"/categories\">Categories</a>\n        <a href=\"/guidelines\">FAQ/Guidelines</a>\n        <a href=\"/tos\">Terms of Service</a>\n        <a href=\"/privacy\">Privacy Policy</a>\n      </nav>\n      <p class='powered-by-link'>Powered by <a href=\"https://www.discourse.org\">Discourse</a>, best viewed with JavaScript enabled</p>\n    </footer>\n    \n  </body>\n  \n</html>\n",
  "url": "https://forum.parkinsons.org.uk/t/gambling-with-the-cure/3260"
}