{
  "contentId": "ab5ac2f0-8864-11e9-8f96-97f71b5221d6",
  "html": "<!DOCTYPE html>\n<html lang=\"en\">\n  <head>\n    <meta charset=\"utf-8\">\n    <title>Sinemet News Update: 10/05/19 - News, events and taking part - Parkinson&#39;s UK Forum</title>\n    <meta name=\"description\" content=\"Sinemet news \nAs you may know there have been supply problems with some Sinemet products since September 2018. Here’s the latest update, which includes some information about changes to the appearance of 3 Sinemet produc&amp;hellip;\">\n    <meta name=\"author\" content=\"\">\n<meta name=\"generator\" content=\"Discourse 2.2.5 - https://github.com/discourse/discourse version c294ff3609f988dcafb742e91606d60ca13b794d\">\n<link rel=\"icon\" type=\"image/png\" href=\"https://forum.parkinsons.org.uk/uploads/db7928/original/2X/3/311fc84f89f49f38601a2f16b295b6f03d3ce5dd.jpg\">\n<link rel=\"apple-touch-icon\" type=\"image/png\" href=\"https://forum.parkinsons.org.uk/uploads/db7928/original/2X/3/311fc84f89f49f38601a2f16b295b6f03d3ce5dd.jpg\">\n<meta name=\"theme-color\" content=\"#ffffff\">\n<meta name=\"viewport\" content=\"width=device-width, minimum-scale=1.0, maximum-scale=1.0, user-scalable=yes\">\n<link rel=\"canonical\" href=\"https://forum.parkinsons.org.uk/t/sinemet-news-update-10-05-19/19198\" />\n<script type=\"application/ld+json\">{\"@context\":\"http://schema.org\",\"@type\":\"WebSite\",\"url\":\"https://forum.parkinsons.org.uk\",\"potentialAction\":{\"@type\":\"SearchAction\",\"target\":\"https://forum.parkinsons.org.uk/search?q={search_term_string}\",\"query-input\":\"required name=search_term_string\"}}</script>\n<link rel=\"search\" type=\"application/opensearchdescription+xml\" href=\"https://forum.parkinsons.org.uk/opensearch.xml\" title=\"Parkinson&#39;s UK Forum Search\">\n\n      <link href=\"/stylesheets/desktop_f99246ae801b083d3e4cca979d0dade8615b39ac.css?__ws=forum.parkinsons.org.uk\" media=\"all\" rel=\"stylesheet\" data-target=\"desktop\" data-theme-id=\"12\"/>\n      <link href=\"/stylesheets/desktop_theme_12_5d27531cf43f9df0c03a6a6ec3109dd05f9dfc49.css?__ws=forum.parkinsons.org.uk\" media=\"all\" rel=\"stylesheet\" data-target=\"desktop_theme\" data-theme-id=\"12\"/>\n    <link href=\"https://fonts.googleapis.com/css?family=Open+Sans\" rel=\"stylesheet\">\n\n    <meta id=\"data-ga-universal-analytics\" data-tracking-code=\"UA-4855628-1\" data-json=\"{&quot;cookieDomain&quot;:&quot;auto&quot;}\" data-auto-link-domains=\"\">\n\n<link rel='preload' href='/assets/google-universal-analytics-f35b4da49411e6f5559073523aab983da483976a3954c79c756f8579f6fbd6ef.js' as='script'/>\n<script src='/assets/google-universal-analytics-f35b4da49411e6f5559073523aab983da483976a3954c79c756f8579f6fbd6ef.js'></script>\n\n      <link rel=\"alternate\" type=\"application/rss+xml\" title=\"RSS feed of &#39;Sinemet News Update: 10/05/19&#39;\" href=\"https://forum.parkinsons.org.uk/t/sinemet-news-update-10-05-19/19198.rss\" />\n  <meta property=\"og:site_name\" content=\"Parkinson&#39;s UK Forum\" />\n<meta name=\"twitter:card\" content=\"summary\" />\n<meta name=\"twitter:image\" content=\"https://forum.parkinsons.org.uk/uploads/db7928/original/2X/3/311fc84f89f49f38601a2f16b295b6f03d3ce5dd.jpg\" />\n<meta property=\"og:image\" content=\"https://forum.parkinsons.org.uk/uploads/db7928/original/2X/3/311fc84f89f49f38601a2f16b295b6f03d3ce5dd.jpg\" />\n<meta property=\"og:url\" content=\"https://forum.parkinsons.org.uk/t/sinemet-news-update-10-05-19/19198\" />\n<meta name=\"twitter:url\" content=\"https://forum.parkinsons.org.uk/t/sinemet-news-update-10-05-19/19198\" />\n<meta property=\"og:title\" content=\"Sinemet News Update: 10/05/19\" />\n<meta name=\"twitter:title\" content=\"Sinemet News Update: 10/05/19\" />\n<meta property=\"og:description\" content=\"Sinemet news  As you may know there have been supply problems with some Sinemet products since September 2018. Here’s the latest update, which includes some information about changes to the appearance of 3 Sinemet products.  MSD (Merck Sharp &amp; Dohme Limited) have informed us there are still supply issues with these products and they won’t be available until early June:  · Sinemet 25mg/250mg 10x10 tablets.  · Sinemet 12.5mg/50mg 9x10 tablets.  · Sinemet CR 50mg/200mg 6x10 tablets.  · Sinemet plus...\" />\n<meta name=\"twitter:description\" content=\"Sinemet news  As you may know there have been supply problems with some Sinemet products since September 2018. Here’s the latest update, which includes some information about changes to the appearance of 3 Sinemet products.  MSD (Merck Sharp &amp; Dohme Limited) have informed us there are still supply issues with these products and they won’t be available until early June:  · Sinemet 25mg/250mg 10x10 tablets.  · Sinemet 12.5mg/50mg 9x10 tablets.  · Sinemet CR 50mg/200mg 6x10 tablets.  · Sinemet plus...\" />\n<meta property=\"article:published_time\" content=\"2019-05-10T15:27:49+00:00\" />\n<meta property=\"og:ignore_canonical\" content=\"true\" />\n\n\n\n    \n  </head>\n  <body class=\"crawler\">\n    <header role=\"banner\">\n    <div class=\"region region-header\">\n        <div class=\"region-header-wrapper\">\n            <div id=\"block-parkinsons-d8-branding\" class=\"block block-system block-system-branding-block\">\n                <a href=\"/\" title=\"Home\" rel=\"home\" class=\"site-logo\">\n                    <img src=\"https://forum.parkinsons.org.uk/uploads/db7928/original/2X/8/862bb7d172e7d127e7f3e147ec43594aa62ac945.png\" alt=\"Parkinson's UK. Change Attitudes. Find a cure. Join us.\">\n                </a>\n            </div>\n            <div id=\"block-helpline\" class=\"block block-block-content block-block-content871cd5af-b938-4947-9dc0-d5c211d08fe3 style-phone\">\n                <div class=\"field field--name-field-link field--type-link field--label-hidden field__item\"><a href=\"tel:+448088000303\">Helpline 0808 800 0303</a></div>\n            </div>\n            <div id=\"block-shop\" class=\"block block-block-content block-block-content6fba5ae5-7797-49cd-8367-f321d8111cd6 style-regular\">\n                <div class=\"field field--name-field-link field--type-link field--label-hidden field__item\"><a href=\"https://shop.parkinsons.org.uk\">Shop</a></div>\n            </div>\n        </div>\n    </div>\n</header>\n\n\n<script src=\"/theme-javascripts/b7e9763fcb584fc8265c56a9f557cd6d2e1e8ed8.js?__ws=forum.parkinsons.org.uk\"></script>\n    <header>\n      <a href=\"/\">\n          <img src=\"https://forum.parkinsons.org.uk/uploads/db7928/original/2X/8/862bb7d172e7d127e7f3e147ec43594aa62ac945.png\" alt=\"Parkinson&#39;s UK Forum\" id=\"site-logo\" style=\"max-width: 150px;\">\n      </a>\n    </header>\n    <div id=\"main-outlet\" class=\"wrap\">\n      <h1>\n  <a href=\"/t/sinemet-news-update-10-05-19/19198\">Sinemet News Update: 10/05/19</a>\n</h1>\n\n<div id='breadcrumbs'>\n    <div id=\"breadcrumb-0\" itemscope itemtype=\"http://data-vocabulary.org/Breadcrumb\"\n        itemref=\"breadcrumb-1\"\n      >\n      <a href=\"/c/get-involved\" itemprop=\"url\">\n        <span itemprop=\"title\">Get involved</span>\n      </a>\n    </div>\n    <div id=\"breadcrumb-1\" itemscope itemtype=\"http://data-vocabulary.org/Breadcrumb\"\n>\n      <a href=\"/c/get-involved/news-events-and-taking-part\" itemprop=\"url\">\n        <span itemprop=\"title\">News, events and taking part</span>\n      </a>\n    </div>\n</div>\n\n\n\n\n\n<hr>\n\n\n  <div itemscope itemtype='http://schema.org/DiscussionForumPosting'>\n      <div class='creator'>\n        <span>\n          <a href='/u/Reah'><b itemprop='author'>Reah</b></a>\n          \n          <time datetime='2019-05-10T15:27:49Z' itemprop='datePublished'>\n            2019-05-10 15:27:49 UTC\n          </time>\n        </span>\n        <span itemprop='position'>#1</span>\n      </div>\n      <div class='post' itemprop='articleBody'>\n        <p>Sinemet news</p>\n<p>As you may know there have been supply problems with some Sinemet products since September 2018. Here’s the latest update, which includes some information about changes to the appearance of 3 Sinemet products.</p>\n<p>MSD (Merck Sharp &amp; Dohme Limited) have informed us there are still supply issues with these products and they won’t be available until early June:</p>\n<p>· Sinemet 25mg/250mg 10x10 tablets.</p>\n<p>· Sinemet 12.5mg/50mg 9x10 tablets.</p>\n<p>· Sinemet CR 50mg/200mg 6x10 tablets.</p>\n<p>· Sinemet plus 10mg/100mg 10x10 tablets.</p>\n<p>MSD have confirmed that these Sinemet products should all be available:</p>\n<p>· Sinemet Plus 25mg/100mg 10x10 tablets.</p>\n<p>· Sinemet Half CR 25mg/100mg 6x10 tablets.</p>\n<p><strong>Will this affect me?</strong></p>\n<p>If you take Sinemet 25mg/250mg, Sinemet 12.5mg/50mg, Sinemet CR 50mg/200mg or Sinemet 10mg/100mg your pharmacist may be unable to give you your prescription.</p>\n<p>However, there are generic versions of Co-careldopa, the active ingredient in Sinemet, available in a range of strengths.</p>\n<p>Your GP or pharmacist can discuss this with you and should be able to offer you a suitable alternative.</p>\n<p><strong>Changes to 3 Sinemet products</strong></p>\n<p>MSD have taken action to stop this ongoing supply issue and have decided to move manufacturing of 3 Sinemet products to another manufacturing site, where they hope to provide a more consistent supply.</p>\n<p>This means the look of these products will change, from round to oval. However, the tablets contain the same ingredients and should therefore work as they do now. They will just look different.</p>\n<p><strong>When will the tablets change?</strong></p>\n<p>These new look tablets will start to be used from early May. However, some pharmacies may continue to dispense the round tablets until their supplies have been depleted.</p>\n<p>This may mean you receive round tablets for some time from your usual pharmacy. They are still ok to be taken.</p>\n<p>K<strong>eeping you informed</strong></p>\n<p>We continue to receive regular updates from the company who manufacture Sinemet, letting us know about the supply issues and action they’re taking to ensure Sinemet is available for people with Parkinson’s across the UK.</p>\n<p>We will continue to share further updates on Sinemet availability as we receive them.</p>\n<p>“MSD in the UK is currently experiencing intermittent supply for some presentations of Sinemet as a result of unexpected capacity constraints at one of our partner manufacturing sites. MSD fully understands the difficulty this may cause to patients and customers.</p>\n<p>“MSD has a broad network of manufacturing facilities globally and timely delivery of our medicines to patients and providers is our key priority at all times. Unfortunately, from time to time, delays can occur for various reasons and we are doing everything we can to expedite resupplies of the presentations affected.</p>\n<p>“Patients who may be affected by this shortage should contact their healthcare professional or pharmacist to discuss their treatment options.”</p>\n<p>If you have any questions or concerns regarding your medication, or if you’re unable to obtain Sinemet, you can discuss this with your GP, consultant, pharmacist or Parkinson’s nurse.</p>\n<p>You can also contact our helpline on 0808 800 0303.</p>\n      </div>\n      <meta itemprop='interactionCount' content='UserLikes:0'>\n      <meta itemprop='interactionCount' content='UserComments:0'>\n      <meta itemprop='headline' content='Sinemet News Update: 10/05/19'>\n      <hr>\n            <a href=\"https://forum.parkinsons.org.uk/t/sinemet-shortage-status/16700/24\">Sinemet shortage status</a>\n            <hr>\n  </div>\n\n\n\n\n\n\n    </div>\n    <footer class=\"container\">\n      <nav class='crawler-nav' itemscope itemtype='http://schema.org/SiteNavigationElement'>\n        <a href='/'>Home</a>\n        <a href=\"/categories\">Categories</a>\n        <a href=\"/guidelines\">FAQ/Guidelines</a>\n        <a href=\"/tos\">Terms of Service</a>\n        <a href=\"/privacy\">Privacy Policy</a>\n      </nav>\n      <p class='powered-by-link'>Powered by <a href=\"https://www.discourse.org\">Discourse</a>, best viewed with JavaScript enabled</p>\n    </footer>\n    \n  </body>\n  \n</html>\n",
  "url": "https://forum.parkinsons.org.uk/t/sinemet-news-update-10-05-19/19198"
}