{
  "contentId": "9626a420-8865-11e9-8f96-97f71b5221d6",
  "html": "<!DOCTYPE html>\n<html lang=\"en\">\n  <head>\n    <meta charset=\"utf-8\">\n    <title>Hello, and a question - Work, benefits and money - Parkinson&#39;s UK Forum</title>\n    <meta name=\"description\" content=\"Hi, \r\nI joined a month or so back, so about time to say &amp;quot;Hi&amp;quot; \r\n[cool] \r\nHi! \r\n[mr green] \r\nNow then, I have a question. I retired 20 plus years ago due to spinal disease. Since then I have been living on a part-pension, &amp;hellip;\">\n    <meta name=\"author\" content=\"\">\n<meta name=\"generator\" content=\"Discourse 2.2.5 - https://github.com/discourse/discourse version c294ff3609f988dcafb742e91606d60ca13b794d\">\n<link rel=\"icon\" type=\"image/png\" href=\"https://forum.parkinsons.org.uk/uploads/db7928/original/2X/3/311fc84f89f49f38601a2f16b295b6f03d3ce5dd.jpg\">\n<link rel=\"apple-touch-icon\" type=\"image/png\" href=\"https://forum.parkinsons.org.uk/uploads/db7928/original/2X/3/311fc84f89f49f38601a2f16b295b6f03d3ce5dd.jpg\">\n<meta name=\"theme-color\" content=\"#ffffff\">\n<meta name=\"viewport\" content=\"width=device-width, minimum-scale=1.0, maximum-scale=1.0, user-scalable=yes\">\n<link rel=\"canonical\" href=\"https://forum.parkinsons.org.uk/t/hello-and-a-question/8438?page=2\" />\n<script type=\"application/ld+json\">{\"@context\":\"http://schema.org\",\"@type\":\"WebSite\",\"url\":\"https://forum.parkinsons.org.uk\",\"potentialAction\":{\"@type\":\"SearchAction\",\"target\":\"https://forum.parkinsons.org.uk/search?q={search_term_string}\",\"query-input\":\"required name=search_term_string\"}}</script>\n<link rel=\"search\" type=\"application/opensearchdescription+xml\" href=\"https://forum.parkinsons.org.uk/opensearch.xml\" title=\"Parkinson&#39;s UK Forum Search\">\n\n      <link href=\"/stylesheets/desktop_f99246ae801b083d3e4cca979d0dade8615b39ac.css?__ws=forum.parkinsons.org.uk\" media=\"all\" rel=\"stylesheet\" data-target=\"desktop\" data-theme-id=\"12\"/>\n      <link href=\"/stylesheets/desktop_theme_12_5d27531cf43f9df0c03a6a6ec3109dd05f9dfc49.css?__ws=forum.parkinsons.org.uk\" media=\"all\" rel=\"stylesheet\" data-target=\"desktop_theme\" data-theme-id=\"12\"/>\n    <link href=\"https://fonts.googleapis.com/css?family=Open+Sans\" rel=\"stylesheet\">\n\n    <meta id=\"data-ga-universal-analytics\" data-tracking-code=\"UA-4855628-1\" data-json=\"{&quot;cookieDomain&quot;:&quot;auto&quot;}\" data-auto-link-domains=\"\">\n\n<link rel='preload' href='/assets/google-universal-analytics-f35b4da49411e6f5559073523aab983da483976a3954c79c756f8579f6fbd6ef.js' as='script'/>\n<script src='/assets/google-universal-analytics-f35b4da49411e6f5559073523aab983da483976a3954c79c756f8579f6fbd6ef.js'></script>\n\n      <link rel=\"alternate\" type=\"application/rss+xml\" title=\"RSS feed of &#39;Hello, and a question&#39;\" href=\"https://forum.parkinsons.org.uk/t/hello-and-a-question/8438.rss\" />\n  <meta property=\"og:site_name\" content=\"Parkinson&#39;s UK Forum\" />\n<meta name=\"twitter:card\" content=\"summary\" />\n<meta name=\"twitter:image\" content=\"https://forum.parkinsons.org.uk/uploads/db7928/original/2X/3/311fc84f89f49f38601a2f16b295b6f03d3ce5dd.jpg\" />\n<meta property=\"og:image\" content=\"https://forum.parkinsons.org.uk/uploads/db7928/original/2X/3/311fc84f89f49f38601a2f16b295b6f03d3ce5dd.jpg\" />\n<meta property=\"og:url\" content=\"https://forum.parkinsons.org.uk/t/hello-and-a-question/8438?page=2\" />\n<meta name=\"twitter:url\" content=\"https://forum.parkinsons.org.uk/t/hello-and-a-question/8438?page=2\" />\n<meta property=\"og:title\" content=\"Hello, and a question\" />\n<meta name=\"twitter:title\" content=\"Hello, and a question\" />\n<meta property=\"og:description\" content=\"Hi MB420,  Thanks for your question. We’re confident that one of our forum members will offer their support and advice.  If not, someone from the Parkinson’s UK moderation team will respond to you as soon as possible. If the situation is urgent, please feel free to get in touch with our helpline service on 0808 800 0303 to speak to one of our Parkinson’s UK advisers.  Best wishes,  Edwina\" />\n<meta name=\"twitter:description\" content=\"Hi MB420,  Thanks for your question. We’re confident that one of our forum members will offer their support and advice.  If not, someone from the Parkinson’s UK moderation team will respond to you as soon as possible. If the situation is urgent, please feel free to get in touch with our helpline service on 0808 800 0303 to speak to one of our Parkinson’s UK advisers.  Best wishes,  Edwina\" />\n<meta name=\"twitter:label1\" value=\"Reading time\" />\n<meta name=\"twitter:data1\" value=\"6 mins \uD83D\uDD51\" />\n<meta name=\"twitter:label2\" value=\"Likes\" />\n<meta name=\"twitter:data2\" value=\"2 ❤\" />\n<meta property=\"article:published_time\" content=\"2018-04-21T11:20:33+00:00\" />\n<meta property=\"og:ignore_canonical\" content=\"true\" />\n\n      <link rel=\"prev\" href=\"/t/hello-and-a-question/8438\">\n      <link rel=\"next\" href=\"/t/hello-and-a-question/8438?page=3\">\n\n\n    \n  </head>\n  <body class=\"crawler\">\n    <header role=\"banner\">\n    <div class=\"region region-header\">\n        <div class=\"region-header-wrapper\">\n            <div id=\"block-parkinsons-d8-branding\" class=\"block block-system block-system-branding-block\">\n                <a href=\"/\" title=\"Home\" rel=\"home\" class=\"site-logo\">\n                    <img src=\"https://forum.parkinsons.org.uk/uploads/db7928/original/2X/8/862bb7d172e7d127e7f3e147ec43594aa62ac945.png\" alt=\"Parkinson's UK. Change Attitudes. Find a cure. Join us.\">\n                </a>\n            </div>\n            <div id=\"block-helpline\" class=\"block block-block-content block-block-content871cd5af-b938-4947-9dc0-d5c211d08fe3 style-phone\">\n                <div class=\"field field--name-field-link field--type-link field--label-hidden field__item\"><a href=\"tel:+448088000303\">Helpline 0808 800 0303</a></div>\n            </div>\n            <div id=\"block-shop\" class=\"block block-block-content block-block-content6fba5ae5-7797-49cd-8367-f321d8111cd6 style-regular\">\n                <div class=\"field field--name-field-link field--type-link field--label-hidden field__item\"><a href=\"https://shop.parkinsons.org.uk\">Shop</a></div>\n            </div>\n        </div>\n    </div>\n</header>\n\n\n<script src=\"/theme-javascripts/b7e9763fcb584fc8265c56a9f557cd6d2e1e8ed8.js?__ws=forum.parkinsons.org.uk\"></script>\n    <header>\n      <a href=\"/\">\n          <img src=\"https://forum.parkinsons.org.uk/uploads/db7928/original/2X/8/862bb7d172e7d127e7f3e147ec43594aa62ac945.png\" alt=\"Parkinson&#39;s UK Forum\" id=\"site-logo\" style=\"max-width: 150px;\">\n      </a>\n    </header>\n    <div id=\"main-outlet\" class=\"wrap\">\n      <h1>\n  <a href=\"/t/hello-and-a-question/8438\">Hello, and a question</a>\n</h1>\n\n<div id='breadcrumbs'>\n    <div id=\"breadcrumb-0\" itemscope itemtype=\"http://data-vocabulary.org/Breadcrumb\"\n        itemref=\"breadcrumb-1\"\n      >\n      <a href=\"/c/living-with-parkinsons\" itemprop=\"url\">\n        <span itemprop=\"title\">Living with Parkinson&#39;s</span>\n      </a>\n    </div>\n    <div id=\"breadcrumb-1\" itemscope itemtype=\"http://data-vocabulary.org/Breadcrumb\"\n>\n      <a href=\"/c/living-with-parkinsons/work-benefits-and-money\" itemprop=\"url\">\n        <span itemprop=\"title\">Work, benefits and money</span>\n      </a>\n    </div>\n</div>\n\n\n\n\n\n<hr>\n\n\n  <div itemscope itemtype='http://schema.org/DiscussionForumPosting'>\n      <div class='creator'>\n        <span>\n          <a href='/u/Moderators2'><b itemprop='author'>Moderators2</b></a>\n          \n          <time datetime='2018-04-21T11:20:33Z' itemprop='datePublished'>\n            2018-04-21 11:20:33 UTC\n          </time>\n        </span>\n        <span itemprop='position'>#21</span>\n      </div>\n      <div class='post' itemprop='articleBody'>\n        <p>Hi MB420,</p>\n<p>Thanks for your question. We’re confident that one of our forum members will offer their support and advice.</p>\n<p>If not, someone from the Parkinson’s UK moderation team will respond to you as soon as possible. If the situation is urgent, please feel free to get in touch with our helpline service on 0808 800 0303 to speak to one of our Parkinson’s UK advisers.</p>\n<p>Best wishes,</p>\n<p>Edwina</p>\n      </div>\n      <meta itemprop='interactionCount' content='UserLikes:1'>\n      <meta itemprop='interactionCount' content='UserComments:1'>\n      <meta itemprop='headline' content='Hello, and a question'>\n      <hr>\n  </div>\n  <div itemscope itemtype='http://schema.org/DiscussionForumPosting'>\n      <div class='creator'>\n        <span>\n          <a href='/u/babswood'><b itemprop='author'>babswood</b></a>\n          \n          <time datetime='2018-04-21T11:59:34Z' itemprop='datePublished'>\n            2018-04-21 11:59:34 UTC\n          </time>\n        </span>\n        <span itemprop='position'>#22</span>\n      </div>\n      <div class='post' itemprop='articleBody'>\n        <p>Hi</p>\n<p>When I was diagnosed with PD I already had Rheumatoid arthritis and was getting DAL I only told them about my P D when I had another booklet through to fill in. As you say you are supposed to tell them of any changes but the more info you  give them the more they mix everything up.<br>\nTake Care Babs x</p>\n      </div>\n      <meta itemprop='interactionCount' content='UserLikes:1'>\n      <meta itemprop='interactionCount' content='UserComments:0'>\n      <meta itemprop='headline' content='Hello, and a question'>\n      <hr>\n  </div>\n  <div itemscope itemtype='http://schema.org/DiscussionForumPosting'>\n      <div class='creator'>\n        <span>\n          <a href='/u/MB420'><b itemprop='author'>MB420</b></a>\n          \n          <time datetime='2018-04-21T13:16:23Z' itemprop='datePublished'>\n            2018-04-21 13:16:23 UTC\n          </time>\n        </span>\n        <span itemprop='position'>#23</span>\n      </div>\n      <div class='post' itemprop='articleBody'>\n        <p>Thankyou. I shall be ringing that number on Monday. Taking a weekend off aftre several nights of fighting the cramp and scaitica monsters!</p>\n      </div>\n      <meta itemprop='interactionCount' content='UserLikes:0'>\n      <meta itemprop='interactionCount' content='UserComments:0'>\n      <meta itemprop='headline' content='Hello, and a question'>\n      <hr>\n  </div>\n  <div itemscope itemtype='http://schema.org/DiscussionForumPosting'>\n      <div class='creator'>\n        <span>\n          <a href='/u/Reah'><b itemprop='author'>Reah</b></a>\n          \n          <time datetime='2018-04-23T16:58:38Z' itemprop='datePublished'>\n            2018-04-23 16:58:38 UTC\n          </time>\n        </span>\n        <span itemprop='position'>#24</span>\n      </div>\n      <div class='post' itemprop='articleBody'>\n        <p>Hi <a class=\"mention\" href=\"/u/mb420\">@MB420</a>,</p>\n<p>I just thought I’d check in with you on this. Did you give our helpline a call? They are very knowledgeable on PIP assessments so they’ll give you the appropriate advice on this which will hopefully give you some reassurance. They can also arrange for a Parkinson’s nurse to contact you regarding your records  - do update me on this. I’m happy to provide you with more help and support.</p>\n<p>Take care and I look forward to your response.</p>\n<p>Best,<br>\nReah</p>\n      </div>\n      <meta itemprop='interactionCount' content='UserLikes:0'>\n      <meta itemprop='interactionCount' content='UserComments:1'>\n      <meta itemprop='headline' content='Hello, and a question'>\n      <hr>\n  </div>\n  <div itemscope itemtype='http://schema.org/DiscussionForumPosting'>\n      <div class='creator'>\n        <span>\n          <a href='/u/MB420'><b itemprop='author'>MB420</b></a>\n          \n          <time datetime='2018-04-23T18:31:14Z' itemprop='datePublished'>\n            2018-04-23 18:31:14 UTC\n          </time>\n        </span>\n        <span itemprop='position'>#25</span>\n      </div>\n      <div class='post' itemprop='articleBody'>\n        <p>Hi Reah<br>\nThanks for the post. I have not yet rung the number, but it is top of my list for tomorrow (Tuesday). I’ll report back on every step I take, and what the outcome is. Feeling a touch more positive right now ~ but that’s typical, I get huge swings in mood.</p>\n      </div>\n      <meta itemprop='interactionCount' content='UserLikes:0'>\n      <meta itemprop='interactionCount' content='UserComments:0'>\n      <meta itemprop='headline' content='Hello, and a question'>\n      <hr>\n  </div>\n  <div itemscope itemtype='http://schema.org/DiscussionForumPosting'>\n      <div class='creator'>\n        <span>\n          <a href='/u/Hubby'><b itemprop='author'>Hubby</b></a>\n          \n          <time datetime='2018-04-24T02:06:47Z' itemprop='datePublished'>\n            2018-04-24 02:06:47 UTC\n          </time>\n        </span>\n        <span itemprop='position'>#26</span>\n      </div>\n      <div class='post' itemprop='articleBody'>\n        <p>I live in Spain.<br>\nI paid into the UK system for 26 years.<br>\nParkinson’s is going to stop me from working at some point. I am a PE teacher.<br>\nI still have nine years to go before I can retire.<br>\nAny ideas anyone?<br>\nH</p>\n      </div>\n      <meta itemprop='interactionCount' content='UserLikes:0'>\n      <meta itemprop='interactionCount' content='UserComments:1'>\n      <meta itemprop='headline' content='Hello, and a question'>\n      <hr>\n  </div>\n  <div itemscope itemtype='http://schema.org/DiscussionForumPosting'>\n      <div class='creator'>\n        <span>\n          <a href='/u/babswood'><b itemprop='author'>babswood</b></a>\n          \n          <time datetime='2018-04-24T09:30:07Z' itemprop='datePublished'>\n            2018-04-24 09:30:07 UTC\n          </time>\n        </span>\n        <span itemprop='position'>#27</span>\n      </div>\n      <div class='post' itemprop='articleBody'>\n        <p>Sorry Hubby I have no idea with you living in Spain.</p>\n<p>There has got to be someone you can ask for advice.</p>\n      </div>\n      <meta itemprop='interactionCount' content='UserLikes:0'>\n      <meta itemprop='interactionCount' content='UserComments:0'>\n      <meta itemprop='headline' content='Hello, and a question'>\n      <hr>\n  </div>\n  <div itemscope itemtype='http://schema.org/DiscussionForumPosting'>\n      <div class='creator'>\n        <span>\n          <a href='/u/Reah'><b itemprop='author'>Reah</b></a>\n          \n          <time datetime='2018-04-24T09:59:21Z' itemprop='datePublished'>\n            2018-04-24 09:59:21 UTC\n          </time>\n        </span>\n        <span itemprop='position'>#28</span>\n      </div>\n      <div class='post' itemprop='articleBody'>\n        <p>Hi <a class=\"mention\" href=\"/u/mb420\">@MB420</a>,</p>\n<p>No problem at all and do let me know if there’s anything I can do to help.</p>\n<p>Best wishes,<br>\nReah</p>\n      </div>\n      <meta itemprop='interactionCount' content='UserLikes:0'>\n      <meta itemprop='interactionCount' content='UserComments:1'>\n      <meta itemprop='headline' content='Hello, and a question'>\n      <hr>\n  </div>\n  <div itemscope itemtype='http://schema.org/DiscussionForumPosting'>\n      <div class='creator'>\n        <span>\n          <a href='/u/MB420'><b itemprop='author'>MB420</b></a>\n          \n          <time datetime='2018-04-24T11:00:17Z' itemprop='datePublished'>\n            2018-04-24 11:00:17 UTC\n          </time>\n        </span>\n        <span itemprop='position'>#29</span>\n      </div>\n      <div class='post' itemprop='articleBody'>\n        <p>Are you part of the Parkinsons team here, Reah? <img src=\"//forum.parkinsons.org.uk/images/emoji/twitter/grinning.png?v=5\" title=\":grinning:\" class=\"emoji\" alt=\":grinning:\"><br>\nI am just about to ring the number, Now…</p>\n      </div>\n      <meta itemprop='interactionCount' content='UserLikes:0'>\n      <meta itemprop='interactionCount' content='UserComments:0'>\n      <meta itemprop='headline' content='Hello, and a question'>\n      <hr>\n  </div>\n  <div itemscope itemtype='http://schema.org/DiscussionForumPosting'>\n      <div class='creator'>\n        <span>\n          <a href='/u/Reah'><b itemprop='author'>Reah</b></a>\n          \n          <time datetime='2018-04-24T11:02:58Z' itemprop='datePublished'>\n            2018-04-24 11:02:58 UTC\n          </time>\n        </span>\n        <span itemprop='position'>#30</span>\n      </div>\n      <div class='post' itemprop='articleBody'>\n        <p>Hi <a class=\"mention\" href=\"/u/mb420\">@MB420</a>,</p>\n<p>Yes, I am the Community Manager for the forum. However, you’ll be contacting our helpline and will be speaking to one of our advisers.</p>\n<p>All the best,<br>\nReah</p>\n      </div>\n      <meta itemprop='interactionCount' content='UserLikes:0'>\n      <meta itemprop='interactionCount' content='UserComments:1'>\n      <meta itemprop='headline' content='Hello, and a question'>\n      <hr>\n  </div>\n  <div itemscope itemtype='http://schema.org/DiscussionForumPosting'>\n      <div class='creator'>\n        <span>\n          <a href='/u/MB420'><b itemprop='author'>MB420</b></a>\n          \n          <time datetime='2018-04-24T11:33:12Z' itemprop='datePublished'>\n            2018-04-24 11:33:12 UTC\n          </time>\n        </span>\n        <span itemprop='position'>#31</span>\n      </div>\n      <div class='post' itemprop='articleBody'>\n        <p>Thankyou Reah, for your help and support. I have rung the helpline, and am now waiting on a return call from soemone who is a Benefits specialist. I think the really unpleasant character of the PIP Claim form is its intrusiveness, and the overall hostile feel of every question. I cannot write by hand so have to involve someone else, probably my daughter/carer. I am finding that an unpleasant prospect, because I have not really told her the half of what Parkinsons has done to me. Bladder/bowel issues, for example. And I have never hinted even, that I have had some really down days where I have found myslef looking down at packet containing 56 Morphine 50mg pills and thinking “Why bother going on…” Thankfully a brilliant Counsellor dragged me out of that pit, but things like these forms take me back to the brink. But before anyone gets the wrong idea, let me finish by saying <em>I am in <strong>no</strong> way contemplating such dangerous thoughts now</em>.</p>\n      </div>\n      <meta itemprop='interactionCount' content='UserLikes:0'>\n      <meta itemprop='interactionCount' content='UserComments:1'>\n      <meta itemprop='headline' content='Hello, and a question'>\n      <hr>\n  </div>\n  <div itemscope itemtype='http://schema.org/DiscussionForumPosting'>\n      <div class='creator'>\n        <span>\n          <a href='/u/Reah'><b itemprop='author'>Reah</b></a>\n          \n          <time datetime='2018-04-24T14:49:59Z' itemprop='datePublished'>\n            2018-04-24 14:49:59 UTC\n          </time>\n        </span>\n        <span itemprop='position'>#32</span>\n      </div>\n      <div class='post' itemprop='articleBody'>\n        <p>Hi <a class=\"mention\" href=\"/u/mb420\">@MB420</a>,</p>\n<p>Thanks for the update and I’m glad they have arranged for a benefits specialist to contact you.</p>\n<p>Unfortunately, you are not alone with your views on PIP claims which is why we are <a href=\"https://www.parkinsons.org.uk/news/pip-claims-be-reviewed\">actively campaigning</a> to make PIP and employment and support allowance work for people with Parkinson’s. Regarding your concerns about your PIP form, if you’re uncomfortable with having your daughter do this on your behalf, it might be worth raising this with your Parkinson’s nurse.</p>\n<p>I’m also happy to hear that you are in a better mental space and just know you can always come to us if you need someone to talk to.</p>\n<p>All the best and do take care,<br>\nReah</p>\n      </div>\n      <meta itemprop='interactionCount' content='UserLikes:0'>\n      <meta itemprop='interactionCount' content='UserComments:0'>\n      <meta itemprop='headline' content='Hello, and a question'>\n      <hr>\n  </div>\n  <div itemscope itemtype='http://schema.org/DiscussionForumPosting'>\n      <div class='creator'>\n        <span>\n          <a href='/u/gus'><b itemprop='author'>gus</b></a>\n          \n          <time datetime='2018-04-24T18:13:34Z' itemprop='datePublished'>\n            2018-04-24 18:13:34 UTC\n          </time>\n        </span>\n        <span itemprop='position'>#33</span>\n      </div>\n      <div class='post' itemprop='articleBody'>\n        <p>Can you get in touch with pd support worker will help fill in paper work</p>\n      </div>\n      <meta itemprop='interactionCount' content='UserLikes:0'>\n      <meta itemprop='interactionCount' content='UserComments:0'>\n      <meta itemprop='headline' content='Hello, and a question'>\n      <hr>\n  </div>\n  <div itemscope itemtype='http://schema.org/DiscussionForumPosting'>\n      <div class='creator'>\n        <span>\n          <a href='/u/babswood'><b itemprop='author'>babswood</b></a>\n          \n          <time datetime='2018-04-26T06:29:22Z' itemprop='datePublished'>\n            2018-04-26 06:29:22 UTC\n          </time>\n        </span>\n        <span itemprop='position'>#34</span>\n      </div>\n      <div class='post' itemprop='articleBody'>\n        <p>Hi there</p>\n<p>Hope you got your PIP sorted.<br>\nIt is no easy task. I got help from the Citizens Advice as I too was unable to fill in the  form or book as  I should say as so many pages.<br>\nI hope you are feeling better about things.<br>\nTake Care Babs</p>\n      </div>\n      <meta itemprop='interactionCount' content='UserLikes:0'>\n      <meta itemprop='interactionCount' content='UserComments:0'>\n      <meta itemprop='headline' content='Hello, and a question'>\n      <hr>\n  </div>\n  <div itemscope itemtype='http://schema.org/DiscussionForumPosting'>\n      <div class='creator'>\n        <span>\n          <a href='/u/Hubby'><b itemprop='author'>Hubby</b></a>\n          \n          <time datetime='2018-04-27T03:29:57Z' itemprop='datePublished'>\n            2018-04-27 03:29:57 UTC\n          </time>\n        </span>\n        <span itemprop='position'>#35</span>\n      </div>\n      <div class='post' itemprop='articleBody'>\n        <p>Does anybody know if I can claim PIP from Spain?</p>\n      </div>\n      <meta itemprop='interactionCount' content='UserLikes:0'>\n      <meta itemprop='interactionCount' content='UserComments:1'>\n      <meta itemprop='headline' content='Hello, and a question'>\n      <hr>\n  </div>\n  <div itemscope itemtype='http://schema.org/DiscussionForumPosting'>\n      <div class='creator'>\n        <span>\n          <a href='/u/Moderators2'><b itemprop='author'>Moderators2</b></a>\n          \n          <time datetime='2018-04-27T22:37:02Z' itemprop='datePublished'>\n            2018-04-27 22:37:02 UTC\n          </time>\n        </span>\n        <span itemprop='position'>#36</span>\n      </div>\n      <div class='post' itemprop='articleBody'>\n        <p>Hi Hubby,</p>\n<p>Some of the conditions to qualify for PIP are having been present in Great Britain (or Northern Ireland if you live there) for 2 out of the last 3 years before claiming and you must normally live in the United Kingdom, the Channel Islands, the Republic of Ireland or the Isle of Man. You can find out more about PIP <a href=\"https://www.parkinsons.org.uk/information-and-support/personal-independence-payment\">here</a>. You can also read about other benefits <a href=\"https://www.parkinsons.org.uk/information-and-support/benefits-people-disability-and-carers\">here</a>, although you will usually find that being resident in the UK is a requirement.</p>\n<p>You can always give our helpline a call on 0808 800 0303 from the UK or contact them by email on <a href=\"/cdn-cgi/l/email-protection#1a727f7676755a6a7b68717374697574693475687d346f71\"><span class=\"__cf_email__\" data-cfemail=\"1179747d7d7e516170637a787f627e7f623f7e63763f647a\">[email&#160;protected]</span></a> from anywhere to explore your options.</p>\n<p>Best wishes,<br>\nMara - Moderation Team</p>\n      </div>\n      <meta itemprop='interactionCount' content='UserLikes:0'>\n      <meta itemprop='interactionCount' content='UserComments:0'>\n      <meta itemprop='headline' content='Hello, and a question'>\n      <hr>\n  </div>\n  <div itemscope itemtype='http://schema.org/DiscussionForumPosting'>\n      <div class='creator'>\n        <span>\n          <a href='/u/Hubby'><b itemprop='author'>Hubby</b></a>\n          \n          <time datetime='2018-04-28T04:56:21Z' itemprop='datePublished'>\n            2018-04-28 04:56:21 UTC\n          </time>\n        </span>\n        <span itemprop='position'>#37</span>\n      </div>\n      <div class='post' itemprop='articleBody'>\n        <p>Thanks.<br>\nSounds a Bit unfair as I paid NI for 26 years.</p>\n<p>I know you don’t make the rules <img src=\"//forum.parkinsons.org.uk/images/emoji/twitter/sunglasses.png?v=5\" title=\":sunglasses:\" class=\"emoji\" alt=\":sunglasses:\"></p>\n      </div>\n      <meta itemprop='interactionCount' content='UserLikes:0'>\n      <meta itemprop='interactionCount' content='UserComments:0'>\n      <meta itemprop='headline' content='Hello, and a question'>\n      <hr>\n  </div>\n  <div itemscope itemtype='http://schema.org/DiscussionForumPosting'>\n      <div class='creator'>\n        <span>\n          <a href='/u/MB420'><b itemprop='author'>MB420</b></a>\n          \n          <time datetime='2018-04-28T09:57:54Z' itemprop='datePublished'>\n            2018-04-28 09:57:54 UTC\n          </time>\n        </span>\n        <span itemprop='position'>#38</span>\n      </div>\n      <div class='post' itemprop='articleBody'>\n        <p>Two days ago I received a phone call from Steven Richardson, who is a Benefits Adviser for Parkinsons UK. Very helpful, and patient! Set my mind at ease and is seeking for a local helper to come and assist with filling the forms in. Meanwhile I have been in touch with my last Parkinsons Nurse, and she is collating all relevant documentation and sending me copies. I am going to try and chase up my medical records, which my new GP has still not received despite my move being back in February. Maybe even try and get my last GP to write some kind of letter.</p>\n<p>I’m going to document each step and every outcome, as I think it might be useful for anyone else who finds themselves in this particular predicament.</p>\n<p>Rule 1: Keep all documents and reports you receive! No matter how small or insignifaicant they seem.</p>\n      </div>\n      <meta itemprop='interactionCount' content='UserLikes:0'>\n      <meta itemprop='interactionCount' content='UserComments:0'>\n      <meta itemprop='headline' content='Hello, and a question'>\n      <hr>\n  </div>\n  <div itemscope itemtype='http://schema.org/DiscussionForumPosting'>\n      <div class='creator'>\n        <span>\n          <a href='/u/Reah'><b itemprop='author'>Reah</b></a>\n          \n          <time datetime='2018-04-30T13:01:08Z' itemprop='datePublished'>\n            2018-04-30 13:01:08 UTC\n          </time>\n        </span>\n        <span itemprop='position'>#39</span>\n      </div>\n      <div class='post' itemprop='articleBody'>\n        <p>Hi <a class=\"mention\" href=\"/u/mb420\">@MB420</a>,</p>\n<p>I’m really happy that Steven was able to put your mind at ease and was able to arrange for a local helper to you fill out your form.  I will pass your positive feedback onto our Benefit and Employment team.</p>\n<p>Also, very good point about keeping all your documents - you may want to consider getting a expanding file  to store all your documents in one place. Just a personal life hack of mine. <img src=\"//forum.parkinsons.org.uk/images/emoji/twitter/slight_smile.png?v=5\" title=\":slight_smile:\" class=\"emoji\" alt=\":slight_smile:\"></p>\n<p>Best wishes,<br>\nReah</p>\n      </div>\n      <meta itemprop='interactionCount' content='UserLikes:0'>\n      <meta itemprop='interactionCount' content='UserComments:1'>\n      <meta itemprop='headline' content='Hello, and a question'>\n      <hr>\n  </div>\n  <div itemscope itemtype='http://schema.org/DiscussionForumPosting'>\n      <div class='creator'>\n        <span>\n          <a href='/u/babswood'><b itemprop='author'>babswood</b></a>\n          \n          <time datetime='2018-04-30T18:52:23Z' itemprop='datePublished'>\n            2018-04-30 18:52:23 UTC\n          </time>\n        </span>\n        <span itemprop='position'>#40</span>\n      </div>\n      <div class='post' itemprop='articleBody'>\n        <p>Hi Reah<br>\nWould it be possible that Tommy will be back.<br>\nKeith was mugged a few days ago and also had a heart attack. He is asking for Tommy.dont know how else to contact him.<br>\nBabs</p>\n      </div>\n      <meta itemprop='interactionCount' content='UserLikes:0'>\n      <meta itemprop='interactionCount' content='UserComments:0'>\n      <meta itemprop='headline' content='Hello, and a question'>\n      <hr>\n  </div>\n\n  <div role='navigation' itemscope itemtype='http://schema.org/SiteNavigationElement'>\n      <span itemprop='name'><a rel=\"prev\" itemprop=\"url\" href=\"/t/hello-and-a-question/8438\">← previous page</a></span>\n      <span itemprop='name'><b><a rel=\"next\" itemprop=\"url\" href=\"/t/hello-and-a-question/8438?page=3\">next page →</a></b></span>\n  </div>\n\n\n\n\n\n    </div>\n    <footer class=\"container\">\n      <nav class='crawler-nav' itemscope itemtype='http://schema.org/SiteNavigationElement'>\n        <a href='/'>Home</a>\n        <a href=\"/categories\">Categories</a>\n        <a href=\"/guidelines\">FAQ/Guidelines</a>\n        <a href=\"/tos\">Terms of Service</a>\n        <a href=\"/privacy\">Privacy Policy</a>\n      </nav>\n      <p class='powered-by-link'>Powered by <a href=\"https://www.discourse.org\">Discourse</a>, best viewed with JavaScript enabled</p>\n    </footer>\n    \n  <script data-cfasync=\"false\" src=\"/cdn-cgi/scripts/5c5dd728/cloudflare-static/email-decode.min.js\"></script></body>\n  \n</html>\n",
  "url": "https://forum.parkinsons.org.uk/t/hello-and-a-question/8438?page=2"
}