{
  "contentId": "5dbf4620-886d-11e9-8f96-97f71b5221d6",
  "html": "<!DOCTYPE html>\n<html lang=\"en\">\n  <head>\n    <meta charset=\"utf-8\">\n    <title>New to forum - Introductions and personal stories - Parkinson&#39;s UK Forum</title>\n    <meta name=\"description\" content=\"Hi my name is Annette and has only just heard about this forum even though I don’t have pd my husband has and has been diagnosed for about 4years now. But he is still finding it hard to live with it. Hopefully on here I &amp;hellip;\">\n    <meta name=\"author\" content=\"\">\n<meta name=\"generator\" content=\"Discourse 2.2.5 - https://github.com/discourse/discourse version c294ff3609f988dcafb742e91606d60ca13b794d\">\n<link rel=\"icon\" type=\"image/png\" href=\"https://forum.parkinsons.org.uk/uploads/db7928/original/2X/3/311fc84f89f49f38601a2f16b295b6f03d3ce5dd.jpg\">\n<link rel=\"apple-touch-icon\" type=\"image/png\" href=\"https://forum.parkinsons.org.uk/uploads/db7928/original/2X/3/311fc84f89f49f38601a2f16b295b6f03d3ce5dd.jpg\">\n<meta name=\"theme-color\" content=\"#ffffff\">\n<meta name=\"viewport\" content=\"width=device-width, minimum-scale=1.0, maximum-scale=1.0, user-scalable=yes\">\n<link rel=\"canonical\" href=\"https://forum.parkinsons.org.uk/t/new-to-forum/11684\" />\n<script type=\"application/ld+json\">{\"@context\":\"http://schema.org\",\"@type\":\"WebSite\",\"url\":\"https://forum.parkinsons.org.uk\",\"potentialAction\":{\"@type\":\"SearchAction\",\"target\":\"https://forum.parkinsons.org.uk/search?q={search_term_string}\",\"query-input\":\"required name=search_term_string\"}}</script>\n<link rel=\"search\" type=\"application/opensearchdescription+xml\" href=\"https://forum.parkinsons.org.uk/opensearch.xml\" title=\"Parkinson&#39;s UK Forum Search\">\n\n      <link href=\"/stylesheets/desktop_f99246ae801b083d3e4cca979d0dade8615b39ac.css?__ws=forum.parkinsons.org.uk\" media=\"all\" rel=\"stylesheet\" data-target=\"desktop\" data-theme-id=\"12\"/>\n      <link href=\"/stylesheets/desktop_theme_12_5d27531cf43f9df0c03a6a6ec3109dd05f9dfc49.css?__ws=forum.parkinsons.org.uk\" media=\"all\" rel=\"stylesheet\" data-target=\"desktop_theme\" data-theme-id=\"12\"/>\n    <link href=\"https://fonts.googleapis.com/css?family=Open+Sans\" rel=\"stylesheet\">\n\n    <meta id=\"data-ga-universal-analytics\" data-tracking-code=\"UA-4855628-1\" data-json=\"{&quot;cookieDomain&quot;:&quot;auto&quot;}\" data-auto-link-domains=\"\">\n\n<link rel='preload' href='/assets/google-universal-analytics-f35b4da49411e6f5559073523aab983da483976a3954c79c756f8579f6fbd6ef.js' as='script'/>\n<script src='/assets/google-universal-analytics-f35b4da49411e6f5559073523aab983da483976a3954c79c756f8579f6fbd6ef.js'></script>\n\n      <link rel=\"alternate\" type=\"application/rss+xml\" title=\"RSS feed of &#39;New to forum&#39;\" href=\"https://forum.parkinsons.org.uk/t/new-to-forum/11684.rss\" />\n  <meta property=\"og:site_name\" content=\"Parkinson&#39;s UK Forum\" />\n<meta name=\"twitter:card\" content=\"summary\" />\n<meta name=\"twitter:image\" content=\"https://forum.parkinsons.org.uk/uploads/db7928/original/2X/3/311fc84f89f49f38601a2f16b295b6f03d3ce5dd.jpg\" />\n<meta property=\"og:image\" content=\"https://forum.parkinsons.org.uk/uploads/db7928/original/2X/3/311fc84f89f49f38601a2f16b295b6f03d3ce5dd.jpg\" />\n<meta property=\"og:url\" content=\"https://forum.parkinsons.org.uk/t/new-to-forum/11684\" />\n<meta name=\"twitter:url\" content=\"https://forum.parkinsons.org.uk/t/new-to-forum/11684\" />\n<meta property=\"og:title\" content=\"New to forum\" />\n<meta name=\"twitter:title\" content=\"New to forum\" />\n<meta property=\"og:description\" content=\"Hi my name is Annette and has only just heard about this forum even though I don’t have pd my husband has and has been diagnosed for about 4years now. But he is still finding it hard to live with it. Hopefully on here I can find anyone who feels like my husband so he may come to terms with his condition\" />\n<meta name=\"twitter:description\" content=\"Hi my name is Annette and has only just heard about this forum even though I don’t have pd my husband has and has been diagnosed for about 4years now. But he is still finding it hard to live with it. Hopefully on here I can find anyone who feels like my husband so he may come to terms with his condition\" />\n<meta name=\"twitter:label1\" value=\"Reading time\" />\n<meta name=\"twitter:data1\" value=\"15 mins \uD83D\uDD51\" />\n<meta name=\"twitter:label2\" value=\"Likes\" />\n<meta name=\"twitter:data2\" value=\"18 ❤\" />\n<meta property=\"article:published_time\" content=\"2018-02-01T10:36:09+00:00\" />\n<meta property=\"og:ignore_canonical\" content=\"true\" />\n\n      <link rel=\"next\" href=\"/t/new-to-forum/11684?page=2\">\n\n\n    \n  </head>\n  <body class=\"crawler\">\n    <header role=\"banner\">\n    <div class=\"region region-header\">\n        <div class=\"region-header-wrapper\">\n            <div id=\"block-parkinsons-d8-branding\" class=\"block block-system block-system-branding-block\">\n                <a href=\"/\" title=\"Home\" rel=\"home\" class=\"site-logo\">\n                    <img src=\"https://forum.parkinsons.org.uk/uploads/db7928/original/2X/8/862bb7d172e7d127e7f3e147ec43594aa62ac945.png\" alt=\"Parkinson's UK. Change Attitudes. Find a cure. Join us.\">\n                </a>\n            </div>\n            <div id=\"block-helpline\" class=\"block block-block-content block-block-content871cd5af-b938-4947-9dc0-d5c211d08fe3 style-phone\">\n                <div class=\"field field--name-field-link field--type-link field--label-hidden field__item\"><a href=\"tel:+448088000303\">Helpline 0808 800 0303</a></div>\n            </div>\n            <div id=\"block-shop\" class=\"block block-block-content block-block-content6fba5ae5-7797-49cd-8367-f321d8111cd6 style-regular\">\n                <div class=\"field field--name-field-link field--type-link field--label-hidden field__item\"><a href=\"https://shop.parkinsons.org.uk\">Shop</a></div>\n            </div>\n        </div>\n    </div>\n</header>\n\n\n<script src=\"/theme-javascripts/b7e9763fcb584fc8265c56a9f557cd6d2e1e8ed8.js?__ws=forum.parkinsons.org.uk\"></script>\n    <header>\n      <a href=\"/\">\n          <img src=\"https://forum.parkinsons.org.uk/uploads/db7928/original/2X/8/862bb7d172e7d127e7f3e147ec43594aa62ac945.png\" alt=\"Parkinson&#39;s UK Forum\" id=\"site-logo\" style=\"max-width: 150px;\">\n      </a>\n    </header>\n    <div id=\"main-outlet\" class=\"wrap\">\n      <h1>\n  <a href=\"/t/new-to-forum/11684\">New to forum</a>\n</h1>\n\n<div id='breadcrumbs'>\n    <div id=\"breadcrumb-0\" itemscope itemtype=\"http://data-vocabulary.org/Breadcrumb\"\n        itemref=\"breadcrumb-1\"\n      >\n      <a href=\"/c/about-me\" itemprop=\"url\">\n        <span itemprop=\"title\">About me</span>\n      </a>\n    </div>\n    <div id=\"breadcrumb-1\" itemscope itemtype=\"http://data-vocabulary.org/Breadcrumb\"\n>\n      <a href=\"/c/about-me/introductions-and-personal-stories\" itemprop=\"url\">\n        <span itemprop=\"title\">Introductions and personal stories</span>\n      </a>\n    </div>\n</div>\n\n\n\n\n\n<hr>\n\n\n  <div itemscope itemtype='http://schema.org/DiscussionForumPosting'>\n      <div class='creator'>\n        <span>\n          <a href='/u/Nettie'><b itemprop='author'>Nettie</b></a>\n          \n          <time datetime='2018-02-01T10:36:09Z' itemprop='datePublished'>\n            2018-02-01 10:36:09 UTC\n          </time>\n        </span>\n        <span itemprop='position'>#1</span>\n      </div>\n      <div class='post' itemprop='articleBody'>\n        <p>Hi my name is Annette and has only just heard about this forum even though I don’t have pd my husband has and has been diagnosed for about 4years now. But he is still finding it hard to live with it. Hopefully on here I can find anyone who feels like my husband so he may come to terms with his condition</p>\n      </div>\n      <meta itemprop='interactionCount' content='UserLikes:1'>\n      <meta itemprop='interactionCount' content='UserComments:0'>\n      <meta itemprop='headline' content='New to forum'>\n      <hr>\n  </div>\n  <div itemscope itemtype='http://schema.org/DiscussionForumPosting'>\n      <div class='creator'>\n        <span>\n          <a href='/u/sheffy'><b itemprop='author'>sheffy</b></a>\n          \n          <time datetime='2018-02-01T16:07:12Z' itemprop='datePublished'>\n            2018-02-01 16:07:12 UTC\n          </time>\n        </span>\n        <span itemprop='position'>#2</span>\n      </div>\n      <div class='post' itemprop='articleBody'>\n        <p>Hi Nettie - surprisingly enough most of us on the forum had trouble with believing the initial diagnosis of parkinsons, so hubby is not on his own! Also it takes some longer than others in finding it hard to live with, I’ve had it for eight years now, but can still easily get upset on my off days, but soon pick myself up and soldier on. Life doesn’t have to stand still, we just have to take one step at a time and jump each hurdle as it comes along, stay positive and focused and he will get by. If hubby goes on the forum himself he will soon get ‘chatting’ with others PWP and realise it is not all doom and gloom, we have some talented folk who contribute to ‘entertaining’ everyone with their many poems, jokes, etc., in the Social Club section.</p>\n<p>Hope he soon joins us, and all the best - Sheila <img src=\"//forum.parkinsons.org.uk/images/emoji/twitter/rofl.png?v=5\" title=\":rofl:\" class=\"emoji\" alt=\":rofl:\"><img src=\"//forum.parkinsons.org.uk/images/emoji/twitter/rofl.png?v=5\" title=\":rofl:\" class=\"emoji\" alt=\":rofl:\"></p>\n      </div>\n      <meta itemprop='interactionCount' content='UserLikes:0'>\n      <meta itemprop='interactionCount' content='UserComments:1'>\n      <meta itemprop='headline' content='New to forum'>\n      <hr>\n  </div>\n  <div itemscope itemtype='http://schema.org/DiscussionForumPosting'>\n      <div class='creator'>\n        <span>\n          <a href='/u/Niko'><b itemprop='author'>Niko</b></a>\n          \n          <time datetime='2018-02-02T09:13:15Z' itemprop='datePublished'>\n            2018-02-02 09:13:15 UTC\n          </time>\n        </span>\n        <span itemprop='position'>#3</span>\n      </div>\n      <div class='post' itemprop='articleBody'>\n        <p>Hello Annette,</p>\n<p>I have Parkinson’s and my wife is having a hard time with me as well. I find it hard to accept as I have always taken good care of myself. It seems not fair. I know this is not a logical approach.</p>\n<p>I recently started keeping a blog (<a href=\"http://livingwithparkinson.com\" rel=\"nofollow noopener\">http://livingwithparkinson.com</a>). I share some of my stories and it makes me feel better to express my frustration.</p>\n<p>I wish you all the best<br>\nNiko</p>\n      </div>\n      <meta itemprop='interactionCount' content='UserLikes:0'>\n      <meta itemprop='interactionCount' content='UserComments:2'>\n      <meta itemprop='headline' content='New to forum'>\n      <hr>\n  </div>\n  <div itemscope itemtype='http://schema.org/DiscussionForumPosting'>\n      <div class='creator'>\n        <span>\n          <a href='/u/Nettie'><b itemprop='author'>Nettie</b></a>\n          \n          <time datetime='2018-02-04T11:02:58Z' itemprop='datePublished'>\n            2018-02-04 11:02:58 UTC\n          </time>\n        </span>\n        <span itemprop='position'>#4</span>\n      </div>\n      <div class='post' itemprop='articleBody'>\n        <p>Thanks for replying my husband is no good on a pc but I can always answer for him which will help him. It’s good to see he is not the only one who feels the way he do even though it’s not good for anyone to feel the way that they do. I try my best to understand how he feels but not he can see he is not on his own and can try to move on. Annette</p>\n      </div>\n      <meta itemprop='interactionCount' content='UserLikes:0'>\n      <meta itemprop='interactionCount' content='UserComments:0'>\n      <meta itemprop='headline' content='New to forum'>\n      <hr>\n  </div>\n  <div itemscope itemtype='http://schema.org/DiscussionForumPosting'>\n      <div class='creator'>\n        <span>\n          <a href='/u/Nettie'><b itemprop='author'>Nettie</b></a>\n          \n          <time datetime='2018-02-04T11:03:07Z' itemprop='datePublished'>\n            2018-02-04 11:03:07 UTC\n          </time>\n        </span>\n        <span itemprop='position'>#5</span>\n      </div>\n      <div class='post' itemprop='articleBody'>\n        <p>Thanks for replying and I will get him to check out your block may help him to move on</p>\n      </div>\n      <meta itemprop='interactionCount' content='UserLikes:0'>\n      <meta itemprop='interactionCount' content='UserComments:0'>\n      <meta itemprop='headline' content='New to forum'>\n      <hr>\n  </div>\n  <div itemscope itemtype='http://schema.org/DiscussionForumPosting'>\n      <div class='creator'>\n        <span>\n          <a href='/u/sheffy'><b itemprop='author'>sheffy</b></a>\n          \n          <time datetime='2018-02-04T20:11:18Z' itemprop='datePublished'>\n            2018-02-04 20:11:18 UTC\n          </time>\n        </span>\n        <span itemprop='position'>#6</span>\n      </div>\n      <div class='post' itemprop='articleBody'>\n        <p>Hi Niko, not wanting to sound feminist but I have noticed over the years that the men seem to be less willing to accept the diagnosis of parkinsons compared to the women, I don’t know if it is because of the male ego and masculinity.  As I said sometimes I could sit and cry, so you have done the right thing starting your blog it’s such a good idea, I wish I could do one!</p>\n<p>Take care and all the best - Sheila</p>\n      </div>\n      <meta itemprop='interactionCount' content='UserLikes:0'>\n      <meta itemprop='interactionCount' content='UserComments:0'>\n      <meta itemprop='headline' content='New to forum'>\n      <hr>\n  </div>\n  <div itemscope itemtype='http://schema.org/DiscussionForumPosting'>\n      <div class='creator'>\n        <span>\n          <a href='/u/Geordieparr'><b itemprop='author'>Geordieparr</b></a>\n          \n          <time datetime='2018-02-05T02:35:33Z' itemprop='datePublished'>\n            2018-02-05 02:35:33 UTC\n          </time>\n        </span>\n        <span itemprop='position'>#7</span>\n      </div>\n      <div class='post' itemprop='articleBody'>\n        <p>Just read your post,and can understand the unwillingness to accept the diagnosis. Personally I found the confirmation a releif, as I finally knew what I was fighting aagainst</p>\n      </div>\n      <meta itemprop='interactionCount' content='UserLikes:0'>\n      <meta itemprop='interactionCount' content='UserComments:0'>\n      <meta itemprop='headline' content='New to forum'>\n      <hr>\n  </div>\n  <div itemscope itemtype='http://schema.org/DiscussionForumPosting'>\n      <div class='creator'>\n        <span>\n          <a href='/u/Nufcash'><b itemprop='author'>Nufcash</b></a>\n          \n          <time datetime='2018-02-05T14:16:10Z' itemprop='datePublished'>\n            2018-02-05 14:16:10 UTC\n          </time>\n        </span>\n        <span itemprop='position'>#8</span>\n      </div>\n      <div class='post' itemprop='articleBody'>\n        <p>Hi speaking as a six foot plus and 16 stone plus bloke, yes it is hard to accept you have an incurable brain disease. All I can sort of likening it to is if I was a football player playing in the premiership and then suddenly being dropped to the Sunday league overnight is hard to take in. I was diagnosed in Jan 2010 when I was 53 and used to work as a train driver on the underground who were massively supportive. My neurologist told me I wouldn’t be able to work as a train driver again, which knocked me for six as I’d been doing the job for over 30 years but with the support of my manager and my determination I managed to resume my driving duties for a further year after about six months of light duties. I had to give up in the end as my reactions were getting too slow for my liking, it was hard to accept that was the end of my career but at least it was my decision. I think with older men like myself it is all about being used to looking after your loved ones and having control of your life. I always accepted I had parkinsons and I told all those close to me straight away, but I’ve always tried to be positive and will continue living my life as normally as I can for as long as I can.</p>\n      </div>\n      <meta itemprop='interactionCount' content='UserLikes:0'>\n      <meta itemprop='interactionCount' content='UserComments:1'>\n      <meta itemprop='headline' content='New to forum'>\n      <hr>\n  </div>\n  <div itemscope itemtype='http://schema.org/DiscussionForumPosting'>\n      <div class='creator'>\n        <span>\n          <a href='/u/Daffy'><b itemprop='author'>Daffy</b></a>\n          \n          <time datetime='2018-02-05T14:32:42Z' itemprop='datePublished'>\n            2018-02-05 14:32:42 UTC\n          </time>\n        </span>\n        <span itemprop='position'>#9</span>\n      </div>\n      <div class='post' itemprop='articleBody'>\n        <p>Hi, Nufcash,<br>\nI can see what you  mean about any serious diagnosis being difficult for men. My husband was diagnosed with emphysema a some years ago. As an active man it knocked him for six. He’s had to make a lot of freestyle adjustments but all credit to him, he’s managing his disease well.</p>\n<p>This is going to sound weird but I think my own PD diagnosis  (2016) subconsciously helped him a bit in that he feels he can do his bit by helping me when needed. For my part I look at him managing his emphysema and find myself thinking - “at least I don’t get breathless like that, what am I moaning about.”. I had half expected my own PD diagnosis but it still knocked me sideways for a while.<br>\nAnd so we seem to be propping each other up, works for us anyway. We all have different coping strategies don’t we. D</p>\n      </div>\n      <meta itemprop='interactionCount' content='UserLikes:0'>\n      <meta itemprop='interactionCount' content='UserComments:0'>\n      <meta itemprop='headline' content='New to forum'>\n      <hr>\n  </div>\n  <div itemscope itemtype='http://schema.org/DiscussionForumPosting'>\n      <div class='creator'>\n        <span>\n          <a href='/u/Geordieparr'><b itemprop='author'>Geordieparr</b></a>\n          \n          <time datetime='2018-02-08T08:54:41Z' itemprop='datePublished'>\n            2018-02-08 08:54:41 UTC\n          </time>\n        </span>\n        <span itemprop='position'>#10</span>\n      </div>\n      <div class='post' itemprop='articleBody'>\n        <p>Your first dozen words describes me, so we are pd twins!! However, I found not knowing harder to accept, with everyone saying it will be stress, you’re redundant that’s all, get a job you will be fine.</p>\n<p>With help I did get a job, actually a better one, but my foe is always picking fights, most of which I currently win or at least a score draw.</p>\n<p>Positivity helps, as does faith in whatever you wish to hold as your baseline.</p>\n<p>Cattle die and kinsmen die,<br>\nthyself too soon must die,<br>\nbut one thing never, I ween, will die, –<br>\nfair fame of one who has earned.</p>\n<p>That is what I strive towards, reputation of one who never gave up</p>\n      </div>\n      <meta itemprop='interactionCount' content='UserLikes:0'>\n      <meta itemprop='interactionCount' content='UserComments:0'>\n      <meta itemprop='headline' content='New to forum'>\n      <hr>\n  </div>\n  <div itemscope itemtype='http://schema.org/DiscussionForumPosting'>\n      <div class='creator'>\n        <span>\n          <a href='/u/Nufcash'><b itemprop='author'>Nufcash</b></a>\n          \n          <time datetime='2018-02-09T10:59:15Z' itemprop='datePublished'>\n            2018-02-09 10:59:15 UTC\n          </time>\n        </span>\n        <span itemprop='position'>#11</span>\n      </div>\n      <div class='post' itemprop='articleBody'>\n        <p>Hi Geordieparr, Love it! I now have a PD twin &amp; he’s a geordie! I follow the mags (although I’m not a geordie) ever since the 70’s when me dad used to take me up to Middlesborough to see me battleaxe of a gran. I used to read the back pages of the gazette and see the reports of the magpies &amp; the pictures of the lads in the famous black &amp; white stripes &amp; I was smitten lol! You are right NEVER give up to PD just get on with life as much as you can. People said to me after I had DBS “you are so  f$%&amp;ing brave” to which I replied \" are you having a laugh? When the options are live as normal as life with PD as possible or become a miserable cripple sitting at home waiting to die and someone says here’s your chance of your life back it’s a no brainer\".</p>\n      </div>\n      <meta itemprop='interactionCount' content='UserLikes:0'>\n      <meta itemprop='interactionCount' content='UserComments:1'>\n      <meta itemprop='headline' content='New to forum'>\n      <hr>\n  </div>\n  <div itemscope itemtype='http://schema.org/DiscussionForumPosting'>\n      <div class='creator'>\n        <span>\n          <a href='/u/Luckygirl'><b itemprop='author'>Luckygirl</b></a>\n          \n          <time datetime='2018-02-09T12:29:41Z' itemprop='datePublished'>\n            2018-02-09 12:29:41 UTC\n          </time>\n        </span>\n        <span itemprop='position'>#12</span>\n      </div>\n      <div class='post' itemprop='articleBody'>\n        <p>Hi All</p>\n<p>My husband is a fellow PD Warrior diagnosed age 40 he’s 50 this year ! Managed ok for many years by ourselves struggling now in need of some help &amp; support. We only get to see the PD Dr or Nurse every  6 months his condition has deteriorated and he is very down at the moment I need to bolster him up find a younger support group nearby to show him he’s not alone &amp; get him exercising etc …  any suggestions would be welcome . This is the first time I’ve done anything like this</p>\n      </div>\n      <meta itemprop='interactionCount' content='UserLikes:0'>\n      <meta itemprop='interactionCount' content='UserComments:1'>\n      <meta itemprop='headline' content='New to forum'>\n      <hr>\n  </div>\n  <div itemscope itemtype='http://schema.org/DiscussionForumPosting'>\n      <div class='creator'>\n        <span>\n          <a href='/u/Reah'><b itemprop='author'>Reah</b></a>\n          \n          <time datetime='2018-02-09T13:18:50Z' itemprop='datePublished'>\n            2018-02-09 13:18:50 UTC\n          </time>\n        </span>\n        <span itemprop='position'>#13</span>\n      </div>\n      <div class='post' itemprop='articleBody'>\n        <p>Hi <a class=\"mention\" href=\"/u/luckygirl\">@Luckygirl</a>,</p>\n<p>I’m sorry to hear that your husband’s condition has deteriorated. There is a lot of help and support available to people affected by Parkinson’s and we have this information on our <a href=\"https://www.parkinsons.org.uk/information-and-support\">website</a>.</p>\n<p>I would also encourage you to contact our helpline on 0808 800 0303 and one of our advisers will arrange for a Parkinson’s specialist to contact you with 24 hours. Many of our members have found our helpline service to be incredibly useful so do give it a try and keep us posted on your husband’s wellbeing.</p>\n<p>Best wishes,<br>\nReah</p>\n      </div>\n      <meta itemprop='interactionCount' content='UserLikes:0'>\n      <meta itemprop='interactionCount' content='UserComments:0'>\n      <meta itemprop='headline' content='New to forum'>\n      <hr>\n  </div>\n  <div itemscope itemtype='http://schema.org/DiscussionForumPosting'>\n      <div class='creator'>\n        <span>\n          <a href='/u/Luckygirl'><b itemprop='author'>Luckygirl</b></a>\n          \n          <time datetime='2018-02-09T14:39:21Z' itemprop='datePublished'>\n            2018-02-09 14:39:21 UTC\n          </time>\n        </span>\n        <span itemprop='position'>#14</span>\n      </div>\n      <div class='post' itemprop='articleBody'>\n        <p>I have tried ringing local advisor not heard back will try again later. It’s just so hard for him he has other health issues as well he is a insulin diabetic and has lower back disc degeneration to deal with too.</p>\n      </div>\n      <meta itemprop='interactionCount' content='UserLikes:1'>\n      <meta itemprop='interactionCount' content='UserComments:0'>\n      <meta itemprop='headline' content='New to forum'>\n      <hr>\n  </div>\n  <div itemscope itemtype='http://schema.org/DiscussionForumPosting'>\n      <div class='creator'>\n        <span>\n          <a href='/u/A1YMO'><b itemprop='author'>A1YMO</b></a>\n          \n          <time datetime='2018-02-12T11:42:07Z' itemprop='datePublished'>\n            2018-02-12 11:42:07 UTC\n          </time>\n        </span>\n        <span itemprop='position'>#17</span>\n      </div>\n      <div class='post' itemprop='articleBody'>\n        <p>Hi I’m A1YMO and new to the forum and looking for help/advice for my father who was diagnosed with PD jus over 3years ago. He was borderline for treatment as only had weakness in right hand but consultant thought it was worth trying. Within 2 weeks he had awful symptoms of a constant muzzy head - something he’d never had before. He’s been tried on Rosagaline, Madopar, Pramipexole, Amantadine and now Sinemet (this is worst one so far for symptoms) but all have given him this awful head. He’s tried stopping all drugs at various points but unfortunately the head problem has never resolved. I’m trying to find out if anyone else has this problem as consultant and nurse don’t seem to be able to explain why he’s got it as it’s not a typical symptom of PD. My poor father wishes he’d never started medication as only had hand weakness before. Any help/advice would be greatly appreciated. Thanks in advance.</p>\n      </div>\n      <meta itemprop='interactionCount' content='UserLikes:0'>\n      <meta itemprop='interactionCount' content='UserComments:2'>\n      <meta itemprop='headline' content='New to forum'>\n      <hr>\n  </div>\n  <div itemscope itemtype='http://schema.org/DiscussionForumPosting'>\n      <div class='creator'>\n        <span>\n          <a href='/u/Luckygirl'><b itemprop='author'>Luckygirl</b></a>\n          \n          <time datetime='2018-02-12T20:57:58Z' itemprop='datePublished'>\n            2018-02-12 20:57:58 UTC\n          </time>\n        </span>\n        <span itemprop='position'>#18</span>\n      </div>\n      <div class='post' itemprop='articleBody'>\n        <p>How come there is very little support for younger PD Warriors and their families Some have to carry on working and are not always available for day time meetings ! Feeling very isolated <img src=\"//forum.parkinsons.org.uk/images/emoji/twitter/grimacing.png?v=5\" title=\":grimacing:\" class=\"emoji\" alt=\":grimacing:\"></p>\n      </div>\n      <meta itemprop='interactionCount' content='UserLikes:0'>\n      <meta itemprop='interactionCount' content='UserComments:1'>\n      <meta itemprop='headline' content='New to forum'>\n      <hr>\n  </div>\n  <div itemscope itemtype='http://schema.org/DiscussionForumPosting'>\n      <div class='creator'>\n        <span>\n          <a href='/u/Nufcash'><b itemprop='author'>Nufcash</b></a>\n          \n          <time datetime='2018-02-13T09:46:00Z' itemprop='datePublished'>\n            2018-02-13 09:46:00 UTC\n          </time>\n        </span>\n        <span itemprop='position'>#19</span>\n      </div>\n      <div class='post' itemprop='articleBody'>\n        <p>Hi A1YMO, i’m sorry to hear about your dad. The problem with PD I’ve found (besides being a pain in the neck) is that there are so many symptoms with PD some well known and some not so well known. I’m not sure what you mean by a “muzzy head”? Is it like a head ache or is it dizziness? I I had a problem with the room spinning round like I was in a spin dryer and it turned out to be an imbalance of the crystals in my inner ear called Octoconia. Has he had a scan? If the answer to the latter is no it might be worth asking the neurologist about having one. It seems to me ( and I’m not medically trained just another person with PD) that the reason the nurse &amp; consultant are saying it’s not PD is that the PD drugs aren’t making a difference to his head because he’s still got a muzzy head when he does’t take them. You could always ask for a second opinion. The experts don’t know all the symptons of parkinsons as there are so many some common and some not so common the real experts are people with PD, well that’s what I think. Anyway I hope your dad gets his head and symptons managed soon.</p>\n      </div>\n      <meta itemprop='interactionCount' content='UserLikes:0'>\n      <meta itemprop='interactionCount' content='UserComments:0'>\n      <meta itemprop='headline' content='New to forum'>\n      <hr>\n  </div>\n  <div itemscope itemtype='http://schema.org/DiscussionForumPosting'>\n      <div class='creator'>\n        <span>\n          <a href='/u/A1YMO'><b itemprop='author'>A1YMO</b></a>\n          \n          <time datetime='2018-02-13T10:11:37Z' itemprop='datePublished'>\n            2018-02-13 10:11:37 UTC\n          </time>\n        </span>\n        <span itemprop='position'>#20</span>\n      </div>\n      <div class='post' itemprop='articleBody'>\n        <p>Thanks for your thoughts Nufcash. The muzzy head is hard to explain but like a hangover/head cold permanently. Not really dizziness although can be unsteady on standing at times. He finds sitting down the only way to cope with it and even then it’s still there, so spends most of his time sitting. Recently he has been going out for little walks (he’s 74) and copes well with these. He hasn’t fallen because of it but he doesn’t feel safe going too far from home. He did have a scan near the time of diagnosis, so over 2 years ago now, but that just looked for signs of degeneration regarding the Dopamine producing part of the brain I believe. We have thought about a second opinion but not sure where to go and our consultant said they’re all up on the latest treatments anyway so wouldn’t be much point. I agree, the best people are those with PD hence my joining the forum!</p>\n      </div>\n      <meta itemprop='interactionCount' content='UserLikes:0'>\n      <meta itemprop='interactionCount' content='UserComments:1'>\n      <meta itemprop='headline' content='New to forum'>\n      <hr>\n  </div>\n  <div itemscope itemtype='http://schema.org/DiscussionForumPosting'>\n      <div class='creator'>\n        <span>\n          <a href='/u/Geordieparr'><b itemprop='author'>Geordieparr</b></a>\n          \n          <time datetime='2018-02-15T10:04:41Z' itemprop='datePublished'>\n            2018-02-15 10:04:41 UTC\n          </time>\n        </span>\n        <span itemprop='position'>#21</span>\n      </div>\n      <div class='post' itemprop='articleBody'>\n        <p>Exactly my thoughts, no brainier…erm ok… make that partial brainer as the rest is refusing to cooperate…</p>\n<p>Supported the Toon until Rudd Gullit arrived then saw the future and walked away as it was far too close to the past. Dunfermline are my  team now, and the parrs b+W stripes are as close as you will see me to those at SJP. Not a glory hunter, just got sick of being taken for granted</p>\n      </div>\n      <meta itemprop='interactionCount' content='UserLikes:0'>\n      <meta itemprop='interactionCount' content='UserComments:0'>\n      <meta itemprop='headline' content='New to forum'>\n      <hr>\n  </div>\n  <div itemscope itemtype='http://schema.org/DiscussionForumPosting'>\n      <div class='creator'>\n        <span>\n          <a href='/u/Rach28'><b itemprop='author'>Rach28</b></a>\n          \n          <time datetime='2018-02-16T00:19:45Z' itemprop='datePublished'>\n            2018-02-16 00:19:45 UTC\n          </time>\n        </span>\n        <span itemprop='position'>#22</span>\n      </div>\n      <div class='post' itemprop='articleBody'>\n        <p>Hi ya, My husband was diagnosed with Parkinson’s when he was just 40,he is 53 now.  I know exactly what you mean about lack of support for younger people.  I’m 39 and we have basically dealt with it on our own. We were coping with it for many years too, but now our lives have changed significantly.  His consultant is good but they just ask the same questions and make him do the birdie song as my husband puts it.  Every six months is the same.  My husband is getting worse as he is stumbling and having falls now.  I know what you mean about feeling isolated, I am getting that way now as I’m worried to leave him by himself due to his falling.  If you ever need to chat, please don’t hesitate.</p>\n      </div>\n      <meta itemprop='interactionCount' content='UserLikes:0'>\n      <meta itemprop='interactionCount' content='UserComments:1'>\n      <meta itemprop='headline' content='New to forum'>\n      <hr>\n  </div>\n\n  <div role='navigation' itemscope itemtype='http://schema.org/SiteNavigationElement'>\n      <span itemprop='name'><b><a rel=\"next\" itemprop=\"url\" href=\"/t/new-to-forum/11684?page=2\">next page →</a></b></span>\n  </div>\n\n\n\n\n\n    </div>\n    <footer class=\"container\">\n      <nav class='crawler-nav' itemscope itemtype='http://schema.org/SiteNavigationElement'>\n        <a href='/'>Home</a>\n        <a href=\"/categories\">Categories</a>\n        <a href=\"/guidelines\">FAQ/Guidelines</a>\n        <a href=\"/tos\">Terms of Service</a>\n        <a href=\"/privacy\">Privacy Policy</a>\n      </nav>\n      <p class='powered-by-link'>Powered by <a href=\"https://www.discourse.org\">Discourse</a>, best viewed with JavaScript enabled</p>\n    </footer>\n    \n  </body>\n  \n</html>\n",
  "url": "https://forum.parkinsons.org.uk/t/new-to-forum/11684"
}