{
  "contentId": "9477cd90-8863-11e9-8f96-97f71b5221d6",
  "html": "<!DOCTYPE html>\n<html lang=\"en\">\n  <head>\n    <meta charset=\"utf-8\">\n    <title>Spasm / Cramp In Stomach Muscles - Symptoms - Parkinson&#39;s UK Forum</title>\n    <meta name=\"description\" content=\"Hi, \nI get spasms in my stomach muscles, they get tight and stiff. It’s on my Parkinsons side. Does anyone else get this, any tips? I’m not on any meds as I’m only 48 and trying to stay of them as long as possible.\">\n    <meta name=\"author\" content=\"\">\n<meta name=\"generator\" content=\"Discourse 2.2.5 - https://github.com/discourse/discourse version c294ff3609f988dcafb742e91606d60ca13b794d\">\n<link rel=\"icon\" type=\"image/png\" href=\"https://forum.parkinsons.org.uk/uploads/db7928/original/2X/3/311fc84f89f49f38601a2f16b295b6f03d3ce5dd.jpg\">\n<link rel=\"apple-touch-icon\" type=\"image/png\" href=\"https://forum.parkinsons.org.uk/uploads/db7928/original/2X/3/311fc84f89f49f38601a2f16b295b6f03d3ce5dd.jpg\">\n<meta name=\"theme-color\" content=\"#ffffff\">\n<meta name=\"viewport\" content=\"width=device-width, minimum-scale=1.0, maximum-scale=1.0, user-scalable=yes\">\n<link rel=\"canonical\" href=\"https://forum.parkinsons.org.uk/t/spasm-cramp-in-stomach-muscles/19378\" />\n<script type=\"application/ld+json\">{\"@context\":\"http://schema.org\",\"@type\":\"WebSite\",\"url\":\"https://forum.parkinsons.org.uk\",\"potentialAction\":{\"@type\":\"SearchAction\",\"target\":\"https://forum.parkinsons.org.uk/search?q={search_term_string}\",\"query-input\":\"required name=search_term_string\"}}</script>\n<link rel=\"search\" type=\"application/opensearchdescription+xml\" href=\"https://forum.parkinsons.org.uk/opensearch.xml\" title=\"Parkinson&#39;s UK Forum Search\">\n\n      <link href=\"/stylesheets/desktop_f99246ae801b083d3e4cca979d0dade8615b39ac.css?__ws=forum.parkinsons.org.uk\" media=\"all\" rel=\"stylesheet\" data-target=\"desktop\" data-theme-id=\"12\"/>\n      <link href=\"/stylesheets/desktop_theme_12_5d27531cf43f9df0c03a6a6ec3109dd05f9dfc49.css?__ws=forum.parkinsons.org.uk\" media=\"all\" rel=\"stylesheet\" data-target=\"desktop_theme\" data-theme-id=\"12\"/>\n    <link href=\"https://fonts.googleapis.com/css?family=Open+Sans\" rel=\"stylesheet\">\n\n    <meta id=\"data-ga-universal-analytics\" data-tracking-code=\"UA-4855628-1\" data-json=\"{&quot;cookieDomain&quot;:&quot;auto&quot;}\" data-auto-link-domains=\"\">\n\n<link rel='preload' href='/assets/google-universal-analytics-f35b4da49411e6f5559073523aab983da483976a3954c79c756f8579f6fbd6ef.js' as='script'/>\n<script src='/assets/google-universal-analytics-f35b4da49411e6f5559073523aab983da483976a3954c79c756f8579f6fbd6ef.js'></script>\n\n      <link rel=\"alternate\" type=\"application/rss+xml\" title=\"RSS feed of &#39;Spasm / Cramp In Stomach Muscles&#39;\" href=\"https://forum.parkinsons.org.uk/t/spasm-cramp-in-stomach-muscles/19378.rss\" />\n  <meta property=\"og:site_name\" content=\"Parkinson&#39;s UK Forum\" />\n<meta name=\"twitter:card\" content=\"summary\" />\n<meta name=\"twitter:image\" content=\"https://forum.parkinsons.org.uk/uploads/db7928/original/2X/3/311fc84f89f49f38601a2f16b295b6f03d3ce5dd.jpg\" />\n<meta property=\"og:image\" content=\"https://forum.parkinsons.org.uk/uploads/db7928/original/2X/3/311fc84f89f49f38601a2f16b295b6f03d3ce5dd.jpg\" />\n<meta property=\"og:url\" content=\"https://forum.parkinsons.org.uk/t/spasm-cramp-in-stomach-muscles/19378\" />\n<meta name=\"twitter:url\" content=\"https://forum.parkinsons.org.uk/t/spasm-cramp-in-stomach-muscles/19378\" />\n<meta property=\"og:title\" content=\"Spasm / Cramp In Stomach Muscles\" />\n<meta name=\"twitter:title\" content=\"Spasm / Cramp In Stomach Muscles\" />\n<meta property=\"og:description\" content=\"Hi,  I get spasms in my stomach muscles, they get tight and stiff. It’s on my Parkinsons side. Does anyone else get this, any tips? I’m not on any meds as I’m only 48 and trying to stay of them as long as possible.\" />\n<meta name=\"twitter:description\" content=\"Hi,  I get spasms in my stomach muscles, they get tight and stiff. It’s on my Parkinsons side. Does anyone else get this, any tips? I’m not on any meds as I’m only 48 and trying to stay of them as long as possible.\" />\n<meta property=\"article:published_time\" content=\"2019-05-21T16:33:54+00:00\" />\n<meta property=\"og:ignore_canonical\" content=\"true\" />\n\n\n\n    \n  </head>\n  <body class=\"crawler\">\n    <header role=\"banner\">\n    <div class=\"region region-header\">\n        <div class=\"region-header-wrapper\">\n            <div id=\"block-parkinsons-d8-branding\" class=\"block block-system block-system-branding-block\">\n                <a href=\"/\" title=\"Home\" rel=\"home\" class=\"site-logo\">\n                    <img src=\"https://forum.parkinsons.org.uk/uploads/db7928/original/2X/8/862bb7d172e7d127e7f3e147ec43594aa62ac945.png\" alt=\"Parkinson's UK. Change Attitudes. Find a cure. Join us.\">\n                </a>\n            </div>\n            <div id=\"block-helpline\" class=\"block block-block-content block-block-content871cd5af-b938-4947-9dc0-d5c211d08fe3 style-phone\">\n                <div class=\"field field--name-field-link field--type-link field--label-hidden field__item\"><a href=\"tel:+448088000303\">Helpline 0808 800 0303</a></div>\n            </div>\n            <div id=\"block-shop\" class=\"block block-block-content block-block-content6fba5ae5-7797-49cd-8367-f321d8111cd6 style-regular\">\n                <div class=\"field field--name-field-link field--type-link field--label-hidden field__item\"><a href=\"https://shop.parkinsons.org.uk\">Shop</a></div>\n            </div>\n        </div>\n    </div>\n</header>\n\n\n<script src=\"/theme-javascripts/b7e9763fcb584fc8265c56a9f557cd6d2e1e8ed8.js?__ws=forum.parkinsons.org.uk\"></script>\n    <header>\n      <a href=\"/\">\n          <img src=\"https://forum.parkinsons.org.uk/uploads/db7928/original/2X/8/862bb7d172e7d127e7f3e147ec43594aa62ac945.png\" alt=\"Parkinson&#39;s UK Forum\" id=\"site-logo\" style=\"max-width: 150px;\">\n      </a>\n    </header>\n    <div id=\"main-outlet\" class=\"wrap\">\n      <h1>\n  <a href=\"/t/spasm-cramp-in-stomach-muscles/19378\">Spasm / Cramp In Stomach Muscles</a>\n</h1>\n\n<div id='breadcrumbs'>\n    <div id=\"breadcrumb-0\" itemscope itemtype=\"http://data-vocabulary.org/Breadcrumb\"\n        itemref=\"breadcrumb-1\"\n      >\n      <a href=\"/c/about-parkinsons-and-health\" itemprop=\"url\">\n        <span itemprop=\"title\">About Parkinson&#39;s and health</span>\n      </a>\n    </div>\n    <div id=\"breadcrumb-1\" itemscope itemtype=\"http://data-vocabulary.org/Breadcrumb\"\n>\n      <a href=\"/c/about-parkinsons-and-health/symptoms\" itemprop=\"url\">\n        <span itemprop=\"title\">Symptoms</span>\n      </a>\n    </div>\n</div>\n\n\n\n\n\n<hr>\n\n\n  <div itemscope itemtype='http://schema.org/DiscussionForumPosting'>\n      <div class='creator'>\n        <span>\n          <a href='/u/JonJoe'><b itemprop='author'>JonJoe</b></a>\n          \n          <time datetime='2019-05-21T16:33:54Z' itemprop='datePublished'>\n            2019-05-21 16:33:54 UTC\n          </time>\n        </span>\n        <span itemprop='position'>#1</span>\n      </div>\n      <div class='post' itemprop='articleBody'>\n        <p>Hi,</p>\n<p>I get spasms in my stomach muscles, they get tight and stiff. It’s on my Parkinsons side. Does anyone else get this, any tips? I’m not on any meds as I’m only 48 and trying to stay of them as long as possible.</p>\n      </div>\n      <meta itemprop='interactionCount' content='UserLikes:0'>\n      <meta itemprop='interactionCount' content='UserComments:0'>\n      <meta itemprop='headline' content='Spasm / Cramp In Stomach Muscles'>\n      <hr>\n  </div>\n  <div itemscope itemtype='http://schema.org/DiscussionForumPosting'>\n      <div class='creator'>\n        <span>\n          <a href='/u/Eve1'><b itemprop='author'>Eve1</b></a>\n          \n          <time datetime='2019-05-22T06:25:22Z' itemprop='datePublished'>\n            2019-05-22 06:25:22 UTC\n          </time>\n        </span>\n        <span itemprop='position'>#2</span>\n      </div>\n      <div class='post' itemprop='articleBody'>\n        <p>Hi, you are not alone.  I too get this - more oftn than not in the left side but, has been across the lower part of my stomach.  It has gradually crept up my left side and is now as far as my ribs.</p>\n<p>I mentioned it to my Parkinson Nurse at my last appointment and she has arranged for me to see a Specialist Physio - I go on Friday.</p>\n<p>Also, I mentioned it the  physio who takes my Parkinson Gym class - he suggested laying flat out on your stomach with arms stretched upwards for 5 - 10 mins.  You can do this on the bed or floor.  I have felt this does help - that is until I bend forward !!!   I have a Parkinson  related back problem which causes me to stoop all the while which doesn’t help. Also, which again aggravates my back and stomach, I have several discs ‘wearing out’ which again doesn’t help.</p>\n<p>I will let you know how I get on - fingers and toes crossed !!!</p>\n      </div>\n      <meta itemprop='interactionCount' content='UserLikes:0'>\n      <meta itemprop='interactionCount' content='UserComments:0'>\n      <meta itemprop='headline' content='Spasm / Cramp In Stomach Muscles'>\n      <hr>\n  </div>\n  <div itemscope itemtype='http://schema.org/DiscussionForumPosting'>\n      <div class='creator'>\n        <span>\n          <a href='/u/Eve1'><b itemprop='author'>Eve1</b></a>\n          \n          <time datetime='2019-05-22T06:29:29Z' itemprop='datePublished'>\n            2019-05-22 06:29:29 UTC\n          </time>\n        </span>\n        <span itemprop='position'>#3</span>\n      </div>\n      <div class='post' itemprop='articleBody'>\n        <p>have just read through my answer to you and I have noticed one or two spellings and misworded along with the odd word missed out - have a twitch problem this morning so please accept my apology - I was concentrating on hitting the keys and obviously from this I can’t multi-task at the moment ha ha…</p>\n      </div>\n      <meta itemprop='interactionCount' content='UserLikes:0'>\n      <meta itemprop='interactionCount' content='UserComments:1'>\n      <meta itemprop='headline' content='Spasm / Cramp In Stomach Muscles'>\n      <hr>\n  </div>\n  <div itemscope itemtype='http://schema.org/DiscussionForumPosting'>\n      <div class='creator'>\n        <span>\n          <a href='/u/JonJoe'><b itemprop='author'>JonJoe</b></a>\n          \n          <time datetime='2019-05-23T09:39:43Z' itemprop='datePublished'>\n            2019-05-23 09:39:43 UTC\n          </time>\n        </span>\n        <span itemprop='position'>#4</span>\n      </div>\n      <div class='post' itemprop='articleBody'>\n        <p>The stretching seems like a good idea, thanks. I tend to sit flat on my back in a recliner chair for half an hour and that helps.</p>\n      </div>\n      <meta itemprop='interactionCount' content='UserLikes:0'>\n      <meta itemprop='interactionCount' content='UserComments:1'>\n      <meta itemprop='headline' content='Spasm / Cramp In Stomach Muscles'>\n      <hr>\n  </div>\n  <div itemscope itemtype='http://schema.org/DiscussionForumPosting'>\n      <div class='creator'>\n        <span>\n          <a href='/u/Eve1'><b itemprop='author'>Eve1</b></a>\n          \n          <time datetime='2019-05-23T13:56:23Z' itemprop='datePublished'>\n            2019-05-23 13:56:23 UTC\n          </time>\n        </span>\n        <span itemprop='position'>#5</span>\n      </div>\n      <div class='post' itemprop='articleBody'>\n        <p>Have you heard about presecriptions - from end of June you can’t drop your prescription request into the Chemist for them to take to doctors and then pick up to make up ready for collection by patient - seems you will have to take request to doctors.</p>\n<p>Been silly again ……… been sorting out my pots in the garden and planting new bedding plants - will I never learn - its right up to my rib cage to day - purely my own fault - hey ho could be worse.  Will let you know how I got on.</p>\n      </div>\n      <meta itemprop='interactionCount' content='UserLikes:0'>\n      <meta itemprop='interactionCount' content='UserComments:1'>\n      <meta itemprop='headline' content='Spasm / Cramp In Stomach Muscles'>\n      <hr>\n  </div>\n  <div itemscope itemtype='http://schema.org/DiscussionForumPosting'>\n      <div class='creator'>\n        <span>\n          <a href='/u/Eve1'><b itemprop='author'>Eve1</b></a>\n          \n          <time datetime='2019-05-27T13:20:51Z' itemprop='datePublished'>\n            2019-05-27 13:20:51 UTC\n          </time>\n        </span>\n        <span itemprop='position'>#6</span>\n      </div>\n      <div class='post' itemprop='articleBody'>\n        <p>Hy, just to let you know how my visit to the physio went or not ………….</p>\n<p>I went to the hospital last Friday to see a specialist neurological physio.  It seems a waste of time.</p>\n<p>I was asked  lots and lots of questions which were typed onto the lap top screen and then typed my reply in the relevant spaces.  At first I thought they were being thorough ha ha ha.<br>\nOne of the questions was mobility so I explained I find it hard to walk these days due to my stoop – this being caused by a Parkinson related back condition.  BUT, I carried on that twice a week I go to a PD specific gym session and the guy who takes it is known as JD – well, was like switching a switch with the eyes lighting up.   I was told he was best physio around…<br>\nI expained I had asked him if he could suggest anything to help relieve the cramps.  I then went on to say he had suggested I lay on my stomach reaching as straight as my arms  would go- thereby stretching my body which in turn straightened the cramped stomach muscles.<br>\nThis was quickly quickly typed onto the lap top.  Then had me standing up straight – which I can’t do due to the stoop I had just spoke about.  I was then told it was visible I had a curvature of the back (clever wasn’t wasn’t it – NOT).  I was also told this curvature was probably affecting the discs in my back – I said yes I knew that – as the copy of a letter I had just given stated the top 3 discs and one just below my waist were disintegrating. I will explain that to you on another letter.<br>\nI am due to go back on Friday so they can see if the exercises I was going to be given via the  Friday nights post.  Meaning I would get them Saturday morning.  STILL WAITING for them – today Monday is a bank holiday people do not work – including the Post hmmmmmmmmmm.<br>\nSo sorry my friend, I can’t help you at the moment ………………</p>\n      </div>\n      <meta itemprop='interactionCount' content='UserLikes:0'>\n      <meta itemprop='interactionCount' content='UserComments:0'>\n      <meta itemprop='headline' content='Spasm / Cramp In Stomach Muscles'>\n      <hr>\n  </div>\n  <div itemscope itemtype='http://schema.org/DiscussionForumPosting'>\n      <div class='creator'>\n        <span>\n          <a href='/u/Wildrover'><b itemprop='author'>Wildrover</b></a>\n          \n          <time datetime='2019-05-27T14:24:34Z' itemprop='datePublished'>\n            2019-05-27 14:24:34 UTC\n          </time>\n        </span>\n        <span itemprop='position'>#7</span>\n      </div>\n      <div class='post' itemprop='articleBody'>\n        <p>I had similar issues with stomach cramps earlier in the year. To the point that I could barely eat anything, I felt bloated all the time and when I did manage to eat i was full very quickly. I did suspect it was a PD muscle related thing but went private to get it checked out. I had a CT scan and endoscopy which were both fine. The specialist put me on a drug called amatriptyline which is a pain killer as well as a very effective muscle relaxant and had have had no problems since.</p>\n<p>Hope this helps</p>\n      </div>\n      <meta itemprop='interactionCount' content='UserLikes:0'>\n      <meta itemprop='interactionCount' content='UserComments:1'>\n      <meta itemprop='headline' content='Spasm / Cramp In Stomach Muscles'>\n      <hr>\n  </div>\n  <div itemscope itemtype='http://schema.org/DiscussionForumPosting'>\n      <div class='creator'>\n        <span>\n          <a href='/u/Eve1'><b itemprop='author'>Eve1</b></a>\n          \n          <time datetime='2019-05-31T06:51:06Z' itemprop='datePublished'>\n            2019-05-31 06:51:06 UTC\n          </time>\n        </span>\n        <span itemprop='position'>#8</span>\n      </div>\n      <div class='post' itemprop='articleBody'>\n        <p>I received my suggested exercises yesterday in the post.  I tried them yesterday and more than a bit stiff today - not necessarily my stomach problem.  Will do a lot less today !!!   I did go like a bull in a china shop.</p>\n<p>What I will do is type up the instructions on how to do the exercises and then let you have a copy.</p>\n<p>I have mentioned I am sure, that I have a stoop which is related to PD.  Well, I was sorting out my handbag and found a piece of paper that came with my PD meds.  It quite clearly says these particular meds can cause a stoop problems including the one I have - it says you should tell your neurologist and perhaps change your meds !!!  I am seeing him later on this summer (providing the appointment isn’t cancelled again !!!)  so will ask him about it.</p>\n<p>By the way I already take one low dosage amitriptyline at night - I was told I had IBS some years ago and was given amitriptyline to ease the pain of IBS.  By the way they now say IBS can be a precursor to PD and I understand they are now looking at this and other illnesses which are infact PD related and possibly a symptom of early onset of PD.</p>\n<p>Will sign off now but will try to get the exercises instructions typed up over the weekend.</p>\n      </div>\n      <meta itemprop='interactionCount' content='UserLikes:0'>\n      <meta itemprop='interactionCount' content='UserComments:0'>\n      <meta itemprop='headline' content='Spasm / Cramp In Stomach Muscles'>\n      <hr>\n  </div>\n\n\n\n\n\n\n    </div>\n    <footer class=\"container\">\n      <nav class='crawler-nav' itemscope itemtype='http://schema.org/SiteNavigationElement'>\n        <a href='/'>Home</a>\n        <a href=\"/categories\">Categories</a>\n        <a href=\"/guidelines\">FAQ/Guidelines</a>\n        <a href=\"/tos\">Terms of Service</a>\n        <a href=\"/privacy\">Privacy Policy</a>\n      </nav>\n      <p class='powered-by-link'>Powered by <a href=\"https://www.discourse.org\">Discourse</a>, best viewed with JavaScript enabled</p>\n    </footer>\n    \n  </body>\n  \n</html>\n",
  "url": "https://forum.parkinsons.org.uk/t/spasm-cramp-in-stomach-muscles/19378"
}