{
  "contentId": "7f6cb000-8863-11e9-8f96-97f71b5221d6",
  "html": "<!DOCTYPE html>\n<html lang=\"en\">\n  <head>\n    <meta charset=\"utf-8\">\n    <title>Terms of Service - Parkinson&#39;s UK Forum</title>\n    <meta name=\"description\" content=\"Parkinson&#39;s UK Forum\">\n    <meta name=\"author\" content=\"\">\n<meta name=\"generator\" content=\"Discourse 2.2.5 - https://github.com/discourse/discourse version c294ff3609f988dcafb742e91606d60ca13b794d\">\n<link rel=\"icon\" type=\"image/png\" href=\"https://forum.parkinsons.org.uk/uploads/db7928/original/2X/3/311fc84f89f49f38601a2f16b295b6f03d3ce5dd.jpg\">\n<link rel=\"apple-touch-icon\" type=\"image/png\" href=\"https://forum.parkinsons.org.uk/uploads/db7928/original/2X/3/311fc84f89f49f38601a2f16b295b6f03d3ce5dd.jpg\">\n<meta name=\"theme-color\" content=\"#ffffff\">\n<meta name=\"viewport\" content=\"width=device-width, minimum-scale=1.0, maximum-scale=1.0, user-scalable=yes\">\n\n<script type=\"application/ld+json\">{\"@context\":\"http://schema.org\",\"@type\":\"WebSite\",\"url\":\"https://forum.parkinsons.org.uk\",\"potentialAction\":{\"@type\":\"SearchAction\",\"target\":\"https://forum.parkinsons.org.uk/search?q={search_term_string}\",\"query-input\":\"required name=search_term_string\"}}</script>\n<link rel=\"search\" type=\"application/opensearchdescription+xml\" href=\"https://forum.parkinsons.org.uk/opensearch.xml\" title=\"Parkinson&#39;s UK Forum Search\">\n\n      <link href=\"/stylesheets/desktop_f99246ae801b083d3e4cca979d0dade8615b39ac.css?__ws=forum.parkinsons.org.uk\" media=\"all\" rel=\"stylesheet\" data-target=\"desktop\" data-theme-id=\"12\"/>\n      <link href=\"/stylesheets/desktop_theme_12_5d27531cf43f9df0c03a6a6ec3109dd05f9dfc49.css?__ws=forum.parkinsons.org.uk\" media=\"all\" rel=\"stylesheet\" data-target=\"desktop_theme\" data-theme-id=\"12\"/>\n    <link href=\"https://fonts.googleapis.com/css?family=Open+Sans\" rel=\"stylesheet\">\n\n    <meta id=\"data-ga-universal-analytics\" data-tracking-code=\"UA-4855628-1\" data-json=\"{&quot;cookieDomain&quot;:&quot;auto&quot;}\" data-auto-link-domains=\"\">\n\n<link rel='preload' href='/assets/google-universal-analytics-f35b4da49411e6f5559073523aab983da483976a3954c79c756f8579f6fbd6ef.js' as='script'/>\n<script src='/assets/google-universal-analytics-f35b4da49411e6f5559073523aab983da483976a3954c79c756f8579f6fbd6ef.js'></script>\n\n        <meta property=\"og:site_name\" content=\"Parkinson&#39;s UK Forum\" />\n<meta name=\"twitter:card\" content=\"summary\" />\n<meta name=\"twitter:image\" content=\"https://forum.parkinsons.org.uk/uploads/db7928/original/2X/3/311fc84f89f49f38601a2f16b295b6f03d3ce5dd.jpg\" />\n<meta property=\"og:image\" content=\"https://forum.parkinsons.org.uk/uploads/db7928/original/2X/3/311fc84f89f49f38601a2f16b295b6f03d3ce5dd.jpg\" />\n<meta property=\"og:url\" content=\"https://forum.parkinsons.org.uk/tos\" />\n<meta name=\"twitter:url\" content=\"https://forum.parkinsons.org.uk/tos\" />\n<meta property=\"og:title\" content=\"Terms of Service - Parkinson&#39;s UK Forum\" />\n<meta name=\"twitter:title\" content=\"Terms of Service - Parkinson&#39;s UK Forum\" />\n<meta property=\"og:description\" content=\"Parkinson&#39;s UK Forum\" />\n<meta name=\"twitter:description\" content=\"Parkinson&#39;s UK Forum\" />\n\n\n    \n  </head>\n  <body class=\"crawler\">\n    <header role=\"banner\">\n    <div class=\"region region-header\">\n        <div class=\"region-header-wrapper\">\n            <div id=\"block-parkinsons-d8-branding\" class=\"block block-system block-system-branding-block\">\n                <a href=\"/\" title=\"Home\" rel=\"home\" class=\"site-logo\">\n                    <img src=\"https://forum.parkinsons.org.uk/uploads/db7928/original/2X/8/862bb7d172e7d127e7f3e147ec43594aa62ac945.png\" alt=\"Parkinson's UK. Change Attitudes. Find a cure. Join us.\">\n                </a>\n            </div>\n            <div id=\"block-helpline\" class=\"block block-block-content block-block-content871cd5af-b938-4947-9dc0-d5c211d08fe3 style-phone\">\n                <div class=\"field field--name-field-link field--type-link field--label-hidden field__item\"><a href=\"tel:+448088000303\">Helpline 0808 800 0303</a></div>\n            </div>\n            <div id=\"block-shop\" class=\"block block-block-content block-block-content6fba5ae5-7797-49cd-8367-f321d8111cd6 style-regular\">\n                <div class=\"field field--name-field-link field--type-link field--label-hidden field__item\"><a href=\"https://shop.parkinsons.org.uk\">Shop</a></div>\n            </div>\n        </div>\n    </div>\n</header>\n\n\n<script src=\"/theme-javascripts/b7e9763fcb584fc8265c56a9f557cd6d2e1e8ed8.js?__ws=forum.parkinsons.org.uk\"></script>\n    <header>\n      <a href=\"/\">\n          <img src=\"https://forum.parkinsons.org.uk/uploads/db7928/original/2X/8/862bb7d172e7d127e7f3e147ec43594aa62ac945.png\" alt=\"Parkinson&#39;s UK Forum\" id=\"site-logo\" style=\"max-width: 150px;\">\n      </a>\n    </header>\n    <div id=\"main-outlet\" class=\"wrap\">\n      <div itemscope itemtype='http://schema.org/WebPage'>\n  <meta itemprop='lastReviewed' content='2018-01-09'>\n  <ul class='nav-pills' role='navigation' itemscope itemtype='http://schema.org/SiteNavigationElement'>\n      <li class=\"nav-item-about\"><a href=\"/about\">About</a></a></li>\n        <li class='nav-item-faq'><a class='' href='/faq'>FAQ</a></li>\n    <li class='nav-item-tos'><a href='/tos' class='active'>Terms of Service</a></li>\n    <li class='nav-item-privacy'><a href='/privacy' class=''>Privacy</a></li>\n  </ul>\n\n\n  <div itemprop='mainContentOfPage'>\n    <p>By using our online forum, you agree to the terms and conditions below and our full <a href=\"https://www.parkinsons.org.uk/about-us/terms-and-conditions\">Website terms and conditions</a>.</p>\n\n<h2>Posting and commenting</h2>\n\n<p>By posting, commenting and messaging on this site, including the use of images in any content you create, you agree:</p>\n\n<ul>\n<li>that you are over the age of 18</li>\n<li>to act in accordance with applicable national and international laws</li>\n<li>to act in accordance with these terms and conditions, applicable rules and guidelines</li>\n<li>to accept legal responsibility for the content of your communications</li>\n<li>to act in accordance with the relevant rules and guidelines</li>\n<li>not to discuss, promote or threaten illegal activity (for example, threats of violence, illicit drug use, fraud)</li>\n<li>not to be obscene, defamatory or libellous, inflammatory, vulgar, sexually orientated, racial, political, hateful, threatening, in violation of any laws or good morals and practice or personally abusive. You hereby undertake to indemnify and hold harmless Parkinson's UK against all costs and expenses from any such actions by you</li>\n<li>not to post chain letters, spam, advertising or junk messages to other users</li>\n<li>not to post information copyrighted or owned by any individual or entity other than yourself on the forum or in commenting without the consent of the owner</li>\n<li>not to violate, plagiarise or infringe on the rights of third parties including copyright, trademark, trade secret, privacy, personal, publicity or proprietary rights. If such an event occurs, the individual posting the information shall be held solely responsible. Parkinson's UK shall not be held responsible for member-posted information that may violate copyright law</li>\n</ul>\n\n<p>You acknowledge that our decision to remove or ban an individual from using the forum, commenting or personal messaging is binding and the decision final.</p>\n\n<p>You acknowledge that any information posted to publicly accessible areas may remain publicly accessible indefinitely. Parkinson's UK is under no obligation to remove content from the site once it has been posted.</p>\n\n<p>You acknowledge that we may at any time move, modify or remove any content or take further legal action as a result of breaches or suspected breaches of these terms and conditions, rules, guidelines, our privacy policy, or any applicable laws or regulations or where our rights or third party rights are threatened or infringed.</p>\n\n<p>Breaches of applicable law, these terms and conditions or guidelines may lead to us reporting your activities to your internet service provider, your employer, relevant authorities, or to legal action being taken against you, or both.</p>\n\n<h2>Personal messaging</h2>\n\n<p>You agree to respect the privacy and wishes of those users with whom you exchange personal messages through this website. You must not pass on details to third parties (except Parkinson's UK) without permission.</p>\n\n<p>By sending or receiving a private message you consent to them being viewed by Parkinson's UK or its representatives, where Parkinson's UK have been notified of a problem or a serious breach of these terms and conditions, rules or guidelines.</p>\n\n<h2>Your content</h2>\n\n<p>Any communication or material that you transmit to, or post on, any public area of the site including any data, questions, comments, suggestions or the like is, and will be treated as, non-confidential and may be used by us on our website and in other publications.</p>\n\n<p>By registering for this site, you agree that Parkinson's UK may use and reproduce this information without prior notice. Any information so used will remain anonymous unless you grant permission to use identifying details.</p>\n\n<p>We use Discourse's native spam protection service. When you post on this site, the service analyses the text that you post. If the service determines that the content of your post might constitute spam or abuse, it will inform us before the content appears on the site.</p>\n\n<h2>License</h2>\n\n<p>You grant to us a worldwide, royalty-free, irrevocable, non-exclusive licence (including the right to sub-license) to use, reproduce, modify, adapt, publish, translate, create derivative works from, distribute, perform and display any content (in whole or part) you post and/or to incorporate such content in other works in any form, media or technology now known or developed.</p>\n\n<h2>Indemnity</h2>\n\n<p>You agree to indemnify and hold us and our subsidiaries, affiliates, employees, officers, agents or partners harmless from and against any direct or indirect loss or damage (including consequential loss) and loss of profits, goodwill or business opportunities arising from any third party claim in relation to any content you upload, post or email on or through our site (including our forum and personal messaging), your use of our site, or your breach of the provisions of these terms and conditions and applicable rules and guidelines.</p>\n\n<h2>Disclaimer</h2>\n\n<p>All communications made available by users of this site, and any opinions, advice, statements, views or other information expressed on the forum or in comments are solely provided by, and the responsibility of, the person posting such communication and not of Parkinson's UK.</p>\n\n<p>Parkinson's UK does not certify, endorse or verify the contents of any communication posted to the forums, in comments or in personal messages. Parkinson's UK makes no warranty of any kind, express or implied, with regard to the posted communications or information contained therein.</p>\n\n<p>Parkinson's UK is not responsible for defamatory, offensive or illegal conduct of any author posting to this forum.</p>\n\n<p>Although Parkinson's UK reserves the right to remove any postings from this forum at its discretion, this reservation creates no affirmative duty in Parkinson's UK, and failure to exercise this power shall not subject Parkinson's UK to any liability of any sort.</p>\n  </div>\n</div>\n\n  \n\n    </div>\n    <footer class=\"container\">\n      <nav class='crawler-nav' itemscope itemtype='http://schema.org/SiteNavigationElement'>\n        <a href='/'>Home</a>\n        <a href=\"/categories\">Categories</a>\n        <a href=\"/guidelines\">FAQ/Guidelines</a>\n        <a href=\"/tos\">Terms of Service</a>\n        <a href=\"/privacy\">Privacy Policy</a>\n      </nav>\n      <p class='powered-by-link'>Powered by <a href=\"https://www.discourse.org\">Discourse</a>, best viewed with JavaScript enabled</p>\n    </footer>\n    \n  </body>\n  \n</html>\n",
  "url": "https://forum.parkinsons.org.uk/tos"
}