{
  "contentId": "dca9b4c0-8863-11e9-8f96-97f71b5221d6",
  "html": "<!DOCTYPE html>\n<html lang=\"en\">\n  <head>\n    <meta charset=\"utf-8\">\n    <title>World Parkinson’s Day and Parkinson’s Eve in LEICESTER on Radio Parkies on 27.2.2019 9pm - Research discussion - Parkinson&#39;s UK Forum</title>\n    <meta name=\"description\" content=\"Hi. Just to let you know that we’re talking about what’s going on in Leicester for WPD on Radio Parkies between 9pm and 10pm on Wednesday 27th February 2019 with Claire Jones talking to me, DjScazza. \nParkinson’s Eve is &amp;hellip;\">\n    <meta name=\"author\" content=\"\">\n<meta name=\"generator\" content=\"Discourse 2.2.5 - https://github.com/discourse/discourse version c294ff3609f988dcafb742e91606d60ca13b794d\">\n<link rel=\"icon\" type=\"image/png\" href=\"https://forum.parkinsons.org.uk/uploads/db7928/original/2X/3/311fc84f89f49f38601a2f16b295b6f03d3ce5dd.jpg\">\n<link rel=\"apple-touch-icon\" type=\"image/png\" href=\"https://forum.parkinsons.org.uk/uploads/db7928/original/2X/3/311fc84f89f49f38601a2f16b295b6f03d3ce5dd.jpg\">\n<meta name=\"theme-color\" content=\"#ffffff\">\n<meta name=\"viewport\" content=\"width=device-width, minimum-scale=1.0, maximum-scale=1.0, user-scalable=yes\">\n<link rel=\"canonical\" href=\"https://forum.parkinsons.org.uk/t/world-parkinson-s-day-and-parkinson-s-eve-in-leicester-on-radio-parkies-on-27-2-2019-9pm/18154\" />\n<script type=\"application/ld+json\">{\"@context\":\"http://schema.org\",\"@type\":\"WebSite\",\"url\":\"https://forum.parkinsons.org.uk\",\"potentialAction\":{\"@type\":\"SearchAction\",\"target\":\"https://forum.parkinsons.org.uk/search?q={search_term_string}\",\"query-input\":\"required name=search_term_string\"}}</script>\n<link rel=\"search\" type=\"application/opensearchdescription+xml\" href=\"https://forum.parkinsons.org.uk/opensearch.xml\" title=\"Parkinson&#39;s UK Forum Search\">\n\n      <link href=\"/stylesheets/desktop_f99246ae801b083d3e4cca979d0dade8615b39ac.css?__ws=forum.parkinsons.org.uk\" media=\"all\" rel=\"stylesheet\" data-target=\"desktop\" data-theme-id=\"12\"/>\n      <link href=\"/stylesheets/desktop_theme_12_5d27531cf43f9df0c03a6a6ec3109dd05f9dfc49.css?__ws=forum.parkinsons.org.uk\" media=\"all\" rel=\"stylesheet\" data-target=\"desktop_theme\" data-theme-id=\"12\"/>\n    <link href=\"https://fonts.googleapis.com/css?family=Open+Sans\" rel=\"stylesheet\">\n\n    <meta id=\"data-ga-universal-analytics\" data-tracking-code=\"UA-4855628-1\" data-json=\"{&quot;cookieDomain&quot;:&quot;auto&quot;}\" data-auto-link-domains=\"\">\n\n<link rel='preload' href='/assets/google-universal-analytics-f35b4da49411e6f5559073523aab983da483976a3954c79c756f8579f6fbd6ef.js' as='script'/>\n<script src='/assets/google-universal-analytics-f35b4da49411e6f5559073523aab983da483976a3954c79c756f8579f6fbd6ef.js'></script>\n\n      <link rel=\"alternate\" type=\"application/rss+xml\" title=\"RSS feed of &#39;World Parkinson’s Day and Parkinson’s Eve in LEICESTER on Radio Parkies on 27.2.2019 9pm&#39;\" href=\"https://forum.parkinsons.org.uk/t/world-parkinson-s-day-and-parkinson-s-eve-in-leicester-on-radio-parkies-on-27-2-2019-9pm/18154.rss\" />\n  <meta property=\"og:site_name\" content=\"Parkinson&#39;s UK Forum\" />\n<meta name=\"twitter:card\" content=\"summary\" />\n<meta name=\"twitter:image\" content=\"https://forum.parkinsons.org.uk/uploads/db7928/original/2X/3/311fc84f89f49f38601a2f16b295b6f03d3ce5dd.jpg\" />\n<meta property=\"og:image\" content=\"https://forum.parkinsons.org.uk/uploads/db7928/original/2X/3/311fc84f89f49f38601a2f16b295b6f03d3ce5dd.jpg\" />\n<meta property=\"og:url\" content=\"https://forum.parkinsons.org.uk/t/world-parkinson-s-day-and-parkinson-s-eve-in-leicester-on-radio-parkies-on-27-2-2019-9pm/18154\" />\n<meta name=\"twitter:url\" content=\"https://forum.parkinsons.org.uk/t/world-parkinson-s-day-and-parkinson-s-eve-in-leicester-on-radio-parkies-on-27-2-2019-9pm/18154\" />\n<meta property=\"og:title\" content=\"World Parkinson’s Day and Parkinson’s Eve in LEICESTER on Radio Parkies on 27.2.2019 9pm\" />\n<meta name=\"twitter:title\" content=\"World Parkinson’s Day and Parkinson’s Eve in LEICESTER on Radio Parkies on 27.2.2019 9pm\" />\n<meta property=\"og:description\" content=\"Hi. Just to let you know that we’re talking about what’s going on in Leicester for WPD on Radio Parkies between 9pm and 10pm on Wednesday 27th February 2019 with Claire Jones talking to me, DjScazza.  Parkinson’s Eve is on the 10th April and is the first European conference by, about and for women with Parkinson’s and their supporters including researchers. Register via theparade.me for this free event.  On WPD, 11th April 2019,  there is an exhibition in Leicester of works with la parkinsons th...\" />\n<meta name=\"twitter:description\" content=\"Hi. Just to let you know that we’re talking about what’s going on in Leicester for WPD on Radio Parkies between 9pm and 10pm on Wednesday 27th February 2019 with Claire Jones talking to me, DjScazza.  Parkinson’s Eve is on the 10th April and is the first European conference by, about and for women with Parkinson’s and their supporters including researchers. Register via theparade.me for this free event.  On WPD, 11th April 2019,  there is an exhibition in Leicester of works with la parkinsons th...\" />\n<meta property=\"article:published_time\" content=\"2019-02-26T08:20:52+00:00\" />\n<meta property=\"og:ignore_canonical\" content=\"true\" />\n\n\n\n    \n  </head>\n  <body class=\"crawler\">\n    <header role=\"banner\">\n    <div class=\"region region-header\">\n        <div class=\"region-header-wrapper\">\n            <div id=\"block-parkinsons-d8-branding\" class=\"block block-system block-system-branding-block\">\n                <a href=\"/\" title=\"Home\" rel=\"home\" class=\"site-logo\">\n                    <img src=\"https://forum.parkinsons.org.uk/uploads/db7928/original/2X/8/862bb7d172e7d127e7f3e147ec43594aa62ac945.png\" alt=\"Parkinson's UK. Change Attitudes. Find a cure. Join us.\">\n                </a>\n            </div>\n            <div id=\"block-helpline\" class=\"block block-block-content block-block-content871cd5af-b938-4947-9dc0-d5c211d08fe3 style-phone\">\n                <div class=\"field field--name-field-link field--type-link field--label-hidden field__item\"><a href=\"tel:+448088000303\">Helpline 0808 800 0303</a></div>\n            </div>\n            <div id=\"block-shop\" class=\"block block-block-content block-block-content6fba5ae5-7797-49cd-8367-f321d8111cd6 style-regular\">\n                <div class=\"field field--name-field-link field--type-link field--label-hidden field__item\"><a href=\"https://shop.parkinsons.org.uk\">Shop</a></div>\n            </div>\n        </div>\n    </div>\n</header>\n\n\n<script src=\"/theme-javascripts/b7e9763fcb584fc8265c56a9f557cd6d2e1e8ed8.js?__ws=forum.parkinsons.org.uk\"></script>\n    <header>\n      <a href=\"/\">\n          <img src=\"https://forum.parkinsons.org.uk/uploads/db7928/original/2X/8/862bb7d172e7d127e7f3e147ec43594aa62ac945.png\" alt=\"Parkinson&#39;s UK Forum\" id=\"site-logo\" style=\"max-width: 150px;\">\n      </a>\n    </header>\n    <div id=\"main-outlet\" class=\"wrap\">\n      <h1>\n  <a href=\"/t/world-parkinson-s-day-and-parkinson-s-eve-in-leicester-on-radio-parkies-on-27-2-2019-9pm/18154\">World Parkinson’s Day and Parkinson’s Eve in LEICESTER on Radio Parkies on 27.2.2019 9pm</a>\n</h1>\n\n<div id='breadcrumbs'>\n    <div id=\"breadcrumb-0\" itemscope itemtype=\"http://data-vocabulary.org/Breadcrumb\"\n        itemref=\"breadcrumb-1\"\n      >\n      <a href=\"/c/research\" itemprop=\"url\">\n        <span itemprop=\"title\">Research</span>\n      </a>\n    </div>\n    <div id=\"breadcrumb-1\" itemscope itemtype=\"http://data-vocabulary.org/Breadcrumb\"\n>\n      <a href=\"/c/research/research-discussion\" itemprop=\"url\">\n        <span itemprop=\"title\">Research discussion</span>\n      </a>\n    </div>\n</div>\n\n\n\n\n\n<hr>\n\n\n  <div itemscope itemtype='http://schema.org/DiscussionForumPosting'>\n      <div class='creator'>\n        <span>\n          <a href='/u/Scazzman'><b itemprop='author'>Scazzman</b></a>\n          \n          <time datetime='2019-02-26T08:20:52Z' itemprop='datePublished'>\n            2019-02-26 08:20:52 UTC\n          </time>\n        </span>\n        <span itemprop='position'>#1</span>\n      </div>\n      <div class='post' itemprop='articleBody'>\n        <p>Hi. Just to let you know that we’re talking about what’s going on in Leicester for WPD on Radio Parkies between 9pm and 10pm on Wednesday 27th February 2019 with Claire Jones talking to me, DjScazza.</p>\n<p>Parkinson’s Eve is on the 10th April and is the first European conference by, about and for women with Parkinson’s and their supporters including researchers. Register via <a href=\"http://theparade.me\" rel=\"nofollow noopener\">theparade.me</a> for this free event.</p>\n<p>On WPD, 11th April 2019,  there is an exhibition in Leicester of works with la parkinsons theme, including the official opening between 3 &amp; 5pm and a gala night featuring Hot Stuff star Ceri Dupree at the Grand Hotel in Leicester.</p>\n<p>Radio Parkies will be broadcasting live all day.</p>\n      </div>\n      <meta itemprop='interactionCount' content='UserLikes:0'>\n      <meta itemprop='interactionCount' content='UserComments:0'>\n      <meta itemprop='headline' content='World Parkinson’s Day and Parkinson’s Eve in LEICESTER on Radio Parkies on 27.2.2019 9pm'>\n      <hr>\n  </div>\n  <div itemscope itemtype='http://schema.org/DiscussionForumPosting'>\n      <div class='creator'>\n        <span>\n          <a href='/u/mrjohnnyparky'><b itemprop='author'>mrjohnnyparky</b></a>\n          \n          <time datetime='2019-03-13T22:58:02Z' itemprop='datePublished'>\n            2019-03-13 22:58:02 UTC\n          </time>\n        </span>\n        <span itemprop='position'>#2</span>\n      </div>\n      <div class='post' itemprop='articleBody'>\n        <aside class=\"onebox whitelistedgeneric\">\n  <header class=\"source\">\n      <a href=\"https://www.radioparkies.com/\" target=\"_blank\" rel=\"nofollow noopener\">Parkinson Radio Parkies</a>\n  </header>\n  <article class=\"onebox-body\">\n    <img src=\"https://forum.parkinsons.org.uk/uploads/db7928/original/2X/7/7fc4fce731eb9b50f3a4fc8d9a16a6dc60f65981.jpeg\" class=\"thumbnail onebox-avatar\" width=\"142\" height=\"142\">\n\n<h3><a href=\"https://www.radioparkies.com/\" target=\"_blank\" rel=\"nofollow noopener\">Parkinson Radio Parkies</a></h3>\n\n<p>Welcome to the NEW website of   Parkinson Radio Parkies  OBJECTIVE:  Give a voice to People who have to deal with ​Parkinson's disease , and provide generale information. Whether you are...</p>\n\n\n  </article>\n  <div class=\"onebox-metadata\">\n    \n    \n  </div>\n  <div style=\"clear: both\"></div>\n</aside>\n\n<p><iframe width=\"200\" height=\"250\" src=\"https://www.mixcloud.com/widget/follow/?u=https%3A%2F%2Fwww.mixcloud.com%2Fradioparkieswebradio%2F\" frameborder=\"0\" seamless=\"seamless\" sandbox=\"allow-same-origin allow-scripts allow-forms allow-popups allow-popups-to-escape-sandbox allow-presentation\"></iframe>\n</p>\n<p>Results for poetry comp will be announced 11/04/2019</p>\n<p>JP</p>\n      </div>\n      <meta itemprop='interactionCount' content='UserLikes:0'>\n      <meta itemprop='interactionCount' content='UserComments:0'>\n      <meta itemprop='headline' content='World Parkinson’s Day and Parkinson’s Eve in LEICESTER on Radio Parkies on 27.2.2019 9pm'>\n      <hr>\n  </div>\n  <div itemscope itemtype='http://schema.org/DiscussionForumPosting'>\n      <div class='creator'>\n        <span>\n          <a href='/u/mrjohnnyparky'><b itemprop='author'>mrjohnnyparky</b></a>\n          \n          <time datetime='2019-03-13T22:59:12Z' itemprop='datePublished'>\n            2019-03-13 22:59:12 UTC\n          </time>\n        </span>\n        <span itemprop='position'>#3</span>\n      </div>\n      <div class='post' itemprop='articleBody'>\n        <p>[<a href=\"https://www.theparade.me/\" rel=\"nofollow noopener\"><img src=\"https://forum.parkinsons.org.uk/uploads/db7928/original/2X/9/9206050f65c87874191a1f661e199d9d25265dc4.jpeg\" alt=\"image\" width=\"690\" height=\"431\"></a>](<a href=\"https://www.theparade.me/\" rel=\"nofollow noopener\">https://www.theparade.me/</a>)</p>\n      </div>\n      <meta itemprop='interactionCount' content='UserLikes:0'>\n      <meta itemprop='interactionCount' content='UserComments:0'>\n      <meta itemprop='headline' content='World Parkinson’s Day and Parkinson’s Eve in LEICESTER on Radio Parkies on 27.2.2019 9pm'>\n      <hr>\n  </div>\n  <div itemscope itemtype='http://schema.org/DiscussionForumPosting'>\n      <div class='creator'>\n        <span>\n          <a href='/u/mrjohnnyparky'><b itemprop='author'>mrjohnnyparky</b></a>\n          \n          <time datetime='2019-03-17T21:49:00Z' itemprop='datePublished'>\n            2019-03-17 21:49:00 UTC\n          </time>\n        </span>\n        <span itemprop='position'>#4</span>\n      </div>\n      <div class='post' itemprop='articleBody'>\n        <p>It’'s that time again folks. 2hrs of Songs\uD83D\uDC4D, Poetry\uD83D\uDC4D, Listener (no one is more surprised than me) requests\uD83D\uDC4D, PD Health info\uD83D\uDC4D, PD Book suggestions\uD83D\uDC4D, and DJ Chat\uD83D\uDC4E.</p>\n<p>A great selection of songs from 60’s onward to 2010’s, another great poem by Neil Benny - “Oh Parkinson’s”,  Sarah King  offering excellent advice and words of wisdom <a href=\"https://www.youtube.com/watch?v=dIKOA0m_L9c\" rel=\"nofollow noopener\">https://www.youtube.com/watch?v=dIKOA0m_L9c</a>, more great songs and some words of 2 books of Parkinson’s poetry with all proceeds going to Parkinson’s UK &amp; <span class=\"hashtag\">#cureforparkinson</span>’s respectively:</p>\n<p>All Shook Up - Sue Hammond <a href=\"https://www.amazon.co.uk/Books-Sue-Hammond/s?ie=UTF8&amp;page=1&amp;rh=n%3A266239%2Cp_27%3ASue%20Hammond\" rel=\"nofollow noopener\">https://www.amazon.co.uk/Books-Sue-Hammond/s?ie=UTF8&amp;page=1&amp;rh=n%3A266239%2Cp_27%3ASue%20Hammond</a></p>\n<p>The Big P - Nina Jackson  <a href=\"https://www.amazon.co.uk/l/B0753CVRYH?_encoding=UTF8&amp;redirectedFromKindleDbs=true&amp;rfkd=1&amp;shoppingPortalEnabled=true\" rel=\"nofollow noopener\">https://www.amazon.co.uk/l/B0753CVRYH?_encoding=UTF8&amp;redirectedFromKindleDbs=true&amp;rfkd=1&amp;shoppingPortalEnabled=true</a></p>\n<aside class=\"onebox whitelistedgeneric\">\n  <header class=\"source\">\n      <a href=\"https://www.radioparkies.com/\" target=\"_blank\" rel=\"nofollow noopener\">Parkinson Radio Parkies</a>\n  </header>\n  <article class=\"onebox-body\">\n    <img src=\"https://forum.parkinsons.org.uk/uploads/db7928/original/2X/7/7fc4fce731eb9b50f3a4fc8d9a16a6dc60f65981.jpeg\" class=\"thumbnail onebox-avatar\" width=\"142\" height=\"142\">\n\n<h3><a href=\"https://www.radioparkies.com/\" target=\"_blank\" rel=\"nofollow noopener\">Parkinson Radio Parkies</a></h3>\n\n<p>Welcome to the NEW website of   Parkinson Radio Parkies  OBJECTIVE:  Give a voice to People who have to deal with ​Parkinson's disease , and provide generale information. Whether you are...</p>\n\n\n  </article>\n  <div class=\"onebox-metadata\">\n    \n    \n  </div>\n  <div style=\"clear: both\"></div>\n</aside>\n\n      </div>\n      <meta itemprop='interactionCount' content='UserLikes:0'>\n      <meta itemprop='interactionCount' content='UserComments:1'>\n      <meta itemprop='headline' content='World Parkinson’s Day and Parkinson’s Eve in LEICESTER on Radio Parkies on 27.2.2019 9pm'>\n      <hr>\n  </div>\n  <div itemscope itemtype='http://schema.org/DiscussionForumPosting'>\n      <div class='creator'>\n        <span>\n          <a href='/u/babswood'><b itemprop='author'>babswood</b></a>\n          \n          <time datetime='2019-03-30T17:34:29Z' itemprop='datePublished'>\n            2019-03-30 17:34:29 UTC\n          </time>\n        </span>\n        <span itemprop='position'>#5</span>\n      </div>\n      <div class='post' itemprop='articleBody'>\n        <p>Hi there all<br>\nP<br>\nJust a reminder that oor JP is on Radioparkie tonight from  8 till10 with great music.</p>\n      </div>\n      <meta itemprop='interactionCount' content='UserLikes:1'>\n      <meta itemprop='interactionCount' content='UserComments:0'>\n      <meta itemprop='headline' content='World Parkinson’s Day and Parkinson’s Eve in LEICESTER on Radio Parkies on 27.2.2019 9pm'>\n      <hr>\n  </div>\n\n\n\n\n\n\n    </div>\n    <footer class=\"container\">\n      <nav class='crawler-nav' itemscope itemtype='http://schema.org/SiteNavigationElement'>\n        <a href='/'>Home</a>\n        <a href=\"/categories\">Categories</a>\n        <a href=\"/guidelines\">FAQ/Guidelines</a>\n        <a href=\"/tos\">Terms of Service</a>\n        <a href=\"/privacy\">Privacy Policy</a>\n      </nav>\n      <p class='powered-by-link'>Powered by <a href=\"https://www.discourse.org\">Discourse</a>, best viewed with JavaScript enabled</p>\n    </footer>\n    \n  </body>\n  \n</html>\n",
  "url": "https://forum.parkinsons.org.uk/t/world-parkinson-s-day-and-parkinson-s-eve-in-leicester-on-radio-parkies-on-27-2-2019-9pm/18154"
}