{
  "contentId": "5c967a60-8869-11e9-8f96-97f71b5221d6",
  "html": "<!DOCTYPE html>\n<html lang=\"en\">\n  <head>\n    <meta charset=\"utf-8\">\n    <title>Emotions - Introductions and personal stories - Parkinson&#39;s UK Forum</title>\n    <meta name=\"description\" content=\"First I would like to thank everyone on the forum for their kind thoughts and remembering little old me in them \nI have been through personal bereavement on quite a few occasions losing my dad when I was 6 years old and &amp;hellip;\">\n    <meta name=\"author\" content=\"\">\n<meta name=\"generator\" content=\"Discourse 2.2.5 - https://github.com/discourse/discourse version c294ff3609f988dcafb742e91606d60ca13b794d\">\n<link rel=\"icon\" type=\"image/png\" href=\"https://forum.parkinsons.org.uk/uploads/db7928/original/2X/3/311fc84f89f49f38601a2f16b295b6f03d3ce5dd.jpg\">\n<link rel=\"apple-touch-icon\" type=\"image/png\" href=\"https://forum.parkinsons.org.uk/uploads/db7928/original/2X/3/311fc84f89f49f38601a2f16b295b6f03d3ce5dd.jpg\">\n<meta name=\"theme-color\" content=\"#ffffff\">\n<meta name=\"viewport\" content=\"width=device-width, minimum-scale=1.0, maximum-scale=1.0, user-scalable=yes\">\n<link rel=\"canonical\" href=\"https://forum.parkinsons.org.uk/t/emotions/14220?page=2\" />\n<script type=\"application/ld+json\">{\"@context\":\"http://schema.org\",\"@type\":\"WebSite\",\"url\":\"https://forum.parkinsons.org.uk\",\"potentialAction\":{\"@type\":\"SearchAction\",\"target\":\"https://forum.parkinsons.org.uk/search?q={search_term_string}\",\"query-input\":\"required name=search_term_string\"}}</script>\n<link rel=\"search\" type=\"application/opensearchdescription+xml\" href=\"https://forum.parkinsons.org.uk/opensearch.xml\" title=\"Parkinson&#39;s UK Forum Search\">\n\n      <link href=\"/stylesheets/desktop_f99246ae801b083d3e4cca979d0dade8615b39ac.css?__ws=forum.parkinsons.org.uk\" media=\"all\" rel=\"stylesheet\" data-target=\"desktop\" data-theme-id=\"12\"/>\n      <link href=\"/stylesheets/desktop_theme_12_5d27531cf43f9df0c03a6a6ec3109dd05f9dfc49.css?__ws=forum.parkinsons.org.uk\" media=\"all\" rel=\"stylesheet\" data-target=\"desktop_theme\" data-theme-id=\"12\"/>\n    <link href=\"https://fonts.googleapis.com/css?family=Open+Sans\" rel=\"stylesheet\">\n\n    <meta id=\"data-ga-universal-analytics\" data-tracking-code=\"UA-4855628-1\" data-json=\"{&quot;cookieDomain&quot;:&quot;auto&quot;}\" data-auto-link-domains=\"\">\n\n<link rel='preload' href='/assets/google-universal-analytics-f35b4da49411e6f5559073523aab983da483976a3954c79c756f8579f6fbd6ef.js' as='script'/>\n<script src='/assets/google-universal-analytics-f35b4da49411e6f5559073523aab983da483976a3954c79c756f8579f6fbd6ef.js'></script>\n\n      <link rel=\"alternate\" type=\"application/rss+xml\" title=\"RSS feed of &#39;Emotions&#39;\" href=\"https://forum.parkinsons.org.uk/t/emotions/14220.rss\" />\n  <meta property=\"og:site_name\" content=\"Parkinson&#39;s UK Forum\" />\n<meta name=\"twitter:card\" content=\"summary\" />\n<meta name=\"twitter:image\" content=\"https://forum.parkinsons.org.uk/uploads/db7928/original/2X/3/311fc84f89f49f38601a2f16b295b6f03d3ce5dd.jpg\" />\n<meta property=\"og:image\" content=\"https://forum.parkinsons.org.uk/uploads/db7928/original/2X/3/311fc84f89f49f38601a2f16b295b6f03d3ce5dd.jpg\" />\n<meta property=\"og:url\" content=\"https://forum.parkinsons.org.uk/t/emotions/14220?page=2\" />\n<meta name=\"twitter:url\" content=\"https://forum.parkinsons.org.uk/t/emotions/14220?page=2\" />\n<meta property=\"og:title\" content=\"Emotions\" />\n<meta name=\"twitter:title\" content=\"Emotions\" />\n<meta property=\"og:description\" content=\"Hi TOMMY,  It is no bother.  I know for a fact that it’s better to talk to your gang of very good friends than bottling up your feelings  Work in progress or not  You are right to ignore the morons ( their brains are just painted on !!)  You have a rare talent for communication so please keep it up…  Over and out.  Mal.\" />\n<meta name=\"twitter:description\" content=\"Hi TOMMY,  It is no bother.  I know for a fact that it’s better to talk to your gang of very good friends than bottling up your feelings  Work in progress or not  You are right to ignore the morons ( their brains are just painted on !!)  You have a rare talent for communication so please keep it up…  Over and out.  Mal.\" />\n<meta name=\"twitter:label1\" value=\"Reading time\" />\n<meta name=\"twitter:data1\" value=\"33 mins \uD83D\uDD51\" />\n<meta name=\"twitter:label2\" value=\"Likes\" />\n<meta name=\"twitter:data2\" value=\"26 ❤\" />\n<meta property=\"article:published_time\" content=\"2018-06-29T15:01:46+00:00\" />\n<meta property=\"og:ignore_canonical\" content=\"true\" />\n\n      <link rel=\"prev\" href=\"/t/emotions/14220\">\n      <link rel=\"next\" href=\"/t/emotions/14220?page=3\">\n\n\n    \n  </head>\n  <body class=\"crawler\">\n    <header role=\"banner\">\n    <div class=\"region region-header\">\n        <div class=\"region-header-wrapper\">\n            <div id=\"block-parkinsons-d8-branding\" class=\"block block-system block-system-branding-block\">\n                <a href=\"/\" title=\"Home\" rel=\"home\" class=\"site-logo\">\n                    <img src=\"https://forum.parkinsons.org.uk/uploads/db7928/original/2X/8/862bb7d172e7d127e7f3e147ec43594aa62ac945.png\" alt=\"Parkinson's UK. Change Attitudes. Find a cure. Join us.\">\n                </a>\n            </div>\n            <div id=\"block-helpline\" class=\"block block-block-content block-block-content871cd5af-b938-4947-9dc0-d5c211d08fe3 style-phone\">\n                <div class=\"field field--name-field-link field--type-link field--label-hidden field__item\"><a href=\"tel:+448088000303\">Helpline 0808 800 0303</a></div>\n            </div>\n            <div id=\"block-shop\" class=\"block block-block-content block-block-content6fba5ae5-7797-49cd-8367-f321d8111cd6 style-regular\">\n                <div class=\"field field--name-field-link field--type-link field--label-hidden field__item\"><a href=\"https://shop.parkinsons.org.uk\">Shop</a></div>\n            </div>\n        </div>\n    </div>\n</header>\n\n\n<script src=\"/theme-javascripts/b7e9763fcb584fc8265c56a9f557cd6d2e1e8ed8.js?__ws=forum.parkinsons.org.uk\"></script>\n    <header>\n      <a href=\"/\">\n          <img src=\"https://forum.parkinsons.org.uk/uploads/db7928/original/2X/8/862bb7d172e7d127e7f3e147ec43594aa62ac945.png\" alt=\"Parkinson&#39;s UK Forum\" id=\"site-logo\" style=\"max-width: 150px;\">\n      </a>\n    </header>\n    <div id=\"main-outlet\" class=\"wrap\">\n      <h1>\n  <a href=\"/t/emotions/14220\">Emotions</a>\n</h1>\n\n<div id='breadcrumbs'>\n    <div id=\"breadcrumb-0\" itemscope itemtype=\"http://data-vocabulary.org/Breadcrumb\"\n        itemref=\"breadcrumb-1\"\n      >\n      <a href=\"/c/about-me\" itemprop=\"url\">\n        <span itemprop=\"title\">About me</span>\n      </a>\n    </div>\n    <div id=\"breadcrumb-1\" itemscope itemtype=\"http://data-vocabulary.org/Breadcrumb\"\n>\n      <a href=\"/c/about-me/introductions-and-personal-stories\" itemprop=\"url\">\n        <span itemprop=\"title\">Introductions and personal stories</span>\n      </a>\n    </div>\n</div>\n\n\n\n\n\n<hr>\n\n\n  <div itemscope itemtype='http://schema.org/DiscussionForumPosting'>\n      <div class='creator'>\n        <span>\n          <a href='/u/malcT'><b itemprop='author'>malcT</b></a>\n          \n          <time datetime='2018-06-29T15:01:46Z' itemprop='datePublished'>\n            2018-06-29 15:01:46 UTC\n          </time>\n        </span>\n        <span itemprop='position'>#21</span>\n      </div>\n      <div class='post' itemprop='articleBody'>\n        <p>Hi TOMMY,<br>\nIt is no bother.<br>\nI know for a fact that it’s better to talk to your gang of very good friends than bottling up your feelings<br>\nWork in progress or not<br>\nYou are right to ignore the morons ( their brains are just painted on !!)<br>\nYou have a rare talent for communication so please keep it up…<br>\nOver and out.<br>\nMal.</p>\n      </div>\n      <meta itemprop='interactionCount' content='UserLikes:0'>\n      <meta itemprop='interactionCount' content='UserComments:2'>\n      <meta itemprop='headline' content='Emotions'>\n      <hr>\n  </div>\n  <div itemscope itemtype='http://schema.org/DiscussionForumPosting'>\n      <div class='creator'>\n        <span>\n          <a href='/u/T1'><b itemprop='author'>T1</b></a>\n          \n          <time datetime='2018-06-29T15:28:03Z' itemprop='datePublished'>\n            2018-06-29 15:28:03 UTC\n          </time>\n        </span>\n        <span itemprop='position'>#22</span>\n      </div>\n      <div class='post' itemprop='articleBody'>\n        <p>Thanks Mal why don’t you join our little gang it’s not all serious stuff we do have the odd laugh when appropriate of course TOMMY</p>\n      </div>\n      <meta itemprop='interactionCount' content='UserLikes:0'>\n      <meta itemprop='interactionCount' content='UserComments:1'>\n      <meta itemprop='headline' content='Emotions'>\n      <hr>\n  </div>\n  <div itemscope itemtype='http://schema.org/DiscussionForumPosting'>\n      <div class='creator'>\n        <span>\n          <a href='/u/Wildrover'><b itemprop='author'>Wildrover</b></a>\n          \n          <time datetime='2018-06-29T16:23:13Z' itemprop='datePublished'>\n            2018-06-29 16:23:13 UTC\n          </time>\n        </span>\n        <span itemprop='position'>#23</span>\n      </div>\n      <div class='post' itemprop='articleBody'>\n        <p>Interesting that because I have never been a music fan but have listened to it alot more since my diagnosis. Bloody strange condition <img src=\"https://forum.parkinsons.org.uk/images/emoji/twitter/joy.png?v=5\" title=\":joy:\" class=\"emoji\" alt=\":joy:\"></p>\n      </div>\n      <meta itemprop='interactionCount' content='UserLikes:0'>\n      <meta itemprop='interactionCount' content='UserComments:0'>\n      <meta itemprop='headline' content='Emotions'>\n      <hr>\n  </div>\n  <div itemscope itemtype='http://schema.org/DiscussionForumPosting'>\n      <div class='creator'>\n        <span>\n          <a href='/u/itsmylfe'><b itemprop='author'>itsmylfe</b></a>\n          \n          <time datetime='2018-06-29T18:24:14Z' itemprop='datePublished'>\n            2018-06-29 18:24:14 UTC\n          </time>\n        </span>\n        <span itemprop='position'>#24</span>\n      </div>\n      <div class='post' itemprop='articleBody'>\n        <p>HI all ,<br>\ni second TOMMYS suggestion MALC<br>\nEVERYONE is more than welcome in the gang<br>\nthe majority of us will never meet face to face<br>\nbut knowing we arent alone<br>\nthats what makes us who we are<br>\ngiving strength to those that need it<br>\nand comfort in our care<br>\nIF  HEINEKEN MADE GANGS<br>\nstill wouldnt be better than ours</p>\n      </div>\n      <meta itemprop='interactionCount' content='UserLikes:0'>\n      <meta itemprop='interactionCount' content='UserComments:0'>\n      <meta itemprop='headline' content='Emotions'>\n      <hr>\n  </div>\n  <div itemscope itemtype='http://schema.org/DiscussionForumPosting'>\n      <div class='creator'>\n        <span>\n          <a href='/u/Wildrover'><b itemprop='author'>Wildrover</b></a>\n          \n          <time datetime='2018-06-29T18:33:52Z' itemprop='datePublished'>\n            2018-06-29 18:33:52 UTC\n          </time>\n        </span>\n        <span itemprop='position'>#25</span>\n      </div>\n      <div class='post' itemprop='articleBody'>\n        <p>I’m up for that and theres no reason to not meet face to face. We could all go on a massive pub crawl reeking havoc everywhere we go <img src=\"https://forum.parkinsons.org.uk/images/emoji/twitter/stuck_out_tongue_winking_eye.png?v=5\" title=\":stuck_out_tongue_winking_eye:\" class=\"emoji\" alt=\":stuck_out_tongue_winking_eye:\"></p>\n      </div>\n      <meta itemprop='interactionCount' content='UserLikes:0'>\n      <meta itemprop='interactionCount' content='UserComments:0'>\n      <meta itemprop='headline' content='Emotions'>\n      <hr>\n  </div>\n  <div itemscope itemtype='http://schema.org/DiscussionForumPosting'>\n      <div class='creator'>\n        <span>\n          <a href='/u/itsmylfe'><b itemprop='author'>itsmylfe</b></a>\n          \n          <time datetime='2018-06-29T19:09:02Z' itemprop='datePublished'>\n            2018-06-29 19:09:02 UTC\n          </time>\n        </span>\n        <span itemprop='position'>#26</span>\n      </div>\n      <div class='post' itemprop='articleBody'>\n        <p>Name the place and time<br>\nI’ll be holding the door open for you<br>\nhavent reeked havoc in many years<br>\ngod what fun</p>\n      </div>\n      <meta itemprop='interactionCount' content='UserLikes:1'>\n      <meta itemprop='interactionCount' content='UserComments:1'>\n      <meta itemprop='headline' content='Emotions'>\n      <hr>\n  </div>\n  <div itemscope itemtype='http://schema.org/DiscussionForumPosting'>\n      <div class='creator'>\n        <span>\n          <a href='/u/Wildrover'><b itemprop='author'>Wildrover</b></a>\n          \n          <time datetime='2018-06-29T19:19:08Z' itemprop='datePublished'>\n            2018-06-29 19:19:08 UTC\n          </time>\n        </span>\n        <span itemprop='position'>#27</span>\n      </div>\n      <div class='post' itemprop='articleBody'>\n        <p>Yeh how good would that be… the shaky lads on the lash <img src=\"https://forum.parkinsons.org.uk/images/emoji/twitter/joy.png?v=5\" title=\":joy:\" class=\"emoji\" alt=\":joy:\"><img src=\"https://forum.parkinsons.org.uk/images/emoji/twitter/joy.png?v=5\" title=\":joy:\" class=\"emoji\" alt=\":joy:\"><img src=\"https://forum.parkinsons.org.uk/images/emoji/twitter/joy.png?v=5\" title=\":joy:\" class=\"emoji\" alt=\":joy:\"></p>\n      </div>\n      <meta itemprop='interactionCount' content='UserLikes:0'>\n      <meta itemprop='interactionCount' content='UserComments:1'>\n      <meta itemprop='headline' content='Emotions'>\n      <hr>\n  </div>\n  <div itemscope itemtype='http://schema.org/DiscussionForumPosting'>\n      <div class='creator'>\n        <span>\n          <a href='/u/T1'><b itemprop='author'>T1</b></a>\n          \n          <time datetime='2018-06-29T19:36:59Z' itemprop='datePublished'>\n            2018-06-29 19:36:59 UTC\n          </time>\n        </span>\n        <span itemprop='position'>#28</span>\n      </div>\n      <div class='post' itemprop='articleBody'>\n        <p>Hi Wildrover<br>\nI’ve had my PD for many a year<br>\nand I’ve spent all my money<br>\nOn whisky and beer<br>\nAnd it’s no nay never no nay never no more (well I think you get the jist of that) but remember there’s girls in this gang mostly bad ones though so it will have to be a shake and bake night can you imagine the mess on the floor eh?</p>\n      </div>\n      <meta itemprop='interactionCount' content='UserLikes:0'>\n      <meta itemprop='interactionCount' content='UserComments:0'>\n      <meta itemprop='headline' content='Emotions'>\n      <hr>\n  </div>\n  <div itemscope itemtype='http://schema.org/DiscussionForumPosting'>\n      <div class='creator'>\n        <span>\n          <a href='/u/itsmylfe'><b itemprop='author'>itsmylfe</b></a>\n          \n          <time datetime='2018-06-29T19:40:45Z' itemprop='datePublished'>\n            2018-06-29 19:40:45 UTC\n          </time>\n        </span>\n        <span itemprop='position'>#29</span>\n      </div>\n      <div class='post' itemprop='articleBody'>\n        <p>lets take the fun police , show them what a good time<br>\nbut then again with your last comment bruv , i dont think they will be that far behind you</p>\n      </div>\n      <meta itemprop='interactionCount' content='UserLikes:1'>\n      <meta itemprop='interactionCount' content='UserComments:0'>\n      <meta itemprop='headline' content='Emotions'>\n      <hr>\n  </div>\n  <div itemscope itemtype='http://schema.org/DiscussionForumPosting'>\n      <div class='creator'>\n        <span>\n          <a href='/u/Wildrover'><b itemprop='author'>Wildrover</b></a>\n          \n          <time datetime='2018-06-29T19:47:32Z' itemprop='datePublished'>\n            2018-06-29 19:47:32 UTC\n          </time>\n        </span>\n        <span itemprop='position'>#30</span>\n      </div>\n      <div class='post' itemprop='articleBody'>\n        <p>I must admit my tolerance for a few beers is pretty dire with this god dam condition but still enjoy a few. Being an ex soldier i have been on a few military reunions but i can imagine a PD get together has the potential to top them all. Being an ex squaddie makes you part of a brotherhood but having PD takes things to a whole new level when it comes to “belonging”</p>\n      </div>\n      <meta itemprop='interactionCount' content='UserLikes:0'>\n      <meta itemprop='interactionCount' content='UserComments:1'>\n      <meta itemprop='headline' content='Emotions'>\n      <hr>\n  </div>\n  <div itemscope itemtype='http://schema.org/DiscussionForumPosting'>\n      <div class='creator'>\n        <span>\n          <a href='/u/itsmylfe'><b itemprop='author'>itsmylfe</b></a>\n          \n          <time datetime='2018-06-29T20:31:20Z' itemprop='datePublished'>\n            2018-06-29 20:31:20 UTC\n          </time>\n        </span>\n        <span itemprop='position'>#31</span>\n      </div>\n      <div class='post' itemprop='articleBody'>\n        <p>i never served but my repects go to you and those who have and still are<br>\nbrotherhood and trust are hard to earn but once earned is like bond like no other<br>\ni share your dire tolerance to beers , drink one pint , piss 4<br>\nsorry so crude<br>\nim now a JD Jack daniels fan although in moderation , only problem with that is i never learnt moderation<br>\nbelonging is important , makes us feel like we are more than this condition would like us to be<br>\nid stand side by side with you if you fall and dont take me with you , my hand will be the first thing you see , if you take me down with you , my laughter will be the first sound you hear<br>\nand we will both stand together<br>\nwe are all diffrent but also one of the same<br>\nfriendship , brotherhood sisterhood<br>\nNO ONE LEFT BEHIND</p>\n<p>GOD BLESS THE MEN AND WOMEN OF OUR GREAT COUNTRY<br>\nTHOSE WHO PUT THEMSELFS IN HARMS WAY TO PROTECT US<br>\nNEVER FORGET THOSE WHO HAVE FOUGHT AND PAID THE ULTIMATE PRICE<br>\nFOR THE SAFTEY WE HAVE TODAY AND TOMORROWS<br>\nIF WE FOGET JUST ONE THEM , THEN THE SHAME IS ON US</p>\n      </div>\n      <meta itemprop='interactionCount' content='UserLikes:0'>\n      <meta itemprop='interactionCount' content='UserComments:0'>\n      <meta itemprop='headline' content='Emotions'>\n      <hr>\n  </div>\n  <div itemscope itemtype='http://schema.org/DiscussionForumPosting'>\n      <div class='creator'>\n        <span>\n          <a href='/u/malcT'><b itemprop='author'>malcT</b></a>\n          \n          <time datetime='2018-06-30T05:48:50Z' itemprop='datePublished'>\n            2018-06-30 05:48:50 UTC\n          </time>\n        </span>\n        <span itemprop='position'>#32</span>\n      </div>\n      <div class='post' itemprop='articleBody'>\n        <p>Hi T1,<br>\nMorning All, thanks Tommy for the kind invite and you Kieth for the Second<br>\nIts also good to see you too Ian, my fishing friend.</p>\n<p>1  I would struggle to keep up with  you three illustrious wordsmiths<br>\n2  The Ladies frighten me ( i get enough telling off at home) have you asked for their permission<br>\n3  I have no problem when you speak English, Like what the Queen does! but your Native tongue<br>\ntakes me a bit more time. Ah can no get me heed rund it. Is there a dickshionery available.</p>\n<p>If we can overcome these minor matters.<br>\nPlease count me IN</p>\n      </div>\n      <meta itemprop='interactionCount' content='UserLikes:0'>\n      <meta itemprop='interactionCount' content='UserComments:0'>\n      <meta itemprop='headline' content='Emotions'>\n      <hr>\n  </div>\n  <div itemscope itemtype='http://schema.org/DiscussionForumPosting'>\n      <div class='creator'>\n        <span>\n          <a href='/u/peter_corcoran'><b itemprop='author'>peter_corcoran</b></a>\n          \n          <time datetime='2018-06-30T07:30:34Z' itemprop='datePublished'>\n            2018-06-30 07:30:34 UTC\n          </time>\n        </span>\n        <span itemprop='position'>#33</span>\n      </div>\n      <div class='post' itemprop='articleBody'>\n        <p>Hi see you found our hideout what music are you listening to aside from Lfc it’s one passion that, s kept me sane well I think I, m sane mam says I, m not especially when watching reds</p>\n      </div>\n      <meta itemprop='interactionCount' content='UserLikes:0'>\n      <meta itemprop='interactionCount' content='UserComments:1'>\n      <meta itemprop='headline' content='Emotions'>\n      <hr>\n  </div>\n  <div itemscope itemtype='http://schema.org/DiscussionForumPosting'>\n      <div class='creator'>\n        <span>\n          <a href='/u/Wildrover'><b itemprop='author'>Wildrover</b></a>\n          \n          <time datetime='2018-06-30T07:45:46Z' itemprop='datePublished'>\n            2018-06-30 07:45:46 UTC\n          </time>\n        </span>\n        <span itemprop='position'>#35</span>\n      </div>\n      <div class='post' itemprop='articleBody'>\n        <p>Hi Pete, mainly 80’s stuff and alot of The Jam. Although for some reason enjoying a bit of Paloma Faith.</p>\n      </div>\n      <meta itemprop='interactionCount' content='UserLikes:0'>\n      <meta itemprop='interactionCount' content='UserComments:2'>\n      <meta itemprop='headline' content='Emotions'>\n      <hr>\n  </div>\n  <div itemscope itemtype='http://schema.org/DiscussionForumPosting'>\n      <div class='creator'>\n        <span>\n          <a href='/u/itsmylfe'><b itemprop='author'>itsmylfe</b></a>\n          \n          <time datetime='2018-06-30T08:50:11Z' itemprop='datePublished'>\n            2018-06-30 08:50:11 UTC\n          </time>\n        </span>\n        <span itemprop='position'>#36</span>\n      </div>\n      <div class='post' itemprop='articleBody'>\n        <p>Wildrover<br>\nCan I ask a serious question<br>\nWhat’s your first name ???</p>\n<p>I,LL go first I’m Keith<br>\nand I agree you can’t beat the 70s and 80s<br>\nBut then I’m an Old fart<br>\nKeith</p>\n      </div>\n      <meta itemprop='interactionCount' content='UserLikes:0'>\n      <meta itemprop='interactionCount' content='UserComments:1'>\n      <meta itemprop='headline' content='Emotions'>\n      <hr>\n  </div>\n  <div itemscope itemtype='http://schema.org/DiscussionForumPosting'>\n      <div class='creator'>\n        <span>\n          <a href='/u/Wildrover'><b itemprop='author'>Wildrover</b></a>\n          \n          <time datetime='2018-06-30T10:27:13Z' itemprop='datePublished'>\n            2018-06-30 10:27:13 UTC\n          </time>\n        </span>\n        <span itemprop='position'>#37</span>\n      </div>\n      <div class='post' itemprop='articleBody'>\n        <p>Hi Keith, its Ian</p>\n      </div>\n      <meta itemprop='interactionCount' content='UserLikes:0'>\n      <meta itemprop='interactionCount' content='UserComments:0'>\n      <meta itemprop='headline' content='Emotions'>\n      <hr>\n  </div>\n  <div itemscope itemtype='http://schema.org/DiscussionForumPosting'>\n      <div class='creator'>\n        <span>\n          <a href='/u/itsmylfe'><b itemprop='author'>itsmylfe</b></a>\n          \n          <time datetime='2018-06-30T11:22:33Z' itemprop='datePublished'>\n            2018-06-30 11:22:33 UTC\n          </time>\n        </span>\n        <span itemprop='position'>#38</span>\n      </div>\n      <div class='post' itemprop='articleBody'>\n        <p>Great to meet you Ian<br>\nHope you and your family are well<br>\nWith our condition we sometimes ask the stupudish questions ( well I do )<br>\nWe can only hope for better days as nothings is ever sure<br>\nI’ve been on the forum since March this year and to me it has been a lifeline.<br>\nI still have the odd bad day . On those days all I want is to be left alone but not on my own ( if that makes any sense )<br>\nSome of us keep our condition close . But not me<br>\nI’m not afraid to talk about what I feel<br>\nIf you ever feel you want to let off some steam or frustrations you will find not only me but many others even in the middle of the night<br>\nThe insomnia thread is the place to go<br>\nThat’s enough rambling<br>\nSo take care my new friend all my wishes to your family<br>\nStay strong<br>\nKeith</p>\n      </div>\n      <meta itemprop='interactionCount' content='UserLikes:1'>\n      <meta itemprop='interactionCount' content='UserComments:1'>\n      <meta itemprop='headline' content='Emotions'>\n      <hr>\n  </div>\n  <div itemscope itemtype='http://schema.org/DiscussionForumPosting'>\n      <div class='creator'>\n        <span>\n          <a href='/u/Wildrover'><b itemprop='author'>Wildrover</b></a>\n          \n          <time datetime='2018-06-30T13:29:52Z' itemprop='datePublished'>\n            2018-06-30 13:29:52 UTC\n          </time>\n        </span>\n        <span itemprop='position'>#39</span>\n      </div>\n      <div class='post' itemprop='articleBody'>\n        <p>Great to meet you too Keith.<br>\nI have been on the forum since September last year when I was diagnosed. I hate PD, made even worse with my meds having little effect 10 months on. I am coping with it ok ish but I do have my moments and the occasional meltdown. Like you not afraid to tell it like it is. Just turned 51 and didnt plan for this shyte but i know i need to play the cards I have been dealt.</p>\n<p>Stay strong brother and thanks for reaching out.<br>\nOnwards and upwards</p>\n      </div>\n      <meta itemprop='interactionCount' content='UserLikes:1'>\n      <meta itemprop='interactionCount' content='UserComments:0'>\n      <meta itemprop='headline' content='Emotions'>\n      <hr>\n  </div>\n  <div itemscope itemtype='http://schema.org/DiscussionForumPosting'>\n      <div class='creator'>\n        <span>\n          <a href='/u/malcT'><b itemprop='author'>malcT</b></a>\n          \n          <time datetime='2018-06-30T14:20:24Z' itemprop='datePublished'>\n            2018-06-30 14:20:24 UTC\n          </time>\n        </span>\n        <span itemprop='position'>#40</span>\n      </div>\n      <div class='post' itemprop='articleBody'>\n        <p>Hi Everyone.,</p>\n<p>Just as I  logged off this morning, I was brought back down to earth by a post from a Lady (cant remember her name ) but she was crying, saying she had been bullied at work.<br>\nWas i dreaming ? because the post seems to have disappeared .<br>\nDoes anyone know whats happened to it ?</p>\n<p>Mal,</p>\n      </div>\n      <meta itemprop='interactionCount' content='UserLikes:0'>\n      <meta itemprop='interactionCount' content='UserComments:1'>\n      <meta itemprop='headline' content='Emotions'>\n      <hr>\n  </div>\n  <div itemscope itemtype='http://schema.org/DiscussionForumPosting'>\n      <div class='creator'>\n        <span>\n          <a href='/u/itsmylfe'><b itemprop='author'>itsmylfe</b></a>\n          \n          <time datetime='2018-06-30T14:22:04Z' itemprop='datePublished'>\n            2018-06-30 14:22:04 UTC\n          </time>\n        </span>\n        <span itemprop='position'>#41</span>\n      </div>\n      <div class='post' itemprop='articleBody'>\n        <p>I’m 52 and untill March last year I thought I was in good health<br>\nHad a heart attack out the blue in March<br>\nNovember I had a minor stroke TIA<br>\nTHEN in February Parkinsons<br>\nHow’s that for a triple whammy<br>\nI am not bitter about it .  life’s too short<br>\nHas it changed me ? I couldn’t really say<br>\nI have had friends that suddenly avoided me ( their loss )<br>\nBut the majority have stood by me<br>\nI’m still the same me but just a little slower<br>\nAs time has gone on my boys have noticed I have become more sarcastic even more than I was before diagnoses<br>\nThe strength I get from my family is what grounds me<br>\nThey have no problems in taking the piss but it’s their way of handling it<br>\nI dread to think what they would do if someone ment it maliciously<br>\nYou mentioned you play the cards you’ve been dealt . When my shakes take over my cards turn into 52 card pick up lol<br>\nI still keep active but I know I have some limitations<br>\nIf you ever want to ask me anything privately . You are more than welcome.<br>\nWith me . What you see is what you get and I make no apologises lol<br>\nI will stand with you every step of the way<br>\nIt’s not that you need me . We all need each other<br>\nTake care<br>\nBrothers in arms<br>\nKeith</p>\n      </div>\n      <meta itemprop='interactionCount' content='UserLikes:0'>\n      <meta itemprop='interactionCount' content='UserComments:1'>\n      <meta itemprop='headline' content='Emotions'>\n      <hr>\n  </div>\n\n  <div role='navigation' itemscope itemtype='http://schema.org/SiteNavigationElement'>\n      <span itemprop='name'><a rel=\"prev\" itemprop=\"url\" href=\"/t/emotions/14220\">← previous page</a></span>\n      <span itemprop='name'><b><a rel=\"next\" itemprop=\"url\" href=\"/t/emotions/14220?page=3\">next page →</a></b></span>\n  </div>\n\n\n\n\n\n    </div>\n    <footer class=\"container\">\n      <nav class='crawler-nav' itemscope itemtype='http://schema.org/SiteNavigationElement'>\n        <a href='/'>Home</a>\n        <a href=\"/categories\">Categories</a>\n        <a href=\"/guidelines\">FAQ/Guidelines</a>\n        <a href=\"/tos\">Terms of Service</a>\n        <a href=\"/privacy\">Privacy Policy</a>\n      </nav>\n      <p class='powered-by-link'>Powered by <a href=\"https://www.discourse.org\">Discourse</a>, best viewed with JavaScript enabled</p>\n    </footer>\n    \n  </body>\n  \n</html>\n",
  "url": "https://forum.parkinsons.org.uk/t/emotions/14220?page=2"
}