{
  "contentId": "7efe1a40-8864-11e9-8f96-97f71b5221d6",
  "html": "<!DOCTYPE html>\n<html lang=\"en\">\n  <head>\n    <meta charset=\"utf-8\">\n    <title>Getting new notability car  - Introductions and personal stories - Parkinson&#39;s UK Forum</title>\n    <meta name=\"description\" content=\"Hi everyone new to forum but old hand with Parkinsons diagnosed nearly 10 years ago and told had it for 10 years prior I am now a stressed out individual who has taken 3 months to decide what will be my next mobility car&amp;hellip;\">\n    <meta name=\"author\" content=\"\">\n<meta name=\"generator\" content=\"Discourse 2.2.5 - https://github.com/discourse/discourse version c294ff3609f988dcafb742e91606d60ca13b794d\">\n<link rel=\"icon\" type=\"image/png\" href=\"https://forum.parkinsons.org.uk/uploads/db7928/original/2X/3/311fc84f89f49f38601a2f16b295b6f03d3ce5dd.jpg\">\n<link rel=\"apple-touch-icon\" type=\"image/png\" href=\"https://forum.parkinsons.org.uk/uploads/db7928/original/2X/3/311fc84f89f49f38601a2f16b295b6f03d3ce5dd.jpg\">\n<meta name=\"theme-color\" content=\"#ffffff\">\n<meta name=\"viewport\" content=\"width=device-width, minimum-scale=1.0, maximum-scale=1.0, user-scalable=yes\">\n<link rel=\"canonical\" href=\"https://forum.parkinsons.org.uk/t/getting-new-notability-car/19514\" />\n<script type=\"application/ld+json\">{\"@context\":\"http://schema.org\",\"@type\":\"WebSite\",\"url\":\"https://forum.parkinsons.org.uk\",\"potentialAction\":{\"@type\":\"SearchAction\",\"target\":\"https://forum.parkinsons.org.uk/search?q={search_term_string}\",\"query-input\":\"required name=search_term_string\"}}</script>\n<link rel=\"search\" type=\"application/opensearchdescription+xml\" href=\"https://forum.parkinsons.org.uk/opensearch.xml\" title=\"Parkinson&#39;s UK Forum Search\">\n\n      <link href=\"/stylesheets/desktop_f99246ae801b083d3e4cca979d0dade8615b39ac.css?__ws=forum.parkinsons.org.uk\" media=\"all\" rel=\"stylesheet\" data-target=\"desktop\" data-theme-id=\"12\"/>\n      <link href=\"/stylesheets/desktop_theme_12_5d27531cf43f9df0c03a6a6ec3109dd05f9dfc49.css?__ws=forum.parkinsons.org.uk\" media=\"all\" rel=\"stylesheet\" data-target=\"desktop_theme\" data-theme-id=\"12\"/>\n    <link href=\"https://fonts.googleapis.com/css?family=Open+Sans\" rel=\"stylesheet\">\n\n    <meta id=\"data-ga-universal-analytics\" data-tracking-code=\"UA-4855628-1\" data-json=\"{&quot;cookieDomain&quot;:&quot;auto&quot;}\" data-auto-link-domains=\"\">\n\n<link rel='preload' href='/assets/google-universal-analytics-f35b4da49411e6f5559073523aab983da483976a3954c79c756f8579f6fbd6ef.js' as='script'/>\n<script src='/assets/google-universal-analytics-f35b4da49411e6f5559073523aab983da483976a3954c79c756f8579f6fbd6ef.js'></script>\n\n      <link rel=\"alternate\" type=\"application/rss+xml\" title=\"RSS feed of &#39;Getting new notability car &#39;\" href=\"https://forum.parkinsons.org.uk/t/getting-new-notability-car/19514.rss\" />\n  <meta property=\"og:site_name\" content=\"Parkinson&#39;s UK Forum\" />\n<meta name=\"twitter:card\" content=\"summary\" />\n<meta name=\"twitter:image\" content=\"https://forum.parkinsons.org.uk/uploads/db7928/original/2X/3/311fc84f89f49f38601a2f16b295b6f03d3ce5dd.jpg\" />\n<meta property=\"og:image\" content=\"https://forum.parkinsons.org.uk/uploads/db7928/original/2X/3/311fc84f89f49f38601a2f16b295b6f03d3ce5dd.jpg\" />\n<meta property=\"og:url\" content=\"https://forum.parkinsons.org.uk/t/getting-new-notability-car/19514\" />\n<meta name=\"twitter:url\" content=\"https://forum.parkinsons.org.uk/t/getting-new-notability-car/19514\" />\n<meta property=\"og:title\" content=\"Getting new notability car \" />\n<meta name=\"twitter:title\" content=\"Getting new notability car \" />\n<meta property=\"og:description\" content=\"Hi everyone new to forum but old hand with Parkinsons diagnosed nearly 10 years ago and told had it for 10 years prior I am now a stressed out individual who has taken 3 months to decide what will be my next mobility car ,changing needs ,depleted finances etc.well after all considerations went for Toyota C HR hybrid ,would have chosen base model but need automatic with parking sensors bit the bullet and plumped for excel model with £895 down payment .let me tell you have be up most nights all ni...\" />\n<meta name=\"twitter:description\" content=\"Hi everyone new to forum but old hand with Parkinsons diagnosed nearly 10 years ago and told had it for 10 years prior I am now a stressed out individual who has taken 3 months to decide what will be my next mobility car ,changing needs ,depleted finances etc.well after all considerations went for Toyota C HR hybrid ,would have chosen base model but need automatic with parking sensors bit the bullet and plumped for excel model with £895 down payment .let me tell you have be up most nights all ni...\" />\n<meta property=\"article:published_time\" content=\"2019-05-31T15:13:25+00:00\" />\n<meta property=\"og:ignore_canonical\" content=\"true\" />\n\n\n\n    \n  </head>\n  <body class=\"crawler\">\n    <header role=\"banner\">\n    <div class=\"region region-header\">\n        <div class=\"region-header-wrapper\">\n            <div id=\"block-parkinsons-d8-branding\" class=\"block block-system block-system-branding-block\">\n                <a href=\"/\" title=\"Home\" rel=\"home\" class=\"site-logo\">\n                    <img src=\"https://forum.parkinsons.org.uk/uploads/db7928/original/2X/8/862bb7d172e7d127e7f3e147ec43594aa62ac945.png\" alt=\"Parkinson's UK. Change Attitudes. Find a cure. Join us.\">\n                </a>\n            </div>\n            <div id=\"block-helpline\" class=\"block block-block-content block-block-content871cd5af-b938-4947-9dc0-d5c211d08fe3 style-phone\">\n                <div class=\"field field--name-field-link field--type-link field--label-hidden field__item\"><a href=\"tel:+448088000303\">Helpline 0808 800 0303</a></div>\n            </div>\n            <div id=\"block-shop\" class=\"block block-block-content block-block-content6fba5ae5-7797-49cd-8367-f321d8111cd6 style-regular\">\n                <div class=\"field field--name-field-link field--type-link field--label-hidden field__item\"><a href=\"https://shop.parkinsons.org.uk\">Shop</a></div>\n            </div>\n        </div>\n    </div>\n</header>\n\n\n<script src=\"/theme-javascripts/b7e9763fcb584fc8265c56a9f557cd6d2e1e8ed8.js?__ws=forum.parkinsons.org.uk\"></script>\n    <header>\n      <a href=\"/\">\n          <img src=\"https://forum.parkinsons.org.uk/uploads/db7928/original/2X/8/862bb7d172e7d127e7f3e147ec43594aa62ac945.png\" alt=\"Parkinson&#39;s UK Forum\" id=\"site-logo\" style=\"max-width: 150px;\">\n      </a>\n    </header>\n    <div id=\"main-outlet\" class=\"wrap\">\n      <h1>\n  <a href=\"/t/getting-new-notability-car/19514\">Getting new notability car </a>\n</h1>\n\n<div id='breadcrumbs'>\n    <div id=\"breadcrumb-0\" itemscope itemtype=\"http://data-vocabulary.org/Breadcrumb\"\n        itemref=\"breadcrumb-1\"\n      >\n      <a href=\"/c/about-me\" itemprop=\"url\">\n        <span itemprop=\"title\">About me</span>\n      </a>\n    </div>\n    <div id=\"breadcrumb-1\" itemscope itemtype=\"http://data-vocabulary.org/Breadcrumb\"\n>\n      <a href=\"/c/about-me/introductions-and-personal-stories\" itemprop=\"url\">\n        <span itemprop=\"title\">Introductions and personal stories</span>\n      </a>\n    </div>\n</div>\n\n\n\n\n\n<hr>\n\n\n  <div itemscope itemtype='http://schema.org/DiscussionForumPosting'>\n      <div class='creator'>\n        <span>\n          <a href='/u/DADSshed'><b itemprop='author'>DADSshed</b></a>\n          \n          <time datetime='2019-05-31T15:13:25Z' itemprop='datePublished'>\n            2019-05-31 15:13:25 UTC\n          </time>\n        </span>\n        <span itemprop='position'>#1</span>\n      </div>\n      <div class='post' itemprop='articleBody'>\n        <p>Hi everyone new to forum but old hand with Parkinsons diagnosed nearly 10 years ago and told had it for 10 years prior I am now a stressed out individual who has taken 3 months to decide what will be my next mobility car ,changing needs ,depleted finances etc.well after all considerations went for Toyota C HR hybrid ,would have chosen base model but need automatic with parking sensors bit the bullet and plumped for excel model with £895 down payment .let me tell you have be up most nights all night just double checking and going over things .a problem with my driving license has not helped as it’s out of date being reviewed every 3 years and DVLA making mistake about my condition ,which doctor and consultant have verified.well I’ve made this big decision i Waite for the post everyday I’ve filled out the paperwork at dealers  today it’s Friday going on holiday sun and singing order-form sat afternoon .post just come brown envelope I rip it open in a rush to find A Bloody letter from department for work and pensions telling me my disability allowance is ending and being moved to PIP .after the biggest jump around for years I read that my notability is also effective and may have to hand back car .fill sick as a pig <img src=\"https://forum.parkinsons.org.uk/images/emoji/twitter/pig.png?v=6\" title=\":pig:\" class=\"emoji\" alt=\":pig:\">.do not know how this is going to affect me but I know I’m NOT happy and it’s like someone just put the boot in to me .thanks Mark</p>\n      </div>\n      <meta itemprop='interactionCount' content='UserLikes:0'>\n      <meta itemprop='interactionCount' content='UserComments:0'>\n      <meta itemprop='headline' content='Getting new notability car '>\n      <hr>\n  </div>\n  <div itemscope itemtype='http://schema.org/DiscussionForumPosting'>\n      <div class='creator'>\n        <span>\n          <a href='/u/Justthisguy'><b itemprop='author'>Justthisguy</b></a>\n          \n          <time datetime='2019-06-02T14:56:42Z' itemprop='datePublished'>\n            2019-06-02 14:56:42 UTC\n          </time>\n        </span>\n        <span itemprop='position'>#2</span>\n      </div>\n      <div class='post' itemprop='articleBody'>\n        <p>Hello DADSshed<br>\nA warm welcome to the forum and sorry to hear about your problems with Motability. Hopefully someone who is  more experienced with that issue will get back to you soon as I’m not sure what to suggest (I didn’t qualify when I was diagnosed last year) but, for now, you could contact Age Connects and go through your problems with them.  Good luck and best wishes.</p>\n      </div>\n      <meta itemprop='interactionCount' content='UserLikes:0'>\n      <meta itemprop='interactionCount' content='UserComments:0'>\n      <meta itemprop='headline' content='Getting new notability car '>\n      <hr>\n  </div>\n  <div itemscope itemtype='http://schema.org/DiscussionForumPosting'>\n      <div class='creator'>\n        <span>\n          <a href='/u/Reah'><b itemprop='author'>Reah</b></a>\n          \n          <time datetime='2019-06-04T16:06:49Z' itemprop='datePublished'>\n            2019-06-04 16:06:49 UTC\n          </time>\n        </span>\n        <span itemprop='position'>#3</span>\n      </div>\n      <div class='post' itemprop='articleBody'>\n        <p>Hi <a class=\"mention\" href=\"/u/dadsshed\">@DADSshed</a>,</p>\n<p>I understand why you are concerned about this decision, however, I just want to reassure you that your motability car would only be affected if you lost the high rate of the mobility element when you’re reassessed. If you get the highest rate of mobility within PIP then you will not be affected in any way.</p>\n<p>My best advice to you, especially in this case, is to get help with completing the form so it is less likely that you’ll have to go to an assessment. You may find it helpful to get help from a family member or friend, but otherwise you would be best getting support to complete the form. This could be from one of our <a href=\"https://www.parkinsons.org.uk/information-and-support/our-support-services\" rel=\"nofollow noopener\">local advisers,</a> the citizens advice or another local advice agency.</p>\n<p>If you need further assistance on this, you are more than welcome to contact our helpline on 0808 800 0303.</p>\n<p>Best wishes,<br>\nReah</p>\n      </div>\n      <meta itemprop='interactionCount' content='UserLikes:0'>\n      <meta itemprop='interactionCount' content='UserComments:0'>\n      <meta itemprop='headline' content='Getting new notability car '>\n      <hr>\n  </div>\n\n\n\n\n\n\n    </div>\n    <footer class=\"container\">\n      <nav class='crawler-nav' itemscope itemtype='http://schema.org/SiteNavigationElement'>\n        <a href='/'>Home</a>\n        <a href=\"/categories\">Categories</a>\n        <a href=\"/guidelines\">FAQ/Guidelines</a>\n        <a href=\"/tos\">Terms of Service</a>\n        <a href=\"/privacy\">Privacy Policy</a>\n      </nav>\n      <p class='powered-by-link'>Powered by <a href=\"https://www.discourse.org\">Discourse</a>, best viewed with JavaScript enabled</p>\n    </footer>\n    \n  </body>\n  \n</html>\n",
  "url": "https://forum.parkinsons.org.uk/t/getting-new-notability-car/19514"
}