{
  "contentId": "013ac780-ca4e-11e9-816f-91101a0612dc",
  "html": "<!DOCTYPE html>\n<!--[if lt IE 7]>      <html class=\"no-js lt-ie9 lt-ie8 lt-ie7\" lang=\"\"> <![endif]-->\n<!--[if IE 7]>         <html class=\"no-js lt-ie9 lt-ie8\" lang=\"\"> <![endif]-->\n<!--[if IE 8]>         <html class=\"no-js lt-ie9\" lang=\"\"> <![endif]-->\n<!--[if gt IE 8]><!--> <html class=\"no-js\" lang=\"fr\"> <!--<![endif]-->\n<head>\n    <meta http-equiv='X-UA-Compatible' content='IE=edge'>\n    <meta charset=\"utf-8\">\n    <title>Accueil</title>\n    <meta name=\"description\" content=\"Maladies Rares Infos Services est le service d’information et de soutien de référence sur les maladies rares. Pour être écouté, s’informer, témoigner, échanger. Un service professionnel et sans but lucratif.\">\n    <base href=\"https://www.maladiesraresinfo.org/\">\n    <meta name=\"viewport\" content=\"width=device-width, initial-scale=1\">\n    <link rel=\"apple-touch-icon\" href=\"apple-touch-icon.png\">\n\t<link rel=\"stylesheet\" href=\"/assets/css/style.css\">\n\t<script src=\"/assets/js/modernizr-2.8.3-respond-1.4.2.min.js\"></script>\n</head>\n\n<body>\n\t<a id=\"skippy\" class=\"sr-only sr-only-focusable\" href=\"index.html#contenu\"><div class=\"container\"><span class=\"skiplink-text\">Accéder directement au contenu</span></div></a>\n<div id=\"top-header\" role=\"banner\">\n\t<div class=\"container\">\n\t\t<div class=\"row\">\n\t\t\t<div class=\"col-md-4 col-xs-6\">\n\t\t\t\t<ul class=\"social-icons\">\n\t\t\t\t\t<li><a href=\"http://twitter.com/maladierareinfo\" title=\"Visitez la page Twitter de Maladies rares Info Services\"><span class=\"icon icon-twitter\"></span><span class=\"sr-only\">Twitter</span></a></li>\n\t\t\t\t\t<li><a href=\"http://www.facebook.com/Maladies-Rares-Info-Services-141961802618072/\" title=\"Visitez la page Facebook de Maladies rares Info Services\"><span class=\"icon icon-facebook\"></span><span class=\"sr-only\">Facebook</span></a></li>\n\t\t\t\t\t<li><a href=\"http://www.youtube.com/channel/UCGDbPtHM1LEV1GdvK8KF_Gg\" title=\"Visitez la page YouTube de Maladies rares Info Services\"><span class=\"icon icon-youtube\"></span><span class=\"sr-only\">YouTube</span></a></li>\n\t\t\t\t</ul>\n\t\t\t</div>\n\t\t\t<div class=\"col-md-5  col-xs-6 text-right\">\n\t\t\t\t<ul class=\"contact\">\n\t\t\t\t\t<li><span class=\"sprite chat-off mr-xs\"></span>&#x43;&#104;&#x40;&#116; actuellement <a href=\"ecoute/chat-ferme.html\">fermé</a></li>\n\t\t\t\t\t<li><span class=\"icon icon-phone\"></span><span class=\"sr-only\">Nous appeller :</span><a href=\"tel:+33156538136\" title=\"Si votre appareil le permet, appeler le n° de Maladies rares Info Services\">01 56 53 81 36</a></li>\n\t\t\t\t</ul>\n\t\t\t</div>\n\t\t\t<div class=\"col-md-3 text-right hidden-xs\">\n\t\t\t<form class=\"search-form\" action=\"resultat-recherche.html\" method=\"get\">\n<fieldset>\n    <label for=\"search\" class=\"sr-only\">sisea.search</label>\n\t<input type=\"text\" name=\"search\" id=\"search\" class=\"search\" placeholder=\"Rechercher\">\n\t<input type=\"hidden\" name=\"id\" value=\"19\" /> \n<button class=\"btn none\" type=\"submit\"><span class=\"sprite icon-loupe\"></span></button>\n</fieldset>\n</form>\n\t\t\t</div>\n\t\t</div>\n\t</div><!-- Fin container -->\n</div><!-- Fin top-header -->\n\t<div class=\"container\" id=\"content\">\n\t\t<!-- Col gauche-->\n\t\t<div class=\"col-md-4\">\n\t\t\t<div id=\"logo\">\n    <a href=\"index.html\" title=\"Aller à la page d'accueil du site\">\n\t<img class=\"img-responsive\" src=\"/assets/img/logo.svg\" alt=\"Logo Maladies Rares Info Services\">\n\t<h1 class=\"sr-only\">Maladies Rares Info Services</h1>\n</a>\n</div>\n\t\t\t<!-- YouTube Player -->\n<div class=\"vid-container\">\n\t<iframe id=\"vid_frame\" src=\"https://www.youtube.com/embed/0_4CKE8cC1M\" allowfullscreen>\n\t</iframe>\n</div>\n<!-- /YouTube Player -->\n<!-- YouTube Playlist -->\n<div class=\"vid-list-container\">\n\t<div class=\"row\">\n\t\t<div class=\"col-xs-4 img-responsive\" data-toggle=\"tooltip\" data-placement=\"bottom\" title=\"Être écouté, poser ses questions\" onClick=\"document.getElementById('vid_frame').src='https://www.youtube.com/embed/0_4CKE8cC1M?autoplay=1&amp;rel=0&amp;showinfo=0&amp;autohide=1'\">\n\t\t\t<a href=\"#\" title=\"visionner la vidéo\"><div class=\"thumb\"><img src=\"/assets/images/imagette-video1.jpg\" alt=\"text\"></div></a>\n\t\t</div>\n\t\t<div class=\"col-xs-4 img-responsive\" data-toggle=\"tooltip\" data-placement=\"bottom\" title=\"Témoigner, échanger\" onClick=\"document.getElementById('vid_frame').src='https://www.youtube.com/embed/yz3lXGjg17Y?autoplay=1&amp;rel=0&amp;showinfo=0&amp;autohide=1'\">\n\t\t\t<a href=\"#\" title=\"visionner la vidéo\"><div class=\"thumb\"><img src=\"/assets/images/imagette-video2.jpg\" alt=\"text\"></div></a>\n\t\t</div>\n\t\t<div class=\"col-xs-4 img-responsive\" data-toggle=\"tooltip\" data-placement=\"bottom\" title=\"Agir ensemble\" onClick=\"document.getElementById('vid_frame').src='https://www.youtube.com/embed/yPORHj1JzsA?autoplay=1&amp;rel=0&amp;showinfo=0&amp;autohide=1'\">\n\t\t\t<a href=\"#\" title=\"visionner la vidéo\"><div class=\"thumb\"><img src=\"/assets/images/imagette-video3.jpg\" alt=\"text\"></div></a>\n\t\t</div>\t\t\t\t\n\t</div>\n</div>\n<!-- YouTube Playlist -->\n\t\t\t<!--$homeActu [disabled]-->\n\t\t\t<div class=\"box-rounded actu\">\n    <h2>Infographie animée sur le parcours de santé et de vie</h2>\n    <a href=\"http://parcourssantevie.maladiesraresinfo.org/\" target=\"_blank\"><img class=\"img-responsive\" src=\"/assets/images/infographie-cap-pour-chacun.png\" alt=\"\"></a>\n    <p style=\"margin-top:10px;\">Les internautes de vos supports web sont concernés par une maladie rare ou susceptibles de l’être ? Proposez ce visuel et un lien actif vers l’Infographie !</p>\n</div>\n\t\t\t\n\t\t</div>\n\t\t<!-- Fin col gauche-->\n\t\t<div class=\"col-md-8\">\n\t\t\t<div class=\"box-rounded temoignage\">\n\t<h2>Le témoignage du Forum</h2>\n\t<span class=\"icon icon-quote\"></span><blockquote>Syndrome de l'effet miroir \"....Bonjour à tous, mon conjoint a su mettre des mots sur ce qui l'empêchait de faire des activités comme tous le monde grâce à votre forum et à la psychomotricienne de notre enfant (il avait des difficultés dans son langage et ses gestes sont mal assurés). Les difficultés de notre enfant sont beaucoup moins flagrantes que mon conjoint qui les avaient toujours cachées...\n \" mamanbouchon</blockquote> <div class=\"clearfix\"><a class=\"pull-right btn btn-success btn-xs\" href=\"https://forums.maladiesraresinfo.org/syndrome-effet-miroir-t72-110.html\" role=\"button\">Lire la suite</a></div>\n</div>\n\t\t\t<div class=\"row main-boxes\" id=\"contenu\">\n\t<div class=\"col-md-6\">\n\t\t<div class=\"box-rounded ecoute equal\">\n\t\t\t<span class=\"icon icon-ecoute\"></span>\n\t\t\t<h2>Être écouté, poser ses questions à l’équipe de professionnels</h2>\n\t\t\t<p>Pour être soutenu, orienté et informé auprès de spécialistes.</p>\n\t\t\t\n\t\t\t<ul>\n\t\t\t\t<li><a class=\"btn btn-default btn-sm\" href=\"ecoute/par-telephone.html\" role=\"button\">Par téléphone</a></li>\n\t\t\t\t<li><a class=\"btn btn-default btn-sm\" href=\"ecoute/par-e-mail.html\" role=\"button\">Par email</a></li>\n\t\t\t\t<li><a class=\"btn btn-default btn-sm\" href=\"ecoute/par-chat.html\" role=\"button\">Par c&#x68;&#x40;&#x74;</a></li>\n\n\t\t\t</ul>\n\t\t</div>\n\t</div>\n\t<div class=\"col-md-6\">\n\t\t<div class=\"box-rounded forum equal\">\n\t\t\t<span class=\"icon icon-forum\"></span>\n\t\t\t<h2>Témoigner, échanger avec d’autres personnes concernées</h2>\n\t\t\t<p>Pour partager son expérience et l’information, avoir des contacts, se soutenir ensemble.</p>\n\t\t\t<ul>\n\t\t\t\t<li><a class=\"btn btn-default btn-sm\" href=\"http://forums.maladiesraresinfo.org/\" role=\"button\">Forum maladies rares</a></li>\n\t\t\t</ul>\n\t\t</div>\n\t</div>\n\t\t<div class=\"col-md-12\">\n\t\t<div class=\"box-rounded svpei\">\n\t\t\t<a href=\"effets-indesirables-info-services.html\">\n\t\t\t\t<span class=\"icon icon-drugs\"></span>\n\t\t\t\t<h2>Déclarer les effets indésirables d’un médicament</h2>\n\t\t\t\t<p>Effets Indésirables Info Services est là pour vous accompagner dans cete démarche.</p>\n\t\t\t</a>\n\t\t</div>\n\t</div>\n\t<div class=\"col-md-6\">\n\t\t<div class=\"box-rounded formation equal\">\n\t\t\t<span class=\"icon icon-formation\"></span>\n\t\t\t<h2>Se former sur les maladies rares</h2>\n\t\t\t<p>Pour les professionnels : découvrez nos modules, adaptés en fonction de vos besoins.</p>\n\t\t\t<ul>\n\t\t\t\t<li><a class=\"btn btn-default btn-sm\" href=\"formation-informations-maladies-rares/se-former-sur-les-maladies-rares.html\" role=\"button\">Modules de formation</a></li>\n\t\t\t</ul>\n\t\t</div>\n\t</div>\n\t<div class=\"col-md-6\">\n\t\t<div class=\"box-rounded info_maladies_rares equal\">\n\t\t\t<span class=\"icon icon-info-maladies-rares\"></span>\n\t\t\t<h2>S’informer sur les maladies rares</h2>\n\t\t\t<ul>\n\t\t\t\t<li><a class=\"btn btn-default btn-sm\" href=\"formation-informations-maladies-rares/plus-d-infos-sur-les-maladies-rares/\" role=\"button\">Plus d'infos sur les maladies rares</a></li>\n\t\t\t\t<li><a class=\"btn btn-default btn-sm\" href=\"formation-informations-maladies-rares/observatoire-des-maladies-rares.html\" role=\"button\">L’Observatoire des maladies rares</a></li>\n\t\t\t\t<li><a class=\"btn btn-default btn-sm\" href=\"formation-informations-maladies-rares/plans-nationaux-maladies-rares.html\" role=\"button\">Les plans nationaux maladies rares</a></li>\n\t\t\t</ul>\n\t\t</div>\n\t</div>\n</div>\n\n\t\t</div>\n\t</div>\n\t<!-- Fin content -->\n\t\t<div id=\"prefooter\" class=\"p-sm\" role=\"contentinfo\">\n\t<div class=\"container\">\n\t\t<div class=\"col-md-4\">\n\t\t\t<h4>Maladies Rares Info Services est soutenu par</h4>\n\t\t\t<ul class=\"list-inline\">\n\t\t\t\t<li><a href=\"http://www.afm-telethon.fr\"><span class=\"logo-afm-telethon\"></span><p class=\"sr-only\">AFM Téléthon</p></a></li>\n\t\t\t\t<li><a href=\"http://www.sante.gouv.fr\"><span class=\"logo-ministere-sante\"></span><p class=\"sr-only\">Ministère des Affaires sociales, de la Santé et des Droits des femmes</p></a></li>\n\t\t\t</ul>\n\t\t</div>\n\t\t<div class=\"col-md-4 col2\">\n\t\t\t<h4>Site réalisé grace au soutien de</h4>\n\t\t\t<a href=\"http://www.fondation-groupama.com\"><span class=\"logo-fondation-groupama\"></span><p class=\"sr-only\">Fondation Groupama</a></p>\n\t\t</div>\n\t\t<div class=\"col-md-4 col3\">\n\t\t\t<h4>Label qualité</h4>\n\t\t\t<a href=\"http://certificats-attestations.afnor.org/certification=347071247229\" title=\"Voir la certification ISO 9001 de Maladies Rares Info Services sur le site de l'Afnor\"><span class=\"logo-iso9001\"></span></a><p class=\"sr-only\">Certification ISO 9001</p>\n\t\t\t<div class=\"mention-iso\"><p>Depuis 2009, 1er service d’information en santé certifié qualité</p></div>\n\t\t</div>\n\t\t<div class=\"clearfix\"></div>\n\t\t\n\t\t<p class=\"text-center\">Dernière mise à jour : 21/05/2019 | Ce site ne contient et n'accepte aucune publicité</p>\n\t</div>\n</div>\n\t<!-- Fin Prefooter -->\n\t  \t<footer class=\"p-sm\">\n    <div class=\"container\">\n        <div class=\"col-md-3\">\n            <h4>En savoir plus sur Maladies Rares Info Services</h4>\n            <ul class=\"list-unstyled\">\n                <li><a href=\"mris/en-savoir-plus-sur-maladies-rares-info-services/historique.html\">Historique</a></li>\n<li><a href=\"mris/en-savoir-plus-sur-maladies-rares-info-services/fonctionnement.html\">Fonctionnement</a></li>\n<li><a href=\"mris/en-savoir-plus-sur-maladies-rares-info-services/rapport-activite.html\">Rapport d’activité</a></li>\n<li><a href=\"mris/en-savoir-plus-sur-maladies-rares-info-services/plateforme-maladies-rares.html\">Plateforme Maladies Rares</a></li>\n<li><a href=\"mris/en-savoir-plus-sur-maladies-rares-info-services/partenaires.html\">Partenaires</a></li>\n            </ul>\n        </div>\n        <div class=\"col-md-3\">\n            <h4>Forum maladies rares</h4>\n            <p><a href=\"#\" data-toggle=\"modal\" data-target=\"#liste_maladies\">Liste des maladies</a></p>\n            <h4 class=\"mt-md\">Nous contacter</h4>\n            <ul class=\"list-unstyled\">\n                <li><a href=\"ecoute/par-telephone.html\">Par téléphone</a></li>\n                <li><a href=\"ecoute/par-e-mail.html\">Par email</a></li>\n                <li><a href=\"ecoute/par-chat.html\">Par &#99;&#x68;&#x40;t</a></li>\n            </ul>\n        </div>\n        <div class=\"col-md-6\">\n            <h4>Parcours d'infos, la newsletter de Maladies Rares Info Services</h4>\n            <div class=\"row col-md-6\">\n                <!-- Begin MailChimp Signup Form -->\n<form action=\"//maladiesraresinfo.us13.list-manage.com/subscribe/post?u=641e3150d051424437008789a&amp;id=19646e3460\" method=\"post\" id=\"mc-embedded-subscribe-form\" name=\"mc-embedded-subscribe-form\" class=\"validate\" target=\"_blank\" novalidate>\n\t\t<h4>Recevoir la newsletter</h4>\n\t\t<div class=\"input-group\">\n\t\t\t<input  class=\"form-control\" placeholder=\"Adresse email\" type=\"email\" value=\"\" name=\"EMAIL\" class=\"required email\" id=\"mce-EMAIL\">\n\t\t\t<span class=\"input-group-btn\">\n\t\t\t\t<button class=\"btn btn-default\"  value=\"Subscribe\" name=\"subscribe\" id=\"mc-embedded-subscribe\">OK</button>\n\t\t\t</span>\n\t\t</div>\n\t</form>\n<!--End mc_embed_signup-->\n            </div>\n            <div class=\"col-md-6 text-center\">\n                <a href=\"parcours-d-infos/\">\n                    <p>Voir les anciennes éditions</p>\n                    <img style=\"max-width: 100px\" src=\"/assets/images/parcours-dinfo.png\" alt=\"Newsletter Parcours d'infos\"></a>\n            </div>\n        </div>\n    </div>\n</footer>\n\t<!-- Modal -->\n\t<div class=\"modal fade\" id=\"liste_maladies\" tabindex=\"-1\" aria-labelledby=\"liste_maladies_forum\">\n\t<div class=\"modal-dialog\" role=\"document\">\n\t\t<div class=\"modal-content\">\n\t\t\t<div class=\"modal-header\">\n\t\t\t\t<button type=\"button\" class=\"close\" data-dismiss=\"modal\" aria-label=\"Close\"><span aria-hidden=\"true\">&times;</span></button>\n\t\t\t\t<h4 class=\"modal-title\" id=\"liste_maladies_forum\">Liste des maladies actuellement en ligne sur le Forum maladies rares</h4>\n\t\t\t</div>\n\t\t\t<div class=\"modal-body\">\n\t\t\t\t<p>Pour toute demande de création d’un nouveau forum, <a href=\"&#109;&#97;&#x69;&#x6c;&#116;&#x6f;&#58;&#105;&#110;&#102;&#111;&#x2d;&#115;&#101;&#114;&#x76;i&#x63;&#101;&#115;&#64;&#109;&#97;&#x6c;&#x61;&#100;&#105;es&#x72;&#97;&#x72;&#x65;&#x73;&#46;&#111;&#x72;&#103;&#x3f;s&#x75;&#98;j&#x65;&#x63;&#116;&#x3d;&#x4e;&#111;&#x75;v&#x65;&#97;&#117; forum\">nous contacter</a>.</p>\n\t\t\t\t<div>\n\t\t\t\t\t<button class=\"sort btn btn-default btn-sm\" data-sort=\"name\">Trier par nom de maladie</button>\n\t\t\t\t\t<form class=\"mb-sm\">\n\t\t\t\t\t\t<label for=\"filtre\">Filtrer par nom de maladies</label><input class=\"search form-control\" name=\"filtre\" id=\"filtre\" type=\"text\" placeholder=\"Rechercher\">\n\t\t\t\t\t</form>\n<ul class=\"list\">\n<li>\n<p class=\"name\"><a href=\"http://forums.maladiesraresinfo.org/achalasie-oesophagienne-f75.html\">Achalasie œsophagienne </a></p>\n</li>\n<li>\n<p class=\"name\"><a href=\"http://forums.maladiesraresinfo.org/acidemie-isovalerique-f128.html\">Acidémie isovalérique </a></p>\n</li>\n<li>\n<p class=\"name\"><a href=\"http://forums.maladiesraresinfo.org/achalasie-oesophagienne-f75.html\">Acidémie méthylmalonique </a></p>\n</li>\n<li>\n<p class=\"name\"><a href=\"https://forums.maladiesraresinfo.org/acidose-tubulaire-renale-distale-f465.html\">Acidose tubulaire rénale distale </a></p>\n</li>\n<li>\n<p class=\"name\"><a href=\"http://forums.maladiesraresinfo.org/acidurie-hydroxyglutarique-f347.html\">Acidurie 2-hydroxyglutarique <span class=\"text-hide\">acidurie L-2-hydroxyglutarique; l'acidurie D-2-hydroxyglutarique </span></a></p>\n</li>\n<li>\n<p class=\"name\"><a href=\"http://forums.maladiesraresinfo.org/acromegalie-f11.html\">Acromégalie </a></p>\n</li>\n<li>\n<p class=\"name\"><a href=\"http://forums.maladiesraresinfo.org/agenesie-corps-calleux-f90.html\">Agénésie du corps calleux </a></p>\n</li>\n<li>\n<p class=\"name\"><a href=\"http://forums.maladiesraresinfo.org/amelogenese-imparfaite-f237.html\">Amélogenèse imparfaite </a></p>\n</li>\n<li>\n<p class=\"name\"><a href=\"https://forums.maladiesraresinfo.org/anemies-sideroblastiques-congenitales-f498.html\">Anémies sidéroblastiques congénitales <span class=\"text-hide\">Anémies sidéroblastiques constitutionnelles</span></a></p>\n</li>\n<li>\n<p class=\"name\"><a href=\"http://forums.maladiesraresinfo.org/angio-oedeme-f317.html\">Angio-œdème <span class=\"text-hide\">Angiodème non histaminique</span></a></p>\n</li>\n<li>\n<p class=\"name\"><a href=\"http://forums.maladiesraresinfo.org/anomalie-dans-gene-stxbp1-f374.html\">Anomalie dans le gène STXBP1 </a></p>\n</li>\n<li>\n<p class=\"name\"><a href=\"http://forums.maladiesraresinfo.org/anomalies-chromosomiques-rares-f44.html\">Anomalies chromosomiques </a></p>\n</li>\n<li>\n<p class=\"name\"><a href=\"http://forums.maladiesraresinfo.org/anomalies-chromosomiques-rares-f44.html\">Anomalies chromosomiques rares </a></p>\n</li>\n<li>\n<p class=\"name\"><a href=\"http://forums.maladiesraresinfo.org/anomalies-dans-gene-chd4-syndrome-sifrim-hitz-weiss-f428.html\">Anomalies dans CHD4 <span class=\"text-hide\">Syndrome de Sifrim-Hitz-Weiss</span></a></p>\n</li>\n<li>\n<p class=\"name\"><a href=\"\">Anomalies dans CNOT3 <span class=\"text-hide\">http://forums.maladiesraresinfo.org/anomalies-dans-gene-cnot3-f457.html</span></a></p>\n</li>\n<li>\n<p class=\"name\"><a href=\"http://forums.maladiesraresinfo.org/anomalies-dans-gene-col4a1-f430.html\">Anomalies dans COL4A1 </a></p>\n</li>\n<li>\n<p class=\"name\"><a href=\"http://forums.maladiesraresinfo.org/anomalies-dans-gene-ppp2r5d-f310.html\">Anomalies dans gène PPP2R5D </a></p>\n</li>\n<li>\n<p class=\"name\"><a href=\"https://forums.maladiesraresinfo.org/anomalies-dans-gene-aco2-f497.html \">Anomalies dans le gène ACO2 <span class=\"text-hide\">Dégénérescnce cérébello-rétinienne infantile</span></a></p>\n</li>\n<li>\n<p class=\"name\"><a href=\"http://forums.maladiesraresinfo.org/anomalies-dans-gene-adnp-syndrome-helsmoortel-van-der-f444.html\">Anomalies dans le gène ADNP <span class=\"text-hide\">Syndrome de Helsmoortel-Van der AA</span></a></p>\n</li>\n<li>\n<p class=\"name\"><a href=\"http://forums.maladiesraresinfo.org/anomalies-dans-gene-bcap31-f356.html\">Anomalies dans le gène BCAP31 </a></p>\n</li>\n<li>\n<p class=\"name\"><a href=\"http://forums.maladiesraresinfo.org/anomalies-dans-gene-chd3-f366.html\">Anomalies dans le gène CHD3 </a></p>\n</li>\n<li>\n<p class=\"name\"><a href=\"https://forums.maladiesraresinfo.org/anomalies-dans-gene-csnk2b-f476.html\">Anomalies dans le gène CSNK2B </a></p>\n</li>\n<li>\n<p class=\"name\"><a href=\"http://forums.maladiesraresinfo.org/anomalies-dans-gene-ddx3x-f308.html\">Anomalies dans le gène DDX3X </a></p>\n</li>\n<li>\n<p class=\"name\"><a href=\"https://forums.maladiesraresinfo.org/anomalies-dans-gene-fgf12-f481.html\">Anomalies dans le gène FGF14 </a></p>\n</li>\n<li>\n<p class=\"name\"><a href=\"http://forums.maladiesraresinfo.org/anomalies-dans-gene-foxp1-f426.html\">Anomalies dans le gène FOXP1 </a></p>\n</li>\n<li>\n<p class=\"name\"><a href=\"https://forums.maladiesraresinfo.org/anomalies-dans-gene-gatad2b-f463.html\">Anomalies dans le gène GATAD2B </a></p>\n</li>\n<li>\n<p class=\"name\"><a href=\"http://forums.maladiesraresinfo.org/anomalies-dans-gene-grin1-f380.html\">Anomalies dans le gène GRIN1 </a></p>\n</li>\n<li>\n<p class=\"name\"><a href=\"http://forums.maladiesraresinfo.org/anomalies-dans-gene-grin2b-f357.html\">Anomalies dans le gène GRIN2B </a></p>\n</li>\n<li>\n<p class=\"name\"><a href=\"http://forums.maladiesraresinfo.org/anomalies-dans-gene-hnrnph2-f447.html\">Anomalies dans le gène HNRNPH2 </a></p>\n</li>\n<li>\n<p class=\"name\"><a href=\"http://forums.maladiesraresinfo.org/annomalies-dans-gene-iqsec2-f387.html\">Anomalies dans le gène IQSEC2 </a></p>\n</li>\n<li>\n<p class=\"name\"><a href=\"http://forums.maladiesraresinfo.org/anomalies-dans-gene-kat6b-syndrome-ohdo-variant-sbbys-f441.html\">Anomalies dans le gène KAT6B <span class=\"text-hide\">Syndrome d'Ohdo variant SBBYS</span></a></p>\n</li>\n<li>\n<p class=\"name\"><a href=\"http://forums.maladiesraresinfo.org/anomalies-dans-gene-kcnb1-f364.html\">Anomalies dans le gène KCNB1 </a></p>\n</li>\n<li>\n<p class=\"name\"><a href=\"http://forums.maladiesraresinfo.org/anomalies-dans-gene-kcnq2-f434.html\">Anomalies dans le gène KCNQ2 </a></p>\n</li>\n<li>\n<p class=\"name\"><a href=\"https://forums.maladiesraresinfo.org/anomalies-dans-gene-kiaa2022-f494.html\">Anomalies dans le gène KIAA2022 </a></p>\n</li>\n<li>\n<p class=\"name\"><a href=\"http://forums.maladiesraresinfo.org/anomalies-dans-gene-kif1a-f417.html\">Anomalies dans le gène KIF1A </a></p>\n</li>\n<li>\n<p class=\"name\"><a href=\"https://forums.maladiesraresinfo.org/anomalies-dans-gene-kif5c-f505.html\">Anomalies dans le gène KIF5C </a></p>\n</li>\n<li>\n<p class=\"name\"><a href=\"http://forums.maladiesraresinfo.org/anomalies-dans-gene-med13l-f365.html\">Anomalies dans le gène MED13L </a></p>\n</li>\n<li>\n<p class=\"name\"><a href=\"http://forums.maladiesraresinfo.org/anomalies-dans-gene-mef2c-f314.html\">Anomalies dans le gène MEF2C </a></p>\n</li>\n<li>\n<p class=\"name\"><a href=\"http://forums.maladiesraresinfo.org/anomalies-dans-gene-myt1l-f445.html\">Anomalies dans le gène MYT1L </a></p>\n</li>\n<li>\n<p class=\"name\"><a href=\"https://forums.maladiesraresinfo.org/anomalies-dans-gene-ogt-f468.html\">Anomalies dans le gène OGT </a></p>\n</li>\n<li>\n<p class=\"name\"><a href=\"http://forums.maladiesraresinfo.org/anomalies-dans-gene-pacs1-syndrome-schuurs-hoeijmakers-f423.html\">Anomalies dans le gène PACS1 <span class=\"text-hide\">Syndrome de Schuurs-Hoeijmakers</span></a></p>\n</li>\n<li>\n<p class=\"name\"><a href=\"http://forums.maladiesraresinfo.org/anomalies-dans-gene-pacs2-f440.html\">Anomalies dans le gène PACS2 </a></p>\n</li>\n<li>\n<p class=\"name\"><a href=\"https://forums.maladiesraresinfo.org/anomalies-dans-gene-phip-f490.html\">Anomalies dans le gène PHIP </a></p>\n</li>\n<li>\n<p class=\"name\"><a href=\"http://forums.maladiesraresinfo.org/anomalies-dans-gene-pogz-syndrome-white-sutton-f442.html\">Anomalies dans le gène POGZ <span class=\"text-hide\">Syndrome de White-Sutton</span></a></p>\n</li>\n<li>\n<p class=\"name\"><a href=\"http://forums.maladiesraresinfo.org/anomalies-dans-gene-ppm1d-f438.html\">Anomalies dans le gène PPM1D </a></p>\n</li>\n<li>\n<p class=\"name\"><a href=\"http://forums.maladiesraresinfo.org/anomalies-dans-gene-satb2-f419.html\">Anomalies dans le gène SATB2 </a></p>\n</li>\n<li>\n<p class=\"name\"><a href=\"https://forums.maladiesraresinfo.org/anomalies-dans-gene-scn2a-f503.html\">Anomalies dans le gène SCN2A </a></p>\n</li>\n<li>\n<p class=\"name\"><a href=\"http://forums.maladiesraresinfo.org/anomalies-dans-gene-setbp1-f458.html\">Anomalies dans le gène SETBP1 </a></p>\n</li>\n<li>\n<p class=\"name\"><a href=\"http://forums.maladiesraresinfo.org/anomalies-dans-gene-smarca2-f382.html\">Anomalies dans le gène SMARCA2 </a></p>\n</li>\n<li>\n<p class=\"name\"><a href=\"https://forums.maladiesraresinfo.org/anomalies-dans-gene-tbr1-f462.html\r\n\">Anomalies dans le gène TBR1 </a></p>\n</li>\n<li>\n<p class=\"name\"><a href=\"http://forums.maladiesraresinfo.org/anomalies-dans-gene-tcf20-f437.html\">Anomalies dans le gène TCF20 </a></p>\n</li>\n<li>\n<p class=\"name\"><a href=\"http://forums.maladiesraresinfo.org/anomalies-dans-gene-tfe3-f427.html\">Anomalies dans le gène TFE3 </a></p>\n</li>\n<li>\n<p class=\"name\"><a href=\"https://forums.maladiesraresinfo.org/anomalies-dans-gene-unc45a-f478.html\">Anomalies dans le gène UNC45A </a></p>\n</li>\n<li>\n<p class=\"name\"><a href=\"http://forums.maladiesraresinfo.org/anomalies-dans-gene-usp7-f348.html\">Anomalies dans le gène USP7 </a></p>\n</li>\n<li>\n<p class=\"name\"><a href=\"http://forums.maladiesraresinfo.org/anomalies-dans-gene-wwox-f461.html\">Anomalies dans le gène WWOS </a></p>\n</li>\n<li>\n<p class=\"name\"><a href=\"http://forums.maladiesraresinfo.org/aplasie-michel-f370.html\">Aplasie de Michel </a></p>\n</li>\n<li>\n<p class=\"name\"><a href=\"http://forums.maladiesraresinfo.org/aplasie-medullaire-idiopathique-f40.html\">Aplasie médullaire idiopathique </a></p>\n</li>\n<li>\n<p class=\"name\"><a href=\"http://forums.maladiesraresinfo.org/atrophie-multisystematisee-f80.html\">Atrophie multisystématisée </a></p>\n</li>\n<li>\n<p class=\"name\"><a href=\"http://forums.maladiesraresinfo.org/bronchiolite-obstructive-f114.html\">Bronchiolite obstructive </a></p>\n</li>\n<li>\n<p class=\"name\"><a href=\"http://forums.maladiesraresinfo.org/cadasil-f337.html\">CADASIL <span class=\"text-hide\">artériopathie cérébrale autosomique dominante avec infarctus sous-corticaux et leucoencéphalopathie</span></a></p>\n</li>\n<li>\n<p class=\"name\"><a href=\"https://forums.maladiesraresinfo.org/calcifications-cerebrales-primaires-familiales-f493.html\">Calcifications cérébrales primaires familiales </a></p>\n</li>\n<li>\n<p class=\"name\"><a href=\"http://forums.maladiesraresinfo.org/cardiomyopathie-hypertrophique-f325.html\">Cardiomyopathie hypertrophique </a></p>\n</li>\n<li>\n<p class=\"name\"><a href=\"http://forums.maladiesraresinfo.org/cavernome-cerebral-f13.html\">Cavernome cérébral </a></p>\n</li>\n<li>\n<p class=\"name\"><a href=\"http://forums.maladiesraresinfo.org/cephalee-hypnique-f216.html\">Céphalée hypnique </a></p>\n</li>\n<li>\n<p class=\"name\"><a href=\"http://forums.maladiesraresinfo.org/cholangite-sclerosante-primitive-f194.html\">Cholangite sclérosante primitive </a></p>\n</li>\n<li>\n<p class=\"name\"><a href=\"http://forums.maladiesraresinfo.org/chondrosarcome-f336.html\">Chondrosarcome </a></p>\n</li>\n<li>\n<p class=\"name\"><a href=\"https://forums.maladiesraresinfo.org/chorioretinite-type-birdshot-f475.html\">Choriorétinite type Birdshot </a></p>\n</li>\n<li>\n<p class=\"name\"><a href=\"http://forums.maladiesraresinfo.org/choroidite-multifocale-f66.html\">Choroïdite multifocale </a></p>\n</li>\n<li>\n<p class=\"name\"><a href=\"http://forums.maladiesraresinfo.org/cirrhose-biliaire-primitive-f341.html\">Cirrhose biliaire primitive </a></p>\n</li>\n<li>\n<p class=\"name\"><a href=\"http://forums.maladiesraresinfo.org/colobome-oculaire-f116.html\">Colobome oculaire </a></p>\n</li>\n<li>\n<p class=\"name\"><a href=\"http://forums.maladiesraresinfo.org/cutis-marmorata-telengiectatica-marmorata-f331.html\">Cutis marmorata telengiectatica marmorata </a></p>\n</li>\n<li>\n<p class=\"name\"><a href=\"http://forums.maladiesraresinfo.org/deficit-acyl-coa-deshydrogenase-des-acides-gras-chaine-courte-f449.html\">Déficit en acyl-CoA déshydrogénase des acides gras à chaîne courte </a></p>\n</li>\n<li>\n<p class=\"name\"><a href=\"http://forums.maladiesraresinfo.org/deficit-mevalonate-kinase-f180.html\">Déficit en Mévalonate Kinase </a></p>\n</li>\n<li>\n<p class=\"name\"><a href=\"http://forums.maladiesraresinfo.org/deficit-oct-f241.html\">Déficit en OCT <span class=\"text-hide\">Déficit en ornithine transcarbamylase</span></a></p>\n</li>\n<li>\n<p class=\"name\"><a href=\"http://forums.maladiesraresinfo.org/deficit-pyruvate-kinase-dans-les-globules-rouges-f451.html\">Déficit en pyruvate kinase des globules rouges </a></p>\n</li>\n<li>\n<p class=\"name\"><a href=\"http://forums.maladiesraresinfo.org/deficit-saccharase-isomaltase-f176.html\">Déficit en saccharase-isomaltase </a></p>\n</li>\n<li>\n<p class=\"name\"><a href=\"http://forums.maladiesraresinfo.org/deficit-tyrosine-hydroxylase-f125.html\">Déficit en tyrosine hydroxylase </a></p>\n</li>\n<li>\n<p class=\"name\"><a href=\"https://forums.maladiesraresinfo.org/deficit-multiple-sulfatases-f473.html\">Déficit multiple en sulfatases </a></p>\n</li>\n<li>\n<p class=\"name\"><a href=\"http://forums.maladiesraresinfo.org/degenerescence-cortico-basale-f359.html\">Dégénérescence cortico-basale </a></p>\n</li>\n<li>\n<p class=\"name\"><a href=\"https://forums.maladiesraresinfo.org/dehiscence-canal-semi-circulaire-superieur-t3380.html\">Déhiscence du canal semi circulaire supérieur <span class=\"text-hide\">Syndrome de Minor</span></a></p>\n</li>\n<li>\n<p class=\"name\"><a href=\"http://forums.maladiesraresinfo.org/deletion-2q14-q22-f429.html\">Délétion 2q14.3-q22 </a></p>\n</li>\n<li>\n<p class=\"name\"><a href=\"http://forums.maladiesraresinfo.org/demence-fronto-temporale-f15.html\">Démence fronto temporale </a></p>\n</li>\n<li>\n<p class=\"name\"><a href=\"http://forums.maladiesraresinfo.org/dermatose-bulleuse-iga-lineaire-f70.html\">Dermatose bulleuse à IgA linéaire </a></p>\n</li>\n<li>\n<p class=\"name\"><a href=\"http://forums.maladiesraresinfo.org/drepanocytose-f16.html\">Drépanocytose </a></p>\n</li>\n<li>\n<p class=\"name\"><a href=\"https://forums.maladiesraresinfo.org/duplication-xq24-q25-f466.html\">Duplication Xq24-q25 </a></p>\n</li>\n<li>\n<p class=\"name\"><a href=\"https://forums.maladiesraresinfo.org/dysostose-mandibulo-faciale-microcephalie-mfdm-f501.html\">Dysostose mandibulo faciale - microcéphalie <span class=\"text-hide\">MFDM;Guion-Almeida</span></a></p>\n</li>\n<li>\n<p class=\"name\"><a href=\"http://forums.maladiesraresinfo.org/dysplasie-fibromusculaire-arterielle-f240.html\">Dysplasie fibromusculaire artérielle </a></p>\n</li>\n<li>\n<p class=\"name\"><a href=\"http://forums.maladiesraresinfo.org/dysplasie-septo-optique-f242.html\">Dysplasie septo-optique </a></p>\n</li>\n<li>\n<p class=\"name\"><a href=\"http://forums.maladiesraresinfo.org/dysplasie-spondyloepiphysaire-congenitale-f350.html\">Dysplasie spondyloépiphysaire congenitale <span class=\"text-hide\">Maladie de Spranger-Wiedemann</span></a></p>\n</li>\n<li>\n<p class=\"name\"><a href=\"http://forums.maladiesraresinfo.org/dysplasie-spondyloepiphysaire-tardive-f256.html\">Dysplasie spondyloépiphysaire tardive </a></p>\n</li>\n<li>\n<p class=\"name\"><a href=\"http://forums.maladiesraresinfo.org/dystonie-f17.html\">Dystonie </a></p>\n</li>\n<li>\n<p class=\"name\"><a href=\"http://forums.maladiesraresinfo.org/dystrophie-musculaire-oculo-pharyngee-f204.html\">Dystrophie musculaire oculo-pharyngée </a></p>\n</li>\n<li>\n<p class=\"name\"><a href=\"http://forums.maladiesraresinfo.org/dystrophie-myotonique-steinert-f246.html\">Dystrophie myotonique de Steinert <span class=\"text-hide\">Maladie de Steinert</span></a></p>\n</li>\n<li>\n<p class=\"name\"><a href=\"http://forums.maladiesraresinfo.org/embryopathie-valproate-f84.html\">Embryopathie au valproate </a></p>\n</li>\n<li>\n<p class=\"name\"><a href=\"http://forums.maladiesraresinfo.org/encephalite-rasmussen-f443.html\">Encephalite de Rasmussen </a></p>\n</li>\n<li>\n<p class=\"name\"><a href=\"http://forums.maladiesraresinfo.org/encephalite-limbique-auto-immune-f435.html \">Encéphalite limbique auto-immune </a></p>\n</li>\n<li>\n<p class=\"name\"><a href=\"http://forums.maladiesraresinfo.org/enchondromatose-ollier-f452.html\">Enchondromatose d’Ollier </a></p>\n</li>\n<li>\n<p class=\"name\"><a href=\"http://forums.maladiesraresinfo.org/ependymome-f32.html\">Ependymome </a></p>\n</li>\n<li>\n<p class=\"name\"><a href=\"http://forums.maladiesraresinfo.org/epidermolyses-bulleuses-f195.html\">Epidermolyses bulleuses </a></p>\n</li>\n<li>\n<p class=\"name\"><a href=\"http://forums.maladiesraresinfo.org/erythermalgie-f188.html\">Erythermalgie </a></p>\n</li>\n<li>\n<p class=\"name\"><a href=\"http://forums.maladiesraresinfo.org/exces-apparent-mineralocorticoides-f257.html\">Excès apparent de minéralocorticoïdes </a></p>\n</li>\n<li>\n<p class=\"name\"><a href=\"https://forums.maladiesraresinfo.org/fasciite-eosinophiles-f491.html\">Fasciite à éosinophiles <span class=\"text-hide\">Syndrome de Shulman</span></a></p>\n</li>\n<li>\n<p class=\"name\"><a href=\"http://forums.maladiesraresinfo.org/fibrose-hepatique-congenitale-f192.html\">Fibrose hépatique congénitale </a></p>\n</li>\n<li>\n<p class=\"name\"><a href=\"http://forums.maladiesraresinfo.org/fibrose-pulmonaire-idiopathique-f18.html\">Fibrose pulmonaire idiopathique </a></p>\n</li>\n<li>\n<p class=\"name\"><a href=\"http://forums.maladiesraresinfo.org/fievre-periodique-type-marshall-f96.html\">Fièvre périodique type Marshall </a></p>\n</li>\n<li>\n<p class=\"name\"><a href=\"http://forums.maladiesraresinfo.org/gastrite-hypertrophique-menetrier-f349.html\">Gastrite hypertrophique de Ménétrier </a></p>\n</li>\n<li>\n<p class=\"name\"><a href=\"http://forums.maladiesraresinfo.org/gliomatose-f225.html\">Gliomatose </a></p>\n</li>\n<li>\n<p class=\"name\"><a href=\"http://forums.maladiesraresinfo.org/glycogenoses-f388.html\">Glycogénoses </a></p>\n</li>\n<li>\n<p class=\"name\"><a href=\"https://forums.maladiesraresinfo.org/hemangiome-vertebral-f485.html\">Hémangiome vertébral </a></p>\n</li>\n<li>\n<p class=\"name\"><a href=\"https://forums.maladiesraresinfo.org/hemi-hypertrophie-congenitale-isolee-f487.html\">Hemi-hypertrophie congénitale isolée </a></p>\n</li>\n<li>\n<p class=\"name\"><a href=\"http://forums.maladiesraresinfo.org/heteroplasie-osseuse-progressive-f368.html\">Hétéroplasie osseuse progressive </a></p>\n</li>\n<li>\n<p class=\"name\"><a href=\"http://forums.maladiesraresinfo.org/histiocytose-langerhansienne-f53.html\">Histiocytose Langerhansienne </a></p>\n</li>\n<li>\n<p class=\"name\"><a href=\"http://forums.maladiesraresinfo.org/homocystinurie-classique-f127.html\">Homocystinurie classique </a></p>\n</li>\n<li>\n<p class=\"name\"><a href=\"http://forums.maladiesraresinfo.org/hydroa-vacciniforme-f71.html\">Hydroa vacciniforme </a></p>\n</li>\n<li>\n<p class=\"name\"><a href=\"http://forums.maladiesraresinfo.org/hydrops-endolymphatique-f321.html\">Hydrops endolymphatique </a></p>\n</li>\n<li>\n<p class=\"name\"><a href=\"http://forums.maladiesraresinfo.org/hyperglycinemie-non-cetosique-f41.html\">Hyperglycinémie non cétosique </a></p>\n</li>\n<li>\n<p class=\"name\"><a href=\"https://forums.maladiesraresinfo.org/hyperplasie-congenitale-des-surrenales-f484.html\">Hyperplasie congénitale des surrénales </a></p>\n</li>\n<li>\n<p class=\"name\"><a href=\"http://forums.maladiesraresinfo.org/hyperprolinemie-f343.html\">Hyperprolinémie </a></p>\n</li>\n<li>\n<p class=\"name\"><a href=\"http://forums.maladiesraresinfo.org/hypotension-orthostatique-idiopathique-f24.html\">Hypotension orthostatique idiopathique </a></p>\n</li>\n<li>\n<p class=\"name\"><a href=\"http://forums.maladiesraresinfo.org/insuffisance-surrenale-f330.html\">Insuffisance surrénale <span class=\"text-hide\">Maladie d'Addison</span></a></p>\n</li>\n<li>\n<p class=\"name\"><a href=\"http://forums.maladiesraresinfo.org/iridocyclite-heterochromique-fuchs-f454.html\">Iridocyclite hétérochromique de Fuchs </a></p>\n</li>\n<li>\n<p class=\"name\"><a href=\"http://forums.maladiesraresinfo.org/keratoconjonctivite-vernale-f22.html\">Keratoconjonctivite vernale </a></p>\n</li>\n<li>\n<p class=\"name\"><a href=\"http://forums.maladiesraresinfo.org/keratodermies-palmo-plantaires-f222.html\">Kératodermies palmo-plantaires </a></p>\n</li>\n<li>\n<p class=\"name\"><a href=\"http://forums.maladiesraresinfo.org/kid-syndrome-f424.html\">KID syndrome </a></p>\n</li>\n<li>\n<p class=\"name\"><a href=\"http://forums.maladiesraresinfo.org/kystes-tarlov-f72.html\">Kystes de Tarlov </a></p>\n</li>\n<li>\n<p class=\"name\"><a href=\"https://forums.maladiesraresinfo.org/leucinose-f472.html\">Leucinose <span class=\"text-hide\">Maladie du sirop d'érable</span></a></p>\n</li>\n<li>\n<p class=\"name\"><a href=\"http://forums.maladiesraresinfo.org/leucoencephalopathie-hereditaire-diffuse-spheroides-axonaux-f453.html\">Leucoencéphalopathie héréditaire diffuse à sphéroïdes axonaux </a></p>\n</li>\n<li>\n<p class=\"name\"><a href=\"http://forums.maladiesraresinfo.org/lichen-plan-pilaire-f81.html\">Lichen plan pilaire </a></p>\n</li>\n<li>\n<p class=\"name\"><a href=\"http://forums.maladiesraresinfo.org/lipodystrophie-berardinelli-seip-f391.html\">Lipodystrophie de Berardinelli Seip <span class=\"text-hide\">Diabète lipoatrophique</span></a></p>\n</li>\n<li>\n<p class=\"name\"><a href=\"http://forums.maladiesraresinfo.org/lupus-f56.html\">Lupus </a></p>\n</li>\n<li>\n<p class=\"name\"><a href=\"http://forums.maladiesraresinfo.org/lymphangectasie-intestinale-f377.html\">Lymphangectasie intestinale </a></p>\n</li>\n<li>\n<p class=\"name\"><a href=\"http://forums.maladiesraresinfo.org/lymphoedeme-primaire-f23.html\">Lymphoedème primaire </a></p>\n</li>\n<li>\n<p class=\"name\"><a href=\"http://forums.maladiesraresinfo.org/lymphome-non-hodgkinien-f371.html\">Lymphome non hodgkinien </a></p>\n</li>\n<li>\n<p class=\"name\"><a href=\"http://forums.maladiesraresinfo.org/maladie-behcet-f12.html\">Maladie de Behcet </a></p>\n</li>\n<li>\n<p class=\"name\"><a href=\"http://forums.maladiesraresinfo.org/maladie-cacchi-ricci-f165.html\">Maladie de Cacchi Ricci </a></p>\n</li>\n<li>\n<p class=\"name\"><a href=\"http://forums.maladiesraresinfo.org/maladie-carrington-f214.html\">Maladie de Carrington <span class=\"text-hide\">Pneumopathie chronique idiopathique à éosinophiles</span></a></p>\n</li>\n<li>\n<p class=\"name\"><a href=\"http://forums.maladiesraresinfo.org/maladie-castleman-f229.html\">Maladie de Castleman </a></p>\n</li>\n<li>\n<p class=\"name\"><a href=\"http://forums.maladiesraresinfo.org/maladie-charcot-marie-tooth-f200.html\">Maladie de Charcot-Marie-Tooth </a></p>\n</li>\n<li>\n<p class=\"name\"><a href=\"http://forums.maladiesraresinfo.org/maladie-churg-strauss-f14.html\">Maladie de Churg et Strauss </a></p>\n</li>\n<li>\n<p class=\"name\"><a href=\"http://forums.maladiesraresinfo.org/maladie-coats-f220.html\">Maladie de Coats </a></p>\n</li>\n<li>\n<p class=\"name\"><a href=\"http://forums.maladiesraresinfo.org/maladie-kaposi-f311.html\">Maladie de Kaposi </a></p>\n</li>\n<li>\n<p class=\"name\"><a href=\"http://forums.maladiesraresinfo.org/maladie-kennedy-f210.html\">Maladie de Kennedy </a></p>\n</li>\n<li>\n<p class=\"name\"><a href=\"http://forums.maladiesraresinfo.org/maladie-minkowski-chauffard-f346.html\">Maladie de Minkowski Chauffard </a></p>\n</li>\n<li>\n<p class=\"name\"><a href=\"http://forums.maladiesraresinfo.org/maladie-stargardt-f36.html\">Maladie de Stargardt </a></p>\n</li>\n<li>\n<p class=\"name\"><a href=\"http://forums.maladiesraresinfo.org/maladie-still-f177.html\">Maladie de Still </a></p>\n</li>\n<li>\n<p class=\"name\"><a href=\"http://forums.maladiesraresinfo.org/maladie-takayasu-f182.html\">Maladie de Takayasu </a></p>\n</li>\n<li>\n<p class=\"name\"><a href=\"http://forums.maladiesraresinfo.org/maladie-verneuil-f124.html\">Maladie de Verneuil </a></p>\n</li>\n<li>\n<p class=\"name\"><a href=\"http://forums.maladiesraresinfo.org/maladie-whipple-f323.html\">Maladie de Whipple <span class=\"text-hide\">Tropheryma whipplei</span></a></p>\n</li>\n<li>\n<p class=\"name\"><a href=\"http://forums.maladiesraresinfo.org/maladie-willebrand-f327.html\">Maladie de Willebrand </a></p>\n</li>\n<li>\n<p class=\"name\"><a href=\"http://forums.maladiesraresinfo.org/maladie-wilson-f190.html\">Maladie de Wilson </a></p>\n</li>\n<li>\n<p class=\"name\"><a href=\"http://forums.maladiesraresinfo.org/maladie-debarquement-f298.html\">Maladie du débarquement </a></p>\n</li>\n<li>\n<p class=\"name\"><a href=\"http://forums.maladiesraresinfo.org/maladie-gelatineuse-peritoine-f164.html\">Maladie gélatineuse du péritoine </a></p>\n</li>\n<li>\n<p class=\"name\"><a href=\"https://forums.maladiesraresinfo.org/malformation-arterio-veineuse-cerebrale-f480.html\">Malformation artério-veineuse cérébrale </a></p>\n</li>\n<li>\n<p class=\"name\"><a href=\"http://forums.maladiesraresinfo.org/malformation-arnold-chiari-f268.html\">Malformation d'Arnold Chiari </a></p>\n</li>\n<li>\n<p class=\"name\"><a href=\"https://forums.maladiesraresinfo.org/syndrome-melkersson-rosenthal-f470.html\">Melkersson Rosenthal </a></p>\n</li>\n<li>\n<p class=\"name\"><a href=\"http://forums.maladiesraresinfo.org/microdeletion-22q11-f45.html\">Microdélétion 22q11 <span class=\"text-hide\">Syndrome de DiGeorge</span></a></p>\n</li>\n<li>\n<p class=\"name\"><a href=\"https://forums.maladiesraresinfo.org/microdeletion-7q31-f464.html\">Microdélétion 7q31.33 </a></p>\n</li>\n<li>\n<p class=\"name\"><a href=\"http://forums.maladiesraresinfo.org/microduplication-17q12-f431.html\">Microduplication17q12 </a></p>\n</li>\n<li>\n<p class=\"name\"><a href=\"http://forums.maladiesraresinfo.org/microphtalmie-anophtalmie-f94.html\">Microphtalmie Anophtalmie </a></p>\n</li>\n<li>\n<p class=\"name\"><a href=\"http://forums.maladiesraresinfo.org/migraine-hemiplegique-f211.html\">Migraine hémiplégique </a></p>\n</li>\n<li>\n<p class=\"name\"><a href=\"http://forums.maladiesraresinfo.org/maladie-minkowski-chauffard-f346.html\">Minkowski Chauffard <span class=\"text-hide\">sphérocytose héréditaire</span></a></p>\n</li>\n<li>\n<p class=\"name\"><a href=\"http://forums.maladiesraresinfo.org/mouvements-miroir-f39.html\">Mouvements en miroir </a></p>\n</li>\n<li>\n<p class=\"name\"><a href=\"http://forums.maladiesraresinfo.org/myasthenie-f92.html\">Myasthénie </a></p>\n</li>\n<li>\n<p class=\"name\"><a href=\"http://forums.maladiesraresinfo.org/myosites-f203.html\">Myosites </a></p>\n</li>\n<li>\n<p class=\"name\"><a href=\"http://forums.maladiesraresinfo.org/nail-patella-f255.html\">Nail patella </a></p>\n</li>\n<li>\n<p class=\"name\"><a href=\"http://forums.maladiesraresinfo.org/neoplasies-endocriniennes-multiples-nem-f226.html\">Néoplasies endocriniennes multiples - NEM </a></p>\n</li>\n<li>\n<p class=\"name\"><a href=\"http://forums.maladiesraresinfo.org/nephronophtise-f432.html\">Néphronophtise </a></p>\n</li>\n<li>\n<p class=\"name\"><a href=\"http://forums.maladiesraresinfo.org/neurinome-acoustique-f355.html\">Neurinome de l'acoustique </a></p>\n</li>\n<li>\n<p class=\"name\"><a href=\"http://forums.maladiesraresinfo.org/neurofibromatose-nf1-f78.html\">Neurofibromatose NF1 </a></p>\n</li>\n<li>\n<p class=\"name\"><a href=\"http://forums.maladiesraresinfo.org/neuromyelite-optique-maladie-devic-f231.html\">Neuromyélite optique <span class=\"text-hide\">Maladie de DEVIC</span></a></p>\n</li>\n<li>\n<p class=\"name\"><a href=\"http://forums.maladiesraresinfo.org/neuropathie-des-petites-fibres-f318.html\">Neuropathie des petites fibres </a></p>\n</li>\n<li>\n<p class=\"name\"><a href=\"http://forums.maladiesraresinfo.org/neuropathie-tomaculaire-f303.html\">Neuropathie tomaculaire <span class=\"text-hide\">neuropathie avec hypersensibilité à la pression</span></a></p>\n</li>\n<li>\n<p class=\"name\"><a href=\"http://forums.maladiesraresinfo.org/neutropenie-congenitale-severe-f79.html\">Neutropénie congénitale sévère </a></p>\n</li>\n<li>\n<p class=\"name\"><a href=\"http://forums.maladiesraresinfo.org/niemann-pick-type-f334.html\">Niemann Pick type C </a></p>\n</li>\n<li>\n<p class=\"name\"><a href=\"http://forums.maladiesraresinfo.org/osteogenese-imparfaite-f250.html\">Ostéogénèse imparfaite <span class=\"text-hide\">maladie des os de verre</span></a></p>\n</li>\n<li>\n<p class=\"name\"><a href=\"http://forums.maladiesraresinfo.org/osteopathie-striee-sclerose-cranienne-f158.html\">Ostéopathie striée-sclérose cranienne </a></p>\n</li>\n<li>\n<p class=\"name\"><a href=\"http://forums.maladiesraresinfo.org/osteopetrose-f19.html\">Ostéopétrose </a></p>\n</li>\n<li>\n<p class=\"name\"><a href=\"http://forums.maladiesraresinfo.org/pancreas-annulaire-f154.html\">Pancréas annulaire </a></p>\n</li>\n<li>\n<p class=\"name\"><a href=\"http://forums.maladiesraresinfo.org/panniculite-weber-christian-f385.html\">Panniculite de Weber-Christian <span class=\"text-hide\"> panniculite lobulaire idiopathique</span></a></p>\n</li>\n<li>\n<p class=\"name\"><a href=\"http://forums.maladiesraresinfo.org/panniculite-mesenterique-f42.html\">Panniculite mésentérique </a></p>\n</li>\n<li>\n<p class=\"name\"><a href=\"http://forums.maladiesraresinfo.org/papillomatose-confluente-reticulee-gougerot-carteaux-f390.html\">Papillomatose confluente et réticulée de Gougerot et Carteaux </a></p>\n</li>\n<li>\n<p class=\"name\"><a href=\"http://forums.maladiesraresinfo.org/papillomatose-respiratoire-recurrente-f202.html\">Papillomatose respiratoire récurrente </a></p>\n</li>\n<li>\n<p class=\"name\"><a href=\"http://forums.maladiesraresinfo.org/paraplegie-spastique-hereditaire-f340.html\">Paraplégie spastique héréditaire <span class=\"text-hide\">strumpell lorrain</span></a></p>\n</li>\n<li>\n<p class=\"name\"><a href=\"http://forums.maladiesraresinfo.org/pelade-universelle-f173.html\">Pelade universelle </a></p>\n</li>\n<li>\n<p class=\"name\"><a href=\"https://forums.maladiesraresinfo.org/pemphigus-f469.html\">Pemphigus </a></p>\n</li>\n<li>\n<p class=\"name\"><a href=\"http://forums.maladiesraresinfo.org/periarterite-noueuse-f253.html\">Périartérite noueuse </a></p>\n</li>\n<li>\n<p class=\"name\"><a href=\"http://forums.maladiesraresinfo.org/pericardite-recurrente-idiopathique-f460.html\">Pericardite recurrente idiopathique </a></p>\n</li>\n<li>\n<p class=\"name\"><a href=\"https://forums.maladiesraresinfo.org/pityriasis-rubra-pilaire-f471.html\">Pityriasis rubra pilaire </a></p>\n</li>\n<li>\n<p class=\"name\"><a href=\"http://forums.maladiesraresinfo.org/pneumopathie-interstitielle-granulomato-lymphocytaire-f413.html\">Pneumopathie interstitielle granulomato-lymphocytaire <span class=\"text-hide\">GLILD</span></a></p>\n</li>\n<li>\n<p class=\"name\"><a href=\"http://forums.maladiesraresinfo.org/polykystose-renale-autosomique-recessive-f436.html\">Polykystose rénale autosomique récessive </a></p>\n</li>\n<li>\n<p class=\"name\"><a href=\"http://forums.maladiesraresinfo.org/polypose-adenomateuse-familiale-f373.html\">Polypose adénomateuse familiale </a></p>\n</li>\n<li>\n<p class=\"name\"><a href=\"http://forums.maladiesraresinfo.org/polyradiculonevrite-chronique-f30.html\">Polyradiculonévrite chronique </a></p>\n</li>\n<li>\n<p class=\"name\"><a href=\"http://forums.maladiesraresinfo.org/porokeratose-actinique-superfielle-disseminee-f415.html\">Porokératose actinique superfielle disséminée </a></p>\n</li>\n<li>\n<p class=\"name\"><a href=\"http://forums.maladiesraresinfo.org/pseudohypoparathyroidies-f376.html\">Pseudohypoparathyroïdies </a></p>\n</li>\n<li>\n<p class=\"name\"><a href=\"http://forums.maladiesraresinfo.org/pseudoxanthome-elastique-f174.html\">Pseudoxanthome Elastique </a></p>\n</li>\n<li>\n<p class=\"name\"><a href=\"http://forums.maladiesraresinfo.org/purpura-rhumatoide-f207.html\">Purpura rhumatoïde </a></p>\n</li>\n<li>\n<p class=\"name\"><a href=\"http://forums.maladiesraresinfo.org/purpura-thrombopenique-immunologique-f118.html\">Purpura Thrombopénique Immunologique </a></p>\n</li>\n<li>\n<p class=\"name\"><a href=\"https://forums.maladiesraresinfo.org/purpura-thrombotique-thrombocytopenique-f489.html\">Purpura thrombotique thrombocytopénique <span class=\"text-hide\">PTT; syndrome de Moschcowitz</span></a></p>\n</li>\n<li>\n<p class=\"name\"><a href=\"http://forums.maladiesraresinfo.org/retinoblastome-f123.html\">Rétinoblastome </a></p>\n</li>\n<li>\n<p class=\"name\"><a href=\"http://forums.maladiesraresinfo.org/rhabdomyosarcome-f60.html\">Rhabdomyosarcome </a></p>\n</li>\n<li>\n<p class=\"name\"><a href=\"http://forums.maladiesraresinfo.org/rosacee-oculaire-f328.html\">Rosacée oculaire </a></p>\n</li>\n<li>\n<p class=\"name\"><a href=\"http://forums.maladiesraresinfo.org/sarcoidose-f333.html\">Sarcoïdose </a></p>\n</li>\n<li>\n<p class=\"name\"><a href=\"http://forums.maladiesraresinfo.org/sclerodermie-f57.html\">Sclérodermie </a></p>\n</li>\n<li>\n<p class=\"name\"><a href=\"Sclérose latérale amyotrophique\">Sclérose latérale amyotrophique <span class=\"text-hide\">Maladie de Charcot</span></a></p>\n</li>\n<li>\n<p class=\"name\"><a href=\"http://forums.maladiesraresinfo.org/stenose-sous-glottique-congenitale-f352.html\">Sténose sous-glottique congénitale </a></p>\n</li>\n<li>\n<p class=\"name\"><a href=\"http://forums.maladiesraresinfo.org/syndrome-alport-f378.html\">Syndrome d'Alport </a></p>\n</li>\n<li>\n<p class=\"name\"><a href=\"http://forums.maladiesraresinfo.org/syndrome-angelman-f86.html\">Syndrome d'Angelman </a></p>\n</li>\n<li>\n<p class=\"name\"><a href=\"http://forums.maladiesraresinfo.org/syndrome-bainbridge-ropers-f360.html\">Syndrome de Bainbridge-Ropers </a></p>\n</li>\n<li>\n<p class=\"name\"><a href=\"http://forums.maladiesraresinfo.org/syndrome-beckwith-wiedemann-f249.html\">Syndrome de Beckwith Wiedemann </a></p>\n</li>\n<li>\n<p class=\"name\"><a href=\"http://forums.maladiesraresinfo.org/syndrome-borjeson-forssman-lehmann-f448.html\">Syndrome de Borjeson Forssman Lehmann </a></p>\n</li>\n<li>\n<p class=\"name\"><a href=\"http://forums.maladiesraresinfo.org/syndrome-bosch-boonstra-schaaf-f414.html\">Syndrome de Bosch Boonstra Schaaf </a></p>\n</li>\n<li>\n<p class=\"name\"><a href=\"http://forums.maladiesraresinfo.org/syndrome-brugada-f122.html\">Syndrome de Brugada </a></p>\n</li>\n<li>\n<p class=\"name\"><a href=\"http://forums.maladiesraresinfo.org/syndrome-buckley-f43.html\">Syndrome de Buckley </a></p>\n</li>\n<li>\n<p class=\"name\"><a href=\"http://forums.maladiesraresinfo.org/syndrome-coffin-siris-f326.html\">Syndrome de Coffin Siris </a></p>\n</li>\n<li>\n<p class=\"name\"><a href=\"http://forums.maladiesraresinfo.org/syndrome-coffin-lowry-f219.html\">Syndrome de Coffin-Lawry </a></p>\n</li>\n<li>\n<p class=\"name\"><a href=\"http://forums.maladiesraresinfo.org/syndrome-cornelia-lange-f135.html\">Syndrome de Cornélia de Lange </a></p>\n</li>\n<li>\n<p class=\"name\"><a href=\"http://forums.maladiesraresinfo.org/syndrome-cowden-f309.html\">Syndrome de Cowden </a></p>\n</li>\n<li>\n<p class=\"name\"><a href=\"http://forums.maladiesraresinfo.org/syndrome-cushing-f206.html\">Syndrome de Cushing </a></p>\n</li>\n<li>\n<p class=\"name\"><a href=\"http://forums.maladiesraresinfo.org/syndrome-fuite-capillaire-f69.html\">Syndrome de fuite capillaire </a></p>\n</li>\n<li>\n<p class=\"name\"><a href=\"http://forums.maladiesraresinfo.org/syndrome-gardner-diamond-f456.html\">Syndrome de Gardner-Diamond <span class=\"text-hide\"> ecchymoses douloureuses</span></a></p>\n</li>\n<li>\n<p class=\"name\"><a href=\"https://forums.maladiesraresinfo.org/syndrome-gitelman-f492.html\">Syndrome de Gitelman </a></p>\n</li>\n<li>\n<p class=\"name\"><a href=\"http://forums.maladiesraresinfo.org/syndrome-goldmann-favre-f209.html\">Syndrome de Goldmann-Favre </a></p>\n</li>\n<li>\n<p class=\"name\"><a href=\"http://forums.maladiesraresinfo.org/syndrome-gougerot-sjogren-f121.html\">Syndrome de Gougerot-Sjögren </a></p>\n</li>\n<li>\n<p class=\"name\"><a href=\"http://forums.maladiesraresinfo.org/syndrome-greig-f77.html\">Syndrome de Greig </a></p>\n</li>\n<li>\n<p class=\"name\"><a href=\"http://forums.maladiesraresinfo.org/syndrome-heimler-f369.html\">Syndrome de Heimler </a></p>\n</li>\n<li>\n<p class=\"name\"><a href=\"http://forums.maladiesraresinfo.org/syndrome-jarcho-levin-f361.html\">Syndrome de Jarcho-Levin <span class=\"text-hide\">Dysostose spondylo-costale</span></a></p>\n</li>\n<li>\n<p class=\"name\"><a href=\"http://forums.maladiesraresinfo.org/syndrome-kallmann-f76.html\">Syndrome de Kallmann </a></p>\n</li>\n<li>\n<p class=\"name\"><a href=\"http://forums.maladiesraresinfo.org/syndrome-klippel-feil-f224.html\">Syndrome de Klippel Feil </a></p>\n</li>\n<li>\n<p class=\"name\"><a href=\"http://forums.maladiesraresinfo.org/syndrome-landau-kleffner-f157.html\">Syndrome de Landau-Kleffner </a></p>\n</li>\n<li>\n<p class=\"name\"><a href=\"http://forums.maladiesraresinfo.org/syndrome-larsen-f198.html\">Syndrome de Larsen </a></p>\n</li>\n<li>\n<p class=\"name\"><a href=\"http://forums.maladiesraresinfo.org/syndrome-melas-f372.html\">Syndrome de MELAS </a></p>\n</li>\n<li>\n<p class=\"name\"><a href=\"http://forums.maladiesraresinfo.org/syndrome-mowat-wilson-f136.html\">Syndrome de Mowat-Wilson </a></p>\n</li>\n<li>\n<p class=\"name\"><a href=\"http://forums.maladiesraresinfo.org/syndrome-netherton-f82.html\">Syndrome de Netherton </a></p>\n</li>\n<li>\n<p class=\"name\"><a href=\"http://forums.maladiesraresinfo.org/syndrome-noonan-f159.html\">Syndrome de Noonan </a></p>\n</li>\n<li>\n<p class=\"name\"><a href=\"http://forums.maladiesraresinfo.org/syndrome-parry-romberg-f324.html\">Syndrome de Parry Romberg </a></p>\n</li>\n<li>\n<p class=\"name\"><a href=\"https://forums.maladiesraresinfo.org/syndrome-pendred-malformation-mondini-t3224.html\">Syndrome de Pendred </a></p>\n</li>\n<li>\n<p class=\"name\"><a href=\"https://forums.maladiesraresinfo.org/syndrome-pierpont-f488.html\">Syndrome de Pierpont </a></p>\n</li>\n<li>\n<p class=\"name\"><a href=\"http://forums.maladiesraresinfo.org/syndrome-pierre-robin-f223.html\">Syndrome de Pierre Robin </a></p>\n</li>\n<li>\n<p class=\"name\"><a href=\"http://forums.maladiesraresinfo.org/syndrome-pitt-hopkins-f212.html\">Syndrome de Pitt Hopkins </a></p>\n</li>\n<li>\n<p class=\"name\"><a href=\"http://forums.maladiesraresinfo.org/syndrome-primrose-f245.html\">Syndrome de Primrose <span class=\"text-hide\">Anomalie dans le gène ZBTB</span></a></p>\n</li>\n<li>\n<p class=\"name\"><a href=\"http://forums.maladiesraresinfo.org/syndrome-protee-f21.html\">Syndrome de Protée </a></p>\n</li>\n<li>\n<p class=\"name\"><a href=\"http://forums.maladiesraresinfo.org/syndrome-seckel-f313.html\">Syndrome de Seckel </a></p>\n</li>\n<li>\n<p class=\"name\"><a href=\"http://forums.maladiesraresinfo.org/syndrome-sharp-f73.html\">Syndrome de Sharp </a></p>\n</li>\n<li>\n<p class=\"name\"><a href=\"https://forums.maladiesraresinfo.org/syndrome-shwachman-diamond-f474.html\">Syndrome de Shwachman-Diamond </a></p>\n</li>\n<li>\n<p class=\"name\"><a href=\"http://forums.maladiesraresinfo.org/syndrome-silver-russell-f20.html\">Syndrome de Silver-Russell </a></p>\n</li>\n<li>\n<p class=\"name\"><a href=\"http://forums.maladiesraresinfo.org/syndrome-smith-magenis-f381.html\">Syndrome de Smith Magenis </a></p>\n</li>\n<li>\n<p class=\"name\"><a href=\"http://forums.maladiesraresinfo.org/syndrome-stiff-man-f258.html\">Syndrome de Stiff Man <span class=\"text-hide\">Syndrome de l’homme raide</span></a></p>\n</li>\n<li>\n<p class=\"name\"><a href=\"http://forums.maladiesraresinfo.org/syndrome-sturge-weber-f439.html\">Syndrome de sturge weber <span class=\"text-hide\">SSW</span></a></p>\n</li>\n<li>\n<p class=\"name\"><a href=\"http://forums.maladiesraresinfo.org/syndrome-susac-f117.html\">Syndrome de Susac </a></p>\n</li>\n<li>\n<p class=\"name\"><a href=\"http://forums.maladiesraresinfo.org/syndrome-sweet-f354.html\">Syndrome de Sweet </a></p>\n</li>\n<li>\n<p class=\"name\"><a href=\"http://forums.maladiesraresinfo.org/syndrome-turner-f49.html\">Syndrome de Turner </a></p>\n</li>\n<li>\n<p class=\"name\"><a href=\"http://forums.maladiesraresinfo.org/syndrome-vivo-f132.html\">Syndrome de Vivo </a></p>\n</li>\n<li>\n<p class=\"name\"><a href=\"http://forums.maladiesraresinfo.org/syndrome-wiedemann-steiner-f221.html\">Syndrome de Wiedemann-Steiner </a></p>\n</li>\n<li>\n<p class=\"name\"><a href=\"http://forums.maladiesraresinfo.org/syndrome-wolcott-rallison-f244.html\">Syndrome de Wolcott Rallison </a></p>\n</li>\n<li>\n<p class=\"name\"><a href=\"http://forums.maladiesraresinfo.org/syndrome-xia-gibbs-f362.html\">Syndrome de Xia-Gibbs <span class=\"text-hide\">anomalie du gène AHDC1</span></a></p>\n</li>\n<li>\n<p class=\"name\"><a href=\"http://forums.maladiesraresinfo.org/syndrome-des-anti-synthetases-f345.html\">Syndrome des anti-synthetases </a></p>\n</li>\n<li>\n<p class=\"name\"><a href=\"http://forums.maladiesraresinfo.org/syndrome-des-antiphospholipides-sapl-f83.html\">Syndrome des antiphospholipides SAPL </a></p>\n</li>\n<li>\n<p class=\"name\"><a href=\"http://forums.maladiesraresinfo.org/syndrome-cri-chat-f332.html\">Syndrome du Cri du Chat <span class=\"text-hide\">Monosomie 5q</span></a></p>\n</li>\n<li>\n<p class=\"name\"><a href=\"http://forums.maladiesraresinfo.org/naevus-sebace-syndrome-schimmelpenning-f433.html\">Syndrome du naevus sébacé linéaire <span class=\"text-hide\">Naevus sébacé de Jadassohn; Syndrome de Solomon; syndrome de Schimmelpenning</span></a></p>\n</li>\n<li>\n<p class=\"name\"><a href=\"http://forums.maladiesraresinfo.org/syndrome-hypereosinophilique-idiopathique-f358.html\">Syndrome hyperéosinophilique idiopathique </a></p>\n</li>\n<li>\n<p class=\"name\"><a href=\"http://forums.maladiesraresinfo.org/syndrome-image-f339.html\">Syndrome IMAGe <span class=\"text-hide\">Syndrome de retard de croissance intra-utérin-dysplasie métaphysaire-hypoplasie congénitale des surrénales-anomalies génitales</span></a></p>\n</li>\n<li>\n<p class=\"name\"><a href=\"http://forums.maladiesraresinfo.org/syndrome-kbg-f375.html\">Syndrome KBG </a></p>\n</li>\n<li>\n<p class=\"name\"><a href=\"http://forums.maladiesraresinfo.org/syndrome-megalencephalie-malformation-capillaire-f178.html\">Syndrome mégalencéphalie-malformation capillaire </a></p>\n</li>\n<li>\n<p class=\"name\"><a href=\"http://forums.maladiesraresinfo.org/syndrome-nutcracker-f383.html\">Syndrome Nutcracker </a></p>\n</li>\n<li>\n<p class=\"name\"><a href=\"http://forums.maladiesraresinfo.org/syndrome-phelan-mcdermid-f34.html\">Syndrome Phelan-McDermid </a></p>\n</li>\n<li>\n<p class=\"name\"><a href=\"http://forums.maladiesraresinfo.org/syndrome-triple-f238.html\">Syndrome triple H <span class=\"text-hide\">Syndrome HHH</span></a></p>\n</li>\n<li>\n<p class=\"name\"><a href=\"http://forums.maladiesraresinfo.org/syndrome-vacterl-vater-f315.html\">Syndrome VACTERL/VATER </a></p>\n</li>\n<li>\n<p class=\"name\"><a href=\"http://forums.maladiesraresinfo.org/syndromes-waardenburg-f425.html\">syndromes de Waardenburg </a></p>\n</li>\n<li>\n<p class=\"name\"><a href=\"http://forums.maladiesraresinfo.org/syndromes-paraneoplasiques-f98.html\">Syndromes paranéoplasiques </a></p>\n</li>\n<li>\n<p class=\"name\"><a href=\"http://forums.maladiesraresinfo.org/syringomyelie-f252.html\">Syringomyélie </a></p>\n</li>\n<li>\n<p class=\"name\"><a href=\"http://forums.maladiesraresinfo.org/transposition-des-gros-vaisseaux-f199.html\">Transposition des gros vaisseaux </a></p>\n</li>\n<li>\n<p class=\"name\"><a href=\"http://forums.maladiesraresinfo.org/tremblement-orthostatique-primaire-f184.html\">Tremblement orthostatique primaire </a></p>\n</li>\n<li>\n<p class=\"name\"><a href=\"http://forums.maladiesraresinfo.org/tumeur-granulosa-ovaire-f353.html\">Tumeur de la granulosa de l'ovaire </a></p>\n</li>\n<li>\n<p class=\"name\"><a href=\"http://forums.maladiesraresinfo.org/tumeur-desmoide-f51.html\">Tumeur desmoïde </a></p>\n</li>\n<li>\n<p class=\"name\"><a href=\"http://forums.maladiesraresinfo.org/tumeur-fibreuse-solitaire-f386.html\">Tumeur fibreuse solitaire </a></p>\n</li>\n<li>\n<p class=\"name\"><a href=\"http://forums.maladiesraresinfo.org/tumeurs-germinales-mediastin-f446.html\">Tumeurs germinales du médiastin </a></p>\n</li>\n<li>\n<p class=\"name\"><a href=\"http://forums.maladiesraresinfo.org/tumeurs-neuroendocrines-f55.html\">Tumeurs neuroendocrines </a></p>\n</li>\n<li>\n<p class=\"name\"><a href=\"http://forums.maladiesraresinfo.org/tyrosemie-type-f115.html\">Tyrosémie de type 1 <span class=\"text-hide\">Déficit en fumarylacétoacétase</span></a></p>\n</li>\n<li>\n<p class=\"name\"><a href=\"http://forums.maladiesraresinfo.org/valves-uretre-posterieur-f389.html\">Valves urètre postérieur </a></p>\n</li>\n<li>\n<p class=\"name\"><a href=\"https://forums.maladiesraresinfo.org/vitreoretinopathie-exsudative-familiale-f477.html\">Vitréorétinopathie exsudative familiale <span class=\"text-hide\">Syndrome de Criswick-Schepens</span></a></p>\n</li>\n<li>\n<p class=\"name\"><a href=\"http://forums.maladiesraresinfo.org/maladie-wegener-f455.html\">wegener <span class=\"text-hide\">granulomatose avec polyangéite </span></a></p>\n</li>\n</ul>\n\t\t\t\t</div>\n\t\t\t</div>\n\t\t\t<div class=\"modal-footer\">\n\t\t\t\t<button type=\"button\" class=\"btn btn-default\" data-dismiss=\"modal\">Fermer</button>\n\t\t\t</div>\n\t\t</div>\n\t</div>\n</div>\n\t<!-- Modal -->\n<div id=\"modalHibou\" class=\"modal fade popup-hibou\" role=\"dialog\" aria-labelledby=\"myModalLabel\" aria-hidden=\"true\">\n    <div class=\"modal-dialog\">\n        <div class=\"modal-content\">\n            <div class=\"modal-header\">\n                <button type=\"button\" class=\"close\" data-dismiss=\"modal\" aria-hidden=\"true\">&times;</button>\n                <h3>Vous cherchez une information ?<br><div style=\"text-indent: 60px;\"> Vous avez besoin d’un conseil&nbsp;?</div></h3>\n                <div class=\"row mt-md\">\n                    <div class=\"col-md-4\">\n                        <img class=\"img-responsive\" src=\"/assets/img/chouette.png\" alt=\"Logo SVP EI\">\n                        </div>\n                        <div class=\"col-md-8 text-center\">\n                            <h4>Appelez notre équipe de professionnels<br>au 01 56 53 81 36<br><span style=\"font-size: 14px\">(inclus dans les forfaits)</span>\n                            <p class=\"m-sm\">ou</p>\n                            <a class=\"btn btn-lg\" href=\"ecoute/par-e-mail.html?utm_source=popupHibou\" role=\"button\">envoyer leur un email</a></h4>\n                        </div>\n                    </div>\n                </div>\n            </div>\n        </div>\n    </div>\n<!-- /.modal -->\n\t<!-- Fin Modal -->\n\t<!-- /container -->\n\t\t<script src=\"/assets/js/allScripts-min.js\"></script>\n\t<!-- list.js (Filtre liste maladies) -->\n\t<script>\n\tvar options = {\n\t\tvalueNames: [ 'name' ],\n        page:500\n\t};\n\tvar userList = new List('liste_maladies', options);\n\t</script>\n\n\t<script type=\"text/javascript\">\n\n  var _gaq = _gaq || [];\n  _gaq.push(['_setAccount', 'UA-1038875-1']);\n  _gaq.push(['_setDomainName', 'maladiesraresinfo.org']);\n  _gaq.push(['_trackPageview']);\n\n  (function() {\n    var ga = document.createElement('script'); ga.type = 'text/javascript'; ga.async = true;\n    ga.src = ('https:' == document.location.protocol ? 'https://ssl' : 'http://www') + '.google-analytics.com/ga.js';\n    var s = document.getElementsByTagName('script')[0]; s.parentNode.insertBefore(ga, s);\n  })();\n\n</script>​\n<!-- Script Modal Popup avec delay -->\n<script>\n    $(document).ready(function() {\n        if ($.cookie('pophibou') == null) {\n                 setTimeout(function(){\n       $('#modalHibou').modal('show');\n   }, 25000);\n            $.cookie('pophibou', 'WvKTq9WY1uJ', { expires: 1, domain: 'maladiesraresinfo.org' });\n        }\n    });\n</script>\n<!-- \\Script Modal Popup avec delay -->\t\n</body>\n</html>",
  "url": "https://www.maladiesraresinfo.org/index.html"
}