{
  "contentId": "1424c6e0-8870-11e9-8f96-97f71b5221d6",
  "html": "<!DOCTYPE html>\n<html lang=\"en\">\n  <head>\n    <meta charset=\"utf-8\">\n    <title>Libido - Impulsive and compulsive behaviour - Parkinson&#39;s UK Forum</title>\n    <meta name=\"description\" content=\"My libido must have increased 10 fold and if my family hadn&amp;#39;t noticed it would have been a disaster as i was lying through my teeth and very obsessive anybody else had this problem.\">\n    <meta name=\"author\" content=\"\">\n<meta name=\"generator\" content=\"Discourse 2.2.5 - https://github.com/discourse/discourse version c294ff3609f988dcafb742e91606d60ca13b794d\">\n<link rel=\"icon\" type=\"image/png\" href=\"https://forum.parkinsons.org.uk/uploads/db7928/original/2X/3/311fc84f89f49f38601a2f16b295b6f03d3ce5dd.jpg\">\n<link rel=\"apple-touch-icon\" type=\"image/png\" href=\"https://forum.parkinsons.org.uk/uploads/db7928/original/2X/3/311fc84f89f49f38601a2f16b295b6f03d3ce5dd.jpg\">\n<meta name=\"theme-color\" content=\"#ffffff\">\n<meta name=\"viewport\" content=\"width=device-width, minimum-scale=1.0, maximum-scale=1.0, user-scalable=yes\">\n<link rel=\"canonical\" href=\"https://forum.parkinsons.org.uk/t/libido/6762?page=2\" />\n<script type=\"application/ld+json\">{\"@context\":\"http://schema.org\",\"@type\":\"WebSite\",\"url\":\"https://forum.parkinsons.org.uk\",\"potentialAction\":{\"@type\":\"SearchAction\",\"target\":\"https://forum.parkinsons.org.uk/search?q={search_term_string}\",\"query-input\":\"required name=search_term_string\"}}</script>\n<link rel=\"search\" type=\"application/opensearchdescription+xml\" href=\"https://forum.parkinsons.org.uk/opensearch.xml\" title=\"Parkinson&#39;s UK Forum Search\">\n\n      <link href=\"/stylesheets/desktop_f99246ae801b083d3e4cca979d0dade8615b39ac.css?__ws=forum.parkinsons.org.uk\" media=\"all\" rel=\"stylesheet\" data-target=\"desktop\" data-theme-id=\"12\"/>\n      <link href=\"/stylesheets/desktop_theme_12_5d27531cf43f9df0c03a6a6ec3109dd05f9dfc49.css?__ws=forum.parkinsons.org.uk\" media=\"all\" rel=\"stylesheet\" data-target=\"desktop_theme\" data-theme-id=\"12\"/>\n    <link href=\"https://fonts.googleapis.com/css?family=Open+Sans\" rel=\"stylesheet\">\n\n    <meta id=\"data-ga-universal-analytics\" data-tracking-code=\"UA-4855628-1\" data-json=\"{&quot;cookieDomain&quot;:&quot;auto&quot;}\" data-auto-link-domains=\"\">\n\n<link rel='preload' href='/assets/google-universal-analytics-f35b4da49411e6f5559073523aab983da483976a3954c79c756f8579f6fbd6ef.js' as='script'/>\n<script src='/assets/google-universal-analytics-f35b4da49411e6f5559073523aab983da483976a3954c79c756f8579f6fbd6ef.js'></script>\n\n      <link rel=\"alternate\" type=\"application/rss+xml\" title=\"RSS feed of &#39;Libido&#39;\" href=\"https://forum.parkinsons.org.uk/t/libido/6762.rss\" />\n  <meta property=\"og:site_name\" content=\"Parkinson&#39;s UK Forum\" />\n<meta name=\"twitter:card\" content=\"summary\" />\n<meta name=\"twitter:image\" content=\"https://forum.parkinsons.org.uk/uploads/db7928/original/2X/3/311fc84f89f49f38601a2f16b295b6f03d3ce5dd.jpg\" />\n<meta property=\"og:image\" content=\"https://forum.parkinsons.org.uk/uploads/db7928/original/2X/3/311fc84f89f49f38601a2f16b295b6f03d3ce5dd.jpg\" />\n<meta property=\"og:url\" content=\"https://forum.parkinsons.org.uk/t/libido/6762?page=2\" />\n<meta name=\"twitter:url\" content=\"https://forum.parkinsons.org.uk/t/libido/6762?page=2\" />\n<meta property=\"og:title\" content=\"Libido\" />\n<meta name=\"twitter:title\" content=\"Libido\" />\n<meta property=\"og:description\" content=\"Tell me more people I&#39;m on 10mg Requip XL an have a libido of nil! What am I doing wrong.\" />\n<meta name=\"twitter:description\" content=\"Tell me more people I&#39;m on 10mg Requip XL an have a libido of nil! What am I doing wrong.\" />\n<meta property=\"article:published_time\" content=\"2014-02-15T10:58:14+00:00\" />\n<meta property=\"og:ignore_canonical\" content=\"true\" />\n\n      <link rel=\"prev\" href=\"/t/libido/6762\">\n      <link rel=\"next\" href=\"/t/libido/6762?page=3\">\n\n\n    \n  </head>\n  <body class=\"crawler\">\n    <header role=\"banner\">\n    <div class=\"region region-header\">\n        <div class=\"region-header-wrapper\">\n            <div id=\"block-parkinsons-d8-branding\" class=\"block block-system block-system-branding-block\">\n                <a href=\"/\" title=\"Home\" rel=\"home\" class=\"site-logo\">\n                    <img src=\"https://forum.parkinsons.org.uk/uploads/db7928/original/2X/8/862bb7d172e7d127e7f3e147ec43594aa62ac945.png\" alt=\"Parkinson's UK. Change Attitudes. Find a cure. Join us.\">\n                </a>\n            </div>\n            <div id=\"block-helpline\" class=\"block block-block-content block-block-content871cd5af-b938-4947-9dc0-d5c211d08fe3 style-phone\">\n                <div class=\"field field--name-field-link field--type-link field--label-hidden field__item\"><a href=\"tel:+448088000303\">Helpline 0808 800 0303</a></div>\n            </div>\n            <div id=\"block-shop\" class=\"block block-block-content block-block-content6fba5ae5-7797-49cd-8367-f321d8111cd6 style-regular\">\n                <div class=\"field field--name-field-link field--type-link field--label-hidden field__item\"><a href=\"https://shop.parkinsons.org.uk\">Shop</a></div>\n            </div>\n        </div>\n    </div>\n</header>\n\n\n<script src=\"/theme-javascripts/b7e9763fcb584fc8265c56a9f557cd6d2e1e8ed8.js?__ws=forum.parkinsons.org.uk\"></script>\n    <header>\n      <a href=\"/\">\n          <img src=\"https://forum.parkinsons.org.uk/uploads/db7928/original/2X/8/862bb7d172e7d127e7f3e147ec43594aa62ac945.png\" alt=\"Parkinson&#39;s UK Forum\" id=\"site-logo\" style=\"max-width: 150px;\">\n      </a>\n    </header>\n    <div id=\"main-outlet\" class=\"wrap\">\n      <h1>\n  <a href=\"/t/libido/6762\">Libido</a>\n</h1>\n\n<div id='breadcrumbs'>\n    <div id=\"breadcrumb-0\" itemscope itemtype=\"http://data-vocabulary.org/Breadcrumb\"\n        itemref=\"breadcrumb-1\"\n      >\n      <a href=\"/c/about-parkinsons-and-health\" itemprop=\"url\">\n        <span itemprop=\"title\">About Parkinson&#39;s and health</span>\n      </a>\n    </div>\n    <div id=\"breadcrumb-1\" itemscope itemtype=\"http://data-vocabulary.org/Breadcrumb\"\n>\n      <a href=\"/c/about-parkinsons-and-health/impulsive-and-compulsive-behaviour\" itemprop=\"url\">\n        <span itemprop=\"title\">Impulsive and compulsive behaviour</span>\n      </a>\n    </div>\n</div>\n\n\n\n\n\n<hr>\n\n\n  <div itemscope itemtype='http://schema.org/DiscussionForumPosting'>\n      <div class='creator'>\n        <span>\n          <a href='/u/Charlie52'><b itemprop='author'>Charlie52</b></a>\n          \n          <time datetime='2014-02-15T10:58:14Z' itemprop='datePublished'>\n            2014-02-15 10:58:14 UTC\n          </time>\n        </span>\n        <span itemprop='position'>#21</span>\n      </div>\n      <div class='post' itemprop='articleBody'>\n        <p>Tell me more people I&#39;m on 10mg Requip&nbsp;XL&nbsp;an have a libido of nil! What am I doing&nbsp;wrong.</p>\n      </div>\n      <meta itemprop='interactionCount' content='UserLikes:0'>\n      <meta itemprop='interactionCount' content='UserComments:0'>\n      <meta itemprop='headline' content='Libido'>\n      <hr>\n  </div>\n  <div itemscope itemtype='http://schema.org/DiscussionForumPosting'>\n      <div class='creator'>\n        <span>\n          <a href='/u/jolliffee'><b itemprop='author'>jolliffee</b></a>\n          \n          <time datetime='2014-02-15T15:02:00Z' itemprop='datePublished'>\n            2014-02-15 15:02:00 UTC\n          </time>\n        </span>\n        <span itemprop='position'>#22</span>\n      </div>\n      <div class='post' itemprop='articleBody'>\n        <p>Hi - I had hyperosexual&nbsp;activity with my first meds&nbsp;- I wasn&#39;t warned about it and didn&#39;t think it was abnormal since we had a good sex life anyway but my wife just blurted out to the consultant that I was always up for it - well it&#39;s a known side affect - he said - thanks for not telling me was my response<img alt=\"mad\" height=\"23\" src=\"http://www.parkinsons.org.uk/sites/all/libraries/ckeditor/plugins/smiley/images/mad.gif\" title=\"mad\" width=\"23\" />. &nbsp;Oh well; once a fortnight now -&nbsp;<img alt=\"sad face\" height=\"23\" src=\"http://www.parkinsons.org.uk/sites/all/libraries/ckeditor/plugins/smiley/images/sadface.gif\" title=\"sad face\" width=\"23\" /></p>\n      </div>\n      <meta itemprop='interactionCount' content='UserLikes:0'>\n      <meta itemprop='interactionCount' content='UserComments:0'>\n      <meta itemprop='headline' content='Libido'>\n      <hr>\n  </div>\n  <div itemscope itemtype='http://schema.org/DiscussionForumPosting'>\n      <div class='creator'>\n        <span>\n          <a href='/u/fedexlike'><b itemprop='author'>fedexlike</b></a>\n          \n          <time datetime='2014-02-16T01:22:45Z' itemprop='datePublished'>\n            2014-02-16 01:22:45 UTC\n          </time>\n        </span>\n        <span itemprop='position'>#23</span>\n      </div>\n      <div class='post' itemprop='articleBody'>\n        <p><img alt=\"eye roll\" height=\"23\" src=\"http://www.parkinsons.org.uk/sites/all/libraries/ckeditor/plugins/smiley/images/rolleyes.gif\" title=\"eye roll\" width=\"23\" />Touchy subject, but here goes. When I was told I had PD I had no idea what lay in store for me and&nbsp; my lovely wife, I had no warning or info given re the effects of the drugs I was given, Madopar and Cabergoline the latter I believe has been withdrawn due to its alarming changes&nbsp;in the personalities of PD persons, I know its not propa&nbsp; PD persons, but I am too tired to correct it. The drugs had a virtual instant&nbsp; and amusing&nbsp; and confusing change in my attitude to my wife,at first it was fun and she was taken up with this new person her husband had morphed into at 49yrs I had suddenly&nbsp; become 29 and&nbsp; she was delighted, but as time went on she realised she could live out fantasies, she only had to ask and we would try anything, just like a couple of sex mad teens, this led to danger and became a threat to our marriage as experimentation became our way of life for about 9 months anything goes our motto, it could not last and luckily we sought help and I was taken off cabergoline and giiven Entacapone , this settled things down and it saved us from self destruct mode, but it could have been so different, so take care my friends if these cllossal changes happen change your drugs or you could lose far more than you gain.</p>\r\n<p>&nbsp;&nbsp;&nbsp;&nbsp;&nbsp;&nbsp;&nbsp;&nbsp;&nbsp;&nbsp;&nbsp;&nbsp;&nbsp;&nbsp;&nbsp;&nbsp;&nbsp;&nbsp;&nbsp;&nbsp;&nbsp;&nbsp;&nbsp;&nbsp;&nbsp;&nbsp;&nbsp;&nbsp;&nbsp;&nbsp;&nbsp;&nbsp;&nbsp;&nbsp;&nbsp;&nbsp;&nbsp;&nbsp; Kindest Regards Fed</p>\n      </div>\n      <meta itemprop='interactionCount' content='UserLikes:0'>\n      <meta itemprop='interactionCount' content='UserComments:0'>\n      <meta itemprop='headline' content='Libido'>\n      <hr>\n  </div>\n  <div itemscope itemtype='http://schema.org/DiscussionForumPosting'>\n      <div class='creator'>\n        <span>\n          <a href='/u/sheffy'><b itemprop='author'>sheffy</b></a>\n          \n          <time datetime='2014-02-17T19:39:14Z' itemprop='datePublished'>\n            2014-02-17 19:39:14 UTC\n          </time>\n        </span>\n        <span itemprop='position'>#24</span>\n      </div>\n      <div class='post' itemprop='articleBody'>\n        <p>&nbsp;</p>\r\n<p>Hi teapot52</p>\r\n<p>I&#39;m on ropinirole XL and along with you I&#39;m still waiting for the big buzz!</p>\r\n<p>&nbsp;</p>\r\n<p>Sheffy x</p>\n      </div>\n      <meta itemprop='interactionCount' content='UserLikes:0'>\n      <meta itemprop='interactionCount' content='UserComments:0'>\n      <meta itemprop='headline' content='Libido'>\n      <hr>\n  </div>\n  <div itemscope itemtype='http://schema.org/DiscussionForumPosting'>\n      <div class='creator'>\n        <span>\n          <a href='/u/shelly65'><b itemprop='author'>shelly65</b></a>\n          \n          <time datetime='2014-02-17T23:58:15Z' itemprop='datePublished'>\n            2014-02-17 23:58:15 UTC\n          </time>\n        </span>\n        <span itemprop='position'>#25</span>\n      </div>\n      <div class='post' itemprop='articleBody'>\n        <p>I take&nbsp; Madopar and my pd nurse is talking about adding pramipexole&nbsp; I have never had a problem with my libido&nbsp; , since my partner decided he could not handle pd my problem is the lack of a willing partner <img alt=\"red face\" height=\"23\" src=\"http://www.parkinsons.org.uk/sites/all/libraries/ckeditor/plugins/smiley/images/redface.gif\" title=\"red face\" width=\"23\" /></p>\n      </div>\n      <meta itemprop='interactionCount' content='UserLikes:0'>\n      <meta itemprop='interactionCount' content='UserComments:0'>\n      <meta itemprop='headline' content='Libido'>\n      <hr>\n  </div>\n  <div itemscope itemtype='http://schema.org/DiscussionForumPosting'>\n      <div class='creator'>\n        <span>\n          <a href='/u/sheffy'><b itemprop='author'>sheffy</b></a>\n          \n          <time datetime='2014-02-19T20:47:09Z' itemprop='datePublished'>\n            2014-02-19 20:47:09 UTC\n          </time>\n        </span>\n        <span itemprop='position'>#26</span>\n      </div>\n      <div class='post' itemprop='articleBody'>\n        <p>&nbsp;</p>\r\n<p>Hi shelley65</p>\r\n<p>That&#39;s sad because now is the time you desperately need the the support of someone close to you. But having said that, some people can&#39;t accept change in their lives, even though they marry in sickness and health.</p>\r\n<p>I have had PD for about four years now, and it&#39;s&nbsp; slow advancing so i&#39;m not too bad, don&#39;t really know what my hubby will be like when I get more advanced, It could be a shock to his system, no one can tell what the future holds. We just have to keep battling on in our own little world going along with what has been bestowed on us.</p>\r\n<p>&nbsp;</p>\r\n<p>Keep your chin up!</p>\r\n<p>Sheffy x</p>\r\n<p>&nbsp;</p>\n      </div>\n      <meta itemprop='interactionCount' content='UserLikes:0'>\n      <meta itemprop='interactionCount' content='UserComments:0'>\n      <meta itemprop='headline' content='Libido'>\n      <hr>\n  </div>\n  <div itemscope itemtype='http://schema.org/DiscussionForumPosting'>\n      <div class='creator'>\n        <span>\n          <a href='/u/shelly65'><b itemprop='author'>shelly65</b></a>\n          \n          <time datetime='2014-02-19T23:25:03Z' itemprop='datePublished'>\n            2014-02-19 23:25:03 UTC\n          </time>\n        </span>\n        <span itemprop='position'>#27</span>\n      </div>\n      <div class='post' itemprop='articleBody'>\n        <p>Hi Shelfin</p>\r\n<p>&nbsp;</p>\r\n<p>Thank you for your kind words</p>\r\n<p>we were not married nor were we living together&nbsp; , he was never supportive&nbsp; and&nbsp; never accepted the fact i had pd i choose to be postive and make the most of my life he actually turned round to me one day and made the comment &#39; i don&#39;t understand how you can be so happy when your ill &#39; to which my reply was i am not happy about it if i could give it back god knows i would but i have it i can&#39;t change it so it is not going to rule my life ....i really do not need people in my life with a attitude like that i know this sounds harsh but if he wants to leave then i will hold the door open for him</p>\n      </div>\n      <meta itemprop='interactionCount' content='UserLikes:0'>\n      <meta itemprop='interactionCount' content='UserComments:0'>\n      <meta itemprop='headline' content='Libido'>\n      <hr>\n  </div>\n  <div itemscope itemtype='http://schema.org/DiscussionForumPosting'>\n      <div class='creator'>\n        <span>\n          <a href='/u/sheffy'><b itemprop='author'>sheffy</b></a>\n          \n          <time datetime='2014-02-22T21:28:21Z' itemprop='datePublished'>\n            2014-02-22 21:28:21 UTC\n          </time>\n        </span>\n        <span itemprop='position'>#28</span>\n      </div>\n      <div class='post' itemprop='articleBody'>\n        <p>&nbsp;</p>\r\n<p>Hi shelly65</p>\r\n<p>Sometimes it takes a strong person to keep going, and hold&nbsp;their head up high and laugh at life. With what life has bestowed on us we can do no more but to keep going. I admire you in that way, stay as happy as you can and be as happy as you can.</p>\r\n<p>I was in the girl guides and one motto was &quot;a guide laughs and sings under all difficulties&quot; you can&#39;t do it all of the time, but most of the time.</p>\r\n<p>&nbsp;</p>\r\n<p>Regards Sheila</p>\n      </div>\n      <meta itemprop='interactionCount' content='UserLikes:0'>\n      <meta itemprop='interactionCount' content='UserComments:0'>\n      <meta itemprop='headline' content='Libido'>\n      <hr>\n  </div>\n  <div itemscope itemtype='http://schema.org/DiscussionForumPosting'>\n      <div class='creator'>\n        <span>\n          <a href='/u/Jen521394'><b itemprop='author'>Jen521394</b></a>\n          \n          <time datetime='2014-03-20T23:09:33Z' itemprop='datePublished'>\n            2014-03-20 23:09:33 UTC\n          </time>\n        </span>\n        <span itemprop='position'>#29</span>\n      </div>\n      <div class='post' itemprop='articleBody'>\n        <p>I have gone the other way,not interested in anytime and so much so my husband of 18 years now has a mistress. I have problems with on site Gambling and he wonders why. I have 3 kids 17 year old doing a levels, and 2 sons , (triplets but lost a son to cot death). Really wondering how much more I can take&nbsp;<img alt=\"cry\" height=\"23\" src=\"http://www.parkinsons.org.uk/sites/all/libraries/ckeditor/plugins/smiley/images/cry.gif\" title=\"cry\" width=\"23\" />Perhaps someone can suggest something to help me or even understand what&#39;s happening. I was diagnosed on nov 2010 aged 40, life changes at 40, certainly does, not always for the better !</p>\n      </div>\n      <meta itemprop='interactionCount' content='UserLikes:0'>\n      <meta itemprop='interactionCount' content='UserComments:0'>\n      <meta itemprop='headline' content='Libido'>\n      <hr>\n  </div>\n  <div itemscope itemtype='http://schema.org/DiscussionForumPosting'>\n      <div class='creator'>\n        <span>\n          <a href='/u/shelly65'><b itemprop='author'>shelly65</b></a>\n          \n          <time datetime='2014-03-20T23:37:14Z' itemprop='datePublished'>\n            2014-03-20 23:37:14 UTC\n          </time>\n        </span>\n        <span itemprop='position'>#30</span>\n      </div>\n      <div class='post' itemprop='articleBody'>\n        <p>Hi Jen</p>\r\n<p>So sorry to hear of your problems , i have not suffered with impulsive behaviour but my parkinson&#39;s nurse is talking about adding a dopamine agonist to my meds&nbsp; and we talked in great detail today about the risks of impulsive behaviour&nbsp; and she said it was more common in younger people with pd .</p>\r\n<p>I know there are some members on the forum that have experienced impulsive behaviour and i think they would be more knowledgeable than me but i would say talk to your neuro or parkinsons nurse with regards to&nbsp; reducing/ changing your meds .</p>\r\n<p>Good luck</p>\n      </div>\n      <meta itemprop='interactionCount' content='UserLikes:0'>\n      <meta itemprop='interactionCount' content='UserComments:0'>\n      <meta itemprop='headline' content='Libido'>\n      <hr>\n  </div>\n  <div itemscope itemtype='http://schema.org/DiscussionForumPosting'>\n      <div class='creator'>\n        <span>\n          <a href='/u/sheffy'><b itemprop='author'>sheffy</b></a>\n          \n          <time datetime='2014-03-22T17:03:40Z' itemprop='datePublished'>\n            2014-03-22 17:03:40 UTC\n          </time>\n        </span>\n        <span itemprop='position'>#31</span>\n      </div>\n      <div class='post' itemprop='articleBody'>\n        <p>&nbsp;</p>\r\n<p>&nbsp;</p>\r\n<p>Hi Jen</p>\r\n<p>Sorry to hear of your problems. You were diagnosed the same year as I was but in the August, I was put on Ropinirole a dopomine agonist, which they say gives some patients impulsive behaviour problems. I can honestly say I have had no problems at all, but the medication does not agree with everyone. As Shelly said the best thing to do is talk to your PD nurse or GP. It could be right what Shelly said as well that this impulsive behaviour only affects&nbsp;younger people, cos&nbsp;I am 61 going on 62</p>\r\n<p>.&nbsp;</p>\r\n<p>Regards Sheila</p>\n      </div>\n      <meta itemprop='interactionCount' content='UserLikes:0'>\n      <meta itemprop='interactionCount' content='UserComments:0'>\n      <meta itemprop='headline' content='Libido'>\n      <hr>\n  </div>\n  <div itemscope itemtype='http://schema.org/DiscussionForumPosting'>\n      <div class='creator'>\n        <span>\n          <a href='/u/shelly65'><b itemprop='author'>shelly65</b></a>\n          \n          <time datetime='2014-03-22T20:05:44Z' itemprop='datePublished'>\n            2014-03-22 20:05:44 UTC\n          </time>\n        </span>\n        <span itemprop='position'>#32</span>\n      </div>\n      <div class='post' itemprop='articleBody'>\n        <p>I had a in depth discussion with my pd nurse &nbsp; a few days ago as she wants to add a dopamine agonist ( mirapexin or Ropinerole } to the Madopar i take at minute , and she said it is more of a problem to younger pwp and she said she was at a conference recently where it was being discussed and some neuros were going as far as asking there patients to sign disclaimers regarding knowing the risks of taking a DA <img alt=\"exclaim\" height=\"23\" src=\"http://www.parkinsons.org.uk/sites/all/libraries/ckeditor/plugins/smiley/images/exclaim.gif\" title=\"exclaim\" width=\"23\" /></p>\n      </div>\n      <meta itemprop='interactionCount' content='UserLikes:0'>\n      <meta itemprop='interactionCount' content='UserComments:0'>\n      <meta itemprop='headline' content='Libido'>\n      <hr>\n  </div>\n  <div itemscope itemtype='http://schema.org/DiscussionForumPosting'>\n      <div class='creator'>\n        <span>\n          <a href='/u/Semele'><b itemprop='author'>Semele</b></a>\n          \n          <time datetime='2014-03-22T20:44:30Z' itemprop='datePublished'>\n            2014-03-22 20:44:30 UTC\n          </time>\n        </span>\n        <span itemprop='position'>#33</span>\n      </div>\n      <div class='post' itemprop='articleBody'>\n        <p>Oh, absolutely, shelly. Of my initial consult with the neuro I reckon a good 20% was taken up with being told the potential perils of DAs and signing the consent form. But (as I&#39;ve posted elsewhere tonight) I didn&#39;t take it all in: too much of a bedside manner when you really needed something more direct: &quot;these pills mess with your head. They may cause you to gamble away your family home, spend all your partner&#39;s cash, or have outrageous sexual demands - worse, you&#39;re going to lie to cover it up.&quot; That I would have understood.</p>\r\n<p>It is still the main topic of conversation with both the neuro and the PD nurse. I get the message now.</p>\r\n<p>S</p>\n      </div>\n      <meta itemprop='interactionCount' content='UserLikes:0'>\n      <meta itemprop='interactionCount' content='UserComments:0'>\n      <meta itemprop='headline' content='Libido'>\n      <hr>\n  </div>\n  <div itemscope itemtype='http://schema.org/DiscussionForumPosting'>\n      <div class='creator'>\n        <span>\n          <a href='/u/shelly65'><b itemprop='author'>shelly65</b></a>\n          \n          <time datetime='2014-03-22T23:24:52Z' itemprop='datePublished'>\n            2014-03-22 23:24:52 UTC\n          </time>\n        </span>\n        <span itemprop='position'>#34</span>\n      </div>\n      <div class='post' itemprop='articleBody'>\n        <p>At my appointment with my neuro when he offered me&nbsp; a DA OR Levodopa&nbsp; i got the impression he was leaning more to Levodopa than a DA and when my PD nurse suggested adding a DA&nbsp; he was still more inclined to up the Levodopa than add the DA&nbsp;&nbsp; , but pd nurse seems more inclined to go with the DA but did spend quite a while going into the possible effects of impulsive behaviour , my problem is night time&nbsp; waking in the night stiff and achy and getting out of bed in the morning , i would rather go with a Madopar CR for night time than a DA , so the pd nurse has gone off to discuss with the neuro what his preference is , i don&#39;t have a partner so i can&#39;t spend his cash or place outrageous sexual demands but still i would rather not be in any position where i might i am more inclined to go with the neuros advice and stick with just the Madopar , better the devil i know me thinks</p>\r\n<p>I must admit i did raise a eyebrow and was shocked when she said about consent form regarding dopamine agonist ,&nbsp; surely it is the drug companys that need to be held accountable ,</p>\n      </div>\n      <meta itemprop='interactionCount' content='UserLikes:0'>\n      <meta itemprop='interactionCount' content='UserComments:0'>\n      <meta itemprop='headline' content='Libido'>\n      <hr>\n  </div>\n  <div itemscope itemtype='http://schema.org/DiscussionForumPosting'>\n      <div class='creator'>\n        <span>\n          <a href='/u/Semele'><b itemprop='author'>Semele</b></a>\n          \n          <time datetime='2014-03-23T13:41:16Z' itemprop='datePublished'>\n            2014-03-23 13:41:16 UTC\n          </time>\n        </span>\n        <span itemprop='position'>#35</span>\n      </div>\n      <div class='post' itemprop='articleBody'>\n        <p>Well the drug companies can&#39;t stop DAs leading to some people having impulsive behaviour (as far as I know), so they&#39;re either banned from use (which would affect the majority of us who don&#39;t suffer this side effect) or the risks of taking them are made crystal-clear - which means the prescribing medic tells us what might happen and what to do if it does; and because the issue is a biggie it seems reasonable that we&#39;re formally asked to note that we have been told about it. That&#39;s &quot;informed consent&quot;.</p>\r\n<p>The real problems stemmed from the time before this process was formalised, and people taking DAs didn&#39;t understand that their changed behaviour was linked to the drugs. There&#39;s tons on this site about all that. Start with <a href=\"http://www.parkinsons.org.uk/content/qa-law-and-impulsive-and-compulsive-behaviour\" target=\"_blank\">http://www.parkinsons.org.uk/content/qa-law-and-impulsive-and-compulsive-behaviour</a></p>\r\n<p>I for one am glad that DAs are available and that we&#39;re now being more clearly told about the risks.</p>\r\n<p>Best</p>\r\n<p>Semele</p>\n      </div>\n      <meta itemprop='interactionCount' content='UserLikes:0'>\n      <meta itemprop='interactionCount' content='UserComments:0'>\n      <meta itemprop='headline' content='Libido'>\n      <hr>\n  </div>\n  <div itemscope itemtype='http://schema.org/DiscussionForumPosting'>\n      <div class='creator'>\n        <span>\n          <a href='/u/goldengirl'><b itemprop='author'>goldengirl</b></a>\n          \n          <time datetime='2014-03-23T18:07:21Z' itemprop='datePublished'>\n            2014-03-23 18:07:21 UTC\n          </time>\n        </span>\n        <span itemprop='position'>#36</span>\n      </div>\n      <div class='post' itemprop='articleBody'>\n        <p>I agree that many people benefit from DAs but the big problem is that the 1 in 4 or more , or 1 in 3 men under 50 who suffer the OCD&nbsp;side effects, mainly in hypersexuality or gambling, don&#39;t recognise it as a problem, even if warned.</p>\r\n<p>My understanding from my husband and other sufferers is that, although not warned, they loved the excitement of their secret lives of &nbsp;destructive activities which grew slowly and got extra thrills from hiding it.</p>\r\n<p>That is why a partner &nbsp;or person in close contact needs warning and urging to check not just outward appearances but bank statements etc.</p>\r\n<p>Even then there is no guarantee that OCD behaviour will be discovered until devastating harm has been done.</p>\r\n<p>My husband hid his horrific secret life for 3years before I found out and by then he had lost our life savings and destroyed our marriage.He tells me he existed in a state of euphoria at getting away with it .</p>\r\n<p>That is why it is such a gamble.</p>\r\n<p>GG</p>\n      </div>\n      <meta itemprop='interactionCount' content='UserLikes:0'>\n      <meta itemprop='interactionCount' content='UserComments:0'>\n      <meta itemprop='headline' content='Libido'>\n      <hr>\n  </div>\n  <div itemscope itemtype='http://schema.org/DiscussionForumPosting'>\n      <div class='creator'>\n        <span>\n          <a href='/u/shelly65'><b itemprop='author'>shelly65</b></a>\n          \n          <time datetime='2014-03-23T19:55:36Z' itemprop='datePublished'>\n            2014-03-23 19:55:36 UTC\n          </time>\n        </span>\n        <span itemprop='position'>#37</span>\n      </div>\n      <div class='post' itemprop='articleBody'>\n        <p>So sorry to hear of your husbands problems with DA&#39;s Goldengirl , i totally agree the effects are devastating and&nbsp; by reading peoples storys on the forum i am against taking a DA , i do not have a partner so the responsibilty&nbsp; of monitoring my behaviour would fall upon my two sons who live with me&nbsp; and that is something i would not want to bestow upon them when they should be out enjoying there lives</p>\r\n<p>Thankfully the neuro and parkinsons nurse are in disagreement over the DA with the neuro preferring going up on the Madopar which i think will be my favoured course of action , the pd nurse was saying some people were taking more DA&#39;s than they should because of the euphoria they provided not a situation i want to put myself in i think .</p>\n      </div>\n      <meta itemprop='interactionCount' content='UserLikes:0'>\n      <meta itemprop='interactionCount' content='UserComments:0'>\n      <meta itemprop='headline' content='Libido'>\n      <hr>\n  </div>\n  <div itemscope itemtype='http://schema.org/DiscussionForumPosting'>\n      <div class='creator'>\n        <span>\n          <a href='/u/goldengirl'><b itemprop='author'>goldengirl</b></a>\n          \n          <time datetime='2014-03-23T21:22:16Z' itemprop='datePublished'>\n            2014-03-23 21:22:16 UTC\n          </time>\n        </span>\n        <span itemprop='position'>#38</span>\n      </div>\n      <div class='post' itemprop='articleBody'>\n        <p>I think you are very wise,Shelly...if you can maintain your mobility etc without taking the risk then it is a safer path.</p>\r\n<p>If it helps at all, my husband suffered terrible withdrawal symptoms coming off the DAs and it took a long time to reach an effective alternative regime on Levadopa.</p>\r\n<p>But now his mobility is better than it has ever been and mentally he is much better.Yet we had believed the Requip&nbsp;was responsible for his relief of symptoms and that Sinemet would be less effective.</p>\r\n<p>we were wrong.</p>\r\n<p>However he still misses the drug-induced euphoria of the past.</p>\r\n<p>I wish you well, Shelley and hope an increase in Levadopa&nbsp;will help.</p>\r\n<p>Love</p>\r\n<p>GG</p>\n      </div>\n      <meta itemprop='interactionCount' content='UserLikes:0'>\n      <meta itemprop='interactionCount' content='UserComments:0'>\n      <meta itemprop='headline' content='Libido'>\n      <hr>\n  </div>\n  <div itemscope itemtype='http://schema.org/DiscussionForumPosting'>\n      <div class='creator'>\n        <span>\n          <a href='/u/shelly65'><b itemprop='author'>shelly65</b></a>\n          \n          <time datetime='2014-03-23T22:01:00Z' itemprop='datePublished'>\n            2014-03-23 22:01:00 UTC\n          </time>\n        </span>\n        <span itemprop='position'>#39</span>\n      </div>\n      <div class='post' itemprop='articleBody'>\n        <p>Thank you Goldengirl , i take 125mg of Madopar&nbsp; 3xtimes and 1mg Rasagiline&nbsp; a day but it is night times that are a little difficult&nbsp; i did ask if there was a Madopar CR for a night time but for whatever reasons pd&nbsp; nurse was reluctant to give the CR&nbsp; i did take Sinemet plus but suffered terribly with nausea/ vomiting&nbsp; so had to go on Madopar , and the pd nurse is talking about DA&#39;s that carry a nausea side effect&nbsp;&nbsp; the mind boggles, my neuro suggested a fouth dose od Madopar which i think i am more inclined to go with</p>\r\n<p>&nbsp;</p>\r\n<p>I hope everything goes well for you and your husband</p>\n      </div>\n      <meta itemprop='interactionCount' content='UserLikes:0'>\n      <meta itemprop='interactionCount' content='UserComments:1'>\n      <meta itemprop='headline' content='Libido'>\n      <hr>\n  </div>\n  <div itemscope itemtype='http://schema.org/DiscussionForumPosting'>\n      <div class='creator'>\n        <span>\n          <a href='/u/goldengirl'><b itemprop='author'>goldengirl</b></a>\n          \n          <time datetime='2014-03-24T08:52:14Z' itemprop='datePublished'>\n            2014-03-24 08:52:14 UTC\n          </time>\n        </span>\n        <span itemprop='position'>#40</span>\n      </div>\n      <div class='post' itemprop='articleBody'>\n        <p>My husband was helped by a wonderful neurologist who suggested low-dose dispersible Madopar if he woke in the night.</p>\r\n<p>This works in less than 10&nbsp;mins and gives&nbsp;him about an hour to go to the loo and stretch and get comfy in bed.</p>\r\n<p>This works well for him. He tried the Sinemet CR but it didn&#39;t seem to work.</p>\r\n<p>He carries the full strength dose to take in an emergency, eg. Freezing when out.</p>\r\n<p>He carries a small bottle of water to swig with it.</p>\r\n<p>He also takes one before and after a large meal, eg eating out with friends.</p>\r\n<p>Things improved enormously once this was added to his Sinemet regime.</p>\r\n<p>I do hope you find a regime that works for you.</p>\r\n<p>love</p>\r\n<p>GG</p>\r\n<p>&nbsp;</p>\n      </div>\n      <meta itemprop='interactionCount' content='UserLikes:0'>\n      <meta itemprop='interactionCount' content='UserComments:0'>\n      <meta itemprop='headline' content='Libido'>\n      <hr>\n  </div>\n\n  <div role='navigation' itemscope itemtype='http://schema.org/SiteNavigationElement'>\n      <span itemprop='name'><a rel=\"prev\" itemprop=\"url\" href=\"/t/libido/6762\">← previous page</a></span>\n      <span itemprop='name'><b><a rel=\"next\" itemprop=\"url\" href=\"/t/libido/6762?page=3\">next page →</a></b></span>\n  </div>\n\n\n\n\n\n    </div>\n    <footer class=\"container\">\n      <nav class='crawler-nav' itemscope itemtype='http://schema.org/SiteNavigationElement'>\n        <a href='/'>Home</a>\n        <a href=\"/categories\">Categories</a>\n        <a href=\"/guidelines\">FAQ/Guidelines</a>\n        <a href=\"/tos\">Terms of Service</a>\n        <a href=\"/privacy\">Privacy Policy</a>\n      </nav>\n      <p class='powered-by-link'>Powered by <a href=\"https://www.discourse.org\">Discourse</a>, best viewed with JavaScript enabled</p>\n    </footer>\n    \n  </body>\n  \n</html>\n",
  "url": "https://forum.parkinsons.org.uk/t/libido/6762?page=2"
}