{
  "contentId": "6197c230-8869-11e9-8f96-97f71b5221d6",
  "html": "<!DOCTYPE html>\n<html lang=\"en\">\n  <head>\n    <meta charset=\"utf-8\">\n    <title>Hello, im a tad scared. 35 and recently diagnosed.  - Introductions and personal stories - Parkinson&#39;s UK Forum</title>\n    <meta name=\"description\" content=\"Hello, im 35 and recently diagnosed with young onset PD, its been tough, anyone out there of a similar age who I can chat to? Regarding ways of coping etc? Thanks\">\n    <meta name=\"author\" content=\"\">\n<meta name=\"generator\" content=\"Discourse 2.2.5 - https://github.com/discourse/discourse version c294ff3609f988dcafb742e91606d60ca13b794d\">\n<link rel=\"icon\" type=\"image/png\" href=\"https://forum.parkinsons.org.uk/uploads/db7928/original/2X/3/311fc84f89f49f38601a2f16b295b6f03d3ce5dd.jpg\">\n<link rel=\"apple-touch-icon\" type=\"image/png\" href=\"https://forum.parkinsons.org.uk/uploads/db7928/original/2X/3/311fc84f89f49f38601a2f16b295b6f03d3ce5dd.jpg\">\n<meta name=\"theme-color\" content=\"#ffffff\">\n<meta name=\"viewport\" content=\"width=device-width, minimum-scale=1.0, maximum-scale=1.0, user-scalable=yes\">\n<link rel=\"canonical\" href=\"https://forum.parkinsons.org.uk/t/hello-im-a-tad-scared-35-and-recently-diagnosed/14060?page=2\" />\n<script type=\"application/ld+json\">{\"@context\":\"http://schema.org\",\"@type\":\"WebSite\",\"url\":\"https://forum.parkinsons.org.uk\",\"potentialAction\":{\"@type\":\"SearchAction\",\"target\":\"https://forum.parkinsons.org.uk/search?q={search_term_string}\",\"query-input\":\"required name=search_term_string\"}}</script>\n<link rel=\"search\" type=\"application/opensearchdescription+xml\" href=\"https://forum.parkinsons.org.uk/opensearch.xml\" title=\"Parkinson&#39;s UK Forum Search\">\n\n      <link href=\"/stylesheets/desktop_f99246ae801b083d3e4cca979d0dade8615b39ac.css?__ws=forum.parkinsons.org.uk\" media=\"all\" rel=\"stylesheet\" data-target=\"desktop\" data-theme-id=\"12\"/>\n      <link href=\"/stylesheets/desktop_theme_12_5d27531cf43f9df0c03a6a6ec3109dd05f9dfc49.css?__ws=forum.parkinsons.org.uk\" media=\"all\" rel=\"stylesheet\" data-target=\"desktop_theme\" data-theme-id=\"12\"/>\n    <link href=\"https://fonts.googleapis.com/css?family=Open+Sans\" rel=\"stylesheet\">\n\n    <meta id=\"data-ga-universal-analytics\" data-tracking-code=\"UA-4855628-1\" data-json=\"{&quot;cookieDomain&quot;:&quot;auto&quot;}\" data-auto-link-domains=\"\">\n\n<link rel='preload' href='/assets/google-universal-analytics-f35b4da49411e6f5559073523aab983da483976a3954c79c756f8579f6fbd6ef.js' as='script'/>\n<script src='/assets/google-universal-analytics-f35b4da49411e6f5559073523aab983da483976a3954c79c756f8579f6fbd6ef.js'></script>\n\n      <link rel=\"alternate\" type=\"application/rss+xml\" title=\"RSS feed of &#39;Hello, im a tad scared. 35 and recently diagnosed. &#39;\" href=\"https://forum.parkinsons.org.uk/t/hello-im-a-tad-scared-35-and-recently-diagnosed/14060.rss\" />\n  <meta property=\"og:site_name\" content=\"Parkinson&#39;s UK Forum\" />\n<meta name=\"twitter:card\" content=\"summary\" />\n<meta name=\"twitter:image\" content=\"https://forum.parkinsons.org.uk/uploads/db7928/original/2X/3/311fc84f89f49f38601a2f16b295b6f03d3ce5dd.jpg\" />\n<meta property=\"og:image\" content=\"https://forum.parkinsons.org.uk/uploads/db7928/original/2X/3/311fc84f89f49f38601a2f16b295b6f03d3ce5dd.jpg\" />\n<meta property=\"og:url\" content=\"https://forum.parkinsons.org.uk/t/hello-im-a-tad-scared-35-and-recently-diagnosed/14060?page=2\" />\n<meta name=\"twitter:url\" content=\"https://forum.parkinsons.org.uk/t/hello-im-a-tad-scared-35-and-recently-diagnosed/14060?page=2\" />\n<meta property=\"og:title\" content=\"Hello, im a tad scared. 35 and recently diagnosed. \" />\n<meta name=\"twitter:title\" content=\"Hello, im a tad scared. 35 and recently diagnosed. \" />\n<meta property=\"og:description\" content=\"Hello everyone, im so very sorry ive gone quiet, im overwhelmed by the response ive had.  Ive been off work for a bit trying to come to terms with it all and getting counselling, ive gone from being in a hugely dark place to seeing beauty in life again. Ill try reply to everyone.  Thanks for making me feel less alone.\" />\n<meta name=\"twitter:description\" content=\"Hello everyone, im so very sorry ive gone quiet, im overwhelmed by the response ive had.  Ive been off work for a bit trying to come to terms with it all and getting counselling, ive gone from being in a hugely dark place to seeing beauty in life again. Ill try reply to everyone.  Thanks for making me feel less alone.\" />\n<meta name=\"twitter:label1\" value=\"Reading time\" />\n<meta name=\"twitter:data1\" value=\"9 mins \uD83D\uDD51\" />\n<meta name=\"twitter:label2\" value=\"Likes\" />\n<meta name=\"twitter:data2\" value=\"41 ❤\" />\n<meta property=\"article:published_time\" content=\"2018-07-06T19:23:50+00:00\" />\n<meta property=\"og:ignore_canonical\" content=\"true\" />\n\n      <link rel=\"prev\" href=\"/t/hello-im-a-tad-scared-35-and-recently-diagnosed/14060\">\n      <link rel=\"next\" href=\"/t/hello-im-a-tad-scared-35-and-recently-diagnosed/14060?page=3\">\n\n\n    \n  </head>\n  <body class=\"crawler\">\n    <header role=\"banner\">\n    <div class=\"region region-header\">\n        <div class=\"region-header-wrapper\">\n            <div id=\"block-parkinsons-d8-branding\" class=\"block block-system block-system-branding-block\">\n                <a href=\"/\" title=\"Home\" rel=\"home\" class=\"site-logo\">\n                    <img src=\"https://forum.parkinsons.org.uk/uploads/db7928/original/2X/8/862bb7d172e7d127e7f3e147ec43594aa62ac945.png\" alt=\"Parkinson's UK. Change Attitudes. Find a cure. Join us.\">\n                </a>\n            </div>\n            <div id=\"block-helpline\" class=\"block block-block-content block-block-content871cd5af-b938-4947-9dc0-d5c211d08fe3 style-phone\">\n                <div class=\"field field--name-field-link field--type-link field--label-hidden field__item\"><a href=\"tel:+448088000303\">Helpline 0808 800 0303</a></div>\n            </div>\n            <div id=\"block-shop\" class=\"block block-block-content block-block-content6fba5ae5-7797-49cd-8367-f321d8111cd6 style-regular\">\n                <div class=\"field field--name-field-link field--type-link field--label-hidden field__item\"><a href=\"https://shop.parkinsons.org.uk\">Shop</a></div>\n            </div>\n        </div>\n    </div>\n</header>\n\n\n<script src=\"/theme-javascripts/b7e9763fcb584fc8265c56a9f557cd6d2e1e8ed8.js?__ws=forum.parkinsons.org.uk\"></script>\n    <header>\n      <a href=\"/\">\n          <img src=\"https://forum.parkinsons.org.uk/uploads/db7928/original/2X/8/862bb7d172e7d127e7f3e147ec43594aa62ac945.png\" alt=\"Parkinson&#39;s UK Forum\" id=\"site-logo\" style=\"max-width: 150px;\">\n      </a>\n    </header>\n    <div id=\"main-outlet\" class=\"wrap\">\n      <h1>\n  <a href=\"/t/hello-im-a-tad-scared-35-and-recently-diagnosed/14060\">Hello, im a tad scared. 35 and recently diagnosed. </a>\n</h1>\n\n<div id='breadcrumbs'>\n    <div id=\"breadcrumb-0\" itemscope itemtype=\"http://data-vocabulary.org/Breadcrumb\"\n        itemref=\"breadcrumb-1\"\n      >\n      <a href=\"/c/about-me\" itemprop=\"url\">\n        <span itemprop=\"title\">About me</span>\n      </a>\n    </div>\n    <div id=\"breadcrumb-1\" itemscope itemtype=\"http://data-vocabulary.org/Breadcrumb\"\n>\n      <a href=\"/c/about-me/introductions-and-personal-stories\" itemprop=\"url\">\n        <span itemprop=\"title\">Introductions and personal stories</span>\n      </a>\n    </div>\n</div>\n\n\n\n\n\n<hr>\n\n\n  <div itemscope itemtype='http://schema.org/DiscussionForumPosting'>\n      <div class='creator'>\n        <span>\n          <a href='/u/Drew7'><b itemprop='author'>Drew7</b></a>\n          \n          <time datetime='2018-07-06T19:23:50Z' itemprop='datePublished'>\n            2018-07-06 19:23:50 UTC\n          </time>\n        </span>\n        <span itemprop='position'>#21</span>\n      </div>\n      <div class='post' itemprop='articleBody'>\n        <p>Hello everyone, im so very sorry ive gone quiet, im overwhelmed by the response ive had.<br>\nIve been off work for a bit trying to come to terms with it all and getting counselling, ive gone from being in a hugely dark place to seeing beauty in life again. Ill try reply to everyone.<br>\nThanks for making me feel less alone.</p>\n      </div>\n      <meta itemprop='interactionCount' content='UserLikes:3'>\n      <meta itemprop='interactionCount' content='UserComments:1'>\n      <meta itemprop='headline' content='Hello, im a tad scared. 35 and recently diagnosed. '>\n      <hr>\n  </div>\n  <div itemscope itemtype='http://schema.org/DiscussionForumPosting'>\n      <div class='creator'>\n        <span>\n          <a href='/u/Drew7'><b itemprop='author'>Drew7</b></a>\n          \n          <time datetime='2018-07-06T19:25:38Z' itemprop='datePublished'>\n            2018-07-06 19:25:38 UTC\n          </time>\n        </span>\n        <span itemprop='position'>#22</span>\n      </div>\n      <div class='post' itemprop='articleBody'>\n        <p>Hi <a class=\"mention\" href=\"/u/parkybadger\">@Parkybadger</a>, I’m in Cornwall, where are you?<br>\nThanks for the reply.</p>\n      </div>\n      <meta itemprop='interactionCount' content='UserLikes:0'>\n      <meta itemprop='interactionCount' content='UserComments:1'>\n      <meta itemprop='headline' content='Hello, im a tad scared. 35 and recently diagnosed. '>\n      <hr>\n  </div>\n  <div itemscope itemtype='http://schema.org/DiscussionForumPosting'>\n      <div class='creator'>\n        <span>\n          <a href='/u/Geordieparr'><b itemprop='author'>Geordieparr</b></a>\n          \n          <time datetime='2018-07-08T11:11:42Z' itemprop='datePublished'>\n            2018-07-08 11:11:42 UTC\n          </time>\n        </span>\n        <span itemprop='position'>#23</span>\n      </div>\n      <div class='post' itemprop='articleBody'>\n        <p>PD only wins if you give up. My own experience is that I now appreciate the good times and good people around me.  Anyone who ‘disappears’ was never a true freind anyway, so the loss is thiers.</p>\n<p>Never forget you are still  YOU, all your personality is still there, just sometimes takes longer to show it</p>\n      </div>\n      <meta itemprop='interactionCount' content='UserLikes:2'>\n      <meta itemprop='interactionCount' content='UserComments:0'>\n      <meta itemprop='headline' content='Hello, im a tad scared. 35 and recently diagnosed. '>\n      <hr>\n  </div>\n  <div itemscope itemtype='http://schema.org/DiscussionForumPosting'>\n      <div class='creator'>\n        <span>\n          <a href='/u/Parkybadger'><b itemprop='author'>Parkybadger</b></a>\n          \n          <time datetime='2018-07-08T22:17:11Z' itemprop='datePublished'>\n            2018-07-08 22:17:11 UTC\n          </time>\n        </span>\n        <span itemprop='position'>#24</span>\n      </div>\n      <div class='post' itemprop='articleBody'>\n        <p>I’m in Birmingham. Shame that it’s so far away.</p>\n<p>I found this organisation to be very helpful, especially as they have a focus on young people with PD: <a href=\"http://spotlightyopd.org/\" rel=\"nofollow noopener\">http://spotlightyopd.org/</a></p>\n<p>They might be able to link you up with other people with PD in your area.</p>\n<p>Good luck!</p>\n      </div>\n      <meta itemprop='interactionCount' content='UserLikes:1'>\n      <meta itemprop='interactionCount' content='UserComments:2'>\n      <meta itemprop='headline' content='Hello, im a tad scared. 35 and recently diagnosed. '>\n      <hr>\n  </div>\n  <div itemscope itemtype='http://schema.org/DiscussionForumPosting'>\n      <div class='creator'>\n        <span>\n          <a href='/u/cruisecontroller'><b itemprop='author'>cruisecontroller</b></a>\n          \n          <time datetime='2018-07-09T07:12:02Z' itemprop='datePublished'>\n            2018-07-09 07:12:02 UTC\n          </time>\n        </span>\n        <span itemprop='position'>#25</span>\n      </div>\n      <div class='post' itemprop='articleBody'>\n        <p>I’m a bit closer to Drew being in Devon but there are a lot of people from the Birmingham area down here living and there are a lot who come here to holiday as well as Cornwall.</p>\n<p>Les</p>\n      </div>\n      <meta itemprop='interactionCount' content='UserLikes:2'>\n      <meta itemprop='interactionCount' content='UserComments:0'>\n      <meta itemprop='headline' content='Hello, im a tad scared. 35 and recently diagnosed. '>\n      <hr>\n  </div>\n  <div itemscope itemtype='http://schema.org/DiscussionForumPosting'>\n      <div class='creator'>\n        <span>\n          <a href='/u/Drew7'><b itemprop='author'>Drew7</b></a>\n          \n          <time datetime='2018-07-10T10:12:43Z' itemprop='datePublished'>\n            2018-07-10 10:12:43 UTC\n          </time>\n        </span>\n        <span itemprop='position'>#26</span>\n      </div>\n      <div class='post' itemprop='articleBody'>\n        <p>HI <a class=\"mention\" href=\"/u/jim_davies\">@jim_Davies</a>, I’ve just gone back to work after a month off to comes to terms with and get the drugs sorted.<br>\nYes I’ve told work and they are being very accomodating, I guess I’m lucky to have a good HR department.<br>\nI’m doing a lot of kayaking, living in Cornwall its not only good for my upper body but beautiful.<br>\nthanks for your reply.</p>\n<p>I hope you are doing OK with your PD.</p>\n<p>Regards<br>\nDrew</p>\n      </div>\n      <meta itemprop='interactionCount' content='UserLikes:0'>\n      <meta itemprop='interactionCount' content='UserComments:0'>\n      <meta itemprop='headline' content='Hello, im a tad scared. 35 and recently diagnosed. '>\n      <hr>\n  </div>\n  <div itemscope itemtype='http://schema.org/DiscussionForumPosting'>\n      <div class='creator'>\n        <span>\n          <a href='/u/Drew7'><b itemprop='author'>Drew7</b></a>\n          \n          <time datetime='2018-07-10T10:16:36Z' itemprop='datePublished'>\n            2018-07-10 10:16:36 UTC\n          </time>\n        </span>\n        <span itemprop='position'>#27</span>\n      </div>\n      <div class='post' itemprop='articleBody'>\n        <p>Hi <a class=\"mention\" href=\"/u/shane\">@Shane</a>, I’m very sorry to hear about your diagnoses too, what a turn out for us.<br>\nI also suspected it from dec 2017.<br>\nI’ve had a month off and had counselling, family time, me time, lots of camping, walking and kayaking. Cornwall is great for that. I’m actually yet to see the parkinsons nurse, but have a great pharmacist who has a particular interest in PD, so I feel looked after.</p>\n<p>I wish you the same, keep positive.</p>\n<p>We’ll fly a flag for a positive life with PD.</p>\n<p>Where are you based?</p>\n      </div>\n      <meta itemprop='interactionCount' content='UserLikes:1'>\n      <meta itemprop='interactionCount' content='UserComments:0'>\n      <meta itemprop='headline' content='Hello, im a tad scared. 35 and recently diagnosed. '>\n      <hr>\n  </div>\n  <div itemscope itemtype='http://schema.org/DiscussionForumPosting'>\n      <div class='creator'>\n        <span>\n          <a href='/u/Drew7'><b itemprop='author'>Drew7</b></a>\n          \n          <time datetime='2018-07-10T10:19:02Z' itemprop='datePublished'>\n            2018-07-10 10:19:02 UTC\n          </time>\n        </span>\n        <span itemprop='position'>#28</span>\n      </div>\n      <div class='post' itemprop='articleBody'>\n        <p>Hi <a class=\"mention\" href=\"/u/janiceofgreenock\">@JaniceofGREENOCK</a>, thanks for the message.<br>\nSad that some people walk away not knowing how to treat you, they are not worth it.<br>\nI’m finally coming to terms with it and staying active.<br>\n10 years on, do you feel like you’re still living a fulfilled life?</p>\n      </div>\n      <meta itemprop='interactionCount' content='UserLikes:0'>\n      <meta itemprop='interactionCount' content='UserComments:0'>\n      <meta itemprop='headline' content='Hello, im a tad scared. 35 and recently diagnosed. '>\n      <hr>\n  </div>\n  <div itemscope itemtype='http://schema.org/DiscussionForumPosting'>\n      <div class='creator'>\n        <span>\n          <a href='/u/Drew7'><b itemprop='author'>Drew7</b></a>\n          \n          <time datetime='2018-07-10T10:20:22Z' itemprop='datePublished'>\n            2018-07-10 10:20:22 UTC\n          </time>\n        </span>\n        <span itemprop='position'>#29</span>\n      </div>\n      <div class='post' itemprop='articleBody'>\n        <p>Hi <a class=\"mention\" href=\"/u/divine1\">@Divine1</a>,</p>\n<p>Thank you for the kind words and positivity, I’m finally getting there.<br>\nAnd yes, lots of exercise for me now. Not a bad thing.<br>\nI hope youre doing OK with your PD.</p>\n      </div>\n      <meta itemprop='interactionCount' content='UserLikes:0'>\n      <meta itemprop='interactionCount' content='UserComments:0'>\n      <meta itemprop='headline' content='Hello, im a tad scared. 35 and recently diagnosed. '>\n      <hr>\n  </div>\n  <div itemscope itemtype='http://schema.org/DiscussionForumPosting'>\n      <div class='creator'>\n        <span>\n          <a href='/u/Drew7'><b itemprop='author'>Drew7</b></a>\n          \n          <time datetime='2018-07-10T10:23:05Z' itemprop='datePublished'>\n            2018-07-10 10:23:05 UTC\n          </time>\n        </span>\n        <span itemprop='position'>#30</span>\n      </div>\n      <div class='post' itemprop='articleBody'>\n        <p>Hi <a class=\"mention\" href=\"/u/thurinius\">@Thurinius</a>,</p>\n<p>Sorry about your recent diagnoses, sounds like you have a good attitude, took me a while but I’m finally getting there.  I have issues typing with my left hand ‘sometimes’, very dependant on if Ive taken my drugs.<br>\nI agree, the big picture can wait.</p>\n<p>Hope youre doing OK, where are you based?</p>\n      </div>\n      <meta itemprop='interactionCount' content='UserLikes:1'>\n      <meta itemprop='interactionCount' content='UserComments:0'>\n      <meta itemprop='headline' content='Hello, im a tad scared. 35 and recently diagnosed. '>\n      <hr>\n  </div>\n  <div itemscope itemtype='http://schema.org/DiscussionForumPosting'>\n      <div class='creator'>\n        <span>\n          <a href='/u/Drew7'><b itemprop='author'>Drew7</b></a>\n          \n          <time datetime='2018-07-10T10:26:32Z' itemprop='datePublished'>\n            2018-07-10 10:26:32 UTC\n          </time>\n        </span>\n        <span itemprop='position'>#31</span>\n      </div>\n      <div class='post' itemprop='articleBody'>\n        <p>Hi <a class=\"mention\" href=\"/u/raz1\">@Raz1</a>,</p>\n<p>Thanks for this message, I’m really finding this forum a great place to hang out.<br>\nI also find that its hard for people to get their head around the disease, its a hard one to explain as well.<br>\nI’m doing my best to help people understand it.<br>\nHope youre doing Ok.</p>\n      </div>\n      <meta itemprop='interactionCount' content='UserLikes:0'>\n      <meta itemprop='interactionCount' content='UserComments:1'>\n      <meta itemprop='headline' content='Hello, im a tad scared. 35 and recently diagnosed. '>\n      <hr>\n  </div>\n  <div itemscope itemtype='http://schema.org/DiscussionForumPosting'>\n      <div class='creator'>\n        <span>\n          <a href='/u/Drew7'><b itemprop='author'>Drew7</b></a>\n          \n          <time datetime='2018-07-10T10:30:21Z' itemprop='datePublished'>\n            2018-07-10 10:30:21 UTC\n          </time>\n        </span>\n        <span itemprop='position'>#32</span>\n      </div>\n      <div class='post' itemprop='articleBody'>\n        <p>Hi <a class=\"mention\" href=\"/u/parkybadger\">@Parkybadger</a>, yes it is a shame but if you’re ever in this neck of the woods on holiday feel free to give me a shout, I’ll take you kayaking for some exercise.</p>\n      </div>\n      <meta itemprop='interactionCount' content='UserLikes:1'>\n      <meta itemprop='interactionCount' content='UserComments:0'>\n      <meta itemprop='headline' content='Hello, im a tad scared. 35 and recently diagnosed. '>\n      <hr>\n  </div>\n  <div itemscope itemtype='http://schema.org/DiscussionForumPosting'>\n      <div class='creator'>\n        <span>\n          <a href='/u/trailerman121'><b itemprop='author'>trailerman121</b></a>\n          \n          <time datetime='2018-07-10T13:52:21Z' itemprop='datePublished'>\n            2018-07-10 13:52:21 UTC\n          </time>\n        </span>\n        <span itemprop='position'>#33</span>\n      </div>\n      <div class='post' itemprop='articleBody'>\n        <p>Hi<br>\nI also have recently been diagnosed I have been doing some research  on the connection of PD and Tce eg Genklene inhibisol trycoethelene Degreasing solutions.if anyone has had any contact even if it’s 40 years please let me know as I am in the process of a legal battle.it proven there a x6 chance of getting PD<br>\nKeith</p>\n      </div>\n      <meta itemprop='interactionCount' content='UserLikes:0'>\n      <meta itemprop='interactionCount' content='UserComments:1'>\n      <meta itemprop='headline' content='Hello, im a tad scared. 35 and recently diagnosed. '>\n      <hr>\n  </div>\n  <div itemscope itemtype='http://schema.org/DiscussionForumPosting'>\n      <div class='creator'>\n        <span>\n          <a href='/u/Raz1'><b itemprop='author'>Raz1</b></a>\n          \n          <time datetime='2018-07-10T21:22:38Z' itemprop='datePublished'>\n            2018-07-10 21:22:38 UTC\n          </time>\n        </span>\n        <span itemprop='position'>#34</span>\n      </div>\n      <div class='post' itemprop='articleBody'>\n        <p>Hi Drew7</p>\n<p>Well I am glad that you are getting on this forum and that you are finding it useful , I am well not to good I have had a fall a few weeks back and my crown thoot dropped off, so I went to the dentist who told me I had cracked in two so they will have to remove it, so that was done last week Tuesday, but my mouth still is very very sore and still bleeding, the hole where the door was pulled out from keeps getting ever thing food stuck in it, I went back as my ear and face one . So they told me that I need to keep the hole clean. So I asked for a fake tooth but they have said I have to wait 6 months. But I am in so much pain I am going back in the morning . They can’t leave me like his</p>\n<p>Sorry to go on I hope you are keeping well<br>\nRegards raz</p>\n      </div>\n      <meta itemprop='interactionCount' content='UserLikes:0'>\n      <meta itemprop='interactionCount' content='UserComments:0'>\n      <meta itemprop='headline' content='Hello, im a tad scared. 35 and recently diagnosed. '>\n      <hr>\n  </div>\n  <div itemscope itemtype='http://schema.org/DiscussionForumPosting'>\n      <div class='creator'>\n        <span>\n          <a href='/u/Reah'><b itemprop='author'>Reah</b></a>\n          \n          <time datetime='2018-07-11T14:52:55Z' itemprop='datePublished'>\n            2018-07-11 14:52:55 UTC\n          </time>\n        </span>\n        <span itemprop='position'>#35</span>\n      </div>\n      <div class='post' itemprop='articleBody'>\n        <p>Hi <a class=\"mention\" href=\"/u/trailerman121\">@trailerman121</a>,</p>\n<p>Hope all is well.</p>\n<p>Genklene, which is also known as trichloroethylene (TCE). TCE has been banned for many uses but is still sometimes used as a degreasing agent. Research from 2011 suggested that exposure to the chemical solvent TCE may increase risk of Parkinson’s.</p>\n<p>The study was the first one to report a possible link between Parkinson’s and TCE, but further larger studies are needed to confirm the relationship.</p>\n<p>We still don’t know exactly what causes Parkinson’s. But for most people it’s likely to be a combination of natural ageing, genetic susceptibility, lifestyle and environmental factors.</p>\n<p>So, while TCE may play a small role in Parkinson’s in some people, it’s probably just a small part of a much bigger puzzle.</p>\n<p>I hope this information helps!</p>\n<p>Best wishes,<br>\nReah</p>\n      </div>\n      <meta itemprop='interactionCount' content='UserLikes:0'>\n      <meta itemprop='interactionCount' content='UserComments:1'>\n      <meta itemprop='headline' content='Hello, im a tad scared. 35 and recently diagnosed. '>\n      <hr>\n  </div>\n  <div itemscope itemtype='http://schema.org/DiscussionForumPosting'>\n      <div class='creator'>\n        <span>\n          <a href='/u/trailerman121'><b itemprop='author'>trailerman121</b></a>\n          \n          <time datetime='2018-07-11T15:49:18Z' itemprop='datePublished'>\n            2018-07-11 15:49:18 UTC\n          </time>\n        </span>\n        <span itemprop='position'>#36</span>\n      </div>\n      <div class='post' itemprop='articleBody'>\n        <p>Hi Reah<br>\nThanks for your msg.<br>\nI have been researching into the connection and at least 2 people have been successful  with claims regarding tce exposure. 1 chap won a case against  the Canadian navy and another I think was in new Zealand again it was successful  .<br>\nI have been posting msg regarding exposure on other pd sites and getting some feedback.<br>\nI will keep you informed  on any progress<br>\nRegards<br>\nKeith</p>\n      </div>\n      <meta itemprop='interactionCount' content='UserLikes:1'>\n      <meta itemprop='interactionCount' content='UserComments:0'>\n      <meta itemprop='headline' content='Hello, im a tad scared. 35 and recently diagnosed. '>\n      <hr>\n  </div>\n  <div itemscope itemtype='http://schema.org/DiscussionForumPosting'>\n      <div class='creator'>\n        <span>\n          <a href='/u/Fatious12'><b itemprop='author'>Fatious12</b></a>\n          \n          <time datetime='2019-01-20T11:08:42Z' itemprop='datePublished'>\n            2019-01-20 11:08:42 UTC\n          </time>\n        </span>\n        <span itemprop='position'>#37</span>\n      </div>\n      <div class='post' itemprop='articleBody'>\n        <p>Hi I am 46 now  and was diagnosed 15 years ago. Since then I have had 2 children, changed career now retired. Been to Disney Both Florida and Paris. Taken up ping pong (was rubbish before i had PD and am actually better now) I also took up wargaming (grown men playing with plastic soldiers) I make and paint  the army i use.</p>\n<p>It is not  always fun dark places have been visited but I find the best way back into the light is through talking to people.</p>\n<p>I have a group of PD friends from the Self Management course (which was awesome) who meet every 2 months or so and poke fun at ourselves and share ideas.</p>\n<p>And I have lost friends to as they just could not adjust to the new me but that is my fault too as I did not open up about it to start with.</p>\n<p>In a nutshell stay active, share your feelings, laugh at yourself (far better than grumpy or angry) and be a good husband/wife or friend</p>\n<p>hope this helps</p>\n<p>good luck</p>\n      </div>\n      <meta itemprop='interactionCount' content='UserLikes:0'>\n      <meta itemprop='interactionCount' content='UserComments:0'>\n      <meta itemprop='headline' content='Hello, im a tad scared. 35 and recently diagnosed. '>\n      <hr>\n  </div>\n  <div itemscope itemtype='http://schema.org/DiscussionForumPosting'>\n      <div class='creator'>\n        <span>\n          <a href='/u/Raz1'><b itemprop='author'>Raz1</b></a>\n          \n          <time datetime='2019-01-23T09:27:24Z' itemprop='datePublished'>\n            2019-01-23 09:27:24 UTC\n          </time>\n        </span>\n        <span itemprop='position'>#38</span>\n      </div>\n      <div class='post' itemprop='articleBody'>\n        <p>Morning Fatious2</p>\n<p>Wow that’s is so nice to hear that you are able to enjoy life and have a friend circle which know how to be around you, you being active it great and keeping a positive mood, but it’s not always the case, but we’ll done as by writing this down here , it will show Powell’s that you can still live life and enjoy as much as you can .</p>\n<p>All the best<br>\nRaz</p>\n      </div>\n      <meta itemprop='interactionCount' content='UserLikes:0'>\n      <meta itemprop='interactionCount' content='UserComments:1'>\n      <meta itemprop='headline' content='Hello, im a tad scared. 35 and recently diagnosed. '>\n      <hr>\n  </div>\n  <div itemscope itemtype='http://schema.org/DiscussionForumPosting'>\n      <div class='creator'>\n        <span>\n          <a href='/u/JonB13'><b itemprop='author'>JonB13</b></a>\n          \n          <time datetime='2019-02-19T07:16:32Z' itemprop='datePublished'>\n            2019-02-19 07:16:32 UTC\n          </time>\n        </span>\n        <span itemprop='position'>#39</span>\n      </div>\n      <div class='post' itemprop='articleBody'>\n        <p>Hi I am Jon. Fifty now but diagnosed at 38. I still work fulltime. I would recommend an active lifestyle if possible. Exercise is medicine. Peer support has always helped me as well so if there is a group you can meet up with that maybe good. It has impacted on my life but I have still got much to offer. If you want to chat further I would be happy to do so.</p>\n      </div>\n      <meta itemprop='interactionCount' content='UserLikes:0'>\n      <meta itemprop='interactionCount' content='UserComments:0'>\n      <meta itemprop='headline' content='Hello, im a tad scared. 35 and recently diagnosed. '>\n      <hr>\n  </div>\n  <div itemscope itemtype='http://schema.org/DiscussionForumPosting'>\n      <div class='creator'>\n        <span>\n          <a href='/u/Bexby'><b itemprop='author'>Bexby</b></a>\n          \n          <time datetime='2019-02-22T11:01:20Z' itemprop='datePublished'>\n            2019-02-22 11:01:20 UTC\n          </time>\n        </span>\n        <span itemprop='position'>#40</span>\n      </div>\n      <div class='post' itemprop='articleBody'>\n        <p>Hi there.  Yep,  my voice gets quiet sometimes but the main problem I have is that my speech speeds up and I can slur my words together - I have to really concentrate on that.<br>\nWeirdly, I have found that taking an Omeprazole (a form of antacid from GP) every morning helps with the quality of my voice, I have no idea how this works and maybe particular to me but I notice if I don’t take it.<br>\nB</p>\n      </div>\n      <meta itemprop='interactionCount' content='UserLikes:0'>\n      <meta itemprop='interactionCount' content='UserComments:0'>\n      <meta itemprop='headline' content='Hello, im a tad scared. 35 and recently diagnosed. '>\n      <hr>\n  </div>\n\n  <div role='navigation' itemscope itemtype='http://schema.org/SiteNavigationElement'>\n      <span itemprop='name'><a rel=\"prev\" itemprop=\"url\" href=\"/t/hello-im-a-tad-scared-35-and-recently-diagnosed/14060\">← previous page</a></span>\n      <span itemprop='name'><b><a rel=\"next\" itemprop=\"url\" href=\"/t/hello-im-a-tad-scared-35-and-recently-diagnosed/14060?page=3\">next page →</a></b></span>\n  </div>\n\n\n\n\n\n    </div>\n    <footer class=\"container\">\n      <nav class='crawler-nav' itemscope itemtype='http://schema.org/SiteNavigationElement'>\n        <a href='/'>Home</a>\n        <a href=\"/categories\">Categories</a>\n        <a href=\"/guidelines\">FAQ/Guidelines</a>\n        <a href=\"/tos\">Terms of Service</a>\n        <a href=\"/privacy\">Privacy Policy</a>\n      </nav>\n      <p class='powered-by-link'>Powered by <a href=\"https://www.discourse.org\">Discourse</a>, best viewed with JavaScript enabled</p>\n    </footer>\n    \n  </body>\n  \n</html>\n",
  "url": "https://forum.parkinsons.org.uk/t/hello-im-a-tad-scared-35-and-recently-diagnosed/14060?page=2"
}