{
  "contentId": "b88805a0-8864-11e9-8f96-97f71b5221d6",
  "html": "<!DOCTYPE html>\n<html lang=\"en\">\n  <head>\n    <meta charset=\"utf-8\">\n    <title>Insomnia - Our forum is changing - Parkinson&#39;s UK Forum</title>\n    <meta name=\"description\" content=\"Continuing the discussion from Intolerance to levodopa:\">\n    <meta name=\"author\" content=\"\">\n<meta name=\"generator\" content=\"Discourse 2.2.5 - https://github.com/discourse/discourse version c294ff3609f988dcafb742e91606d60ca13b794d\">\n<link rel=\"icon\" type=\"image/png\" href=\"https://forum.parkinsons.org.uk/uploads/db7928/original/2X/3/311fc84f89f49f38601a2f16b295b6f03d3ce5dd.jpg\">\n<link rel=\"apple-touch-icon\" type=\"image/png\" href=\"https://forum.parkinsons.org.uk/uploads/db7928/original/2X/3/311fc84f89f49f38601a2f16b295b6f03d3ce5dd.jpg\">\n<meta name=\"theme-color\" content=\"#ffffff\">\n<meta name=\"viewport\" content=\"width=device-width, minimum-scale=1.0, maximum-scale=1.0, user-scalable=yes\">\n<link rel=\"canonical\" href=\"https://forum.parkinsons.org.uk/t/insomnia/12845?page=194\" />\n<script type=\"application/ld+json\">{\"@context\":\"http://schema.org\",\"@type\":\"WebSite\",\"url\":\"https://forum.parkinsons.org.uk\",\"potentialAction\":{\"@type\":\"SearchAction\",\"target\":\"https://forum.parkinsons.org.uk/search?q={search_term_string}\",\"query-input\":\"required name=search_term_string\"}}</script>\n<link rel=\"search\" type=\"application/opensearchdescription+xml\" href=\"https://forum.parkinsons.org.uk/opensearch.xml\" title=\"Parkinson&#39;s UK Forum Search\">\n\n      <link href=\"/stylesheets/desktop_f99246ae801b083d3e4cca979d0dade8615b39ac.css?__ws=forum.parkinsons.org.uk\" media=\"all\" rel=\"stylesheet\" data-target=\"desktop\" data-theme-id=\"12\"/>\n      <link href=\"/stylesheets/desktop_theme_12_5d27531cf43f9df0c03a6a6ec3109dd05f9dfc49.css?__ws=forum.parkinsons.org.uk\" media=\"all\" rel=\"stylesheet\" data-target=\"desktop_theme\" data-theme-id=\"12\"/>\n    <link href=\"https://fonts.googleapis.com/css?family=Open+Sans\" rel=\"stylesheet\">\n\n    <meta id=\"data-ga-universal-analytics\" data-tracking-code=\"UA-4855628-1\" data-json=\"{&quot;cookieDomain&quot;:&quot;auto&quot;}\" data-auto-link-domains=\"\">\n\n<link rel='preload' href='/assets/google-universal-analytics-f35b4da49411e6f5559073523aab983da483976a3954c79c756f8579f6fbd6ef.js' as='script'/>\n<script src='/assets/google-universal-analytics-f35b4da49411e6f5559073523aab983da483976a3954c79c756f8579f6fbd6ef.js'></script>\n\n      <link rel=\"alternate\" type=\"application/rss+xml\" title=\"RSS feed of &#39;Insomnia&#39;\" href=\"https://forum.parkinsons.org.uk/t/insomnia/12845.rss\" />\n  <meta property=\"og:site_name\" content=\"Parkinson&#39;s UK Forum\" />\n<meta name=\"twitter:card\" content=\"summary\" />\n<meta name=\"twitter:image\" content=\"https://forum.parkinsons.org.uk/uploads/db7928/original/2X/3/311fc84f89f49f38601a2f16b295b6f03d3ce5dd.jpg\" />\n<meta property=\"og:image\" content=\"https://forum.parkinsons.org.uk/uploads/db7928/original/2X/3/311fc84f89f49f38601a2f16b295b6f03d3ce5dd.jpg\" />\n<meta property=\"og:url\" content=\"https://forum.parkinsons.org.uk/t/insomnia/12845?page=194\" />\n<meta name=\"twitter:url\" content=\"https://forum.parkinsons.org.uk/t/insomnia/12845?page=194\" />\n<meta property=\"og:title\" content=\"Insomnia\" />\n<meta name=\"twitter:title\" content=\"Insomnia\" />\n<meta property=\"og:description\" content=\"Hi babs, Tommy, Keith, Mrs T, Roy and Lesley, Laney and sheffy still on ceiling after last night even mam caught the emotion when crowd sang never walk alone to all players she reckon never seen so many grown men cry just put few words on creative corner (our dream) if your interested hope everyone is as happy as I feel I know I go on about my beloved reds I can, t explain how my passion keeps me going just that it does along with my new family on here  Pete and mam YNWA\" />\n<meta name=\"twitter:description\" content=\"Hi babs, Tommy, Keith, Mrs T, Roy and Lesley, Laney and sheffy still on ceiling after last night even mam caught the emotion when crowd sang never walk alone to all players she reckon never seen so many grown men cry just put few words on creative corner (our dream) if your interested hope everyone is as happy as I feel I know I go on about my beloved reds I can, t explain how my passion keeps me going just that it does along with my new family on here  Pete and mam YNWA\" />\n<meta name=\"twitter:label1\" value=\"Reading time\" />\n<meta name=\"twitter:data1\" value=\"381 mins \uD83D\uDD51\" />\n<meta name=\"twitter:label2\" value=\"Likes\" />\n<meta name=\"twitter:data2\" value=\"80 ❤\" />\n<meta property=\"article:published_time\" content=\"2019-05-08T07:18:26+00:00\" />\n<meta property=\"og:ignore_canonical\" content=\"true\" />\n\n      <link rel=\"prev\" href=\"/t/insomnia/12845?page=193\">\n      <link rel=\"next\" href=\"/t/insomnia/12845?page=195\">\n\n\n    \n  </head>\n  <body class=\"crawler\">\n    <header role=\"banner\">\n    <div class=\"region region-header\">\n        <div class=\"region-header-wrapper\">\n            <div id=\"block-parkinsons-d8-branding\" class=\"block block-system block-system-branding-block\">\n                <a href=\"/\" title=\"Home\" rel=\"home\" class=\"site-logo\">\n                    <img src=\"https://forum.parkinsons.org.uk/uploads/db7928/original/2X/8/862bb7d172e7d127e7f3e147ec43594aa62ac945.png\" alt=\"Parkinson's UK. Change Attitudes. Find a cure. Join us.\">\n                </a>\n            </div>\n            <div id=\"block-helpline\" class=\"block block-block-content block-block-content871cd5af-b938-4947-9dc0-d5c211d08fe3 style-phone\">\n                <div class=\"field field--name-field-link field--type-link field--label-hidden field__item\"><a href=\"tel:+448088000303\">Helpline 0808 800 0303</a></div>\n            </div>\n            <div id=\"block-shop\" class=\"block block-block-content block-block-content6fba5ae5-7797-49cd-8367-f321d8111cd6 style-regular\">\n                <div class=\"field field--name-field-link field--type-link field--label-hidden field__item\"><a href=\"https://shop.parkinsons.org.uk\">Shop</a></div>\n            </div>\n        </div>\n    </div>\n</header>\n\n\n<script src=\"/theme-javascripts/b7e9763fcb584fc8265c56a9f557cd6d2e1e8ed8.js?__ws=forum.parkinsons.org.uk\"></script>\n    <header>\n      <a href=\"/\">\n          <img src=\"https://forum.parkinsons.org.uk/uploads/db7928/original/2X/8/862bb7d172e7d127e7f3e147ec43594aa62ac945.png\" alt=\"Parkinson&#39;s UK Forum\" id=\"site-logo\" style=\"max-width: 150px;\">\n      </a>\n    </header>\n    <div id=\"main-outlet\" class=\"wrap\">\n      <h1>\n  <a href=\"/t/insomnia/12845\">Insomnia</a>\n</h1>\n\n<div id='breadcrumbs'>\n    <div id=\"breadcrumb-0\" itemscope itemtype=\"http://data-vocabulary.org/Breadcrumb\"\n        itemref=\"breadcrumb-1\"\n      >\n      <a href=\"/c/about-the-forum\" itemprop=\"url\">\n        <span itemprop=\"title\">About the forum</span>\n      </a>\n    </div>\n    <div id=\"breadcrumb-1\" itemscope itemtype=\"http://data-vocabulary.org/Breadcrumb\"\n>\n      <a href=\"/c/about-the-forum/our-forum-is-changing\" itemprop=\"url\">\n        <span itemprop=\"title\">Our forum is changing</span>\n      </a>\n    </div>\n</div>\n\n\n\n\n\n<hr>\n\n\n  <div itemscope itemtype='http://schema.org/DiscussionForumPosting'>\n      <div class='creator'>\n        <span>\n          <a href='/u/peter_corcoran'><b itemprop='author'>peter_corcoran</b></a>\n          \n          <time datetime='2019-05-08T07:18:26Z' itemprop='datePublished'>\n            2019-05-08 07:18:26 UTC\n          </time>\n        </span>\n        <span itemprop='position'>#3895</span>\n      </div>\n      <div class='post' itemprop='articleBody'>\n        <p>Hi babs, Tommy, Keith, Mrs T, Roy and Lesley, Laney and sheffy still on ceiling after last night even mam caught the emotion when crowd sang never walk alone to all players she reckon never seen so many grown men cry just put few words on creative corner (our dream) if your interested hope everyone is as happy as I feel I know I go on about my beloved reds I can, t explain how my passion keeps me going just that it does along with my new family on here<br>\nPete and mam YNWA</p>\n      </div>\n      <meta itemprop='interactionCount' content='UserLikes:0'>\n      <meta itemprop='interactionCount' content='UserComments:1'>\n      <meta itemprop='headline' content='Insomnia'>\n      <hr>\n  </div>\n  <div itemscope itemtype='http://schema.org/DiscussionForumPosting'>\n      <div class='creator'>\n        <span>\n          <a href='/u/T1'><b itemprop='author'>T1</b></a>\n          \n          <time datetime='2019-05-08T10:27:43Z' itemprop='datePublished'>\n            2019-05-08 10:27:43 UTC\n          </time>\n        </span>\n        <span itemprop='position'>#3896</span>\n      </div>\n      <div class='post' itemprop='articleBody'>\n        <p>Morning Peter and mam<br>\nI didn’t listen to the game last night as I am ashamed to say that I had written lfc off.<br>\nCould not believe it when I got up about 3am this morning, thought I was dreaming.<br>\nHi Babswood was at the G. P yesterday and he said that I’ve to refuse to be discharged by my original neurologist in July but agreed that I should not see the second one in December as I have totally lost trust in him, he also agreed that there is a conflict of interest and said my letter was harsh but fair.<br>\nAnyway I may have lost the battle but not the war, inspired by lfc.<br>\nYNWA.<br>\nTommy <img src=\"https://forum.parkinsons.org.uk/images/emoji/twitter/pill.png?v=6\" title=\":pill:\" class=\"emoji\" alt=\":pill:\"><img src=\"https://forum.parkinsons.org.uk/images/emoji/twitter/pill.png?v=6\" title=\":pill:\" class=\"emoji\" alt=\":pill:\"><img src=\"https://forum.parkinsons.org.uk/images/emoji/twitter/pill.png?v=6\" title=\":pill:\" class=\"emoji\" alt=\":pill:\">™</p>\n      </div>\n      <meta itemprop='interactionCount' content='UserLikes:0'>\n      <meta itemprop='interactionCount' content='UserComments:1'>\n      <meta itemprop='headline' content='Insomnia'>\n      <hr>\n  </div>\n  <div itemscope itemtype='http://schema.org/DiscussionForumPosting'>\n      <div class='creator'>\n        <span>\n          <a href='/u/peter_corcoran'><b itemprop='author'>peter_corcoran</b></a>\n          \n          <time datetime='2019-05-08T12:37:29Z' itemprop='datePublished'>\n            2019-05-08 12:37:29 UTC\n          </time>\n        </span>\n        <span itemprop='position'>#3897</span>\n      </div>\n      <div class='post' itemprop='articleBody'>\n        <p>I, m glad your gp is onside with you hopefully you can see a consultant who can at least be sympathetic to your problems I am however disappointed you never kept the faith lol told you it, s a special club even Lineker refused to apologise for klopp swearing he said after watching that he earned right to say it suppose too much to ask for Brighton to help us out<br>\nPete and mam</p>\n      </div>\n      <meta itemprop='interactionCount' content='UserLikes:0'>\n      <meta itemprop='interactionCount' content='UserComments:2'>\n      <meta itemprop='headline' content='Insomnia'>\n      <hr>\n  </div>\n  <div itemscope itemtype='http://schema.org/DiscussionForumPosting'>\n      <div class='creator'>\n        <span>\n          <a href='/u/babswood'><b itemprop='author'>babswood</b></a>\n          \n          <time datetime='2019-05-08T16:17:27Z' itemprop='datePublished'>\n            2019-05-08 16:17:27 UTC\n          </time>\n        </span>\n        <span itemprop='position'>#3898</span>\n      </div>\n      <div class='post' itemprop='articleBody'>\n        <p>Hi all yes my break away was brilliant.</p>\n<p>It feels just like winter here so cold.</p>\n<p>I’m away to have a look at your poem Peter</p>\n<p>Babsx x x</p>\n      </div>\n      <meta itemprop='interactionCount' content='UserLikes:0'>\n      <meta itemprop='interactionCount' content='UserComments:1'>\n      <meta itemprop='headline' content='Insomnia'>\n      <hr>\n  </div>\n  <div itemscope itemtype='http://schema.org/DiscussionForumPosting'>\n      <div class='creator'>\n        <span>\n          <a href='/u/peter_corcoran'><b itemprop='author'>peter_corcoran</b></a>\n          \n          <time datetime='2019-05-08T16:39:14Z' itemprop='datePublished'>\n            2019-05-08 16:39:14 UTC\n          </time>\n        </span>\n        <span itemprop='position'>#3899</span>\n      </div>\n      <div class='post' itemprop='articleBody'>\n        <p>Hope you and Phil are well mam sends her love our window cleaner give me stick yesterday before the game said if we knock barcalona out I, d shave beard off mam decided she wants me to keep it now good result as hate shaving glad you enjoyed yourself hopefully summer is back next week<br>\nPete and mam</p>\n      </div>\n      <meta itemprop='interactionCount' content='UserLikes:0'>\n      <meta itemprop='interactionCount' content='UserComments:0'>\n      <meta itemprop='headline' content='Insomnia'>\n      <hr>\n  </div>\n  <div itemscope itemtype='http://schema.org/DiscussionForumPosting'>\n      <div class='creator'>\n        <span>\n          <a href='/u/T1'><b itemprop='author'>T1</b></a>\n          \n          <time datetime='2019-05-08T17:58:23Z' itemprop='datePublished'>\n            2019-05-08 17:58:23 UTC\n          </time>\n        </span>\n        <span itemprop='position'>#3900</span>\n      </div>\n      <div class='post' itemprop='articleBody'>\n        <p>I lose my faith easily Peter!<br>\nJust ask my neuro.!<br>\nTommy <img src=\"https://forum.parkinsons.org.uk/images/emoji/twitter/pill.png?v=6\" title=\":pill:\" class=\"emoji\" alt=\":pill:\"><img src=\"https://forum.parkinsons.org.uk/images/emoji/twitter/pill.png?v=6\" title=\":pill:\" class=\"emoji\" alt=\":pill:\"><img src=\"https://forum.parkinsons.org.uk/images/emoji/twitter/pill.png?v=6\" title=\":pill:\" class=\"emoji\" alt=\":pill:\">™:pray:<img src=\"https://forum.parkinsons.org.uk/images/emoji/twitter/pray.png?v=6\" title=\":pray:\" class=\"emoji\" alt=\":pray:\"></p>\n      </div>\n      <meta itemprop='interactionCount' content='UserLikes:0'>\n      <meta itemprop='interactionCount' content='UserComments:2'>\n      <meta itemprop='headline' content='Insomnia'>\n      <hr>\n  </div>\n  <div itemscope itemtype='http://schema.org/DiscussionForumPosting'>\n      <div class='creator'>\n        <span>\n          <a href='/u/peter_corcoran'><b itemprop='author'>peter_corcoran</b></a>\n          \n          <time datetime='2019-05-10T06:32:08Z' itemprop='datePublished'>\n            2019-05-10 06:32:08 UTC\n          </time>\n        </span>\n        <span itemprop='position'>#3901</span>\n      </div>\n      <div class='post' itemprop='articleBody'>\n        <p>Hi gang lovely morning here just off to shower before breakfast and then off to do some shopping my fav chore lol still someone has to do it hope all is well with you all will catch you all later regards to you all from mam<br>\nPete and mam</p>\n      </div>\n      <meta itemprop='interactionCount' content='UserLikes:0'>\n      <meta itemprop='interactionCount' content='UserComments:1'>\n      <meta itemprop='headline' content='Insomnia'>\n      <hr>\n  </div>\n  <div itemscope itemtype='http://schema.org/DiscussionForumPosting'>\n      <div class='creator'>\n        <span>\n          <a href='/u/babswood'><b itemprop='author'>babswood</b></a>\n          \n          <time datetime='2019-05-10T16:14:03Z' itemprop='datePublished'>\n            2019-05-10 16:14:03 UTC\n          </time>\n        </span>\n        <span itemprop='position'>#3902</span>\n      </div>\n      <div class='post' itemprop='articleBody'>\n        <p>Hi all hope that you are all doing well.<br>\nI am going to start physio for my hand next week and als go to the hosp to get my foot checked out so keep fingers crossed for me as I keep getting the feeling that something is wrong with my foot… Babs x x x</p>\n      </div>\n      <meta itemprop='interactionCount' content='UserLikes:0'>\n      <meta itemprop='interactionCount' content='UserComments:2'>\n      <meta itemprop='headline' content='Insomnia'>\n      <hr>\n  </div>\n  <div itemscope itemtype='http://schema.org/DiscussionForumPosting'>\n      <div class='creator'>\n        <span>\n          <a href='/u/peter_corcoran'><b itemprop='author'>peter_corcoran</b></a>\n          \n          <time datetime='2019-05-10T18:40:04Z' itemprop='datePublished'>\n            2019-05-10 18:40:04 UTC\n          </time>\n        </span>\n        <span itemprop='position'>#3903</span>\n      </div>\n      <div class='post' itemprop='articleBody'>\n        <p>Hi babs keep positive I, m sure you’ll be OK let us know how you get on mam sends her regards to you and Phil how is Phil just realised I never ask after him I do apologise hope Brighton can do us a good turn by taking a point off man City just going to read papers lost another of my idols Freddie star saw him in torquay when he was at his peak best impersonation of elvis I, ve seen or heard you should read his autobiography 5star read<br>\nPete and mam YNWA</p>\n      </div>\n      <meta itemprop='interactionCount' content='UserLikes:0'>\n      <meta itemprop='interactionCount' content='UserComments:0'>\n      <meta itemprop='headline' content='Insomnia'>\n      <hr>\n  </div>\n  <div itemscope itemtype='http://schema.org/DiscussionForumPosting'>\n      <div class='creator'>\n        <span>\n          <a href='/u/peter_corcoran'><b itemprop='author'>peter_corcoran</b></a>\n          \n          <time datetime='2019-05-11T07:41:13Z' itemprop='datePublished'>\n            2019-05-11 07:41:13 UTC\n          </time>\n        </span>\n        <span itemprop='position'>#3904</span>\n      </div>\n      <div class='post' itemprop='articleBody'>\n        <p>Hi morning everyone hope you are all well, and looking forward to the weekend looks like another nice day here mam off to town later with her sister to spend all my inheritance lol quiet day for me hopefully saving myself for tomorrow though just put 2nd load of washing out catch youall later<br>\nPete and mam</p>\n      </div>\n      <meta itemprop='interactionCount' content='UserLikes:0'>\n      <meta itemprop='interactionCount' content='UserComments:0'>\n      <meta itemprop='headline' content='Insomnia'>\n      <hr>\n  </div>\n  <div itemscope itemtype='http://schema.org/DiscussionForumPosting'>\n      <div class='creator'>\n        <span>\n          <a href='/u/peter_corcoran'><b itemprop='author'>peter_corcoran</b></a>\n          \n          <time datetime='2019-05-12T07:27:32Z' itemprop='datePublished'>\n            2019-05-12 07:27:32 UTC\n          </time>\n        </span>\n        <span itemprop='position'>#3905</span>\n      </div>\n      <div class='post' itemprop='articleBody'>\n        <p>Morning Tommy, babs, Keith, Mrs T, Roy and Lesley, Laney and sheffy another nice morning here hope you are all well well it, s d-day last day for league we need to beat wolves and hope Brighton Don, t lose  to man City will be missing as usual from 3pm till 5pm fingers crossed we are both ok today is day beard may go unless I get extention to champions league final lol<br>\nPete and mam YNWA</p>\n      </div>\n      <meta itemprop='interactionCount' content='UserLikes:0'>\n      <meta itemprop='interactionCount' content='UserComments:1'>\n      <meta itemprop='headline' content='Insomnia'>\n      <hr>\n  </div>\n  <div itemscope itemtype='http://schema.org/DiscussionForumPosting'>\n      <div class='creator'>\n        <span>\n          <a href='/u/babswood'><b itemprop='author'>babswood</b></a>\n          \n          <time datetime='2019-05-13T13:07:50Z' itemprop='datePublished'>\n            2019-05-13 13:07:50 UTC\n          </time>\n        </span>\n        <span itemprop='position'>#3906</span>\n      </div>\n      <div class='post' itemprop='articleBody'>\n        <p>Well Good Day to Peter  and Mam, Roy and Lesley,  Laney, Tommy hope that you are all enjoying this weather.</p>\n<p>Tommy I hope you are doing OK. When do you go back to see your doctor. Say hello to Sue from me.</p>\n<p>Roy  I was just wondering if Lesley found the right house to buy.<br>\nOr are you still looking.</p>\n<p>Babs x x x</p>\n      </div>\n      <meta itemprop='interactionCount' content='UserLikes:0'>\n      <meta itemprop='interactionCount' content='UserComments:2'>\n      <meta itemprop='headline' content='Insomnia'>\n      <hr>\n  </div>\n  <div itemscope itemtype='http://schema.org/DiscussionForumPosting'>\n      <div class='creator'>\n        <span>\n          <a href='/u/T1'><b itemprop='author'>T1</b></a>\n          \n          <time datetime='2019-05-13T15:10:27Z' itemprop='datePublished'>\n            2019-05-13 15:10:27 UTC\n          </time>\n        </span>\n        <span itemprop='position'>#3907</span>\n      </div>\n      <div class='post' itemprop='articleBody'>\n        <p>Hi there musketeers<br>\nHope you are all shiny happy people.<br>\nHi Babswood and Phil, sue says hello back.<br>\nI’m supposed to have an appointment in July buuut however since I have sacked the neurologist because he was worse than the Brighton manager, who knows? Or cares for that matter.<br>\nF. N. D. = f*#*in, no diagnosis…<br>\nTommy <img src=\"https://forum.parkinsons.org.uk/images/emoji/twitter/pill.png?v=6\" title=\":pill:\" class=\"emoji\" alt=\":pill:\"><img src=\"https://forum.parkinsons.org.uk/images/emoji/twitter/pill.png?v=6\" title=\":pill:\" class=\"emoji\" alt=\":pill:\"><img src=\"https://forum.parkinsons.org.uk/images/emoji/twitter/pill.png?v=6\" title=\":pill:\" class=\"emoji\" alt=\":pill:\">™</p>\n      </div>\n      <meta itemprop='interactionCount' content='UserLikes:0'>\n      <meta itemprop='interactionCount' content='UserComments:1'>\n      <meta itemprop='headline' content='Insomnia'>\n      <hr>\n  </div>\n  <div itemscope itemtype='http://schema.org/DiscussionForumPosting'>\n      <div class='creator'>\n        <span>\n          <a href='/u/babswood'><b itemprop='author'>babswood</b></a>\n          \n          <time datetime='2019-05-13T15:38:10Z' itemprop='datePublished'>\n            2019-05-13 15:38:10 UTC\n          </time>\n        </span>\n        <span itemprop='position'>#3908</span>\n      </div>\n      <div class='post' itemprop='articleBody'>\n        <p>Hi Tommy that’s shocking. At least you have kept your sense of humour.</p>\n<p>I hope that things are not too bad for you just now.</p>\n<p>Babsx x x</p>\n      </div>\n      <meta itemprop='interactionCount' content='UserLikes:0'>\n      <meta itemprop='interactionCount' content='UserComments:0'>\n      <meta itemprop='headline' content='Insomnia'>\n      <hr>\n  </div>\n  <div itemscope itemtype='http://schema.org/DiscussionForumPosting'>\n      <div class='creator'>\n        <span>\n          <a href='/u/Roy_S'><b itemprop='author'>Roy_S</b></a>\n          \n          <time datetime='2019-05-13T16:44:18Z' itemprop='datePublished'>\n            2019-05-13 16:44:18 UTC\n          </time>\n        </span>\n        <span itemprop='position'>#3909</span>\n      </div>\n      <div class='post' itemprop='articleBody'>\n        <p>Afternoon all, hope everyone’s well.</p>\n<aside class=\"quote no-group\" data-post=\"3906\" data-topic=\"12845\">\n<div class=\"title\">\n<div class=\"quote-controls\"></div>\n<img alt width=\"20\" height=\"20\" src=\"https://forum.parkinsons.org.uk/user_avatar/forum.parkinsons.org.uk/babswood/40/2314_2.png\" class=\"avatar\"> babswood:</div>\n<blockquote>\n<p>Roy I was just wondering if Lesley found the right house to buy.<br>\nOr are you still looking.</p>\n</blockquote>\n</aside>\n<p>We’re still looking Babs, there hasn’t been much coming on but the agent’s been onto Les today with a ‘possible’ that we’re hoping to view on Wednesday, it’s a 4 bed detached bungalow in an area we like at a realistic price so fingers crossed.</p>\n      </div>\n      <meta itemprop='interactionCount' content='UserLikes:0'>\n      <meta itemprop='interactionCount' content='UserComments:1'>\n      <meta itemprop='headline' content='Insomnia'>\n      <hr>\n  </div>\n  <div itemscope itemtype='http://schema.org/DiscussionForumPosting'>\n      <div class='creator'>\n        <span>\n          <a href='/u/peter_corcoran'><b itemprop='author'>peter_corcoran</b></a>\n          \n          <time datetime='2019-05-13T16:49:46Z' itemprop='datePublished'>\n            2019-05-13 16:49:46 UTC\n          </time>\n        </span>\n        <span itemprop='position'>#3910</span>\n      </div>\n      <div class='post' itemprop='articleBody'>\n        <p>Good luck hope it, s what you are after been off line fault on line but bt fixed in under 8hrs well pleased make most of the weather as I bought new shorts so expect rain<br>\nPete and mam</p>\n      </div>\n      <meta itemprop='interactionCount' content='UserLikes:0'>\n      <meta itemprop='interactionCount' content='UserComments:1'>\n      <meta itemprop='headline' content='Insomnia'>\n      <hr>\n  </div>\n  <div itemscope itemtype='http://schema.org/DiscussionForumPosting'>\n      <div class='creator'>\n        <span>\n          <a href='/u/Roy_S'><b itemprop='author'>Roy_S</b></a>\n          \n          <time datetime='2019-05-13T17:12:58Z' itemprop='datePublished'>\n            2019-05-13 17:12:58 UTC\n          </time>\n        </span>\n        <span itemprop='position'>#3911</span>\n      </div>\n      <div class='post' itemprop='articleBody'>\n        <aside class=\"quote no-group\" data-post=\"3910\" data-topic=\"12845\">\n<div class=\"title\">\n<div class=\"quote-controls\"></div>\n<img alt width=\"20\" height=\"20\" src=\"https://forum.parkinsons.org.uk/user_avatar/forum.parkinsons.org.uk/peter_corcoran/40/2411_2.png\" class=\"avatar\"> peter_corcoran:</div>\n<blockquote>\n<p>Good luck hope it, s what you are after</p>\n</blockquote>\n</aside>\n<p>Thanks Peter. We’re neither of us getting any younger &amp; with mobility issues in the future it makes more sense to look at bungalows but most we’ve seen so far have been quite small, this one sounds quite substantial.</p>\n      </div>\n      <meta itemprop='interactionCount' content='UserLikes:0'>\n      <meta itemprop='interactionCount' content='UserComments:2'>\n      <meta itemprop='headline' content='Insomnia'>\n      <hr>\n  </div>\n  <div itemscope itemtype='http://schema.org/DiscussionForumPosting'>\n      <div class='creator'>\n        <span>\n          <a href='/u/peter_corcoran'><b itemprop='author'>peter_corcoran</b></a>\n          \n          <time datetime='2019-05-14T06:27:46Z' itemprop='datePublished'>\n            2019-05-14 06:27:46 UTC\n          </time>\n        </span>\n        <span itemprop='position'>#3912</span>\n      </div>\n      <div class='post' itemprop='articleBody'>\n        <p>Just to let you all know I, m not too down<br>\nAlmost<br>\nOh well another season gone<br>\nAnd still no league crown<br>\nBut boy we got close<br>\nSo we won’t get down</p>\n<p>The records we broke<br>\nThere for all to see<br>\nThis team is special<br>\nTo all reds like me</p>\n<p>Wow they can play<br>\nAnd match all the rest<br>\nIt won’t be too long<br>\nBefore we, re the best</p>\n<p>We got really close<br>\nAnd it’s hard to take<br>\nJust two more points<br>\nOut of what was at stake</p>\n<p>We will bounce back<br>\nWe know we must<br>\nBecause in Jurgen our manager<br>\nWe always will trust</p>\n<p>Hope everything is OK with you all sorry to bore you to death before breakfast<br>\nPete and mam YNWA</p>\n      </div>\n      <meta itemprop='interactionCount' content='UserLikes:0'>\n      <meta itemprop='interactionCount' content='UserComments:0'>\n      <meta itemprop='headline' content='Insomnia'>\n      <hr>\n  </div>\n  <div itemscope itemtype='http://schema.org/DiscussionForumPosting'>\n      <div class='creator'>\n        <span>\n          <a href='/u/peter_corcoran'><b itemprop='author'>peter_corcoran</b></a>\n          \n          <time datetime='2019-05-14T18:52:14Z' itemprop='datePublished'>\n            2019-05-14 18:52:14 UTC\n          </time>\n        </span>\n        <span itemprop='position'>#3913</span>\n      </div>\n      <div class='post' itemprop='articleBody'>\n        <p>Hi Roy, Lesley and rest of gang do i need to change my aftershave nobody posting today just wondering how was house hunting? Hope it went well have to tell you that mam been on new inhalers for 2 days now my mate called today and noticed how much better her breathing is she finally admitted I was right and she wasn’t getting enough out of previous inhalers this could have been sorted months ago<br>\nPete and mam</p>\n      </div>\n      <meta itemprop='interactionCount' content='UserLikes:0'>\n      <meta itemprop='interactionCount' content='UserComments:2'>\n      <meta itemprop='headline' content='Insomnia'>\n      <hr>\n  </div>\n  <div itemscope itemtype='http://schema.org/DiscussionForumPosting'>\n      <div class='creator'>\n        <span>\n          <a href='/u/Roy_S'><b itemprop='author'>Roy_S</b></a>\n          \n          <time datetime='2019-05-14T19:49:19Z' itemprop='datePublished'>\n            2019-05-14 19:49:19 UTC\n          </time>\n        </span>\n        <span itemprop='position'>#3914</span>\n      </div>\n      <div class='post' itemprop='articleBody'>\n        <aside class=\"quote no-group\" data-post=\"3913\" data-topic=\"12845\">\n<div class=\"title\">\n<div class=\"quote-controls\"></div>\n<img alt width=\"20\" height=\"20\" src=\"https://forum.parkinsons.org.uk/user_avatar/forum.parkinsons.org.uk/peter_corcoran/40/2411_2.png\" class=\"avatar\"> peter_corcoran:</div>\n<blockquote>\n<p>Hi Roy, Lesley and rest of gang do i need to change my aftershave nobody posting today just wondering how was house hunting?</p>\n</blockquote>\n</aside>\n<p>Hello Peter, hello everyone, what a lovely day!</p>\n<p>I’m sure your aftershave is fine Peter (that old Brut was good enough for Del boy). We’re viewing a property tomorrow but we’ve already had a look on Google streetview &amp; we don’t fancy it.</p>\n      </div>\n      <meta itemprop='interactionCount' content='UserLikes:0'>\n      <meta itemprop='interactionCount' content='UserComments:1'>\n      <meta itemprop='headline' content='Insomnia'>\n      <hr>\n  </div>\n\n  <div role='navigation' itemscope itemtype='http://schema.org/SiteNavigationElement'>\n      <span itemprop='name'><a rel=\"prev\" itemprop=\"url\" href=\"/t/insomnia/12845?page=193\">← previous page</a></span>\n      <span itemprop='name'><b><a rel=\"next\" itemprop=\"url\" href=\"/t/insomnia/12845?page=195\">next page →</a></b></span>\n  </div>\n\n\n\n\n\n    </div>\n    <footer class=\"container\">\n      <nav class='crawler-nav' itemscope itemtype='http://schema.org/SiteNavigationElement'>\n        <a href='/'>Home</a>\n        <a href=\"/categories\">Categories</a>\n        <a href=\"/guidelines\">FAQ/Guidelines</a>\n        <a href=\"/tos\">Terms of Service</a>\n        <a href=\"/privacy\">Privacy Policy</a>\n      </nav>\n      <p class='powered-by-link'>Powered by <a href=\"https://www.discourse.org\">Discourse</a>, best viewed with JavaScript enabled</p>\n    </footer>\n    \n  </body>\n  \n</html>\n",
  "url": "https://forum.parkinsons.org.uk/t/insomnia/12845?page=194"
}