{
  "contentId": "9024b530-8865-11e9-8f96-97f71b5221d6",
  "html": "<!DOCTYPE html>\n<html lang=\"en\">\n  <head>\n    <meta charset=\"utf-8\">\n    <title>Foam/cusion - Daily life - Parkinson&#39;s UK Forum</title>\n    <meta name=\"description\" content=\"Hello \nHubby slips to the right hand side when sitting so I am looking for some sort of support that may help.  He has a new chair we thought would help but not enough support.  I have in my minds eye of a firm type cush&amp;hellip;\">\n    <meta name=\"author\" content=\"\">\n<meta name=\"generator\" content=\"Discourse 2.2.5 - https://github.com/discourse/discourse version c294ff3609f988dcafb742e91606d60ca13b794d\">\n<link rel=\"icon\" type=\"image/png\" href=\"https://forum.parkinsons.org.uk/uploads/db7928/original/2X/3/311fc84f89f49f38601a2f16b295b6f03d3ce5dd.jpg\">\n<link rel=\"apple-touch-icon\" type=\"image/png\" href=\"https://forum.parkinsons.org.uk/uploads/db7928/original/2X/3/311fc84f89f49f38601a2f16b295b6f03d3ce5dd.jpg\">\n<meta name=\"theme-color\" content=\"#ffffff\">\n<meta name=\"viewport\" content=\"width=device-width, minimum-scale=1.0, maximum-scale=1.0, user-scalable=yes\">\n<link rel=\"canonical\" href=\"https://forum.parkinsons.org.uk/t/foam-cusion/18932\" />\n<script type=\"application/ld+json\">{\"@context\":\"http://schema.org\",\"@type\":\"WebSite\",\"url\":\"https://forum.parkinsons.org.uk\",\"potentialAction\":{\"@type\":\"SearchAction\",\"target\":\"https://forum.parkinsons.org.uk/search?q={search_term_string}\",\"query-input\":\"required name=search_term_string\"}}</script>\n<link rel=\"search\" type=\"application/opensearchdescription+xml\" href=\"https://forum.parkinsons.org.uk/opensearch.xml\" title=\"Parkinson&#39;s UK Forum Search\">\n\n      <link href=\"/stylesheets/desktop_f99246ae801b083d3e4cca979d0dade8615b39ac.css?__ws=forum.parkinsons.org.uk\" media=\"all\" rel=\"stylesheet\" data-target=\"desktop\" data-theme-id=\"12\"/>\n      <link href=\"/stylesheets/desktop_theme_12_5d27531cf43f9df0c03a6a6ec3109dd05f9dfc49.css?__ws=forum.parkinsons.org.uk\" media=\"all\" rel=\"stylesheet\" data-target=\"desktop_theme\" data-theme-id=\"12\"/>\n    <link href=\"https://fonts.googleapis.com/css?family=Open+Sans\" rel=\"stylesheet\">\n\n    <meta id=\"data-ga-universal-analytics\" data-tracking-code=\"UA-4855628-1\" data-json=\"{&quot;cookieDomain&quot;:&quot;auto&quot;}\" data-auto-link-domains=\"\">\n\n<link rel='preload' href='/assets/google-universal-analytics-f35b4da49411e6f5559073523aab983da483976a3954c79c756f8579f6fbd6ef.js' as='script'/>\n<script src='/assets/google-universal-analytics-f35b4da49411e6f5559073523aab983da483976a3954c79c756f8579f6fbd6ef.js'></script>\n\n      <link rel=\"alternate\" type=\"application/rss+xml\" title=\"RSS feed of &#39;Foam/cusion&#39;\" href=\"https://forum.parkinsons.org.uk/t/foam-cusion/18932.rss\" />\n  <meta property=\"og:site_name\" content=\"Parkinson&#39;s UK Forum\" />\n<meta name=\"twitter:card\" content=\"summary\" />\n<meta name=\"twitter:image\" content=\"https://forum.parkinsons.org.uk/uploads/db7928/original/2X/3/311fc84f89f49f38601a2f16b295b6f03d3ce5dd.jpg\" />\n<meta property=\"og:image\" content=\"https://forum.parkinsons.org.uk/uploads/db7928/original/2X/3/311fc84f89f49f38601a2f16b295b6f03d3ce5dd.jpg\" />\n<meta property=\"og:url\" content=\"https://forum.parkinsons.org.uk/t/foam-cusion/18932\" />\n<meta name=\"twitter:url\" content=\"https://forum.parkinsons.org.uk/t/foam-cusion/18932\" />\n<meta property=\"og:title\" content=\"Foam/cusion\" />\n<meta name=\"twitter:title\" content=\"Foam/cusion\" />\n<meta property=\"og:description\" content=\"Hello  Hubby slips to the right hand side when sitting so I am looking for some sort of support that may help.  He has a new chair we thought would help but not enough support.  I have in my minds eye of a firm type cushion but cant find anything like that.  Anyone had similar problem to solve??  Thanks  Sheila\" />\n<meta name=\"twitter:description\" content=\"Hello  Hubby slips to the right hand side when sitting so I am looking for some sort of support that may help.  He has a new chair we thought would help but not enough support.  I have in my minds eye of a firm type cushion but cant find anything like that.  Anyone had similar problem to solve??  Thanks  Sheila\" />\n<meta property=\"article:published_time\" content=\"2019-04-20T10:58:03+00:00\" />\n<meta property=\"og:ignore_canonical\" content=\"true\" />\n\n\n\n    \n  </head>\n  <body class=\"crawler\">\n    <header role=\"banner\">\n    <div class=\"region region-header\">\n        <div class=\"region-header-wrapper\">\n            <div id=\"block-parkinsons-d8-branding\" class=\"block block-system block-system-branding-block\">\n                <a href=\"/\" title=\"Home\" rel=\"home\" class=\"site-logo\">\n                    <img src=\"https://forum.parkinsons.org.uk/uploads/db7928/original/2X/8/862bb7d172e7d127e7f3e147ec43594aa62ac945.png\" alt=\"Parkinson's UK. Change Attitudes. Find a cure. Join us.\">\n                </a>\n            </div>\n            <div id=\"block-helpline\" class=\"block block-block-content block-block-content871cd5af-b938-4947-9dc0-d5c211d08fe3 style-phone\">\n                <div class=\"field field--name-field-link field--type-link field--label-hidden field__item\"><a href=\"tel:+448088000303\">Helpline 0808 800 0303</a></div>\n            </div>\n            <div id=\"block-shop\" class=\"block block-block-content block-block-content6fba5ae5-7797-49cd-8367-f321d8111cd6 style-regular\">\n                <div class=\"field field--name-field-link field--type-link field--label-hidden field__item\"><a href=\"https://shop.parkinsons.org.uk\">Shop</a></div>\n            </div>\n        </div>\n    </div>\n</header>\n\n\n<script src=\"/theme-javascripts/b7e9763fcb584fc8265c56a9f557cd6d2e1e8ed8.js?__ws=forum.parkinsons.org.uk\"></script>\n    <header>\n      <a href=\"/\">\n          <img src=\"https://forum.parkinsons.org.uk/uploads/db7928/original/2X/8/862bb7d172e7d127e7f3e147ec43594aa62ac945.png\" alt=\"Parkinson&#39;s UK Forum\" id=\"site-logo\" style=\"max-width: 150px;\">\n      </a>\n    </header>\n    <div id=\"main-outlet\" class=\"wrap\">\n      <h1>\n  <a href=\"/t/foam-cusion/18932\">Foam/cusion</a>\n</h1>\n\n<div id='breadcrumbs'>\n    <div id=\"breadcrumb-0\" itemscope itemtype=\"http://data-vocabulary.org/Breadcrumb\"\n        itemref=\"breadcrumb-1\"\n      >\n      <a href=\"/c/living-with-parkinsons\" itemprop=\"url\">\n        <span itemprop=\"title\">Living with Parkinson&#39;s</span>\n      </a>\n    </div>\n    <div id=\"breadcrumb-1\" itemscope itemtype=\"http://data-vocabulary.org/Breadcrumb\"\n>\n      <a href=\"/c/living-with-parkinsons/daily-life\" itemprop=\"url\">\n        <span itemprop=\"title\">Daily life</span>\n      </a>\n    </div>\n</div>\n\n\n\n\n\n<hr>\n\n\n  <div itemscope itemtype='http://schema.org/DiscussionForumPosting'>\n      <div class='creator'>\n        <span>\n          <a href='/u/pudding52'><b itemprop='author'>pudding52</b></a>\n          \n          <time datetime='2019-04-20T10:58:03Z' itemprop='datePublished'>\n            2019-04-20 10:58:03 UTC\n          </time>\n        </span>\n        <span itemprop='position'>#1</span>\n      </div>\n      <div class='post' itemprop='articleBody'>\n        <p>Hello</p>\n<p>Hubby slips to the right hand side when sitting so I am looking for some sort of support that may help.  He has a new chair we thought would help but not enough support.  I have in my minds eye of a firm type cushion but cant find anything like that.</p>\n<p>Anyone had similar problem to solve??</p>\n<p>Thanks</p>\n<p>Sheila</p>\n      </div>\n      <meta itemprop='interactionCount' content='UserLikes:0'>\n      <meta itemprop='interactionCount' content='UserComments:0'>\n      <meta itemprop='headline' content='Foam/cusion'>\n      <hr>\n  </div>\n  <div itemscope itemtype='http://schema.org/DiscussionForumPosting'>\n      <div class='creator'>\n        <span>\n          <a href='/u/Moderators2'><b itemprop='author'>Moderators2</b></a>\n          \n          <time datetime='2019-04-20T11:03:31Z' itemprop='datePublished'>\n            2019-04-20 11:03:31 UTC\n          </time>\n        </span>\n        <span itemprop='position'>#2</span>\n      </div>\n      <div class='post' itemprop='articleBody'>\n        <p>Hi Sheila,<br>\nJust thought I’d pop in and say there’s a cushion in the Parkinson’s UK online shop that may be suitable for your husband. You can take a look here: <a href=\"https://shop.parkinsons.org.uk/products/harley-comfort-ease-cushion\" rel=\"nofollow noopener\">https://shop.parkinsons.org.uk/products/harley-comfort-ease-cushion</a>.<br>\nI’m sure others will also be along with their suggestions soon.</p>\n<p>Best wishes,<br>\nEdwina<br>\nModeration Team</p>\n      </div>\n      <meta itemprop='interactionCount' content='UserLikes:1'>\n      <meta itemprop='interactionCount' content='UserComments:0'>\n      <meta itemprop='headline' content='Foam/cusion'>\n      <hr>\n  </div>\n  <div itemscope itemtype='http://schema.org/DiscussionForumPosting'>\n      <div class='creator'>\n        <span>\n          <a href='/u/pudding52'><b itemprop='author'>pudding52</b></a>\n          \n          <time datetime='2019-04-20T13:46:56Z' itemprop='datePublished'>\n            2019-04-20 13:46:56 UTC\n          </time>\n        </span>\n        <span itemprop='position'>#3</span>\n      </div>\n      <div class='post' itemprop='articleBody'>\n        <p>Hi Edwina</p>\n<p>Only problem is there is no photo of said cushion only lady carrying it in a bag.</p>\n<p>Sheila</p>\n      </div>\n      <meta itemprop='interactionCount' content='UserLikes:0'>\n      <meta itemprop='interactionCount' content='UserComments:1'>\n      <meta itemprop='headline' content='Foam/cusion'>\n      <hr>\n  </div>\n  <div itemscope itemtype='http://schema.org/DiscussionForumPosting'>\n      <div class='creator'>\n        <span>\n          <a href='/u/Tot'><b itemprop='author'>Tot</b></a>\n          \n          <time datetime='2019-04-21T06:37:40Z' itemprop='datePublished'>\n            2019-04-21 06:37:40 UTC\n          </time>\n        </span>\n        <span itemprop='position'>#4</span>\n      </div>\n      <div class='post' itemprop='articleBody'>\n        <p><div class=\"lightbox-wrapper\"><a class=\"lightbox\" href=\"https://forum.parkinsons.org.uk/uploads/db7928/original/2X/6/6144f22627ca71bc31772087c76c829f0f5f510c.jpeg\" data-download-href=\"https://forum.parkinsons.org.uk/uploads/db7928/6144f22627ca71bc31772087c76c829f0f5f510c\" title=\"Screenshot_20190421-073258.jpg\"><img src=\"https://forum.parkinsons.org.uk/uploads/db7928/optimized/2X/6/6144f22627ca71bc31772087c76c829f0f5f510c_2_690x468.jpeg\" alt=\"Screenshot_20190421-073258\" width=\"690\" height=\"468\" srcset=\"https://forum.parkinsons.org.uk/uploads/db7928/optimized/2X/6/6144f22627ca71bc31772087c76c829f0f5f510c_2_690x468.jpeg, https://forum.parkinsons.org.uk/uploads/db7928/original/2X/6/6144f22627ca71bc31772087c76c829f0f5f510c.jpeg 1.5x, https://forum.parkinsons.org.uk/uploads/db7928/original/2X/6/6144f22627ca71bc31772087c76c829f0f5f510c.jpeg 2x\" data-small-upload=\"/uploads/db7928/optimized/2X/6/6144f22627ca71bc31772087c76c829f0f5f510c_2_10x10.png\"><div class=\"meta\">\n<span class=\"filename\">Screenshot_20190421-073258.jpg</span><span class=\"informations\">768×522 182 KB</span><span class=\"expand\"></span>\n</div></a></div><br>\nHello don’t know if this helps.  If you have internet type Harley comfort ease cushion in the search for more images.</p>\n      </div>\n      <meta itemprop='interactionCount' content='UserLikes:1'>\n      <meta itemprop='interactionCount' content='UserComments:0'>\n      <meta itemprop='headline' content='Foam/cusion'>\n      <hr>\n  </div>\n  <div itemscope itemtype='http://schema.org/DiscussionForumPosting'>\n      <div class='creator'>\n        <span>\n          <a href='/u/pudding52'><b itemprop='author'>pudding52</b></a>\n          \n          <time datetime='2019-04-22T09:15:24Z' itemprop='datePublished'>\n            2019-04-22 09:15:24 UTC\n          </time>\n        </span>\n        <span itemprop='position'>#5</span>\n      </div>\n      <div class='post' itemprop='articleBody'>\n        <p>Hello Tot</p>\n<p>Thanks anyway but looking for something that helps him from slipping over to right side not for under bottom</p>\n<p>Sheila</p>\n      </div>\n      <meta itemprop='interactionCount' content='UserLikes:0'>\n      <meta itemprop='interactionCount' content='UserComments:1'>\n      <meta itemprop='headline' content='Foam/cusion'>\n      <hr>\n  </div>\n  <div itemscope itemtype='http://schema.org/DiscussionForumPosting'>\n      <div class='creator'>\n        <span>\n          <a href='/u/Tot'><b itemprop='author'>Tot</b></a>\n          \n          <time datetime='2019-04-22T10:16:11Z' itemprop='datePublished'>\n            2019-04-22 10:16:11 UTC\n          </time>\n        </span>\n        <span itemprop='position'>#6</span>\n      </div>\n      <div class='post' itemprop='articleBody'>\n        <p>Sorry just picked up on the ref mentioned. The simplest solution would be some kind of wedge cushion but I would suggest you consider getting a full assessment, it is actually quite a complex problem and not uncommon, the solution can differ according to the root cause. An assessment would also give the best way to get a solution that will last. The DLF is a good source of neutral information on products they also have information and fact sheets which may help you if you want to find out more and/or don’t want to take the assessment route - if you have a decent shop nearby they can be a useful source for info and advice but you want a shop that wants to help and not the hard sell so be alert and don’t be rushed into a decision.  Hope this helps a bit more.</p>\n      </div>\n      <meta itemprop='interactionCount' content='UserLikes:1'>\n      <meta itemprop='interactionCount' content='UserComments:0'>\n      <meta itemprop='headline' content='Foam/cusion'>\n      <hr>\n  </div>\n  <div itemscope itemtype='http://schema.org/DiscussionForumPosting'>\n      <div class='creator'>\n        <span>\n          <a href='/u/pudding52'><b itemprop='author'>pudding52</b></a>\n          \n          <time datetime='2019-04-22T22:36:00Z' itemprop='datePublished'>\n            2019-04-22 22:36:00 UTC\n          </time>\n        </span>\n        <span itemprop='position'>#7</span>\n      </div>\n      <div class='post' itemprop='articleBody'>\n        <p>Hello, sorry but whats DLF?, Being a bit dense maybe!?</p>\n      </div>\n      <meta itemprop='interactionCount' content='UserLikes:0'>\n      <meta itemprop='interactionCount' content='UserComments:0'>\n      <meta itemprop='headline' content='Foam/cusion'>\n      <hr>\n  </div>\n  <div itemscope itemtype='http://schema.org/DiscussionForumPosting'>\n      <div class='creator'>\n        <span>\n          <a href='/u/Tot'><b itemprop='author'>Tot</b></a>\n          \n          <time datetime='2019-04-22T23:30:44Z' itemprop='datePublished'>\n            2019-04-22 23:30:44 UTC\n          </time>\n        </span>\n        <span itemprop='position'>#8</span>\n      </div>\n      <div class='post' itemprop='articleBody'>\n        <p>Sorry didn’t think it’s The Disabled Living Foundation</p>\n<p><a href=\"https://www.dlf.org.uk\" rel=\"nofollow noopener\">https://www.dlf.org.uk</a></p>\n      </div>\n      <meta itemprop='interactionCount' content='UserLikes:1'>\n      <meta itemprop='interactionCount' content='UserComments:0'>\n      <meta itemprop='headline' content='Foam/cusion'>\n      <hr>\n  </div>\n  <div itemscope itemtype='http://schema.org/DiscussionForumPosting'>\n      <div class='creator'>\n        <span>\n          <a href='/u/cardlady'><b itemprop='author'>cardlady</b></a>\n          \n          <time datetime='2019-04-26T06:39:43Z' itemprop='datePublished'>\n            2019-04-26 06:39:43 UTC\n          </time>\n        </span>\n        <span itemprop='position'>#9</span>\n      </div>\n      <div class='post' itemprop='articleBody'>\n        <p>Hi  looks at.at eBay, There is a foam cushion especially for   etween the knees,  it is shaped memory foam.and is grooved, sounds just right!  Good luck. H.</p>\n      </div>\n      <meta itemprop='interactionCount' content='UserLikes:1'>\n      <meta itemprop='interactionCount' content='UserComments:0'>\n      <meta itemprop='headline' content='Foam/cusion'>\n      <hr>\n  </div>\n\n\n\n\n\n\n    </div>\n    <footer class=\"container\">\n      <nav class='crawler-nav' itemscope itemtype='http://schema.org/SiteNavigationElement'>\n        <a href='/'>Home</a>\n        <a href=\"/categories\">Categories</a>\n        <a href=\"/guidelines\">FAQ/Guidelines</a>\n        <a href=\"/tos\">Terms of Service</a>\n        <a href=\"/privacy\">Privacy Policy</a>\n      </nav>\n      <p class='powered-by-link'>Powered by <a href=\"https://www.discourse.org\">Discourse</a>, best viewed with JavaScript enabled</p>\n    </footer>\n    \n  </body>\n  \n</html>\n",
  "url": "https://forum.parkinsons.org.uk/t/foam-cusion/18932"
}