{
  "contentId": "9bb585f0-8865-11e9-8f96-97f71b5221d6",
  "html": "<!DOCTYPE html>\n<html lang=\"en\">\n  <head>\n    <meta charset=\"utf-8\">\n    <title>Staying in work - Work, benefits and money - Parkinson&#39;s UK Forum</title>\n    <meta name=\"description\" content=\"Hi, I have just started some new meds which make me feel quite sick, due to this I asked my boss if I could come off the phones ( work in a contact centre) and deal with incoming emails, they said fine as long as the pho&amp;hellip;\">\n    <meta name=\"author\" content=\"\">\n<meta name=\"generator\" content=\"Discourse 2.2.5 - https://github.com/discourse/discourse version c294ff3609f988dcafb742e91606d60ca13b794d\">\n<link rel=\"icon\" type=\"image/png\" href=\"https://forum.parkinsons.org.uk/uploads/db7928/original/2X/3/311fc84f89f49f38601a2f16b295b6f03d3ce5dd.jpg\">\n<link rel=\"apple-touch-icon\" type=\"image/png\" href=\"https://forum.parkinsons.org.uk/uploads/db7928/original/2X/3/311fc84f89f49f38601a2f16b295b6f03d3ce5dd.jpg\">\n<meta name=\"theme-color\" content=\"#ffffff\">\n<meta name=\"viewport\" content=\"width=device-width, minimum-scale=1.0, maximum-scale=1.0, user-scalable=yes\">\n<link rel=\"canonical\" href=\"https://forum.parkinsons.org.uk/t/staying-in-work/16483\" />\n<script type=\"application/ld+json\">{\"@context\":\"http://schema.org\",\"@type\":\"WebSite\",\"url\":\"https://forum.parkinsons.org.uk\",\"potentialAction\":{\"@type\":\"SearchAction\",\"target\":\"https://forum.parkinsons.org.uk/search?q={search_term_string}\",\"query-input\":\"required name=search_term_string\"}}</script>\n<link rel=\"search\" type=\"application/opensearchdescription+xml\" href=\"https://forum.parkinsons.org.uk/opensearch.xml\" title=\"Parkinson&#39;s UK Forum Search\">\n\n      <link href=\"/stylesheets/desktop_f99246ae801b083d3e4cca979d0dade8615b39ac.css?__ws=forum.parkinsons.org.uk\" media=\"all\" rel=\"stylesheet\" data-target=\"desktop\" data-theme-id=\"12\"/>\n      <link href=\"/stylesheets/desktop_theme_12_5d27531cf43f9df0c03a6a6ec3109dd05f9dfc49.css?__ws=forum.parkinsons.org.uk\" media=\"all\" rel=\"stylesheet\" data-target=\"desktop_theme\" data-theme-id=\"12\"/>\n    <link href=\"https://fonts.googleapis.com/css?family=Open+Sans\" rel=\"stylesheet\">\n\n    <meta id=\"data-ga-universal-analytics\" data-tracking-code=\"UA-4855628-1\" data-json=\"{&quot;cookieDomain&quot;:&quot;auto&quot;}\" data-auto-link-domains=\"\">\n\n<link rel='preload' href='/assets/google-universal-analytics-f35b4da49411e6f5559073523aab983da483976a3954c79c756f8579f6fbd6ef.js' as='script'/>\n<script src='/assets/google-universal-analytics-f35b4da49411e6f5559073523aab983da483976a3954c79c756f8579f6fbd6ef.js'></script>\n\n      <link rel=\"alternate\" type=\"application/rss+xml\" title=\"RSS feed of &#39;Staying in work&#39;\" href=\"https://forum.parkinsons.org.uk/t/staying-in-work/16483.rss\" />\n  <meta property=\"og:site_name\" content=\"Parkinson&#39;s UK Forum\" />\n<meta name=\"twitter:card\" content=\"summary\" />\n<meta name=\"twitter:image\" content=\"https://forum.parkinsons.org.uk/uploads/db7928/original/2X/3/311fc84f89f49f38601a2f16b295b6f03d3ce5dd.jpg\" />\n<meta property=\"og:image\" content=\"https://forum.parkinsons.org.uk/uploads/db7928/original/2X/3/311fc84f89f49f38601a2f16b295b6f03d3ce5dd.jpg\" />\n<meta property=\"og:url\" content=\"https://forum.parkinsons.org.uk/t/staying-in-work/16483\" />\n<meta name=\"twitter:url\" content=\"https://forum.parkinsons.org.uk/t/staying-in-work/16483\" />\n<meta property=\"og:title\" content=\"Staying in work\" />\n<meta name=\"twitter:title\" content=\"Staying in work\" />\n<meta property=\"og:description\" content=\"Hi, I have just started some new meds which make me feel quite sick, due to this I asked my boss if I could come off the phones ( work in a contact centre) and deal with incoming emails, they said fine as long as the phone’s are not too busy, if the phones are busy and I could not take the calls then I would be classed as unfit for work, due to this I had to go on the sick, even though there was other work I could have done, is there anything I can do about this as I don’t want to have to go on ...\" />\n<meta name=\"twitter:description\" content=\"Hi, I have just started some new meds which make me feel quite sick, due to this I asked my boss if I could come off the phones ( work in a contact centre) and deal with incoming emails, they said fine as long as the phone’s are not too busy, if the phones are busy and I could not take the calls then I would be classed as unfit for work, due to this I had to go on the sick, even though there was other work I could have done, is there anything I can do about this as I don’t want to have to go on ...\" />\n<meta name=\"twitter:label1\" value=\"Reading time\" />\n<meta name=\"twitter:data1\" value=\"1 mins \uD83D\uDD51\" />\n<meta name=\"twitter:label2\" value=\"Likes\" />\n<meta name=\"twitter:data2\" value=\"2 ❤\" />\n<meta property=\"article:published_time\" content=\"2018-11-06T02:26:36+00:00\" />\n<meta property=\"og:ignore_canonical\" content=\"true\" />\n\n\n\n    \n  </head>\n  <body class=\"crawler\">\n    <header role=\"banner\">\n    <div class=\"region region-header\">\n        <div class=\"region-header-wrapper\">\n            <div id=\"block-parkinsons-d8-branding\" class=\"block block-system block-system-branding-block\">\n                <a href=\"/\" title=\"Home\" rel=\"home\" class=\"site-logo\">\n                    <img src=\"https://forum.parkinsons.org.uk/uploads/db7928/original/2X/8/862bb7d172e7d127e7f3e147ec43594aa62ac945.png\" alt=\"Parkinson's UK. Change Attitudes. Find a cure. Join us.\">\n                </a>\n            </div>\n            <div id=\"block-helpline\" class=\"block block-block-content block-block-content871cd5af-b938-4947-9dc0-d5c211d08fe3 style-phone\">\n                <div class=\"field field--name-field-link field--type-link field--label-hidden field__item\"><a href=\"tel:+448088000303\">Helpline 0808 800 0303</a></div>\n            </div>\n            <div id=\"block-shop\" class=\"block block-block-content block-block-content6fba5ae5-7797-49cd-8367-f321d8111cd6 style-regular\">\n                <div class=\"field field--name-field-link field--type-link field--label-hidden field__item\"><a href=\"https://shop.parkinsons.org.uk\">Shop</a></div>\n            </div>\n        </div>\n    </div>\n</header>\n\n\n<script src=\"/theme-javascripts/b7e9763fcb584fc8265c56a9f557cd6d2e1e8ed8.js?__ws=forum.parkinsons.org.uk\"></script>\n    <header>\n      <a href=\"/\">\n          <img src=\"https://forum.parkinsons.org.uk/uploads/db7928/original/2X/8/862bb7d172e7d127e7f3e147ec43594aa62ac945.png\" alt=\"Parkinson&#39;s UK Forum\" id=\"site-logo\" style=\"max-width: 150px;\">\n      </a>\n    </header>\n    <div id=\"main-outlet\" class=\"wrap\">\n      <h1>\n  <a href=\"/t/staying-in-work/16483\">Staying in work</a>\n</h1>\n\n<div id='breadcrumbs'>\n    <div id=\"breadcrumb-0\" itemscope itemtype=\"http://data-vocabulary.org/Breadcrumb\"\n        itemref=\"breadcrumb-1\"\n      >\n      <a href=\"/c/living-with-parkinsons\" itemprop=\"url\">\n        <span itemprop=\"title\">Living with Parkinson&#39;s</span>\n      </a>\n    </div>\n    <div id=\"breadcrumb-1\" itemscope itemtype=\"http://data-vocabulary.org/Breadcrumb\"\n>\n      <a href=\"/c/living-with-parkinsons/work-benefits-and-money\" itemprop=\"url\">\n        <span itemprop=\"title\">Work, benefits and money</span>\n      </a>\n    </div>\n</div>\n\n\n\n\n\n<hr>\n\n\n  <div itemscope itemtype='http://schema.org/DiscussionForumPosting'>\n      <div class='creator'>\n        <span>\n          <a href='/u/Paddy1'><b itemprop='author'>Paddy1</b></a>\n          \n          <time datetime='2018-11-06T02:26:36Z' itemprop='datePublished'>\n            2018-11-06 02:26:36 UTC\n          </time>\n        </span>\n        <span itemprop='position'>#1</span>\n      </div>\n      <div class='post' itemprop='articleBody'>\n        <p>Hi, I have just started some new meds which make me feel quite sick, due to this I asked my boss if I could come off the phones ( work in a contact centre) and deal with incoming emails, they said fine as long as the phone’s are not too busy, if the phones are busy and I could not take the calls then I would be classed as unfit for work, due to this I had to go on the sick, even though there was other work I could have done, is there anything I can do about this as I don’t want to have to go on the sick if there is other work I could do whilst I am getting used to meds.</p>\n      </div>\n      <meta itemprop='interactionCount' content='UserLikes:0'>\n      <meta itemprop='interactionCount' content='UserComments:0'>\n      <meta itemprop='headline' content='Staying in work'>\n      <hr>\n  </div>\n  <div itemscope itemtype='http://schema.org/DiscussionForumPosting'>\n      <div class='creator'>\n        <span>\n          <a href='/u/Reah'><b itemprop='author'>Reah</b></a>\n          \n          <time datetime='2018-11-06T17:16:31Z' itemprop='datePublished'>\n            2018-11-06 17:16:31 UTC\n          </time>\n        </span>\n        <span itemprop='position'>#2</span>\n      </div>\n      <div class='post' itemprop='articleBody'>\n        <p>Hi <a class=\"mention\" href=\"/u/paddy1\">@Paddy1</a>,</p>\n<p>I’m so sorry to hear that you’ve had to take time off work due to your mediation. My advice to you would be speak to your line manager about this and ask for a meeting so you can speak to him about your concerns. If this doesn’t work then I would escalate this to your HR manager for them to look into, what appears to be, unfair treatment.</p>\n<p>We have more information on this our website here - <a href=\"https://www.parkinsons.org.uk/information-and-support/work-and-parkinsons\">https://www.parkinsons.org.uk/information-and-support/work-and-parkinsons</a>. We also have a team of specialist employment advisers on helpline to answer anymore queries you may have.</p>\n<p>Please give them a call on 0808 800 0303 from Monday-Friday: 9am-7pm, Saturday: 10am-2pm, or you can email <a href=\"/cdn-cgi/l/email-protection#7a121f1616153a0a1b08111314091514095415081d540f11\"><span class=\"__cf_email__\" data-cfemail=\"b0d8d5dcdcdff0c0d1c2dbd9dec3dfdec39edfc2d79ec5db\">[email&#160;protected]</span></a>. from Monday-Friday: 9am-7pm, Saturday: 10am-2pm, or you can email <a href=\"/cdn-cgi/l/email-protection#b7dfd2dbdbd8f7c7d6c5dcded9c4d8d9c499d8c5d099c2dc\"><span class=\"__cf_email__\" data-cfemail=\"3c54595050537c4c5d4e5755524f53524f12534e5b124957\">[email&#160;protected]</span></a>.</p>\n<p>I hope you find this helpful.</p>\n<p>Best wishes,<br>\nReah</p>\n      </div>\n      <meta itemprop='interactionCount' content='UserLikes:0'>\n      <meta itemprop='interactionCount' content='UserComments:1'>\n      <meta itemprop='headline' content='Staying in work'>\n      <hr>\n  </div>\n  <div itemscope itemtype='http://schema.org/DiscussionForumPosting'>\n      <div class='creator'>\n        <span>\n          <a href='/u/Paddy1'><b itemprop='author'>Paddy1</b></a>\n          \n          <time datetime='2018-11-06T17:32:45Z' itemprop='datePublished'>\n            2018-11-06 17:32:45 UTC\n          </time>\n        </span>\n        <span itemprop='position'>#3</span>\n      </div>\n      <div class='post' itemprop='articleBody'>\n        <p>Hi Reah, thank you for taking the time to reply to my post, the info you have given is really helpful and very much appreciated.  I will speak to my manager and see how I get on.</p>\n      </div>\n      <meta itemprop='interactionCount' content='UserLikes:1'>\n      <meta itemprop='interactionCount' content='UserComments:1'>\n      <meta itemprop='headline' content='Staying in work'>\n      <hr>\n  </div>\n  <div itemscope itemtype='http://schema.org/DiscussionForumPosting'>\n      <div class='creator'>\n        <span>\n          <a href='/u/Reah'><b itemprop='author'>Reah</b></a>\n          \n          <time datetime='2018-11-06T17:39:01Z' itemprop='datePublished'>\n            2018-11-06 17:39:01 UTC\n          </time>\n        </span>\n        <span itemprop='position'>#4</span>\n      </div>\n      <div class='post' itemprop='articleBody'>\n        <p>Hi <a class=\"mention\" href=\"/u/paddy1\">@Paddy1</a>,</p>\n<p>You’re welcome. Good luck with everything and please do not hesitate to contact our helpline for more support.</p>\n<p>Best wishes,<br>\nReah</p>\n      </div>\n      <meta itemprop='interactionCount' content='UserLikes:0'>\n      <meta itemprop='interactionCount' content='UserComments:0'>\n      <meta itemprop='headline' content='Staying in work'>\n      <hr>\n  </div>\n  <div itemscope itemtype='http://schema.org/DiscussionForumPosting'>\n      <div class='creator'>\n        <span>\n          <a href='/u/jps1926'><b itemprop='author'>jps1926</b></a>\n          \n          <time datetime='2018-11-06T19:49:34Z' itemprop='datePublished'>\n            2018-11-06 19:49:34 UTC\n          </time>\n        </span>\n        <span itemprop='position'>#5</span>\n      </div>\n      <div class='post' itemprop='articleBody'>\n        <p>Can only agree, this is exactly what I did 18 months ago with my employer. Take a work friend with you and definitely have HR at the meeting. Good luck Paddy and I hope it works out well</p>\n      </div>\n      <meta itemprop='interactionCount' content='UserLikes:1'>\n      <meta itemprop='interactionCount' content='UserComments:1'>\n      <meta itemprop='headline' content='Staying in work'>\n      <hr>\n  </div>\n  <div itemscope itemtype='http://schema.org/DiscussionForumPosting'>\n      <div class='creator'>\n        <span>\n          <a href='/u/Paddy1'><b itemprop='author'>Paddy1</b></a>\n          \n          <time datetime='2018-11-07T20:02:49Z' itemprop='datePublished'>\n            2018-11-07 20:02:49 UTC\n          </time>\n        </span>\n        <span itemprop='position'>#6</span>\n      </div>\n      <div class='post' itemprop='articleBody'>\n        <p>Thank you for replying, really appreciate it. I am going to arrange a meeting, however I am now being sent to occupational health, everything seems to be a battle.</p>\n      </div>\n      <meta itemprop='interactionCount' content='UserLikes:0'>\n      <meta itemprop='interactionCount' content='UserComments:0'>\n      <meta itemprop='headline' content='Staying in work'>\n      <hr>\n  </div>\n  <div itemscope itemtype='http://schema.org/DiscussionForumPosting'>\n      <div class='creator'>\n        <span>\n          <a href='/u/jps1926'><b itemprop='author'>jps1926</b></a>\n          \n          <time datetime='2018-11-09T01:23:54Z' itemprop='datePublished'>\n            2018-11-09 01:23:54 UTC\n          </time>\n        </span>\n        <span itemprop='position'>#7</span>\n      </div>\n      <div class='post' itemprop='articleBody'>\n        <p>Hi Paddy, that’s positive I had a OH referral after my first meeting and then following that we agreed on the reasonable adjustments which were necessary to keep me in work. I’ve had further OH reviews once travelling long distance daily became an issue about 6 months ago and agreed on a necessary change of work to restrict travelling. I am happy with the change /adjustment and the new role is equally challenging and interesting.<br>\nFingers crossed you get a similar outcome <img src=\"https://forum.parkinsons.org.uk/images/emoji/twitter/crossed_fingers.png?v=6\" title=\":crossed_fingers:\" class=\"emoji\" alt=\":crossed_fingers:\"><img src=\"https://forum.parkinsons.org.uk/images/emoji/twitter/sunglasses.png?v=6\" title=\":sunglasses:\" class=\"emoji\" alt=\":sunglasses:\"></p>\n      </div>\n      <meta itemprop='interactionCount' content='UserLikes:0'>\n      <meta itemprop='interactionCount' content='UserComments:1'>\n      <meta itemprop='headline' content='Staying in work'>\n      <hr>\n  </div>\n  <div itemscope itemtype='http://schema.org/DiscussionForumPosting'>\n      <div class='creator'>\n        <span>\n          <a href='/u/Paddy1'><b itemprop='author'>Paddy1</b></a>\n          \n          <time datetime='2018-11-10T08:56:56Z' itemprop='datePublished'>\n            2018-11-10 08:56:56 UTC\n          </time>\n        </span>\n        <span itemprop='position'>#8</span>\n      </div>\n      <div class='post' itemprop='articleBody'>\n        <p>Hi there, thank you for replying, I feel better about that now, I looked at it as a negative. I will go with the flow and see what happens, will let you know how I get on.  I am glad to hear that the outcome for you was a positive one.</p>\n      </div>\n      <meta itemprop='interactionCount' content='UserLikes:0'>\n      <meta itemprop='interactionCount' content='UserComments:1'>\n      <meta itemprop='headline' content='Staying in work'>\n      <hr>\n  </div>\n  <div itemscope itemtype='http://schema.org/DiscussionForumPosting'>\n      <div class='creator'>\n        <span>\n          <a href='/u/Geordieparr'><b itemprop='author'>Geordieparr</b></a>\n          \n          <time datetime='2018-11-11T08:10:27Z' itemprop='datePublished'>\n            2018-11-11 08:10:27 UTC\n          </time>\n        </span>\n        <span itemprop='position'>#9</span>\n      </div>\n      <div class='post' itemprop='articleBody'>\n        <p>Good luck, I have been fortunate as my bosses are looking out for me, but recognise the attitudes.</p>\n      </div>\n      <meta itemprop='interactionCount' content='UserLikes:0'>\n      <meta itemprop='interactionCount' content='UserComments:0'>\n      <meta itemprop='headline' content='Staying in work'>\n      <hr>\n  </div>\n\n\n\n\n\n\n    </div>\n    <footer class=\"container\">\n      <nav class='crawler-nav' itemscope itemtype='http://schema.org/SiteNavigationElement'>\n        <a href='/'>Home</a>\n        <a href=\"/categories\">Categories</a>\n        <a href=\"/guidelines\">FAQ/Guidelines</a>\n        <a href=\"/tos\">Terms of Service</a>\n        <a href=\"/privacy\">Privacy Policy</a>\n      </nav>\n      <p class='powered-by-link'>Powered by <a href=\"https://www.discourse.org\">Discourse</a>, best viewed with JavaScript enabled</p>\n    </footer>\n    \n  <script data-cfasync=\"false\" src=\"/cdn-cgi/scripts/5c5dd728/cloudflare-static/email-decode.min.js\"></script></body>\n  \n</html>\n",
  "url": "https://forum.parkinsons.org.uk/t/staying-in-work/16483"
}