{
  "contentId": "ff871220-8864-11e9-8f96-97f71b5221d6",
  "html": "<!DOCTYPE html>\n<html lang=\"en\">\n  <head>\n    <meta charset=\"utf-8\">\n    <title>Parkinson&#39;s and sciatica - Wellbeing - Parkinson&#39;s UK Forum</title>\n    <meta name=\"description\" content=\"Is there any connection with sciatica and Parkinson’s? \nSince Tuesday I have had excrutiating pain in one side of my back going down to my ankle, I have to try and walk around, take tablets rub deep heat in before I can &amp;hellip;\">\n    <meta name=\"author\" content=\"\">\n<meta name=\"generator\" content=\"Discourse 2.2.5 - https://github.com/discourse/discourse version c294ff3609f988dcafb742e91606d60ca13b794d\">\n<link rel=\"icon\" type=\"image/png\" href=\"https://forum.parkinsons.org.uk/uploads/db7928/original/2X/3/311fc84f89f49f38601a2f16b295b6f03d3ce5dd.jpg\">\n<link rel=\"apple-touch-icon\" type=\"image/png\" href=\"https://forum.parkinsons.org.uk/uploads/db7928/original/2X/3/311fc84f89f49f38601a2f16b295b6f03d3ce5dd.jpg\">\n<meta name=\"theme-color\" content=\"#ffffff\">\n<meta name=\"viewport\" content=\"width=device-width, minimum-scale=1.0, maximum-scale=1.0, user-scalable=yes\">\n<link rel=\"canonical\" href=\"https://forum.parkinsons.org.uk/t/parkinsons-and-sciatica/16140\" />\n<script type=\"application/ld+json\">{\"@context\":\"http://schema.org\",\"@type\":\"WebSite\",\"url\":\"https://forum.parkinsons.org.uk\",\"potentialAction\":{\"@type\":\"SearchAction\",\"target\":\"https://forum.parkinsons.org.uk/search?q={search_term_string}\",\"query-input\":\"required name=search_term_string\"}}</script>\n<link rel=\"search\" type=\"application/opensearchdescription+xml\" href=\"https://forum.parkinsons.org.uk/opensearch.xml\" title=\"Parkinson&#39;s UK Forum Search\">\n\n      <link href=\"/stylesheets/desktop_f99246ae801b083d3e4cca979d0dade8615b39ac.css?__ws=forum.parkinsons.org.uk\" media=\"all\" rel=\"stylesheet\" data-target=\"desktop\" data-theme-id=\"12\"/>\n      <link href=\"/stylesheets/desktop_theme_12_5d27531cf43f9df0c03a6a6ec3109dd05f9dfc49.css?__ws=forum.parkinsons.org.uk\" media=\"all\" rel=\"stylesheet\" data-target=\"desktop_theme\" data-theme-id=\"12\"/>\n    <link href=\"https://fonts.googleapis.com/css?family=Open+Sans\" rel=\"stylesheet\">\n\n    <meta id=\"data-ga-universal-analytics\" data-tracking-code=\"UA-4855628-1\" data-json=\"{&quot;cookieDomain&quot;:&quot;auto&quot;}\" data-auto-link-domains=\"\">\n\n<link rel='preload' href='/assets/google-universal-analytics-f35b4da49411e6f5559073523aab983da483976a3954c79c756f8579f6fbd6ef.js' as='script'/>\n<script src='/assets/google-universal-analytics-f35b4da49411e6f5559073523aab983da483976a3954c79c756f8579f6fbd6ef.js'></script>\n\n      <link rel=\"alternate\" type=\"application/rss+xml\" title=\"RSS feed of &#39;Parkinson&#39;s and sciatica&#39;\" href=\"https://forum.parkinsons.org.uk/t/parkinsons-and-sciatica/16140.rss\" />\n  <meta property=\"og:site_name\" content=\"Parkinson&#39;s UK Forum\" />\n<meta name=\"twitter:card\" content=\"summary\" />\n<meta name=\"twitter:image\" content=\"https://forum.parkinsons.org.uk/uploads/db7928/original/2X/3/311fc84f89f49f38601a2f16b295b6f03d3ce5dd.jpg\" />\n<meta property=\"og:image\" content=\"https://forum.parkinsons.org.uk/uploads/db7928/original/2X/3/311fc84f89f49f38601a2f16b295b6f03d3ce5dd.jpg\" />\n<meta property=\"og:url\" content=\"https://forum.parkinsons.org.uk/t/parkinsons-and-sciatica/16140\" />\n<meta name=\"twitter:url\" content=\"https://forum.parkinsons.org.uk/t/parkinsons-and-sciatica/16140\" />\n<meta property=\"og:title\" content=\"Parkinson&#39;s and sciatica\" />\n<meta name=\"twitter:title\" content=\"Parkinson&#39;s and sciatica\" />\n<meta property=\"og:description\" content=\"Is there any connection with sciatica and Parkinson’s?  Since Tuesday I have had excrutiating pain in one side of my back going down to my ankle, I have to try and walk around, take tablets rub deep heat in before I can function.  The pain is worse than child birth.  Then after a couple of hours I am fine again, until the next morning.  Monday I attended my PDW  class which I really enjoy but we did the penquin move which really made my thighs  hurt, did this cause the sciatica?  Anyone got any ...\" />\n<meta name=\"twitter:description\" content=\"Is there any connection with sciatica and Parkinson’s?  Since Tuesday I have had excrutiating pain in one side of my back going down to my ankle, I have to try and walk around, take tablets rub deep heat in before I can function.  The pain is worse than child birth.  Then after a couple of hours I am fine again, until the next morning.  Monday I attended my PDW  class which I really enjoy but we did the penquin move which really made my thighs  hurt, did this cause the sciatica?  Anyone got any ...\" />\n<meta property=\"article:published_time\" content=\"2018-10-14T10:01:20+00:00\" />\n<meta property=\"og:ignore_canonical\" content=\"true\" />\n\n\n\n    \n  </head>\n  <body class=\"crawler\">\n    <header role=\"banner\">\n    <div class=\"region region-header\">\n        <div class=\"region-header-wrapper\">\n            <div id=\"block-parkinsons-d8-branding\" class=\"block block-system block-system-branding-block\">\n                <a href=\"/\" title=\"Home\" rel=\"home\" class=\"site-logo\">\n                    <img src=\"https://forum.parkinsons.org.uk/uploads/db7928/original/2X/8/862bb7d172e7d127e7f3e147ec43594aa62ac945.png\" alt=\"Parkinson's UK. Change Attitudes. Find a cure. Join us.\">\n                </a>\n            </div>\n            <div id=\"block-helpline\" class=\"block block-block-content block-block-content871cd5af-b938-4947-9dc0-d5c211d08fe3 style-phone\">\n                <div class=\"field field--name-field-link field--type-link field--label-hidden field__item\"><a href=\"tel:+448088000303\">Helpline 0808 800 0303</a></div>\n            </div>\n            <div id=\"block-shop\" class=\"block block-block-content block-block-content6fba5ae5-7797-49cd-8367-f321d8111cd6 style-regular\">\n                <div class=\"field field--name-field-link field--type-link field--label-hidden field__item\"><a href=\"https://shop.parkinsons.org.uk\">Shop</a></div>\n            </div>\n        </div>\n    </div>\n</header>\n\n\n<script src=\"/theme-javascripts/b7e9763fcb584fc8265c56a9f557cd6d2e1e8ed8.js?__ws=forum.parkinsons.org.uk\"></script>\n    <header>\n      <a href=\"/\">\n          <img src=\"https://forum.parkinsons.org.uk/uploads/db7928/original/2X/8/862bb7d172e7d127e7f3e147ec43594aa62ac945.png\" alt=\"Parkinson&#39;s UK Forum\" id=\"site-logo\" style=\"max-width: 150px;\">\n      </a>\n    </header>\n    <div id=\"main-outlet\" class=\"wrap\">\n      <h1>\n  <a href=\"/t/parkinsons-and-sciatica/16140\">Parkinson&#39;s and sciatica</a>\n</h1>\n\n<div id='breadcrumbs'>\n    <div id=\"breadcrumb-0\" itemscope itemtype=\"http://data-vocabulary.org/Breadcrumb\"\n        itemref=\"breadcrumb-1\"\n      >\n      <a href=\"/c/about-parkinsons-and-health\" itemprop=\"url\">\n        <span itemprop=\"title\">About Parkinson&#39;s and health</span>\n      </a>\n    </div>\n    <div id=\"breadcrumb-1\" itemscope itemtype=\"http://data-vocabulary.org/Breadcrumb\"\n>\n      <a href=\"/c/about-parkinsons-and-health/wellbeing\" itemprop=\"url\">\n        <span itemprop=\"title\">Wellbeing</span>\n      </a>\n    </div>\n</div>\n\n\n\n\n\n<hr>\n\n\n  <div itemscope itemtype='http://schema.org/DiscussionForumPosting'>\n      <div class='creator'>\n        <span>\n          <a href='/u/Margs'><b itemprop='author'>Margs</b></a>\n          \n          <time datetime='2018-10-14T10:01:20Z' itemprop='datePublished'>\n            2018-10-14 10:01:20 UTC\n          </time>\n        </span>\n        <span itemprop='position'>#1</span>\n      </div>\n      <div class='post' itemprop='articleBody'>\n        <p>Is there any connection with sciatica and Parkinson’s?</p>\n<p>Since Tuesday I have had excrutiating pain in one side of my back going down to my ankle, I have to try and walk around, take tablets rub deep heat in before I can function.  The pain is worse than child birth.  Then after a couple of hours I am fine again, until the next morning.</p>\n<p>Monday I attended my PDW  class which I really enjoy but we did the penquin move which really made my thighs  hurt, did this cause the sciatica?</p>\n<p>Anyone got any suggestions how to help this problem, I’m reluctant to go to the Doctors as I’m sure it is only a case of exercise and pain killers.</p>\n<p>Any suggestions would be appreciated.</p>\n<p>Thanks.</p>\n      </div>\n      <meta itemprop='interactionCount' content='UserLikes:0'>\n      <meta itemprop='interactionCount' content='UserComments:0'>\n      <meta itemprop='headline' content='Parkinson&#39;s and sciatica'>\n      <hr>\n            <a href=\"https://forum.parkinsons.org.uk/t/sciatica/19584/2\">Sciatica</a>\n            <hr>\n  </div>\n  <div itemscope itemtype='http://schema.org/DiscussionForumPosting'>\n      <div class='creator'>\n        <span>\n          <a href='/u/Musical66'><b itemprop='author'>Musical66</b></a>\n          \n          <time datetime='2018-10-16T21:28:11Z' itemprop='datePublished'>\n            2018-10-16 21:28:11 UTC\n          </time>\n        </span>\n        <span itemprop='position'>#2</span>\n      </div>\n      <div class='post' itemprop='articleBody'>\n        <p>Hi Marg’s, sorry you are having this pain. I know how you feel as I had the same thing a few weeks ago and the pain was excruciating! I visited averygood local physio who did quite a lot of deep massage and gradually the pain eased. I now do a series of stretching exercises every morning (recommended by the physio) and so far, so good. I think that Parkinson’s makes you more susceptible to this kind of problem because I have a constant fight with muscle tension, particularly in my lower back. I would suggest you find a good therapist who will confirm whether it is sciatica and hopefully treat the problem. Good luck!</p>\n      </div>\n      <meta itemprop='interactionCount' content='UserLikes:0'>\n      <meta itemprop='interactionCount' content='UserComments:1'>\n      <meta itemprop='headline' content='Parkinson&#39;s and sciatica'>\n      <hr>\n  </div>\n  <div itemscope itemtype='http://schema.org/DiscussionForumPosting'>\n      <div class='creator'>\n        <span>\n          <a href='/u/Margs'><b itemprop='author'>Margs</b></a>\n          \n          <time datetime='2018-10-16T21:59:09Z' itemprop='datePublished'>\n            2018-10-16 21:59:09 UTC\n          </time>\n        </span>\n        <span itemprop='position'>#3</span>\n      </div>\n      <div class='post' itemprop='articleBody'>\n        <p>Thank you Musical66, I’m going to look up a physiotherapist now.  It’s getting to the point I don’t want to go to bed as I have to go through agony for an hour or so.  Strangely after that item on.</p>\n      </div>\n      <meta itemprop='interactionCount' content='UserLikes:0'>\n      <meta itemprop='interactionCount' content='UserComments:0'>\n      <meta itemprop='headline' content='Parkinson&#39;s and sciatica'>\n      <hr>\n  </div>\n  <div itemscope itemtype='http://schema.org/DiscussionForumPosting'>\n      <div class='creator'>\n        <span>\n          <a href='/u/Fatforester'><b itemprop='author'>Fatforester</b></a>\n          \n          <time datetime='2018-10-17T22:20:30Z' itemprop='datePublished'>\n            2018-10-17 22:20:30 UTC\n          </time>\n        </span>\n        <span itemprop='position'>#4</span>\n      </div>\n      <div class='post' itemprop='articleBody'>\n        <p>Margs,  I too have had severe sciatica,  for over 1 year before the leg pain improved noticeably.   That was nearly 3 years ago.    My back does get progressively stiffer emanating from tight muscles in my lower back,  perhaps as a result of my Parkinsons gait and my GP prescribes me regular visits to the chiropractor ,  5 or 6 visits per prescription.   It is a godsend!    After each visit the gap before the next session is needed gets longer,   now many months.<br>\nHope this helps  -  it helped me</p>\n      </div>\n      <meta itemprop='interactionCount' content='UserLikes:0'>\n      <meta itemprop='interactionCount' content='UserComments:0'>\n      <meta itemprop='headline' content='Parkinson&#39;s and sciatica'>\n      <hr>\n  </div>\n  <div itemscope itemtype='http://schema.org/DiscussionForumPosting'>\n      <div class='creator'>\n        <span>\n          <a href='/u/Koru'><b itemprop='author'>Koru</b></a>\n          \n          <time datetime='2018-10-18T05:35:35Z' itemprop='datePublished'>\n            2018-10-18 05:35:35 UTC\n          </time>\n        </span>\n        <span itemprop='position'>#5</span>\n      </div>\n      <div class='post' itemprop='articleBody'>\n        <p>Hello Margs,</p>\n<p>Sorry to hear that but unfortunately yes, the problem is well-known. In my case the unbearable pain in the lower back led to the surgery of the slipped disc (at the level L5/S1). Although the surgery itself went well and I have no back pain since then, I‘ve been told that this is likely to happen again, because - like Musical66 said - of the constant battle with the muscle tension. This tension forces me to walk kind of twisted which affects my lower back area…</p>\n<p>So I would definitely recommend you to consult a physician or a physiotherapist. Apart from freeing you from pain they can also show you some excercises that will do you good and that you can incorporate into your daily routine… good luck!</p>\n      </div>\n      <meta itemprop='interactionCount' content='UserLikes:0'>\n      <meta itemprop='interactionCount' content='UserComments:0'>\n      <meta itemprop='headline' content='Parkinson&#39;s and sciatica'>\n      <hr>\n  </div>\n  <div itemscope itemtype='http://schema.org/DiscussionForumPosting'>\n      <div class='creator'>\n        <span>\n          <a href='/u/Soapy'><b itemprop='author'>Soapy</b></a>\n          \n          <time datetime='2018-10-18T13:58:27Z' itemprop='datePublished'>\n            2018-10-18 13:58:27 UTC\n          </time>\n        </span>\n        <span itemprop='position'>#6</span>\n      </div>\n      <div class='post' itemprop='articleBody'>\n        <p>Hi Margs.</p>\n<p>I had extreme pain in one of my legs so much so I could barely walk first thing in a morning and this pain lasted for 2-3 hours.each morning. My Parkinson Consultant believed it was all down to Parkinsons, However I was not prepared to accept the Parkinson diagnosis and went to my own Doctor who said he believed it was caused by a back problem. I consulted a neurosurgeon who recommended a MRI of my cervical &amp; Lumbar Spine. The results confirmed L4/5 canal stenosis &amp; L4/5 decompression &amp; right sided Sciatica, I underwent the operation in late February and immediately I had undergone the procedure I had no pain whatsoever and was in the hospital for one night. I have since started playing golf again! This may be an avenue to follow. Good luck. Keith</p>\n      </div>\n      <meta itemprop='interactionCount' content='UserLikes:0'>\n      <meta itemprop='interactionCount' content='UserComments:0'>\n      <meta itemprop='headline' content='Parkinson&#39;s and sciatica'>\n      <hr>\n  </div>\n  <div itemscope itemtype='http://schema.org/DiscussionForumPosting'>\n      <div class='creator'>\n        <span>\n          <a href='/u/Margs'><b itemprop='author'>Margs</b></a>\n          \n          <time datetime='2018-10-18T17:10:43Z' itemprop='datePublished'>\n            2018-10-18 17:10:43 UTC\n          </time>\n        </span>\n        <span itemprop='position'>#7</span>\n      </div>\n      <div class='post' itemprop='articleBody'>\n        <p>Thanks everyone for your replies.  I went to a chiropractor yesterday and he has told me to put an ice pack on my back and did some manipulation.</p>\n<p>Unfortunately have a bad cold so spent longer in bed today, consequently when I did get up around 11 it still took me a couple of hours before I could function without pains in my back.</p>\n<p>Going back next week and hopefully things will get better.  I just dread going to bed as I know it will be agony when I get up.</p>\n<p>Starting to feel down but trying to pull myself out of it as feeling positive is the only way to go.</p>\n<p>Thanks for everyone’s support.</p>\n      </div>\n      <meta itemprop='interactionCount' content='UserLikes:0'>\n      <meta itemprop='interactionCount' content='UserComments:0'>\n      <meta itemprop='headline' content='Parkinson&#39;s and sciatica'>\n      <hr>\n  </div>\n  <div itemscope itemtype='http://schema.org/DiscussionForumPosting'>\n      <div class='creator'>\n        <span>\n          <a href='/u/gus'><b itemprop='author'>gus</b></a>\n          \n          <time datetime='2018-10-19T16:59:55Z' itemprop='datePublished'>\n            2018-10-19 16:59:55 UTC\n          </time>\n        </span>\n        <span itemprop='position'>#8</span>\n      </div>\n      <div class='post' itemprop='articleBody'>\n        <p>I’ve been having epidural and facet injections for 8years had Parkinson’s 11 yrs I think it was down too dyskinesia and dystonia also have a lot of nerve pain in legs and cramping muscles</p>\n      </div>\n      <meta itemprop='interactionCount' content='UserLikes:0'>\n      <meta itemprop='interactionCount' content='UserComments:1'>\n      <meta itemprop='headline' content='Parkinson&#39;s and sciatica'>\n      <hr>\n  </div>\n  <div itemscope itemtype='http://schema.org/DiscussionForumPosting'>\n      <div class='creator'>\n        <span>\n          <a href='/u/Supa'><b itemprop='author'>Supa</b></a>\n          \n          <time datetime='2018-10-23T18:07:04Z' itemprop='datePublished'>\n            2018-10-23 18:07:04 UTC\n          </time>\n        </span>\n        <span itemprop='position'>#9</span>\n      </div>\n      <div class='post' itemprop='articleBody'>\n        <p>Hi everybody</p>\n<p>For the last 10 weeks I too have had an excruciating pain which originates in my right hip and goes down the front of my leg into my knee. It is worst on getting out of bed in the morning.</p>\n<p>I have had lower back pain for many years and had an MRI before my PD diagnosis, showing mild disc bulges at L2/3 and L3/4, disc degeneration at L4/5 and facet joint Osteo-arthritis particularly on right side. The question is whether this has increased since 2014, to a point where it is causing nerve compression.</p>\n<p>My pain is possibly from femoral nerve entrapment rather than sciatic as it goes down the front of my leg.</p>\n<p>I don’t think the two conditions are linked, but the pain certainly makes my gait initiation even worse, presumably because psychologically it takes away my confidence in moving.</p>\n<p>Now seeing my chiropractor, who says<br>\n“ in my experience it often can take 6-8 weeks for improvement often starting intensely with 2 sessions per week for 2-3 weeks and then weekly for 2-3 weeks and then reducing as tho condition improves.  Nerve pain is usually felt very strongly through the hip and certainly the upper sciatic nerves L2 (femoral) and L3 nerve roots run along the front of the thigh to the knee. I would usually suggest a trial course of treatment over a 5-6 week period.  If no significant improvement has been made then a referral to the musculoskeletal clinic would be recommended via the GP.  “</p>\n<p>Hope you are all getting some help now.</p>\n<p>S</p>\n      </div>\n      <meta itemprop='interactionCount' content='UserLikes:0'>\n      <meta itemprop='interactionCount' content='UserComments:0'>\n      <meta itemprop='headline' content='Parkinson&#39;s and sciatica'>\n      <hr>\n  </div>\n\n\n\n\n\n\n    </div>\n    <footer class=\"container\">\n      <nav class='crawler-nav' itemscope itemtype='http://schema.org/SiteNavigationElement'>\n        <a href='/'>Home</a>\n        <a href=\"/categories\">Categories</a>\n        <a href=\"/guidelines\">FAQ/Guidelines</a>\n        <a href=\"/tos\">Terms of Service</a>\n        <a href=\"/privacy\">Privacy Policy</a>\n      </nav>\n      <p class='powered-by-link'>Powered by <a href=\"https://www.discourse.org\">Discourse</a>, best viewed with JavaScript enabled</p>\n    </footer>\n    \n  </body>\n  \n</html>\n",
  "url": "https://forum.parkinsons.org.uk/t/parkinsons-and-sciatica/16140"
}