{
  "contentId": "cacea7d0-886b-11e9-8f96-97f71b5221d6",
  "html": "<!DOCTYPE html>\n<html lang=\"en\">\n  <head>\n    <meta charset=\"utf-8\">\n    <title>Parkinson&#39;s with Autonomic Dysfunction - confusion - Symptoms - Parkinson&#39;s UK Forum</title>\n    <meta name=\"description\" content=\"Hi all. My husband was diagnosed with PD around 18 months’ ago, and with Autonomic Dysfunction shortly after. He doesn’t have too many problems with movement at the moment, but has become extremely fatigued most of the t&amp;hellip;\">\n    <meta name=\"author\" content=\"\">\n<meta name=\"generator\" content=\"Discourse 2.2.5 - https://github.com/discourse/discourse version c294ff3609f988dcafb742e91606d60ca13b794d\">\n<link rel=\"icon\" type=\"image/png\" href=\"https://forum.parkinsons.org.uk/uploads/db7928/original/2X/3/311fc84f89f49f38601a2f16b295b6f03d3ce5dd.jpg\">\n<link rel=\"apple-touch-icon\" type=\"image/png\" href=\"https://forum.parkinsons.org.uk/uploads/db7928/original/2X/3/311fc84f89f49f38601a2f16b295b6f03d3ce5dd.jpg\">\n<meta name=\"theme-color\" content=\"#ffffff\">\n<meta name=\"viewport\" content=\"width=device-width, minimum-scale=1.0, maximum-scale=1.0, user-scalable=yes\">\n<link rel=\"canonical\" href=\"https://forum.parkinsons.org.uk/t/parkinsons-with-autonomic-dysfunction-confusion/18521\" />\n<script type=\"application/ld+json\">{\"@context\":\"http://schema.org\",\"@type\":\"WebSite\",\"url\":\"https://forum.parkinsons.org.uk\",\"potentialAction\":{\"@type\":\"SearchAction\",\"target\":\"https://forum.parkinsons.org.uk/search?q={search_term_string}\",\"query-input\":\"required name=search_term_string\"}}</script>\n<link rel=\"search\" type=\"application/opensearchdescription+xml\" href=\"https://forum.parkinsons.org.uk/opensearch.xml\" title=\"Parkinson&#39;s UK Forum Search\">\n\n      <link href=\"/stylesheets/desktop_f99246ae801b083d3e4cca979d0dade8615b39ac.css?__ws=forum.parkinsons.org.uk\" media=\"all\" rel=\"stylesheet\" data-target=\"desktop\" data-theme-id=\"12\"/>\n      <link href=\"/stylesheets/desktop_theme_12_5d27531cf43f9df0c03a6a6ec3109dd05f9dfc49.css?__ws=forum.parkinsons.org.uk\" media=\"all\" rel=\"stylesheet\" data-target=\"desktop_theme\" data-theme-id=\"12\"/>\n    <link href=\"https://fonts.googleapis.com/css?family=Open+Sans\" rel=\"stylesheet\">\n\n    <meta id=\"data-ga-universal-analytics\" data-tracking-code=\"UA-4855628-1\" data-json=\"{&quot;cookieDomain&quot;:&quot;auto&quot;}\" data-auto-link-domains=\"\">\n\n<link rel='preload' href='/assets/google-universal-analytics-f35b4da49411e6f5559073523aab983da483976a3954c79c756f8579f6fbd6ef.js' as='script'/>\n<script src='/assets/google-universal-analytics-f35b4da49411e6f5559073523aab983da483976a3954c79c756f8579f6fbd6ef.js'></script>\n\n      <link rel=\"alternate\" type=\"application/rss+xml\" title=\"RSS feed of &#39;Parkinson&#39;s with Autonomic Dysfunction - confusion&#39;\" href=\"https://forum.parkinsons.org.uk/t/parkinsons-with-autonomic-dysfunction-confusion/18521.rss\" />\n  <meta property=\"og:site_name\" content=\"Parkinson&#39;s UK Forum\" />\n<meta name=\"twitter:card\" content=\"summary\" />\n<meta name=\"twitter:image\" content=\"https://forum.parkinsons.org.uk/uploads/db7928/original/2X/3/311fc84f89f49f38601a2f16b295b6f03d3ce5dd.jpg\" />\n<meta property=\"og:image\" content=\"https://forum.parkinsons.org.uk/uploads/db7928/original/2X/3/311fc84f89f49f38601a2f16b295b6f03d3ce5dd.jpg\" />\n<meta property=\"og:url\" content=\"https://forum.parkinsons.org.uk/t/parkinsons-with-autonomic-dysfunction-confusion/18521\" />\n<meta name=\"twitter:url\" content=\"https://forum.parkinsons.org.uk/t/parkinsons-with-autonomic-dysfunction-confusion/18521\" />\n<meta property=\"og:title\" content=\"Parkinson&#39;s with Autonomic Dysfunction - confusion\" />\n<meta name=\"twitter:title\" content=\"Parkinson&#39;s with Autonomic Dysfunction - confusion\" />\n<meta property=\"og:description\" content=\"Hi all. My husband was diagnosed with PD around 18 months’ ago, and with Autonomic Dysfunction shortly after. He doesn’t have too many problems with movement at the moment, but has become extremely fatigued most of the time and increasingly confused. What’s difficult to judge is whether this is down to the condition, or to two new drugs that were recently added to his daily doses of Co-Careldopa. So, in addition he is now also taking a daily dose of 1.05mg of Pramipexole (slow-release given last...\" />\n<meta name=\"twitter:description\" content=\"Hi all. My husband was diagnosed with PD around 18 months’ ago, and with Autonomic Dysfunction shortly after. He doesn’t have too many problems with movement at the moment, but has become extremely fatigued most of the time and increasingly confused. What’s difficult to judge is whether this is down to the condition, or to two new drugs that were recently added to his daily doses of Co-Careldopa. So, in addition he is now also taking a daily dose of 1.05mg of Pramipexole (slow-release given last...\" />\n<meta name=\"twitter:label1\" value=\"Reading time\" />\n<meta name=\"twitter:data1\" value=\"2 mins \uD83D\uDD51\" />\n<meta name=\"twitter:label2\" value=\"Likes\" />\n<meta name=\"twitter:data2\" value=\"3 ❤\" />\n<meta property=\"article:published_time\" content=\"2019-03-22T12:45:38+00:00\" />\n<meta property=\"og:ignore_canonical\" content=\"true\" />\n\n\n\n    \n  </head>\n  <body class=\"crawler\">\n    <header role=\"banner\">\n    <div class=\"region region-header\">\n        <div class=\"region-header-wrapper\">\n            <div id=\"block-parkinsons-d8-branding\" class=\"block block-system block-system-branding-block\">\n                <a href=\"/\" title=\"Home\" rel=\"home\" class=\"site-logo\">\n                    <img src=\"https://forum.parkinsons.org.uk/uploads/db7928/original/2X/8/862bb7d172e7d127e7f3e147ec43594aa62ac945.png\" alt=\"Parkinson's UK. Change Attitudes. Find a cure. Join us.\">\n                </a>\n            </div>\n            <div id=\"block-helpline\" class=\"block block-block-content block-block-content871cd5af-b938-4947-9dc0-d5c211d08fe3 style-phone\">\n                <div class=\"field field--name-field-link field--type-link field--label-hidden field__item\"><a href=\"tel:+448088000303\">Helpline 0808 800 0303</a></div>\n            </div>\n            <div id=\"block-shop\" class=\"block block-block-content block-block-content6fba5ae5-7797-49cd-8367-f321d8111cd6 style-regular\">\n                <div class=\"field field--name-field-link field--type-link field--label-hidden field__item\"><a href=\"https://shop.parkinsons.org.uk\">Shop</a></div>\n            </div>\n        </div>\n    </div>\n</header>\n\n\n<script src=\"/theme-javascripts/b7e9763fcb584fc8265c56a9f557cd6d2e1e8ed8.js?__ws=forum.parkinsons.org.uk\"></script>\n    <header>\n      <a href=\"/\">\n          <img src=\"https://forum.parkinsons.org.uk/uploads/db7928/original/2X/8/862bb7d172e7d127e7f3e147ec43594aa62ac945.png\" alt=\"Parkinson&#39;s UK Forum\" id=\"site-logo\" style=\"max-width: 150px;\">\n      </a>\n    </header>\n    <div id=\"main-outlet\" class=\"wrap\">\n      <h1>\n  <a href=\"/t/parkinsons-with-autonomic-dysfunction-confusion/18521\">Parkinson&#39;s with Autonomic Dysfunction - confusion</a>\n</h1>\n\n<div id='breadcrumbs'>\n    <div id=\"breadcrumb-0\" itemscope itemtype=\"http://data-vocabulary.org/Breadcrumb\"\n        itemref=\"breadcrumb-1\"\n      >\n      <a href=\"/c/about-parkinsons-and-health\" itemprop=\"url\">\n        <span itemprop=\"title\">About Parkinson&#39;s and health</span>\n      </a>\n    </div>\n    <div id=\"breadcrumb-1\" itemscope itemtype=\"http://data-vocabulary.org/Breadcrumb\"\n>\n      <a href=\"/c/about-parkinsons-and-health/symptoms\" itemprop=\"url\">\n        <span itemprop=\"title\">Symptoms</span>\n      </a>\n    </div>\n</div>\n\n\n\n\n\n<hr>\n\n\n  <div itemscope itemtype='http://schema.org/DiscussionForumPosting'>\n      <div class='creator'>\n        <span>\n          <a href='/u/Oodles441'><b itemprop='author'>Oodles441</b></a>\n          \n          <time datetime='2019-03-22T12:45:38Z' itemprop='datePublished'>\n            2019-03-22 12:45:38 UTC\n          </time>\n        </span>\n        <span itemprop='position'>#1</span>\n      </div>\n      <div class='post' itemprop='articleBody'>\n        <p>Hi all. My husband was diagnosed with PD around 18 months’ ago, and with Autonomic Dysfunction shortly after. He doesn’t have too many problems with movement at the moment, but has become extremely fatigued most of the time and increasingly confused. What’s difficult to judge is whether this is down to the condition, or to two new drugs that were recently added to his daily doses of Co-Careldopa. So, in addition he is now also taking a daily dose of 1.05mg of Pramipexole (slow-release given last thing at night to help with the fact he was slow in the mornings) and 60mg of Duloxetine (given to relieve mild anxiety).  He’s less anxious, but if anything is even more sluggish in the mornings (and throughout the day). Does anyone have any experience of these drugs, and/or the combination of PD and Autonomic Dysfunction? Thanks.</p>\n      </div>\n      <meta itemprop='interactionCount' content='UserLikes:0'>\n      <meta itemprop='interactionCount' content='UserComments:0'>\n      <meta itemprop='headline' content='Parkinson&#39;s with Autonomic Dysfunction - confusion'>\n      <hr>\n  </div>\n  <div itemscope itemtype='http://schema.org/DiscussionForumPosting'>\n      <div class='creator'>\n        <span>\n          <a href='/u/Omahatom'><b itemprop='author'>Omahatom</b></a>\n          \n          <time datetime='2019-03-23T11:28:12Z' itemprop='datePublished'>\n            2019-03-23 11:28:12 UTC\n          </time>\n        </span>\n        <span itemprop='position'>#2</span>\n      </div>\n      <div class='post' itemprop='articleBody'>\n        <p>Hello Oodles441 I saw no one has answered as of yet. All the people in this club are different.  I can tell you that the antagonist drugs do have more side effects for others that post. My cousin takes Pramipexole and he seems more hyper and tends to be compulsive. My doctor has kept me on plan old sinemet.<br>\nMy autonomic dysfunction was Constipation and hypostatic blood pressure with bouts of depression and through in fatigue.  This I had before any diagnosis.</p>\n<p>I am no doctor. But I am sluggish in the morning as well.  Does your husband sleep straight through till morning or does he get up throughout the night.  I saw you did not mention clonazePam it is usually given for Rem Sleep disorder. (that makes you foggy in the morning.) I think Most drugs for anxiety calm you down. (Fatigue?)do to drug. I know Co-Careldopa(sinemet) makes one tired. I take 900mg/day. (diagnosed 5 years symptoms 10years)<br>\nI definately would talk to you doctor about the confusion.  I will tell you in my case if I have had times where my sleep has been little or none I have bouts of confusion.<br>\nIt is always wise when talking to some of us PWP (I know someone  who is hardheaded and difficult for his wife to get him to go to the doctor)?LOL<br>\nBut it was helpful for me to have my cognition tested.  Mine tested slowed but no start of dementia. Please this is not meant to scare you. (just clears up the confusion part of your post.) To end up your husband is lucky to have a wife like you who cares about him as you do. If he is a little hardheaded. I would let him read the post from a fellow hardhead. Going to the doctor and getting extra testes if needed are part of Parkinson’s. We are not a lesser man to admit things are changing.  Going to the doctor many times restores some of the changes medicine might be causing.  Everyone functions better family wise checking things out.  Good day to you.  Tom</p>\n      </div>\n      <meta itemprop='interactionCount' content='UserLikes:0'>\n      <meta itemprop='interactionCount' content='UserComments:1'>\n      <meta itemprop='headline' content='Parkinson&#39;s with Autonomic Dysfunction - confusion'>\n      <hr>\n  </div>\n  <div itemscope itemtype='http://schema.org/DiscussionForumPosting'>\n      <div class='creator'>\n        <span>\n          <a href='/u/boredsurfer'><b itemprop='author'>boredsurfer</b></a>\n          \n          <time datetime='2019-03-23T23:39:40Z' itemprop='datePublished'>\n            2019-03-23 23:39:40 UTC\n          </time>\n        </span>\n        <span itemprop='position'>#3</span>\n      </div>\n      <div class='post' itemprop='articleBody'>\n        <p>I’ve been on duloxatine for 10 plus years (120mg per day) and have been on sinemet (6 x 62.5) for 2 years, duloxatine doesn’t tire me out personally, was on prozac b4 that but moved to duloxatine when that stopped working.  I also take cbd but mainly find it helps my mood and cope with parkinsons better.</p>\n      </div>\n      <meta itemprop='interactionCount' content='UserLikes:0'>\n      <meta itemprop='interactionCount' content='UserComments:1'>\n      <meta itemprop='headline' content='Parkinson&#39;s with Autonomic Dysfunction - confusion'>\n      <hr>\n  </div>\n  <div itemscope itemtype='http://schema.org/DiscussionForumPosting'>\n      <div class='creator'>\n        <span>\n          <a href='/u/FF'><b itemprop='author'>FF</b></a>\n          \n          <time datetime='2019-03-24T05:30:06Z' itemprop='datePublished'>\n            2019-03-24 05:30:06 UTC\n          </time>\n        </span>\n        <span itemprop='position'>#4</span>\n      </div>\n      <div class='post' itemprop='articleBody'>\n        <p>Hi,</p>\n<p>I have no idea re meds, but dehydration definitely makes my dad more sluggish and we have found that if he has black coffee, he is so much more able to have a good day (without, can barely lift his head off the bed, with can get up, move around, walk and helps his speech a bit too). It seems to make his meds much more effective. Won’t work for everyone, but worth a try (if able to drink, make sure he has plenty water too, I found my dad never realises when he is dehydrated until too late).</p>\n<p>Good luck</p>\n      </div>\n      <meta itemprop='interactionCount' content='UserLikes:0'>\n      <meta itemprop='interactionCount' content='UserComments:0'>\n      <meta itemprop='headline' content='Parkinson&#39;s with Autonomic Dysfunction - confusion'>\n      <hr>\n  </div>\n  <div itemscope itemtype='http://schema.org/DiscussionForumPosting'>\n      <div class='creator'>\n        <span>\n          <a href='/u/Oodles441'><b itemprop='author'>Oodles441</b></a>\n          \n          <time datetime='2019-03-24T22:34:31Z' itemprop='datePublished'>\n            2019-03-24 22:34:31 UTC\n          </time>\n        </span>\n        <span itemprop='position'>#5</span>\n      </div>\n      <div class='post' itemprop='articleBody'>\n        <p>Thanks so much for responding. I’m definitely going to make an appointment with the GP tomorrow and give his PD Nurse a call. Unfortunately he’s not due to see the consultant until July but in view of his Autonomic Dysfunction test results (not good) I’m going to see if I can get the appointment brought forward and to ask for cognitive testing. In answer to your question he only takes the drugs I mentioned. Sleep during the night isn’t too bad (interrupted mainly by visits to the loo) but he does dream a lot and can sometimes be woken as a result.  It’s the confusion and overwhelming fatigue that are the main worries at the moment so I’ll try to get to the bottom of that problem first, I think. Cheers</p>\n      </div>\n      <meta itemprop='interactionCount' content='UserLikes:0'>\n      <meta itemprop='interactionCount' content='UserComments:0'>\n      <meta itemprop='headline' content='Parkinson&#39;s with Autonomic Dysfunction - confusion'>\n      <hr>\n  </div>\n  <div itemscope itemtype='http://schema.org/DiscussionForumPosting'>\n      <div class='creator'>\n        <span>\n          <a href='/u/Oodles441'><b itemprop='author'>Oodles441</b></a>\n          \n          <time datetime='2019-03-24T22:34:38Z' itemprop='datePublished'>\n            2019-03-24 22:34:38 UTC\n          </time>\n        </span>\n        <span itemprop='position'>#6</span>\n      </div>\n      <div class='post' itemprop='articleBody'>\n        <p>Thanks for that. So difficult to judge re drugs, isn’t it, because I guess they affect people in different ways. Glad the Duloxetine seems to be working for you at any rate. Cheers.</p>\n      </div>\n      <meta itemprop='interactionCount' content='UserLikes:0'>\n      <meta itemprop='interactionCount' content='UserComments:0'>\n      <meta itemprop='headline' content='Parkinson&#39;s with Autonomic Dysfunction - confusion'>\n      <hr>\n  </div>\n  <div itemscope itemtype='http://schema.org/DiscussionForumPosting'>\n      <div class='creator'>\n        <span>\n          <a href='/u/Oodles441'><b itemprop='author'>Oodles441</b></a>\n          \n          <time datetime='2019-03-24T22:34:52Z' itemprop='datePublished'>\n            2019-03-24 22:34:52 UTC\n          </time>\n        </span>\n        <span itemprop='position'>#7</span>\n      </div>\n      <div class='post' itemprop='articleBody'>\n        <p>It’s a vicious cycle isn’t it. I’m bored of my own voice nagging my husband to drink  more. I genuinely think that, because of his confusion, he forgets. He’s generally cut coffee and alcohol fro m his diet but I’ll definitely give black coffee a go, and resume nagging mode re the water. Thanks.</p>\n      </div>\n      <meta itemprop='interactionCount' content='UserLikes:1'>\n      <meta itemprop='interactionCount' content='UserComments:0'>\n      <meta itemprop='headline' content='Parkinson&#39;s with Autonomic Dysfunction - confusion'>\n      <hr>\n  </div>\n  <div itemscope itemtype='http://schema.org/DiscussionForumPosting'>\n      <div class='creator'>\n        <span>\n          <a href='/u/Omahatom'><b itemprop='author'>Omahatom</b></a>\n          \n          <time datetime='2019-03-25T11:01:35Z' itemprop='datePublished'>\n            2019-03-25 11:01:35 UTC\n          </time>\n        </span>\n        <span itemprop='position'>#8</span>\n      </div>\n      <div class='post' itemprop='articleBody'>\n        <p>Oodles441<br>\nMany times the person looking after us PWP struggles in ways that we take for granted!  Without that special person who  make many sacrifices to make are lives better. Where would we be?<br>\nOodles  and  to others like you.  THANK YOU!  PWP</p>\n      </div>\n      <meta itemprop='interactionCount' content='UserLikes:2'>\n      <meta itemprop='interactionCount' content='UserComments:0'>\n      <meta itemprop='headline' content='Parkinson&#39;s with Autonomic Dysfunction - confusion'>\n      <hr>\n  </div>\n  <div itemscope itemtype='http://schema.org/DiscussionForumPosting'>\n      <div class='creator'>\n        <span>\n          <a href='/u/FF'><b itemprop='author'>FF</b></a>\n          \n          <time datetime='2019-03-26T02:07:15Z' itemprop='datePublished'>\n            2019-03-26 02:07:15 UTC\n          </time>\n        </span>\n        <span itemprop='position'>#9</span>\n      </div>\n      <div class='post' itemprop='articleBody'>\n        <p>Dehydration is definitely a danger. Like you say, you often find that they forget then as they get dehydrated they actually feel less thirsty. (Confusion can also be a sign of dehydration)<br>\nI stopped nagging as my dad got stubborn,  I just used to make a drink, put it near then have a conversation while drinking (he chatted and would drink as a reaction to my drinking. Now I just syringe it down the tube when I see the signs.)</p>\n<p>I really hope that the coffee works for your husband and will look out for any updates. Good luck.</p>\n      </div>\n      <meta itemprop='interactionCount' content='UserLikes:0'>\n      <meta itemprop='interactionCount' content='UserComments:0'>\n      <meta itemprop='headline' content='Parkinson&#39;s with Autonomic Dysfunction - confusion'>\n      <hr>\n  </div>\n  <div itemscope itemtype='http://schema.org/DiscussionForumPosting'>\n      <div class='creator'>\n        <span>\n          <a href='/u/Oodles441'><b itemprop='author'>Oodles441</b></a>\n          \n          <time datetime='2019-03-26T11:16:45Z' itemprop='datePublished'>\n            2019-03-26 11:16:45 UTC\n          </time>\n        </span>\n        <span itemprop='position'>#10</span>\n      </div>\n      <div class='post' itemprop='articleBody'>\n        <p>Thanks FF. You’re right. They do forget. All I keep finding are cups of water. My husband fills them then forgets he’s done it so fills another, probably convincing himself that he drank the previous one.  But I’\\lll persevere!</p>\n      </div>\n      <meta itemprop='interactionCount' content='UserLikes:0'>\n      <meta itemprop='interactionCount' content='UserComments:1'>\n      <meta itemprop='headline' content='Parkinson&#39;s with Autonomic Dysfunction - confusion'>\n      <hr>\n  </div>\n  <div itemscope itemtype='http://schema.org/DiscussionForumPosting'>\n      <div class='creator'>\n        <span>\n          <a href='/u/FF'><b itemprop='author'>FF</b></a>\n          \n          <time datetime='2019-03-26T22:22:59Z' itemprop='datePublished'>\n            2019-03-26 22:22:59 UTC\n          </time>\n        </span>\n        <span itemprop='position'>#11</span>\n      </div>\n      <div class='post' itemprop='articleBody'>\n        <p>Exactly and dehydration really adversely affects everyone not just those with PD so it’s great if able to help keep track. Take care, I will look forward to hearing how you are getting on</p>\n      </div>\n      <meta itemprop='interactionCount' content='UserLikes:0'>\n      <meta itemprop='interactionCount' content='UserComments:0'>\n      <meta itemprop='headline' content='Parkinson&#39;s with Autonomic Dysfunction - confusion'>\n      <hr>\n  </div>\n\n\n\n\n\n\n    </div>\n    <footer class=\"container\">\n      <nav class='crawler-nav' itemscope itemtype='http://schema.org/SiteNavigationElement'>\n        <a href='/'>Home</a>\n        <a href=\"/categories\">Categories</a>\n        <a href=\"/guidelines\">FAQ/Guidelines</a>\n        <a href=\"/tos\">Terms of Service</a>\n        <a href=\"/privacy\">Privacy Policy</a>\n      </nav>\n      <p class='powered-by-link'>Powered by <a href=\"https://www.discourse.org\">Discourse</a>, best viewed with JavaScript enabled</p>\n    </footer>\n    \n  </body>\n  \n</html>\n",
  "url": "https://forum.parkinsons.org.uk/t/parkinsons-with-autonomic-dysfunction-confusion/18521"
}