{
  "contentId": "524a17e0-8866-11e9-8f96-97f71b5221d6",
  "html": "<!DOCTYPE html>\n<html lang=\"en\">\n  <head>\n    <meta charset=\"utf-8\">\n    <title>Help make research on the Parkinson’s UK website better! - Research opportunities - Parkinson&#39;s UK Forum</title>\n    <meta name=\"description\" content=\"Hi everyone \r\nWe want to make the research information we provide on the Parkinson’s UK website as useful, clear and easy to find as possible so we’re carrying out a survey to gather feedback. \r\nWe need your help! \r\nIf y&amp;hellip;\">\n    <meta name=\"author\" content=\"\">\n<meta name=\"generator\" content=\"Discourse 2.2.5 - https://github.com/discourse/discourse version c294ff3609f988dcafb742e91606d60ca13b794d\">\n<link rel=\"icon\" type=\"image/png\" href=\"https://forum.parkinsons.org.uk/uploads/db7928/original/2X/3/311fc84f89f49f38601a2f16b295b6f03d3ce5dd.jpg\">\n<link rel=\"apple-touch-icon\" type=\"image/png\" href=\"https://forum.parkinsons.org.uk/uploads/db7928/original/2X/3/311fc84f89f49f38601a2f16b295b6f03d3ce5dd.jpg\">\n<meta name=\"theme-color\" content=\"#ffffff\">\n<meta name=\"viewport\" content=\"width=device-width, minimum-scale=1.0, maximum-scale=1.0, user-scalable=yes\">\n<link rel=\"canonical\" href=\"https://forum.parkinsons.org.uk/t/help-make-research-on-the-parkinson-s-uk-website-better/7962\" />\n<script type=\"application/ld+json\">{\"@context\":\"http://schema.org\",\"@type\":\"WebSite\",\"url\":\"https://forum.parkinsons.org.uk\",\"potentialAction\":{\"@type\":\"SearchAction\",\"target\":\"https://forum.parkinsons.org.uk/search?q={search_term_string}\",\"query-input\":\"required name=search_term_string\"}}</script>\n<link rel=\"search\" type=\"application/opensearchdescription+xml\" href=\"https://forum.parkinsons.org.uk/opensearch.xml\" title=\"Parkinson&#39;s UK Forum Search\">\n\n      <link href=\"/stylesheets/desktop_f99246ae801b083d3e4cca979d0dade8615b39ac.css?__ws=forum.parkinsons.org.uk\" media=\"all\" rel=\"stylesheet\" data-target=\"desktop\" data-theme-id=\"12\"/>\n      <link href=\"/stylesheets/desktop_theme_12_5d27531cf43f9df0c03a6a6ec3109dd05f9dfc49.css?__ws=forum.parkinsons.org.uk\" media=\"all\" rel=\"stylesheet\" data-target=\"desktop_theme\" data-theme-id=\"12\"/>\n    <link href=\"https://fonts.googleapis.com/css?family=Open+Sans\" rel=\"stylesheet\">\n\n    <meta id=\"data-ga-universal-analytics\" data-tracking-code=\"UA-4855628-1\" data-json=\"{&quot;cookieDomain&quot;:&quot;auto&quot;}\" data-auto-link-domains=\"\">\n\n<link rel='preload' href='/assets/google-universal-analytics-f35b4da49411e6f5559073523aab983da483976a3954c79c756f8579f6fbd6ef.js' as='script'/>\n<script src='/assets/google-universal-analytics-f35b4da49411e6f5559073523aab983da483976a3954c79c756f8579f6fbd6ef.js'></script>\n\n      <link rel=\"alternate\" type=\"application/rss+xml\" title=\"RSS feed of &#39;Help make research on the Parkinson’s UK website better!&#39;\" href=\"https://forum.parkinsons.org.uk/t/help-make-research-on-the-parkinson-s-uk-website-better/7962.rss\" />\n  <meta property=\"og:site_name\" content=\"Parkinson&#39;s UK Forum\" />\n<meta name=\"twitter:card\" content=\"summary\" />\n<meta name=\"twitter:image\" content=\"https://forum.parkinsons.org.uk/uploads/db7928/original/2X/3/311fc84f89f49f38601a2f16b295b6f03d3ce5dd.jpg\" />\n<meta property=\"og:image\" content=\"https://forum.parkinsons.org.uk/uploads/db7928/original/2X/3/311fc84f89f49f38601a2f16b295b6f03d3ce5dd.jpg\" />\n<meta property=\"og:url\" content=\"https://forum.parkinsons.org.uk/t/help-make-research-on-the-parkinson-s-uk-website-better/7962\" />\n<meta name=\"twitter:url\" content=\"https://forum.parkinsons.org.uk/t/help-make-research-on-the-parkinson-s-uk-website-better/7962\" />\n<meta property=\"og:title\" content=\"Help make research on the Parkinson’s UK website better!\" />\n<meta name=\"twitter:title\" content=\"Help make research on the Parkinson’s UK website better!\" />\n<meta property=\"og:description\" content=\"Hi everyone \r We want to make the research information we provide on the Parkinson’s UK website as useful, clear and easy to find as possible so we’re carrying out a survey to gather feedback. \r We need your help! \r If you have Parkinson’s yourself, care for someone with the condition, or have a close family member of friend who is affected – please help us by participating in our simple online survey. \r Just click on the link below, or cut and paste the entire URL into your browser to access th...\" />\n<meta name=\"twitter:description\" content=\"Hi everyone \r We want to make the research information we provide on the Parkinson’s UK website as useful, clear and easy to find as possible so we’re carrying out a survey to gather feedback. \r We need your help! \r If you have Parkinson’s yourself, care for someone with the condition, or have a close family member of friend who is affected – please help us by participating in our simple online survey. \r Just click on the link below, or cut and paste the entire URL into your browser to access th...\" />\n<meta property=\"article:published_time\" content=\"2014-12-15T12:10:23+00:00\" />\n<meta property=\"og:ignore_canonical\" content=\"true\" />\n\n\n\n    \n  </head>\n  <body class=\"crawler\">\n    <header role=\"banner\">\n    <div class=\"region region-header\">\n        <div class=\"region-header-wrapper\">\n            <div id=\"block-parkinsons-d8-branding\" class=\"block block-system block-system-branding-block\">\n                <a href=\"/\" title=\"Home\" rel=\"home\" class=\"site-logo\">\n                    <img src=\"https://forum.parkinsons.org.uk/uploads/db7928/original/2X/8/862bb7d172e7d127e7f3e147ec43594aa62ac945.png\" alt=\"Parkinson's UK. Change Attitudes. Find a cure. Join us.\">\n                </a>\n            </div>\n            <div id=\"block-helpline\" class=\"block block-block-content block-block-content871cd5af-b938-4947-9dc0-d5c211d08fe3 style-phone\">\n                <div class=\"field field--name-field-link field--type-link field--label-hidden field__item\"><a href=\"tel:+448088000303\">Helpline 0808 800 0303</a></div>\n            </div>\n            <div id=\"block-shop\" class=\"block block-block-content block-block-content6fba5ae5-7797-49cd-8367-f321d8111cd6 style-regular\">\n                <div class=\"field field--name-field-link field--type-link field--label-hidden field__item\"><a href=\"https://shop.parkinsons.org.uk\">Shop</a></div>\n            </div>\n        </div>\n    </div>\n</header>\n\n\n<script src=\"/theme-javascripts/b7e9763fcb584fc8265c56a9f557cd6d2e1e8ed8.js?__ws=forum.parkinsons.org.uk\"></script>\n    <header>\n      <a href=\"/\">\n          <img src=\"https://forum.parkinsons.org.uk/uploads/db7928/original/2X/8/862bb7d172e7d127e7f3e147ec43594aa62ac945.png\" alt=\"Parkinson&#39;s UK Forum\" id=\"site-logo\" style=\"max-width: 150px;\">\n      </a>\n    </header>\n    <div id=\"main-outlet\" class=\"wrap\">\n      <h1>\n  <a href=\"/t/help-make-research-on-the-parkinson-s-uk-website-better/7962\">Help make research on the Parkinson’s UK website better!</a>\n</h1>\n\n<div id='breadcrumbs'>\n    <div id=\"breadcrumb-0\" itemscope itemtype=\"http://data-vocabulary.org/Breadcrumb\"\n        itemref=\"breadcrumb-1\"\n      >\n      <a href=\"/c/research\" itemprop=\"url\">\n        <span itemprop=\"title\">Research</span>\n      </a>\n    </div>\n    <div id=\"breadcrumb-1\" itemscope itemtype=\"http://data-vocabulary.org/Breadcrumb\"\n>\n      <a href=\"/c/research/research-opportunities\" itemprop=\"url\">\n        <span itemprop=\"title\">Research opportunities</span>\n      </a>\n    </div>\n</div>\n\n\n\n\n\n<hr>\n\n\n  <div itemscope itemtype='http://schema.org/DiscussionForumPosting'>\n      <div class='creator'>\n        <span>\n          <a href='/u/Research'><b itemprop='author'>Research</b></a>\n          \n          <time datetime='2014-12-15T12:10:23Z' itemprop='datePublished'>\n            2014-12-15 12:10:23 UTC\n          </time>\n        </span>\n        <span itemprop='position'>#1</span>\n      </div>\n      <div class='post' itemprop='articleBody'>\n        <p>Hi everyone</p>\r\n<p>We want to make the research information we provide on the Parkinson&rsquo;s UK website as useful, clear and easy to find as possible so we&rsquo;re carrying out a survey to gather feedback.</p>\r\n<p><em><strong>We need your help!</strong></em></p>\r\n<p>If you have Parkinson&rsquo;s yourself, care for someone with the condition, or have a close family member of friend who is affected &ndash; please help us by participating in our simple online survey.</p>\r\n<p>Just click on the link below, or cut and paste the entire URL into your browser to access the survey:&nbsp;<strong><a href=\"https://bit.ly/1yTudEb\" target=\"_blank\">http://bit.ly/1yTudEb</a></strong></p>\r\n<p><span style=\"font-size: 13.3333339691162px; line-height: 1.538em;\">The survey should take you no more than 15-20 minutes to complete.</span><span style=\"font-size: 13.3333339691162px; line-height: 1.538em;\">Your input is very important to us and will be kept strictly confidential.</span></p>\r\n<p>If you have any questions please contact us at <a href=\"/cdn-cgi/l/email-protection#f3819680969281909bb3839281989a9d809c9d80dd9c8194dd8698\" target=\"_blank\"><span class=\"__cf_email__\" data-cfemail=\"94e6f1e7f1f5e6f7fcd4e4f5e6fffdfae7fbfae7bafbe6f3bae1ff\">[email&#160;protected]</span></a></p>\r\n<p>Best wishes,</p>\r\n<p>The Parkinson&rsquo;s UK research team</p>\r\n<p>PS. Completing the survey gives you the chance to enter our competition to win a <strong>&pound;50 voucher for the Parkinson&rsquo;s UK online shop</strong>. Please note that you can only enter the competition once and the winner will be chosen in a ballot in January.</p>\n      </div>\n      <meta itemprop='interactionCount' content='UserLikes:0'>\n      <meta itemprop='interactionCount' content='UserComments:0'>\n      <meta itemprop='headline' content='Help make research on the Parkinson’s UK website better!'>\n      <hr>\n  </div>\n  <div itemscope itemtype='http://schema.org/DiscussionForumPosting'>\n      <div class='creator'>\n        <span>\n          <a href='/u/Semele'><b itemprop='author'>Semele</b></a>\n          \n          <time datetime='2014-12-15T20:42:53Z' itemprop='datePublished'>\n            2014-12-15 20:42:53 UTC\n          </time>\n        </span>\n        <span itemprop='position'>#2</span>\n      </div>\n      <div class='post' itemprop='articleBody'>\n        <p>love to help - but I kept getting 400 Bad request: Your browser sent an invalid request. So I had to abandon it. Browser probs (Firefox 34.0.5) or your end?</p>\r\n<p>Semele</p>\n      </div>\n      <meta itemprop='interactionCount' content='UserLikes:0'>\n      <meta itemprop='interactionCount' content='UserComments:0'>\n      <meta itemprop='headline' content='Help make research on the Parkinson’s UK website better!'>\n      <hr>\n  </div>\n  <div itemscope itemtype='http://schema.org/DiscussionForumPosting'>\n      <div class='creator'>\n        <span>\n          <a href='/u/Eileenpatricia'><b itemprop='author'>Eileenpatricia</b></a>\n          \n          <time datetime='2014-12-15T23:44:38Z' itemprop='datePublished'>\n            2014-12-15 23:44:38 UTC\n          </time>\n        </span>\n        <span itemprop='position'>#3</span>\n      </div>\n      <div class='post' itemprop='articleBody'>\n        <p>Same here&nbsp; 400 Bad Request</p>\n      </div>\n      <meta itemprop='interactionCount' content='UserLikes:0'>\n      <meta itemprop='interactionCount' content='UserComments:0'>\n      <meta itemprop='headline' content='Help make research on the Parkinson’s UK website better!'>\n      <hr>\n  </div>\n  <div itemscope itemtype='http://schema.org/DiscussionForumPosting'>\n      <div class='creator'>\n        <span>\n          <a href='/u/Kendo'><b itemprop='author'>Kendo</b></a>\n          \n          <time datetime='2014-12-16T00:23:18Z' itemprop='datePublished'>\n            2014-12-16 00:23:18 UTC\n          </time>\n        </span>\n        <span itemprop='position'>#4</span>\n      </div>\n      <div class='post' itemprop='articleBody'>\n        <p>I can easily find the first task using the top and left menus. &nbsp;However, the survey isn&#39;t accepting the option to select task complete. &nbsp;We just get into loop 11 - 400 bad request</p>\n      </div>\n      <meta itemprop='interactionCount' content='UserLikes:0'>\n      <meta itemprop='interactionCount' content='UserComments:0'>\n      <meta itemprop='headline' content='Help make research on the Parkinson’s UK website better!'>\n      <hr>\n  </div>\n  <div itemscope itemtype='http://schema.org/DiscussionForumPosting'>\n      <div class='creator'>\n        <span>\n          <a href='/u/gooner'><b itemprop='author'>gooner</b></a>\n          \n          <time datetime='2014-12-16T11:47:41Z' itemprop='datePublished'>\n            2014-12-16 11:47:41 UTC\n          </time>\n        </span>\n        <span itemprop='position'>#5</span>\n      </div>\n      <div class='post' itemprop='articleBody'>\n        <p>Same as me. Get so far then hit the &quot;loop 11-400&quot; bad request.</p>\r\n<p>Some problems here methinks!!</p>\n      </div>\n      <meta itemprop='interactionCount' content='UserLikes:0'>\n      <meta itemprop='interactionCount' content='UserComments:0'>\n      <meta itemprop='headline' content='Help make research on the Parkinson’s UK website better!'>\n      <hr>\n  </div>\n  <div itemscope itemtype='http://schema.org/DiscussionForumPosting'>\n      <div class='creator'>\n        <span>\n          <a href='/u/deleted.user'><b itemprop='author'>deleted.user</b></a>\n          \n          <time datetime='2014-12-16T12:23:02Z' itemprop='datePublished'>\n            2014-12-16 12:23:02 UTC\n          </time>\n        </span>\n        <span itemprop='position'>#6</span>\n      </div>\n      <div class='post' itemprop='articleBody'>\n        <p>Hi all,&nbsp;</p>\r\n<p>Thanks for flagging the issues you&#39;ve been having with the survey. We are aware of the issues and are looking into resolving them now.&nbsp;</p>\r\n<p>Many thanks and apologies,&nbsp;</p>\r\n<p>Sophie</p>\n      </div>\n      <meta itemprop='interactionCount' content='UserLikes:0'>\n      <meta itemprop='interactionCount' content='UserComments:0'>\n      <meta itemprop='headline' content='Help make research on the Parkinson’s UK website better!'>\n      <hr>\n  </div>\n\n\n\n\n\n\n    </div>\n    <footer class=\"container\">\n      <nav class='crawler-nav' itemscope itemtype='http://schema.org/SiteNavigationElement'>\n        <a href='/'>Home</a>\n        <a href=\"/categories\">Categories</a>\n        <a href=\"/guidelines\">FAQ/Guidelines</a>\n        <a href=\"/tos\">Terms of Service</a>\n        <a href=\"/privacy\">Privacy Policy</a>\n      </nav>\n      <p class='powered-by-link'>Powered by <a href=\"https://www.discourse.org\">Discourse</a>, best viewed with JavaScript enabled</p>\n    </footer>\n    \n  <script data-cfasync=\"false\" src=\"/cdn-cgi/scripts/5c5dd728/cloudflare-static/email-decode.min.js\"></script></body>\n  \n</html>\n",
  "url": "https://forum.parkinsons.org.uk/t/help-make-research-on-the-parkinson-s-uk-website-better/7962"
}