{
  "contentId": "12659970-886a-11e9-8f96-97f71b5221d6",
  "html": "<!DOCTYPE html>\n<html lang=\"en\">\n  <head>\n    <meta charset=\"utf-8\">\n    <title>Anxiety and Low Mood - Symptoms - Parkinson&#39;s UK Forum</title>\n    <meta name=\"description\" content=\"Hi All, been diagnosed a couple of years and didn’t really have much in the way of symptoms before. My main issues are a strange wobbly muscle in my neck and anxiety. The muscle is called the Suprahyoid Muscle and the Co&amp;hellip;\">\n    <meta name=\"author\" content=\"\">\n<meta name=\"generator\" content=\"Discourse 2.2.5 - https://github.com/discourse/discourse version c294ff3609f988dcafb742e91606d60ca13b794d\">\n<link rel=\"icon\" type=\"image/png\" href=\"https://forum.parkinsons.org.uk/uploads/db7928/original/2X/3/311fc84f89f49f38601a2f16b295b6f03d3ce5dd.jpg\">\n<link rel=\"apple-touch-icon\" type=\"image/png\" href=\"https://forum.parkinsons.org.uk/uploads/db7928/original/2X/3/311fc84f89f49f38601a2f16b295b6f03d3ce5dd.jpg\">\n<meta name=\"theme-color\" content=\"#ffffff\">\n<meta name=\"viewport\" content=\"width=device-width, minimum-scale=1.0, maximum-scale=1.0, user-scalable=yes\">\n<link rel=\"canonical\" href=\"https://forum.parkinsons.org.uk/t/anxiety-and-low-mood/15229\" />\n<script type=\"application/ld+json\">{\"@context\":\"http://schema.org\",\"@type\":\"WebSite\",\"url\":\"https://forum.parkinsons.org.uk\",\"potentialAction\":{\"@type\":\"SearchAction\",\"target\":\"https://forum.parkinsons.org.uk/search?q={search_term_string}\",\"query-input\":\"required name=search_term_string\"}}</script>\n<link rel=\"search\" type=\"application/opensearchdescription+xml\" href=\"https://forum.parkinsons.org.uk/opensearch.xml\" title=\"Parkinson&#39;s UK Forum Search\">\n\n      <link href=\"/stylesheets/desktop_f99246ae801b083d3e4cca979d0dade8615b39ac.css?__ws=forum.parkinsons.org.uk\" media=\"all\" rel=\"stylesheet\" data-target=\"desktop\" data-theme-id=\"12\"/>\n      <link href=\"/stylesheets/desktop_theme_12_5d27531cf43f9df0c03a6a6ec3109dd05f9dfc49.css?__ws=forum.parkinsons.org.uk\" media=\"all\" rel=\"stylesheet\" data-target=\"desktop_theme\" data-theme-id=\"12\"/>\n    <link href=\"https://fonts.googleapis.com/css?family=Open+Sans\" rel=\"stylesheet\">\n\n    <meta id=\"data-ga-universal-analytics\" data-tracking-code=\"UA-4855628-1\" data-json=\"{&quot;cookieDomain&quot;:&quot;auto&quot;}\" data-auto-link-domains=\"\">\n\n<link rel='preload' href='/assets/google-universal-analytics-f35b4da49411e6f5559073523aab983da483976a3954c79c756f8579f6fbd6ef.js' as='script'/>\n<script src='/assets/google-universal-analytics-f35b4da49411e6f5559073523aab983da483976a3954c79c756f8579f6fbd6ef.js'></script>\n\n      <link rel=\"alternate\" type=\"application/rss+xml\" title=\"RSS feed of &#39;Anxiety and Low Mood&#39;\" href=\"https://forum.parkinsons.org.uk/t/anxiety-and-low-mood/15229.rss\" />\n  <meta property=\"og:site_name\" content=\"Parkinson&#39;s UK Forum\" />\n<meta name=\"twitter:card\" content=\"summary\" />\n<meta name=\"twitter:image\" content=\"https://forum.parkinsons.org.uk/uploads/db7928/original/2X/3/311fc84f89f49f38601a2f16b295b6f03d3ce5dd.jpg\" />\n<meta property=\"og:image\" content=\"https://forum.parkinsons.org.uk/uploads/db7928/original/2X/3/311fc84f89f49f38601a2f16b295b6f03d3ce5dd.jpg\" />\n<meta property=\"og:url\" content=\"https://forum.parkinsons.org.uk/t/anxiety-and-low-mood/15229\" />\n<meta name=\"twitter:url\" content=\"https://forum.parkinsons.org.uk/t/anxiety-and-low-mood/15229\" />\n<meta property=\"og:title\" content=\"Anxiety and Low Mood\" />\n<meta name=\"twitter:title\" content=\"Anxiety and Low Mood\" />\n<meta property=\"og:description\" content=\"Hi All, been diagnosed a couple of years and didn’t really have much in the way of symptoms before. My main issues are a strange wobbly muscle in my neck and anxiety. The muscle is called the Suprahyoid Muscle and the Consultants had never seen it before. I had botox in it  but didn’t make a difference except my voice went slurred after 2 days so probably a side effect. Its still the same but I’m hoping it goes away as Botox fades away! It drives me mad as it goes on for hours at a time sometime...\" />\n<meta name=\"twitter:description\" content=\"Hi All, been diagnosed a couple of years and didn’t really have much in the way of symptoms before. My main issues are a strange wobbly muscle in my neck and anxiety. The muscle is called the Suprahyoid Muscle and the Consultants had never seen it before. I had botox in it  but didn’t make a difference except my voice went slurred after 2 days so probably a side effect. Its still the same but I’m hoping it goes away as Botox fades away! It drives me mad as it goes on for hours at a time sometime...\" />\n<meta property=\"article:published_time\" content=\"2018-08-16T16:24:13+00:00\" />\n<meta property=\"og:ignore_canonical\" content=\"true\" />\n\n\n\n    \n  </head>\n  <body class=\"crawler\">\n    <header role=\"banner\">\n    <div class=\"region region-header\">\n        <div class=\"region-header-wrapper\">\n            <div id=\"block-parkinsons-d8-branding\" class=\"block block-system block-system-branding-block\">\n                <a href=\"/\" title=\"Home\" rel=\"home\" class=\"site-logo\">\n                    <img src=\"https://forum.parkinsons.org.uk/uploads/db7928/original/2X/8/862bb7d172e7d127e7f3e147ec43594aa62ac945.png\" alt=\"Parkinson's UK. Change Attitudes. Find a cure. Join us.\">\n                </a>\n            </div>\n            <div id=\"block-helpline\" class=\"block block-block-content block-block-content871cd5af-b938-4947-9dc0-d5c211d08fe3 style-phone\">\n                <div class=\"field field--name-field-link field--type-link field--label-hidden field__item\"><a href=\"tel:+448088000303\">Helpline 0808 800 0303</a></div>\n            </div>\n            <div id=\"block-shop\" class=\"block block-block-content block-block-content6fba5ae5-7797-49cd-8367-f321d8111cd6 style-regular\">\n                <div class=\"field field--name-field-link field--type-link field--label-hidden field__item\"><a href=\"https://shop.parkinsons.org.uk\">Shop</a></div>\n            </div>\n        </div>\n    </div>\n</header>\n\n\n<script src=\"/theme-javascripts/b7e9763fcb584fc8265c56a9f557cd6d2e1e8ed8.js?__ws=forum.parkinsons.org.uk\"></script>\n    <header>\n      <a href=\"/\">\n          <img src=\"https://forum.parkinsons.org.uk/uploads/db7928/original/2X/8/862bb7d172e7d127e7f3e147ec43594aa62ac945.png\" alt=\"Parkinson&#39;s UK Forum\" id=\"site-logo\" style=\"max-width: 150px;\">\n      </a>\n    </header>\n    <div id=\"main-outlet\" class=\"wrap\">\n      <h1>\n  <a href=\"/t/anxiety-and-low-mood/15229\">Anxiety and Low Mood</a>\n</h1>\n\n<div id='breadcrumbs'>\n    <div id=\"breadcrumb-0\" itemscope itemtype=\"http://data-vocabulary.org/Breadcrumb\"\n        itemref=\"breadcrumb-1\"\n      >\n      <a href=\"/c/about-parkinsons-and-health\" itemprop=\"url\">\n        <span itemprop=\"title\">About Parkinson&#39;s and health</span>\n      </a>\n    </div>\n    <div id=\"breadcrumb-1\" itemscope itemtype=\"http://data-vocabulary.org/Breadcrumb\"\n>\n      <a href=\"/c/about-parkinsons-and-health/symptoms\" itemprop=\"url\">\n        <span itemprop=\"title\">Symptoms</span>\n      </a>\n    </div>\n</div>\n\n\n\n\n\n<hr>\n\n\n  <div itemscope itemtype='http://schema.org/DiscussionForumPosting'>\n      <div class='creator'>\n        <span>\n          <a href='/u/Hilly'><b itemprop='author'>Hilly</b></a>\n          \n          <time datetime='2018-08-16T16:24:13Z' itemprop='datePublished'>\n            2018-08-16 16:24:13 UTC\n          </time>\n        </span>\n        <span itemprop='position'>#1</span>\n      </div>\n      <div class='post' itemprop='articleBody'>\n        <p>Hi All, been diagnosed a couple of years and didn’t really have much in the way of symptoms before. My main issues are a strange wobbly muscle in my neck and anxiety. The muscle is called the Suprahyoid Muscle and the Consultants had never seen it before. I had botox in it  but didn’t make a difference except my voice went slurred after 2 days so probably a side effect. Its still the same but I’m hoping it goes away as Botox fades away! It drives me mad as it goes on for hours at a time sometimes. Has anyone experienced anything like this. We are going to try a higher dose of Botox next time but need to be careful re voice.</p>\n<p>I never had a days anxiety until about 2 years ago but my understanding is that it is because of the disruption of neurotransmitters. Having CBT and started on Prozac but I wondered what meds any other sufferers are on and any advice?</p>\n<p>Trying to get to work for a few days a week but these are causing me problems.</p>\n<p>Hilly xxx</p>\n      </div>\n      <meta itemprop='interactionCount' content='UserLikes:0'>\n      <meta itemprop='interactionCount' content='UserComments:0'>\n      <meta itemprop='headline' content='Anxiety and Low Mood'>\n      <hr>\n  </div>\n  <div itemscope itemtype='http://schema.org/DiscussionForumPosting'>\n      <div class='creator'>\n        <span>\n          <a href='/u/Knine'><b itemprop='author'>Knine</b></a>\n          \n          <time datetime='2018-08-16T21:46:59Z' itemprop='datePublished'>\n            2018-08-16 21:46:59 UTC\n          </time>\n        </span>\n        <span itemprop='position'>#2</span>\n      </div>\n      <div class='post' itemprop='articleBody'>\n        <p>Hi Hilly</p>\n<p>You are having some unusual problems. The one thing I have realised is that PD is different for every single person. I have not had anyything like you, but maybe someone else will read your post and be abel to help you. In the meantime, try to keep smiling. You must be a very special person to get something so unusual.</p>\n<p>Yours<br>\nAudrey</p>\n      </div>\n      <meta itemprop='interactionCount' content='UserLikes:0'>\n      <meta itemprop='interactionCount' content='UserComments:1'>\n      <meta itemprop='headline' content='Anxiety and Low Mood'>\n      <hr>\n  </div>\n  <div itemscope itemtype='http://schema.org/DiscussionForumPosting'>\n      <div class='creator'>\n        <span>\n          <a href='/u/Wildrover'><b itemprop='author'>Wildrover</b></a>\n          \n          <time datetime='2018-08-17T11:09:53Z' itemprop='datePublished'>\n            2018-08-17 11:09:53 UTC\n          </time>\n        </span>\n        <span itemprop='position'>#3</span>\n      </div>\n      <div class='post' itemprop='articleBody'>\n        <p>Hi Hilly,</p>\n<p>I suffer from anxiety. To find a fix is easier said than done. I see a CBT counseller which helps a bit. Exercise helps alot. I would be reluctant to go on medication for it without trying counselling and exercise first. I think we all take enough drugs as it is.</p>\n<p>Good luck your not alone</p>\n      </div>\n      <meta itemprop='interactionCount' content='UserLikes:0'>\n      <meta itemprop='interactionCount' content='UserComments:1'>\n      <meta itemprop='headline' content='Anxiety and Low Mood'>\n      <hr>\n  </div>\n  <div itemscope itemtype='http://schema.org/DiscussionForumPosting'>\n      <div class='creator'>\n        <span>\n          <a href='/u/Hilly'><b itemprop='author'>Hilly</b></a>\n          \n          <time datetime='2018-08-17T14:33:53Z' itemprop='datePublished'>\n            2018-08-17 14:33:53 UTC\n          </time>\n        </span>\n        <span itemprop='position'>#4</span>\n      </div>\n      <div class='post' itemprop='articleBody'>\n        <p>When they did the botox there were about 8 people in there looking at my neck! I’m sure I’ll get somewhere and thank you for your reply.<br>\nxx</p>\n      </div>\n      <meta itemprop='interactionCount' content='UserLikes:0'>\n      <meta itemprop='interactionCount' content='UserComments:0'>\n      <meta itemprop='headline' content='Anxiety and Low Mood'>\n      <hr>\n  </div>\n  <div itemscope itemtype='http://schema.org/DiscussionForumPosting'>\n      <div class='creator'>\n        <span>\n          <a href='/u/Hilly'><b itemprop='author'>Hilly</b></a>\n          \n          <time datetime='2018-08-17T14:35:13Z' itemprop='datePublished'>\n            2018-08-17 14:35:13 UTC\n          </time>\n        </span>\n        <span itemprop='position'>#5</span>\n      </div>\n      <div class='post' itemprop='articleBody'>\n        <p>Thanks for the reply. I’m having CBT also so hopefully will help.xx</p>\n      </div>\n      <meta itemprop='interactionCount' content='UserLikes:0'>\n      <meta itemprop='interactionCount' content='UserComments:1'>\n      <meta itemprop='headline' content='Anxiety and Low Mood'>\n      <hr>\n  </div>\n  <div itemscope itemtype='http://schema.org/DiscussionForumPosting'>\n      <div class='creator'>\n        <span>\n          <a href='/u/Knine'><b itemprop='author'>Knine</b></a>\n          \n          <time datetime='2018-08-17T15:27:09Z' itemprop='datePublished'>\n            2018-08-17 15:27:09 UTC\n          </time>\n        </span>\n        <span itemprop='position'>#6</span>\n      </div>\n      <div class='post' itemprop='articleBody'>\n        <p>Hi Hilly - there are times when it feels good to be the centre of attention. Hope you get some good results soon.</p>\n<p>Yours</p>\n<p>Audrey</p>\n      </div>\n      <meta itemprop='interactionCount' content='UserLikes:0'>\n      <meta itemprop='interactionCount' content='UserComments:0'>\n      <meta itemprop='headline' content='Anxiety and Low Mood'>\n      <hr>\n  </div>\n  <div itemscope itemtype='http://schema.org/DiscussionForumPosting'>\n      <div class='creator'>\n        <span>\n          <a href='/u/Hilly'><b itemprop='author'>Hilly</b></a>\n          \n          <time datetime='2019-04-06T15:29:06Z' itemprop='datePublished'>\n            2019-04-06 15:29:06 UTC\n          </time>\n        </span>\n        <span itemprop='position'>#7</span>\n      </div>\n      <div class='post' itemprop='articleBody'>\n        <p>Hi , quick update! The anxiety/low mood is still the worst thing for me, totally takes over everything. Anyone got any good info? Been on prozac now for 4 weeks but not feeling anything yet. Oh well, maybe I will win my bet on Grand National…Hilly xx+</p>\n      </div>\n      <meta itemprop='interactionCount' content='UserLikes:0'>\n      <meta itemprop='interactionCount' content='UserComments:2'>\n      <meta itemprop='headline' content='Anxiety and Low Mood'>\n      <hr>\n  </div>\n  <div itemscope itemtype='http://schema.org/DiscussionForumPosting'>\n      <div class='creator'>\n        <span>\n          <a href='/u/Moderators2'><b itemprop='author'>Moderators2</b></a>\n          \n          <time datetime='2019-04-06T22:42:10Z' itemprop='datePublished'>\n            2019-04-06 22:42:10 UTC\n          </time>\n        </span>\n        <span itemprop='position'>#8</span>\n      </div>\n      <div class='post' itemprop='articleBody'>\n        <p>Hi <a class=\"mention\" href=\"/u/hilly\">@Hilly</a>,</p>\n<p>I’m really sorry to hear that you are still experiencing anxiety/low mood. I’m sure other posters will be along soon to help, but in the meantime, I wondered whether you have explored the options we suggest in <a href=\"https://www.parkinsons.org.uk/information-and-support/anxiety\" rel=\"nofollow noopener\">the Anxiety section of our website</a>. You might find useful information there.</p>\n<p>Best wishes,<br>\nMara<br>\n(Moderation Team)</p>\n      </div>\n      <meta itemprop='interactionCount' content='UserLikes:0'>\n      <meta itemprop='interactionCount' content='UserComments:0'>\n      <meta itemprop='headline' content='Anxiety and Low Mood'>\n      <hr>\n  </div>\n  <div itemscope itemtype='http://schema.org/DiscussionForumPosting'>\n      <div class='creator'>\n        <span>\n          <a href='/u/VW'><b itemprop='author'>VW</b></a>\n          \n          <time datetime='2019-05-05T23:49:03Z' itemprop='datePublished'>\n            2019-05-05 23:49:03 UTC\n          </time>\n        </span>\n        <span itemprop='position'>#9</span>\n      </div>\n      <div class='post' itemprop='articleBody'>\n        <p>If prozac doesn’t work you will need to try something else like effexor, I found that works better for me than prozac and I’ve been on it for over 10 years.</p>\n      </div>\n      <meta itemprop='interactionCount' content='UserLikes:0'>\n      <meta itemprop='interactionCount' content='UserComments:0'>\n      <meta itemprop='headline' content='Anxiety and Low Mood'>\n      <hr>\n  </div>\n  <div itemscope itemtype='http://schema.org/DiscussionForumPosting'>\n      <div class='creator'>\n        <span>\n          <a href='/u/Hilly'><b itemprop='author'>Hilly</b></a>\n          \n          <time datetime='2019-05-06T14:38:25Z' itemprop='datePublished'>\n            2019-05-06 14:38:25 UTC\n          </time>\n        </span>\n        <span itemprop='position'>#10</span>\n      </div>\n      <div class='post' itemprop='articleBody'>\n        <p>Hi, been on Prozac now for 8 weeks but doesn’t seem to be much benefit. Consultant wants me to go on Pregabalin as an addition. Any info on this med? Xx</p>\n      </div>\n      <meta itemprop='interactionCount' content='UserLikes:0'>\n      <meta itemprop='interactionCount' content='UserComments:0'>\n      <meta itemprop='headline' content='Anxiety and Low Mood'>\n      <hr>\n  </div>\n\n\n\n\n\n\n    </div>\n    <footer class=\"container\">\n      <nav class='crawler-nav' itemscope itemtype='http://schema.org/SiteNavigationElement'>\n        <a href='/'>Home</a>\n        <a href=\"/categories\">Categories</a>\n        <a href=\"/guidelines\">FAQ/Guidelines</a>\n        <a href=\"/tos\">Terms of Service</a>\n        <a href=\"/privacy\">Privacy Policy</a>\n      </nav>\n      <p class='powered-by-link'>Powered by <a href=\"https://www.discourse.org\">Discourse</a>, best viewed with JavaScript enabled</p>\n    </footer>\n    \n  </body>\n  \n</html>\n",
  "url": "https://forum.parkinsons.org.uk/t/anxiety-and-low-mood/15229"
}