{
  "contentId": "8e92a380-8865-11e9-8f96-97f71b5221d6",
  "html": "<!DOCTYPE html>\n<html lang=\"en\">\n  <head>\n    <meta charset=\"utf-8\">\n    <title>Seperating from my husband - Carers, friends and family - Parkinson&#39;s UK Forum</title>\n    <meta name=\"description\" content=\"Hi everyone, \nIt’s been an age since I last got in touch, but, so much has happened. \nI’ve been diagnosed for eight years now and am actually doing really well! I play acoustic guitar, which not only is really therapeuti&amp;hellip;\">\n    <meta name=\"author\" content=\"\">\n<meta name=\"generator\" content=\"Discourse 2.2.5 - https://github.com/discourse/discourse version c294ff3609f988dcafb742e91606d60ca13b794d\">\n<link rel=\"icon\" type=\"image/png\" href=\"https://forum.parkinsons.org.uk/uploads/db7928/original/2X/3/311fc84f89f49f38601a2f16b295b6f03d3ce5dd.jpg\">\n<link rel=\"apple-touch-icon\" type=\"image/png\" href=\"https://forum.parkinsons.org.uk/uploads/db7928/original/2X/3/311fc84f89f49f38601a2f16b295b6f03d3ce5dd.jpg\">\n<meta name=\"theme-color\" content=\"#ffffff\">\n<meta name=\"viewport\" content=\"width=device-width, minimum-scale=1.0, maximum-scale=1.0, user-scalable=yes\">\n<link rel=\"canonical\" href=\"https://forum.parkinsons.org.uk/t/seperating-from-my-husband/17262\" />\n<script type=\"application/ld+json\">{\"@context\":\"http://schema.org\",\"@type\":\"WebSite\",\"url\":\"https://forum.parkinsons.org.uk\",\"potentialAction\":{\"@type\":\"SearchAction\",\"target\":\"https://forum.parkinsons.org.uk/search?q={search_term_string}\",\"query-input\":\"required name=search_term_string\"}}</script>\n<link rel=\"search\" type=\"application/opensearchdescription+xml\" href=\"https://forum.parkinsons.org.uk/opensearch.xml\" title=\"Parkinson&#39;s UK Forum Search\">\n\n      <link href=\"/stylesheets/desktop_f99246ae801b083d3e4cca979d0dade8615b39ac.css?__ws=forum.parkinsons.org.uk\" media=\"all\" rel=\"stylesheet\" data-target=\"desktop\" data-theme-id=\"12\"/>\n      <link href=\"/stylesheets/desktop_theme_12_5d27531cf43f9df0c03a6a6ec3109dd05f9dfc49.css?__ws=forum.parkinsons.org.uk\" media=\"all\" rel=\"stylesheet\" data-target=\"desktop_theme\" data-theme-id=\"12\"/>\n    <link href=\"https://fonts.googleapis.com/css?family=Open+Sans\" rel=\"stylesheet\">\n\n    <meta id=\"data-ga-universal-analytics\" data-tracking-code=\"UA-4855628-1\" data-json=\"{&quot;cookieDomain&quot;:&quot;auto&quot;}\" data-auto-link-domains=\"\">\n\n<link rel='preload' href='/assets/google-universal-analytics-f35b4da49411e6f5559073523aab983da483976a3954c79c756f8579f6fbd6ef.js' as='script'/>\n<script src='/assets/google-universal-analytics-f35b4da49411e6f5559073523aab983da483976a3954c79c756f8579f6fbd6ef.js'></script>\n\n      <link rel=\"alternate\" type=\"application/rss+xml\" title=\"RSS feed of &#39;Seperating from my husband&#39;\" href=\"https://forum.parkinsons.org.uk/t/seperating-from-my-husband/17262.rss\" />\n  <meta property=\"og:site_name\" content=\"Parkinson&#39;s UK Forum\" />\n<meta name=\"twitter:card\" content=\"summary\" />\n<meta name=\"twitter:image\" content=\"https://forum.parkinsons.org.uk/uploads/db7928/original/2X/3/311fc84f89f49f38601a2f16b295b6f03d3ce5dd.jpg\" />\n<meta property=\"og:image\" content=\"https://forum.parkinsons.org.uk/uploads/db7928/original/2X/3/311fc84f89f49f38601a2f16b295b6f03d3ce5dd.jpg\" />\n<meta property=\"og:url\" content=\"https://forum.parkinsons.org.uk/t/seperating-from-my-husband/17262\" />\n<meta name=\"twitter:url\" content=\"https://forum.parkinsons.org.uk/t/seperating-from-my-husband/17262\" />\n<meta property=\"og:title\" content=\"Seperating from my husband\" />\n<meta name=\"twitter:title\" content=\"Seperating from my husband\" />\n<meta property=\"og:description\" content=\"Hi everyone,  It’s been an age since I last got in touch, but, so much has happened.  I’ve been diagnosed for eight years now and am actually doing really well! I play acoustic guitar, which not only is really therapeutic but also helps enormously with movement.  But, that’s not what I’m writing about.  After thirty years of marriage I am finally having to throw in the towel! My husband has been unbelievably unsympathetic to my problems and has continually undermined everything I do. He gets ver...\" />\n<meta name=\"twitter:description\" content=\"Hi everyone,  It’s been an age since I last got in touch, but, so much has happened.  I’ve been diagnosed for eight years now and am actually doing really well! I play acoustic guitar, which not only is really therapeutic but also helps enormously with movement.  But, that’s not what I’m writing about.  After thirty years of marriage I am finally having to throw in the towel! My husband has been unbelievably unsympathetic to my problems and has continually undermined everything I do. He gets ver...\" />\n<meta name=\"twitter:label1\" value=\"Reading time\" />\n<meta name=\"twitter:data1\" value=\"7 mins \uD83D\uDD51\" />\n<meta name=\"twitter:label2\" value=\"Likes\" />\n<meta name=\"twitter:data2\" value=\"2 ❤\" />\n<meta property=\"article:published_time\" content=\"2018-12-29T23:58:31+00:00\" />\n<meta property=\"og:ignore_canonical\" content=\"true\" />\n\n      <link rel=\"next\" href=\"/t/seperating-from-my-husband/17262?page=2\">\n\n\n    \n  </head>\n  <body class=\"crawler\">\n    <header role=\"banner\">\n    <div class=\"region region-header\">\n        <div class=\"region-header-wrapper\">\n            <div id=\"block-parkinsons-d8-branding\" class=\"block block-system block-system-branding-block\">\n                <a href=\"/\" title=\"Home\" rel=\"home\" class=\"site-logo\">\n                    <img src=\"https://forum.parkinsons.org.uk/uploads/db7928/original/2X/8/862bb7d172e7d127e7f3e147ec43594aa62ac945.png\" alt=\"Parkinson's UK. Change Attitudes. Find a cure. Join us.\">\n                </a>\n            </div>\n            <div id=\"block-helpline\" class=\"block block-block-content block-block-content871cd5af-b938-4947-9dc0-d5c211d08fe3 style-phone\">\n                <div class=\"field field--name-field-link field--type-link field--label-hidden field__item\"><a href=\"tel:+448088000303\">Helpline 0808 800 0303</a></div>\n            </div>\n            <div id=\"block-shop\" class=\"block block-block-content block-block-content6fba5ae5-7797-49cd-8367-f321d8111cd6 style-regular\">\n                <div class=\"field field--name-field-link field--type-link field--label-hidden field__item\"><a href=\"https://shop.parkinsons.org.uk\">Shop</a></div>\n            </div>\n        </div>\n    </div>\n</header>\n\n\n<script src=\"/theme-javascripts/b7e9763fcb584fc8265c56a9f557cd6d2e1e8ed8.js?__ws=forum.parkinsons.org.uk\"></script>\n    <header>\n      <a href=\"/\">\n          <img src=\"https://forum.parkinsons.org.uk/uploads/db7928/original/2X/8/862bb7d172e7d127e7f3e147ec43594aa62ac945.png\" alt=\"Parkinson&#39;s UK Forum\" id=\"site-logo\" style=\"max-width: 150px;\">\n      </a>\n    </header>\n    <div id=\"main-outlet\" class=\"wrap\">\n      <h1>\n  <a href=\"/t/seperating-from-my-husband/17262\">Seperating from my husband</a>\n</h1>\n\n<div id='breadcrumbs'>\n    <div id=\"breadcrumb-0\" itemscope itemtype=\"http://data-vocabulary.org/Breadcrumb\"\n        itemref=\"breadcrumb-1\"\n      >\n      <a href=\"/c/living-with-parkinsons\" itemprop=\"url\">\n        <span itemprop=\"title\">Living with Parkinson&#39;s</span>\n      </a>\n    </div>\n    <div id=\"breadcrumb-1\" itemscope itemtype=\"http://data-vocabulary.org/Breadcrumb\"\n>\n      <a href=\"/c/living-with-parkinsons/carers-friends-and-family\" itemprop=\"url\">\n        <span itemprop=\"title\">Carers, friends and family</span>\n      </a>\n    </div>\n</div>\n\n\n\n\n\n<hr>\n\n\n  <div itemscope itemtype='http://schema.org/DiscussionForumPosting'>\n      <div class='creator'>\n        <span>\n          <a href='/u/Rhona'><b itemprop='author'>Rhona</b></a>\n          \n          <time datetime='2018-12-29T23:58:31Z' itemprop='datePublished'>\n            2018-12-29 23:58:31 UTC\n          </time>\n        </span>\n        <span itemprop='position'>#1</span>\n      </div>\n      <div class='post' itemprop='articleBody'>\n        <p>Hi everyone,<br>\nIt’s been an age since I last got in touch, but, so much has happened.<br>\nI’ve been diagnosed for eight years now and am actually doing really well! I play acoustic guitar, which not only is really therapeutic but also helps enormously with movement.<br>\nBut, that’s not what I’m writing about.<br>\nAfter thirty years of marriage I am finally having to throw in the towel! My husband has been unbelievably unsympathetic to my problems and has continually undermined everything I do. He gets very very frustrated with me which ends up in him losing it altigether! This I have put up with for many many years, but, unfortunately, I can no longer tolerate his behaviour.<br>\nI am having to leave our home, which I love so much, hopefully on a temporary basis and move to rented accommodation, until such time as things are resolved.<br>\nHave any other members had the same problem?<br>\nThis is the most devastating thing Ive had to do and at 62 not easy. But, time marches on and I have got to think of myself from now on.</p>\n      </div>\n      <meta itemprop='interactionCount' content='UserLikes:0'>\n      <meta itemprop='interactionCount' content='UserComments:1'>\n      <meta itemprop='headline' content='Seperating from my husband'>\n      <hr>\n  </div>\n  <div itemscope itemtype='http://schema.org/DiscussionForumPosting'>\n      <div class='creator'>\n        <span>\n          <a href='/u/Sheryll'><b itemprop='author'>Sheryll</b></a>\n          \n          <time datetime='2018-12-30T08:24:14Z' itemprop='datePublished'>\n            2018-12-30 08:24:14 UTC\n          </time>\n        </span>\n        <span itemprop='position'>#2</span>\n      </div>\n      <div class='post' itemprop='articleBody'>\n        <p>Hi Rhona,</p>\n<p>So sorry to read that you feel you have to leave. Yes, it is devastating as it means you have to give up all those hopes and dreams, of living happily ever after.</p>\n<p>I’m now 62 and was dx’sd 6 years ago. Hubby has not come to grips with it but gets frustrated with any symptoms that cause lack of control in the household or slow him down.</p>\n<p>Now that I am on levodopa as well as the pramipexole, I can get distracted at the drop of a pair of stamp tongs. Also, as I am reacting to things in the moment, I am likely to forget to… lock the front door, turn certain lights out, etc.</p>\n<p>After 13 years of marriage, he has had enough and no longer asks what I said when he can’t hear me. Also, my forgetting to do things has now morphed into capital offences, and he loses it.</p>\n<p>Once I read about borderline personality disorder, I was able to relate his behaviours to it. He is not diagnosed but if I treat him as though he has it, things do not escalate like they did.</p>\n<p>There was a time this year when I thought I might have to leave (he was mentioning it in various nasty comments) but I have told him I’m staying, and have changed my lifestyle to be more at his beck and call, as he noe comes across as needy.</p>\n<p>Yours sounds like more of an unsympathetic grouch, whereas mine went downhill mentally and had a kind of a breakdown which brought on these behaviours.</p>\n<p>I wish you the best of luck. Take care.</p>\n      </div>\n      <meta itemprop='interactionCount' content='UserLikes:0'>\n      <meta itemprop='interactionCount' content='UserComments:1'>\n      <meta itemprop='headline' content='Seperating from my husband'>\n      <hr>\n  </div>\n  <div itemscope itemtype='http://schema.org/DiscussionForumPosting'>\n      <div class='creator'>\n        <span>\n          <a href='/u/Nufcash'><b itemprop='author'>Nufcash</b></a>\n          \n          <time datetime='2019-01-01T18:27:17Z' itemprop='datePublished'>\n            2019-01-01 18:27:17 UTC\n          </time>\n        </span>\n        <span itemprop='position'>#3</span>\n      </div>\n      <div class='post' itemprop='articleBody'>\n        <p>Hi, good for you girl, if your husband doesn’t want to support you then I think you are doing the right thing. I bet if it were him you’d be supporting him! What do your family think? Hopefully they support your brave decision &amp; are helping you out. I’m sure he’ll realise what he’s lost when you’re getting on with your own life &amp; he’s sitting at home staring at four walls. Well that’s my rant over now. Ps Happy New Year &amp; all the best for the future brave lady.</p>\n      </div>\n      <meta itemprop='interactionCount' content='UserLikes:0'>\n      <meta itemprop='interactionCount' content='UserComments:0'>\n      <meta itemprop='headline' content='Seperating from my husband'>\n      <hr>\n  </div>\n  <div itemscope itemtype='http://schema.org/DiscussionForumPosting'>\n      <div class='creator'>\n        <span>\n          <a href='/u/Rhona'><b itemprop='author'>Rhona</b></a>\n          \n          <time datetime='2019-01-01T21:55:58Z' itemprop='datePublished'>\n            2019-01-01 21:55:58 UTC\n          </time>\n        </span>\n        <span itemprop='position'>#4</span>\n      </div>\n      <div class='post' itemprop='articleBody'>\n        <p>Hi,<br>\nThanks so much for your encouragement. I tell you, at this age, I think I must be crazy, but, I know I’m doing the right thing.<br>\nMy family have been great. Friends, however, a mixed reception, but, to be honest, I’m really not that bothered about their response.<br>\nThanks again,<br>\nRhona</p>\n      </div>\n      <meta itemprop='interactionCount' content='UserLikes:0'>\n      <meta itemprop='interactionCount' content='UserComments:1'>\n      <meta itemprop='headline' content='Seperating from my husband'>\n      <hr>\n  </div>\n  <div itemscope itemtype='http://schema.org/DiscussionForumPosting'>\n      <div class='creator'>\n        <span>\n          <a href='/u/Pippa'><b itemprop='author'>Pippa</b></a>\n          \n          <time datetime='2019-01-02T05:44:30Z' itemprop='datePublished'>\n            2019-01-02 05:44:30 UTC\n          </time>\n        </span>\n        <span itemprop='position'>#5</span>\n      </div>\n      <div class='post' itemprop='articleBody'>\n        <p>Hi Rhona ,<br>\nYou sound like one extraordinary person . I admire your bravery in taking such a decision with all the uncertainty and upheaval that it entails, and am minded  of a Mary Oliver poem which you may know…I don’t have it to hand at this hour of the day (night?) but will find it later and post relevant lines.<br>\nI am sure that the Universe, for want of a better word, will provide what you need in terms of energy, support and friendship, so long as you are prepared to find it in unexpected places and not necessarily from those you would have expected to be there for you…or “should” be. .<br>\nI wouldn’t underestimate the emotional challenge of separating from someone you have been with for so long . Whatever a relationship is like, good or bad or both, deep bonds are formed and the severing of those, however necessary , is hard and painful, even when it is exactly the right thing to do… It can feel very strange to do what is right and yet feel grief and maybe doubt about that decision.  I hope you will be able to remember some good times together at least, or sift out what has been good in that relationship, so that not all is lost or regretted,  though that can be hard when so much has not been okay.<br>\nAs with so much to do with Parkinson’s, your words speak of loss…loss of hope and trust and love and dreams and, and…I wonder whether the impatience and anger of carers ( I speak as one) stems as much from their sense of “this is not fair…this  is not what I bargained for…I’m not up to what this demands of me, “ etc. Just as for the pwp.<br>\nYour words also speak of hope ( hope triumphing over experience), and the conviction  that you deserve better , as you do, and should not be treated so badly., and that will surely give other people in similar situations the courage to do likewise<br>\nSorry if I have gone on a bit…good luck and best wishes,<br>\nPippa</p>\n      </div>\n      <meta itemprop='interactionCount' content='UserLikes:1'>\n      <meta itemprop='interactionCount' content='UserComments:1'>\n      <meta itemprop='headline' content='Seperating from my husband'>\n      <hr>\n  </div>\n  <div itemscope itemtype='http://schema.org/DiscussionForumPosting'>\n      <div class='creator'>\n        <span>\n          <a href='/u/Rhona'><b itemprop='author'>Rhona</b></a>\n          \n          <time datetime='2019-01-02T07:34:48Z' itemprop='datePublished'>\n            2019-01-02 07:34:48 UTC\n          </time>\n        </span>\n        <span itemprop='position'>#6</span>\n      </div>\n      <div class='post' itemprop='articleBody'>\n        <p>Pippa,<br>\nThat is the most heartfelt message you have so kindly sent through to me.<br>\nI am deeply touched by it.<br>\nThank you.<br>\nRhona</p>\n      </div>\n      <meta itemprop='interactionCount' content='UserLikes:0'>\n      <meta itemprop='interactionCount' content='UserComments:1'>\n      <meta itemprop='headline' content='Seperating from my husband'>\n      <hr>\n  </div>\n  <div itemscope itemtype='http://schema.org/DiscussionForumPosting'>\n      <div class='creator'>\n        <span>\n          <a href='/u/Pippa'><b itemprop='author'>Pippa</b></a>\n          \n          <time datetime='2019-01-02T12:12:17Z' itemprop='datePublished'>\n            2019-01-02 12:12:17 UTC\n          </time>\n        </span>\n        <span itemprop='position'>#7</span>\n      </div>\n      <div class='post' itemprop='articleBody'>\n        <p><a href=\"http://www.thepoetryexchange.co.uk/uncategorized/the-journey-by-mary-oliver/\" class=\"onebox\" target=\"_blank\" rel=\"nofollow noopener\">http://www.thepoetryexchange.co.uk/uncategorized/the-journey-by-mary-oliver/</a></p>\n<p>Good morning ! I don’t know if you can get through on this link, but if not, the title is there. I keep returning to it.<br>\nWarm regards, Pippa</p>\n      </div>\n      <meta itemprop='interactionCount' content='UserLikes:0'>\n      <meta itemprop='interactionCount' content='UserComments:1'>\n      <meta itemprop='headline' content='Seperating from my husband'>\n      <hr>\n  </div>\n  <div itemscope itemtype='http://schema.org/DiscussionForumPosting'>\n      <div class='creator'>\n        <span>\n          <a href='/u/Tot'><b itemprop='author'>Tot</b></a>\n          \n          <time datetime='2019-01-02T17:43:53Z' itemprop='datePublished'>\n            2019-01-02 17:43:53 UTC\n          </time>\n        </span>\n        <span itemprop='position'>#8</span>\n      </div>\n      <div class='post' itemprop='articleBody'>\n        <p>Hello Rhona, just want to say I echo all the comments made. We both know that having made this incredibly tough and brave decision, life won’t suddenly be easy but you will be living life on your terms and being true to yourself and I am sure that will give you  strength to make a successful life for yourself which ultimately brings you peace and happiness.  I do hope so.</p>\n      </div>\n      <meta itemprop='interactionCount' content='UserLikes:0'>\n      <meta itemprop='interactionCount' content='UserComments:0'>\n      <meta itemprop='headline' content='Seperating from my husband'>\n      <hr>\n  </div>\n  <div itemscope itemtype='http://schema.org/DiscussionForumPosting'>\n      <div class='creator'>\n        <span>\n          <a href='/u/Rhona'><b itemprop='author'>Rhona</b></a>\n          \n          <time datetime='2019-01-02T18:09:22Z' itemprop='datePublished'>\n            2019-01-02 18:09:22 UTC\n          </time>\n        </span>\n        <span itemprop='position'>#9</span>\n      </div>\n      <div class='post' itemprop='articleBody'>\n        <p>Thank you.<br>\nRhona</p>\n      </div>\n      <meta itemprop='interactionCount' content='UserLikes:0'>\n      <meta itemprop='interactionCount' content='UserComments:0'>\n      <meta itemprop='headline' content='Seperating from my husband'>\n      <hr>\n  </div>\n  <div itemscope itemtype='http://schema.org/DiscussionForumPosting'>\n      <div class='creator'>\n        <span>\n          <a href='/u/Rhona'><b itemprop='author'>Rhona</b></a>\n          \n          <time datetime='2019-01-02T18:15:16Z' itemprop='datePublished'>\n            2019-01-02 18:15:16 UTC\n          </time>\n        </span>\n        <span itemprop='position'>#10</span>\n      </div>\n      <div class='post' itemprop='articleBody'>\n        <p>Hi,<br>\nThank you so much for your reply.<br>\nIt’s very much appreciated.<br>\nRhona</p>\n      </div>\n      <meta itemprop='interactionCount' content='UserLikes:0'>\n      <meta itemprop='interactionCount' content='UserComments:0'>\n      <meta itemprop='headline' content='Seperating from my husband'>\n      <hr>\n  </div>\n  <div itemscope itemtype='http://schema.org/DiscussionForumPosting'>\n      <div class='creator'>\n        <span>\n          <a href='/u/Rhona'><b itemprop='author'>Rhona</b></a>\n          \n          <time datetime='2019-01-02T18:23:34Z' itemprop='datePublished'>\n            2019-01-02 18:23:34 UTC\n          </time>\n        </span>\n        <span itemprop='position'>#11</span>\n      </div>\n      <div class='post' itemprop='articleBody'>\n        <p>Thank you, Pippa.<br>\nYes it’s come through and just about crosses all the ts and dots the is.<br>\nIt’s beautiful, thank you, especially now as I sit in my hotel bedroom wondering what I’ve done, surrounded by luggage!<br>\nFortunately I’m a very positive person and know without doubt that I am doing the right thing!<br>\nI hope…<br>\nRhona</p>\n      </div>\n      <meta itemprop='interactionCount' content='UserLikes:0'>\n      <meta itemprop='interactionCount' content='UserComments:1'>\n      <meta itemprop='headline' content='Seperating from my husband'>\n      <hr>\n  </div>\n  <div itemscope itemtype='http://schema.org/DiscussionForumPosting'>\n      <div class='creator'>\n        <span>\n          <a href='/u/Tot'><b itemprop='author'>Tot</b></a>\n          \n          <time datetime='2019-01-02T21:20:10Z' itemprop='datePublished'>\n            2019-01-02 21:20:10 UTC\n          </time>\n        </span>\n        <span itemprop='position'>#12</span>\n      </div>\n      <div class='post' itemprop='articleBody'>\n        <p>Hello Pippa, just wanted to say I agree with your thinking re carers.  In my experience most people willingly take on the carer role and in the early days (and I am generalising here of course, it won’t apply to all) manage well because the person they are caring for, whatever the condition, ‘isn’t too bad’ and life doesn’t change too drastically.  What is often hugely underestimated  is the impact of medium to long term caring - the role becomes evermore complicated as the condition deteriorates, the balance in the relationship changes and often one person has to make the decisions and that can be a lonely place, the treadmill of routine you can’t change, and the sheer fatigue it can generate etc; all these sorts of things and more. are coupled with as you said, it’s not fair, etc., and it can be a role carried for many years. I always think the caring role in many regards has to cope with loss that is every bit as strong as a bereavement  but the person hasn’t gone.  He or she may have changed so you are not caring for the same person, they may look the same  sound the same but … Emotionally, physically and every which way, taking on the caring role  is tough and many first timers have little idea of the enormity of their undertaking.  Of course, some people manage perfectly well, it is not all bad and some wonderful memories and a lot of laughing often feature.  My point is many have no idea of the physical, social, emotional and psychological price they pay, perhaps that’s just as well;  I do know I couldn’t do it.  I like to think I could, but I know I can’t, not for the long haul.  I’d have to find another way.</p>\n      </div>\n      <meta itemprop='interactionCount' content='UserLikes:0'>\n      <meta itemprop='interactionCount' content='UserComments:0'>\n      <meta itemprop='headline' content='Seperating from my husband'>\n      <hr>\n  </div>\n  <div itemscope itemtype='http://schema.org/DiscussionForumPosting'>\n      <div class='creator'>\n        <span>\n          <a href='/u/Roro'><b itemprop='author'>Roro</b></a>\n          \n          <time datetime='2019-01-03T00:59:31Z' itemprop='datePublished'>\n            2019-01-03 00:59:31 UTC\n          </time>\n        </span>\n        <span itemprop='position'>#13</span>\n      </div>\n      <div class='post' itemprop='articleBody'>\n        <p>Hi Rhona, my thoughts are with you, tonight is going to be hard to get through and I pray you get to rest if not sleep.  You have to look after yourself in circumstances like yours. No-one but you will know the full circumstances.The night I left my husband of twenty three years, due to his unreasonable behaviour, I cried myself to sleep. One of the hardest things I have ever done but I do not regret it, as hard as times have been over the years (not health related for most of it until well after we were divorced).<br>\nI have never wanted to even date anyone since - let alone find another partner.<br>\nHe had no health issues , neither of us were in the caring role apart from as parents. However it hust came to a point where it was leave or have a breakdown, so for my own health I had to get out (with my school age daughters). So different circs but similar story, he could be a total pig (to be polite). I know from throughout the marriage that he saw me as a hinderance to his life and an embarrassment, and everything I did was wrong - right down to getting promoted before him in similar types of work!<br>\nI have rambled but basically saying that being in the role of carer cannot neccessarily be blamed for the splitting up of a marriage, there surely must be underlying existing problems,  maybe wallpapered over but the damage is there.<br>\nSending hugs x<br>\nRose</p>\n      </div>\n      <meta itemprop='interactionCount' content='UserLikes:0'>\n      <meta itemprop='interactionCount' content='UserComments:0'>\n      <meta itemprop='headline' content='Seperating from my husband'>\n      <hr>\n  </div>\n  <div itemscope itemtype='http://schema.org/DiscussionForumPosting'>\n      <div class='creator'>\n        <span>\n          <a href='/u/Rhona'><b itemprop='author'>Rhona</b></a>\n          \n          <time datetime='2019-01-03T05:22:07Z' itemprop='datePublished'>\n            2019-01-03 05:22:07 UTC\n          </time>\n        </span>\n        <span itemprop='position'>#14</span>\n      </div>\n      <div class='post' itemprop='articleBody'>\n        <p>Thank you Rose,<br>\nYes, I’m wide awake but managed to get a little sleep. As you say similar situations, my husband has underlying issues, bless him, but I gave up trying to get him to address them. As they say, you can take a horse to water etc, etc,<br>\nThank you,<br>\nRhona</p>\n      </div>\n      <meta itemprop='interactionCount' content='UserLikes:0'>\n      <meta itemprop='interactionCount' content='UserComments:0'>\n      <meta itemprop='headline' content='Seperating from my husband'>\n      <hr>\n  </div>\n  <div itemscope itemtype='http://schema.org/DiscussionForumPosting'>\n      <div class='creator'>\n        <span>\n          <a href='/u/Pippa'><b itemprop='author'>Pippa</b></a>\n          \n          <time datetime='2019-01-03T06:23:09Z' itemprop='datePublished'>\n            2019-01-03 06:23:09 UTC\n          </time>\n        </span>\n        <span itemprop='position'>#15</span>\n      </div>\n      <div class='post' itemprop='articleBody'>\n        <p><a href=\"http://www.thepoetryexchange.co.uk/uncategorized/wild-geese-by-mary-oliver/\" class=\"onebox\" target=\"_blank\" rel=\"nofollow noopener\">http://www.thepoetryexchange.co.uk/uncategorized/wild-geese-by-mary-oliver/</a><br>\nThis is another of MO’s poems which you may like and find helpful ( such a prosaic word for what I really mean) .what an extraordinary gift she has …</p>\n      </div>\n      <meta itemprop='interactionCount' content='UserLikes:0'>\n      <meta itemprop='interactionCount' content='UserComments:1'>\n      <meta itemprop='headline' content='Seperating from my husband'>\n      <hr>\n  </div>\n  <div itemscope itemtype='http://schema.org/DiscussionForumPosting'>\n      <div class='creator'>\n        <span>\n          <a href='/u/Pippa'><b itemprop='author'>Pippa</b></a>\n          \n          <time datetime='2019-01-03T06:34:05Z' itemprop='datePublished'>\n            2019-01-03 06:34:05 UTC\n          </time>\n        </span>\n        <span itemprop='position'>#16</span>\n      </div>\n      <div class='post' itemprop='articleBody'>\n        <p>Even better , hear her read it on YouTube …she looks and sounds exactly how I imagine someone of her sensitivity and soulfulness to sound and look. I find it strangely and wonderfully reassuring that there are people like her on this planet. A gift to us all.<br>\nPx</p>\n      </div>\n      <meta itemprop='interactionCount' content='UserLikes:1'>\n      <meta itemprop='interactionCount' content='UserComments:0'>\n      <meta itemprop='headline' content='Seperating from my husband'>\n      <hr>\n  </div>\n  <div itemscope itemtype='http://schema.org/DiscussionForumPosting'>\n      <div class='creator'>\n        <span>\n          <a href='/u/Dave23'><b itemprop='author'>Dave23</b></a>\n          \n          <time datetime='2019-01-03T07:25:40Z' itemprop='datePublished'>\n            2019-01-03 07:25:40 UTC\n          </time>\n        </span>\n        <span itemprop='position'>#17</span>\n      </div>\n      <div class='post' itemprop='articleBody'>\n        <p>Hi Rhona<br>\nI can sympathise and understand the fact of you separating I was diagnosed in 2013 i have been married for 27 years and my wife although trying to help did not really understand my PD changes and issues. Its taken 3 years for my family to understand and come to terms with my PD I became isolated and frustrated because everyone didn’t understand simple PD problems especially with my fine motor movements eg trying and failing to open jars and bottles etc their answer was Dads copping out using the PD which made me more frustrated<br>\nMy wife continues with her lifestyle and friends which helps her but  isolated me further I felt abandon and alone but i battled on mainly due to a young family and sheer determination<br>\nI also play guitar and i have recently taken on the challenge to the bluegrass banjo i also paint and i. do not tremor at all which is really strange  plus ive learnt to enjoy my own company.<br>\nThe family plan when i retired 2 years ago was to move to Spain where the heat and lifestyle and diet help alleviate all aspects of PD but my wife refuses to go due to my all be it Mild well controlled PD symptoms and if i am openly honest i think  it was never on her agenda.<br>\nWe sat down before Xmas and had a honest talk and separation came up it felt good for both my wife and i  to clear the air.  I now move forward with my own dreams I guess what i am trying to say is you need to keep your dreams alive regardless of the PD i don t really know where my relationship goes in 2019 but i continue to look at Spain has my dream good luck with your future perhaps its time to create and follow your dream hope this helps</p>\n      </div>\n      <meta itemprop='interactionCount' content='UserLikes:0'>\n      <meta itemprop='interactionCount' content='UserComments:0'>\n      <meta itemprop='headline' content='Seperating from my husband'>\n      <hr>\n  </div>\n  <div itemscope itemtype='http://schema.org/DiscussionForumPosting'>\n      <div class='creator'>\n        <span>\n          <a href='/u/Rhona'><b itemprop='author'>Rhona</b></a>\n          \n          <time datetime='2019-01-03T09:24:12Z' itemprop='datePublished'>\n            2019-01-03 09:24:12 UTC\n          </time>\n        </span>\n        <span itemprop='position'>#18</span>\n      </div>\n      <div class='post' itemprop='articleBody'>\n        <p>Thank you Dave<br>\nIt seems we’re both in the same boat!<br>\nTime, as you say, to move forward and not look back.<br>\nEasier said than done, but it sounds as if we are similar in character. Determined not to let PD get the better of us.<br>\nI find music and the guitar an incredible release, as you can get lost in your playing. The more you play, the easier your movement becomes.<br>\nSo, time to move forward and although we remain good friends, time to let go of the past.<br>\nThank you for replying,<br>\nRhona</p>\n      </div>\n      <meta itemprop='interactionCount' content='UserLikes:0'>\n      <meta itemprop='interactionCount' content='UserComments:0'>\n      <meta itemprop='headline' content='Seperating from my husband'>\n      <hr>\n  </div>\n  <div itemscope itemtype='http://schema.org/DiscussionForumPosting'>\n      <div class='creator'>\n        <span>\n          <a href='/u/Hammondeggs'><b itemprop='author'>Hammondeggs</b></a>\n          \n          <time datetime='2019-01-03T22:21:41Z' itemprop='datePublished'>\n            2019-01-03 22:21:41 UTC\n          </time>\n        </span>\n        <span itemprop='position'>#19</span>\n      </div>\n      <div class='post' itemprop='articleBody'>\n        <p>Hi Rhona,</p>\n<p>I’ve been where you’re at. Wont tell you it’s easy it took me three years to  finally come out the other side but feel so much more confident now. I was diagnosed  September 15 and found out he was cheating on me 2 months later 25 years marriage down the pan.  I’m 60 and partying with new girlfriends that I wasn’t allowed to have when I was married I am hardly ever home and have a diary for the first time ever. There is light at the end of the tunnel. I will just give you a bit of advise don’t get the solicitors involved until you and your ex are in agreement on how you are going to split the assets. They love to bump up the costs by getting you to fight. I had a lovely solicitor I explained that I had PD and had to avoid stress. She made  sure his solicitor done all the work keeping my costs down. I wish you the very best<br>\nxx</p>\n      </div>\n      <meta itemprop='interactionCount' content='UserLikes:0'>\n      <meta itemprop='interactionCount' content='UserComments:1'>\n      <meta itemprop='headline' content='Seperating from my husband'>\n      <hr>\n  </div>\n  <div itemscope itemtype='http://schema.org/DiscussionForumPosting'>\n      <div class='creator'>\n        <span>\n          <a href='/u/dee'><b itemprop='author'>dee</b></a>\n          \n          <time datetime='2019-01-04T00:32:27Z' itemprop='datePublished'>\n            2019-01-04 00:32:27 UTC\n          </time>\n        </span>\n        <span itemprop='position'>#20</span>\n      </div>\n      <div class='post' itemprop='articleBody'>\n        <p>Hi Rhona<br>\nI’m so sad to hear, and read, all about your situation. As a carer to my mother I can say that the past 6 years have been hell for me. However, I’m a committed and faithful Christian and I believe that my belief and faith in God’s grace has given me the courage and strength to stay and commit to my mother. She was not ever an easy person; I was abused and she shunned me. She’s been cold and indifferent to me all my life. When father died she lost her main carer so she fastened onto me because she was terrified of having no one and she did not want to leave her home. I have cried out in frustration, fought against my own feelings to run as far away as possible from her, but have stayed only because I’ve prayed and been answered and cared for by a gentle and kind God. I truly believe this because I know that I could NOT still be here without this faith. I’m a widow and am now housebound with mother who has stage 3 PD and dementia and other symptoms of her PD which she has had for over 30 years. We have no support from the family except when discussing mother’s assets. Your situation is a tough one too and sadly you must leave your home temporarily. But I hope that with the courage I know that you have you will overcome this obstacle and leave this man feeling very guilty for the rest of his life because he treated you this way at your most vulnerable time. I’ll pray for your safekeeping and for a happy outcome in your favour … I’m 68 and understand what it’s like to be facing being alone or making big changes. Take care of yourself.</p>\n      </div>\n      <meta itemprop='interactionCount' content='UserLikes:0'>\n      <meta itemprop='interactionCount' content='UserComments:0'>\n      <meta itemprop='headline' content='Seperating from my husband'>\n      <hr>\n  </div>\n\n  <div role='navigation' itemscope itemtype='http://schema.org/SiteNavigationElement'>\n      <span itemprop='name'><b><a rel=\"next\" itemprop=\"url\" href=\"/t/seperating-from-my-husband/17262?page=2\">next page →</a></b></span>\n  </div>\n\n\n\n\n\n    </div>\n    <footer class=\"container\">\n      <nav class='crawler-nav' itemscope itemtype='http://schema.org/SiteNavigationElement'>\n        <a href='/'>Home</a>\n        <a href=\"/categories\">Categories</a>\n        <a href=\"/guidelines\">FAQ/Guidelines</a>\n        <a href=\"/tos\">Terms of Service</a>\n        <a href=\"/privacy\">Privacy Policy</a>\n      </nav>\n      <p class='powered-by-link'>Powered by <a href=\"https://www.discourse.org\">Discourse</a>, best viewed with JavaScript enabled</p>\n    </footer>\n    \n  </body>\n  \n</html>\n",
  "url": "https://forum.parkinsons.org.uk/t/seperating-from-my-husband/17262"
}