{
  "contentId": "ee1c25c0-8864-11e9-8f96-97f71b5221d6",
  "html": "<!DOCTYPE html>\n<html lang=\"en\">\n  <head>\n    <meta charset=\"utf-8\">\n    <title>Ropinerole - tremor now noticeable - Newly diagnosed - Parkinson&#39;s UK Forum</title>\n    <meta name=\"description\" content=\"Very newly diagnosed although have been seeing a neurologist for about 2 years - not a complete shock but still a hefty dose of reality. \nImmediately given Ropinerole (2mg) which made me really ill with sickness, hot, co&amp;hellip;\">\n    <meta name=\"author\" content=\"\">\n<meta name=\"generator\" content=\"Discourse 2.2.5 - https://github.com/discourse/discourse version c294ff3609f988dcafb742e91606d60ca13b794d\">\n<link rel=\"icon\" type=\"image/png\" href=\"https://forum.parkinsons.org.uk/uploads/db7928/original/2X/3/311fc84f89f49f38601a2f16b295b6f03d3ce5dd.jpg\">\n<link rel=\"apple-touch-icon\" type=\"image/png\" href=\"https://forum.parkinsons.org.uk/uploads/db7928/original/2X/3/311fc84f89f49f38601a2f16b295b6f03d3ce5dd.jpg\">\n<meta name=\"theme-color\" content=\"#ffffff\">\n<meta name=\"viewport\" content=\"width=device-width, minimum-scale=1.0, maximum-scale=1.0, user-scalable=yes\">\n<link rel=\"canonical\" href=\"https://forum.parkinsons.org.uk/t/ropinerole-tremor-now-noticeable/19347\" />\n<script type=\"application/ld+json\">{\"@context\":\"http://schema.org\",\"@type\":\"WebSite\",\"url\":\"https://forum.parkinsons.org.uk\",\"potentialAction\":{\"@type\":\"SearchAction\",\"target\":\"https://forum.parkinsons.org.uk/search?q={search_term_string}\",\"query-input\":\"required name=search_term_string\"}}</script>\n<link rel=\"search\" type=\"application/opensearchdescription+xml\" href=\"https://forum.parkinsons.org.uk/opensearch.xml\" title=\"Parkinson&#39;s UK Forum Search\">\n\n      <link href=\"/stylesheets/desktop_f99246ae801b083d3e4cca979d0dade8615b39ac.css?__ws=forum.parkinsons.org.uk\" media=\"all\" rel=\"stylesheet\" data-target=\"desktop\" data-theme-id=\"12\"/>\n      <link href=\"/stylesheets/desktop_theme_12_5d27531cf43f9df0c03a6a6ec3109dd05f9dfc49.css?__ws=forum.parkinsons.org.uk\" media=\"all\" rel=\"stylesheet\" data-target=\"desktop_theme\" data-theme-id=\"12\"/>\n    <link href=\"https://fonts.googleapis.com/css?family=Open+Sans\" rel=\"stylesheet\">\n\n    <meta id=\"data-ga-universal-analytics\" data-tracking-code=\"UA-4855628-1\" data-json=\"{&quot;cookieDomain&quot;:&quot;auto&quot;}\" data-auto-link-domains=\"\">\n\n<link rel='preload' href='/assets/google-universal-analytics-f35b4da49411e6f5559073523aab983da483976a3954c79c756f8579f6fbd6ef.js' as='script'/>\n<script src='/assets/google-universal-analytics-f35b4da49411e6f5559073523aab983da483976a3954c79c756f8579f6fbd6ef.js'></script>\n\n      <link rel=\"alternate\" type=\"application/rss+xml\" title=\"RSS feed of &#39;Ropinerole - tremor now noticeable&#39;\" href=\"https://forum.parkinsons.org.uk/t/ropinerole-tremor-now-noticeable/19347.rss\" />\n  <meta property=\"og:site_name\" content=\"Parkinson&#39;s UK Forum\" />\n<meta name=\"twitter:card\" content=\"summary\" />\n<meta name=\"twitter:image\" content=\"https://forum.parkinsons.org.uk/uploads/db7928/original/2X/3/311fc84f89f49f38601a2f16b295b6f03d3ce5dd.jpg\" />\n<meta property=\"og:image\" content=\"https://forum.parkinsons.org.uk/uploads/db7928/original/2X/3/311fc84f89f49f38601a2f16b295b6f03d3ce5dd.jpg\" />\n<meta property=\"og:url\" content=\"https://forum.parkinsons.org.uk/t/ropinerole-tremor-now-noticeable/19347\" />\n<meta name=\"twitter:url\" content=\"https://forum.parkinsons.org.uk/t/ropinerole-tremor-now-noticeable/19347\" />\n<meta property=\"og:title\" content=\"Ropinerole - tremor now noticeable\" />\n<meta name=\"twitter:title\" content=\"Ropinerole - tremor now noticeable\" />\n<meta property=\"og:description\" content=\"Very newly diagnosed although have been seeing a neurologist for about 2 years - not a complete shock but still a hefty dose of reality.  Immediately given Ropinerole (2mg) which made me really ill with sickness, hot, cold etc… A week’s worth of Domperidome had resolved the side effects and now on week 2, due to increase to 4mg next week.  My overwhelming horror is that the tremor has exacerbated badly. Previously the tremor was mild, so I thought, and I could hide or at least control it. Now, i...\" />\n<meta name=\"twitter:description\" content=\"Very newly diagnosed although have been seeing a neurologist for about 2 years - not a complete shock but still a hefty dose of reality.  Immediately given Ropinerole (2mg) which made me really ill with sickness, hot, cold etc… A week’s worth of Domperidome had resolved the side effects and now on week 2, due to increase to 4mg next week.  My overwhelming horror is that the tremor has exacerbated badly. Previously the tremor was mild, so I thought, and I could hide or at least control it. Now, i...\" />\n<meta property=\"article:published_time\" content=\"2019-05-19T22:01:34+00:00\" />\n<meta property=\"og:ignore_canonical\" content=\"true\" />\n\n\n\n    \n  </head>\n  <body class=\"crawler\">\n    <header role=\"banner\">\n    <div class=\"region region-header\">\n        <div class=\"region-header-wrapper\">\n            <div id=\"block-parkinsons-d8-branding\" class=\"block block-system block-system-branding-block\">\n                <a href=\"/\" title=\"Home\" rel=\"home\" class=\"site-logo\">\n                    <img src=\"https://forum.parkinsons.org.uk/uploads/db7928/original/2X/8/862bb7d172e7d127e7f3e147ec43594aa62ac945.png\" alt=\"Parkinson's UK. Change Attitudes. Find a cure. Join us.\">\n                </a>\n            </div>\n            <div id=\"block-helpline\" class=\"block block-block-content block-block-content871cd5af-b938-4947-9dc0-d5c211d08fe3 style-phone\">\n                <div class=\"field field--name-field-link field--type-link field--label-hidden field__item\"><a href=\"tel:+448088000303\">Helpline 0808 800 0303</a></div>\n            </div>\n            <div id=\"block-shop\" class=\"block block-block-content block-block-content6fba5ae5-7797-49cd-8367-f321d8111cd6 style-regular\">\n                <div class=\"field field--name-field-link field--type-link field--label-hidden field__item\"><a href=\"https://shop.parkinsons.org.uk\">Shop</a></div>\n            </div>\n        </div>\n    </div>\n</header>\n\n\n<script src=\"/theme-javascripts/b7e9763fcb584fc8265c56a9f557cd6d2e1e8ed8.js?__ws=forum.parkinsons.org.uk\"></script>\n    <header>\n      <a href=\"/\">\n          <img src=\"https://forum.parkinsons.org.uk/uploads/db7928/original/2X/8/862bb7d172e7d127e7f3e147ec43594aa62ac945.png\" alt=\"Parkinson&#39;s UK Forum\" id=\"site-logo\" style=\"max-width: 150px;\">\n      </a>\n    </header>\n    <div id=\"main-outlet\" class=\"wrap\">\n      <h1>\n  <a href=\"/t/ropinerole-tremor-now-noticeable/19347\">Ropinerole - tremor now noticeable</a>\n</h1>\n\n<div id='breadcrumbs'>\n    <div id=\"breadcrumb-0\" itemscope itemtype=\"http://data-vocabulary.org/Breadcrumb\"\n        itemref=\"breadcrumb-1\"\n      >\n      <a href=\"/c/about-parkinsons-and-health\" itemprop=\"url\">\n        <span itemprop=\"title\">About Parkinson&#39;s and health</span>\n      </a>\n    </div>\n    <div id=\"breadcrumb-1\" itemscope itemtype=\"http://data-vocabulary.org/Breadcrumb\"\n>\n      <a href=\"/c/about-parkinsons-and-health/newly-diagnosed\" itemprop=\"url\">\n        <span itemprop=\"title\">Newly diagnosed</span>\n      </a>\n    </div>\n</div>\n\n\n\n\n\n<hr>\n\n\n  <div itemscope itemtype='http://schema.org/DiscussionForumPosting'>\n      <div class='creator'>\n        <span>\n          <a href='/u/Amos'><b itemprop='author'>Amos</b></a>\n          \n          <time datetime='2019-05-19T22:01:34Z' itemprop='datePublished'>\n            2019-05-19 22:01:34 UTC\n          </time>\n        </span>\n        <span itemprop='position'>#1</span>\n      </div>\n      <div class='post' itemprop='articleBody'>\n        <p>Very newly diagnosed although have been seeing a neurologist for about 2 years - not a complete shock but still a hefty dose of reality.</p>\n<p>Immediately given Ropinerole (2mg) which made me really ill with sickness, hot, cold etc… A week’s worth of Domperidome had resolved the side effects and now on week 2, due to increase to 4mg next week.</p>\n<p>My overwhelming horror is that the tremor has exacerbated badly. Previously the tremor was mild, so I thought, and I could hide or at least control it. Now, it’s terrible and very obvious and I’m struggling to type and write which hadn’t previously been an issue. Next week I’m due to present to 250 people and whilst I never relish the opportunity I’m now terrifies as it’s going to be more noticeable.</p>\n<p>I haven’t actually told anyone apart from my husband. I dread the thought of telling my parents - don’t want to upset them; and work colleagues - I’m good at my job and don’t need their pity.</p>\n<p>What next…?</p>\n      </div>\n      <meta itemprop='interactionCount' content='UserLikes:0'>\n      <meta itemprop='interactionCount' content='UserComments:0'>\n      <meta itemprop='headline' content='Ropinerole - tremor now noticeable'>\n      <hr>\n  </div>\n  <div itemscope itemtype='http://schema.org/DiscussionForumPosting'>\n      <div class='creator'>\n        <span>\n          <a href='/u/Reah'><b itemprop='author'>Reah</b></a>\n          \n          <time datetime='2019-05-20T14:48:12Z' itemprop='datePublished'>\n            2019-05-20 14:48:12 UTC\n          </time>\n        </span>\n        <span itemprop='position'>#2</span>\n      </div>\n      <div class='post' itemprop='articleBody'>\n        <p>Hi <a class=\"mention\" href=\"/u/amos\">@Amos</a>,</p>\n<p>Welcome to the Parkinson’s UK forum.</p>\n<p>Being diagnosed with Parkinson’s can be a real shock to the system even if you had suspicions of it for a while so it’s completely understandable if you need some time to process things. Based on the information you’ve shared, your tremors may have worsened due to the anti-sickness drugs that you’ve been taking.</p>\n<p>However, you might still need to take Domperidome, so if you have any concerns about it, speak to your GP, specialist or Parkinson’s nurse. We have more information on the effects of anti-sickness drugs on tremors here - <a href=\"https://www.parkinsons.org.uk/information-and-support/tremor\" rel=\"nofollow noopener\">https://www.parkinsons.org.uk/information-and-support/tremor</a>.</p>\n<p>We also have a wealth of information on our <a href=\"https://www.parkinsons.org.uk/information-and-support/newly-diagnosed-parkinsons\" rel=\"nofollow noopener\">‘newly diagnosed’</a> section which covers speaking to family and co-workers about your diagnoses should you wish to share this information.</p>\n<p>Lastly, if you’d like to have a chat to one of our friendly advisers for more information and support on this, please give us a call on 0808 800 0303 from Monday-Friday: 9am-7pm, Saturday: 10am-2pm, or you can email <a href=\"/cdn-cgi/l/email-protection#8fe7eae3e3e0cfffeefde4e6e1fce0e1fca1e0fde8a1fae4\"><span class=\"__cf_email__\" data-cfemail=\"2c44494040436c5c4d5e4745425f43425f02435e4b025947\">[email&#160;protected]</span></a>.</p>\n<p>I hope you find this information helpful and I’m sure the other members of the community will soon flock to offer you some more support on this.</p>\n<p>Best wishes,<br>\nReah<br>\nForum Community Manager</p>\n      </div>\n      <meta itemprop='interactionCount' content='UserLikes:0'>\n      <meta itemprop='interactionCount' content='UserComments:0'>\n      <meta itemprop='headline' content='Ropinerole - tremor now noticeable'>\n      <hr>\n  </div>\n\n\n\n\n\n\n    </div>\n    <footer class=\"container\">\n      <nav class='crawler-nav' itemscope itemtype='http://schema.org/SiteNavigationElement'>\n        <a href='/'>Home</a>\n        <a href=\"/categories\">Categories</a>\n        <a href=\"/guidelines\">FAQ/Guidelines</a>\n        <a href=\"/tos\">Terms of Service</a>\n        <a href=\"/privacy\">Privacy Policy</a>\n      </nav>\n      <p class='powered-by-link'>Powered by <a href=\"https://www.discourse.org\">Discourse</a>, best viewed with JavaScript enabled</p>\n    </footer>\n    \n  <script data-cfasync=\"false\" src=\"/cdn-cgi/scripts/5c5dd728/cloudflare-static/email-decode.min.js\"></script></body>\n  \n</html>\n",
  "url": "https://forum.parkinsons.org.uk/t/ropinerole-tremor-now-noticeable/19347"
}