{
  "contentId": "6ced9ae0-886b-11e9-8f96-97f71b5221d6",
  "html": "<!DOCTYPE html>\n<html lang=\"en\">\n  <head>\n    <meta charset=\"utf-8\">\n    <title>Medication and non-medication for successful management of Parkinson’s - Treatments and therapies - Parkinson&#39;s UK Forum</title>\n    <meta name=\"description\" content=\"Hi Again, \nI first posted in January 2018 following a short period where I struggled to accept the diagnosis. Please see my Newly Diagnosed post for full details. Now 18 months later I am still in the same position – i.e&amp;hellip;\">\n    <meta name=\"author\" content=\"\">\n<meta name=\"generator\" content=\"Discourse 2.2.5 - https://github.com/discourse/discourse version c294ff3609f988dcafb742e91606d60ca13b794d\">\n<link rel=\"icon\" type=\"image/png\" href=\"https://forum.parkinsons.org.uk/uploads/db7928/original/2X/3/311fc84f89f49f38601a2f16b295b6f03d3ce5dd.jpg\">\n<link rel=\"apple-touch-icon\" type=\"image/png\" href=\"https://forum.parkinsons.org.uk/uploads/db7928/original/2X/3/311fc84f89f49f38601a2f16b295b6f03d3ce5dd.jpg\">\n<meta name=\"theme-color\" content=\"#ffffff\">\n<meta name=\"viewport\" content=\"width=device-width, minimum-scale=1.0, maximum-scale=1.0, user-scalable=yes\">\n<link rel=\"canonical\" href=\"https://forum.parkinsons.org.uk/t/medication-and-non-medication-for-successful-management-of-parkinson-s/18549\" />\n<script type=\"application/ld+json\">{\"@context\":\"http://schema.org\",\"@type\":\"WebSite\",\"url\":\"https://forum.parkinsons.org.uk\",\"potentialAction\":{\"@type\":\"SearchAction\",\"target\":\"https://forum.parkinsons.org.uk/search?q={search_term_string}\",\"query-input\":\"required name=search_term_string\"}}</script>\n<link rel=\"search\" type=\"application/opensearchdescription+xml\" href=\"https://forum.parkinsons.org.uk/opensearch.xml\" title=\"Parkinson&#39;s UK Forum Search\">\n\n      <link href=\"/stylesheets/desktop_f99246ae801b083d3e4cca979d0dade8615b39ac.css?__ws=forum.parkinsons.org.uk\" media=\"all\" rel=\"stylesheet\" data-target=\"desktop\" data-theme-id=\"12\"/>\n      <link href=\"/stylesheets/desktop_theme_12_5d27531cf43f9df0c03a6a6ec3109dd05f9dfc49.css?__ws=forum.parkinsons.org.uk\" media=\"all\" rel=\"stylesheet\" data-target=\"desktop_theme\" data-theme-id=\"12\"/>\n    <link href=\"https://fonts.googleapis.com/css?family=Open+Sans\" rel=\"stylesheet\">\n\n    <meta id=\"data-ga-universal-analytics\" data-tracking-code=\"UA-4855628-1\" data-json=\"{&quot;cookieDomain&quot;:&quot;auto&quot;}\" data-auto-link-domains=\"\">\n\n<link rel='preload' href='/assets/google-universal-analytics-f35b4da49411e6f5559073523aab983da483976a3954c79c756f8579f6fbd6ef.js' as='script'/>\n<script src='/assets/google-universal-analytics-f35b4da49411e6f5559073523aab983da483976a3954c79c756f8579f6fbd6ef.js'></script>\n\n      <link rel=\"alternate\" type=\"application/rss+xml\" title=\"RSS feed of &#39;Medication and non-medication for successful management of Parkinson’s&#39;\" href=\"https://forum.parkinsons.org.uk/t/medication-and-non-medication-for-successful-management-of-parkinson-s/18549.rss\" />\n  <meta property=\"og:site_name\" content=\"Parkinson&#39;s UK Forum\" />\n<meta name=\"twitter:card\" content=\"summary\" />\n<meta name=\"twitter:image\" content=\"https://forum.parkinsons.org.uk/uploads/db7928/original/2X/3/311fc84f89f49f38601a2f16b295b6f03d3ce5dd.jpg\" />\n<meta property=\"og:image\" content=\"https://forum.parkinsons.org.uk/uploads/db7928/original/2X/3/311fc84f89f49f38601a2f16b295b6f03d3ce5dd.jpg\" />\n<meta property=\"og:url\" content=\"https://forum.parkinsons.org.uk/t/medication-and-non-medication-for-successful-management-of-parkinson-s/18549\" />\n<meta name=\"twitter:url\" content=\"https://forum.parkinsons.org.uk/t/medication-and-non-medication-for-successful-management-of-parkinson-s/18549\" />\n<meta property=\"og:title\" content=\"Medication and non-medication for successful management of Parkinson’s\" />\n<meta name=\"twitter:title\" content=\"Medication and non-medication for successful management of Parkinson’s\" />\n<meta property=\"og:description\" content=\"Hi Again,  I first posted in January 2018 following a short period where I struggled to accept the diagnosis. Please see my Newly Diagnosed post for full details. Now 18 months later I am still in the same position – i.e. I still haven’t told anyone: I am still struggling with work as my writing has deteriorated further and I still haven’t overcome my fear of the medications being offered.  Hence I am posting again two questions relating to management of Parkinson’s through medication and non-me...\" />\n<meta name=\"twitter:description\" content=\"Hi Again,  I first posted in January 2018 following a short period where I struggled to accept the diagnosis. Please see my Newly Diagnosed post for full details. Now 18 months later I am still in the same position – i.e. I still haven’t told anyone: I am still struggling with work as my writing has deteriorated further and I still haven’t overcome my fear of the medications being offered.  Hence I am posting again two questions relating to management of Parkinson’s through medication and non-me...\" />\n<meta name=\"twitter:label1\" value=\"Reading time\" />\n<meta name=\"twitter:data1\" value=\"6 mins \uD83D\uDD51\" />\n<meta name=\"twitter:label2\" value=\"Likes\" />\n<meta name=\"twitter:data2\" value=\"20 ❤\" />\n<meta property=\"article:published_time\" content=\"2019-03-24T16:20:00+00:00\" />\n<meta property=\"og:ignore_canonical\" content=\"true\" />\n\n\n\n    \n  </head>\n  <body class=\"crawler\">\n    <header role=\"banner\">\n    <div class=\"region region-header\">\n        <div class=\"region-header-wrapper\">\n            <div id=\"block-parkinsons-d8-branding\" class=\"block block-system block-system-branding-block\">\n                <a href=\"/\" title=\"Home\" rel=\"home\" class=\"site-logo\">\n                    <img src=\"https://forum.parkinsons.org.uk/uploads/db7928/original/2X/8/862bb7d172e7d127e7f3e147ec43594aa62ac945.png\" alt=\"Parkinson's UK. Change Attitudes. Find a cure. Join us.\">\n                </a>\n            </div>\n            <div id=\"block-helpline\" class=\"block block-block-content block-block-content871cd5af-b938-4947-9dc0-d5c211d08fe3 style-phone\">\n                <div class=\"field field--name-field-link field--type-link field--label-hidden field__item\"><a href=\"tel:+448088000303\">Helpline 0808 800 0303</a></div>\n            </div>\n            <div id=\"block-shop\" class=\"block block-block-content block-block-content6fba5ae5-7797-49cd-8367-f321d8111cd6 style-regular\">\n                <div class=\"field field--name-field-link field--type-link field--label-hidden field__item\"><a href=\"https://shop.parkinsons.org.uk\">Shop</a></div>\n            </div>\n        </div>\n    </div>\n</header>\n\n\n<script src=\"/theme-javascripts/b7e9763fcb584fc8265c56a9f557cd6d2e1e8ed8.js?__ws=forum.parkinsons.org.uk\"></script>\n    <header>\n      <a href=\"/\">\n          <img src=\"https://forum.parkinsons.org.uk/uploads/db7928/original/2X/8/862bb7d172e7d127e7f3e147ec43594aa62ac945.png\" alt=\"Parkinson&#39;s UK Forum\" id=\"site-logo\" style=\"max-width: 150px;\">\n      </a>\n    </header>\n    <div id=\"main-outlet\" class=\"wrap\">\n      <h1>\n  <a href=\"/t/medication-and-non-medication-for-successful-management-of-parkinson-s/18549\">Medication and non-medication for successful management of Parkinson’s</a>\n</h1>\n\n<div id='breadcrumbs'>\n    <div id=\"breadcrumb-0\" itemscope itemtype=\"http://data-vocabulary.org/Breadcrumb\"\n        itemref=\"breadcrumb-1\"\n      >\n      <a href=\"/c/about-parkinsons-and-health\" itemprop=\"url\">\n        <span itemprop=\"title\">About Parkinson&#39;s and health</span>\n      </a>\n    </div>\n    <div id=\"breadcrumb-1\" itemscope itemtype=\"http://data-vocabulary.org/Breadcrumb\"\n>\n      <a href=\"/c/about-parkinsons-and-health/treatments-and-therapies\" itemprop=\"url\">\n        <span itemprop=\"title\">Treatments and therapies</span>\n      </a>\n    </div>\n</div>\n\n\n\n\n\n<hr>\n\n\n  <div itemscope itemtype='http://schema.org/DiscussionForumPosting'>\n      <div class='creator'>\n        <span>\n          <a href='/u/Dazed_and_Confused'><b itemprop='author'>Dazed_and_Confused</b></a>\n          \n          <time datetime='2019-03-24T16:20:00Z' itemprop='datePublished'>\n            2019-03-24 16:20:00 UTC\n          </time>\n        </span>\n        <span itemprop='position'>#1</span>\n      </div>\n      <div class='post' itemprop='articleBody'>\n        <p>Hi Again,</p>\n<p>I first posted in January 2018 following a short period where I struggled to accept the diagnosis. Please see my Newly Diagnosed post for full details. Now 18 months later I am still in the same position – i.e. I still haven’t told anyone: I am still struggling with work as my writing has deteriorated further and I still haven’t overcome my fear of the medications being offered.</p>\n<p>Hence I am posting again two questions relating to management of Parkinson’s through medication and non-medication.</p>\n<p>Firstly I would really appreciate an open honest reply from anyone who has experience of starting MOABs, Agonists or Levodopa. I realise that everyone is different, but the constant referral to side effects is stopping me even considering starting. I just feel so ill-informed, so I am reaching out in the hope of hearing back from those who are actually using the medications for your feedback with either good or bad experiences. I am particularly keen to hear from those who have started medication whilst still working and how they have managed the process.</p>\n<p>Equally I am keen to hear from anyone who is having success managing their symptoms using: Exercise, Diet (such as grain free), Supplements such as Vitamins &amp; Minerals, Amino Acid Therapy, Meditation &amp; Prayer etc.</p>\n<p>I feel quite alone and quite concerned about making a jump to take medication when there may be a different option for me at this moment in time.</p>\n<p>Your comments, views and advice will be greatly appreciated.</p>\n<p>Thanks in advance to anyone taking time to reply.</p>\n      </div>\n      <meta itemprop='interactionCount' content='UserLikes:1'>\n      <meta itemprop='interactionCount' content='UserComments:0'>\n      <meta itemprop='headline' content='Medication and non-medication for successful management of Parkinson’s'>\n      <hr>\n  </div>\n  <div itemscope itemtype='http://schema.org/DiscussionForumPosting'>\n      <div class='creator'>\n        <span>\n          <a href='/u/Daffy'><b itemprop='author'>Daffy</b></a>\n          \n          <time datetime='2019-03-24T16:40:27Z' itemprop='datePublished'>\n            2019-03-24 16:40:27 UTC\n          </time>\n        </span>\n        <span itemprop='position'>#2</span>\n      </div>\n      <div class='post' itemprop='articleBody'>\n        <p>Hi,<br>\nAccepting diagnosis can take a long time, you can’t rush it.<br>\nI was diagnosed 3 years ago and put on sinemet straight away. I only read the leaflet later! But I really did feel and look a lot better within two weeks. I felt like me again.<br>\nI am still on sinemet but have had to increase the dose a bit.<br>\nExercise -, I walk, do some tai chi and PD exercises off you tube.<br>\nI make and drink Kefir daily, which is supposed to help the gut. It’s got to be a habit now and as I’m not doing too badly so far I’m going to keep going with it.<br>\nWe’re all different and have to do what feels right for us at the time. Good luck</p>\n      </div>\n      <meta itemprop='interactionCount' content='UserLikes:1'>\n      <meta itemprop='interactionCount' content='UserComments:0'>\n      <meta itemprop='headline' content='Medication and non-medication for successful management of Parkinson’s'>\n      <hr>\n  </div>\n  <div itemscope itemtype='http://schema.org/DiscussionForumPosting'>\n      <div class='creator'>\n        <span>\n          <a href='/u/Tot'><b itemprop='author'>Tot</b></a>\n          \n          <time datetime='2019-03-24T21:48:03Z' itemprop='datePublished'>\n            2019-03-24 21:48:03 UTC\n          </time>\n        </span>\n        <span itemprop='position'>#3</span>\n      </div>\n      <div class='post' itemprop='articleBody'>\n        <p>Hello there, if I might add a slightly different point of view for you to consider.  In general and I repeat  in general because everyone is different, the commonly used Parkinson’s drugs are effective although can become less so with long term use - for most that is a period of several years.  Doing nothing is clearly not working for you so maybe the time has come to view things differently.  I can’t comment on the non medication route because I do take medication.  I didn’t realise how difficult life had become until I started taking medication.  All my energy had been used just to keep my head above water at work, evenings and weekend found I was only doing the essentials.  I started to take meds following diagnosis.  The first few weeks were hard going a) because my medicine cabinet prior to consisted of a packet of plasters and an old barely used packet of paracetamol and b) they made me feel quite nauseous until my body adjusted.  Once over that I felt better than I had in months and on the back of that had more energy, was thinking more clearly and was once again able to make decisions.  One of the things I struggled with in the early days is the partnership type of relationship with my consultant and PD Nurse. We always agreed on the next step and I have always made it plain I wanted no more than was necessary for me to have a quality of life.  At Christmas it will be ten years and I am doing ok. It suits me. Maybe meds aren’t for you but how will you know if you don’t try.  If nothing else they may get you off the starting blocks.  Alternatively search for a non med route that appeals and give it a go or find some kind of talking therapy to find out how you might manage the fear you have and then perhaps you will find your way forward. Doing nothing is just making life much harder than it need be because the Parkinson’s is part of your life, sorry to be brutal but it is a fact.  We all had to find our way to deal with that.  These days I am happy to be guided by the medics and whoever but I never forget this is happening to me not them and I will manage it my way for as long as I can. I chose to tell people/work more or less immediately because it quickly became old news and I could get on with life. It also meant I could get the support I needed. That was my way, you must do it your way but I would encourage you to take that first step, without that the despair underlying your words will stop you finding the creativity we all find in all sorts of ways not to be beaten by Parkinson’s and that is to discover life doesn’t have to stop because of it.   Be brave, decide on your preferred course and give it a go…and let us know how you are getting on,  good or bad.  Good luck.</p>\n      </div>\n      <meta itemprop='interactionCount' content='UserLikes:2'>\n      <meta itemprop='interactionCount' content='UserComments:1'>\n      <meta itemprop='headline' content='Medication and non-medication for successful management of Parkinson’s'>\n      <hr>\n  </div>\n  <div itemscope itemtype='http://schema.org/DiscussionForumPosting'>\n      <div class='creator'>\n        <span>\n          <a href='/u/Tot'><b itemprop='author'>Tot</b></a>\n          \n          <time datetime='2019-03-24T22:54:54Z' itemprop='datePublished'>\n            2019-03-24 22:54:54 UTC\n          </time>\n        </span>\n        <span itemprop='position'>#4</span>\n      </div>\n      <div class='post' itemprop='articleBody'>\n        <p>An after thought, have you spoken to someone on the help line - it would be a safe first step to get you going with no obligation</p>\n      </div>\n      <meta itemprop='interactionCount' content='UserLikes:1'>\n      <meta itemprop='interactionCount' content='UserComments:0'>\n      <meta itemprop='headline' content='Medication and non-medication for successful management of Parkinson’s'>\n      <hr>\n  </div>\n  <div itemscope itemtype='http://schema.org/DiscussionForumPosting'>\n      <div class='creator'>\n        <span>\n          <a href='/u/Tenorhorn'><b itemprop='author'>Tenorhorn</b></a>\n          \n          <time datetime='2019-03-24T23:31:15Z' itemprop='datePublished'>\n            2019-03-24 23:31:15 UTC\n          </time>\n        </span>\n        <span itemprop='position'>#5</span>\n      </div>\n      <div class='post' itemprop='articleBody'>\n        <p>I would say persevere with the meds. At first medopar made me incredibly sick. I lost 5 kilos and just wanted to die. I couldn’t get in touch with the neurologist. My daughter (a GP) suggested domperidon  and that did help, but I still felt bad. When I eventually saw the neurologist he took me off madopar and put me on azilect. That was OK, but the tremor was still there. Eventually I decided to try madopar again and this time it’s working. The tremor has virtually disappeared and I can play my French horn again. There are still side effects - for example I wake up at about 4am and can’t get back to sleep - but at least I can do the thing I love most. I know it won’t last forever - but at 76, niether will I.<br>\nHang in there.</p>\n      </div>\n      <meta itemprop='interactionCount' content='UserLikes:1'>\n      <meta itemprop='interactionCount' content='UserComments:0'>\n      <meta itemprop='headline' content='Medication and non-medication for successful management of Parkinson’s'>\n      <hr>\n  </div>\n  <div itemscope itemtype='http://schema.org/DiscussionForumPosting'>\n      <div class='creator'>\n        <span>\n          <a href='/u/Singing_Gardener'><b itemprop='author'>Singing_Gardener</b></a>\n          \n          <time datetime='2019-03-25T00:14:18Z' itemprop='datePublished'>\n            2019-03-25 00:14:18 UTC\n          </time>\n        </span>\n        <span itemprop='position'>#6</span>\n      </div>\n      <div class='post' itemprop='articleBody'>\n        <p>I am on rasagiline (mao b inhibitor) only and have been for nearly 2 years with no side effects. It doesn’t eliminate my symptoms entirely but definitely helps, especially with some of the non motor symptoms (sense of smell and anxiety). I’d recommend trying it to see if it helps.</p>\n      </div>\n      <meta itemprop='interactionCount' content='UserLikes:1'>\n      <meta itemprop='interactionCount' content='UserComments:0'>\n      <meta itemprop='headline' content='Medication and non-medication for successful management of Parkinson’s'>\n      <hr>\n  </div>\n  <div itemscope itemtype='http://schema.org/DiscussionForumPosting'>\n      <div class='creator'>\n        <span>\n          <a href='/u/minky'><b itemprop='author'>minky</b></a>\n          \n          <time datetime='2019-03-25T02:12:49Z' itemprop='datePublished'>\n            2019-03-25 02:12:49 UTC\n          </time>\n        </span>\n        <span itemprop='position'>#7</span>\n      </div>\n      <div class='post' itemprop='articleBody'>\n        <p>Hi<br>\nI was diagnosed 4 years ago but like other pwp had symptoms for a couple of years prior. I started on medication straight away which definitely improved my symptoms, handwriting, walking etc. Last year my meds were changed which my body reacted to, changed again but my symptoms worsened and I wasn’t happy with the way things were progressing.</p>\n<p>I researched alternative therapy and after coming off meds 3 months later I decided to try Dr Marty Hinz Amino Acid Therapy which I started January this year.  I believe I am better than I was in August last year and am just working on getting the dosage right.  I am working with an American naturopath doctor.  It’s early days but I am happy with the way I am progressing.  Check out Mucuna Pruriens on this forum.</p>\n<p>We all have to find what works for us. I wish you well whatever you decide to do.</p>\n<p>Best wishes to all forum members.</p>\n<p>Minky</p>\n      </div>\n      <meta itemprop='interactionCount' content='UserLikes:2'>\n      <meta itemprop='interactionCount' content='UserComments:0'>\n      <meta itemprop='headline' content='Medication and non-medication for successful management of Parkinson’s'>\n      <hr>\n  </div>\n  <div itemscope itemtype='http://schema.org/DiscussionForumPosting'>\n      <div class='creator'>\n        <span>\n          <a href='/u/Singing_Gardener'><b itemprop='author'>Singing_Gardener</b></a>\n          \n          <time datetime='2019-03-25T02:23:42Z' itemprop='datePublished'>\n            2019-03-25 02:23:42 UTC\n          </time>\n        </span>\n        <span itemprop='position'>#8</span>\n      </div>\n      <div class='post' itemprop='articleBody'>\n        <p>Forgot to say that I also take supplements of magnesium and vitamins b12 and d3</p>\n      </div>\n      <meta itemprop='interactionCount' content='UserLikes:1'>\n      <meta itemprop='interactionCount' content='UserComments:0'>\n      <meta itemprop='headline' content='Medication and non-medication for successful management of Parkinson’s'>\n      <hr>\n  </div>\n  <div itemscope itemtype='http://schema.org/DiscussionForumPosting'>\n      <div class='creator'>\n        <span>\n          <a href='/u/Fizzy'><b itemprop='author'>Fizzy</b></a>\n          \n          <time datetime='2019-03-25T06:46:12Z' itemprop='datePublished'>\n            2019-03-25 06:46:12 UTC\n          </time>\n        </span>\n        <span itemprop='position'>#9</span>\n      </div>\n      <div class='post' itemprop='articleBody'>\n        <p>Hi there - I was diagnosed 6 years ago whilst still working and put on 8mg of Ropinerole which is a dopamine agonist, which made me more tired BUT it did relieve my shoulder pain and general stiffness.  I was warned about hallucinations and possible compulsive behaviours but felt that being forewarned was fore-armed which has proved to be the case.</p>\n<p>In the last couple of years my tremor has worsened and I was prescribed Sinemet (gave me bad joint pain) and Madopar (nausea) and so I stopped taking them.   So am still on the original Ropinerole dose because I couldn’t bear the woolly, not quite there feeling in my head.  On a recent research study I was asked whether I suffered from compulsive movements and was told that my answer ‘no’ fitted the results that were coming out which was that these behaviours seemed to be confined to Levedopa takers.</p>\n<p>Like you I am not sure where this leaves me as my symptoms worsen but I am determined to stay on minimal drugs for as long as possible.   I took early retirement and so am able to do more exercise which just makes you feel better and take part in research which helps understanding of the disease.</p>\n<p>BTW they don’t prescribe Ropinrole any more because of its potential side effects but it worked for me.  Good luck - I think you’ll know when you really need more Meds and it will be a case of trial and error until you find one you can cope with.</p>\n      </div>\n      <meta itemprop='interactionCount' content='UserLikes:1'>\n      <meta itemprop='interactionCount' content='UserComments:0'>\n      <meta itemprop='headline' content='Medication and non-medication for successful management of Parkinson’s'>\n      <hr>\n  </div>\n  <div itemscope itemtype='http://schema.org/DiscussionForumPosting'>\n      <div class='creator'>\n        <span>\n          <a href='/u/Reah'><b itemprop='author'>Reah</b></a>\n          \n          <time datetime='2019-03-25T14:37:41Z' itemprop='datePublished'>\n            2019-03-25 14:37:41 UTC\n          </time>\n        </span>\n        <span itemprop='position'>#10</span>\n      </div>\n      <div class='post' itemprop='articleBody'>\n        <p>Hi <a class=\"mention\" href=\"/u/dazed_and_confused\">@Dazed_and_Confused</a>,</p>\n<p>I see you’ve already received a lot of advice and support from other members, however, I just wanted to make you aware that we have information on all Parkinson’s related medication on our website which you can find here - <a href=\"https://www.parkinsons.org.uk/information-and-support/dopamine-agonists\" rel=\"nofollow noopener\">https://www.parkinsons.org.uk/information-and-support/dopamine-agonists</a>.</p>\n<p>If you’d like to speak to one of our advisers about this, please give our helpline a call on 0808 800 0303.</p>\n<p>Best wishes,<br>\nReah</p>\n      </div>\n      <meta itemprop='interactionCount' content='UserLikes:1'>\n      <meta itemprop='interactionCount' content='UserComments:0'>\n      <meta itemprop='headline' content='Medication and non-medication for successful management of Parkinson’s'>\n      <hr>\n  </div>\n  <div itemscope itemtype='http://schema.org/DiscussionForumPosting'>\n      <div class='creator'>\n        <span>\n          <a href='/u/jps1926'><b itemprop='author'>jps1926</b></a>\n          \n          <time datetime='2019-03-26T05:32:20Z' itemprop='datePublished'>\n            2019-03-26 05:32:20 UTC\n          </time>\n        </span>\n        <span itemprop='position'>#11</span>\n      </div>\n      <div class='post' itemprop='articleBody'>\n        <p>Hi, I’m still working and intend to do so for as long as I can. I take Sinemet, Sinemet CR, Rasagaline &amp; clonazepam. I started with a low dose of Sinemet and Rasagaline and overtime the dose has increased and Sinemet CR (slow release) was add to help with symptom control through out the day and making the getting going the next day easier. I certainly have found that taking these meds has allowed me to continue working and colleagues noticed improvements as well.</p>\n<p>Recently despite using a reminder alarm for my meds I missed taking my  mid-day top up meds. I really noticed the difference in both movement, tremor and mood control. I experienced muscle rigidity which set me in a weird and uncomfortable position. Thankfully felt like my old well new PD suffer self in a couple of days.</p>\n<p>To go back to your original question of should you take medication or not. Well that is an individual choice but as you asked for views I certainly believe if I didn’t start when I did I wouldn’t still be working and also enjoying the quality family time. Recently (Feb) after having my meds increased in December my Daughter commented how nice it was to have some of her old Dad back and I’ll take that as a victory.<br>\nI would add whatever you decide make sure you are supported both family / friend circle and if you have or can share with your employer then again I would say do this as mine has been very supportive.</p>\n<p>Good luck with whatever you decide to do</p>\n      </div>\n      <meta itemprop='interactionCount' content='UserLikes:1'>\n      <meta itemprop='interactionCount' content='UserComments:0'>\n      <meta itemprop='headline' content='Medication and non-medication for successful management of Parkinson’s'>\n      <hr>\n  </div>\n  <div itemscope itemtype='http://schema.org/DiscussionForumPosting'>\n      <div class='creator'>\n        <span>\n          <a href='/u/Jane_L'><b itemprop='author'>Jane_L</b></a>\n          \n          <time datetime='2019-03-26T15:26:51Z' itemprop='datePublished'>\n            2019-03-26 15:26:51 UTC\n          </time>\n        </span>\n        <span itemprop='position'>#12</span>\n      </div>\n      <div class='post' itemprop='articleBody'>\n        <p>I was diagnosed 17 months ago.  I am currently taking levodopa (Madopar) with no side effects.</p>\n<p>The medications for Parkinson’s treat the symptoms, but do not stop progression of the illness.  So, over time, more medication is needed, not because the medication has become less effective, but because the illness has degenerated further.</p>\n<p>Personally, I don’t see the rationale for using ‘alternative’ therapies for Parkinson’s when scientifically proven ones are available. Exercise, however, is a proven therapy and I have made great progress in regaining physical strength, dexterity and coordination I had lost through an exercise regime alongside medication.</p>\n      </div>\n      <meta itemprop='interactionCount' content='UserLikes:1'>\n      <meta itemprop='interactionCount' content='UserComments:0'>\n      <meta itemprop='headline' content='Medication and non-medication for successful management of Parkinson’s'>\n      <hr>\n  </div>\n  <div itemscope itemtype='http://schema.org/DiscussionForumPosting'>\n      <div class='creator'>\n        <span>\n          <a href='/u/Celeron1'><b itemprop='author'>Celeron1</b></a>\n          \n          <time datetime='2019-03-31T11:28:24Z' itemprop='datePublished'>\n            2019-03-31 11:28:24 UTC\n          </time>\n        </span>\n        <span itemprop='position'>#13</span>\n      </div>\n      <div class='post' itemprop='articleBody'>\n        <p>Hi</p>\n<p>I was diagnosed about 18 months aga like you but I had obvious symptoms about a year before that which my GP disregarded completely. I was worried like you how my bosses and colleagues would react if they knew about my condition and also how I would cope with my demanding work load. I have a limp in my left leg and a slight shake on my left arm. As soon as I was diagnosed I was given  Ropinirole slow release tablets 2mg gradually encreasing to 8mg. My limp got slightly better but I was feeling really unwell. I had no energy, I had insomnia and I wasnt myself altogether. I told my neurologist that I would stop them gradually, which I did. It was January 2018. By July  2018 my symptoms got worse. I researched all the medications and like you, because of the side effects I didn’t want to start anything else. Meanwhile, I changed neurologist. I went to Edgware community hospital. The new neurologist gave me Mirapexin slow release. I started on 0.26 and after two weeks doubled the dose. They also gave me physio. I take vitamin supplements CoQ-10 once a day. I go to the gym about three times a week and eat healthily. I got myself back. I cope with my work load very well. Not only I work full time I also do extra hours. I’m an accountant and I’m always working on dead lines. My bosses know about my condition and they seem fine with it. A couple of my colleagues know too but I’m not treated differently in any way. Without the medication I wouldn’t have been able to function the way I do. At the moment I don’t seem to have any obvious side effects.</p>\n<p>To summarise, for me the following worked: medication, exercise, physio and healthy diet.</p>\n<p>Hope I can help in some way and wish you all the best with your decisions.</p>\n      </div>\n      <meta itemprop='interactionCount' content='UserLikes:1'>\n      <meta itemprop='interactionCount' content='UserComments:0'>\n      <meta itemprop='headline' content='Medication and non-medication for successful management of Parkinson’s'>\n      <hr>\n  </div>\n  <div itemscope itemtype='http://schema.org/DiscussionForumPosting'>\n      <div class='creator'>\n        <span>\n          <a href='/u/Knine'><b itemprop='author'>Knine</b></a>\n          \n          <time datetime='2019-03-31T18:30:23Z' itemprop='datePublished'>\n            2019-03-31 18:30:23 UTC\n          </time>\n        </span>\n        <span itemprop='position'>#14</span>\n      </div>\n      <div class='post' itemprop='articleBody'>\n        <p>Hi Dazed and Confused<br>\nIt is getting on for 2 years since i was diagnosed with PD. I was immediately put onto sinemet plus, since when i have not looked back. I was given anti sickness tablets before taking the Sinemet, and have had no side effects whatsoever. The tremor in my left hand had gone within 2 weeks and has not resurfaced.<br>\nI was already exercising regularly and have increased it quite substantially. I have to say that I am enjoying the challenege of having PD. I am the opposite of you - I make sure everybody knows that I have it, and that I am no different than i was before - I am still the same person.  Keeping positive is important, and not letting PD rule the day. OK, not all days are brilliant, but I am taking the opportunity to try out new things which i would not have dared to try before. now there is no reason to put off trying them.<br>\nNew experiences can be quite exciting - this morning i went to a casting session for an artistic event which is being organised at a local museum. At 84 any new experience is welcome. I will do it if I can, and although I do not walk very well (chronic arthritis for more than 20 years) I have entered a sponsored walk for the end of April. 2.1 miles will be a marathon for me, but I will have a go, and, as somebody who is very stubborn. I think I will be able to do it, although i haven’t walked much further than 1/2 a mile for years.<br>\nPD is not something to be ashamed of - it is a bit of a nuisance, but people don’t  usually die from  it, they die WITH it, so try to get on ewith your life and don’t be afraid. None of us knows exactly what is around the corner so it is a waste of time to worry about it. Enjoy your life whilst you can!</p>\n      </div>\n      <meta itemprop='interactionCount' content='UserLikes:2'>\n      <meta itemprop='interactionCount' content='UserComments:0'>\n      <meta itemprop='headline' content='Medication and non-medication for successful management of Parkinson’s'>\n      <hr>\n  </div>\n  <div itemscope itemtype='http://schema.org/DiscussionForumPosting'>\n      <div class='creator'>\n        <span>\n          <a href='/u/Cathiesmall'><b itemprop='author'>Cathiesmall</b></a>\n          \n          <time datetime='2019-04-01T01:19:04Z' itemprop='datePublished'>\n            2019-04-01 01:19:04 UTC\n          </time>\n        </span>\n        <span itemprop='position'>#15</span>\n      </div>\n      <div class='post' itemprop='articleBody'>\n        <p>Hi<br>\nI have now been diagnosed for coming up to 11 years. Like you I was reluctant to tell family and friends (even to accept the diagnosis.<br>\nI started off on a low dose of Roprinorol which was really effective - so much so that I questioned my diagnosis at my 2 year check up.<br>\nHowever, as we know PD is progressive and two years ago Sinimet was added to my prescribed drugs because of weakness in my legs and stiffness when walking.  Like other responses I was warned of side effects like compulsive behaviour and have signed various disclaimers on clinic visits to confirm I am aware of these, but thankfully none have emerged.<br>\nI understand your reluctance to start on medication but if you are still working I feel they would help make life easier.  I wouldn’t be without my Sinimet now as within 30 minutes of taking a dose I can move nearly as well as I did 10’years ago!</p>\n      </div>\n      <meta itemprop='interactionCount' content='UserLikes:2'>\n      <meta itemprop='interactionCount' content='UserComments:0'>\n      <meta itemprop='headline' content='Medication and non-medication for successful management of Parkinson’s'>\n      <hr>\n  </div>\n  <div itemscope itemtype='http://schema.org/DiscussionForumPosting'>\n      <div class='creator'>\n        <span>\n          <a href='/u/k800mer'><b itemprop='author'>k800mer</b></a>\n          \n          <time datetime='2019-04-01T08:32:00Z' itemprop='datePublished'>\n            2019-04-01 08:32:00 UTC\n          </time>\n        </span>\n        <span itemprop='position'>#16</span>\n      </div>\n      <div class='post' itemprop='articleBody'>\n        <p>My husband was diagnosed about 18months ago but refused medication apart from laxido. He was not offered anything else. He has just started taking medication because he was feeling dizzy except when sitting or lying down and he has now been referred to the nearest Parkinson’s clinic, this should have been offered before but presumably if he wasn’t taking medication they didn’t want to know. So it would seem that if you take the medication there is more on offer than if you don’t. Possibly a reason to take the medication.</p>\n      </div>\n      <meta itemprop='interactionCount' content='UserLikes:1'>\n      <meta itemprop='interactionCount' content='UserComments:0'>\n      <meta itemprop='headline' content='Medication and non-medication for successful management of Parkinson’s'>\n      <hr>\n  </div>\n  <div itemscope itemtype='http://schema.org/DiscussionForumPosting'>\n      <div class='creator'>\n        <span>\n          <a href='/u/Dazed_and_Confused'><b itemprop='author'>Dazed_and_Confused</b></a>\n          \n          <time datetime='2019-04-08T21:20:45Z' itemprop='datePublished'>\n            2019-04-08 21:20:45 UTC\n          </time>\n        </span>\n        <span itemprop='position'>#17</span>\n      </div>\n      <div class='post' itemprop='articleBody'>\n        <p>Hi All,</p>\n<p>Many thanks to all of you who have taken time to reply to my post.</p>\n<p>It has been very helpful hearing your real life stories about your own experiences.  In addition it has been refreshing to get some brutal honesty regarding the medications, along with my own situation and reluctance to start them.</p>\n<p>I will use all of your input to plan my way forward, whatever route that may be.</p>\n<p>It has certainly given me food for thought and yes I hope to post back again with an update sometime in the future to let you all know how things are progressing for me.</p>\n<p>Thanks again</p>\n      </div>\n      <meta itemprop='interactionCount' content='UserLikes:0'>\n      <meta itemprop='interactionCount' content='UserComments:0'>\n      <meta itemprop='headline' content='Medication and non-medication for successful management of Parkinson’s'>\n      <hr>\n  </div>\n\n\n\n\n\n\n    </div>\n    <footer class=\"container\">\n      <nav class='crawler-nav' itemscope itemtype='http://schema.org/SiteNavigationElement'>\n        <a href='/'>Home</a>\n        <a href=\"/categories\">Categories</a>\n        <a href=\"/guidelines\">FAQ/Guidelines</a>\n        <a href=\"/tos\">Terms of Service</a>\n        <a href=\"/privacy\">Privacy Policy</a>\n      </nav>\n      <p class='powered-by-link'>Powered by <a href=\"https://www.discourse.org\">Discourse</a>, best viewed with JavaScript enabled</p>\n    </footer>\n    \n  </body>\n  \n</html>\n",
  "url": "https://forum.parkinsons.org.uk/t/medication-and-non-medication-for-successful-management-of-parkinson-s/18549"
}