{
  "contentId": "77790990-886b-11e9-8f96-97f71b5221d6",
  "html": "<!DOCTYPE html>\n<html lang=\"en\">\n  <head>\n    <meta charset=\"utf-8\">\n    <title>Thoughts on the BBC programme for GDNF? - Treatments and therapies - Parkinson&#39;s UK Forum</title>\n    <meta name=\"description\" content=\"Thoughts on the BBC programme on GDNF? \nI feel compelled to speak out about the BBC programme. \nI have cried many times throughout the two episodes. I commend the courage of the people who entered the trial and of course&amp;hellip;\">\n    <meta name=\"author\" content=\"\">\n<meta name=\"generator\" content=\"Discourse 2.2.5 - https://github.com/discourse/discourse version c294ff3609f988dcafb742e91606d60ca13b794d\">\n<link rel=\"icon\" type=\"image/png\" href=\"https://forum.parkinsons.org.uk/uploads/db7928/original/2X/3/311fc84f89f49f38601a2f16b295b6f03d3ce5dd.jpg\">\n<link rel=\"apple-touch-icon\" type=\"image/png\" href=\"https://forum.parkinsons.org.uk/uploads/db7928/original/2X/3/311fc84f89f49f38601a2f16b295b6f03d3ce5dd.jpg\">\n<meta name=\"theme-color\" content=\"#ffffff\">\n<meta name=\"viewport\" content=\"width=device-width, minimum-scale=1.0, maximum-scale=1.0, user-scalable=yes\">\n<link rel=\"canonical\" href=\"https://forum.parkinsons.org.uk/t/thoughts-on-the-bbc-programme-for-gdnf/18300?page=4\" />\n<script type=\"application/ld+json\">{\"@context\":\"http://schema.org\",\"@type\":\"WebSite\",\"url\":\"https://forum.parkinsons.org.uk\",\"potentialAction\":{\"@type\":\"SearchAction\",\"target\":\"https://forum.parkinsons.org.uk/search?q={search_term_string}\",\"query-input\":\"required name=search_term_string\"}}</script>\n<link rel=\"search\" type=\"application/opensearchdescription+xml\" href=\"https://forum.parkinsons.org.uk/opensearch.xml\" title=\"Parkinson&#39;s UK Forum Search\">\n\n      <link href=\"/stylesheets/desktop_f99246ae801b083d3e4cca979d0dade8615b39ac.css?__ws=forum.parkinsons.org.uk\" media=\"all\" rel=\"stylesheet\" data-target=\"desktop\" data-theme-id=\"12\"/>\n      <link href=\"/stylesheets/desktop_theme_12_5d27531cf43f9df0c03a6a6ec3109dd05f9dfc49.css?__ws=forum.parkinsons.org.uk\" media=\"all\" rel=\"stylesheet\" data-target=\"desktop_theme\" data-theme-id=\"12\"/>\n    <link href=\"https://fonts.googleapis.com/css?family=Open+Sans\" rel=\"stylesheet\">\n\n    <meta id=\"data-ga-universal-analytics\" data-tracking-code=\"UA-4855628-1\" data-json=\"{&quot;cookieDomain&quot;:&quot;auto&quot;}\" data-auto-link-domains=\"\">\n\n<link rel='preload' href='/assets/google-universal-analytics-f35b4da49411e6f5559073523aab983da483976a3954c79c756f8579f6fbd6ef.js' as='script'/>\n<script src='/assets/google-universal-analytics-f35b4da49411e6f5559073523aab983da483976a3954c79c756f8579f6fbd6ef.js'></script>\n\n      <link rel=\"alternate\" type=\"application/rss+xml\" title=\"RSS feed of &#39;Thoughts on the BBC programme for GDNF?&#39;\" href=\"https://forum.parkinsons.org.uk/t/thoughts-on-the-bbc-programme-for-gdnf/18300.rss\" />\n  <meta property=\"og:site_name\" content=\"Parkinson&#39;s UK Forum\" />\n<meta name=\"twitter:card\" content=\"summary\" />\n<meta name=\"twitter:image\" content=\"https://forum.parkinsons.org.uk/uploads/db7928/original/2X/3/311fc84f89f49f38601a2f16b295b6f03d3ce5dd.jpg\" />\n<meta property=\"og:image\" content=\"https://forum.parkinsons.org.uk/uploads/db7928/original/2X/3/311fc84f89f49f38601a2f16b295b6f03d3ce5dd.jpg\" />\n<meta property=\"og:url\" content=\"https://forum.parkinsons.org.uk/t/thoughts-on-the-bbc-programme-for-gdnf/18300?page=4\" />\n<meta name=\"twitter:url\" content=\"https://forum.parkinsons.org.uk/t/thoughts-on-the-bbc-programme-for-gdnf/18300?page=4\" />\n<meta property=\"og:title\" content=\"Thoughts on the BBC programme for GDNF?\" />\n<meta name=\"twitter:title\" content=\"Thoughts on the BBC programme for GDNF?\" />\n<meta property=\"og:description\" content=\"Belated comment re the programme - I also objected to the way it was trailed and promoted in the Has a Cure for Parkinsons been found-approach, the two part ‘cliffhanger’ element and the overall sense of not knowing until the end.  As someone with PD it was a difficult watch and upsetting, I figured early on that we would have heard earlier if a major medical breakthrough and treatment had been found, and yes I do my research but there’s not enough hours in the day to research and know everythin...\" />\n<meta name=\"twitter:description\" content=\"Belated comment re the programme - I also objected to the way it was trailed and promoted in the Has a Cure for Parkinsons been found-approach, the two part ‘cliffhanger’ element and the overall sense of not knowing until the end.  As someone with PD it was a difficult watch and upsetting, I figured early on that we would have heard earlier if a major medical breakthrough and treatment had been found, and yes I do my research but there’s not enough hours in the day to research and know everythin...\" />\n<meta name=\"twitter:label1\" value=\"Reading time\" />\n<meta name=\"twitter:data1\" value=\"17 mins \uD83D\uDD51\" />\n<meta name=\"twitter:label2\" value=\"Likes\" />\n<meta name=\"twitter:data2\" value=\"66 ❤\" />\n<meta property=\"article:published_time\" content=\"2019-03-20T17:33:43+00:00\" />\n<meta property=\"og:ignore_canonical\" content=\"true\" />\n\n      <link rel=\"prev\" href=\"/t/thoughts-on-the-bbc-programme-for-gdnf/18300?page=3\">\n\n\n    \n  </head>\n  <body class=\"crawler\">\n    <header role=\"banner\">\n    <div class=\"region region-header\">\n        <div class=\"region-header-wrapper\">\n            <div id=\"block-parkinsons-d8-branding\" class=\"block block-system block-system-branding-block\">\n                <a href=\"/\" title=\"Home\" rel=\"home\" class=\"site-logo\">\n                    <img src=\"https://forum.parkinsons.org.uk/uploads/db7928/original/2X/8/862bb7d172e7d127e7f3e147ec43594aa62ac945.png\" alt=\"Parkinson's UK. Change Attitudes. Find a cure. Join us.\">\n                </a>\n            </div>\n            <div id=\"block-helpline\" class=\"block block-block-content block-block-content871cd5af-b938-4947-9dc0-d5c211d08fe3 style-phone\">\n                <div class=\"field field--name-field-link field--type-link field--label-hidden field__item\"><a href=\"tel:+448088000303\">Helpline 0808 800 0303</a></div>\n            </div>\n            <div id=\"block-shop\" class=\"block block-block-content block-block-content6fba5ae5-7797-49cd-8367-f321d8111cd6 style-regular\">\n                <div class=\"field field--name-field-link field--type-link field--label-hidden field__item\"><a href=\"https://shop.parkinsons.org.uk\">Shop</a></div>\n            </div>\n        </div>\n    </div>\n</header>\n\n\n<script src=\"/theme-javascripts/b7e9763fcb584fc8265c56a9f557cd6d2e1e8ed8.js?__ws=forum.parkinsons.org.uk\"></script>\n    <header>\n      <a href=\"/\">\n          <img src=\"https://forum.parkinsons.org.uk/uploads/db7928/original/2X/8/862bb7d172e7d127e7f3e147ec43594aa62ac945.png\" alt=\"Parkinson&#39;s UK Forum\" id=\"site-logo\" style=\"max-width: 150px;\">\n      </a>\n    </header>\n    <div id=\"main-outlet\" class=\"wrap\">\n      <h1>\n  <a href=\"/t/thoughts-on-the-bbc-programme-for-gdnf/18300\">Thoughts on the BBC programme for GDNF?</a>\n</h1>\n\n<div id='breadcrumbs'>\n    <div id=\"breadcrumb-0\" itemscope itemtype=\"http://data-vocabulary.org/Breadcrumb\"\n        itemref=\"breadcrumb-1\"\n      >\n      <a href=\"/c/about-parkinsons-and-health\" itemprop=\"url\">\n        <span itemprop=\"title\">About Parkinson&#39;s and health</span>\n      </a>\n    </div>\n    <div id=\"breadcrumb-1\" itemscope itemtype=\"http://data-vocabulary.org/Breadcrumb\"\n>\n      <a href=\"/c/about-parkinsons-and-health/treatments-and-therapies\" itemprop=\"url\">\n        <span itemprop=\"title\">Treatments and therapies</span>\n      </a>\n    </div>\n</div>\n\n\n\n\n\n<hr>\n\n\n  <div itemscope itemtype='http://schema.org/DiscussionForumPosting'>\n      <div class='creator'>\n        <span>\n          <a href='/u/sarah007'><b itemprop='author'>sarah007</b></a>\n          \n          <time datetime='2019-03-20T17:33:43Z' itemprop='datePublished'>\n            2019-03-20 17:33:43 UTC\n          </time>\n        </span>\n        <span itemprop='position'>#61</span>\n      </div>\n      <div class='post' itemprop='articleBody'>\n        <p>Belated comment re the programme - I also objected to the way it was trailed and promoted in the Has a Cure for Parkinsons been found-approach, the two part ‘cliffhanger’ element and the overall sense of not knowing until the end.  As someone with PD it was a difficult watch and upsetting, I figured early on that we would have heard earlier if a major medical breakthrough and treatment had been found, and yes I do my research but there’s not enough hours in the day to research and know everything. Im also utterly fed up with claims of ‘do this exercise regime it will slow your PD down’ by able-bodied money-hungry motivational nit-wits - its cruel to make these statements to people like us who will try anything for improvement of the wretched symptoms - well prove it through scientific research. I have worked in television for over 30 years and know their ways and the BBC operate in a competitive market so promoted it in this way to get the viewing figures up - ok to watch if PD doesn’t affect your life but upsetting and difficult if it does.  Please do make your opinions known to the BBC complaints link - its your money they’re spending</p>\n      </div>\n      <meta itemprop='interactionCount' content='UserLikes:0'>\n      <meta itemprop='interactionCount' content='UserComments:0'>\n      <meta itemprop='headline' content='Thoughts on the BBC programme for GDNF?'>\n      <hr>\n  </div>\n  <div itemscope itemtype='http://schema.org/DiscussionForumPosting'>\n      <div class='creator'>\n        <span>\n          <a href='/u/cruisecontroller'><b itemprop='author'>cruisecontroller</b></a>\n          \n          <time datetime='2019-03-21T13:33:40Z' itemprop='datePublished'>\n            2019-03-21 13:33:40 UTC\n          </time>\n        </span>\n        <span itemprop='position'>#62</span>\n      </div>\n      <div class='post' itemprop='articleBody'>\n        <p>For what it is worth I felt that GDNF does give hope, there were people in this trial whose quality of life was greatly improved.  More needs to be done to get GDNF going again as this is the most positive thing to have come about in recent years.  It is sad that Pfizer withdrew funding as there is a lot that could be achieved with it.</p>\n<p>Les</p>\n      </div>\n      <meta itemprop='interactionCount' content='UserLikes:1'>\n      <meta itemprop='interactionCount' content='UserComments:0'>\n      <meta itemprop='headline' content='Thoughts on the BBC programme for GDNF?'>\n      <hr>\n  </div>\n  <div itemscope itemtype='http://schema.org/DiscussionForumPosting'>\n      <div class='creator'>\n        <span>\n          <a href='/u/SamA'><b itemprop='author'>SamA</b></a>\n          \n          <time datetime='2019-03-22T07:36:19Z' itemprop='datePublished'>\n            2019-03-22 07:36:19 UTC\n          </time>\n        </span>\n        <span itemprop='position'>#63</span>\n      </div>\n      <div class='post' itemprop='articleBody'>\n        <p>Does anyone know if Parkinson’s UK is doing anything to find a new company to fund the third trial?</p>\n<p>Is there anything that the suffers of PD can do to try and make a third trial happen?</p>\n      </div>\n      <meta itemprop='interactionCount' content='UserLikes:0'>\n      <meta itemprop='interactionCount' content='UserComments:1'>\n      <meta itemprop='headline' content='Thoughts on the BBC programme for GDNF?'>\n      <hr>\n  </div>\n  <div itemscope itemtype='http://schema.org/DiscussionForumPosting'>\n      <div class='creator'>\n        <span>\n          <a href='/u/Reah'><b itemprop='author'>Reah</b></a>\n          \n          <time datetime='2019-03-22T14:23:30Z' itemprop='datePublished'>\n            2019-03-22 14:23:30 UTC\n          </time>\n        </span>\n        <span itemprop='position'>#64</span>\n      </div>\n      <div class='post' itemprop='articleBody'>\n        <p>Hi <a class=\"mention\" href=\"/u/sama\">@SamA</a>,</p>\n<p>We’re excited about the future of GDNF as a treatment for Parkinson’s. And we’re fully committed to exploring the potential it could hold.</p>\n<p>Now we need more research to take GDNF forwards and we’re working with the scientific team, companies, charities and patients to explore possible routes to further studies.</p>\n<p>For further information on how you can help us fund research , please visit our website here - <a href=\"https://www.parkinsons.org.uk/research/clinical-trial-gdnf?_ga=2.219520089.1150163279.1553247784-650926728.1511215693\" rel=\"nofollow noopener\">https://www.parkinsons.org.uk/research/clinical-trial-gdnf?_ga=2.219520089.1150163279.1553247784-650926728.1511215693</a>.</p>\n<p>Best wishes,<br>\nReah</p>\n      </div>\n      <meta itemprop='interactionCount' content='UserLikes:0'>\n      <meta itemprop='interactionCount' content='UserComments:0'>\n      <meta itemprop='headline' content='Thoughts on the BBC programme for GDNF?'>\n      <hr>\n  </div>\n  <div itemscope itemtype='http://schema.org/DiscussionForumPosting'>\n      <div class='creator'>\n        <span>\n          <a href='/u/stevo'><b itemprop='author'>stevo</b></a>\n          \n          <time datetime='2019-03-22T16:08:24Z' itemprop='datePublished'>\n            2019-03-22 16:08:24 UTC\n          </time>\n        </span>\n        <span itemprop='position'>#65</span>\n      </div>\n      <div class='post' itemprop='articleBody'>\n        <p>I totally agree except that I had to turn off tv after 5 mins of watching episode 1 I had a feeling it was going to be an upsetting negative conclusion but I ende up watching all of the second part and have to say was not expecting it to be as bad an ending as it was .<br>\nWho the hell authorised this completely deppressing hopelessness of a programme that as many on the forum have said played with the idea in the 1st episode with peoples hopes and futures ? WhAt was the point of the programme ? Do they think it’s ok to toy with a question Parkinsons miracle cure ? Or something similar I already figured out that it wAs not going to end well because we would have heard about the drugs potential game changer by now and not have to wAit a week to find out the depressing really that they are no nearer to finding a much better treatment than 5 years ago . But although that crap should of never been aired ( whAt was the point of it all what ?) you have to commend the patients bravery in taking part in having half their skulls removed it was appalling to see and deeply sad and had me in tears I have been diagnosed ;4 years ago but have had it longer they suspect as I was told it was an essential tremor for 3 years by my retired GP who actually was always right when diagnosiing my ailments over the years except this time how I wish he is right and the Parkinson’s consultants are wrong and made me worse from levadopa not Parkinson’s I wonder if this has eve happened before were they misdiagnose someone with Parkinson’s get them on levadopa and it’s that which is making them worse not Parkinson’s but an essential tremor After all I wonder if they have made the misdiagnosis although I was assessed by two different consultants the first said he suspects Parkinson’s the second said confirmed it but they only did tests like hand cordination and legs etc and it has got much worse since I set foot in that hospital they haven’t made me better they have made me worse is that normal ? Doesn’t make sense does it ? I thought I would be feeling better but it’s been much much worse than before I stepped foot inside those hospital doors I don’t understand that  sorry being selfish and talking about me when it should be about those poor people And the horrific mess of their skulls being opened up it was truly deppresing and not even a bit of hope whatsoever hey should not have showed it what was the point of it dont they care about the thousands of sufferers who were upset and left feeling hopelessness I do think they will find some better treatments but in ten fifteen years time and it will be slightly better than we have now that’s what I think I hope I am wrong I really do let’s see and hope I am .</p>\n      </div>\n      <meta itemprop='interactionCount' content='UserLikes:0'>\n      <meta itemprop='interactionCount' content='UserComments:1'>\n      <meta itemprop='headline' content='Thoughts on the BBC programme for GDNF?'>\n      <hr>\n  </div>\n  <div itemscope itemtype='http://schema.org/DiscussionForumPosting'>\n      <div class='creator'>\n        <span>\n          <a href='/u/Reah'><b itemprop='author'>Reah</b></a>\n          \n          <time datetime='2019-03-25T16:03:28Z' itemprop='datePublished'>\n            2019-03-25 16:03:28 UTC\n          </time>\n        </span>\n        <span itemprop='position'>#66</span>\n      </div>\n      <div class='post' itemprop='articleBody'>\n        <p>Hi <a class=\"mention\" href=\"/u/stevo\">@stevo</a>,</p>\n<p>I’m really sorry the documentary triggered these emotions in you. As explained in my earlier post on this thread, we wanted to ensure that any portrayal of Parkinson’s and the GDNF trial was accurate, balanced and fair, as our primary concern was the needs of people with Parkinson’s. We considered the questions and concerns that the documentary might raise throughout the process of providing support and advice during the filming process.<br>\nFor example, as soon as we became aware of the title of the documentary we strongly voiced our concerns that it may raise false hope for people affected by Parkinson’s. I’m sorry if you felt as though the documentary should not have been aired, however, ultimately how the documentary film footage was edited and presented, and the title chosen, was a decision made by the BBC.</p>\n<p>I’m also sorry to hear that your condition has worsened since your diagnosis, have you raised this with your GP or Parkinson’s nurse? if not, I would encourage you to raise your concerns with them as they may need to review your medication. As always, we are here to support you so do feel free to give our free helpline a call to discuss your condition so they can offer you additional support on this.</p>\n<p>You can contact us on 0808 800 0303 or email us at <a href=\"/cdn-cgi/l/email-protection#a0c8c5cccccfe0d0c1d2cbc9ced3cfced38ecfd2c78ed5cb\"><span class=\"__cf_email__\" data-cfemail=\"2e464b4242416e5e4f5c4547405d41405d00415c49005b45\">[email&#160;protected]</span></a>.</p>\n<p>Best wishes,<br>\nReah</p>\n      </div>\n      <meta itemprop='interactionCount' content='UserLikes:1'>\n      <meta itemprop='interactionCount' content='UserComments:0'>\n      <meta itemprop='headline' content='Thoughts on the BBC programme for GDNF?'>\n      <hr>\n  </div>\n\n  <div role='navigation' itemscope itemtype='http://schema.org/SiteNavigationElement'>\n      <span itemprop='name'><a rel=\"prev\" itemprop=\"url\" href=\"/t/thoughts-on-the-bbc-programme-for-gdnf/18300?page=3\">← previous page</a></span>\n  </div>\n\n\n\n\n\n    </div>\n    <footer class=\"container\">\n      <nav class='crawler-nav' itemscope itemtype='http://schema.org/SiteNavigationElement'>\n        <a href='/'>Home</a>\n        <a href=\"/categories\">Categories</a>\n        <a href=\"/guidelines\">FAQ/Guidelines</a>\n        <a href=\"/tos\">Terms of Service</a>\n        <a href=\"/privacy\">Privacy Policy</a>\n      </nav>\n      <p class='powered-by-link'>Powered by <a href=\"https://www.discourse.org\">Discourse</a>, best viewed with JavaScript enabled</p>\n    </footer>\n    \n  <script data-cfasync=\"false\" src=\"/cdn-cgi/scripts/5c5dd728/cloudflare-static/email-decode.min.js\"></script></body>\n  \n</html>\n",
  "url": "https://forum.parkinsons.org.uk/t/thoughts-on-the-bbc-programme-for-gdnf/18300?page=4"
}