{
  "contentId": "eae58bd0-8864-11e9-8f96-97f71b5221d6",
  "html": "<!DOCTYPE html>\n<html lang=\"en\">\n  <head>\n    <meta charset=\"utf-8\">\n    <title>Living in constant pain - Treatments and therapies - Parkinson&#39;s UK Forum</title>\n    <meta name=\"description\" content=\"Hello, \nI’m here out of curiosity to ask what sort of pain medication people take. My husband has been feeling the effects of PK full force now for some time and the main problem (aside from all the typical PK problems) &amp;hellip;\">\n    <meta name=\"author\" content=\"\">\n<meta name=\"generator\" content=\"Discourse 2.2.5 - https://github.com/discourse/discourse version c294ff3609f988dcafb742e91606d60ca13b794d\">\n<link rel=\"icon\" type=\"image/png\" href=\"https://forum.parkinsons.org.uk/uploads/db7928/original/2X/3/311fc84f89f49f38601a2f16b295b6f03d3ce5dd.jpg\">\n<link rel=\"apple-touch-icon\" type=\"image/png\" href=\"https://forum.parkinsons.org.uk/uploads/db7928/original/2X/3/311fc84f89f49f38601a2f16b295b6f03d3ce5dd.jpg\">\n<meta name=\"theme-color\" content=\"#ffffff\">\n<meta name=\"viewport\" content=\"width=device-width, minimum-scale=1.0, maximum-scale=1.0, user-scalable=yes\">\n<link rel=\"canonical\" href=\"https://forum.parkinsons.org.uk/t/living-in-constant-pain/14681\" />\n<script type=\"application/ld+json\">{\"@context\":\"http://schema.org\",\"@type\":\"WebSite\",\"url\":\"https://forum.parkinsons.org.uk\",\"potentialAction\":{\"@type\":\"SearchAction\",\"target\":\"https://forum.parkinsons.org.uk/search?q={search_term_string}\",\"query-input\":\"required name=search_term_string\"}}</script>\n<link rel=\"search\" type=\"application/opensearchdescription+xml\" href=\"https://forum.parkinsons.org.uk/opensearch.xml\" title=\"Parkinson&#39;s UK Forum Search\">\n\n      <link href=\"/stylesheets/desktop_f99246ae801b083d3e4cca979d0dade8615b39ac.css?__ws=forum.parkinsons.org.uk\" media=\"all\" rel=\"stylesheet\" data-target=\"desktop\" data-theme-id=\"12\"/>\n      <link href=\"/stylesheets/desktop_theme_12_5d27531cf43f9df0c03a6a6ec3109dd05f9dfc49.css?__ws=forum.parkinsons.org.uk\" media=\"all\" rel=\"stylesheet\" data-target=\"desktop_theme\" data-theme-id=\"12\"/>\n    <link href=\"https://fonts.googleapis.com/css?family=Open+Sans\" rel=\"stylesheet\">\n\n    <meta id=\"data-ga-universal-analytics\" data-tracking-code=\"UA-4855628-1\" data-json=\"{&quot;cookieDomain&quot;:&quot;auto&quot;}\" data-auto-link-domains=\"\">\n\n<link rel='preload' href='/assets/google-universal-analytics-f35b4da49411e6f5559073523aab983da483976a3954c79c756f8579f6fbd6ef.js' as='script'/>\n<script src='/assets/google-universal-analytics-f35b4da49411e6f5559073523aab983da483976a3954c79c756f8579f6fbd6ef.js'></script>\n\n      <link rel=\"alternate\" type=\"application/rss+xml\" title=\"RSS feed of &#39;Living in constant pain&#39;\" href=\"https://forum.parkinsons.org.uk/t/living-in-constant-pain/14681.rss\" />\n  <meta property=\"og:site_name\" content=\"Parkinson&#39;s UK Forum\" />\n<meta name=\"twitter:card\" content=\"summary\" />\n<meta name=\"twitter:image\" content=\"https://forum.parkinsons.org.uk/uploads/db7928/original/2X/3/311fc84f89f49f38601a2f16b295b6f03d3ce5dd.jpg\" />\n<meta property=\"og:image\" content=\"https://forum.parkinsons.org.uk/uploads/db7928/original/2X/3/311fc84f89f49f38601a2f16b295b6f03d3ce5dd.jpg\" />\n<meta property=\"og:url\" content=\"https://forum.parkinsons.org.uk/t/living-in-constant-pain/14681\" />\n<meta name=\"twitter:url\" content=\"https://forum.parkinsons.org.uk/t/living-in-constant-pain/14681\" />\n<meta property=\"og:title\" content=\"Living in constant pain\" />\n<meta name=\"twitter:title\" content=\"Living in constant pain\" />\n<meta property=\"og:description\" content=\"Hello,  I’m here out of curiosity to ask what sort of pain medication people take. My husband has been feeling the effects of PK full force now for some time and the main problem (aside from all the typical PK problems) seems to be the amount of chronic pain he is in. He has seen countless physio’s, had laser treatment, steroid injections but nothing seems to help.  His man areas of main are in the centre of his neck (the rigidity pushing him forward), his shoulders (from constant tremors) and l...\" />\n<meta name=\"twitter:description\" content=\"Hello,  I’m here out of curiosity to ask what sort of pain medication people take. My husband has been feeling the effects of PK full force now for some time and the main problem (aside from all the typical PK problems) seems to be the amount of chronic pain he is in. He has seen countless physio’s, had laser treatment, steroid injections but nothing seems to help.  His man areas of main are in the centre of his neck (the rigidity pushing him forward), his shoulders (from constant tremors) and l...\" />\n<meta property=\"article:published_time\" content=\"2018-07-19T13:16:04+00:00\" />\n<meta property=\"og:ignore_canonical\" content=\"true\" />\n\n\n\n    \n  </head>\n  <body class=\"crawler\">\n    <header role=\"banner\">\n    <div class=\"region region-header\">\n        <div class=\"region-header-wrapper\">\n            <div id=\"block-parkinsons-d8-branding\" class=\"block block-system block-system-branding-block\">\n                <a href=\"/\" title=\"Home\" rel=\"home\" class=\"site-logo\">\n                    <img src=\"https://forum.parkinsons.org.uk/uploads/db7928/original/2X/8/862bb7d172e7d127e7f3e147ec43594aa62ac945.png\" alt=\"Parkinson's UK. Change Attitudes. Find a cure. Join us.\">\n                </a>\n            </div>\n            <div id=\"block-helpline\" class=\"block block-block-content block-block-content871cd5af-b938-4947-9dc0-d5c211d08fe3 style-phone\">\n                <div class=\"field field--name-field-link field--type-link field--label-hidden field__item\"><a href=\"tel:+448088000303\">Helpline 0808 800 0303</a></div>\n            </div>\n            <div id=\"block-shop\" class=\"block block-block-content block-block-content6fba5ae5-7797-49cd-8367-f321d8111cd6 style-regular\">\n                <div class=\"field field--name-field-link field--type-link field--label-hidden field__item\"><a href=\"https://shop.parkinsons.org.uk\">Shop</a></div>\n            </div>\n        </div>\n    </div>\n</header>\n\n\n<script src=\"/theme-javascripts/b7e9763fcb584fc8265c56a9f557cd6d2e1e8ed8.js?__ws=forum.parkinsons.org.uk\"></script>\n    <header>\n      <a href=\"/\">\n          <img src=\"https://forum.parkinsons.org.uk/uploads/db7928/original/2X/8/862bb7d172e7d127e7f3e147ec43594aa62ac945.png\" alt=\"Parkinson&#39;s UK Forum\" id=\"site-logo\" style=\"max-width: 150px;\">\n      </a>\n    </header>\n    <div id=\"main-outlet\" class=\"wrap\">\n      <h1>\n  <a href=\"/t/living-in-constant-pain/14681\">Living in constant pain</a>\n</h1>\n\n<div id='breadcrumbs'>\n    <div id=\"breadcrumb-0\" itemscope itemtype=\"http://data-vocabulary.org/Breadcrumb\"\n        itemref=\"breadcrumb-1\"\n      >\n      <a href=\"/c/about-parkinsons-and-health\" itemprop=\"url\">\n        <span itemprop=\"title\">About Parkinson&#39;s and health</span>\n      </a>\n    </div>\n    <div id=\"breadcrumb-1\" itemscope itemtype=\"http://data-vocabulary.org/Breadcrumb\"\n>\n      <a href=\"/c/about-parkinsons-and-health/treatments-and-therapies\" itemprop=\"url\">\n        <span itemprop=\"title\">Treatments and therapies</span>\n      </a>\n    </div>\n</div>\n\n\n\n\n\n<hr>\n\n\n  <div itemscope itemtype='http://schema.org/DiscussionForumPosting'>\n      <div class='creator'>\n        <span>\n          <a href='/u/AMiller'><b itemprop='author'>AMiller</b></a>\n          \n          <time datetime='2018-07-19T13:16:04Z' itemprop='datePublished'>\n            2018-07-19 13:16:04 UTC\n          </time>\n        </span>\n        <span itemprop='position'>#1</span>\n      </div>\n      <div class='post' itemprop='articleBody'>\n        <p>Hello,</p>\n<p>I’m here out of curiosity to ask what sort of pain medication people take. My husband has been feeling the effects of PK full force now for some time and the main problem (aside from all the typical PK problems) seems to be the amount of chronic pain he is in. He has seen countless physio’s, had laser treatment, steroid injections but nothing seems to help.</p>\n<p>His man areas of main are in the centre of his neck (the rigidity pushing him forward), his shoulders (from constant tremors) and leg pain which we think is coming from his hip.</p>\n<p>I know from life before PK that he has a high pain tolerance so for him to say his is a ‘9 or 10 out 10’ for pain almost all the time is really concerning. From the feedback he has had from his GP (who sent him away with Paracetamol!!!) he thinks that it’s just the way his life is now that along with PK he will live in constant pain - is he right? Should I stop nagging him to talk to more Doctor’s or do I need to push him to have a proper pain management structure in place?</p>\n<p>He’s been referred for DBS about 5 months ago, but we’ve not heard anything yet.</p>\n<p>Any advice or help or what pain relief you take would be much appreciated.</p>\n<p>thanks<br>\nAndy</p>\n      </div>\n      <meta itemprop='interactionCount' content='UserLikes:0'>\n      <meta itemprop='interactionCount' content='UserComments:0'>\n      <meta itemprop='headline' content='Living in constant pain'>\n      <hr>\n  </div>\n  <div itemscope itemtype='http://schema.org/DiscussionForumPosting'>\n      <div class='creator'>\n        <span>\n          <a href='/u/babswood'><b itemprop='author'>babswood</b></a>\n          \n          <time datetime='2018-07-19T14:08:48Z' itemprop='datePublished'>\n            2018-07-19 14:08:48 UTC\n          </time>\n        </span>\n        <span itemprop='position'>#2</span>\n      </div>\n      <div class='post' itemprop='articleBody'>\n        <p>Hi theŕe I have rheumatoid arthritis everywhere in my body.plus PD and  like your hubby I live in constant pain and recently I had emergency surgery for  decompression of the spine. My Dr.is totally different as when he saw the pain I was.in he gave me pregabalin plus a  tablet for depression but was used in extreme cases of pain plus the highest dose of paracetamol plus hydrocodone. And regular prescriptions of .morphine to take as required. This all together made me just about pain free.</p>\n<p>Can you not go to another Dr. Hope all gets sorted soon as there is nothing worse than constant pain</p>\n      </div>\n      <meta itemprop='interactionCount' content='UserLikes:0'>\n      <meta itemprop='interactionCount' content='UserComments:0'>\n      <meta itemprop='headline' content='Living in constant pain'>\n      <hr>\n  </div>\n  <div itemscope itemtype='http://schema.org/DiscussionForumPosting'>\n      <div class='creator'>\n        <span>\n          <a href='/u/Hubby'><b itemprop='author'>Hubby</b></a>\n          \n          <time datetime='2018-07-24T02:53:00Z' itemprop='datePublished'>\n            2018-07-24 02:53:00 UTC\n          </time>\n        </span>\n        <span itemprop='position'>#3</span>\n      </div>\n      <div class='post' itemprop='articleBody'>\n        <p>Nobody in this day and age should have to live in pain.<br>\nSimple.</p>\n      </div>\n      <meta itemprop='interactionCount' content='UserLikes:0'>\n      <meta itemprop='interactionCount' content='UserComments:0'>\n      <meta itemprop='headline' content='Living in constant pain'>\n      <hr>\n  </div>\n  <div itemscope itemtype='http://schema.org/DiscussionForumPosting'>\n      <div class='creator'>\n        <span>\n          <a href='/u/Raz1'><b itemprop='author'>Raz1</b></a>\n          \n          <time datetime='2018-07-24T04:21:42Z' itemprop='datePublished'>\n            2018-07-24 04:21:42 UTC\n          </time>\n        </span>\n        <span itemprop='position'>#4</span>\n      </div>\n      <div class='post' itemprop='articleBody'>\n        <p>Hi hubby</p>\n<p>You are so right but we do, and the more we look at ways to stop the something else inmy body hjets, it’s almost like tree roots, cut some off one side and the other grows and finds away to stop is doing something. I hope you can take pain killers that work you pain.</p>\n<p>Kind regards<br>\nRaz</p>\n      </div>\n      <meta itemprop='interactionCount' content='UserLikes:0'>\n      <meta itemprop='interactionCount' content='UserComments:0'>\n      <meta itemprop='headline' content='Living in constant pain'>\n      <hr>\n  </div>\n  <div itemscope itemtype='http://schema.org/DiscussionForumPosting'>\n      <div class='creator'>\n        <span>\n          <a href='/u/WarrenR'><b itemprop='author'>WarrenR</b></a>\n          \n          <time datetime='2018-07-25T16:27:48Z' itemprop='datePublished'>\n            2018-07-25 16:27:48 UTC\n          </time>\n        </span>\n        <span itemprop='position'>#5</span>\n      </div>\n      <div class='post' itemprop='articleBody'>\n        <p>Hi Andy,</p>\n<p>Obviously we are all different, but I can tell you what is working for me at the moment. I had mild but near constant pain. After advice from a cousin of mine and after my own research I started taking tumeric root extract (curcumin is the active ingredient). The first few days the pain increased coming to a rather excruciating head after day 4. Then day 5 on the pain has been mostly non-existent, and this is after two months so far.</p>\n<p>Bit of background for reference I was diagnosed at age 40 last year and have decided to be reluctant about medication. I take azilect 5mg once a day (since February), vitamin D supplement (most of us are deficient especially people with PD), and the curcumin. Otherwise I am doing yoga twice a week, weight lifting twice a week, and running twice a week.</p>\n<p>Hope this helps.</p>\n<p>All the best,<br>\nWarren.</p>\n      </div>\n      <meta itemprop='interactionCount' content='UserLikes:0'>\n      <meta itemprop='interactionCount' content='UserComments:0'>\n      <meta itemprop='headline' content='Living in constant pain'>\n      <hr>\n  </div>\n  <div itemscope itemtype='http://schema.org/DiscussionForumPosting'>\n      <div class='creator'>\n        <span>\n          <a href='/u/AMiller'><b itemprop='author'>AMiller</b></a>\n          \n          <time datetime='2019-03-20T14:05:39Z' itemprop='datePublished'>\n            2019-03-20 14:05:39 UTC\n          </time>\n        </span>\n        <span itemprop='position'>#6</span>\n      </div>\n      <div class='post' itemprop='articleBody'>\n        <p>I’m sorry not to have replied sooner, thanks for everyone’s feedback.</p>\n<p>Another visit to the GP where she just didn’t help him - made him feel worse and that he has no choices at all.</p>\n<p>I’ve looked into this more and the NHS offer pain clinics, does anyone have any experience with PD and pain clinic? Are we wasting our time here if we ask for a referral.</p>\n<p>thanks<br>\nA</p>\n      </div>\n      <meta itemprop='interactionCount' content='UserLikes:0'>\n      <meta itemprop='interactionCount' content='UserComments:0'>\n      <meta itemprop='headline' content='Living in constant pain'>\n      <hr>\n  </div>\n  <div itemscope itemtype='http://schema.org/DiscussionForumPosting'>\n      <div class='creator'>\n        <span>\n          <a href='/u/Omahatom'><b itemprop='author'>Omahatom</b></a>\n          \n          <time datetime='2019-03-21T11:13:53Z' itemprop='datePublished'>\n            2019-03-21 11:13:53 UTC\n          </time>\n        </span>\n        <span itemprop='position'>#7</span>\n      </div>\n      <div class='post' itemprop='articleBody'>\n        <p>Hello AMILLer<br>\nWe are all different.  But I can only speak from my experience.  I can’t remember anymore what a good nights sleep was.  But pain is worst when there is little to take your mind off of it. Taking pain killers is a two edged sword.  It loses it’s effectiveness over time.  In my USA we are an example of the end result.  People take more and more.<br>\nI refuse to take it at this point.  My pains are much like your husband.  I take naps when ever and do everything possible to occupy my mind off of the pain.<br>\nIt helps some.  The pain comes in my opinion with progression.  The tense muscles.  Stretch more often and he may have to go to therapy to learn more coping skills that relax those areas. Accupunchire I heard can help. I have not tried it. Ins. doesn’t pay.  My budget is at its limit.<br>\nBut my main post is pertaining to pain killers and possible addiction. Parkinson’s effects our brain chemicals the way it is.<br>\nPain meds will be my last choice.  When I can not walk anymore and am forced to be unable to draw my attention in a other area but pain.<br>\nThe reality of Parkinson’s for all in not the same.  Previous injury and the work we did that may have worn out our body is not Parkinson’s. We can not blame all our pains on the disease. That is what makes treating us difficult.</p>\n      </div>\n      <meta itemprop='interactionCount' content='UserLikes:0'>\n      <meta itemprop='interactionCount' content='UserComments:0'>\n      <meta itemprop='headline' content='Living in constant pain'>\n      <hr>\n  </div>\n  <div itemscope itemtype='http://schema.org/DiscussionForumPosting'>\n      <div class='creator'>\n        <span>\n          <a href='/u/poppy2'><b itemprop='author'>poppy2</b></a>\n          \n          <time datetime='2019-05-21T09:56:31Z' itemprop='datePublished'>\n            2019-05-21 09:56:31 UTC\n          </time>\n        </span>\n        <span itemprop='position'>#8</span>\n      </div>\n      <div class='post' itemprop='articleBody'>\n        <p>Hi I’ve just joined the forum.  I was diagnosed with Parkinson’s in 2008. I now go to bed and wake up in constant pain all over my body.  My Parkinson’s Nurse doesn’t think it’s my Parky but I do.  Does anybody have a similar experience with Parky?</p>\n      </div>\n      <meta itemprop='interactionCount' content='UserLikes:0'>\n      <meta itemprop='interactionCount' content='UserComments:0'>\n      <meta itemprop='headline' content='Living in constant pain'>\n      <hr>\n  </div>\n  <div itemscope itemtype='http://schema.org/DiscussionForumPosting'>\n      <div class='creator'>\n        <span>\n          <a href='/u/Hubby'><b itemprop='author'>Hubby</b></a>\n          \n          <time datetime='2019-05-26T23:06:23Z' itemprop='datePublished'>\n            2019-05-26 23:06:23 UTC\n          </time>\n        </span>\n        <span itemprop='position'>#9</span>\n      </div>\n      <div class='post' itemprop='articleBody'>\n        <p>Like I’ve run a marathon. Gone 12 rounds with Anthony Joshua and pulled a, coach from lands end to John o groats with my teeth.<br>\nHubby</p>\n      </div>\n      <meta itemprop='interactionCount' content='UserLikes:0'>\n      <meta itemprop='interactionCount' content='UserComments:0'>\n      <meta itemprop='headline' content='Living in constant pain'>\n      <hr>\n  </div>\n\n\n\n\n\n\n    </div>\n    <footer class=\"container\">\n      <nav class='crawler-nav' itemscope itemtype='http://schema.org/SiteNavigationElement'>\n        <a href='/'>Home</a>\n        <a href=\"/categories\">Categories</a>\n        <a href=\"/guidelines\">FAQ/Guidelines</a>\n        <a href=\"/tos\">Terms of Service</a>\n        <a href=\"/privacy\">Privacy Policy</a>\n      </nav>\n      <p class='powered-by-link'>Powered by <a href=\"https://www.discourse.org\">Discourse</a>, best viewed with JavaScript enabled</p>\n    </footer>\n    \n  </body>\n  \n</html>\n",
  "url": "https://forum.parkinsons.org.uk/t/living-in-constant-pain/14681"
}