{
  "contentId": "c1d9d850-8863-11e9-8f96-97f71b5221d6",
  "html": "<!DOCTYPE html>\n<html lang=\"en\">\n  <head>\n    <meta charset=\"utf-8\">\n    <title>Metaphorically speaking - Carers, friends and family - Parkinson&#39;s UK Forum</title>\n    <meta name=\"description\" content=\"It’s like being on a motorway, full of all kinds of vehicles, heading to their destinations, wherever those may be, with some , all even, needing to take a break at some point at a service station, for food, to refuel, a&amp;hellip;\">\n    <meta name=\"author\" content=\"\">\n<meta name=\"generator\" content=\"Discourse 2.2.5 - https://github.com/discourse/discourse version c294ff3609f988dcafb742e91606d60ca13b794d\">\n<link rel=\"icon\" type=\"image/png\" href=\"https://forum.parkinsons.org.uk/uploads/db7928/original/2X/3/311fc84f89f49f38601a2f16b295b6f03d3ce5dd.jpg\">\n<link rel=\"apple-touch-icon\" type=\"image/png\" href=\"https://forum.parkinsons.org.uk/uploads/db7928/original/2X/3/311fc84f89f49f38601a2f16b295b6f03d3ce5dd.jpg\">\n<meta name=\"theme-color\" content=\"#ffffff\">\n<meta name=\"viewport\" content=\"width=device-width, minimum-scale=1.0, maximum-scale=1.0, user-scalable=yes\">\n<link rel=\"canonical\" href=\"https://forum.parkinsons.org.uk/t/metaphorically-speaking/19201\" />\n<script type=\"application/ld+json\">{\"@context\":\"http://schema.org\",\"@type\":\"WebSite\",\"url\":\"https://forum.parkinsons.org.uk\",\"potentialAction\":{\"@type\":\"SearchAction\",\"target\":\"https://forum.parkinsons.org.uk/search?q={search_term_string}\",\"query-input\":\"required name=search_term_string\"}}</script>\n<link rel=\"search\" type=\"application/opensearchdescription+xml\" href=\"https://forum.parkinsons.org.uk/opensearch.xml\" title=\"Parkinson&#39;s UK Forum Search\">\n\n      <link href=\"/stylesheets/desktop_f99246ae801b083d3e4cca979d0dade8615b39ac.css?__ws=forum.parkinsons.org.uk\" media=\"all\" rel=\"stylesheet\" data-target=\"desktop\" data-theme-id=\"12\"/>\n      <link href=\"/stylesheets/desktop_theme_12_5d27531cf43f9df0c03a6a6ec3109dd05f9dfc49.css?__ws=forum.parkinsons.org.uk\" media=\"all\" rel=\"stylesheet\" data-target=\"desktop_theme\" data-theme-id=\"12\"/>\n    <link href=\"https://fonts.googleapis.com/css?family=Open+Sans\" rel=\"stylesheet\">\n\n    <meta id=\"data-ga-universal-analytics\" data-tracking-code=\"UA-4855628-1\" data-json=\"{&quot;cookieDomain&quot;:&quot;auto&quot;}\" data-auto-link-domains=\"\">\n\n<link rel='preload' href='/assets/google-universal-analytics-f35b4da49411e6f5559073523aab983da483976a3954c79c756f8579f6fbd6ef.js' as='script'/>\n<script src='/assets/google-universal-analytics-f35b4da49411e6f5559073523aab983da483976a3954c79c756f8579f6fbd6ef.js'></script>\n\n      <link rel=\"alternate\" type=\"application/rss+xml\" title=\"RSS feed of &#39;Metaphorically speaking&#39;\" href=\"https://forum.parkinsons.org.uk/t/metaphorically-speaking/19201.rss\" />\n  <meta property=\"og:site_name\" content=\"Parkinson&#39;s UK Forum\" />\n<meta name=\"twitter:card\" content=\"summary\" />\n<meta name=\"twitter:image\" content=\"https://forum.parkinsons.org.uk/uploads/db7928/original/2X/3/311fc84f89f49f38601a2f16b295b6f03d3ce5dd.jpg\" />\n<meta property=\"og:image\" content=\"https://forum.parkinsons.org.uk/uploads/db7928/original/2X/3/311fc84f89f49f38601a2f16b295b6f03d3ce5dd.jpg\" />\n<meta property=\"og:url\" content=\"https://forum.parkinsons.org.uk/t/metaphorically-speaking/19201\" />\n<meta name=\"twitter:url\" content=\"https://forum.parkinsons.org.uk/t/metaphorically-speaking/19201\" />\n<meta property=\"og:title\" content=\"Metaphorically speaking\" />\n<meta name=\"twitter:title\" content=\"Metaphorically speaking\" />\n<meta property=\"og:description\" content=\"It’s like being on a motorway, full of all kinds of vehicles, heading to their destinations, wherever those may be, with some , all even, needing to take a break at some point at a service station, for food, to refuel, a comfort break or whatever. But others, like us , have broken down at the side of the road. Attempts to re join the traffic are in vain, for one thing it is all travelling too fast, but you can’t get your vehicle started anyway. Eventually you look in the opposite direction, towa...\" />\n<meta name=\"twitter:description\" content=\"It’s like being on a motorway, full of all kinds of vehicles, heading to their destinations, wherever those may be, with some , all even, needing to take a break at some point at a service station, for food, to refuel, a comfort break or whatever. But others, like us , have broken down at the side of the road. Attempts to re join the traffic are in vain, for one thing it is all travelling too fast, but you can’t get your vehicle started anyway. Eventually you look in the opposite direction, towa...\" />\n<meta name=\"twitter:label1\" value=\"Reading time\" />\n<meta name=\"twitter:data1\" value=\"1 mins \uD83D\uDD51\" />\n<meta name=\"twitter:label2\" value=\"Likes\" />\n<meta name=\"twitter:data2\" value=\"7 ❤\" />\n<meta property=\"article:published_time\" content=\"2019-05-11T08:27:23+00:00\" />\n<meta property=\"og:ignore_canonical\" content=\"true\" />\n\n\n\n    \n  </head>\n  <body class=\"crawler\">\n    <header role=\"banner\">\n    <div class=\"region region-header\">\n        <div class=\"region-header-wrapper\">\n            <div id=\"block-parkinsons-d8-branding\" class=\"block block-system block-system-branding-block\">\n                <a href=\"/\" title=\"Home\" rel=\"home\" class=\"site-logo\">\n                    <img src=\"https://forum.parkinsons.org.uk/uploads/db7928/original/2X/8/862bb7d172e7d127e7f3e147ec43594aa62ac945.png\" alt=\"Parkinson's UK. Change Attitudes. Find a cure. Join us.\">\n                </a>\n            </div>\n            <div id=\"block-helpline\" class=\"block block-block-content block-block-content871cd5af-b938-4947-9dc0-d5c211d08fe3 style-phone\">\n                <div class=\"field field--name-field-link field--type-link field--label-hidden field__item\"><a href=\"tel:+448088000303\">Helpline 0808 800 0303</a></div>\n            </div>\n            <div id=\"block-shop\" class=\"block block-block-content block-block-content6fba5ae5-7797-49cd-8367-f321d8111cd6 style-regular\">\n                <div class=\"field field--name-field-link field--type-link field--label-hidden field__item\"><a href=\"https://shop.parkinsons.org.uk\">Shop</a></div>\n            </div>\n        </div>\n    </div>\n</header>\n\n\n<script src=\"/theme-javascripts/b7e9763fcb584fc8265c56a9f557cd6d2e1e8ed8.js?__ws=forum.parkinsons.org.uk\"></script>\n    <header>\n      <a href=\"/\">\n          <img src=\"https://forum.parkinsons.org.uk/uploads/db7928/original/2X/8/862bb7d172e7d127e7f3e147ec43594aa62ac945.png\" alt=\"Parkinson&#39;s UK Forum\" id=\"site-logo\" style=\"max-width: 150px;\">\n      </a>\n    </header>\n    <div id=\"main-outlet\" class=\"wrap\">\n      <h1>\n  <a href=\"/t/metaphorically-speaking/19201\">Metaphorically speaking</a>\n</h1>\n\n<div id='breadcrumbs'>\n    <div id=\"breadcrumb-0\" itemscope itemtype=\"http://data-vocabulary.org/Breadcrumb\"\n        itemref=\"breadcrumb-1\"\n      >\n      <a href=\"/c/living-with-parkinsons\" itemprop=\"url\">\n        <span itemprop=\"title\">Living with Parkinson&#39;s</span>\n      </a>\n    </div>\n    <div id=\"breadcrumb-1\" itemscope itemtype=\"http://data-vocabulary.org/Breadcrumb\"\n>\n      <a href=\"/c/living-with-parkinsons/carers-friends-and-family\" itemprop=\"url\">\n        <span itemprop=\"title\">Carers, friends and family</span>\n      </a>\n    </div>\n</div>\n\n\n\n\n\n<hr>\n\n\n  <div itemscope itemtype='http://schema.org/DiscussionForumPosting'>\n      <div class='creator'>\n        <span>\n          <a href='/u/Pippa'><b itemprop='author'>Pippa</b></a>\n          \n          <time datetime='2019-05-11T08:27:23Z' itemprop='datePublished'>\n            2019-05-11 08:27:23 UTC\n          </time>\n        </span>\n        <span itemprop='position'>#1</span>\n      </div>\n      <div class='post' itemprop='articleBody'>\n        <p>It’s like being on a motorway, full of all kinds of vehicles, heading to their destinations, wherever those may be, with some , all even, needing to take a break at some point at a service station, for food, to refuel, a comfort break or whatever. But others, like us , have broken down at the side of the road. Attempts to re join the traffic are in vain, for one thing it is all travelling too fast, but you can’t get your vehicle started anyway. Eventually you look in the opposite direction, towards a vast field littered with broken down vehicles which are good for nothing much except scrap, or sleeping in…And then you notice that some people have lit fires around which they gather to sing songs or dance, or gaze into the embers dreaming of what life could have been like if only their car had been road worthy. …what new and exciting destinations lay ahead if only they hadn’t broken down. It  is like a makeshift camp or festival even. It’s a motley kind of crew, and they haven’t got most of what they need because they didn’t realise that they would be needing it, let alone staying very long, though other travellers sometimes spot the camp and pull over, bearing gifts or basic necessities before continuing on their journeys. Sometimes people from neighbouring towns and villages come by, attracted by the music or the noise, or even search out the camp, having heard reports about it and being curious as to what it is like.<br>\nComplaints are occasionally made to the authorities but the authorities have too much else on their plates and too little funding to do anything much about it, far less to re house the camp folk into more suitable accommodation , far from the gaze and to the distraction of drivers on the motorway. In any case, camp residents do not really cause much trouble…a few fireworks now and then, the occasional infringement of local bylaws, but nothing to get aerated about. On the whole people accept that camp residents are there through no fault of their own and are doing the best they can under the circumstances, just like anyone would.</p>\n<p>Newcomers, a regular addition to the camp, always seem a little dazed, especially when they had been driving expensive, state of the art vehicles which were not supposed to break down at all let alone irreparably. They are made very welcome but often take a while to settle and accept that they will not be moving on, preferring to think that a mechanic will pitch up soon enough and they will be back on the road in no time. As if to say, “ I’m not like you lot…I’m not going to get settled and give up hope like you seem to have done…there’s a life out there on the motorway for me and I’m going back to it”.</p>\n<p>Longer term residents of the camp smile knowingly to themselves. They’ve heard and seen it all before. Yes, occasionally someone’s vehicle does start up again, or gets put on the back of a lorry and taken away, but mostly that doesn’t happen. All they do is hope that such folk might come and join the rest of them round the fire, to keep warm on cooler nights, let go of dreams about what might lie at the end of the motorway and instead enjoy life in the camp, tell stories, draw, paint, write, sing, sculpt or whatever takes their fancy, to add to the growing collection of art work that the camp has in fact become famous for. Yes, it has all been said and drawn and written about before, but each voice is unique  and adds something special to the ever expanding mural of life that can now be sen for miles around.</p>\n<p>To be fair, despite the improvements that have been made, it is still not a place that anyone would actually choose to come and live, and many drivers avert their gaze as they pass by, assuming that it is of no interest or concern to them, that they will never find themselves in that position…God forbid…or they cannot bear to entertain the thought that they might. But others who may have stopped by before, find themselves drawn to the unique atmosphere in the camp and find it a relief from the frenetic life of the motorway, where everyone is driving too fast, overtaking, undertaking, getting frustrated with other drivers, getting held up by accidents and the pure weight of traffic which occasionally slows things down to less than walking pace, and being focussed so much on their destinations that they fail to enjoy the journey, the view, the experience,life.</p>\n      </div>\n      <meta itemprop='interactionCount' content='UserLikes:4'>\n      <meta itemprop='interactionCount' content='UserComments:0'>\n      <meta itemprop='headline' content='Metaphorically speaking'>\n      <hr>\n  </div>\n  <div itemscope itemtype='http://schema.org/DiscussionForumPosting'>\n      <div class='creator'>\n        <span>\n          <a href='/u/luna'><b itemprop='author'>luna</b></a>\n          \n          <time datetime='2019-05-13T20:19:37Z' itemprop='datePublished'>\n            2019-05-13 20:19:37 UTC\n          </time>\n        </span>\n        <span itemprop='position'>#2</span>\n      </div>\n      <div class='post' itemprop='articleBody'>\n        <p>An incredibly accurate analogy Pippa. Thank you for sharing</p>\n      </div>\n      <meta itemprop='interactionCount' content='UserLikes:1'>\n      <meta itemprop='interactionCount' content='UserComments:0'>\n      <meta itemprop='headline' content='Metaphorically speaking'>\n      <hr>\n  </div>\n  <div itemscope itemtype='http://schema.org/DiscussionForumPosting'>\n      <div class='creator'>\n        <span>\n          <a href='/u/Silver_Tabby'><b itemprop='author'>Silver_Tabby</b></a>\n          \n          <time datetime='2019-05-16T07:55:00Z' itemprop='datePublished'>\n            2019-05-16 07:55:00 UTC\n          </time>\n        </span>\n        <span itemprop='position'>#3</span>\n      </div>\n      <div class='post' itemprop='articleBody'>\n        <p>Thank you, that’s beautiful.</p>\n      </div>\n      <meta itemprop='interactionCount' content='UserLikes:1'>\n      <meta itemprop='interactionCount' content='UserComments:0'>\n      <meta itemprop='headline' content='Metaphorically speaking'>\n      <hr>\n  </div>\n  <div itemscope itemtype='http://schema.org/DiscussionForumPosting'>\n      <div class='creator'>\n        <span>\n          <a href='/u/T1'><b itemprop='author'>T1</b></a>\n          \n          <time datetime='2019-05-16T11:13:47Z' itemprop='datePublished'>\n            2019-05-16 11:13:47 UTC\n          </time>\n        </span>\n        <span itemprop='position'>#4</span>\n      </div>\n      <div class='post' itemprop='articleBody'>\n        <p>Fantastic, inspirational, exceptionally clever.</p>\n<p>Tommy <img src=\"https://forum.parkinsons.org.uk/images/emoji/twitter/pill.png?v=6\" title=\":pill:\" class=\"emoji\" alt=\":pill:\"> <img src=\"https://forum.parkinsons.org.uk/images/emoji/twitter/pill.png?v=6\" title=\":pill:\" class=\"emoji\" alt=\":pill:\"> <img src=\"https://forum.parkinsons.org.uk/images/emoji/twitter/pill.png?v=6\" title=\":pill:\" class=\"emoji\" alt=\":pill:\"> ™<br>\n<img src=\"https://forum.parkinsons.org.uk/images/emoji/twitter/pray.png?v=6\" title=\":pray:\" class=\"emoji\" alt=\":pray:\"><img src=\"https://forum.parkinsons.org.uk/images/emoji/twitter/pray.png?v=6\" title=\":pray:\" class=\"emoji\" alt=\":pray:\"><img src=\"https://forum.parkinsons.org.uk/images/emoji/twitter/pray.png?v=6\" title=\":pray:\" class=\"emoji\" alt=\":pray:\"><img src=\"https://forum.parkinsons.org.uk/images/emoji/twitter/pray.png?v=6\" title=\":pray:\" class=\"emoji\" alt=\":pray:\"><img src=\"https://forum.parkinsons.org.uk/images/emoji/twitter/heart.png?v=6\" title=\":heart:\" class=\"emoji\" alt=\":heart:\"><img src=\"https://forum.parkinsons.org.uk/images/emoji/twitter/heart.png?v=6\" title=\":heart:\" class=\"emoji\" alt=\":heart:\"><img src=\"https://forum.parkinsons.org.uk/images/emoji/twitter/pray.png?v=6\" title=\":pray:\" class=\"emoji\" alt=\":pray:\"><img src=\"https://forum.parkinsons.org.uk/images/emoji/twitter/pray.png?v=6\" title=\":pray:\" class=\"emoji\" alt=\":pray:\"></p>\n      </div>\n      <meta itemprop='interactionCount' content='UserLikes:1'>\n      <meta itemprop='interactionCount' content='UserComments:0'>\n      <meta itemprop='headline' content='Metaphorically speaking'>\n      <hr>\n  </div>\n\n\n\n\n\n\n    </div>\n    <footer class=\"container\">\n      <nav class='crawler-nav' itemscope itemtype='http://schema.org/SiteNavigationElement'>\n        <a href='/'>Home</a>\n        <a href=\"/categories\">Categories</a>\n        <a href=\"/guidelines\">FAQ/Guidelines</a>\n        <a href=\"/tos\">Terms of Service</a>\n        <a href=\"/privacy\">Privacy Policy</a>\n      </nav>\n      <p class='powered-by-link'>Powered by <a href=\"https://www.discourse.org\">Discourse</a>, best viewed with JavaScript enabled</p>\n    </footer>\n    \n  </body>\n  \n</html>\n",
  "url": "https://forum.parkinsons.org.uk/t/metaphorically-speaking/19201"
}