{
  "contentId": "4da5d570-886c-11e9-8f96-97f71b5221d6",
  "html": "<!DOCTYPE html>\n<html lang=\"en\">\n  <head>\n    <meta charset=\"utf-8\">\n    <title>Coping with urge incontinence - Daily life - Parkinson&#39;s UK Forum</title>\n    <meta name=\"description\" content=\"In order to live a relatively normal life, and live with the very frequent and sudden need to urinate, I wear an incontinence pad when out and about. It’s a great comfort knowing any ‘accident’ I might have isn’t noticab&amp;hellip;\">\n    <meta name=\"author\" content=\"\">\n<meta name=\"generator\" content=\"Discourse 2.2.5 - https://github.com/discourse/discourse version c294ff3609f988dcafb742e91606d60ca13b794d\">\n<link rel=\"icon\" type=\"image/png\" href=\"https://forum.parkinsons.org.uk/uploads/db7928/original/2X/3/311fc84f89f49f38601a2f16b295b6f03d3ce5dd.jpg\">\n<link rel=\"apple-touch-icon\" type=\"image/png\" href=\"https://forum.parkinsons.org.uk/uploads/db7928/original/2X/3/311fc84f89f49f38601a2f16b295b6f03d3ce5dd.jpg\">\n<meta name=\"theme-color\" content=\"#ffffff\">\n<meta name=\"viewport\" content=\"width=device-width, minimum-scale=1.0, maximum-scale=1.0, user-scalable=yes\">\n<link rel=\"canonical\" href=\"https://forum.parkinsons.org.uk/t/coping-with-urge-incontinence/15902\" />\n<script type=\"application/ld+json\">{\"@context\":\"http://schema.org\",\"@type\":\"WebSite\",\"url\":\"https://forum.parkinsons.org.uk\",\"potentialAction\":{\"@type\":\"SearchAction\",\"target\":\"https://forum.parkinsons.org.uk/search?q={search_term_string}\",\"query-input\":\"required name=search_term_string\"}}</script>\n<link rel=\"search\" type=\"application/opensearchdescription+xml\" href=\"https://forum.parkinsons.org.uk/opensearch.xml\" title=\"Parkinson&#39;s UK Forum Search\">\n\n      <link href=\"/stylesheets/desktop_f99246ae801b083d3e4cca979d0dade8615b39ac.css?__ws=forum.parkinsons.org.uk\" media=\"all\" rel=\"stylesheet\" data-target=\"desktop\" data-theme-id=\"12\"/>\n      <link href=\"/stylesheets/desktop_theme_12_5d27531cf43f9df0c03a6a6ec3109dd05f9dfc49.css?__ws=forum.parkinsons.org.uk\" media=\"all\" rel=\"stylesheet\" data-target=\"desktop_theme\" data-theme-id=\"12\"/>\n    <link href=\"https://fonts.googleapis.com/css?family=Open+Sans\" rel=\"stylesheet\">\n\n    <meta id=\"data-ga-universal-analytics\" data-tracking-code=\"UA-4855628-1\" data-json=\"{&quot;cookieDomain&quot;:&quot;auto&quot;}\" data-auto-link-domains=\"\">\n\n<link rel='preload' href='/assets/google-universal-analytics-f35b4da49411e6f5559073523aab983da483976a3954c79c756f8579f6fbd6ef.js' as='script'/>\n<script src='/assets/google-universal-analytics-f35b4da49411e6f5559073523aab983da483976a3954c79c756f8579f6fbd6ef.js'></script>\n\n      <link rel=\"alternate\" type=\"application/rss+xml\" title=\"RSS feed of &#39;Coping with urge incontinence&#39;\" href=\"https://forum.parkinsons.org.uk/t/coping-with-urge-incontinence/15902.rss\" />\n  <meta property=\"og:site_name\" content=\"Parkinson&#39;s UK Forum\" />\n<meta name=\"twitter:card\" content=\"summary\" />\n<meta name=\"twitter:image\" content=\"https://forum.parkinsons.org.uk/uploads/db7928/original/2X/3/311fc84f89f49f38601a2f16b295b6f03d3ce5dd.jpg\" />\n<meta property=\"og:image\" content=\"https://forum.parkinsons.org.uk/uploads/db7928/original/2X/3/311fc84f89f49f38601a2f16b295b6f03d3ce5dd.jpg\" />\n<meta property=\"og:url\" content=\"https://forum.parkinsons.org.uk/t/coping-with-urge-incontinence/15902\" />\n<meta name=\"twitter:url\" content=\"https://forum.parkinsons.org.uk/t/coping-with-urge-incontinence/15902\" />\n<meta property=\"og:title\" content=\"Coping with urge incontinence\" />\n<meta name=\"twitter:title\" content=\"Coping with urge incontinence\" />\n<meta property=\"og:description\" content=\"In order to live a relatively normal life, and live with the very frequent and sudden need to urinate, I wear an incontinence pad when out and about. It’s a great comfort knowing any ‘accident’ I might have isn’t noticable to others but changing a pad when out and about isn’t easy. Firstly finding somewhere to go to change is hard enough but assuming a public toilet can be found, and one had the foresight to carry a spare pad, how do you dispose of the used pad. Gents toilet cubicles aren’t equi...\" />\n<meta name=\"twitter:description\" content=\"In order to live a relatively normal life, and live with the very frequent and sudden need to urinate, I wear an incontinence pad when out and about. It’s a great comfort knowing any ‘accident’ I might have isn’t noticable to others but changing a pad when out and about isn’t easy. Firstly finding somewhere to go to change is hard enough but assuming a public toilet can be found, and one had the foresight to carry a spare pad, how do you dispose of the used pad. Gents toilet cubicles aren’t equi...\" />\n<meta property=\"article:published_time\" content=\"2018-09-29T14:25:12+00:00\" />\n<meta property=\"og:ignore_canonical\" content=\"true\" />\n\n\n\n    \n  </head>\n  <body class=\"crawler\">\n    <header role=\"banner\">\n    <div class=\"region region-header\">\n        <div class=\"region-header-wrapper\">\n            <div id=\"block-parkinsons-d8-branding\" class=\"block block-system block-system-branding-block\">\n                <a href=\"/\" title=\"Home\" rel=\"home\" class=\"site-logo\">\n                    <img src=\"https://forum.parkinsons.org.uk/uploads/db7928/original/2X/8/862bb7d172e7d127e7f3e147ec43594aa62ac945.png\" alt=\"Parkinson's UK. Change Attitudes. Find a cure. Join us.\">\n                </a>\n            </div>\n            <div id=\"block-helpline\" class=\"block block-block-content block-block-content871cd5af-b938-4947-9dc0-d5c211d08fe3 style-phone\">\n                <div class=\"field field--name-field-link field--type-link field--label-hidden field__item\"><a href=\"tel:+448088000303\">Helpline 0808 800 0303</a></div>\n            </div>\n            <div id=\"block-shop\" class=\"block block-block-content block-block-content6fba5ae5-7797-49cd-8367-f321d8111cd6 style-regular\">\n                <div class=\"field field--name-field-link field--type-link field--label-hidden field__item\"><a href=\"https://shop.parkinsons.org.uk\">Shop</a></div>\n            </div>\n        </div>\n    </div>\n</header>\n\n\n<script src=\"/theme-javascripts/b7e9763fcb584fc8265c56a9f557cd6d2e1e8ed8.js?__ws=forum.parkinsons.org.uk\"></script>\n    <header>\n      <a href=\"/\">\n          <img src=\"https://forum.parkinsons.org.uk/uploads/db7928/original/2X/8/862bb7d172e7d127e7f3e147ec43594aa62ac945.png\" alt=\"Parkinson&#39;s UK Forum\" id=\"site-logo\" style=\"max-width: 150px;\">\n      </a>\n    </header>\n    <div id=\"main-outlet\" class=\"wrap\">\n      <h1>\n  <a href=\"/t/coping-with-urge-incontinence/15902\">Coping with urge incontinence</a>\n</h1>\n\n<div id='breadcrumbs'>\n    <div id=\"breadcrumb-0\" itemscope itemtype=\"http://data-vocabulary.org/Breadcrumb\"\n        itemref=\"breadcrumb-1\"\n      >\n      <a href=\"/c/living-with-parkinsons\" itemprop=\"url\">\n        <span itemprop=\"title\">Living with Parkinson&#39;s</span>\n      </a>\n    </div>\n    <div id=\"breadcrumb-1\" itemscope itemtype=\"http://data-vocabulary.org/Breadcrumb\"\n>\n      <a href=\"/c/living-with-parkinsons/daily-life\" itemprop=\"url\">\n        <span itemprop=\"title\">Daily life</span>\n      </a>\n    </div>\n</div>\n\n\n\n\n\n<hr>\n\n\n  <div itemscope itemtype='http://schema.org/DiscussionForumPosting'>\n      <div class='creator'>\n        <span>\n          <a href='/u/Borg3of21'><b itemprop='author'>Borg3of21</b></a>\n          \n          <time datetime='2018-09-29T14:25:12Z' itemprop='datePublished'>\n            2018-09-29 14:25:12 UTC\n          </time>\n        </span>\n        <span itemprop='position'>#1</span>\n      </div>\n      <div class='post' itemprop='articleBody'>\n        <p>In order to live a relatively normal life, and live with the very frequent and sudden need to urinate, I wear an incontinence pad when out and about. It’s a great comfort knowing any ‘accident’ I might have isn’t noticable to others but changing a pad when out and about isn’t easy. Firstly finding somewhere to go to change is hard enough but assuming a public toilet can be found, and one had the foresight to carry a spare pad, how do you dispose of the used pad. Gents toilet cubicles aren’t equipped with disposal bins. We can do without this extra cause of stress.</p>\n      </div>\n      <meta itemprop='interactionCount' content='UserLikes:0'>\n      <meta itemprop='interactionCount' content='UserComments:0'>\n      <meta itemprop='headline' content='Coping with urge incontinence'>\n      <hr>\n  </div>\n  <div itemscope itemtype='http://schema.org/DiscussionForumPosting'>\n      <div class='creator'>\n        <span>\n          <a href='/u/Roro'><b itemprop='author'>Roro</b></a>\n          \n          <time datetime='2018-10-01T00:47:27Z' itemprop='datePublished'>\n            2018-10-01 00:47:27 UTC\n          </time>\n        </span>\n        <span itemprop='position'>#2</span>\n      </div>\n      <div class='post' itemprop='articleBody'>\n        <p>Hi, how about carrying a nappy bag and popping the pad in there. It can then be popped into any bin. I do this when out and about as not all ladies loos have apropriate disposal units. Smaller pedal bin liners can also work.</p>\n      </div>\n      <meta itemprop='interactionCount' content='UserLikes:0'>\n      <meta itemprop='interactionCount' content='UserComments:0'>\n      <meta itemprop='headline' content='Coping with urge incontinence'>\n      <hr>\n  </div>\n  <div itemscope itemtype='http://schema.org/DiscussionForumPosting'>\n      <div class='creator'>\n        <span>\n          <a href='/u/Borg3of21'><b itemprop='author'>Borg3of21</b></a>\n          \n          <time datetime='2018-10-01T14:21:45Z' itemprop='datePublished'>\n            2018-10-01 14:21:45 UTC\n          </time>\n        </span>\n        <span itemprop='position'>#3</span>\n      </div>\n      <div class='post' itemprop='articleBody'>\n        <p>Hi Roro<br>\nActually I have found something better than a nappy bag. I ordered a few 6x4inch grey plastic postal bags. They have a built-in sealing strip which really works well. Being dark grey means you can’t see the contents through the bag, unlike some nappy bags. I keep a ‘pack’ in the car consisting of a spare pad and disposal bag but if I’m on foot I haven’t the pocket space to take a pack with me, and then I’m anxious in case my bladder lets me down. Perhaps I should carry a handbag? Perhaps not!</p>\n      </div>\n      <meta itemprop='interactionCount' content='UserLikes:0'>\n      <meta itemprop='interactionCount' content='UserComments:0'>\n      <meta itemprop='headline' content='Coping with urge incontinence'>\n      <hr>\n  </div>\n  <div itemscope itemtype='http://schema.org/DiscussionForumPosting'>\n      <div class='creator'>\n        <span>\n          <a href='/u/Roro'><b itemprop='author'>Roro</b></a>\n          \n          <time datetime='2018-10-02T09:48:10Z' itemprop='datePublished'>\n            2018-10-02 09:48:10 UTC\n          </time>\n        </span>\n        <span itemprop='position'>#4</span>\n      </div>\n      <div class='post' itemprop='articleBody'>\n        <p>Ooh, I like that idea. Just don’t get carried away and post it!  After being caught out, I try to always carry my ‘emergency pack’ with me, but yes it is easier with a handbag!  How about a roomy hat, pop your pack underneath <img src=\"https://forum.parkinsons.org.uk/images/emoji/twitter/rofl.png?v=6\" title=\":rofl:\" class=\"emoji\" alt=\":rofl:\">. Or resort to wearing cargo pants with lots of useful pockets <img src=\"https://forum.parkinsons.org.uk/images/emoji/twitter/grin.png?v=6\" title=\":grin:\" class=\"emoji\" alt=\":grin:\"><br>\nRose</p>\n      </div>\n      <meta itemprop='interactionCount' content='UserLikes:0'>\n      <meta itemprop='interactionCount' content='UserComments:0'>\n      <meta itemprop='headline' content='Coping with urge incontinence'>\n      <hr>\n  </div>\n  <div itemscope itemtype='http://schema.org/DiscussionForumPosting'>\n      <div class='creator'>\n        <span>\n          <a href='/u/Borg3of21'><b itemprop='author'>Borg3of21</b></a>\n          \n          <time datetime='2018-10-02T15:17:07Z' itemprop='datePublished'>\n            2018-10-02 15:17:07 UTC\n          </time>\n        </span>\n        <span itemprop='position'>#5</span>\n      </div>\n      <div class='post' itemprop='articleBody'>\n        <p>Hi Rose<br>\nYour reply really made me smile. Yes, one must avoid using any mail bag with an address label on it! I hadn’t thought about you ‘head space’ suggestion. Probably a tall opera hat would offer lots of space whereas a flat cap might be less accommadating. Next time I see anyone wearing cargo pants (especially with bulging pockets) I’ll assume they have planned for a long trip.</p>\n      </div>\n      <meta itemprop='interactionCount' content='UserLikes:0'>\n      <meta itemprop='interactionCount' content='UserComments:0'>\n      <meta itemprop='headline' content='Coping with urge incontinence'>\n      <hr>\n  </div>\n  <div itemscope itemtype='http://schema.org/DiscussionForumPosting'>\n      <div class='creator'>\n        <span>\n          <a href='/u/CHaCHa'><b itemprop='author'>CHaCHa</b></a>\n          \n          <time datetime='2019-01-10T16:45:00Z' itemprop='datePublished'>\n            2019-01-10 16:45:00 UTC\n          </time>\n        </span>\n        <span itemprop='position'>#6</span>\n      </div>\n      <div class='post' itemprop='articleBody'>\n        <p>My husband used incontinence pads, but following an appointment with urology and some tests, he has been shown how to use a catheter to drain the excess urine in the bladder. It is only the third day, but we are hoping that properly emptying the bladder in the morning will reduce the pressure and the ‘urge’.</p>\n      </div>\n      <meta itemprop='interactionCount' content='UserLikes:0'>\n      <meta itemprop='interactionCount' content='UserComments:0'>\n      <meta itemprop='headline' content='Coping with urge incontinence'>\n      <hr>\n  </div>\n\n\n\n\n\n\n    </div>\n    <footer class=\"container\">\n      <nav class='crawler-nav' itemscope itemtype='http://schema.org/SiteNavigationElement'>\n        <a href='/'>Home</a>\n        <a href=\"/categories\">Categories</a>\n        <a href=\"/guidelines\">FAQ/Guidelines</a>\n        <a href=\"/tos\">Terms of Service</a>\n        <a href=\"/privacy\">Privacy Policy</a>\n      </nav>\n      <p class='powered-by-link'>Powered by <a href=\"https://www.discourse.org\">Discourse</a>, best viewed with JavaScript enabled</p>\n    </footer>\n    \n  </body>\n  \n</html>\n",
  "url": "https://forum.parkinsons.org.uk/t/coping-with-urge-incontinence/15902"
}