{
  "contentId": "a01d10b0-8863-11e9-8f96-97f71b5221d6",
  "html": "<!DOCTYPE html>\n<html lang=\"en\">\n  <head>\n    <meta charset=\"utf-8\">\n    <title>Sinemet shortage status - Treatments and therapies - Parkinson&#39;s UK Forum</title>\n    <meta name=\"description\" content=\"Just returned from the Chemist who said they are unable to fulfil my regular monthly prescription. They offered no advice as to what to do so I have asked the GP for some advice.  I see from earlier posts that there were&amp;hellip;\">\n    <meta name=\"author\" content=\"\">\n<meta name=\"generator\" content=\"Discourse 2.2.5 - https://github.com/discourse/discourse version c294ff3609f988dcafb742e91606d60ca13b794d\">\n<link rel=\"icon\" type=\"image/png\" href=\"https://forum.parkinsons.org.uk/uploads/db7928/original/2X/3/311fc84f89f49f38601a2f16b295b6f03d3ce5dd.jpg\">\n<link rel=\"apple-touch-icon\" type=\"image/png\" href=\"https://forum.parkinsons.org.uk/uploads/db7928/original/2X/3/311fc84f89f49f38601a2f16b295b6f03d3ce5dd.jpg\">\n<meta name=\"theme-color\" content=\"#ffffff\">\n<meta name=\"viewport\" content=\"width=device-width, minimum-scale=1.0, maximum-scale=1.0, user-scalable=yes\">\n<link rel=\"canonical\" href=\"https://forum.parkinsons.org.uk/t/sinemet-shortage-status/16700\" />\n<script type=\"application/ld+json\">{\"@context\":\"http://schema.org\",\"@type\":\"WebSite\",\"url\":\"https://forum.parkinsons.org.uk\",\"potentialAction\":{\"@type\":\"SearchAction\",\"target\":\"https://forum.parkinsons.org.uk/search?q={search_term_string}\",\"query-input\":\"required name=search_term_string\"}}</script>\n<link rel=\"search\" type=\"application/opensearchdescription+xml\" href=\"https://forum.parkinsons.org.uk/opensearch.xml\" title=\"Parkinson&#39;s UK Forum Search\">\n\n      <link href=\"/stylesheets/desktop_f99246ae801b083d3e4cca979d0dade8615b39ac.css?__ws=forum.parkinsons.org.uk\" media=\"all\" rel=\"stylesheet\" data-target=\"desktop\" data-theme-id=\"12\"/>\n      <link href=\"/stylesheets/desktop_theme_12_5d27531cf43f9df0c03a6a6ec3109dd05f9dfc49.css?__ws=forum.parkinsons.org.uk\" media=\"all\" rel=\"stylesheet\" data-target=\"desktop_theme\" data-theme-id=\"12\"/>\n    <link href=\"https://fonts.googleapis.com/css?family=Open+Sans\" rel=\"stylesheet\">\n\n    <meta id=\"data-ga-universal-analytics\" data-tracking-code=\"UA-4855628-1\" data-json=\"{&quot;cookieDomain&quot;:&quot;auto&quot;}\" data-auto-link-domains=\"\">\n\n<link rel='preload' href='/assets/google-universal-analytics-f35b4da49411e6f5559073523aab983da483976a3954c79c756f8579f6fbd6ef.js' as='script'/>\n<script src='/assets/google-universal-analytics-f35b4da49411e6f5559073523aab983da483976a3954c79c756f8579f6fbd6ef.js'></script>\n\n      <link rel=\"alternate\" type=\"application/rss+xml\" title=\"RSS feed of &#39;Sinemet shortage status&#39;\" href=\"https://forum.parkinsons.org.uk/t/sinemet-shortage-status/16700.rss\" />\n  <meta property=\"og:site_name\" content=\"Parkinson&#39;s UK Forum\" />\n<meta name=\"twitter:card\" content=\"summary\" />\n<meta name=\"twitter:image\" content=\"https://forum.parkinsons.org.uk/uploads/db7928/original/2X/3/311fc84f89f49f38601a2f16b295b6f03d3ce5dd.jpg\" />\n<meta property=\"og:image\" content=\"https://forum.parkinsons.org.uk/uploads/db7928/original/2X/3/311fc84f89f49f38601a2f16b295b6f03d3ce5dd.jpg\" />\n<meta property=\"og:url\" content=\"https://forum.parkinsons.org.uk/t/sinemet-shortage-status/16700\" />\n<meta name=\"twitter:url\" content=\"https://forum.parkinsons.org.uk/t/sinemet-shortage-status/16700\" />\n<meta property=\"og:title\" content=\"Sinemet shortage status\" />\n<meta name=\"twitter:title\" content=\"Sinemet shortage status\" />\n<meta property=\"og:description\" content=\"Just returned from the Chemist who said they are unable to fulfil my regular monthly prescription. They offered no advice as to what to do so I have asked the GP for some advice.  I see from earlier posts that there were shortages in September and October. Does anyone know the current position?  I react badly to changes so would be wary of a generic approach.  I take Sinemet 12.5/50mg.\" />\n<meta name=\"twitter:description\" content=\"Just returned from the Chemist who said they are unable to fulfil my regular monthly prescription. They offered no advice as to what to do so I have asked the GP for some advice.  I see from earlier posts that there were shortages in September and October. Does anyone know the current position?  I react badly to changes so would be wary of a generic approach.  I take Sinemet 12.5/50mg.\" />\n<meta name=\"twitter:label1\" value=\"Reading time\" />\n<meta name=\"twitter:data1\" value=\"5 mins \uD83D\uDD51\" />\n<meta name=\"twitter:label2\" value=\"Likes\" />\n<meta name=\"twitter:data2\" value=\"2 ❤\" />\n<meta property=\"article:published_time\" content=\"2018-11-19T10:04:04+00:00\" />\n<meta property=\"og:ignore_canonical\" content=\"true\" />\n\n      <link rel=\"next\" href=\"/t/sinemet-shortage-status/16700?page=2\">\n\n\n    \n  </head>\n  <body class=\"crawler\">\n    <header role=\"banner\">\n    <div class=\"region region-header\">\n        <div class=\"region-header-wrapper\">\n            <div id=\"block-parkinsons-d8-branding\" class=\"block block-system block-system-branding-block\">\n                <a href=\"/\" title=\"Home\" rel=\"home\" class=\"site-logo\">\n                    <img src=\"https://forum.parkinsons.org.uk/uploads/db7928/original/2X/8/862bb7d172e7d127e7f3e147ec43594aa62ac945.png\" alt=\"Parkinson's UK. Change Attitudes. Find a cure. Join us.\">\n                </a>\n            </div>\n            <div id=\"block-helpline\" class=\"block block-block-content block-block-content871cd5af-b938-4947-9dc0-d5c211d08fe3 style-phone\">\n                <div class=\"field field--name-field-link field--type-link field--label-hidden field__item\"><a href=\"tel:+448088000303\">Helpline 0808 800 0303</a></div>\n            </div>\n            <div id=\"block-shop\" class=\"block block-block-content block-block-content6fba5ae5-7797-49cd-8367-f321d8111cd6 style-regular\">\n                <div class=\"field field--name-field-link field--type-link field--label-hidden field__item\"><a href=\"https://shop.parkinsons.org.uk\">Shop</a></div>\n            </div>\n        </div>\n    </div>\n</header>\n\n\n<script src=\"/theme-javascripts/b7e9763fcb584fc8265c56a9f557cd6d2e1e8ed8.js?__ws=forum.parkinsons.org.uk\"></script>\n    <header>\n      <a href=\"/\">\n          <img src=\"https://forum.parkinsons.org.uk/uploads/db7928/original/2X/8/862bb7d172e7d127e7f3e147ec43594aa62ac945.png\" alt=\"Parkinson&#39;s UK Forum\" id=\"site-logo\" style=\"max-width: 150px;\">\n      </a>\n    </header>\n    <div id=\"main-outlet\" class=\"wrap\">\n      <h1>\n  <a href=\"/t/sinemet-shortage-status/16700\">Sinemet shortage status</a>\n</h1>\n\n<div id='breadcrumbs'>\n    <div id=\"breadcrumb-0\" itemscope itemtype=\"http://data-vocabulary.org/Breadcrumb\"\n        itemref=\"breadcrumb-1\"\n      >\n      <a href=\"/c/about-parkinsons-and-health\" itemprop=\"url\">\n        <span itemprop=\"title\">About Parkinson&#39;s and health</span>\n      </a>\n    </div>\n    <div id=\"breadcrumb-1\" itemscope itemtype=\"http://data-vocabulary.org/Breadcrumb\"\n>\n      <a href=\"/c/about-parkinsons-and-health/treatments-and-therapies\" itemprop=\"url\">\n        <span itemprop=\"title\">Treatments and therapies</span>\n      </a>\n    </div>\n</div>\n\n\n\n\n\n<hr>\n\n\n  <div itemscope itemtype='http://schema.org/DiscussionForumPosting'>\n      <div class='creator'>\n        <span>\n          <a href='/u/Marigold'><b itemprop='author'>Marigold</b></a>\n          \n          <time datetime='2018-11-19T10:04:04Z' itemprop='datePublished'>\n            2018-11-19 10:04:04 UTC\n          </time>\n        </span>\n        <span itemprop='position'>#1</span>\n      </div>\n      <div class='post' itemprop='articleBody'>\n        <p>Just returned from the Chemist who said they are unable to fulfil my regular monthly prescription. They offered no advice as to what to do so I have asked the GP for some advice.  I see from earlier posts that there were shortages in September and October. Does anyone know the current position?  I react badly to changes so would be wary of a generic approach.  I take Sinemet 12.5/50mg.</p>\n      </div>\n      <meta itemprop='interactionCount' content='UserLikes:0'>\n      <meta itemprop='interactionCount' content='UserComments:0'>\n      <meta itemprop='headline' content='Sinemet shortage status'>\n      <hr>\n  </div>\n  <div itemscope itemtype='http://schema.org/DiscussionForumPosting'>\n      <div class='creator'>\n        <span>\n          <a href='/u/Mountainair'><b itemprop='author'>Mountainair</b></a>\n          \n          <time datetime='2018-11-20T23:02:57Z' itemprop='datePublished'>\n            2018-11-20 23:02:57 UTC\n          </time>\n        </span>\n        <span itemprop='position'>#2</span>\n      </div>\n      <div class='post' itemprop='articleBody'>\n        <p>This is the most recent info I’m aware of. You could try ringing the helpline as they may have more information. <a href=\"https://www.parkinsons.org.uk/news/manufacturing-capacity-causes-shortage-sinemet\" rel=\"nofollow noopener\">https://www.parkinsons.org.uk/news/manufacturing-capacity-causes-shortage-sinemet</a></p>\n      </div>\n      <meta itemprop='interactionCount' content='UserLikes:0'>\n      <meta itemprop='interactionCount' content='UserComments:0'>\n      <meta itemprop='headline' content='Sinemet shortage status'>\n      <hr>\n  </div>\n  <div itemscope itemtype='http://schema.org/DiscussionForumPosting'>\n      <div class='creator'>\n        <span>\n          <a href='/u/Reah'><b itemprop='author'>Reah</b></a>\n          \n          <time datetime='2018-11-21T17:22:05Z' itemprop='datePublished'>\n            2018-11-21 17:22:05 UTC\n          </time>\n        </span>\n        <span itemprop='position'>#3</span>\n      </div>\n      <div class='post' itemprop='articleBody'>\n        <p>Thanks for sharing that link <a class=\"mention\" href=\"/u/mountainair\">@Mountainair</a>.</p>\n<p>Hi <a class=\"mention\" href=\"/u/marigold\">@Marigold</a>, Sinemet should be available as far as I know. Have you tried an alternative chemist? It may just be that that chemist had not ordered batch. Alternatively, you could ask you pharmacist to contact MSD to check about supply in your area. Please keep me posted on how you get on.</p>\n<p>Best wishes,<br>\nReah</p>\n      </div>\n      <meta itemprop='interactionCount' content='UserLikes:0'>\n      <meta itemprop='interactionCount' content='UserComments:2'>\n      <meta itemprop='headline' content='Sinemet shortage status'>\n      <hr>\n  </div>\n  <div itemscope itemtype='http://schema.org/DiscussionForumPosting'>\n      <div class='creator'>\n        <span>\n          <a href='/u/Marigold'><b itemprop='author'>Marigold</b></a>\n          \n          <time datetime='2018-11-22T09:06:00Z' itemprop='datePublished'>\n            2018-11-22 09:06:00 UTC\n          </time>\n        </span>\n        <span itemprop='position'>#4</span>\n      </div>\n      <div class='post' itemprop='articleBody'>\n        <p>I here certainly seems to be a problem in the Cambridge area. Lloyds chemist do not seem to know when deliveries to the UK might be made. Out local village branch was less than helpful: I was told to go back to the GP and get an alternative prescription (but no suggestion of what!). They did not return the original prescription so I had to go back to the GP to get a duplicate prescription so I could try other pharmacies before really panicking!  I take 12.5/50 Sinemet - double dose rather than use 25/100 Sinemet - but was unable to find any 12/.5/50 but did have an option of finding the 25/100 tablet.  Boots in Newmarket fortunately still had a box of 25/100 which they have reserved for me and I have to go back to the GP to pick up a revised 'script  for the alternative tablet size.  Boots had been told by MSD that there were delivery problems for the 12.5/50s for which there are no generic alternatives according to the web site. They were very helpful. I pick up the revised script from the GP this morning and will go back to Boots - fingers crossed the reserved box is still available.  I do not really want to change drug regime which would appear to be the backstop.<br>\nBeing told there were no tablets available at my original chemists was like suddenly standing on the edge of an abyss. It has made me feel really vulnerable.<br>\nM</p>\n      </div>\n      <meta itemprop='interactionCount' content='UserLikes:0'>\n      <meta itemprop='interactionCount' content='UserComments:0'>\n      <meta itemprop='headline' content='Sinemet shortage status'>\n      <hr>\n  </div>\n  <div itemscope itemtype='http://schema.org/DiscussionForumPosting'>\n      <div class='creator'>\n        <span>\n          <a href='/u/Reah'><b itemprop='author'>Reah</b></a>\n          \n          <time datetime='2018-11-22T12:08:06Z' itemprop='datePublished'>\n            2018-11-22 12:08:06 UTC\n          </time>\n        </span>\n        <span itemprop='position'>#5</span>\n      </div>\n      <div class='post' itemprop='articleBody'>\n        <p>Hi <a class=\"mention\" href=\"/u/marigold\">@Marigold</a>,</p>\n<p>What a fiasco - I hope you were able to get the box of 25/100 at Boots. It’s a shame that you had to get another prescription but I also hope it didn’t inconvenience you too much. If you need any more support on this, please do not hesitate to contact our helpline on 0808 800 0303.</p>\n<p>Best wishes,<br>\nReah</p>\n      </div>\n      <meta itemprop='interactionCount' content='UserLikes:0'>\n      <meta itemprop='interactionCount' content='UserComments:1'>\n      <meta itemprop='headline' content='Sinemet shortage status'>\n      <hr>\n  </div>\n  <div itemscope itemtype='http://schema.org/DiscussionForumPosting'>\n      <div class='creator'>\n        <span>\n          <a href='/u/Dakoda1'><b itemprop='author'>Dakoda1</b></a>\n          \n          <time datetime='2018-11-24T22:04:26Z' itemprop='datePublished'>\n            2018-11-24 22:04:26 UTC\n          </time>\n        </span>\n        <span itemprop='position'>#6</span>\n      </div>\n      <div class='post' itemprop='articleBody'>\n        <p>Can anybody tell how expensive sinemet is. I live in Illinois . I have</p>\n<p>several samples. But was wondering about the cost.</p>\n      </div>\n      <meta itemprop='interactionCount' content='UserLikes:0'>\n      <meta itemprop='interactionCount' content='UserComments:0'>\n      <meta itemprop='headline' content='Sinemet shortage status'>\n      <hr>\n  </div>\n  <div itemscope itemtype='http://schema.org/DiscussionForumPosting'>\n      <div class='creator'>\n        <span>\n          <a href='/u/Mari'><b itemprop='author'>Mari</b></a>\n          \n          <time datetime='2019-05-04T12:01:08Z' itemprop='datePublished'>\n            2019-05-04 12:01:08 UTC\n          </time>\n        </span>\n        <span itemprop='position'>#7</span>\n      </div>\n      <div class='post' itemprop='articleBody'>\n        <p>Hi<br>\nI’ve been taking Sinemet since November last year and am on !0mg/100mg three times a day. My local chemist has been unable to provide Sinemet for my last two prescriptions and has given me a generic alternative Co-careldopa. I can see from previous posts that shortages aren’t unusual. Do we know why? Has anyone found a solution? Has anyone had experience of using the generic alternatives? Thanks in advance for any responses.<br>\nRegards<br>\nMari</p>\n      </div>\n      <meta itemprop='interactionCount' content='UserLikes:0'>\n      <meta itemprop='interactionCount' content='UserComments:0'>\n      <meta itemprop='headline' content='Sinemet shortage status'>\n      <hr>\n  </div>\n  <div itemscope itemtype='http://schema.org/DiscussionForumPosting'>\n      <div class='creator'>\n        <span>\n          <a href='/u/Reah'><b itemprop='author'>Reah</b></a>\n          \n          <time datetime='2019-05-07T13:44:07Z' itemprop='datePublished'>\n            2019-05-07 13:44:07 UTC\n          </time>\n        </span>\n        <span itemprop='position'>#8</span>\n      </div>\n      <div class='post' itemprop='articleBody'>\n        <p>Hi <a class=\"mention\" href=\"/u/mari\">@Mari</a>,</p>\n<p>I just wanted to chime in here to let you know that we’ve got info on the supply issue coming out later this week which I’ll keep the forum posted on.</p>\n<p>Thanks,<br>\nReah</p>\n      </div>\n      <meta itemprop='interactionCount' content='UserLikes:0'>\n      <meta itemprop='interactionCount' content='UserComments:1'>\n      <meta itemprop='headline' content='Sinemet shortage status'>\n      <hr>\n  </div>\n  <div itemscope itemtype='http://schema.org/DiscussionForumPosting'>\n      <div class='creator'>\n        <span>\n          <a href='/u/eubielicious'><b itemprop='author'>eubielicious</b></a>\n          \n          <time datetime='2019-05-11T10:53:30Z' itemprop='datePublished'>\n            2019-05-11 10:53:30 UTC\n          </time>\n        </span>\n        <span itemprop='position'>#9</span>\n      </div>\n      <div class='post' itemprop='articleBody'>\n        <p>I am due to start on Sinemet 12.5/50mg and was due to collect them today, but got a call to say that the wholesaler can’t get them till mid-June. She is going to call my GP on Monday to let her know and seek guidance. I guess waiting isn’t a disaster - I haven’t started on the meds yet so can wait I think.</p>\n<p>Euan</p>\n      </div>\n      <meta itemprop='interactionCount' content='UserLikes:0'>\n      <meta itemprop='interactionCount' content='UserComments:0'>\n      <meta itemprop='headline' content='Sinemet shortage status'>\n      <hr>\n  </div>\n  <div itemscope itemtype='http://schema.org/DiscussionForumPosting'>\n      <div class='creator'>\n        <span>\n          <a href='/u/Marigold'><b itemprop='author'>Marigold</b></a>\n          \n          <time datetime='2019-05-20T11:53:39Z' itemprop='datePublished'>\n            2019-05-20 11:53:39 UTC\n          </time>\n        </span>\n        <span itemprop='position'>#10</span>\n      </div>\n      <div class='post' itemprop='articleBody'>\n        <p>Have just come back from my local pharmacy who have advised that they can’t fulfil my prescription due to a lack of supplies at the warehouse. They are going to get back to me later this week and then see if there are any generics available. I take 2x12.5/50mg 5 times day so could replace with 25/100mg if necessary.  I just hope it is not as chaotic as last time!</p>\n      </div>\n      <meta itemprop='interactionCount' content='UserLikes:0'>\n      <meta itemprop='interactionCount' content='UserComments:0'>\n      <meta itemprop='headline' content='Sinemet shortage status'>\n      <hr>\n  </div>\n  <div itemscope itemtype='http://schema.org/DiscussionForumPosting'>\n      <div class='creator'>\n        <span>\n          <a href='/u/sheffy'><b itemprop='author'>sheffy</b></a>\n          \n          <time datetime='2019-05-24T11:37:03Z' itemprop='datePublished'>\n            2019-05-24 11:37:03 UTC\n          </time>\n        </span>\n        <span itemprop='position'>#11</span>\n      </div>\n      <div class='post' itemprop='articleBody'>\n        <p>Hello Marigold, I have never had any problems getting any of my meds up until now (I’ve had parky nine years now!) Called for my usual ‘script’ from Boots chemist who have always been so good in my supplies only to be told the Sinimet 12.5mg/50mg is ‘out of stock’, which I cannot understand why, do you think that someone somewhere is maybe holding us to ransome? Boots say they can get hold of a generic brand (cheaper) BUT are they going to be any good?? I am going to speak to my Parkinsons Nurse</p>\n<p>sheffy</p>\n      </div>\n      <meta itemprop='interactionCount' content='UserLikes:0'>\n      <meta itemprop='interactionCount' content='UserComments:0'>\n      <meta itemprop='headline' content='Sinemet shortage status'>\n      <hr>\n  </div>\n  <div itemscope itemtype='http://schema.org/DiscussionForumPosting'>\n      <div class='creator'>\n        <span>\n          <a href='/u/sheffy'><b itemprop='author'>sheffy</b></a>\n          \n          <time datetime='2019-05-24T11:46:19Z' itemprop='datePublished'>\n            2019-05-24 11:46:19 UTC\n          </time>\n        </span>\n        <span itemprop='position'>#12</span>\n      </div>\n      <div class='post' itemprop='articleBody'>\n        <p>Good afternoon Reah, just wondered if you have any info regarding the latest shortage of Sinimet 12.5/50mg? I take 2 tabs 3 times a day, and have enough to last me two weeks.</p>\n<p>Thanks sheffy <img src=\"https://forum.parkinsons.org.uk/images/emoji/twitter/pensive.png?v=6\" title=\":pensive:\" class=\"emoji\" alt=\":pensive:\"></p>\n      </div>\n      <meta itemprop='interactionCount' content='UserLikes:0'>\n      <meta itemprop='interactionCount' content='UserComments:0'>\n      <meta itemprop='headline' content='Sinemet shortage status'>\n      <hr>\n  </div>\n  <div itemscope itemtype='http://schema.org/DiscussionForumPosting'>\n      <div class='creator'>\n        <span>\n          <a href='/u/Marigold'><b itemprop='author'>Marigold</b></a>\n          \n          <time datetime='2019-05-24T13:54:10Z' itemprop='datePublished'>\n            2019-05-24 13:54:10 UTC\n          </time>\n        </span>\n        <span itemprop='position'>#13</span>\n      </div>\n      <div class='post' itemprop='articleBody'>\n        <p>The sinemet-news-update dated 10 May on the website is very interesting and mentions shortages as well as changes to 3 products. I only found it by doing a search rather than it being flagged for information.  Other websites indicate that flows/deliveries should start in June. This implies a few more weeks with no supplies.</p>\n<p>There are references to patients having discussions with GPs and pharmacist to look at alternatives. This all sounds very cosy and is all well and good if there had been some planning/notification in advance. Allowing patients to turn up at the pharmacy to pick up a regular monthly prescription, with only enough tablets for a few days left, to be told there are no supplies is not good practice!  I am sure most of us do not have more than a week or two of tablets in reserve.</p>\n<p>I know I have an alternative as I take 2 x 12.5/25mg 5 times per day and could use Sinemet 25/100mg instead. I used a generic brand last time and didn’t notice too much difference. What I need to try and do now is find a local pharmacy that actually has stocks of Sinemet 25/100 as supplies are getting low due its use as an alternative for the other tablets.</p>\n<p>I am surprised at the lack of local co-ordination and the apparent reliance on the patient to find tablets and organise updated prescriptions from the GP etc.  I don’t know how many of us take Sinemet but surely it is more than a handful in each area.  Does anyone have any stats on this?</p>\n<p>Marigold</p>\n      </div>\n      <meta itemprop='interactionCount' content='UserLikes:0'>\n      <meta itemprop='interactionCount' content='UserComments:0'>\n      <meta itemprop='headline' content='Sinemet shortage status'>\n      <hr>\n  </div>\n  <div itemscope itemtype='http://schema.org/DiscussionForumPosting'>\n      <div class='creator'>\n        <span>\n          <a href='/u/eubielicious'><b itemprop='author'>eubielicious</b></a>\n          \n          <time datetime='2019-05-25T15:12:24Z' itemprop='datePublished'>\n            2019-05-25 15:12:24 UTC\n          </time>\n        </span>\n        <span itemprop='position'>#14</span>\n      </div>\n      <div class='post' itemprop='articleBody'>\n        <p>I have my meds. One of the doctors at my surgery had a chat with the pharmacist and they have come up with a solution - halving the 25mg/100mg tablets and I’m taking one of those (half a tablet) three times a day. Not perfect but it’s a solution, although I feel for the poor pharmacist having to divide 120 tablets in two!!!</p>\n<p>Euan</p>\n      </div>\n      <meta itemprop='interactionCount' content='UserLikes:0'>\n      <meta itemprop='interactionCount' content='UserComments:1'>\n      <meta itemprop='headline' content='Sinemet shortage status'>\n      <hr>\n  </div>\n  <div itemscope itemtype='http://schema.org/DiscussionForumPosting'>\n      <div class='creator'>\n        <span>\n          <a href='/u/Marigold'><b itemprop='author'>Marigold</b></a>\n          \n          <time datetime='2019-05-25T16:30:14Z' itemprop='datePublished'>\n            2019-05-25 16:30:14 UTC\n          </time>\n        </span>\n        <span itemprop='position'>#15</span>\n      </div>\n      <div class='post' itemprop='articleBody'>\n        <p>Glad you have found a solution.<br>\nI got a new prescription from the GP and managed to get some 25/100 Sinemet from Boots this morning - it was their last packet. I think it might have to investige the generics next month!</p>\n<p>Take care taking the tablets - they can make you feel nauseous. I always have a small water biscuit with mine and a glass of water.  They work better if you have them on an empty stomach - 30 mins before eating or 2 hours after eating and also seem to work better if the amount of protein in the diet is reduced.  I hope you manage to establish a regular routine.</p>\n<p>Marigold</p>\n      </div>\n      <meta itemprop='interactionCount' content='UserLikes:0'>\n      <meta itemprop='interactionCount' content='UserComments:1'>\n      <meta itemprop='headline' content='Sinemet shortage status'>\n      <hr>\n  </div>\n  <div itemscope itemtype='http://schema.org/DiscussionForumPosting'>\n      <div class='creator'>\n        <span>\n          <a href='/u/eubielicious'><b itemprop='author'>eubielicious</b></a>\n          \n          <time datetime='2019-05-25T16:35:37Z' itemprop='datePublished'>\n            2019-05-25 16:35:37 UTC\n          </time>\n        </span>\n        <span itemprop='position'>#16</span>\n      </div>\n      <div class='post' itemprop='articleBody'>\n        <p>Thanks Marigold. I’ve been on them for about a week and a half and have had no problems with nausea at all. I’m not sure about how best to schedule them, so have been having them at about 7am, then at noon and again about 5-6pm - not sure if they need to be more spaced out. I’m careful with protein as you say, I’m allowing 30 mins or so before even having milk in my coffee!</p>\n      </div>\n      <meta itemprop='interactionCount' content='UserLikes:0'>\n      <meta itemprop='interactionCount' content='UserComments:1'>\n      <meta itemprop='headline' content='Sinemet shortage status'>\n      <hr>\n  </div>\n  <div itemscope itemtype='http://schema.org/DiscussionForumPosting'>\n      <div class='creator'>\n        <span>\n          <a href='/u/Roy_S'><b itemprop='author'>Roy_S</b></a>\n          \n          <time datetime='2019-05-25T17:14:17Z' itemprop='datePublished'>\n            2019-05-25 17:14:17 UTC\n          </time>\n        </span>\n        <span itemprop='position'>#17</span>\n      </div>\n      <div class='post' itemprop='articleBody'>\n        <aside class=\"quote no-group\" data-post=\"16\" data-topic=\"16700\">\n<div class=\"title\">\n<div class=\"quote-controls\"></div>\n<img alt width=\"20\" height=\"20\" src=\"https://forum.parkinsons.org.uk/user_avatar/forum.parkinsons.org.uk/eubielicious/40/3028_2.png\" class=\"avatar\"> eubielicious:</div>\n<blockquote>\n<p>I’m not sure about how best to schedule them</p>\n</blockquote>\n</aside>\n<p>I’ve just been prescribed them, the neurologist said take them at 8am then 8pm for 2 weeks then add another at 2pm after that. He never mentioned about taking them with food but I tend to do that anyway, good excuse for a snack sometimes <img src=\"https://forum.parkinsons.org.uk/images/emoji/twitter/slight_smile.png?v=6\" title=\":slight_smile:\" class=\"emoji\" alt=\":slight_smile:\"> .</p>\n      </div>\n      <meta itemprop='interactionCount' content='UserLikes:1'>\n      <meta itemprop='interactionCount' content='UserComments:0'>\n      <meta itemprop='headline' content='Sinemet shortage status'>\n      <hr>\n  </div>\n  <div itemscope itemtype='http://schema.org/DiscussionForumPosting'>\n      <div class='creator'>\n        <span>\n          <a href='/u/Margs1'><b itemprop='author'>Margs1</b></a>\n          \n          <time datetime='2019-05-28T16:45:19Z' itemprop='datePublished'>\n            2019-05-28 16:45:19 UTC\n          </time>\n        </span>\n        <span itemprop='position'>#18</span>\n      </div>\n      <div class='post' itemprop='articleBody'>\n        <p>When I moved to a different area my new doctor said they did not prescribe sinemet but an alternative as sinemet was too expensive.   I got in touch with my consultant who said it would not make any difference taking a different make.    So far I have been ok.</p>\n      </div>\n      <meta itemprop='interactionCount' content='UserLikes:0'>\n      <meta itemprop='interactionCount' content='UserComments:1'>\n      <meta itemprop='headline' content='Sinemet shortage status'>\n      <hr>\n  </div>\n  <div itemscope itemtype='http://schema.org/DiscussionForumPosting'>\n      <div class='creator'>\n        <span>\n          <a href='/u/sheffy'><b itemprop='author'>sheffy</b></a>\n          \n          <time datetime='2019-05-28T18:47:28Z' itemprop='datePublished'>\n            2019-05-28 18:47:28 UTC\n          </time>\n        </span>\n        <span itemprop='position'>#19</span>\n      </div>\n      <div class='post' itemprop='articleBody'>\n        <p>Hello Margs1, I know some Parkinson sufferers cannot tolerate the cheaper meds, with me it was the cheaper Ropinirole brands that I couldn’t (and still can’t) tolerate. I wonder if is the length of time you have been on the expensive brands (in my case from being diagnosed in 2010) and that the body gets used to a particular brand. I am now having problems with supplies of my Sinimet 12.5/50mg, and I have been on them for just over a year now, taking 6 tablets a day, so hope by introducing a generic for this med that it will not upset my regime</p>\n<p>I live in hope - sheffy</p>\n      </div>\n      <meta itemprop='interactionCount' content='UserLikes:0'>\n      <meta itemprop='interactionCount' content='UserComments:1'>\n      <meta itemprop='headline' content='Sinemet shortage status'>\n      <hr>\n  </div>\n  <div itemscope itemtype='http://schema.org/DiscussionForumPosting'>\n      <div class='creator'>\n        <span>\n          <a href='/u/sheffy'><b itemprop='author'>sheffy</b></a>\n          \n          <time datetime='2019-05-28T19:37:39Z' itemprop='datePublished'>\n            2019-05-28 19:37:39 UTC\n          </time>\n        </span>\n        <span itemprop='position'>#20</span>\n      </div>\n      <div class='post' itemprop='articleBody'>\n        <p>Hello Reah or anyone on the Moderation Team.<br>\nI posted you last week sometime to ask you if you could give us any information at all about the shortage of some Sinimet  meds namely 12.5/50mg, are the supplies running short and near to being unable to supply anymore at all, to the point of loosing all Sinimet supplies, and to give us hope that another med will take it’s place?? Most of it’s users are so reliant on this medication!</p>\n<p>sheffy</p>\n      </div>\n      <meta itemprop='interactionCount' content='UserLikes:0'>\n      <meta itemprop='interactionCount' content='UserComments:2'>\n      <meta itemprop='headline' content='Sinemet shortage status'>\n      <hr>\n  </div>\n\n  <div role='navigation' itemscope itemtype='http://schema.org/SiteNavigationElement'>\n      <span itemprop='name'><b><a rel=\"next\" itemprop=\"url\" href=\"/t/sinemet-shortage-status/16700?page=2\">next page →</a></b></span>\n  </div>\n\n\n\n\n\n    </div>\n    <footer class=\"container\">\n      <nav class='crawler-nav' itemscope itemtype='http://schema.org/SiteNavigationElement'>\n        <a href='/'>Home</a>\n        <a href=\"/categories\">Categories</a>\n        <a href=\"/guidelines\">FAQ/Guidelines</a>\n        <a href=\"/tos\">Terms of Service</a>\n        <a href=\"/privacy\">Privacy Policy</a>\n      </nav>\n      <p class='powered-by-link'>Powered by <a href=\"https://www.discourse.org\">Discourse</a>, best viewed with JavaScript enabled</p>\n    </footer>\n    \n  </body>\n  \n</html>\n",
  "url": "https://forum.parkinsons.org.uk/t/sinemet-shortage-status/16700"
}