{
  "contentId": "badbea40-8870-11e9-8f96-97f71b5221d6",
  "html": "<!DOCTYPE html>\n<html lang=\"en\">\n  <head>\n    <meta charset=\"utf-8\">\n    <title>Scan - Introductions and personal stories - Parkinson&#39;s UK Forum</title>\n    <meta name=\"description\" content=\"Been diagnosed now for over 3 years. Since then my diagnosis has changed from PD to essential tremor to having both. I still don’t know what I’ve got but hopefully I will soon. Tomorrow I have a NM Brain Ioflupane DaTSCA&amp;hellip;\">\n    <meta name=\"author\" content=\"\">\n<meta name=\"generator\" content=\"Discourse 2.2.5 - https://github.com/discourse/discourse version c294ff3609f988dcafb742e91606d60ca13b794d\">\n<link rel=\"icon\" type=\"image/png\" href=\"https://forum.parkinsons.org.uk/uploads/db7928/original/2X/3/311fc84f89f49f38601a2f16b295b6f03d3ce5dd.jpg\">\n<link rel=\"apple-touch-icon\" type=\"image/png\" href=\"https://forum.parkinsons.org.uk/uploads/db7928/original/2X/3/311fc84f89f49f38601a2f16b295b6f03d3ce5dd.jpg\">\n<meta name=\"theme-color\" content=\"#ffffff\">\n<meta name=\"viewport\" content=\"width=device-width, minimum-scale=1.0, maximum-scale=1.0, user-scalable=yes\">\n<link rel=\"canonical\" href=\"https://forum.parkinsons.org.uk/t/scan/17619\" />\n<script type=\"application/ld+json\">{\"@context\":\"http://schema.org\",\"@type\":\"WebSite\",\"url\":\"https://forum.parkinsons.org.uk\",\"potentialAction\":{\"@type\":\"SearchAction\",\"target\":\"https://forum.parkinsons.org.uk/search?q={search_term_string}\",\"query-input\":\"required name=search_term_string\"}}</script>\n<link rel=\"search\" type=\"application/opensearchdescription+xml\" href=\"https://forum.parkinsons.org.uk/opensearch.xml\" title=\"Parkinson&#39;s UK Forum Search\">\n\n      <link href=\"/stylesheets/desktop_f99246ae801b083d3e4cca979d0dade8615b39ac.css?__ws=forum.parkinsons.org.uk\" media=\"all\" rel=\"stylesheet\" data-target=\"desktop\" data-theme-id=\"12\"/>\n      <link href=\"/stylesheets/desktop_theme_12_5d27531cf43f9df0c03a6a6ec3109dd05f9dfc49.css?__ws=forum.parkinsons.org.uk\" media=\"all\" rel=\"stylesheet\" data-target=\"desktop_theme\" data-theme-id=\"12\"/>\n    <link href=\"https://fonts.googleapis.com/css?family=Open+Sans\" rel=\"stylesheet\">\n\n    <meta id=\"data-ga-universal-analytics\" data-tracking-code=\"UA-4855628-1\" data-json=\"{&quot;cookieDomain&quot;:&quot;auto&quot;}\" data-auto-link-domains=\"\">\n\n<link rel='preload' href='/assets/google-universal-analytics-f35b4da49411e6f5559073523aab983da483976a3954c79c756f8579f6fbd6ef.js' as='script'/>\n<script src='/assets/google-universal-analytics-f35b4da49411e6f5559073523aab983da483976a3954c79c756f8579f6fbd6ef.js'></script>\n\n      <link rel=\"alternate\" type=\"application/rss+xml\" title=\"RSS feed of &#39;Scan&#39;\" href=\"https://forum.parkinsons.org.uk/t/scan/17619.rss\" />\n  <meta property=\"og:site_name\" content=\"Parkinson&#39;s UK Forum\" />\n<meta name=\"twitter:card\" content=\"summary\" />\n<meta name=\"twitter:image\" content=\"https://forum.parkinsons.org.uk/uploads/db7928/original/2X/3/311fc84f89f49f38601a2f16b295b6f03d3ce5dd.jpg\" />\n<meta property=\"og:image\" content=\"https://forum.parkinsons.org.uk/uploads/db7928/original/2X/3/311fc84f89f49f38601a2f16b295b6f03d3ce5dd.jpg\" />\n<meta property=\"og:url\" content=\"https://forum.parkinsons.org.uk/t/scan/17619\" />\n<meta name=\"twitter:url\" content=\"https://forum.parkinsons.org.uk/t/scan/17619\" />\n<meta property=\"og:title\" content=\"Scan\" />\n<meta name=\"twitter:title\" content=\"Scan\" />\n<meta property=\"og:description\" content=\"Been diagnosed now for over 3 years. Since then my diagnosis has changed from PD to essential tremor to having both. I still don’t know what I’ve got but hopefully I will soon. Tomorrow I have a NM Brain Ioflupane DaTSCAN. Unfortunately I won’t find out anything till the 8 March my next appointment. I am not on any tablets having. Recently been.taken of. Propannol. My only question is ,”Does the above scan,scan for everything or does it just tell me if I have PD or not.\" />\n<meta name=\"twitter:description\" content=\"Been diagnosed now for over 3 years. Since then my diagnosis has changed from PD to essential tremor to having both. I still don’t know what I’ve got but hopefully I will soon. Tomorrow I have a NM Brain Ioflupane DaTSCAN. Unfortunately I won’t find out anything till the 8 March my next appointment. I am not on any tablets having. Recently been.taken of. Propannol. My only question is ,”Does the above scan,scan for everything or does it just tell me if I have PD or not.\" />\n<meta property=\"article:published_time\" content=\"2019-01-21T20:00:00+00:00\" />\n<meta property=\"og:ignore_canonical\" content=\"true\" />\n\n\n\n    \n  </head>\n  <body class=\"crawler\">\n    <header role=\"banner\">\n    <div class=\"region region-header\">\n        <div class=\"region-header-wrapper\">\n            <div id=\"block-parkinsons-d8-branding\" class=\"block block-system block-system-branding-block\">\n                <a href=\"/\" title=\"Home\" rel=\"home\" class=\"site-logo\">\n                    <img src=\"https://forum.parkinsons.org.uk/uploads/db7928/original/2X/8/862bb7d172e7d127e7f3e147ec43594aa62ac945.png\" alt=\"Parkinson's UK. Change Attitudes. Find a cure. Join us.\">\n                </a>\n            </div>\n            <div id=\"block-helpline\" class=\"block block-block-content block-block-content871cd5af-b938-4947-9dc0-d5c211d08fe3 style-phone\">\n                <div class=\"field field--name-field-link field--type-link field--label-hidden field__item\"><a href=\"tel:+448088000303\">Helpline 0808 800 0303</a></div>\n            </div>\n            <div id=\"block-shop\" class=\"block block-block-content block-block-content6fba5ae5-7797-49cd-8367-f321d8111cd6 style-regular\">\n                <div class=\"field field--name-field-link field--type-link field--label-hidden field__item\"><a href=\"https://shop.parkinsons.org.uk\">Shop</a></div>\n            </div>\n        </div>\n    </div>\n</header>\n\n\n<script src=\"/theme-javascripts/b7e9763fcb584fc8265c56a9f557cd6d2e1e8ed8.js?__ws=forum.parkinsons.org.uk\"></script>\n    <header>\n      <a href=\"/\">\n          <img src=\"https://forum.parkinsons.org.uk/uploads/db7928/original/2X/8/862bb7d172e7d127e7f3e147ec43594aa62ac945.png\" alt=\"Parkinson&#39;s UK Forum\" id=\"site-logo\" style=\"max-width: 150px;\">\n      </a>\n    </header>\n    <div id=\"main-outlet\" class=\"wrap\">\n      <h1>\n  <a href=\"/t/scan/17619\">Scan</a>\n</h1>\n\n<div id='breadcrumbs'>\n    <div id=\"breadcrumb-0\" itemscope itemtype=\"http://data-vocabulary.org/Breadcrumb\"\n        itemref=\"breadcrumb-1\"\n      >\n      <a href=\"/c/about-me\" itemprop=\"url\">\n        <span itemprop=\"title\">About me</span>\n      </a>\n    </div>\n    <div id=\"breadcrumb-1\" itemscope itemtype=\"http://data-vocabulary.org/Breadcrumb\"\n>\n      <a href=\"/c/about-me/introductions-and-personal-stories\" itemprop=\"url\">\n        <span itemprop=\"title\">Introductions and personal stories</span>\n      </a>\n    </div>\n</div>\n\n\n\n\n\n<hr>\n\n\n  <div itemscope itemtype='http://schema.org/DiscussionForumPosting'>\n      <div class='creator'>\n        <span>\n          <a href='/u/prentonboy'><b itemprop='author'>prentonboy</b></a>\n          \n          <time datetime='2019-01-21T20:00:00Z' itemprop='datePublished'>\n            2019-01-21 20:00:00 UTC\n          </time>\n        </span>\n        <span itemprop='position'>#1</span>\n      </div>\n      <div class='post' itemprop='articleBody'>\n        <p>Been diagnosed now for over 3 years. Since then my diagnosis has changed from PD to essential tremor to having both. I still don’t know what I’ve got but hopefully I will soon. Tomorrow I have a NM Brain Ioflupane DaTSCAN. Unfortunately I won’t find out anything till the 8 March my next appointment. I am not on any tablets having. Recently been.taken of. Propannol. My only question is ,”Does the above scan,scan for everything or does it just tell me if I have PD or not.</p>\n      </div>\n      <meta itemprop='interactionCount' content='UserLikes:0'>\n      <meta itemprop='interactionCount' content='UserComments:0'>\n      <meta itemprop='headline' content='Scan'>\n      <hr>\n  </div>\n  <div itemscope itemtype='http://schema.org/DiscussionForumPosting'>\n      <div class='creator'>\n        <span>\n          <a href='/u/Koru'><b itemprop='author'>Koru</b></a>\n          \n          <time datetime='2019-01-22T06:12:56Z' itemprop='datePublished'>\n            2019-01-22 06:12:56 UTC\n          </time>\n        </span>\n        <span itemprop='position'>#2</span>\n      </div>\n      <div class='post' itemprop='articleBody'>\n        <p>It does diagnose PD, in colour, according to my knowledge the best way to find out if it is a PD; much more reliable than a dopamine test. Even if it will not answer all questins, it will give you an answer to a major one…</p>\n      </div>\n      <meta itemprop='interactionCount' content='UserLikes:0'>\n      <meta itemprop='interactionCount' content='UserComments:0'>\n      <meta itemprop='headline' content='Scan'>\n      <hr>\n  </div>\n  <div itemscope itemtype='http://schema.org/DiscussionForumPosting'>\n      <div class='creator'>\n        <span>\n          <a href='/u/Singing_Gardener'><b itemprop='author'>Singing_Gardener</b></a>\n          \n          <time datetime='2019-01-22T10:20:13Z' itemprop='datePublished'>\n            2019-01-22 10:20:13 UTC\n          </time>\n        </span>\n        <span itemprop='position'>#3</span>\n      </div>\n      <div class='post' itemprop='articleBody'>\n        <p>I think a Datscan only scans for dopamine levels so won’t tell you about other things. When I was looking for diagnosis I had an MRI scan as well as a datscan.</p>\n      </div>\n      <meta itemprop='interactionCount' content='UserLikes:0'>\n      <meta itemprop='interactionCount' content='UserComments:0'>\n      <meta itemprop='headline' content='Scan'>\n      <hr>\n  </div>\n  <div itemscope itemtype='http://schema.org/DiscussionForumPosting'>\n      <div class='creator'>\n        <span>\n          <a href='/u/Reah'><b itemprop='author'>Reah</b></a>\n          \n          <time datetime='2019-01-22T11:31:13Z' itemprop='datePublished'>\n            2019-01-22 11:31:13 UTC\n          </time>\n        </span>\n        <span itemprop='position'>#4</span>\n      </div>\n      <div class='post' itemprop='articleBody'>\n        <p>Hi <a class=\"mention\" href=\"/u/prentonboy\">@prentonboy</a>,</p>\n<p>Good to see that you’ve received some helpful comments. Diagnosing Parkinson’s can take some time as there are other conditions, such as essential tremor with similar symptoms. There is also currently no definitive test for diagnosing Parkinson’s which i’m sure isn’t ideal for people like yourself.  However, the most common ways to diagnose Parkinson’s is via a MRI or CT scan or a SPECT or DATSCAN. All these options can tell your specialist  how different areas of your brain works.</p>\n<p>We go into this in a lot of detail on our website here - <a href=\"https://www.parkinsons.org.uk/information-and-support/how-parkinsons-diagnosed\">https://www.parkinsons.org.uk/information-and-support/how-parkinsons-diagnosed</a>. Hopefully this will give you some clarity on the matter, however, if you have any more questions, please feel free to give our helpline a call and speak to one of our advisers who would be happy to answer any of your questions.</p>\n<p>Best wishes,<br>\nReah</p>\n      </div>\n      <meta itemprop='interactionCount' content='UserLikes:0'>\n      <meta itemprop='interactionCount' content='UserComments:0'>\n      <meta itemprop='headline' content='Scan'>\n      <hr>\n  </div>\n  <div itemscope itemtype='http://schema.org/DiscussionForumPosting'>\n      <div class='creator'>\n        <span>\n          <a href='/u/prentonboy'><b itemprop='author'>prentonboy</b></a>\n          \n          <time datetime='2019-01-22T19:56:24Z' itemprop='datePublished'>\n            2019-01-22 19:56:24 UTC\n          </time>\n        </span>\n        <span itemprop='position'>#5</span>\n      </div>\n      <div class='post' itemprop='articleBody'>\n        <p>Thanks for everyone’s advice, it was very welcome and it helped me undetsand the procedure better. After a hard day I received 2 tablets, 1 injection and a 30 minutes Brain Scan. The only problem  was as far as I could see was that my hands was shaking so much that it was hard for me to see how a decent scan coul be obtained.<br>\nThanks to the NHS and for everyone’s help.<br>\nWaiting for result now.</p>\n      </div>\n      <meta itemprop='interactionCount' content='UserLikes:0'>\n      <meta itemprop='interactionCount' content='UserComments:0'>\n      <meta itemprop='headline' content='Scan'>\n      <hr>\n  </div>\n  <div itemscope itemtype='http://schema.org/DiscussionForumPosting'>\n      <div class='creator'>\n        <span>\n          <a href='/u/Omahatom'><b itemprop='author'>Omahatom</b></a>\n          \n          <time datetime='2019-01-23T11:47:16Z' itemprop='datePublished'>\n            2019-01-23 11:47:16 UTC\n          </time>\n        </span>\n        <span itemprop='position'>#6</span>\n      </div>\n      <div class='post' itemprop='articleBody'>\n        <p>prentonboy this tom from the USA. My MRI scan the tech that was doing the scan kept insisting I keep still.I am glad you mentioned about shaking. I even hand some muscle cramps.<br>\nOur insurance companies hate paying for allot of the scans.<br>\nThey almost always deny a datscan for they run about $15,000 USA dollars.<br>\nSo here what happens allot in the USA. If  the insurance you have does not work with the best hospital, that have the best movement specialists your stuck. IF you go there you pay a very large out of pocket fee. The rich get the best health care.<br>\nSo here we get the wait and see how the symptoms progress. Then once they get worse and you shake, have stiff arm pulls, stoop, and so on. You finally get to take sinemet if it works then you might get a diagnosis. The doctor has follow up visits on progress. Most of us when talking together here seem to be in limbo for about three years for a final diagnosis.<br>\nI use your forum to listen to the UK’s treatments. I have watched many videos your expert doctors have given on the disease. I am impressed. Thanks tom</p>\n      </div>\n      <meta itemprop='interactionCount' content='UserLikes:0'>\n      <meta itemprop='interactionCount' content='UserComments:0'>\n      <meta itemprop='headline' content='Scan'>\n      <hr>\n  </div>\n\n\n\n\n\n\n    </div>\n    <footer class=\"container\">\n      <nav class='crawler-nav' itemscope itemtype='http://schema.org/SiteNavigationElement'>\n        <a href='/'>Home</a>\n        <a href=\"/categories\">Categories</a>\n        <a href=\"/guidelines\">FAQ/Guidelines</a>\n        <a href=\"/tos\">Terms of Service</a>\n        <a href=\"/privacy\">Privacy Policy</a>\n      </nav>\n      <p class='powered-by-link'>Powered by <a href=\"https://www.discourse.org\">Discourse</a>, best viewed with JavaScript enabled</p>\n    </footer>\n    \n  </body>\n  \n</html>\n",
  "url": "https://forum.parkinsons.org.uk/t/scan/17619"
}