{
  "contentId": "82633e40-8864-11e9-8f96-97f71b5221d6",
  "html": "<!DOCTYPE html>\n<html lang=\"en\">\n  <head>\n    <meta charset=\"utf-8\">\n    <title>Msa, - Introductions and personal stories - Parkinson&#39;s UK Forum</title>\n    <meta name=\"description\" content=\"I was diagnosed with Parkinson’s 5 years ago, after being unwell over the last year and under going lots of tests I have just been told I have MSA and not parkinsons! Has anyone else had the same experience? As I feel a &amp;hellip;\">\n    <meta name=\"author\" content=\"\">\n<meta name=\"generator\" content=\"Discourse 2.2.5 - https://github.com/discourse/discourse version c294ff3609f988dcafb742e91606d60ca13b794d\">\n<link rel=\"icon\" type=\"image/png\" href=\"https://forum.parkinsons.org.uk/uploads/db7928/original/2X/3/311fc84f89f49f38601a2f16b295b6f03d3ce5dd.jpg\">\n<link rel=\"apple-touch-icon\" type=\"image/png\" href=\"https://forum.parkinsons.org.uk/uploads/db7928/original/2X/3/311fc84f89f49f38601a2f16b295b6f03d3ce5dd.jpg\">\n<meta name=\"theme-color\" content=\"#ffffff\">\n<meta name=\"viewport\" content=\"width=device-width, minimum-scale=1.0, maximum-scale=1.0, user-scalable=yes\">\n<link rel=\"canonical\" href=\"https://forum.parkinsons.org.uk/t/msa/19312\" />\n<script type=\"application/ld+json\">{\"@context\":\"http://schema.org\",\"@type\":\"WebSite\",\"url\":\"https://forum.parkinsons.org.uk\",\"potentialAction\":{\"@type\":\"SearchAction\",\"target\":\"https://forum.parkinsons.org.uk/search?q={search_term_string}\",\"query-input\":\"required name=search_term_string\"}}</script>\n<link rel=\"search\" type=\"application/opensearchdescription+xml\" href=\"https://forum.parkinsons.org.uk/opensearch.xml\" title=\"Parkinson&#39;s UK Forum Search\">\n\n      <link href=\"/stylesheets/desktop_f99246ae801b083d3e4cca979d0dade8615b39ac.css?__ws=forum.parkinsons.org.uk\" media=\"all\" rel=\"stylesheet\" data-target=\"desktop\" data-theme-id=\"12\"/>\n      <link href=\"/stylesheets/desktop_theme_12_5d27531cf43f9df0c03a6a6ec3109dd05f9dfc49.css?__ws=forum.parkinsons.org.uk\" media=\"all\" rel=\"stylesheet\" data-target=\"desktop_theme\" data-theme-id=\"12\"/>\n    <link href=\"https://fonts.googleapis.com/css?family=Open+Sans\" rel=\"stylesheet\">\n\n    <meta id=\"data-ga-universal-analytics\" data-tracking-code=\"UA-4855628-1\" data-json=\"{&quot;cookieDomain&quot;:&quot;auto&quot;}\" data-auto-link-domains=\"\">\n\n<link rel='preload' href='/assets/google-universal-analytics-f35b4da49411e6f5559073523aab983da483976a3954c79c756f8579f6fbd6ef.js' as='script'/>\n<script src='/assets/google-universal-analytics-f35b4da49411e6f5559073523aab983da483976a3954c79c756f8579f6fbd6ef.js'></script>\n\n      <link rel=\"alternate\" type=\"application/rss+xml\" title=\"RSS feed of &#39;Msa,&#39;\" href=\"https://forum.parkinsons.org.uk/t/msa/19312.rss\" />\n  <meta property=\"og:site_name\" content=\"Parkinson&#39;s UK Forum\" />\n<meta name=\"twitter:card\" content=\"summary\" />\n<meta name=\"twitter:image\" content=\"https://forum.parkinsons.org.uk/uploads/db7928/original/2X/3/311fc84f89f49f38601a2f16b295b6f03d3ce5dd.jpg\" />\n<meta property=\"og:image\" content=\"https://forum.parkinsons.org.uk/uploads/db7928/original/2X/3/311fc84f89f49f38601a2f16b295b6f03d3ce5dd.jpg\" />\n<meta property=\"og:url\" content=\"https://forum.parkinsons.org.uk/t/msa/19312\" />\n<meta name=\"twitter:url\" content=\"https://forum.parkinsons.org.uk/t/msa/19312\" />\n<meta property=\"og:title\" content=\"Msa,\" />\n<meta name=\"twitter:title\" content=\"Msa,\" />\n<meta property=\"og:description\" content=\"I was diagnosed with Parkinson’s 5 years ago, after being unwell over the last year and under going lots of tests I have just been told I have MSA and not parkinsons! Has anyone else had the same experience? As I feel a little lonely as had just got used to being part of the parkinsons community, where do I go from here?\" />\n<meta name=\"twitter:description\" content=\"I was diagnosed with Parkinson’s 5 years ago, after being unwell over the last year and under going lots of tests I have just been told I have MSA and not parkinsons! Has anyone else had the same experience? As I feel a little lonely as had just got used to being part of the parkinsons community, where do I go from here?\" />\n<meta name=\"twitter:label1\" value=\"Reading time\" />\n<meta name=\"twitter:data1\" value=\"2 mins \uD83D\uDD51\" />\n<meta name=\"twitter:label2\" value=\"Likes\" />\n<meta name=\"twitter:data2\" value=\"1 ❤\" />\n<meta property=\"article:published_time\" content=\"2019-05-18T10:57:48+00:00\" />\n<meta property=\"og:ignore_canonical\" content=\"true\" />\n\n\n\n    \n  </head>\n  <body class=\"crawler\">\n    <header role=\"banner\">\n    <div class=\"region region-header\">\n        <div class=\"region-header-wrapper\">\n            <div id=\"block-parkinsons-d8-branding\" class=\"block block-system block-system-branding-block\">\n                <a href=\"/\" title=\"Home\" rel=\"home\" class=\"site-logo\">\n                    <img src=\"https://forum.parkinsons.org.uk/uploads/db7928/original/2X/8/862bb7d172e7d127e7f3e147ec43594aa62ac945.png\" alt=\"Parkinson's UK. Change Attitudes. Find a cure. Join us.\">\n                </a>\n            </div>\n            <div id=\"block-helpline\" class=\"block block-block-content block-block-content871cd5af-b938-4947-9dc0-d5c211d08fe3 style-phone\">\n                <div class=\"field field--name-field-link field--type-link field--label-hidden field__item\"><a href=\"tel:+448088000303\">Helpline 0808 800 0303</a></div>\n            </div>\n            <div id=\"block-shop\" class=\"block block-block-content block-block-content6fba5ae5-7797-49cd-8367-f321d8111cd6 style-regular\">\n                <div class=\"field field--name-field-link field--type-link field--label-hidden field__item\"><a href=\"https://shop.parkinsons.org.uk\">Shop</a></div>\n            </div>\n        </div>\n    </div>\n</header>\n\n\n<script src=\"/theme-javascripts/b7e9763fcb584fc8265c56a9f557cd6d2e1e8ed8.js?__ws=forum.parkinsons.org.uk\"></script>\n    <header>\n      <a href=\"/\">\n          <img src=\"https://forum.parkinsons.org.uk/uploads/db7928/original/2X/8/862bb7d172e7d127e7f3e147ec43594aa62ac945.png\" alt=\"Parkinson&#39;s UK Forum\" id=\"site-logo\" style=\"max-width: 150px;\">\n      </a>\n    </header>\n    <div id=\"main-outlet\" class=\"wrap\">\n      <h1>\n  <a href=\"/t/msa/19312\">Msa,</a>\n</h1>\n\n<div id='breadcrumbs'>\n    <div id=\"breadcrumb-0\" itemscope itemtype=\"http://data-vocabulary.org/Breadcrumb\"\n        itemref=\"breadcrumb-1\"\n      >\n      <a href=\"/c/about-me\" itemprop=\"url\">\n        <span itemprop=\"title\">About me</span>\n      </a>\n    </div>\n    <div id=\"breadcrumb-1\" itemscope itemtype=\"http://data-vocabulary.org/Breadcrumb\"\n>\n      <a href=\"/c/about-me/introductions-and-personal-stories\" itemprop=\"url\">\n        <span itemprop=\"title\">Introductions and personal stories</span>\n      </a>\n    </div>\n</div>\n\n\n\n\n\n<hr>\n\n\n  <div itemscope itemtype='http://schema.org/DiscussionForumPosting'>\n      <div class='creator'>\n        <span>\n          <a href='/u/Jo-I'><b itemprop='author'>Jo-I</b></a>\n          \n          <time datetime='2019-05-18T10:57:48Z' itemprop='datePublished'>\n            2019-05-18 10:57:48 UTC\n          </time>\n        </span>\n        <span itemprop='position'>#1</span>\n      </div>\n      <div class='post' itemprop='articleBody'>\n        <p>I was diagnosed with Parkinson’s 5 years ago, after being unwell over the last year and under going lots of tests I have just been told I have MSA and not parkinsons! Has anyone else had the same experience? As I feel a little lonely as had just got used to being part of the parkinsons community, where do I go from here?</p>\n      </div>\n      <meta itemprop='interactionCount' content='UserLikes:0'>\n      <meta itemprop='interactionCount' content='UserComments:0'>\n      <meta itemprop='headline' content='Msa,'>\n      <hr>\n  </div>\n  <div itemscope itemtype='http://schema.org/DiscussionForumPosting'>\n      <div class='creator'>\n        <span>\n          <a href='/u/T1'><b itemprop='author'>T1</b></a>\n          \n          <time datetime='2019-05-18T11:36:54Z' itemprop='datePublished'>\n            2019-05-18 11:36:54 UTC\n          </time>\n        </span>\n        <span itemprop='position'>#2</span>\n      </div>\n      <div class='post' itemprop='articleBody'>\n        <p>Hi Jo-1<br>\nI was originally diagnosed with parkinsons about 3 years ago and since then, well it virtually changes every visit to consultant.<br>\nEven to diagnosis of “I don’t know”.<br>\nAt the moment I have a typical parkinson problem of aspirating pneumonia.</p>\n<p>So if I had joined another forum I’d probably be on my 4th by now.<br>\nBut as most of the other forums use the dreaded “book face” (don’t want sued).</p>\n<p>I simply took the view that this is where I belong now and why would I leave the friends I’ve made on here.<br>\nI am of the opinion that you should stay where you are welcome.<br>\nThis is a fantastic forum whether you have PD or Piles.<br>\n(Not at the same time though)</p>\n<p>This is your home now and where you belong so hang around here because we need you more.<br>\nTommy <img src=\"https://forum.parkinsons.org.uk/images/emoji/twitter/pill.png?v=6\" title=\":pill:\" class=\"emoji\" alt=\":pill:\"> <img src=\"https://forum.parkinsons.org.uk/images/emoji/twitter/pill.png?v=6\" title=\":pill:\" class=\"emoji\" alt=\":pill:\"> <img src=\"https://forum.parkinsons.org.uk/images/emoji/twitter/pill.png?v=6\" title=\":pill:\" class=\"emoji\" alt=\":pill:\"> ™</p>\n      </div>\n      <meta itemprop='interactionCount' content='UserLikes:0'>\n      <meta itemprop='interactionCount' content='UserComments:0'>\n      <meta itemprop='headline' content='Msa,'>\n      <hr>\n  </div>\n  <div itemscope itemtype='http://schema.org/DiscussionForumPosting'>\n      <div class='creator'>\n        <span>\n          <a href='/u/Brown'><b itemprop='author'>Brown</b></a>\n          \n          <time datetime='2019-05-19T13:28:55Z' itemprop='datePublished'>\n            2019-05-19 13:28:55 UTC\n          </time>\n        </span>\n        <span itemprop='position'>#3</span>\n      </div>\n      <div class='post' itemprop='articleBody'>\n        <p>Hi jo my name is cathy im 55 was diagnosed with parkinsons 2 years ago and now have been told its msa because i started to have severe postural hypotension and was in hospital 4 weeks its been a shock i have medically retired from work i do yoga most days im on my feet and able to do most things i have 2 boys and a husband at home and try to remain as positive as i can why was your diagnosis changed ? Look forward to hearing from you x</p>\n      </div>\n      <meta itemprop='interactionCount' content='UserLikes:0'>\n      <meta itemprop='interactionCount' content='UserComments:2'>\n      <meta itemprop='headline' content='Msa,'>\n      <hr>\n  </div>\n  <div itemscope itemtype='http://schema.org/DiscussionForumPosting'>\n      <div class='creator'>\n        <span>\n          <a href='/u/T1'><b itemprop='author'>T1</b></a>\n          \n          <time datetime='2019-05-19T15:39:09Z' itemprop='datePublished'>\n            2019-05-19 15:39:09 UTC\n          </time>\n        </span>\n        <span itemprop='position'>#4</span>\n      </div>\n      <div class='post' itemprop='articleBody'>\n        <p>Hi Brown<br>\nI hope you don’t mind me throwing my tuppence into the mix.<br>\nIf you read a thread on this forum called “maybe misdiagnosis” you will see plenty of good people who have had their parkinsons diagnosis changed usually after be assigned to a different neurologist.<br>\nSome after as much as 12-15 years.<br>\nNow I don’t claim to be a Hercule Poirot but all of these changes have taken place after PDUK were successful in a court case to stop the DWP re-assessment of parkinsons sufferers as the condition is degenerative.<br>\nSo it’s my opinion and I must clearly state that.<br>\nThe government who don’t like it up em as they used say in dad’s army (I know I’m old)<br>\nHas changed tactics by going down the NHS route.<br>\nI speak from a position of experience as I was sent to see a new consultant who is my neurologists senior and his profile on line proudly boasts that he is CLOSELY involved with the incapacity benefits reforms.<br>\nSo I’m willing to guess that you are in England if not more specifically Oxfordshire.<br>\nI strongly stress again that this is my and only my opinion.<br>\nSo i believe fairly soon PIP will be asking you back for re-assessment in the near future.<br>\nIncidentally I took the action of confronting the unnamed neurologist accusing him of a conflict of interest and simply sacked him to the amusement of my GP.<br>\nThey just have the exact same rhetoric as you hear every Wednesday on Pmq’s that work is the best way out of poverty.<br>\nIn my history books I have seen a very similar slogan over the gates of a very infamous consentration camp.</p>\n<p>Just an observation.<br>\nTommy <img src=\"https://forum.parkinsons.org.uk/images/emoji/twitter/pill.png?v=6\" title=\":pill:\" class=\"emoji\" alt=\":pill:\"> <img src=\"https://forum.parkinsons.org.uk/images/emoji/twitter/pill.png?v=6\" title=\":pill:\" class=\"emoji\" alt=\":pill:\"> <img src=\"https://forum.parkinsons.org.uk/images/emoji/twitter/pill.png?v=6\" title=\":pill:\" class=\"emoji\" alt=\":pill:\"> ™</p>\n      </div>\n      <meta itemprop='interactionCount' content='UserLikes:0'>\n      <meta itemprop='interactionCount' content='UserComments:0'>\n      <meta itemprop='headline' content='Msa,'>\n      <hr>\n  </div>\n  <div itemscope itemtype='http://schema.org/DiscussionForumPosting'>\n      <div class='creator'>\n        <span>\n          <a href='/u/Jo-I'><b itemprop='author'>Jo-I</b></a>\n          \n          <time datetime='2019-05-19T19:51:35Z' itemprop='datePublished'>\n            2019-05-19 19:51:35 UTC\n          </time>\n        </span>\n        <span itemprop='position'>#5</span>\n      </div>\n      <div class='post' itemprop='articleBody'>\n        <p>Hi Cathy, thanks for the reply, I too suffer from severe postural hypotension, which at first they blamed the sinemet for. I also had lots of imbalance falls, one ending with a visit to A +E.<br>\nAlthough the diagnosis is not good, at least I have a reason for getting bad soon, Before i felt as if I was doing something wrong because i wasn’t coping as well as others I knew who had had PD a lot longer than me.</p>\n      </div>\n      <meta itemprop='interactionCount' content='UserLikes:0'>\n      <meta itemprop='interactionCount' content='UserComments:0'>\n      <meta itemprop='headline' content='Msa,'>\n      <hr>\n  </div>\n  <div itemscope itemtype='http://schema.org/DiscussionForumPosting'>\n      <div class='creator'>\n        <span>\n          <a href='/u/Brown'><b itemprop='author'>Brown</b></a>\n          \n          <time datetime='2019-05-19T21:48:15Z' itemprop='datePublished'>\n            2019-05-19 21:48:15 UTC\n          </time>\n        </span>\n        <span itemprop='position'>#6</span>\n      </div>\n      <div class='post' itemprop='articleBody'>\n        <p>Jo thats strange i was exactly the same as you i was at a &amp; e twice ending up.with stiches i felt it<br>\nPr and a was the sinimet myself becau5because before i started any medication my only problem was i  couldnt write and i was working full time how old are you ? And how have you progressed i hope you dont mind me asking x</p>\n      </div>\n      <meta itemprop='interactionCount' content='UserLikes:0'>\n      <meta itemprop='interactionCount' content='UserComments:1'>\n      <meta itemprop='headline' content='Msa,'>\n      <hr>\n  </div>\n  <div itemscope itemtype='http://schema.org/DiscussionForumPosting'>\n      <div class='creator'>\n        <span>\n          <a href='/u/Jo-I'><b itemprop='author'>Jo-I</b></a>\n          \n          <time datetime='2019-05-20T07:09:01Z' itemprop='datePublished'>\n            2019-05-20 07:09:01 UTC\n          </time>\n        </span>\n        <span itemprop='position'>#7</span>\n      </div>\n      <div class='post' itemprop='articleBody'>\n        <p>I too had and have problems with handwriting, I was lucky at work because we had become paperless and I could still type((slowly) I was working 30 hours p r week initially doing 12 hr shifts! I am 54 and it’s only in the last year that things have become difficult. I have difficulty walking, my legs feel like they’re burning and I have poor circulation to my feet.</p>\n      </div>\n      <meta itemprop='interactionCount' content='UserLikes:1'>\n      <meta itemprop='interactionCount' content='UserComments:1'>\n      <meta itemprop='headline' content='Msa,'>\n      <hr>\n  </div>\n  <div itemscope itemtype='http://schema.org/DiscussionForumPosting'>\n      <div class='creator'>\n        <span>\n          <a href='/u/Hubby'><b itemprop='author'>Hubby</b></a>\n          \n          <time datetime='2019-05-20T08:51:01Z' itemprop='datePublished'>\n            2019-05-20 08:51:01 UTC\n          </time>\n        </span>\n        <span itemprop='position'>#8</span>\n      </div>\n      <div class='post' itemprop='articleBody'>\n        <p>What is the difference between MSA and Parkinsons.<br>\nI have been feeling lately that my symptoms have been getting worse quicker.<br>\nYesterday I actually forgot where I was for a second or two. I was shaving at the time and it was as if I fell asleep for a couple of seconds.<br>\nVery worrying.</p>\n      </div>\n      <meta itemprop='interactionCount' content='UserLikes:0'>\n      <meta itemprop='interactionCount' content='UserComments:1'>\n      <meta itemprop='headline' content='Msa,'>\n      <hr>\n  </div>\n  <div itemscope itemtype='http://schema.org/DiscussionForumPosting'>\n      <div class='creator'>\n        <span>\n          <a href='/u/Brown'><b itemprop='author'>Brown</b></a>\n          \n          <time datetime='2019-05-20T16:28:05Z' itemprop='datePublished'>\n            2019-05-20 16:28:05 UTC\n          </time>\n        </span>\n        <span itemprop='position'>#9</span>\n      </div>\n      <div class='post' itemprop='articleBody'>\n        <p>Jo is there anywhere on this site were i can speak or send private messages</p>\n      </div>\n      <meta itemprop='interactionCount' content='UserLikes:0'>\n      <meta itemprop='interactionCount' content='UserComments:1'>\n      <meta itemprop='headline' content='Msa,'>\n      <hr>\n  </div>\n  <div itemscope itemtype='http://schema.org/DiscussionForumPosting'>\n      <div class='creator'>\n        <span>\n          <a href='/u/T1'><b itemprop='author'>T1</b></a>\n          \n          <time datetime='2019-05-20T16:58:55Z' itemprop='datePublished'>\n            2019-05-20 16:58:55 UTC\n          </time>\n        </span>\n        <span itemprop='position'>#10</span>\n      </div>\n      <div class='post' itemprop='articleBody'>\n        <p>Hi Brown<br>\nPlease excuse me being nosey but you can tell me off later however I have to warn you that I might like it. LOL <img src=\"https://forum.parkinsons.org.uk/images/emoji/twitter/joy.png?v=6\" title=\":joy:\" class=\"emoji\" alt=\":joy:\"></p>\n<p>If you touch the yellow J at the top left of Jo-1’s post it will take you to a profile and at the bottom there is a little letter symbol.<br>\nTouch on that an follow the instructions and you can can send a personal message to Jo.<br>\nThis applies to every post and you can even include anyone else whom you may want to get the same PM.<br>\nLooks harder written down but is much easier in practice.<br>\nHope this is of some assistance to you.<br>\nTommy <img src=\"https://forum.parkinsons.org.uk/images/emoji/twitter/pill.png?v=6\" title=\":pill:\" class=\"emoji\" alt=\":pill:\"> <img src=\"https://forum.parkinsons.org.uk/images/emoji/twitter/pill.png?v=6\" title=\":pill:\" class=\"emoji\" alt=\":pill:\"> <img src=\"https://forum.parkinsons.org.uk/images/emoji/twitter/pill.png?v=6\" title=\":pill:\" class=\"emoji\" alt=\":pill:\"> ™</p>\n      </div>\n      <meta itemprop='interactionCount' content='UserLikes:0'>\n      <meta itemprop='interactionCount' content='UserComments:0'>\n      <meta itemprop='headline' content='Msa,'>\n      <hr>\n  </div>\n  <div itemscope itemtype='http://schema.org/DiscussionForumPosting'>\n      <div class='creator'>\n        <span>\n          <a href='/u/Jo-I'><b itemprop='author'>Jo-I</b></a>\n          \n          <time datetime='2019-05-20T18:03:45Z' itemprop='datePublished'>\n            2019-05-20 18:03:45 UTC\n          </time>\n        </span>\n        <span itemprop='position'>#11</span>\n      </div>\n      <div class='post' itemprop='articleBody'>\n        <p>Hi hubby, sorry you are having difficulties. MSA and Parkinson’s are two completely different conditions although the symptoms are similar. If you are worried get in touch with your pd nurse or neurologist.</p>\n      </div>\n      <meta itemprop='interactionCount' content='UserLikes:0'>\n      <meta itemprop='interactionCount' content='UserComments:0'>\n      <meta itemprop='headline' content='Msa,'>\n      <hr>\n  </div>\n\n\n\n\n\n\n    </div>\n    <footer class=\"container\">\n      <nav class='crawler-nav' itemscope itemtype='http://schema.org/SiteNavigationElement'>\n        <a href='/'>Home</a>\n        <a href=\"/categories\">Categories</a>\n        <a href=\"/guidelines\">FAQ/Guidelines</a>\n        <a href=\"/tos\">Terms of Service</a>\n        <a href=\"/privacy\">Privacy Policy</a>\n      </nav>\n      <p class='powered-by-link'>Powered by <a href=\"https://www.discourse.org\">Discourse</a>, best viewed with JavaScript enabled</p>\n    </footer>\n    \n  </body>\n  \n</html>\n",
  "url": "https://forum.parkinsons.org.uk/t/msa/19312"
}