{
  "contentId": "7752b680-8863-11e9-8f96-97f71b5221d6",
  "html": "<!DOCTYPE html>\n<html lang=\"en\">\n  <head>\n    <meta charset=\"utf-8\">\n    <title>Parkinson&#39;s UK Forum</title>\n    <meta name=\"description\" content=\"Parkinson&#39;s UK Forum\">\n    <meta name=\"author\" content=\"\">\n<meta name=\"generator\" content=\"Discourse 2.2.5 - https://github.com/discourse/discourse version c294ff3609f988dcafb742e91606d60ca13b794d\">\n<link rel=\"icon\" type=\"image/png\" href=\"https://forum.parkinsons.org.uk/uploads/db7928/original/2X/3/311fc84f89f49f38601a2f16b295b6f03d3ce5dd.jpg\">\n<link rel=\"apple-touch-icon\" type=\"image/png\" href=\"https://forum.parkinsons.org.uk/uploads/db7928/original/2X/3/311fc84f89f49f38601a2f16b295b6f03d3ce5dd.jpg\">\n<meta name=\"theme-color\" content=\"#ffffff\">\n<meta name=\"viewport\" content=\"width=device-width, minimum-scale=1.0, maximum-scale=1.0, user-scalable=yes\">\n\n<script type=\"application/ld+json\">{\"@context\":\"http://schema.org\",\"@type\":\"WebSite\",\"url\":\"https://forum.parkinsons.org.uk\",\"potentialAction\":{\"@type\":\"SearchAction\",\"target\":\"https://forum.parkinsons.org.uk/search?q={search_term_string}\",\"query-input\":\"required name=search_term_string\"}}</script>\n<link rel=\"search\" type=\"application/opensearchdescription+xml\" href=\"https://forum.parkinsons.org.uk/opensearch.xml\" title=\"Parkinson&#39;s UK Forum Search\">\n\n      <link href=\"/stylesheets/desktop_f99246ae801b083d3e4cca979d0dade8615b39ac.css?__ws=forum.parkinsons.org.uk\" media=\"all\" rel=\"stylesheet\" data-target=\"desktop\" data-theme-id=\"12\"/>\n      <link href=\"/stylesheets/desktop_theme_12_5d27531cf43f9df0c03a6a6ec3109dd05f9dfc49.css?__ws=forum.parkinsons.org.uk\" media=\"all\" rel=\"stylesheet\" data-target=\"desktop_theme\" data-theme-id=\"12\"/>\n    <link href=\"https://fonts.googleapis.com/css?family=Open+Sans\" rel=\"stylesheet\">\n\n    <meta id=\"data-ga-universal-analytics\" data-tracking-code=\"UA-4855628-1\" data-json=\"{&quot;cookieDomain&quot;:&quot;auto&quot;}\" data-auto-link-domains=\"\">\n\n<link rel='preload' href='/assets/google-universal-analytics-f35b4da49411e6f5559073523aab983da483976a3954c79c756f8579f6fbd6ef.js' as='script'/>\n<script src='/assets/google-universal-analytics-f35b4da49411e6f5559073523aab983da483976a3954c79c756f8579f6fbd6ef.js'></script>\n\n      <meta property=\"og:site_name\" content=\"Parkinson&#39;s UK Forum\" />\n<meta name=\"twitter:card\" content=\"summary\" />\n<meta name=\"twitter:image\" content=\"https://forum.parkinsons.org.uk/uploads/db7928/original/2X/3/311fc84f89f49f38601a2f16b295b6f03d3ce5dd.jpg\" />\n<meta property=\"og:image\" content=\"https://forum.parkinsons.org.uk/uploads/db7928/original/2X/3/311fc84f89f49f38601a2f16b295b6f03d3ce5dd.jpg\" />\n<meta property=\"og:url\" content=\"https://forum.parkinsons.org.uk/categories\" />\n<meta name=\"twitter:url\" content=\"https://forum.parkinsons.org.uk/categories\" />\n<meta property=\"og:title\" content=\"Parkinson&#39;s UK Forum\" />\n<meta name=\"twitter:title\" content=\"Parkinson&#39;s UK Forum\" />\n<meta property=\"og:description\" content=\"Parkinson&#39;s UK Forum\" />\n<meta name=\"twitter:description\" content=\"Parkinson&#39;s UK Forum\" />\n\n\n    \n  </head>\n  <body class=\"crawler\">\n    <header role=\"banner\">\n    <div class=\"region region-header\">\n        <div class=\"region-header-wrapper\">\n            <div id=\"block-parkinsons-d8-branding\" class=\"block block-system block-system-branding-block\">\n                <a href=\"/\" title=\"Home\" rel=\"home\" class=\"site-logo\">\n                    <img src=\"https://forum.parkinsons.org.uk/uploads/db7928/original/2X/8/862bb7d172e7d127e7f3e147ec43594aa62ac945.png\" alt=\"Parkinson's UK. Change Attitudes. Find a cure. Join us.\">\n                </a>\n            </div>\n            <div id=\"block-helpline\" class=\"block block-block-content block-block-content871cd5af-b938-4947-9dc0-d5c211d08fe3 style-phone\">\n                <div class=\"field field--name-field-link field--type-link field--label-hidden field__item\"><a href=\"tel:+448088000303\">Helpline 0808 800 0303</a></div>\n            </div>\n            <div id=\"block-shop\" class=\"block block-block-content block-block-content6fba5ae5-7797-49cd-8367-f321d8111cd6 style-regular\">\n                <div class=\"field field--name-field-link field--type-link field--label-hidden field__item\"><a href=\"https://shop.parkinsons.org.uk\">Shop</a></div>\n            </div>\n        </div>\n    </div>\n</header>\n\n\n<script src=\"/theme-javascripts/b7e9763fcb584fc8265c56a9f557cd6d2e1e8ed8.js?__ws=forum.parkinsons.org.uk\"></script>\n    <header>\n      <a href=\"/\">\n          <img src=\"https://forum.parkinsons.org.uk/uploads/db7928/original/2X/8/862bb7d172e7d127e7f3e147ec43594aa62ac945.png\" alt=\"Parkinson&#39;s UK Forum\" id=\"site-logo\" style=\"max-width: 150px;\">\n      </a>\n    </header>\n    <div id=\"main-outlet\" class=\"wrap\">\n      <div class='category-list' itemscope itemtype='http://schema.org/ItemList'>\n  <meta itemprop='itemListOrder' content='http://schema.org/ItemListOrderDescending'>\n    <div class='category' itemprop='itemListElement' itemscope itemtype='http://schema.org/ListItem'>\n      <meta itemprop='position' content='0'>\n      <meta itemprop='url' content='/c/about-the-forum'>\n      <h2>\n        <a href='/c/about-the-forum' itemprop='item'>\n          <span itemprop='name'>About the forum</span>\n        </a>\n      </h2>\n      <span itemprop='description'>News about the forum and answers to your questions</span>\n    </div>\n    <div class='category' itemprop='itemListElement' itemscope itemtype='http://schema.org/ListItem'>\n      <meta itemprop='position' content='1'>\n      <meta itemprop='url' content='/c/about-me'>\n      <h2>\n        <a href='/c/about-me' itemprop='item'>\n          <span itemprop='name'>About me</span>\n        </a>\n      </h2>\n      <span itemprop='description'>Welcome! Tell us a bit about yourself</span>\n    </div>\n    <div class='category' itemprop='itemListElement' itemscope itemtype='http://schema.org/ListItem'>\n      <meta itemprop='position' content='2'>\n      <meta itemprop='url' content='/c/about-parkinsons-and-health'>\n      <h2>\n        <a href='/c/about-parkinsons-and-health' itemprop='item'>\n          <span itemprop='name'>About Parkinson&#39;s and health</span>\n        </a>\n      </h2>\n      <span itemprop='description'>Symptoms, drugs and general health</span>\n    </div>\n    <div class='category' itemprop='itemListElement' itemscope itemtype='http://schema.org/ListItem'>\n      <meta itemprop='position' content='3'>\n      <meta itemprop='url' content='/c/living-with-parkinsons'>\n      <h2>\n        <a href='/c/living-with-parkinsons' itemprop='item'>\n          <span itemprop='name'>Living with Parkinson&#39;s</span>\n        </a>\n      </h2>\n      <span itemprop='description'>Everyday life with the condition</span>\n    </div>\n    <div class='category' itemprop='itemListElement' itemscope itemtype='http://schema.org/ListItem'>\n      <meta itemprop='position' content='4'>\n      <meta itemprop='url' content='/c/taking-control'>\n      <h2>\n        <a href='/c/taking-control' itemprop='item'>\n          <span itemprop='name'>Taking Control</span>\n        </a>\n      </h2>\n      <span itemprop='description'>Ways of taking control of your life with Parkinson's. </span>\n    </div>\n    <div class='category' itemprop='itemListElement' itemscope itemtype='http://schema.org/ListItem'>\n      <meta itemprop='position' content='5'>\n      <meta itemprop='url' content='/c/research'>\n      <h2>\n        <a href='/c/research' itemprop='item'>\n          <span itemprop='name'>Research</span>\n        </a>\n      </h2>\n      <span itemprop='description'>Improving life and searching for a cure</span>\n    </div>\n    <div class='category' itemprop='itemListElement' itemscope itemtype='http://schema.org/ListItem'>\n      <meta itemprop='position' content='6'>\n      <meta itemprop='url' content='/c/social-and-creative'>\n      <h2>\n        <a href='/c/social-and-creative' itemprop='item'>\n          <span itemprop='name'>Social and creative</span>\n        </a>\n      </h2>\n      <span itemprop='description'></span>\n    </div>\n    <div class='category' itemprop='itemListElement' itemscope itemtype='http://schema.org/ListItem'>\n      <meta itemprop='position' content='7'>\n      <meta itemprop='url' content='/c/get-involved'>\n      <h2>\n        <a href='/c/get-involved' itemprop='item'>\n          <span itemprop='name'>Get involved</span>\n        </a>\n      </h2>\n      <span itemprop='description'>Get involved with the community and the charity</span>\n    </div>\n</div>\n\n\n\n\n    </div>\n    <footer class=\"container\">\n      <nav class='crawler-nav' itemscope itemtype='http://schema.org/SiteNavigationElement'>\n        <a href='/'>Home</a>\n        <a href=\"/categories\">Categories</a>\n        <a href=\"/guidelines\">FAQ/Guidelines</a>\n        <a href=\"/tos\">Terms of Service</a>\n        <a href=\"/privacy\">Privacy Policy</a>\n      </nav>\n      <p class='powered-by-link'>Powered by <a href=\"https://www.discourse.org\">Discourse</a>, best viewed with JavaScript enabled</p>\n    </footer>\n    \n  </body>\n  \n</html>\n",
  "url": "https://forum.parkinsons.org.uk/categories"
}