{
  "contentId": "89dff740-886d-11e9-8f96-97f71b5221d6",
  "html": "<!DOCTYPE html>\n<html lang=\"en\">\n  <head>\n    <meta charset=\"utf-8\">\n    <title>Diagnosed Yeesterday - Introductions and personal stories - Parkinson&#39;s UK Forum</title>\n    <meta name=\"description\" content=\"A neurologist told me yesterday “I think you have ‘mild Parkinson’s disease’”. Treatment starts next week. \nI am wondering if it is worth applying for PIP. \nI am not driving much these days but I suppose I will have to a&amp;hellip;\">\n    <meta name=\"author\" content=\"\">\n<meta name=\"generator\" content=\"Discourse 2.2.5 - https://github.com/discourse/discourse version c294ff3609f988dcafb742e91606d60ca13b794d\">\n<link rel=\"icon\" type=\"image/png\" href=\"https://forum.parkinsons.org.uk/uploads/db7928/original/2X/3/311fc84f89f49f38601a2f16b295b6f03d3ce5dd.jpg\">\n<link rel=\"apple-touch-icon\" type=\"image/png\" href=\"https://forum.parkinsons.org.uk/uploads/db7928/original/2X/3/311fc84f89f49f38601a2f16b295b6f03d3ce5dd.jpg\">\n<meta name=\"theme-color\" content=\"#ffffff\">\n<meta name=\"viewport\" content=\"width=device-width, minimum-scale=1.0, maximum-scale=1.0, user-scalable=yes\">\n<link rel=\"canonical\" href=\"https://forum.parkinsons.org.uk/t/diagnosed-yeesterday/15887\" />\n<script type=\"application/ld+json\">{\"@context\":\"http://schema.org\",\"@type\":\"WebSite\",\"url\":\"https://forum.parkinsons.org.uk\",\"potentialAction\":{\"@type\":\"SearchAction\",\"target\":\"https://forum.parkinsons.org.uk/search?q={search_term_string}\",\"query-input\":\"required name=search_term_string\"}}</script>\n<link rel=\"search\" type=\"application/opensearchdescription+xml\" href=\"https://forum.parkinsons.org.uk/opensearch.xml\" title=\"Parkinson&#39;s UK Forum Search\">\n\n      <link href=\"/stylesheets/desktop_f99246ae801b083d3e4cca979d0dade8615b39ac.css?__ws=forum.parkinsons.org.uk\" media=\"all\" rel=\"stylesheet\" data-target=\"desktop\" data-theme-id=\"12\"/>\n      <link href=\"/stylesheets/desktop_theme_12_5d27531cf43f9df0c03a6a6ec3109dd05f9dfc49.css?__ws=forum.parkinsons.org.uk\" media=\"all\" rel=\"stylesheet\" data-target=\"desktop_theme\" data-theme-id=\"12\"/>\n    <link href=\"https://fonts.googleapis.com/css?family=Open+Sans\" rel=\"stylesheet\">\n\n    <meta id=\"data-ga-universal-analytics\" data-tracking-code=\"UA-4855628-1\" data-json=\"{&quot;cookieDomain&quot;:&quot;auto&quot;}\" data-auto-link-domains=\"\">\n\n<link rel='preload' href='/assets/google-universal-analytics-f35b4da49411e6f5559073523aab983da483976a3954c79c756f8579f6fbd6ef.js' as='script'/>\n<script src='/assets/google-universal-analytics-f35b4da49411e6f5559073523aab983da483976a3954c79c756f8579f6fbd6ef.js'></script>\n\n      <link rel=\"alternate\" type=\"application/rss+xml\" title=\"RSS feed of &#39;Diagnosed Yeesterday&#39;\" href=\"https://forum.parkinsons.org.uk/t/diagnosed-yeesterday/15887.rss\" />\n  <meta property=\"og:site_name\" content=\"Parkinson&#39;s UK Forum\" />\n<meta name=\"twitter:card\" content=\"summary\" />\n<meta name=\"twitter:image\" content=\"https://forum.parkinsons.org.uk/uploads/db7928/original/2X/3/311fc84f89f49f38601a2f16b295b6f03d3ce5dd.jpg\" />\n<meta property=\"og:image\" content=\"https://forum.parkinsons.org.uk/uploads/db7928/original/2X/3/311fc84f89f49f38601a2f16b295b6f03d3ce5dd.jpg\" />\n<meta property=\"og:url\" content=\"https://forum.parkinsons.org.uk/t/diagnosed-yeesterday/15887\" />\n<meta name=\"twitter:url\" content=\"https://forum.parkinsons.org.uk/t/diagnosed-yeesterday/15887\" />\n<meta property=\"og:title\" content=\"Diagnosed Yeesterday\" />\n<meta name=\"twitter:title\" content=\"Diagnosed Yeesterday\" />\n<meta property=\"og:description\" content=\"A neurologist told me yesterday “I think you have ‘mild Parkinson’s disease’”. Treatment starts next week.  I am wondering if it is worth applying for PIP.  I am not driving much these days but I suppose I will have to advise the DVLA and my insurance company very soon.\" />\n<meta name=\"twitter:description\" content=\"A neurologist told me yesterday “I think you have ‘mild Parkinson’s disease’”. Treatment starts next week.  I am wondering if it is worth applying for PIP.  I am not driving much these days but I suppose I will have to advise the DVLA and my insurance company very soon.\" />\n<meta name=\"twitter:label1\" value=\"Reading time\" />\n<meta name=\"twitter:data1\" value=\"2 mins \uD83D\uDD51\" />\n<meta name=\"twitter:label2\" value=\"Likes\" />\n<meta name=\"twitter:data2\" value=\"2 ❤\" />\n<meta property=\"article:published_time\" content=\"2018-09-28T16:10:18+00:00\" />\n<meta property=\"og:ignore_canonical\" content=\"true\" />\n\n\n\n    \n  </head>\n  <body class=\"crawler\">\n    <header role=\"banner\">\n    <div class=\"region region-header\">\n        <div class=\"region-header-wrapper\">\n            <div id=\"block-parkinsons-d8-branding\" class=\"block block-system block-system-branding-block\">\n                <a href=\"/\" title=\"Home\" rel=\"home\" class=\"site-logo\">\n                    <img src=\"https://forum.parkinsons.org.uk/uploads/db7928/original/2X/8/862bb7d172e7d127e7f3e147ec43594aa62ac945.png\" alt=\"Parkinson's UK. Change Attitudes. Find a cure. Join us.\">\n                </a>\n            </div>\n            <div id=\"block-helpline\" class=\"block block-block-content block-block-content871cd5af-b938-4947-9dc0-d5c211d08fe3 style-phone\">\n                <div class=\"field field--name-field-link field--type-link field--label-hidden field__item\"><a href=\"tel:+448088000303\">Helpline 0808 800 0303</a></div>\n            </div>\n            <div id=\"block-shop\" class=\"block block-block-content block-block-content6fba5ae5-7797-49cd-8367-f321d8111cd6 style-regular\">\n                <div class=\"field field--name-field-link field--type-link field--label-hidden field__item\"><a href=\"https://shop.parkinsons.org.uk\">Shop</a></div>\n            </div>\n        </div>\n    </div>\n</header>\n\n\n<script src=\"/theme-javascripts/b7e9763fcb584fc8265c56a9f557cd6d2e1e8ed8.js?__ws=forum.parkinsons.org.uk\"></script>\n    <header>\n      <a href=\"/\">\n          <img src=\"https://forum.parkinsons.org.uk/uploads/db7928/original/2X/8/862bb7d172e7d127e7f3e147ec43594aa62ac945.png\" alt=\"Parkinson&#39;s UK Forum\" id=\"site-logo\" style=\"max-width: 150px;\">\n      </a>\n    </header>\n    <div id=\"main-outlet\" class=\"wrap\">\n      <h1>\n  <a href=\"/t/diagnosed-yeesterday/15887\">Diagnosed Yeesterday</a>\n</h1>\n\n<div id='breadcrumbs'>\n    <div id=\"breadcrumb-0\" itemscope itemtype=\"http://data-vocabulary.org/Breadcrumb\"\n        itemref=\"breadcrumb-1\"\n      >\n      <a href=\"/c/about-me\" itemprop=\"url\">\n        <span itemprop=\"title\">About me</span>\n      </a>\n    </div>\n    <div id=\"breadcrumb-1\" itemscope itemtype=\"http://data-vocabulary.org/Breadcrumb\"\n>\n      <a href=\"/c/about-me/introductions-and-personal-stories\" itemprop=\"url\">\n        <span itemprop=\"title\">Introductions and personal stories</span>\n      </a>\n    </div>\n</div>\n\n\n\n\n\n<hr>\n\n\n  <div itemscope itemtype='http://schema.org/DiscussionForumPosting'>\n      <div class='creator'>\n        <span>\n          <a href='/u/Justthisguy'><b itemprop='author'>Justthisguy</b></a>\n          \n          <time datetime='2018-09-28T16:10:18Z' itemprop='datePublished'>\n            2018-09-28 16:10:18 UTC\n          </time>\n        </span>\n        <span itemprop='position'>#1</span>\n      </div>\n      <div class='post' itemprop='articleBody'>\n        <p>A neurologist told me yesterday “I think you have ‘mild Parkinson’s disease’”. Treatment starts next week.</p>\n<p>I am wondering if it is worth applying for PIP.</p>\n<p>I am not driving much these days but I suppose I will have to advise the DVLA and my insurance company very soon.</p>\n      </div>\n      <meta itemprop='interactionCount' content='UserLikes:1'>\n      <meta itemprop='interactionCount' content='UserComments:0'>\n      <meta itemprop='headline' content='Diagnosed Yeesterday'>\n      <hr>\n  </div>\n  <div itemscope itemtype='http://schema.org/DiscussionForumPosting'>\n      <div class='creator'>\n        <span>\n          <a href='/u/Moderators2'><b itemprop='author'>Moderators2</b></a>\n          \n          <time datetime='2018-09-28T21:53:42Z' itemprop='datePublished'>\n            2018-09-28 21:53:42 UTC\n          </time>\n        </span>\n        <span itemprop='position'>#2</span>\n      </div>\n      <div class='post' itemprop='articleBody'>\n        <p>Hi Justthisguy,</p>\n<p>So sorry to hear about your diagnosis. It’s a lot to come to terms with, and it may help you to take a look at our website, where you can find lots of info and advice for the newly diagnosed: <a href=\"https://www.parkinsons.org.uk/information-and-support/newly-diagnosed-parkinsons\">https://www.parkinsons.org.uk/information-and-support/newly-diagnosed-parkinsons</a>.</p>\n<p>We also have a ‘Work, money, driving and legal’ section, with lots of useful information on those key areas: <a href=\"https://www.parkinsons.org.uk/information-and-support/work-money-driving-and-legal\">https://www.parkinsons.org.uk/information-and-support/work-money-driving-and-legal</a>.</p>\n<p>You can also call our Helpline free of charge on <strong>0808 800 0303</strong>. They’re open Monday-Friday from 9am-7pm, and Saturday from 10am-2pm.</p>\n<p>Hope this helps.</p>\n<p>Best wishes,</p>\n<p>Owen,<br>\nModeration team</p>\n      </div>\n      <meta itemprop='interactionCount' content='UserLikes:0'>\n      <meta itemprop='interactionCount' content='UserComments:0'>\n      <meta itemprop='headline' content='Diagnosed Yeesterday'>\n      <hr>\n  </div>\n  <div itemscope itemtype='http://schema.org/DiscussionForumPosting'>\n      <div class='creator'>\n        <span>\n          <a href='/u/Justthisguy'><b itemprop='author'>Justthisguy</b></a>\n          \n          <time datetime='2018-09-30T21:31:34Z' itemprop='datePublished'>\n            2018-09-30 21:31:34 UTC\n          </time>\n        </span>\n        <span itemprop='position'>#3</span>\n      </div>\n      <div class='post' itemprop='articleBody'>\n        <p>I tried contacting DVLA online but I do not have a photo ID. The option to print a form does not suit as I do not have a printer. I will phone them tomorrow. Thanks</p>\n      </div>\n      <meta itemprop='interactionCount' content='UserLikes:0'>\n      <meta itemprop='interactionCount' content='UserComments:0'>\n      <meta itemprop='headline' content='Diagnosed Yeesterday'>\n      <hr>\n  </div>\n  <div itemscope itemtype='http://schema.org/DiscussionForumPosting'>\n      <div class='creator'>\n        <span>\n          <a href='/u/Tam64'><b itemprop='author'>Tam64</b></a>\n          \n          <time datetime='2018-10-01T16:42:39Z' itemprop='datePublished'>\n            2018-10-01 16:42:39 UTC\n          </time>\n        </span>\n        <span itemprop='position'>#4</span>\n      </div>\n      <div class='post' itemprop='articleBody'>\n        <p>I was sorry to hear that you have been diagnosed with mild PD. Re driving I  was told to inform the DVLA straight away that I had a diagnosis of Parkinson’s Disease and to inform my insurers. My consultant said I was ok to drive. The DVLA sent out a form for me to fill in re my symptoms and contact details of my consultant etc. They asked for me to send my license back and I now have a medical driving license that is to be reassessed every three years. I informed my insurers and there was no problem keeping them informed. At no stage could I not drive. I haven’t claimed for PIP so can’t help you there. Hope you get it sorted.</p>\n      </div>\n      <meta itemprop='interactionCount' content='UserLikes:0'>\n      <meta itemprop='interactionCount' content='UserComments:0'>\n      <meta itemprop='headline' content='Diagnosed Yeesterday'>\n      <hr>\n  </div>\n  <div itemscope itemtype='http://schema.org/DiscussionForumPosting'>\n      <div class='creator'>\n        <span>\n          <a href='/u/Wag'><b itemprop='author'>Wag</b></a>\n          \n          <time datetime='2018-10-01T16:59:32Z' itemprop='datePublished'>\n            2018-10-01 16:59:32 UTC\n          </time>\n        </span>\n        <span itemprop='position'>#5</span>\n      </div>\n      <div class='post' itemprop='articleBody'>\n        <p>I got diagnosed in January,the neurologist to me to contact the dvla asap,send a photo in to them with the form they send you,I did it that way because like you I didn’t have a photo I’d either,I too applied for pip,and got the full rate,bye.</p>\n      </div>\n      <meta itemprop='interactionCount' content='UserLikes:0'>\n      <meta itemprop='interactionCount' content='UserComments:0'>\n      <meta itemprop='headline' content='Diagnosed Yeesterday'>\n      <hr>\n  </div>\n  <div itemscope itemtype='http://schema.org/DiscussionForumPosting'>\n      <div class='creator'>\n        <span>\n          <a href='/u/Justthisguy'><b itemprop='author'>Justthisguy</b></a>\n          \n          <time datetime='2018-10-02T20:20:09Z' itemprop='datePublished'>\n            2018-10-02 20:20:09 UTC\n          </time>\n        </span>\n        <span itemprop='position'>#6</span>\n      </div>\n      <div class='post' itemprop='articleBody'>\n        <p>Thanks to everyone who responded.</p>\n<p>I saw a neurologist on Thursday. The NHS waiting list was to see a neurologist (Gareth) was 6 months so I went private. It wasn’t cheap but I needed a diagnosis.</p>\n<p>Gareth seemed very nice and he advised me that my condition could be controlled. He said he would send a letter to my GP and that I should phone my GP on Monday to check if there was a prescription ready.</p>\n<p>I phoned my GP Monday morning and they had not heard from Gareth. I phoned Gareth’s secretary at 11:45 but could only leave a message on her answering machine as she had the day off.</p>\n<p>I phoned my GP Monday afternoon and they had not heard from Gareth.</p>\n<p>I phoned Gareth’s secretary this morning (Tuesday) and she said “There’s no rush for you to start treatment. When Gareth has written the letter I will type it out and phone you and perhaps I could drop a copy off.”</p>\n      </div>\n      <meta itemprop='interactionCount' content='UserLikes:0'>\n      <meta itemprop='interactionCount' content='UserComments:2'>\n      <meta itemprop='headline' content='Diagnosed Yeesterday'>\n      <hr>\n  </div>\n  <div itemscope itemtype='http://schema.org/DiscussionForumPosting'>\n      <div class='creator'>\n        <span>\n          <a href='/u/Justthisguy'><b itemprop='author'>Justthisguy</b></a>\n          \n          <time datetime='2018-10-03T08:17:17Z' itemprop='datePublished'>\n            2018-10-03 08:17:17 UTC\n          </time>\n        </span>\n        <span itemprop='position'>#8</span>\n      </div>\n      <div class='post' itemprop='articleBody'>\n        <p>Sorry if that sounds like a rant - I was just wondering if anyone had similar experience</p>\n      </div>\n      <meta itemprop='interactionCount' content='UserLikes:0'>\n      <meta itemprop='interactionCount' content='UserComments:1'>\n      <meta itemprop='headline' content='Diagnosed Yeesterday'>\n      <hr>\n  </div>\n  <div itemscope itemtype='http://schema.org/DiscussionForumPosting'>\n      <div class='creator'>\n        <span>\n          <a href='/u/Justthisguy'><b itemprop='author'>Justthisguy</b></a>\n          \n          <time datetime='2018-10-03T12:08:44Z' itemprop='datePublished'>\n            2018-10-03 12:08:44 UTC\n          </time>\n        </span>\n        <span itemprop='position'>#9</span>\n      </div>\n      <div class='post' itemprop='articleBody'>\n        <p>Update:<br>\nThe neurologist’s secretary phoned this morning to advise that she has posted a copy of the letter but I could call to collect a copy. So I drove round to Cyncoed Consulting and picked up a copy of the letter and drove to my GP. I handed it to the receptionist and said “This is a copy of a letter which has been posted to you but I brought it straight round as it recommends treatment.”</p>\n<p>She said “It will take 48 hours.”</p>\n<p>I smiled and said “I’ll be in touch.”</p>\n<p>She said a couple of times “it will be ready after two Friday.”</p>\n      </div>\n      <meta itemprop='interactionCount' content='UserLikes:1'>\n      <meta itemprop='interactionCount' content='UserComments:1'>\n      <meta itemprop='headline' content='Diagnosed Yeesterday'>\n      <hr>\n  </div>\n  <div itemscope itemtype='http://schema.org/DiscussionForumPosting'>\n      <div class='creator'>\n        <span>\n          <a href='/u/Justthisguy'><b itemprop='author'>Justthisguy</b></a>\n          \n          <time datetime='2018-10-04T13:07:55Z' itemprop='datePublished'>\n            2018-10-04 13:07:55 UTC\n          </time>\n        </span>\n        <span itemprop='position'>#10</span>\n      </div>\n      <div class='post' itemprop='articleBody'>\n        <p>Sorry if anyone is fed up of all these updates (or if I should be posting them somewhere else) but I chases up my prescription and I am on my new medication but a bit shocked at the possible side effects of Selegiline –besides having to go teetotal</p>\n      </div>\n      <meta itemprop='interactionCount' content='UserLikes:0'>\n      <meta itemprop='interactionCount' content='UserComments:0'>\n      <meta itemprop='headline' content='Diagnosed Yeesterday'>\n      <hr>\n  </div>\n  <div itemscope itemtype='http://schema.org/DiscussionForumPosting'>\n      <div class='creator'>\n        <span>\n          <a href='/u/sheffy'><b itemprop='author'>sheffy</b></a>\n          \n          <time datetime='2018-10-07T06:10:34Z' itemprop='datePublished'>\n            2018-10-07 06:10:34 UTC\n          </time>\n        </span>\n        <span itemprop='position'>#11</span>\n      </div>\n      <div class='post' itemprop='articleBody'>\n        <p>Hi Justthisguy, Glad you got sorted eventually, wherever you go things never seem to be ‘urgent’ to anyone else but you, and coming to terms with being diagnosed with Parkinsons things don’t work over night. I can’t comment on the meds you have been prescribed, I’m on different meds. Hope you get on with them, if not get back to the  or Parkinsons nurse if you have been signed up to one, don’t suffer in silence.</p>\n<p>Take care and welcome to the forum - sheffy</p>\n      </div>\n      <meta itemprop='interactionCount' content='UserLikes:0'>\n      <meta itemprop='interactionCount' content='UserComments:1'>\n      <meta itemprop='headline' content='Diagnosed Yeesterday'>\n      <hr>\n  </div>\n  <div itemscope itemtype='http://schema.org/DiscussionForumPosting'>\n      <div class='creator'>\n        <span>\n          <a href='/u/Justthisguy'><b itemprop='author'>Justthisguy</b></a>\n          \n          <time datetime='2018-10-07T11:08:05Z' itemprop='datePublished'>\n            2018-10-07 11:08:05 UTC\n          </time>\n        </span>\n        <span itemprop='position'>#12</span>\n      </div>\n      <div class='post' itemprop='articleBody'>\n        <p>Thanks. Very best wishes</p>\n      </div>\n      <meta itemprop='interactionCount' content='UserLikes:0'>\n      <meta itemprop='interactionCount' content='UserComments:0'>\n      <meta itemprop='headline' content='Diagnosed Yeesterday'>\n      <hr>\n  </div>\n  <div itemscope itemtype='http://schema.org/DiscussionForumPosting'>\n      <div class='creator'>\n        <span>\n          <a href='/u/Wag'><b itemprop='author'>Wag</b></a>\n          \n          <time datetime='2019-01-29T22:21:13Z' itemprop='datePublished'>\n            2019-01-29 22:21:13 UTC\n          </time>\n        </span>\n        <span itemprop='position'>#13</span>\n      </div>\n      <div class='post' itemprop='articleBody'>\n        <p>Been took for a ride by a conman ,don’t trust anybody,who charges the earth,he’s only thinking of your bank balance,chase him up and get your money back,it’s a lot cheaper to wait your turn for  a PD nurse.bye.</p>\n      </div>\n      <meta itemprop='interactionCount' content='UserLikes:0'>\n      <meta itemprop='interactionCount' content='UserComments:1'>\n      <meta itemprop='headline' content='Diagnosed Yeesterday'>\n      <hr>\n  </div>\n  <div itemscope itemtype='http://schema.org/DiscussionForumPosting'>\n      <div class='creator'>\n        <span>\n          <a href='/u/Reah'><b itemprop='author'>Reah</b></a>\n          \n          <time datetime='2019-01-30T12:18:30Z' itemprop='datePublished'>\n            2019-01-30 12:18:30 UTC\n          </time>\n        </span>\n        <span itemprop='position'>#14</span>\n      </div>\n      <div class='post' itemprop='articleBody'>\n        <p>Hi <a class=\"mention\" href=\"/u/wag\">@Wag</a>,</p>\n<p>It’s great to see you showing some moral support. You may have misread the thread as it appears that Justthisguy’s prescription situation has been resolved. However, it sounds like you may have had a bad experience with a private doctor which is unfortunate.</p>\n<p>If you’d like to speak to someone about this or get advice on how to avoid a situation with a GP where you may be disappointment with their service, please speak to one of our advisers via our helpline on 0808 800 0303. If you haven’t done so already, you may also find it helpful to speak to a local adviser so that you are getting as much support as possible, you can find your local one here - <a href=\"https://www.parkinsons.org.uk/information-and-support/helpline-and-local-advisers\">https://www.parkinsons.org.uk/information-and-support/helpline-and-local-advisers</a></p>\n<p>We’re here to support you so please let me know if you find this information helpful.</p>\n<p>Best wishes,<br>\nReah</p>\n      </div>\n      <meta itemprop='interactionCount' content='UserLikes:0'>\n      <meta itemprop='interactionCount' content='UserComments:1'>\n      <meta itemprop='headline' content='Diagnosed Yeesterday'>\n      <hr>\n  </div>\n  <div itemscope itemtype='http://schema.org/DiscussionForumPosting'>\n      <div class='creator'>\n        <span>\n          <a href='/u/Wag'><b itemprop='author'>Wag</b></a>\n          \n          <time datetime='2019-01-30T12:40:46Z' itemprop='datePublished'>\n            2019-01-30 12:40:46 UTC\n          </time>\n        </span>\n        <span itemprop='position'>#15</span>\n      </div>\n      <div class='post' itemprop='articleBody'>\n        <p>Hello,reach,yesterday the Parkinson’s nurse phoned me to say that the Pramipexole can now be stopped and start on the co beneldopar,which zi’vr done,and last night I had the best night’s sleep ever since I was diagnosed last January,then today she phoned me to find out what I was like last night,she seemed very pleased,!and also she’s got me an appointment to see the PD doctor on 12,02,as regards to the good night’s sleep I also bought one of those Revit I’ve circulation boosters and that worked  but up to yet I’m not counting my chicken,I’ll let you know in a fortnight’s time to let you know how things are then,after the tablets have kicked in again,bye.</p>\n      </div>\n      <meta itemprop='interactionCount' content='UserLikes:0'>\n      <meta itemprop='interactionCount' content='UserComments:0'>\n      <meta itemprop='headline' content='Diagnosed Yeesterday'>\n      <hr>\n  </div>\n  <div itemscope itemtype='http://schema.org/DiscussionForumPosting'>\n      <div class='creator'>\n        <span>\n          <a href='/u/Reah'><b itemprop='author'>Reah</b></a>\n          \n          <time datetime='2019-01-30T13:25:59Z' itemprop='datePublished'>\n            2019-01-30 13:25:59 UTC\n          </time>\n        </span>\n        <span itemprop='position'>#16</span>\n      </div>\n      <div class='post' itemprop='articleBody'>\n        <p>Hi <a class=\"mention\" href=\"/u/wag\">@Wag</a>,</p>\n<p>It’s amazing what a good night’s sleep can do! <img src=\"https://forum.parkinsons.org.uk/images/emoji/twitter/blush.png?v=6\" title=\":blush:\" class=\"emoji\" alt=\":blush:\"></p>\n<p>I’m glad you were able to speak to a Parkinson’s nurse and have already seen some improvements in your health since you’ve been prescribed your medication. Do take care.</p>\n<p>Best wishes,<br>\nReah</p>\n      </div>\n      <meta itemprop='interactionCount' content='UserLikes:0'>\n      <meta itemprop='interactionCount' content='UserComments:1'>\n      <meta itemprop='headline' content='Diagnosed Yeesterday'>\n      <hr>\n  </div>\n  <div itemscope itemtype='http://schema.org/DiscussionForumPosting'>\n      <div class='creator'>\n        <span>\n          <a href='/u/Wag'><b itemprop='author'>Wag</b></a>\n          \n          <time datetime='2019-01-30T15:36:00Z' itemprop='datePublished'>\n            2019-01-30 15:36:00 UTC\n          </time>\n        </span>\n        <span itemprop='position'>#17</span>\n      </div>\n      <div class='post' itemprop='articleBody'>\n        <p>Hello again ,thank you,bye.</p>\n      </div>\n      <meta itemprop='interactionCount' content='UserLikes:0'>\n      <meta itemprop='interactionCount' content='UserComments:0'>\n      <meta itemprop='headline' content='Diagnosed Yeesterday'>\n      <hr>\n  </div>\n  <div itemscope itemtype='http://schema.org/DiscussionForumPosting'>\n      <div class='creator'>\n        <span>\n          <a href='/u/Wag'><b itemprop='author'>Wag</b></a>\n          \n          <time datetime='2019-02-11T14:36:55Z' itemprop='datePublished'>\n            2019-02-11 14:36:55 UTC\n          </time>\n        </span>\n        <span itemprop='position'>#18</span>\n      </div>\n      <div class='post' itemprop='articleBody'>\n        <p>Hello reah,I said I’d let you know how I went on at my consultant s appointment,I asked him how he came to the conclusion about me having Parkinson’s Disease,and my wife wascthere too,he asked how long I’d had PD and I said  you should know your the expert,and then I went on about not being able to sleep since he put me on Madoparthen I asked him if I’d been wrongly diagnosed ,he looked puzzled when I told him how bad the Madopar had made me,he said I look really well ,so my wife asked him if I could come off of the of medications,he said I can come off of them for 3 months to see if I get the tremors back,and he’ll see me again in 3 months time,what he said sounds promising slightly as he hinted that I may not have PD after all if I’m ok without meds for 3 months,I know it’s not time to rejoice yet but hopefully I can get some sleep now and feel better once I’ve weaned off Madopar,let’s hope I don’t have PD,what do you wrecking?bye for now,I’ll let you know how I got on in 3 month’s time bye.</p>\n      </div>\n      <meta itemprop='interactionCount' content='UserLikes:0'>\n      <meta itemprop='interactionCount' content='UserComments:0'>\n      <meta itemprop='headline' content='Diagnosed Yeesterday'>\n      <hr>\n  </div>\n  <div itemscope itemtype='http://schema.org/DiscussionForumPosting'>\n      <div class='creator'>\n        <span>\n          <a href='/u/Reah'><b itemprop='author'>Reah</b></a>\n          \n          <time datetime='2019-02-11T15:43:26Z' itemprop='datePublished'>\n            2019-02-11 15:43:26 UTC\n          </time>\n        </span>\n        <span itemprop='position'>#19</span>\n      </div>\n      <div class='post' itemprop='articleBody'>\n        <p>Hi Wag,</p>\n<p>Thanks for the update, I agree this does sound promising but I guess we’ll know for sure in 3 months time. In there’s anything we can support you on in the interim, please let me know.</p>\n<p>Best wishes,<br>\nReah</p>\n      </div>\n      <meta itemprop='interactionCount' content='UserLikes:0'>\n      <meta itemprop='interactionCount' content='UserComments:1'>\n      <meta itemprop='headline' content='Diagnosed Yeesterday'>\n      <hr>\n  </div>\n  <div itemscope itemtype='http://schema.org/DiscussionForumPosting'>\n      <div class='creator'>\n        <span>\n          <a href='/u/Wag'><b itemprop='author'>Wag</b></a>\n          \n          <time datetime='2019-03-02T22:35:03Z' itemprop='datePublished'>\n            2019-03-02 22:35:03 UTC\n          </time>\n        </span>\n        <span itemprop='position'>#20</span>\n      </div>\n      <div class='post' itemprop='articleBody'>\n        <p>Will do ,bye.</p>\n      </div>\n      <meta itemprop='interactionCount' content='UserLikes:0'>\n      <meta itemprop='interactionCount' content='UserComments:0'>\n      <meta itemprop='headline' content='Diagnosed Yeesterday'>\n      <hr>\n  </div>\n\n\n\n\n\n\n    </div>\n    <footer class=\"container\">\n      <nav class='crawler-nav' itemscope itemtype='http://schema.org/SiteNavigationElement'>\n        <a href='/'>Home</a>\n        <a href=\"/categories\">Categories</a>\n        <a href=\"/guidelines\">FAQ/Guidelines</a>\n        <a href=\"/tos\">Terms of Service</a>\n        <a href=\"/privacy\">Privacy Policy</a>\n      </nav>\n      <p class='powered-by-link'>Powered by <a href=\"https://www.discourse.org\">Discourse</a>, best viewed with JavaScript enabled</p>\n    </footer>\n    \n  </body>\n  \n</html>\n",
  "url": "https://forum.parkinsons.org.uk/t/diagnosed-yeesterday/15887"
}