{
  "contentId": "71e07d10-8866-11e9-8f96-97f71b5221d6",
  "html": "<!DOCTYPE html>\n<html lang=\"en\">\n  <head>\n    <meta charset=\"utf-8\">\n    <title>Gdnf trial - Research discussion - Parkinson&#39;s UK Forum</title>\n    <meta name=\"description\" content=\"Does anyone know if they still want people for GDNF trial, and if so how do I appy?\">\n    <meta name=\"author\" content=\"\">\n<meta name=\"generator\" content=\"Discourse 2.2.5 - https://github.com/discourse/discourse version c294ff3609f988dcafb742e91606d60ca13b794d\">\n<link rel=\"icon\" type=\"image/png\" href=\"https://forum.parkinsons.org.uk/uploads/db7928/original/2X/3/311fc84f89f49f38601a2f16b295b6f03d3ce5dd.jpg\">\n<link rel=\"apple-touch-icon\" type=\"image/png\" href=\"https://forum.parkinsons.org.uk/uploads/db7928/original/2X/3/311fc84f89f49f38601a2f16b295b6f03d3ce5dd.jpg\">\n<meta name=\"theme-color\" content=\"#ffffff\">\n<meta name=\"viewport\" content=\"width=device-width, minimum-scale=1.0, maximum-scale=1.0, user-scalable=yes\">\n<link rel=\"canonical\" href=\"https://forum.parkinsons.org.uk/t/gdnf-trial/10323\" />\n<script type=\"application/ld+json\">{\"@context\":\"http://schema.org\",\"@type\":\"WebSite\",\"url\":\"https://forum.parkinsons.org.uk\",\"potentialAction\":{\"@type\":\"SearchAction\",\"target\":\"https://forum.parkinsons.org.uk/search?q={search_term_string}\",\"query-input\":\"required name=search_term_string\"}}</script>\n<link rel=\"search\" type=\"application/opensearchdescription+xml\" href=\"https://forum.parkinsons.org.uk/opensearch.xml\" title=\"Parkinson&#39;s UK Forum Search\">\n\n      <link href=\"/stylesheets/desktop_f99246ae801b083d3e4cca979d0dade8615b39ac.css?__ws=forum.parkinsons.org.uk\" media=\"all\" rel=\"stylesheet\" data-target=\"desktop\" data-theme-id=\"12\"/>\n      <link href=\"/stylesheets/desktop_theme_12_5d27531cf43f9df0c03a6a6ec3109dd05f9dfc49.css?__ws=forum.parkinsons.org.uk\" media=\"all\" rel=\"stylesheet\" data-target=\"desktop_theme\" data-theme-id=\"12\"/>\n    <link href=\"https://fonts.googleapis.com/css?family=Open+Sans\" rel=\"stylesheet\">\n\n    <meta id=\"data-ga-universal-analytics\" data-tracking-code=\"UA-4855628-1\" data-json=\"{&quot;cookieDomain&quot;:&quot;auto&quot;}\" data-auto-link-domains=\"\">\n\n<link rel='preload' href='/assets/google-universal-analytics-f35b4da49411e6f5559073523aab983da483976a3954c79c756f8579f6fbd6ef.js' as='script'/>\n<script src='/assets/google-universal-analytics-f35b4da49411e6f5559073523aab983da483976a3954c79c756f8579f6fbd6ef.js'></script>\n\n      <link rel=\"alternate\" type=\"application/rss+xml\" title=\"RSS feed of &#39;Gdnf trial&#39;\" href=\"https://forum.parkinsons.org.uk/t/gdnf-trial/10323.rss\" />\n  <meta property=\"og:site_name\" content=\"Parkinson&#39;s UK Forum\" />\n<meta name=\"twitter:card\" content=\"summary\" />\n<meta name=\"twitter:image\" content=\"https://forum.parkinsons.org.uk/uploads/db7928/original/2X/3/311fc84f89f49f38601a2f16b295b6f03d3ce5dd.jpg\" />\n<meta property=\"og:image\" content=\"https://forum.parkinsons.org.uk/uploads/db7928/original/2X/3/311fc84f89f49f38601a2f16b295b6f03d3ce5dd.jpg\" />\n<meta property=\"og:url\" content=\"https://forum.parkinsons.org.uk/t/gdnf-trial/10323\" />\n<meta name=\"twitter:url\" content=\"https://forum.parkinsons.org.uk/t/gdnf-trial/10323\" />\n<meta property=\"og:title\" content=\"Gdnf trial\" />\n<meta name=\"twitter:title\" content=\"Gdnf trial\" />\n<meta property=\"og:description\" content=\"Does anyone know if they still want people for GDNF trial, and if so how do I appy?\" />\n<meta name=\"twitter:description\" content=\"Does anyone know if they still want people for GDNF trial, and if so how do I appy?\" />\n<meta property=\"article:published_time\" content=\"2018-01-06T10:00:33+00:00\" />\n<meta property=\"og:ignore_canonical\" content=\"true\" />\n\n\n\n    \n  </head>\n  <body class=\"crawler\">\n    <header role=\"banner\">\n    <div class=\"region region-header\">\n        <div class=\"region-header-wrapper\">\n            <div id=\"block-parkinsons-d8-branding\" class=\"block block-system block-system-branding-block\">\n                <a href=\"/\" title=\"Home\" rel=\"home\" class=\"site-logo\">\n                    <img src=\"https://forum.parkinsons.org.uk/uploads/db7928/original/2X/8/862bb7d172e7d127e7f3e147ec43594aa62ac945.png\" alt=\"Parkinson's UK. Change Attitudes. Find a cure. Join us.\">\n                </a>\n            </div>\n            <div id=\"block-helpline\" class=\"block block-block-content block-block-content871cd5af-b938-4947-9dc0-d5c211d08fe3 style-phone\">\n                <div class=\"field field--name-field-link field--type-link field--label-hidden field__item\"><a href=\"tel:+448088000303\">Helpline 0808 800 0303</a></div>\n            </div>\n            <div id=\"block-shop\" class=\"block block-block-content block-block-content6fba5ae5-7797-49cd-8367-f321d8111cd6 style-regular\">\n                <div class=\"field field--name-field-link field--type-link field--label-hidden field__item\"><a href=\"https://shop.parkinsons.org.uk\">Shop</a></div>\n            </div>\n        </div>\n    </div>\n</header>\n\n\n<script src=\"/theme-javascripts/b7e9763fcb584fc8265c56a9f557cd6d2e1e8ed8.js?__ws=forum.parkinsons.org.uk\"></script>\n    <header>\n      <a href=\"/\">\n          <img src=\"https://forum.parkinsons.org.uk/uploads/db7928/original/2X/8/862bb7d172e7d127e7f3e147ec43594aa62ac945.png\" alt=\"Parkinson&#39;s UK Forum\" id=\"site-logo\" style=\"max-width: 150px;\">\n      </a>\n    </header>\n    <div id=\"main-outlet\" class=\"wrap\">\n      <h1>\n  <a href=\"/t/gdnf-trial/10323\">Gdnf trial</a>\n</h1>\n\n<div id='breadcrumbs'>\n    <div id=\"breadcrumb-0\" itemscope itemtype=\"http://data-vocabulary.org/Breadcrumb\"\n        itemref=\"breadcrumb-1\"\n      >\n      <a href=\"/c/research\" itemprop=\"url\">\n        <span itemprop=\"title\">Research</span>\n      </a>\n    </div>\n    <div id=\"breadcrumb-1\" itemscope itemtype=\"http://data-vocabulary.org/Breadcrumb\"\n>\n      <a href=\"/c/research/research-discussion\" itemprop=\"url\">\n        <span itemprop=\"title\">Research discussion</span>\n      </a>\n    </div>\n</div>\n\n\n\n\n\n<hr>\n\n\n  <div itemscope itemtype='http://schema.org/DiscussionForumPosting'>\n      <div class='creator'>\n        <span>\n          <a href='/u/LittleMixWorry'><b itemprop='author'>LittleMixWorry</b></a>\n          \n          <time datetime='2018-01-06T10:00:33Z' itemprop='datePublished'>\n            2018-01-06 10:00:33 UTC\n          </time>\n        </span>\n        <span itemprop='position'>#1</span>\n      </div>\n      <div class='post' itemprop='articleBody'>\n        <p>Does anyone know if they still want people for GDNF trial, and if so how do I appy?</p>\n      </div>\n      <meta itemprop='interactionCount' content='UserLikes:0'>\n      <meta itemprop='interactionCount' content='UserComments:0'>\n      <meta itemprop='headline' content='Gdnf trial'>\n      <hr>\n  </div>\n  <div itemscope itemtype='http://schema.org/DiscussionForumPosting'>\n      <div class='creator'>\n        <span>\n          <a href='/u/Moderators2'><b itemprop='author'>Moderators2</b></a>\n          \n          <time datetime='2018-01-06T11:20:04Z' itemprop='datePublished'>\n            2018-01-06 11:20:04 UTC\n          </time>\n        </span>\n        <span itemprop='position'>#2</span>\n      </div>\n      <div class='post' itemprop='articleBody'>\n        <p>Hi Pdiddy,</p>\r\n<p>The clinical trial of GDNF has been completed. You can find out more about it here: <a href=\"https://www.parkinsons.org.uk/research/clinical-trial-gdnf\" target=\"_blank\">https://www.parkinsons.org.uk/research/clinical-trial-gdnf</a>. If you&#39;re interested in other research there&#39;s some general information about taking part at:&nbsp;<a href=\"https://www.parkinsons.org.uk/research/get-involved-research\" target=\"_blank\">https://www.parkinsons.org.uk/research/get-involved-research</a>.</p>\r\n<p>Best wishes,</p>\r\n<p>Edwina</p>\r\n<p>Moderation Team</p>\n      </div>\n      <meta itemprop='interactionCount' content='UserLikes:0'>\n      <meta itemprop='interactionCount' content='UserComments:1'>\n      <meta itemprop='headline' content='Gdnf trial'>\n      <hr>\n  </div>\n  <div itemscope itemtype='http://schema.org/DiscussionForumPosting'>\n      <div class='creator'>\n        <span>\n          <a href='/u/Mister_X'><b itemprop='author'>Mister_X</b></a>\n          \n          <time datetime='2018-01-11T10:50:37Z' itemprop='datePublished'>\n            2018-01-11 10:50:37 UTC\n          </time>\n        </span>\n        <span itemprop='position'>#3</span>\n      </div>\n      <div class='post' itemprop='articleBody'>\n        <p>I am very sceptical about these trials with neurotrophic factors. I read years ago that they don't work because the clumped alpha-synuclein interfere in the regeneration process of neurons. I have the same scepticism when it comes to beta amyloid removal being the cure for Alzheimer. I have read decades of research proving that beta amyloid removal is not the way to go but for some weird reason the scientific community keeps focusing on beta amyloid removal. In the meanwhile, tau removal seems to look more promising but it almost doesn't get any attention.</p>\n      </div>\n      <meta itemprop='interactionCount' content='UserLikes:0'>\n      <meta itemprop='interactionCount' content='UserComments:1'>\n      <meta itemprop='headline' content='Gdnf trial'>\n      <hr>\n  </div>\n  <div itemscope itemtype='http://schema.org/DiscussionForumPosting'>\n      <div class='creator'>\n        <span>\n          <a href='/u/Dave333'><b itemprop='author'>Dave333</b></a>\n          \n          <time datetime='2018-03-02T08:14:31Z' itemprop='datePublished'>\n            2018-03-02 08:14:31 UTC\n          </time>\n        </span>\n        <span itemprop='position'>#4</span>\n      </div>\n      <div class='post' itemprop='articleBody'>\n        <p>Hi all, have the results of the Bristol GDNF trial been announced yet? There were mutterings about a TV documentary as well but it seems to have gone all quiet.</p>\n<p>Thanks,</p>\n<p>Dave.</p>\n      </div>\n      <meta itemprop='interactionCount' content='UserLikes:0'>\n      <meta itemprop='interactionCount' content='UserComments:0'>\n      <meta itemprop='headline' content='Gdnf trial'>\n      <hr>\n  </div>\n  <div itemscope itemtype='http://schema.org/DiscussionForumPosting'>\n      <div class='creator'>\n        <span>\n          <a href='/u/PeterC'><b itemprop='author'>PeterC</b></a>\n          \n          <time datetime='2018-03-02T12:07:07Z' itemprop='datePublished'>\n            2018-03-02 12:07:07 UTC\n          </time>\n        </span>\n        <span itemprop='position'>#5</span>\n      </div>\n      <div class='post' itemprop='articleBody'>\n        <p>Without addressing neurones’ oxidative stress,aged and leaky mitochondria, calcium overload, and the contribution aggregated synuclein makes to all those, and inflammation, the expectation that a growth factor will improve neuronal function seems to me to be on a hiding to nothing.</p>\n      </div>\n      <meta itemprop='interactionCount' content='UserLikes:0'>\n      <meta itemprop='interactionCount' content='UserComments:0'>\n      <meta itemprop='headline' content='Gdnf trial'>\n      <hr>\n  </div>\n\n\n\n\n\n\n    </div>\n    <footer class=\"container\">\n      <nav class='crawler-nav' itemscope itemtype='http://schema.org/SiteNavigationElement'>\n        <a href='/'>Home</a>\n        <a href=\"/categories\">Categories</a>\n        <a href=\"/guidelines\">FAQ/Guidelines</a>\n        <a href=\"/tos\">Terms of Service</a>\n        <a href=\"/privacy\">Privacy Policy</a>\n      </nav>\n      <p class='powered-by-link'>Powered by <a href=\"https://www.discourse.org\">Discourse</a>, best viewed with JavaScript enabled</p>\n    </footer>\n    \n  </body>\n  \n</html>\n",
  "url": "https://forum.parkinsons.org.uk/t/gdnf-trial/10323"
}