{
  "contentId": "72c8a510-8864-11e9-8f96-97f71b5221d6",
  "html": "<!DOCTYPE html>\n<html lang=\"en\">\n  <head>\n    <meta charset=\"utf-8\">\n    <title>What a year it’s been  - Introductions and personal stories - Parkinson&#39;s UK Forum</title>\n    <meta name=\"description\" content=\"Hi my name is Rhian. I live in West London with my partner Mark. I am a school teacher but have not been teaching for the last year as I’ve been signed off with depression and anxiety. In the Autumn term of last year I w&amp;hellip;\">\n    <meta name=\"author\" content=\"\">\n<meta name=\"generator\" content=\"Discourse 2.2.5 - https://github.com/discourse/discourse version c294ff3609f988dcafb742e91606d60ca13b794d\">\n<link rel=\"icon\" type=\"image/png\" href=\"https://forum.parkinsons.org.uk/uploads/db7928/original/2X/3/311fc84f89f49f38601a2f16b295b6f03d3ce5dd.jpg\">\n<link rel=\"apple-touch-icon\" type=\"image/png\" href=\"https://forum.parkinsons.org.uk/uploads/db7928/original/2X/3/311fc84f89f49f38601a2f16b295b6f03d3ce5dd.jpg\">\n<meta name=\"theme-color\" content=\"#ffffff\">\n<meta name=\"viewport\" content=\"width=device-width, minimum-scale=1.0, maximum-scale=1.0, user-scalable=yes\">\n<link rel=\"canonical\" href=\"https://forum.parkinsons.org.uk/t/what-a-year-it-s-been/19083\" />\n<script type=\"application/ld+json\">{\"@context\":\"http://schema.org\",\"@type\":\"WebSite\",\"url\":\"https://forum.parkinsons.org.uk\",\"potentialAction\":{\"@type\":\"SearchAction\",\"target\":\"https://forum.parkinsons.org.uk/search?q={search_term_string}\",\"query-input\":\"required name=search_term_string\"}}</script>\n<link rel=\"search\" type=\"application/opensearchdescription+xml\" href=\"https://forum.parkinsons.org.uk/opensearch.xml\" title=\"Parkinson&#39;s UK Forum Search\">\n\n      <link href=\"/stylesheets/desktop_f99246ae801b083d3e4cca979d0dade8615b39ac.css?__ws=forum.parkinsons.org.uk\" media=\"all\" rel=\"stylesheet\" data-target=\"desktop\" data-theme-id=\"12\"/>\n      <link href=\"/stylesheets/desktop_theme_12_5d27531cf43f9df0c03a6a6ec3109dd05f9dfc49.css?__ws=forum.parkinsons.org.uk\" media=\"all\" rel=\"stylesheet\" data-target=\"desktop_theme\" data-theme-id=\"12\"/>\n    <link href=\"https://fonts.googleapis.com/css?family=Open+Sans\" rel=\"stylesheet\">\n\n    <meta id=\"data-ga-universal-analytics\" data-tracking-code=\"UA-4855628-1\" data-json=\"{&quot;cookieDomain&quot;:&quot;auto&quot;}\" data-auto-link-domains=\"\">\n\n<link rel='preload' href='/assets/google-universal-analytics-f35b4da49411e6f5559073523aab983da483976a3954c79c756f8579f6fbd6ef.js' as='script'/>\n<script src='/assets/google-universal-analytics-f35b4da49411e6f5559073523aab983da483976a3954c79c756f8579f6fbd6ef.js'></script>\n\n      <link rel=\"alternate\" type=\"application/rss+xml\" title=\"RSS feed of &#39;What a year it’s been &#39;\" href=\"https://forum.parkinsons.org.uk/t/what-a-year-it-s-been/19083.rss\" />\n  <meta property=\"og:site_name\" content=\"Parkinson&#39;s UK Forum\" />\n<meta name=\"twitter:card\" content=\"summary\" />\n<meta name=\"twitter:image\" content=\"https://forum.parkinsons.org.uk/uploads/db7928/original/2X/3/311fc84f89f49f38601a2f16b295b6f03d3ce5dd.jpg\" />\n<meta property=\"og:image\" content=\"https://forum.parkinsons.org.uk/uploads/db7928/original/2X/3/311fc84f89f49f38601a2f16b295b6f03d3ce5dd.jpg\" />\n<meta property=\"og:url\" content=\"https://forum.parkinsons.org.uk/t/what-a-year-it-s-been/19083\" />\n<meta name=\"twitter:url\" content=\"https://forum.parkinsons.org.uk/t/what-a-year-it-s-been/19083\" />\n<meta property=\"og:title\" content=\"What a year it’s been \" />\n<meta name=\"twitter:title\" content=\"What a year it’s been \" />\n<meta property=\"og:description\" content=\"Hi my name is Rhian. I live in West London with my partner Mark. I am a school teacher but have not been teaching for the last year as I’ve been signed off with depression and anxiety. In the Autumn term of last year I was seen by the occupational health unit and the doctor suggested I might get a referral for Parkinson’s. So I went to my doctor and on December 21st I was seen by the neurologist . He confirmed that I had Parkinson’s and sent me for an MRI scan, which I had on the 2nd January. We...\" />\n<meta name=\"twitter:description\" content=\"Hi my name is Rhian. I live in West London with my partner Mark. I am a school teacher but have not been teaching for the last year as I’ve been signed off with depression and anxiety. In the Autumn term of last year I was seen by the occupational health unit and the doctor suggested I might get a referral for Parkinson’s. So I went to my doctor and on December 21st I was seen by the neurologist . He confirmed that I had Parkinson’s and sent me for an MRI scan, which I had on the 2nd January. We...\" />\n<meta name=\"twitter:label1\" value=\"Reading time\" />\n<meta name=\"twitter:data1\" value=\"2 mins \uD83D\uDD51\" />\n<meta name=\"twitter:label2\" value=\"Likes\" />\n<meta name=\"twitter:data2\" value=\"2 ❤\" />\n<meta property=\"article:published_time\" content=\"2019-05-02T15:30:17+00:00\" />\n<meta property=\"og:ignore_canonical\" content=\"true\" />\n\n\n\n    \n  </head>\n  <body class=\"crawler\">\n    <header role=\"banner\">\n    <div class=\"region region-header\">\n        <div class=\"region-header-wrapper\">\n            <div id=\"block-parkinsons-d8-branding\" class=\"block block-system block-system-branding-block\">\n                <a href=\"/\" title=\"Home\" rel=\"home\" class=\"site-logo\">\n                    <img src=\"https://forum.parkinsons.org.uk/uploads/db7928/original/2X/8/862bb7d172e7d127e7f3e147ec43594aa62ac945.png\" alt=\"Parkinson's UK. Change Attitudes. Find a cure. Join us.\">\n                </a>\n            </div>\n            <div id=\"block-helpline\" class=\"block block-block-content block-block-content871cd5af-b938-4947-9dc0-d5c211d08fe3 style-phone\">\n                <div class=\"field field--name-field-link field--type-link field--label-hidden field__item\"><a href=\"tel:+448088000303\">Helpline 0808 800 0303</a></div>\n            </div>\n            <div id=\"block-shop\" class=\"block block-block-content block-block-content6fba5ae5-7797-49cd-8367-f321d8111cd6 style-regular\">\n                <div class=\"field field--name-field-link field--type-link field--label-hidden field__item\"><a href=\"https://shop.parkinsons.org.uk\">Shop</a></div>\n            </div>\n        </div>\n    </div>\n</header>\n\n\n<script src=\"/theme-javascripts/b7e9763fcb584fc8265c56a9f557cd6d2e1e8ed8.js?__ws=forum.parkinsons.org.uk\"></script>\n    <header>\n      <a href=\"/\">\n          <img src=\"https://forum.parkinsons.org.uk/uploads/db7928/original/2X/8/862bb7d172e7d127e7f3e147ec43594aa62ac945.png\" alt=\"Parkinson&#39;s UK Forum\" id=\"site-logo\" style=\"max-width: 150px;\">\n      </a>\n    </header>\n    <div id=\"main-outlet\" class=\"wrap\">\n      <h1>\n  <a href=\"/t/what-a-year-it-s-been/19083\">What a year it’s been </a>\n</h1>\n\n<div id='breadcrumbs'>\n    <div id=\"breadcrumb-0\" itemscope itemtype=\"http://data-vocabulary.org/Breadcrumb\"\n        itemref=\"breadcrumb-1\"\n      >\n      <a href=\"/c/about-me\" itemprop=\"url\">\n        <span itemprop=\"title\">About me</span>\n      </a>\n    </div>\n    <div id=\"breadcrumb-1\" itemscope itemtype=\"http://data-vocabulary.org/Breadcrumb\"\n>\n      <a href=\"/c/about-me/introductions-and-personal-stories\" itemprop=\"url\">\n        <span itemprop=\"title\">Introductions and personal stories</span>\n      </a>\n    </div>\n</div>\n\n\n\n\n\n<hr>\n\n\n  <div itemscope itemtype='http://schema.org/DiscussionForumPosting'>\n      <div class='creator'>\n        <span>\n          <a href='/u/Tlane_vulcan'><b itemprop='author'>Tlane_vulcan</b></a>\n          \n          <time datetime='2019-05-02T15:30:17Z' itemprop='datePublished'>\n            2019-05-02 15:30:17 UTC\n          </time>\n        </span>\n        <span itemprop='position'>#1</span>\n      </div>\n      <div class='post' itemprop='articleBody'>\n        <p>Hi my name is Rhian. I live in West London with my partner Mark. I am a school teacher but have not been teaching for the last year as I’ve been signed off with depression and anxiety. In the Autumn term of last year I was seen by the occupational health unit and the doctor suggested I might get a referral for Parkinson’s. So I went to my doctor and on December 21st I was seen by the neurologist . He confirmed that I had Parkinson’s and sent me for an MRI scan, which I had on the 2nd January. Well, when the results came through it was found that I had a brain tumour the size of a tennis ball. I have to admit I felt as though I’d been hit by a sledgehammer.<br>\nTo cut a long story short on the 4th February I had it removed and thankfully it was found to be benign and slow growing. So now I’m just trying to come to terms with the diagnosis of Parkinson’s. I’m on half sinemet which help with the symptoms as well as the anxiety.</p>\n      </div>\n      <meta itemprop='interactionCount' content='UserLikes:0'>\n      <meta itemprop='interactionCount' content='UserComments:1'>\n      <meta itemprop='headline' content='What a year it’s been '>\n      <hr>\n  </div>\n  <div itemscope itemtype='http://schema.org/DiscussionForumPosting'>\n      <div class='creator'>\n        <span>\n          <a href='/u/Pippa'><b itemprop='author'>Pippa</b></a>\n          \n          <time datetime='2019-05-03T07:55:43Z' itemprop='datePublished'>\n            2019-05-03 07:55:43 UTC\n          </time>\n        </span>\n        <span itemprop='position'>#2</span>\n      </div>\n      <div class='post' itemprop='articleBody'>\n        <p>Wow…that is a lot of bad stuff in a very short space of time to get your head and heart around. And yet somewhere inside you there is a spark which urged you to make contact with the outside world via this forum. You must be stronger than you think or feel (if that doesn’t sound tooo much like those corny feel good sound bites…sorry if it does)<br>\nSo much to cope with and it can easily feel like you are on your own, …but the reality is that there are a lot of people out there, amongst whom you will find, surprisingly or otherwise (it always seems to be different people to who you would expect) who will allow you to cry, make you laugh, do you a kindness, offer some support…whatever it is you need at the time.Horses for courses…we are all different so it cannot be a one size fits all, but everyone knows that, except the manufacturers!<br>\nLots of different places on this forum for example for different issues or moods…just have a rummage around and see what you find and takes your fancy.<br>\nWelcome anyway!<br>\nBest wishes, Pippa</p>\n      </div>\n      <meta itemprop='interactionCount' content='UserLikes:1'>\n      <meta itemprop='interactionCount' content='UserComments:0'>\n      <meta itemprop='headline' content='What a year it’s been '>\n      <hr>\n  </div>\n  <div itemscope itemtype='http://schema.org/DiscussionForumPosting'>\n      <div class='creator'>\n        <span>\n          <a href='/u/Raz1'><b itemprop='author'>Raz1</b></a>\n          \n          <time datetime='2019-05-03T19:31:45Z' itemprop='datePublished'>\n            2019-05-03 19:31:45 UTC\n          </time>\n        </span>\n        <span itemprop='position'>#3</span>\n      </div>\n      <div class='post' itemprop='articleBody'>\n        <p>Hi Rhian</p>\n<p>I must say that is a lot for anyone to go though and as you said you are coming to  terms with the Parkinson’s, well I must say you sound like you are taking everything step By step, which is great, Ito am<br>\nOn the same meds how are you finding them, and how is it with your  anxiety levels ? You see I feel low, and in a room full of people i feel lost, but I have spoke to me nurse and she has said she wants me to see a doctor which she will sort out for me, but this is not about me, Parkinson is hard and to learn ways to live with it is even harder, but I will say this forum has helped me a lot . And I hope it helps you too, keep in touch</p>\n<p>Regards Raz</p>\n      </div>\n      <meta itemprop='interactionCount' content='UserLikes:0'>\n      <meta itemprop='interactionCount' content='UserComments:1'>\n      <meta itemprop='headline' content='What a year it’s been '>\n      <hr>\n  </div>\n  <div itemscope itemtype='http://schema.org/DiscussionForumPosting'>\n      <div class='creator'>\n        <span>\n          <a href='/u/Tlane_vulcan'><b itemprop='author'>Tlane_vulcan</b></a>\n          \n          <time datetime='2019-05-04T21:07:08Z' itemprop='datePublished'>\n            2019-05-04 21:07:08 UTC\n          </time>\n        </span>\n        <span itemprop='position'>#4</span>\n      </div>\n      <div class='post' itemprop='articleBody'>\n        <p>What I’m finding at the moment is that the medication helps the anxiety but when that starts to wear off the anxiety comes back and I find it hard if not impossible to get rid of the feelings. Once I take a tablet I’m ok.</p>\n      </div>\n      <meta itemprop='interactionCount' content='UserLikes:0'>\n      <meta itemprop='interactionCount' content='UserComments:0'>\n      <meta itemprop='headline' content='What a year it’s been '>\n      <hr>\n  </div>\n  <div itemscope itemtype='http://schema.org/DiscussionForumPosting'>\n      <div class='creator'>\n        <span>\n          <a href='/u/Raz1'><b itemprop='author'>Raz1</b></a>\n          \n          <time datetime='2019-05-05T13:55:55Z' itemprop='datePublished'>\n            2019-05-05 13:55:55 UTC\n          </time>\n        </span>\n        <span itemprop='position'>#5</span>\n      </div>\n      <div class='post' itemprop='articleBody'>\n        <p>Hi Tiane</p>\n<p>I knew what you mean, but I must say you should have a word with your  nurse may be changing your medication or by changing the times you take them can help you, lately I have that feeling that my medication is  wearing off quicker and than I am having the change of mood and body killing and just really don’t know what to say or do with anything or anyone. But you take care and I know it’s hard but we all are here if you need a chat,</p>\n<p>Regards Raz</p>\n      </div>\n      <meta itemprop='interactionCount' content='UserLikes:0'>\n      <meta itemprop='interactionCount' content='UserComments:1'>\n      <meta itemprop='headline' content='What a year it’s been '>\n      <hr>\n  </div>\n  <div itemscope itemtype='http://schema.org/DiscussionForumPosting'>\n      <div class='creator'>\n        <span>\n          <a href='/u/Tlane_vulcan'><b itemprop='author'>Tlane_vulcan</b></a>\n          \n          <time datetime='2019-05-06T16:01:29Z' itemprop='datePublished'>\n            2019-05-06 16:01:29 UTC\n          </time>\n        </span>\n        <span itemprop='position'>#6</span>\n      </div>\n      <div class='post' itemprop='articleBody'>\n        <p>Thank you. How do I go about getting to see a PD nurse. So far have only seen the neurologist</p>\n      </div>\n      <meta itemprop='interactionCount' content='UserLikes:0'>\n      <meta itemprop='interactionCount' content='UserComments:0'>\n      <meta itemprop='headline' content='What a year it’s been '>\n      <hr>\n  </div>\n  <div itemscope itemtype='http://schema.org/DiscussionForumPosting'>\n      <div class='creator'>\n        <span>\n          <a href='/u/Raz1'><b itemprop='author'>Raz1</b></a>\n          \n          <time datetime='2019-05-06T22:29:42Z' itemprop='datePublished'>\n            2019-05-06 22:29:42 UTC\n          </time>\n        </span>\n        <span itemprop='position'>#7</span>\n      </div>\n      <div class='post' itemprop='articleBody'>\n        <p>Hi Tiane</p>\n<p>Sorry for later reply you doctors and neurologist will sort that out for you, if you haven’t heard felon them soon than you can just ask at your doctors to see if you have been referred to a team of PD nurses near you local area. If not get onto the security of your neurologist and ask her to do the referral for you, I hope you all the best, keep me posted raz</p>\n      </div>\n      <meta itemprop='interactionCount' content='UserLikes:1'>\n      <meta itemprop='interactionCount' content='UserComments:1'>\n      <meta itemprop='headline' content='What a year it’s been '>\n      <hr>\n  </div>\n  <div itemscope itemtype='http://schema.org/DiscussionForumPosting'>\n      <div class='creator'>\n        <span>\n          <a href='/u/Wag'><b itemprop='author'>Wag</b></a>\n          \n          <time datetime='2019-05-07T22:20:13Z' itemprop='datePublished'>\n            2019-05-07 22:20:13 UTC\n          </time>\n        </span>\n        <span itemprop='position'>#8</span>\n      </div>\n      <div class='post' itemprop='articleBody'>\n        <p>This supposedly neurologists Always say it’s Parkinson’s even when it’s not,because they get a huge bonus for everyone they diagnosed with the disease,it’s the same for all types of doctors from your GP to the top brain surgeons,all on the make at our expense ,greed not patients care rules in the medical world,bye.</p>\n      </div>\n      <meta itemprop='interactionCount' content='UserLikes:0'>\n      <meta itemprop='interactionCount' content='UserComments:0'>\n      <meta itemprop='headline' content='What a year it’s been '>\n      <hr>\n  </div>\n  <div itemscope itemtype='http://schema.org/DiscussionForumPosting'>\n      <div class='creator'>\n        <span>\n          <a href='/u/Tlane_vulcan'><b itemprop='author'>Tlane_vulcan</b></a>\n          \n          <time datetime='2019-05-08T08:03:54Z' itemprop='datePublished'>\n            2019-05-08 08:03:54 UTC\n          </time>\n        </span>\n        <span itemprop='position'>#9</span>\n      </div>\n      <div class='post' itemprop='articleBody'>\n        <p>Thanks for the reply</p>\n      </div>\n      <meta itemprop='interactionCount' content='UserLikes:0'>\n      <meta itemprop='interactionCount' content='UserComments:0'>\n      <meta itemprop='headline' content='What a year it’s been '>\n      <hr>\n  </div>\n  <div itemscope itemtype='http://schema.org/DiscussionForumPosting'>\n      <div class='creator'>\n        <span>\n          <a href='/u/stevo'><b itemprop='author'>stevo</b></a>\n          \n          <time datetime='2019-05-08T08:55:42Z' itemprop='datePublished'>\n            2019-05-08 08:55:42 UTC\n          </time>\n        </span>\n        <span itemprop='position'>#10</span>\n      </div>\n      <div class='post' itemprop='articleBody'>\n        <p>That’s really strange you should mention that about neurologists consultants they (2) one a lower ranking one and finally my regular consultant diagnosed me after doing a few crappy unimpressive tests they both drew to the same conclusion .Parkinsons and I had been told for a few years by my now retired but very wise and no fool of a GP who actually was so knowledgeable that I would often ( being a hypochondriac ) would go and see him over the 16 years I was under his care with all kinds of problems I had convinced myself I definately had after googling it or reading some health book and he would look me over as I was being prepared for the inevitable same conclusion that I had reached and it was nothing at all the same as what I had actually convinced myself I won’t go into the few that really had me worried but I will mention two one was a pain down my right side of my tummy that I was convinced it was my liver (was a binge drinker for a few years ) and this pain was not going away so I thought it must be my liver so frightened wAs I the day of my appointment that I had worried myself half to death and walking towards his room at his surgery I thought i knew what was going to be said and was trembling as I entered the room and greeted by my gp who said how can we help then I mumbled that I thought my liver was swollen and it was causing me pain he casually told me to lie on the bench thing and when I pointed to the offending area he said that my liver is not there it’s further up so he checked further up my rib cage did some tapping and in under a minute said it was probably</p>\n      </div>\n      <meta itemprop='interactionCount' content='UserLikes:0'>\n      <meta itemprop='interactionCount' content='UserComments:0'>\n      <meta itemprop='headline' content='What a year it’s been '>\n      <hr>\n  </div>\n\n\n\n\n\n\n    </div>\n    <footer class=\"container\">\n      <nav class='crawler-nav' itemscope itemtype='http://schema.org/SiteNavigationElement'>\n        <a href='/'>Home</a>\n        <a href=\"/categories\">Categories</a>\n        <a href=\"/guidelines\">FAQ/Guidelines</a>\n        <a href=\"/tos\">Terms of Service</a>\n        <a href=\"/privacy\">Privacy Policy</a>\n      </nav>\n      <p class='powered-by-link'>Powered by <a href=\"https://www.discourse.org\">Discourse</a>, best viewed with JavaScript enabled</p>\n    </footer>\n    \n  </body>\n  \n</html>\n",
  "url": "https://forum.parkinsons.org.uk/t/what-a-year-it-s-been/19083"
}