{
  "contentId": "733dfc20-ca4f-11e9-816f-91101a0612dc",
  "html": "<!DOCTYPE html PUBLIC \"-//W3C//DTD XHTML 1.0 Strict//EN\" \"http://www.w3.org/TR/xhtml1/DTD/xhtml1-strict.dtd\">\r\n<html xmlns=\"http://www.w3.org/1999/xhtml\" dir=\"ltr\" lang=\"fr\" xml:lang=\"fr\">\r\n<head>\r\n\r\n<meta http-equiv=\"content-type\" content=\"text/html; charset=UTF-8\" />\r\n<meta http-equiv=\"content-style-type\" content=\"text/css\" />\r\n<meta http-equiv=\"content-language\" content=\"fr\" />\r\n<meta http-equiv=\"imagetoolbar\" content=\"no\" />\r\n<meta name=\"resource-type\" content=\"document\" />\r\n<meta name=\"distribution\" content=\"global\" />\r\n<meta name=\"keywords\" content=\"\" />\r\n<meta name=\"description\" content=\"\" />\r\n<meta name=\"viewport\" content=\"width=device-width, initial-scale=1\">\r\n\r\n<title>Le Forum maladies rares &bull; Panneau de l’utilisateur &bull; Connexion</title>\r\n\r\n\r\n\r\n<!--\r\n\tphpBB style name: MRIS\r\n\tBased on style:   prosilver & Metro (PixelGoose Studio)\r\n-->\r\n\r\n<script type=\"text/javascript\">\r\n// <![CDATA[\r\n\tvar jump_page = 'Saisissez le numéro de page où vous souhaitez aller.:';\r\n\tvar on_page = '';\r\n\tvar per_page = '';\r\n\tvar base_url = '';\r\n\tvar style_cookie = 'phpBBstyle';\r\n\tvar style_cookie_settings = '; path=/; domain=forums.maladiesraresinfo.org; secure';\r\n\tvar onload_functions = new Array();\r\n\tvar onunload_functions = new Array();\r\n\r\n\t\r\n\r\n\t/**\r\n\t* Find a member\r\n\t*/\r\n\tfunction find_username(url)\r\n\t{\r\n\t\tpopup(url, 760, 570, '_usersearch');\r\n\t\treturn false;\r\n\t}\r\n\r\n\t/**\r\n\t* New function for handling multiple calls to window.onload and window.unload by pentapenguin\r\n\t*/\r\n\twindow.onload = function()\r\n\t{\r\n\t\tfor (var i = 0; i < onload_functions.length; i++)\r\n\t\t{\r\n\t\t\teval(onload_functions[i]);\r\n\t\t}\r\n\t};\r\n\r\n\twindow.onunload = function()\r\n\t{\r\n\t\tfor (var i = 0; i < onunload_functions.length; i++)\r\n\t\t{\r\n\t\t\teval(onunload_functions[i]);\r\n\t\t}\r\n\t};\r\n\r\n// ]]>\r\n</script>\r\n<script type=\"text/javascript\" src=\"https://forums.maladiesraresinfo.org/styles/mris/template/styleswitcher.js\"></script>\r\n<script type=\"text/javascript\" src=\"https://forums.maladiesraresinfo.org/styles/mris/template/forum_fn.js\"></script>\r\n\r\n<link href=\"https://forums.maladiesraresinfo.org/styles/mris/theme/print.css\" rel=\"stylesheet\" type=\"text/css\" media=\"print\" title=\"printonly\" />\r\n<link href=\"https://forums.maladiesraresinfo.org/style.php?id=3&amp;lang=fr&amp;sid=af3da2e9f11b2e134bcc63e257890566\" rel=\"stylesheet\" type=\"text/css\" media=\"screen, projection\" />\r\n<link href=\"https://forums.maladiesraresinfo.org/styles/mris/theme/bootstrap-modal.css\" rel=\"stylesheet\" type=\"text/css\" media=\"screen, projection\" />\r\n\r\n\r\n<link href=\"https://forums.maladiesraresinfo.org/styles/mris/theme/normal.css\" rel=\"stylesheet\" type=\"text/css\" title=\"A\" />\r\n<link href=\"https://forums.maladiesraresinfo.org/styles/mris/theme/medium.css\" rel=\"alternate stylesheet\" type=\"text/css\" title=\"A+\" />\r\n<link href=\"https://forums.maladiesraresinfo.org/styles/mris/theme/large.css\" rel=\"alternate stylesheet\" type=\"text/css\" title=\"A++\" />\r\n\r\n\r\n\r\n<!-- <script type=\"text/javascript\" src=\"//ajax.googleapis.com/ajax/libs/jquery/1.6.4/jquery.min.js\"></script> -->\r\n<script type=\"text/javascript\" src=\"//ajax.googleapis.com/ajax/libs/jquery/1.9.1/jquery.min.js\"></script>\r\n<script type=\"text/javascript\" src=\"https://forums.maladiesraresinfo.org/styles/mris/template/jquery.collapse.js\"></script>\r\n<script type=\"text/javascript\" src=\"https://forums.maladiesraresinfo.org/styles/mris/template/jquery.collapse_storage.js\"></script>\r\n<script type=\"text/javascript\" src=\"https://forums.maladiesraresinfo.org/styles/mris/template/jquery.collapse_cookie_storage.js\"></script>\r\n<script type=\"text/javascript\" src=\"https://forums.maladiesraresinfo.org/styles/mris/template/bootstrap-modal.min.js\"></script>\r\n<script type=\"text/javascript\" src=\"https://forums.maladiesraresinfo.org/styles/mris/template/jquery.cookie.js\"></script>\r\n\r\n<script type=\"text/javascript\">\r\n$(document).ready(function() {\r\n\t$('a.login-window').click(function() {\r\n\t\t\r\n\t\t// Getting the variable's value from a link \r\n\t\tvar loginBox = this.hash;\r\n\r\n\t\t//Fade in the Popup and add close button\r\n\t\t$(loginBox).fadeIn(300);\r\n\t\t\r\n\t\t//Set the center alignment padding + border\r\n\t\tvar popMargTop = ($(loginBox).height() + 24) / 2; \r\n\t\tvar popMargLeft = ($(loginBox).width() + 24) / 2; \r\n\t\t\r\n\t\t$(loginBox).css({ \r\n\t\t\t'margin-top' : -popMargTop,\r\n\t\t\t'margin-left' : -popMargLeft\r\n\t\t});\r\n\t\t\r\n\t\t// Add the mask to body\r\n\t\t$('body').append('<div id=\"mask\"></div>');\r\n\t\t$('#mask').fadeIn(300);\r\n\t\t\r\n\t\treturn false;\r\n\t});\r\n\t\r\n\t// When clicking on the button close or the mask layer the popup closed\r\n\t$('body').on('click','a.close, #mask', function() {\r\n\t  $('#mask , .login-popup').fadeOut(300 , function() {\r\n\t\t$('#mask').remove();  \r\n\t}); \r\n\treturn false;\r\n\t});\r\n\t\r\n\t$('#navbar_username').focus(function() {\r\n\t\t$('#navbar_username').parent().addClass('active');\r\n\t}); \r\n\t$('#navbar_username').blur(function() {\r\n\t\t$('#navbar_username').parent().removeClass('active');\r\n\t}); \r\n\t$('#navbar_password').focus(function() {\r\n\t\t$('#navbar_password').parent().addClass('active');\r\n\t}); \r\n\t$('#navbar_password').blur(function() {\r\n\t\t$('#navbar_password').parent().removeClass('active');\r\n\t}); \r\n\r\n});\r\n</script>\r\n\r\n<script type=\"text/javascript\">\r\n\t$(document).ready(function() {\r\n\t\t$(\".toggleMenuButton\").click(function () {\r\n\t\t\t$(\".tabs\").slideToggle(\"fast\");\r\n\t\t\t$(\".toggleMenuButton\").toggleClass(\"active\");\r\n\t\t})\r\n\r\n\t\t$(window).resize(function() {\r\n\t\t    //small-screen\r\n\t\t    if (window.innerWidth < 767) {\r\n\t\t        $(\".tabs\").css('display', '');\r\n\t\t\t    $('.toggleMenuButton').removeClass('active');\r\n\t\t    }\r\n\t\t        //end small-screen\r\n\t\t}) .resize(); // trigger resize event\r\n\r\n\t});\r\n</script>\r\n\r\n<!--[if lte IE 8]><script type=\"text/javascript\" src=\"https://forums.maladiesraresinfo.org/styles/mris/template/respond.min.js\"></script><![endif]-->\r\n\r\n<!-- Google Web Fonts -->\r\n<link href='//fonts.googleapis.com/css?family=Open+Sans:300,400,600' rel='stylesheet' type='text/css'>\r\n\r\n</head>\r\n\r\n<body id=\"phpbb\" class=\"section-ucp ltr\">\r\n\r\n<div id=\"wrap\">\r\n\t<!--banner 1201*80 par ex-->\r\n\t<!--/banner-->\r\n\t\r\n\t<a id=\"top\" name=\"top\" accesskey=\"t\"></a>\r\n\t<div id=\"page-header\">\r\n    \t<div id=\"above-headerbar\">\r\n\t\t\t\r\n\t\t\t<ul class=\"user-links\">\r\n                <li><a href=\"https://forums.maladiesraresinfo.org/ucp.php?mode=register&amp;sid=af3da2e9f11b2e134bcc63e257890566\">Inscription</a>&nbsp;&nbsp;|</li>\r\n                <li><a href=\"#login-box\" class=\"login-window\" title=\"Connexion\" accesskey=\"x\">Connexion</a><a href=\"https://forums.maladiesraresinfo.org/ucp.php?mode=login&amp;sid=af3da2e9f11b2e134bcc63e257890566\" class=\"login-link\" title=\"Connexion\" accesskey=\"x\">Connexion</a></li>\r\n\t\t\t</ul>\r\n\r\n\t\t\t<div id=\"login-box\" class=\"login-popup\">\r\n\t\t\t    <a href=\"#\" class=\"close\"><img src=\"https://forums.maladiesraresinfo.org/styles/mris/theme/images/close_popup.png\" class=\"close-button\" title=\"Close\" alt=\"Close\" /></a>\r\n\t\t\t    <div id=\"login-text\">Connexion</div>\r\n\r\n\t\t\t\t<form method=\"post\" action=\"https://forums.maladiesraresinfo.org/ucp.php?mode=login&amp;sid=af3da2e9f11b2e134bcc63e257890566\" class=\"quick-login\">\r\n\t\t\t\t\t<fieldset>\r\n\t\t\t\t\t\t<div class=\"navbar_username_outer\">\r\n\t\t\t\t\t\t\t<label for=\"username\">Pseudonyme:</label>&nbsp;<br /><input type=\"text\" name=\"username\" id=\"navbar_username\" size=\"10\" class=\"inputbox\" title=\"Pseudonyme\" />\r\n\t\t\t\t\t\t</div>\r\n\r\n\t\t\t\t\t\t<div class=\"navbar_password_outer\">\r\n\t\t\t\t\t\t\t<label for=\"password\">Mot de passe:</label>&nbsp;<br /><input type=\"password\" name=\"password\" id=\"navbar_password\" size=\"10\" class=\"inputbox\" title=\"Mot de passe\" />\r\n\t\t\t\t\t\t</div>\r\n\r\n\r\n\r\n\r\n\t\t\t\t\t\t<div class=\"login-buttons\">\r\n\t\t\t\t\t\t\t<input type=\"submit\" name=\"login\" value=\"Connexion\" class=\"button2\" />\r\n\t\t\t\t\t\t\t<input type=\"hidden\" name=\"redirect\" value=\"./ucp.php?i=pm&amp;mode=compose&amp;u=2019&amp;sid=af3da2e9f11b2e134bcc63e257890566\" />\n\r\n\t\t\t\t\t\t\t\r\n\t\t\t\t\t\t\t\t<label id=\"autologin_label\" for=\"autologin\">Se souvenir de moi <input type=\"checkbox\" name=\"autologin\" id=\"autologin\" /></label>\r\n\t\t\t\t\t\t\t\r\n\t\t\t\t\t\t</div>\r\n\t\t\t\t\t</fieldset>\r\n\t\t\t\t</form>\t\t\t        \r\n\t\t\t\t\t<a class=\"register-link\" href=\"https://forums.maladiesraresinfo.org/ucp.php?mode=register&amp;sid=af3da2e9f11b2e134bcc63e257890566\">Inscription</a>\r\n\t\t\t        \r\n\t\t\t</div>\r\n\r\n            \r\n\t\t\t<div class=\"search-box\">\r\n\t\t\t\t<form action=\"https://forums.maladiesraresinfo.org/search.php\" method=\"get\" id=\"search\">\r\n\t\t\t\t<fieldset>\r\n                \t<div class=\"search-box-inner\">\r\n                        <input class=\"button2\" value=\"Rechercher\" type=\"submit\" />\r\n                        <input name=\"keywords\" id=\"keywords\" type=\"text\" maxlength=\"128\" title=\"Rechercher par mots-clés\" class=\"inputbox search\" value=\"Recherche…\" onclick=\"if(this.value=='Recherche…')this.value='';\" onblur=\"if(this.value=='')this.value='Recherche…';\" />\r\n                    </div>\r\n                    &nbsp;<a href=\"https://forums.maladiesraresinfo.org/search.php\" class=\"search-adv-link\" title=\"Voir les options de recherche avancée\">Recherche avancée</a> <input type=\"hidden\" name=\"sid\" value=\"af3da2e9f11b2e134bcc63e257890566\" />\n\r\n\t\t\t\t</fieldset>\r\n\t\t\t\t</form>\r\n\t\t\t</div>\r\n            \r\n        </div>\r\n        <!-- Modal -->\r\n        <div id=\"modalHibou\" class=\"modal fade popup-hibou\" role=\"dialog\" aria-labelledby=\"myModalLabel\" aria-hidden=\"true\">\r\n            <div class=\"modal-dialog\">\r\n                <div class=\"modal-content\">\r\n                    <div class=\"modal-header\">\r\n                        <img src=\"https://forums.maladiesraresinfo.org/styles/mris/theme/images/close_popup.png\" class=\"close-button\" data-dismiss=\"modal\" title=\"Close\" alt=\"Close\">\r\n                        \r\n                        <h3>Vous cherchez une information ?<br><div style=\"text-indent: 60px;\"> Vous avez besoin d’un conseil&nbsp;?</div></h3>\r\n                        <div class=\"row mt-md\">\r\n                            <div style=\"width:30%; float: left;\">\r\n                                <img class=\"img-responsive\" src=\"https://www.maladiesraresinfo.org/assets/img/chouette.png\" alt=\"Logo SVP EI\">\r\n                            </div>\r\n                            <div style=\"width:70%; float: left; text-align: center;\">\r\n                                <h4>Appelez notre équipe de professionnels<br>au 01 56 53 81 36<br><span style=\"font-size: 14px\">(inclus dans les forfaits)</span>\r\n                                <p class=\"m-sm\">ou</p>\r\n                                <a href=\"https://www.maladiesraresinfo.org/ecoute/par-e-mail.html?utm_source=popupHibou\" class=\"btn btn-lg\">envoyer leur un email</a></h4>\r\n                            </div>\r\n                        </div>\r\n                    </div>\r\n                </div>\r\n            </div>\r\n        </div>\r\n        <!-- /.modal -->\r\n\r\n       <!--  <div id=\"annonce-top\">\r\n\t\t\t\t<img src=\"https://forums.maladiesraresinfo.org/styles/mris/theme/images/medicament.png\" alt=\"\">\r\n\t\t\t\t<strong>Vous ou un proche êtes concerné(e) par les effets indésirables d’un médicament pris pour une maladie rare ?</strong> <br />\r\nDéclarer ces effets indésirables est important et peut être utile à tous les utilisateurs de ce médicament. <br />\r\n<strong><span>Pour bénéficier de cette aide et découvrir la vidéo, <a href=\"http://www.maladiesraresinfo.org/news/effets-indesirables-info-services.html\">cliquez ici</a></span></strong></div>  -->\r\n<!-- debut annonce-top\"\r\n\t\t\t<div id=\"annonce-top\" style=\"margin: 15px 0;\">\r\n\t\t\t\t<a href=\"https://www.youtube.com/watch?v=ymDhprpJm58\" target=\"_blank\"><img src=\"https://forums.maladiesraresinfo.org/styles/mris/theme/images/film-insertion-bg.jpg\" alt=\"\"></a>\r\n\t\t\t\t</div>\r\n fin annonce-top\"-->\r\n\r\n\r\n\r\n\r\n        <div id=\"header\">\r\n        \t<div id=\"logo\">\r\n        \t\t<a href=\"https://forums.maladiesraresinfo.org/\" title=\"Accueil du Forum\"><img src=\"https://forums.maladiesraresinfo.org/styles/mris/imageset/logo-mris2018.png\" width=\"268\" height=\"140\" alt=\"\" title=\"\" /></a>\r\n        \t</div>\t\r\n\r\n\t\t\t<div id=\"heading\">\r\n\t\t\t\t<h1>Le Forum maladies rares</h1>\r\n\t\t\t\t<em>Partageons pour être plus forts !</em>\r\n\t\t\t</div>\r\n<div class=\"tabs-outer\">\r\n            \t<a href=\"javascript:void(0);\" title=\"Menu\" class=\"toggleMenuButton\"></a>\r\n            \t<ul class=\"tabs\">\r\n\t\t\t\t\t\t<li id=\"site-link\"><a href=\"https://www.maladiesraresinfo.org/index.html\" title=\"Visitez le site Internet de Maladies Rares Info Services dans une nouvelle fenêtre\"><span>Aller sur le site Internet</span></a></li>\r\n\t\t\t\t\t\t<li id=\"ei-link\"><a href=\"https://www.maladiesraresinfo.org/effets-indesirables-info-services.html\" title=\"Déclarer les effets indésirables d'un médicament pris pour une maladie rare\"><span>Déclarer un effet indésirable</span></a></li>\r\n\t\t\t\t\t\t<li id=\"newforum-link\"><a href=\"mailto:info-services@maladiesraresinfo.org\" title=\"Demander un nouveau forum\"><span>Demander un nouveau forum</span></a></li>\r\n\r\n                        <!-- Add tabs below -->\r\n                  \r\n            \t</ul>\r\n            </div>\r\n\r\n        </div>\r\n\t\t        \r\n\t\t\t<!--\r\n\t\t\t<div id=\"annonce\">\t\t\t\t\r\n\t\t\t\t<a href=\"http://www.modalisa-enquete.com/mris-avis\" target=\"_blank\">Que pensez-vous du Forum Maladies Rares ?</a>\r\n\t\t\t</div>\r\n\t\t\t-->     \r\n        <div id=\"breadcrumbs\">\r\n        \t<a class=\"icon-home\" href=\"https://forums.maladiesraresinfo.org/\" accesskey=\"h\">Accueil du Forum</a> \r\n        </div>\r\n\r\n\t\t<ul class=\"thread-icons\">\r\n          \r\n\t\t</ul>\r\n\r\n\t</div>\r\n\r\n\t<a name=\"start_here\"></a>\r\n\r\n\t<div id=\"page-body\">\r\n\t\t\n\n<script type=\"text/javascript\">\n// <![CDATA[\n\tonload_functions.push('document.getElementById(\"username\").focus();');\n// ]]>\n</script>\n\n<form action=\"https://forums.maladiesraresinfo.org/ucp.php?mode=login&amp;sid=af3da2e9f11b2e134bcc63e257890566\" method=\"post\" id=\"login\">\n<div class=\"panel\">\n\t<div class=\"inner\"><span class=\"corners-top\"><span></span></span>\n\n\t<div class=\"content\">\n\t\t<h2>Connectez-vous pour accéder à votre panneau d’utilisateur.</h2>\n\n\t\t<fieldset class=\"fields1\">\n\t\t\n\t\t<dl>\n\t\t\t<dt><label for=\"username\">Pseudonyme:</label></dt>\n\t\t\t<dd><input type=\"text\" tabindex=\"1\" name=\"username\" id=\"username\" size=\"25\" value=\"\" class=\"inputbox autowidth\" /></dd>\n\t\t</dl>\n\t\t<dl>\n\t\t\t<dt><label for=\"password\">Mot de passe:</label></dt>\n\t\t\t<dd><input type=\"password\" tabindex=\"2\" id=\"password\" name=\"password\" size=\"25\" class=\"inputbox autowidth\" /></dd>\n\t\t\t<dd><a href=\"https://forums.maladiesraresinfo.org/ucp.php?mode=sendpassword&amp;sid=af3da2e9f11b2e134bcc63e257890566\">J’ai oublié mon mot de passe</a></dd><dd><a href=\"https://forums.maladiesraresinfo.org/ucp.php?mode=resend_act&amp;sid=af3da2e9f11b2e134bcc63e257890566\">Renvoyer l’e-mail de confirmation</a></dd>\n\t\t</dl>\n\t\t\n\t\t<dl>\n\t\t\t<dd><label for=\"autologin\"><input type=\"checkbox\" name=\"autologin\" id=\"autologin\" tabindex=\"4\" /> Se souvenir de moi</label></dd>\n\t\t\t<dd><label for=\"viewonline\"><input type=\"checkbox\" name=\"viewonline\" id=\"viewonline\" tabindex=\"5\" /> Cacher mon statut en ligne pour cette session</label></dd>\n\t\t</dl>\n\t\t\n\n\t\t<input type=\"hidden\" name=\"redirect\" value=\"./ucp.php?i=pm&amp;mode=compose&amp;u=2019&amp;sid=af3da2e9f11b2e134bcc63e257890566\" />\n\n\t\t<dl>\n\t\t\t<dt>&nbsp;</dt>\n\t\t\t<dd><input type=\"hidden\" name=\"sid\" value=\"af3da2e9f11b2e134bcc63e257890566\" />\n<input type=\"submit\" name=\"login\" tabindex=\"6\" value=\"Connexion\" class=\"button1\" /></dd>\n\t\t</dl>\n\t\t</fieldset>\n\t</div>\n\t<span class=\"corners-bottom\"><span></span></span></div>\n</div>\n\n\n\n\t<div class=\"panel\">\n\t\t<div class=\"inner\"><span class=\"corners-top\"><span></span></span>\n\n\t\t<div class=\"content\">\n\t\t\t<h3>Inscription</h3>\n\t\t\t<p>Vous devez être enregistré pour vous connecter. L’enregistrement ne prend que quelques secondes et augmente vos possibilités. L’administrateur du forum peut également accorder des permissions additionnelles aux utilisateurs enregistrés. Avant de vous enregistrer, assurez-vous d’avoir pris connaissance de nos conditions d’utilisation et de notre politique de vie privée. Assurez-vous de bien lire tout le règlement du forum.</p>\n\t\t\t<p><strong><a href=\"https://forums.maladiesraresinfo.org/ucp.php?mode=terms&amp;sid=af3da2e9f11b2e134bcc63e257890566\">Conditions d’utilisation</a> | <a href=\"https://forums.maladiesraresinfo.org/ucp.php?mode=privacy&amp;sid=af3da2e9f11b2e134bcc63e257890566\">Politique de vie privée</a></strong></p>\n\t\t\t<hr class=\"dashed\" />\n\t\t\t<p><a href=\"https://forums.maladiesraresinfo.org/ucp.php?mode=register&amp;sid=af3da2e9f11b2e134bcc63e257890566\" class=\"button2\">Inscription</a></p>\n\t\t</div>\n\n\t\t<span class=\"corners-bottom\"><span></span></span></div>\n\t</div>\n\n\n</form>\n\n</div>\r\n\r\n<ul class=\"linklist\" style=\"margin-bottom:12px\">\r\n\t\t\t\r\n</ul>\r\n\r\n<div id=\"bloc-social2\">\r\n\t<div class=\"social-icons\">\r\n\t\t<h2>Nous suivre</h2>\r\n\t\t<ul>\r\n\t\t\t<li><a href=\"https://twitter.com/maladierareinfo\" target=\"_blank\" class=\"twitter\"></a></li>\r\n\t\t\t<li><a href=\"https://www.facebook.com/Maladies-Rares-Info-Services-141961802618072/\" target=\"_blank\" class=\"facebook\"></a></li>\r\n\t\t\t<li><a href=\"https://www.youtube.com/channel/UCGDbPtHM1LEV1GdvK8KF_Gg\" target=\"_blank\" class=\"youtube\"></a></li>\r\n\t\t</ul>\r\n\t</div>\r\n</div>\r\n\r\n<!-- Prefooter blocks go below -->\r\n\r\n<div id=\"page-footer\">\r\n\r\n\t<div class=\"navbar\">\r\n\r\n\t\t<ul class=\"linklist\">\r\n\t\t\t<li><a href=\"https://forums.maladiesraresinfo.org/faq.php?sid=af3da2e9f11b2e134bcc63e257890566\">FAQ</a></li>\r\n\t\t\t<li><a href=\"/apropos.php\">À propos du Forum</a></li>\r\n\t\t\t<li><a href=\"/ucp.php?mode=terms\">La Charte</a></li>\r\n\t\t\t<li><a href=\"mailto:info-services@maladiesraresinfo.org?subject=Contact Forum\"> Contacter les modérateurs</a></li>\r\n\t\t</ul>\r\n\r\n\t</div>\r\n\t<div class=\"partenaires\">\r\n\t\tForum créé avec le soutien de\r\n\t\t<img src=\"https://forums.maladiesraresinfo.org/styles/mris/theme/images/logo-fondation_groupama.png\" alt=\"\" />\r\n\t</div>\r\n\t<div class=\"partenaires\">\r\n\t\tLe Forum fonctionne grâce au soutien de\r\n\t\t<img src=\"https://forums.maladiesraresinfo.org/styles/mris/theme/images/logo-afm_telethon.png\" alt=\"\" />\r\n\t</div>\r\n\t<div class=\"copyright\">\r\n\t\t\r\n\t\tNous sommes le Jeu 29 Aoû 2019 13:23<br /><br />\r\n\t\t\r\n\t\t\r\n\t</div>\r\n</div>\r\n\r\n</div>\r\n\r\n<div>\r\n\t<a id=\"bottom\" name=\"bottom\" accesskey=\"z\"></a>\r\n\t\r\n</div>\r\n<!-- Script Modal Popup avec delay -->\r\n<script>\r\n    $(document).ready(function() {\r\n        if ($.cookie('pophibou') == null) {\r\n                 setTimeout(function(){\r\n       $('#modalHibou').modal('show');\r\n   }, 25000);\r\n            $.cookie('pophibou', 'WvKTq9WY1uJ', { expires: 1, domain: 'maladiesraresinfo.org' });\r\n        }\r\n    });\r\n</script>\r\n<!-- \\Script Modal Popup avec delay -->\r\n<script type=\"text/javascript\">\r\n\r\nvar _gaq = _gaq || [];\r\n_gaq.push(['_setAccount', 'UA-1038875-1']);\r\n_gaq.push(['_setDomainName', 'maladiesraresinfo.org']);\r\n_gaq.push(['_trackPageview']);\r\n\r\n(function() {\r\n\tvar ga = document.createElement('script'); ga.type = 'text/javascript'; ga.async = true;\r\n\tga.src = ('https:' == document.location.protocol ? 'https://ssl' : 'http://www') + '.google-analytics.com/ga.js';\r\n\tvar s = document.getElementsByTagName('script')[0]; s.parentNode.insertBefore(ga, s);\r\n})();\r\n\r\n</script>​\r\n</body>\r\n</html>",
  "url": "https://forums.maladiesraresinfo.org/ucp.php?i=pm&mode=compo"
}