{
  "contentId": "a195fb70-886b-11e9-8f96-97f71b5221d6",
  "html": "<!DOCTYPE html>\n<html lang=\"en\">\n  <head>\n    <meta charset=\"utf-8\">\n    <title>Despair - Impulsive and compulsive behaviour - Parkinson&#39;s UK Forum</title>\n    <meta name=\"description\" content=\"My husband tried to commit suicide yesterday. \r\nHe is in hospital recovering. \r\nAll the counselling and  help provided over the last 4 years cannot undo the terrible damage caused by the DAs and the effect on our marriag&amp;hellip;\">\n    <meta name=\"author\" content=\"\">\n<meta name=\"generator\" content=\"Discourse 2.2.5 - https://github.com/discourse/discourse version c294ff3609f988dcafb742e91606d60ca13b794d\">\n<link rel=\"icon\" type=\"image/png\" href=\"https://forum.parkinsons.org.uk/uploads/db7928/original/2X/3/311fc84f89f49f38601a2f16b295b6f03d3ce5dd.jpg\">\n<link rel=\"apple-touch-icon\" type=\"image/png\" href=\"https://forum.parkinsons.org.uk/uploads/db7928/original/2X/3/311fc84f89f49f38601a2f16b295b6f03d3ce5dd.jpg\">\n<meta name=\"theme-color\" content=\"#ffffff\">\n<meta name=\"viewport\" content=\"width=device-width, minimum-scale=1.0, maximum-scale=1.0, user-scalable=yes\">\n<link rel=\"canonical\" href=\"https://forum.parkinsons.org.uk/t/despair/7745?page=5\" />\n<script type=\"application/ld+json\">{\"@context\":\"http://schema.org\",\"@type\":\"WebSite\",\"url\":\"https://forum.parkinsons.org.uk\",\"potentialAction\":{\"@type\":\"SearchAction\",\"target\":\"https://forum.parkinsons.org.uk/search?q={search_term_string}\",\"query-input\":\"required name=search_term_string\"}}</script>\n<link rel=\"search\" type=\"application/opensearchdescription+xml\" href=\"https://forum.parkinsons.org.uk/opensearch.xml\" title=\"Parkinson&#39;s UK Forum Search\">\n\n      <link href=\"/stylesheets/desktop_f99246ae801b083d3e4cca979d0dade8615b39ac.css?__ws=forum.parkinsons.org.uk\" media=\"all\" rel=\"stylesheet\" data-target=\"desktop\" data-theme-id=\"12\"/>\n      <link href=\"/stylesheets/desktop_theme_12_5d27531cf43f9df0c03a6a6ec3109dd05f9dfc49.css?__ws=forum.parkinsons.org.uk\" media=\"all\" rel=\"stylesheet\" data-target=\"desktop_theme\" data-theme-id=\"12\"/>\n    <link href=\"https://fonts.googleapis.com/css?family=Open+Sans\" rel=\"stylesheet\">\n\n    <meta id=\"data-ga-universal-analytics\" data-tracking-code=\"UA-4855628-1\" data-json=\"{&quot;cookieDomain&quot;:&quot;auto&quot;}\" data-auto-link-domains=\"\">\n\n<link rel='preload' href='/assets/google-universal-analytics-f35b4da49411e6f5559073523aab983da483976a3954c79c756f8579f6fbd6ef.js' as='script'/>\n<script src='/assets/google-universal-analytics-f35b4da49411e6f5559073523aab983da483976a3954c79c756f8579f6fbd6ef.js'></script>\n\n      <link rel=\"alternate\" type=\"application/rss+xml\" title=\"RSS feed of &#39;Despair&#39;\" href=\"https://forum.parkinsons.org.uk/t/despair/7745.rss\" />\n  <meta property=\"og:site_name\" content=\"Parkinson&#39;s UK Forum\" />\n<meta name=\"twitter:card\" content=\"summary\" />\n<meta name=\"twitter:image\" content=\"https://forum.parkinsons.org.uk/uploads/db7928/original/2X/3/311fc84f89f49f38601a2f16b295b6f03d3ce5dd.jpg\" />\n<meta property=\"og:image\" content=\"https://forum.parkinsons.org.uk/uploads/db7928/original/2X/3/311fc84f89f49f38601a2f16b295b6f03d3ce5dd.jpg\" />\n<meta property=\"og:url\" content=\"https://forum.parkinsons.org.uk/t/despair/7745?page=5\" />\n<meta name=\"twitter:url\" content=\"https://forum.parkinsons.org.uk/t/despair/7745?page=5\" />\n<meta property=\"og:title\" content=\"Despair\" />\n<meta name=\"twitter:title\" content=\"Despair\" />\n<meta property=\"og:description\" content=\"Hi Golden Girl \r I have just checked my neupro patches.  There are references scattered about under various headings: \r You May experience the following side effects:  Covers most of what it should but not quantified and ends  with  &quot;Tell our doctor if.............he/she will discuss ways of managing or reducing symptoms.&quot; \r Common Side Effects  Up to 1 in 10 people   List includes increased sex drive. \r Uncommon Side Effects  up to 1 in 100 people.. List icludes   inability to resist the impuls...\" />\n<meta name=\"twitter:description\" content=\"Hi Golden Girl \r I have just checked my neupro patches.  There are references scattered about under various headings: \r You May experience the following side effects:  Covers most of what it should but not quantified and ends  with  &quot;Tell our doctor if.............he/she will discuss ways of managing or reducing symptoms.&quot; \r Common Side Effects  Up to 1 in 10 people   List includes increased sex drive. \r Uncommon Side Effects  up to 1 in 100 people.. List icludes   inability to resist the impuls...\" />\n<meta property=\"article:published_time\" content=\"2015-03-16T23:16:10+00:00\" />\n<meta property=\"og:ignore_canonical\" content=\"true\" />\n\n      <link rel=\"prev\" href=\"/t/despair/7745?page=4\">\n      <link rel=\"next\" href=\"/t/despair/7745?page=6\">\n\n\n    \n  </head>\n  <body class=\"crawler\">\n    <header role=\"banner\">\n    <div class=\"region region-header\">\n        <div class=\"region-header-wrapper\">\n            <div id=\"block-parkinsons-d8-branding\" class=\"block block-system block-system-branding-block\">\n                <a href=\"/\" title=\"Home\" rel=\"home\" class=\"site-logo\">\n                    <img src=\"https://forum.parkinsons.org.uk/uploads/db7928/original/2X/8/862bb7d172e7d127e7f3e147ec43594aa62ac945.png\" alt=\"Parkinson's UK. Change Attitudes. Find a cure. Join us.\">\n                </a>\n            </div>\n            <div id=\"block-helpline\" class=\"block block-block-content block-block-content871cd5af-b938-4947-9dc0-d5c211d08fe3 style-phone\">\n                <div class=\"field field--name-field-link field--type-link field--label-hidden field__item\"><a href=\"tel:+448088000303\">Helpline 0808 800 0303</a></div>\n            </div>\n            <div id=\"block-shop\" class=\"block block-block-content block-block-content6fba5ae5-7797-49cd-8367-f321d8111cd6 style-regular\">\n                <div class=\"field field--name-field-link field--type-link field--label-hidden field__item\"><a href=\"https://shop.parkinsons.org.uk\">Shop</a></div>\n            </div>\n        </div>\n    </div>\n</header>\n\n\n<script src=\"/theme-javascripts/b7e9763fcb584fc8265c56a9f557cd6d2e1e8ed8.js?__ws=forum.parkinsons.org.uk\"></script>\n    <header>\n      <a href=\"/\">\n          <img src=\"https://forum.parkinsons.org.uk/uploads/db7928/original/2X/8/862bb7d172e7d127e7f3e147ec43594aa62ac945.png\" alt=\"Parkinson&#39;s UK Forum\" id=\"site-logo\" style=\"max-width: 150px;\">\n      </a>\n    </header>\n    <div id=\"main-outlet\" class=\"wrap\">\n      <h1>\n  <a href=\"/t/despair/7745\">Despair</a>\n</h1>\n\n<div id='breadcrumbs'>\n    <div id=\"breadcrumb-0\" itemscope itemtype=\"http://data-vocabulary.org/Breadcrumb\"\n        itemref=\"breadcrumb-1\"\n      >\n      <a href=\"/c/about-parkinsons-and-health\" itemprop=\"url\">\n        <span itemprop=\"title\">About Parkinson&#39;s and health</span>\n      </a>\n    </div>\n    <div id=\"breadcrumb-1\" itemscope itemtype=\"http://data-vocabulary.org/Breadcrumb\"\n>\n      <a href=\"/c/about-parkinsons-and-health/impulsive-and-compulsive-behaviour\" itemprop=\"url\">\n        <span itemprop=\"title\">Impulsive and compulsive behaviour</span>\n      </a>\n    </div>\n</div>\n\n\n\n\n\n<hr>\n\n\n  <div itemscope itemtype='http://schema.org/DiscussionForumPosting'>\n      <div class='creator'>\n        <span>\n          <a href='/u/Eileenpatricia'><b itemprop='author'>Eileenpatricia</b></a>\n          \n          <time datetime='2015-03-16T23:16:10Z' itemprop='datePublished'>\n            2015-03-16 23:16:10 UTC\n          </time>\n        </span>\n        <span itemprop='position'>#81</span>\n      </div>\n      <div class='post' itemprop='articleBody'>\n        <p>Hi Golden Girl</p>\r\n<p>I have just checked my neupro patches.&nbsp; There are references scattered about under various headings:</p>\r\n<p><strong>You May experience the following side effects</strong>:&nbsp; Covers most of what it should but not quantified and ends&nbsp; with&nbsp; &quot;Tell our doctor if.............he/she will discuss ways of managing or reducing symptoms.&quot;</p>\r\n<p><strong>Common Side Effects</strong>&nbsp; Up to 1 in 10 people&nbsp;&nbsp; List includes increased sex drive.</p>\r\n<p><strong>Uncommon Side Effects</strong>&nbsp; up to 1 in 100 people.. List icludes &nbsp; inability to resist the impulse to perform an action that is harmful involving excessive gambling and repetitive meaningless actions</p>\r\n<p><strong>Warnings and precautions&nbsp; </strong>Tell your doctor if you or your family/carer notices that you are developing urges or cravings in ways that are unusual for you...........again covers the ground but dneither quantifies nor&nbsp; or addresses the deviousness side of things. &nbsp; &nbsp; &quot;Your doctor may need to adjust or stop your dose&quot;</p>\r\n<p>I have been on the patches for about 9 months now and it will be interesting to see if the neuro broaches&nbsp; the subject with any greater conviction this Wednesday than he did a year ago.&nbsp; .&nbsp; I have raised the issue several times in the three years since they were first proposed to me&nbsp; because of a family history..&nbsp; In 2009,,, my then PD nurse had never come across this problem.&nbsp; How come before I knew I had PD and as a lay person I had.&nbsp; Years and years ago I decided that my father had some sort of dopamine affliction.</p>\r\n<p>My PD nurse did raise it but in a very hesitant way which was a shadow of what she claimed to have done in her letter to the GP.</p>\r\n<p>It would be interesting to know&nbsp; what warnings are given on other d.a.&#39;s. and even more interesting to know what, if any, warnings have been aimed specifically at the medics who prescribe these drugs.&nbsp;</p>\r\n<p>&nbsp;</p>\r\n<p>&nbsp;</p>\r\n<p>&nbsp;</p>\r\n<p>&nbsp;</p>\r\n<p>&nbsp;</p>\n      </div>\n      <meta itemprop='interactionCount' content='UserLikes:0'>\n      <meta itemprop='interactionCount' content='UserComments:0'>\n      <meta itemprop='headline' content='Despair'>\n      <hr>\n  </div>\n  <div itemscope itemtype='http://schema.org/DiscussionForumPosting'>\n      <div class='creator'>\n        <span>\n          <a href='/u/goldengirl'><b itemprop='author'>goldengirl</b></a>\n          \n          <time datetime='2015-03-17T09:47:00Z' itemprop='datePublished'>\n            2015-03-17 09:47:00 UTC\n          </time>\n        </span>\n        <span itemprop='position'>#82</span>\n      </div>\n      <div class='post' itemprop='articleBody'>\n        <p>Thanks, Eileenpatricia,</p>\r\n<p>As I feared there has been no attempt to give the undisputed figures in the warnings.</p>\r\n<p>UP TO 1 in 100?</p>\r\n<p>Everyone now agrees with the Mayo Clinic 2010 figure of 1 in 3 on a therapeutic dose ( the amount taken by someone with Parkinsons) and 1 in 2 of men under 50.</p>\r\n<p>Why does PDUK not tackle the drug companies about these grossly misleading statistics?</p>\r\n<p>And why do so many medics not know ?</p>\r\n<p>And why does BB not know about her medications probable side effects?</p>\r\n<p>I have tried so hard to find a way to overcome the dishonesty and greed of the profit-hungry drug companies who let lives be ruined in pursuit of their billions of pounds of annual profits....&pound;7.6 billion for GSK last year.</p>\r\n<p>Please PDUK&nbsp;come to our aid instead of hand-wringing.</p>\r\n<p>THESE LEAFLET WARNINGS ARE INACCURATE, DANGEROUS AND NEED CHANGING.</p>\r\n<p>GG</p>\n      </div>\n      <meta itemprop='interactionCount' content='UserLikes:0'>\n      <meta itemprop='interactionCount' content='UserComments:0'>\n      <meta itemprop='headline' content='Despair'>\n      <hr>\n  </div>\n  <div itemscope itemtype='http://schema.org/DiscussionForumPosting'>\n      <div class='creator'>\n        <span>\n          <a href='/u/goldengirl'><b itemprop='author'>goldengirl</b></a>\n          \n          <time datetime='2015-03-17T18:12:10Z' itemprop='datePublished'>\n            2015-03-17 18:12:10 UTC\n          </time>\n        </span>\n        <span itemprop='position'>#83</span>\n      </div>\n      <div class='post' itemprop='articleBody'>\n        <p>Suma,</p>\r\n<p>I am keen to know if PDUK have put pressure on drug companies to give accurate info on these side effects in DA leaflets.</p>\r\n<p>If not, is there any plan to do so in the near future?</p>\r\n<p>Thanks</p>\r\n<p>GG</p>\n      </div>\n      <meta itemprop='interactionCount' content='UserLikes:0'>\n      <meta itemprop='interactionCount' content='UserComments:1'>\n      <meta itemprop='headline' content='Despair'>\n      <hr>\n  </div>\n  <div itemscope itemtype='http://schema.org/DiscussionForumPosting'>\n      <div class='creator'>\n        <span>\n          <a href='/u/deleted.user'><b itemprop='author'>deleted.user</b></a>\n          \n          <time datetime='2015-03-18T10:31:20Z' itemprop='datePublished'>\n            2015-03-18 10:31:20 UTC\n          </time>\n        </span>\n        <span itemprop='position'>#84</span>\n      </div>\n      <div class='post' itemprop='articleBody'>\n        <p>Hi Goldengirl,</p>\r\n<p>Your comments have been passed on to Suma and she will get back to you soon.</p>\r\n<p>Kind regards,<br />\r\n\tAlethea</p>\n      </div>\n      <meta itemprop='interactionCount' content='UserLikes:0'>\n      <meta itemprop='interactionCount' content='UserComments:0'>\n      <meta itemprop='headline' content='Despair'>\n      <hr>\n  </div>\n  <div itemscope itemtype='http://schema.org/DiscussionForumPosting'>\n      <div class='creator'>\n        <span>\n          <a href='/u/Semele'><b itemprop='author'>Semele</b></a>\n          \n          <time datetime='2015-03-19T20:34:13Z' itemprop='datePublished'>\n            2015-03-19 20:34:13 UTC\n          </time>\n        </span>\n        <span itemprop='position'>#85</span>\n      </div>\n      <div class='post' itemprop='articleBody'>\n        <p>It is clearly possible for neuros and nurses to get this right. When I was dx in Aug 2012, my neuro not only spelled out the possible side effects, but had me sign a form saying I had been told about behavioural changes. On every visit to either neuro or nurse I and my o/h have both been formally asked about any possibility of behaviour changes.</p>\r\n<p>My PIL for Pramipexole has a similiar warning close to the top of the leaflet spelling out what behaviour you or your carer should be looking out for.</p>\r\n<p>Semele</p>\n      </div>\n      <meta itemprop='interactionCount' content='UserLikes:0'>\n      <meta itemprop='interactionCount' content='UserComments:0'>\n      <meta itemprop='headline' content='Despair'>\n      <hr>\n  </div>\n  <div itemscope itemtype='http://schema.org/DiscussionForumPosting'>\n      <div class='creator'>\n        <span>\n          <a href='/u/john947'><b itemprop='author'>john947</b></a>\n          \n          <time datetime='2015-03-24T17:50:47Z' itemprop='datePublished'>\n            2015-03-24 17:50:47 UTC\n          </time>\n        </span>\n        <span itemprop='position'>#86</span>\n      </div>\n      <div class='post' itemprop='articleBody'>\n        <p>Ive had PD sine 2009.I take a small amount of 12 meg of requip.It realy hasn&#39;t had anymore impulse effects then Ive had previously.Im so sorry your husband attempetd to end is life.There has been great hope for people who suffer emotional distress.Dr.Abraham Low developed a method to help people avoid suicide and mental illness.I was a group leader for 20 years and stiil advocate for Dr. low</p>\r\n<p>While my PD is moderate and controlled well sometimes with meds i now have myoclonus to add to PD.</p>\r\n<p>I use to be depressed before PD for many years.One thing im not now is depressed.I get up and I&#39;m looking forward to a new day,as soon as my body loses the chains of PD,haha.</p>\r\n<p>Many people say depression is unavoidable in PD .It is biochemical like PD and need clinical care.</p>\r\n<p>I&#39;m &nbsp;firm believer&nbsp;and user of Dr.Abraham low method and without a doubt my long battle with depression is won.I take no meds other than PD sinemet&nbsp;and reqipp now.</p>\r\n<p>You can&#39;t get rid of our PD but you can avoid emotional strain from it&nbsp;</p>\r\n<p>Dr James Parkinson and Dr.Abraham Low were very similar men.Both were great advocate for the mentaly&nbsp;ill and men of great vision.Sometimes I often wonder if God sends men like these to Earth as a gift to men</p>\r\n<p>Look it up <a href=\"http://www.lowselfhelpsystems.org\" target=\"_blank\">www.lowselfhelpsystems.org</a></p>\r\n<p>john</p>\n      </div>\n      <meta itemprop='interactionCount' content='UserLikes:0'>\n      <meta itemprop='interactionCount' content='UserComments:0'>\n      <meta itemprop='headline' content='Despair'>\n      <hr>\n  </div>\n  <div itemscope itemtype='http://schema.org/DiscussionForumPosting'>\n      <div class='creator'>\n        <span>\n          <a href='/u/goldengirl'><b itemprop='author'>goldengirl</b></a>\n          \n          <time datetime='2015-03-24T19:50:58Z' itemprop='datePublished'>\n            2015-03-24 19:50:58 UTC\n          </time>\n        </span>\n        <span itemprop='position'>#87</span>\n      </div>\n      <div class='post' itemprop='articleBody'>\n        <p>Semele, it is good to hear that some neuros are getting it right!</p>\r\n<p>How do we ensure all the medics have this approach?</p>\r\n<p>John, the &nbsp;outline of your involvement in this approach to depression is very interesting.</p>\r\n<p>I looked at the info and wonder if these meetings take place in the UK as the schedule is only for America?</p>\r\n<p>I am pleased to hear it has helped you.</p>\r\n<p>Love</p>\r\n<p>GG</p>\n      </div>\n      <meta itemprop='interactionCount' content='UserLikes:0'>\n      <meta itemprop='interactionCount' content='UserComments:0'>\n      <meta itemprop='headline' content='Despair'>\n      <hr>\n  </div>\n  <div itemscope itemtype='http://schema.org/DiscussionForumPosting'>\n      <div class='creator'>\n        <span>\n          <a href='/u/Sadiebear'><b itemprop='author'>Sadiebear</b></a>\n          \n          <time datetime='2015-03-24T20:29:19Z' itemprop='datePublished'>\n            2015-03-24 20:29:19 UTC\n          </time>\n        </span>\n        <span itemprop='position'>#88</span>\n      </div>\n      <div class='post' itemprop='articleBody'>\n        <p>Hi</p>\r\n<p>I&#39;ve just had my 6 mth app at the hospital and although I keep on going in my own sweet way doing as much as&nbsp;I can, it wasn&#39;t too good news about any help to make things better in the near future.&nbsp;&nbsp; I was told that there were 3 things left for me to try if I felt I couldn&#39;t cope, a: Apo Go which I am already on, b: the other meds people have mentioned&nbsp; {I&#39;ll come up with it later} or c;&nbsp; DB S.&nbsp;&nbsp; So here we go again!</p>\n      </div>\n      <meta itemprop='interactionCount' content='UserLikes:0'>\n      <meta itemprop='interactionCount' content='UserComments:0'>\n      <meta itemprop='headline' content='Despair'>\n      <hr>\n  </div>\n  <div itemscope itemtype='http://schema.org/DiscussionForumPosting'>\n      <div class='creator'>\n        <span>\n          <a href='/u/sheffy'><b itemprop='author'>sheffy</b></a>\n          \n          <time datetime='2015-03-26T17:10:37Z' itemprop='datePublished'>\n            2015-03-26 17:10:37 UTC\n          </time>\n        </span>\n        <span itemprop='position'>#89</span>\n      </div>\n      <div class='post' itemprop='articleBody'>\n        <p>&nbsp;</p>\r\n<p>Hi, I have been&nbsp;reading all&nbsp;the recent posts with great interest. I was DX in 2010/2011, and didn&#39;t start taking any meds till 2012, which of course happened to be a DA (Ropinirole). I feel deeply for those who have had all the&nbsp;problems relating to this med, but I can honestly say, I am on 14mg of Ropinirole, that I have not had any of these problems, and hope to god I never will. I can only say with tongue in cheek that I have only, dare I say it, praise for this medicine. It has treated my parkinsons well and I am still on it, with no other medication. It suits me fine. I don&#39;t know how many PWP it effects in the way you describe, but&nbsp;it&#39;s imperative that all neurologists etc., must be well educated on it&#39;s side effects, I was indeed told about the side effects by my neuro prior to my taking it. and I&#39;m glad to say I have been one of the lucky ones.</p>\r\n<p>Regards Sheffy</p>\n      </div>\n      <meta itemprop='interactionCount' content='UserLikes:0'>\n      <meta itemprop='interactionCount' content='UserComments:0'>\n      <meta itemprop='headline' content='Despair'>\n      <hr>\n  </div>\n  <div itemscope itemtype='http://schema.org/DiscussionForumPosting'>\n      <div class='creator'>\n        <span>\n          <a href='/u/goldengirl'><b itemprop='author'>goldengirl</b></a>\n          \n          <time datetime='2015-03-26T17:52:34Z' itemprop='datePublished'>\n            2015-03-26 17:52:34 UTC\n          </time>\n        </span>\n        <span itemprop='position'>#90</span>\n      </div>\n      <div class='post' itemprop='articleBody'>\n        <p>I am pleased to hear that you have good results from Ropinirole, Shelfin.</p>\r\n<p>The majority do, but 1 in 3 on a therapeutic dose for Parkinsons will suffer devastating &nbsp;OCD side effects.</p>\r\n<p>Not all neuros warn or monitor and GSK&nbsp;refuse to change the inaccurate leaflet warnings.</p>\r\n<p>That is why we carry on battling to get &nbsp;accurate info out there.</p>\r\n<p>We gave up long ago expecting an apology and compensation.</p>\r\n<p>Profit and greed rule!</p>\r\n<p>GG</p>\r\n<p>&nbsp;</p>\n      </div>\n      <meta itemprop='interactionCount' content='UserLikes:0'>\n      <meta itemprop='interactionCount' content='UserComments:0'>\n      <meta itemprop='headline' content='Despair'>\n      <hr>\n  </div>\n  <div itemscope itemtype='http://schema.org/DiscussionForumPosting'>\n      <div class='creator'>\n        <span>\n          <a href='/u/sheffy'><b itemprop='author'>sheffy</b></a>\n          \n          <time datetime='2015-03-26T19:15:14Z' itemprop='datePublished'>\n            2015-03-26 19:15:14 UTC\n          </time>\n        </span>\n        <span itemprop='position'>#91</span>\n      </div>\n      <div class='post' itemprop='articleBody'>\n        <p>&nbsp;</p>\r\n<p>No doubt we will all have to carry on fighting and battling for justice.</p>\r\n<p>I must have one of the&nbsp; a good neurologist I might say. My physio has also given me a lot of info on my meds and has told me to watch for anything untoward, for which I will. I do seriously&nbsp;feel for&nbsp;the things that those&nbsp; fellow PWP have had to go through&nbsp;in taking&nbsp;this med that has been prescribed for them without any proper consultation.</p>\r\n<p>Take care I wish you well</p>\r\n<p>Sheila</p>\n      </div>\n      <meta itemprop='interactionCount' content='UserLikes:0'>\n      <meta itemprop='interactionCount' content='UserComments:0'>\n      <meta itemprop='headline' content='Despair'>\n      <hr>\n  </div>\n  <div itemscope itemtype='http://schema.org/DiscussionForumPosting'>\n      <div class='creator'>\n        <span>\n          <a href='/u/john947'><b itemprop='author'>john947</b></a>\n          \n          <time datetime='2015-03-26T19:53:29Z' itemprop='datePublished'>\n            2015-03-26 19:53:29 UTC\n          </time>\n        </span>\n        <span itemprop='position'>#92</span>\n      </div>\n      <div class='post' itemprop='articleBody'>\n        <p>I use to have another DX long before PD.It was OCD,lol.Well thats before i knew about Dr. Low.His treatemt&nbsp;for compulsion was the same for all the rest of garden variety symptoms.The are just a manifestation of a nervous imbalence caused by tenseness.I can&#39;t say it isn&#39;t there with agonist but I do know all about compulsion.Sort of like when we becoming fixated on something our minds lock,haha&nbsp;cookie jar,hahaI even took the latest oCD drug livox to no avail.</p>\r\n<p>I do know others who say it made them gamble,but even after off the meds they still love to gamble.</p>\r\n<p>So far Im&nbsp;up to 12 mg requip&nbsp;and no change,One thing that helps to avoid becoming obsessed is have a balenced&nbsp;day,not to much of anything to good or to bad,enjoy the good a day brings and savor our victories</p>\r\n<p>.Of course being close to our Creator is a rewarding experience.He knows all to well our troubles and is there for us.</p>\r\n<p><br />\r\n\t<img alt=\"confused\" height=\"23\" src=\"http://www.parkinsons.org.uk/sites/all/modules/custom/park_smilies/images/gifs/confused.gif\" title=\"confused\" width=\"23\" /></p>\r\n<p>&nbsp;</p>\n      </div>\n      <meta itemprop='interactionCount' content='UserLikes:0'>\n      <meta itemprop='interactionCount' content='UserComments:0'>\n      <meta itemprop='headline' content='Despair'>\n      <hr>\n  </div>\n  <div itemscope itemtype='http://schema.org/DiscussionForumPosting'>\n      <div class='creator'>\n        <span>\n          <a href='/u/deleted.user'><b itemprop='author'>deleted.user</b></a>\n          \n          <time datetime='2015-04-07T10:55:07Z' itemprop='datePublished'>\n            2015-04-07 10:55:07 UTC\n          </time>\n        </span>\n        <span itemprop='position'>#93</span>\n      </div>\n      <div class='post' itemprop='articleBody'>\n        <p>Hi goldengirl and everyone,</p>\r\n<p><span style=\"line-height: 1.4;\">Apologies that it has taken me some time to get back to you - I've been out of the office a fair bit recently and also wanted to check with colleagues before responding.</span></p>\r\n<p><span style=\"line-height: 1.4;\">The most recognised research in relation to impulsive and compulsive behaviour is still the Weintraub study conducted in 2010 and it's still being quoted in recent papers including this one from last year -&nbsp;</span><span style=\"line-height: 1.4;\"><a href=\"https://www.ncbi.nlm.nih.gov/pmc/articles/PMC4197852/\" target=\"_blank\">http://www.ncbi.nlm.nih.gov/pmc/articles/PMC4197852/</a>. &nbsp;A couple of years ago,&nbsp;Kieran Breen (who was then our Director of Research) explained in a forum post -&nbsp;</span><span style=\"line-height: 1.4;\"><a href=\"https://www.parkinsons.org.uk/comment/54135#comment-54135\" target=\"_blank\">https://www.parkinsons.org.uk/comment/54135#comment-54135</a> - why this was still the best one for us to refer to and speaking to my colleagues in our research team, this has not changed.</span></p>\r\n<p>I'm pleased to see that some people have reported being given good information about potential side effects from their medication by their professionals and for us, ensuring all professionals do this is what will be key in addressing this issue effectively (particularly as people only see the information leaflets that come with medication once these have already been prescribed to them).</p>\r\n<p>That being said, given that one of our aims with the new strategy is to support people with Parkinson's to take control, ensuring their medication is working for them (including ensuring completeness of information to inform decision making) would be key to this and so does seem to be something we should explore. &nbsp;Thanks for bringing this to our attention and I'll hopefully have something to report back on soon.</p>\r\n<p>Kind regards,</p>\r\n<p>Suma</p>\n      </div>\n      <meta itemprop='interactionCount' content='UserLikes:0'>\n      <meta itemprop='interactionCount' content='UserComments:0'>\n      <meta itemprop='headline' content='Despair'>\n      <hr>\n  </div>\n  <div itemscope itemtype='http://schema.org/DiscussionForumPosting'>\n      <div class='creator'>\n        <span>\n          <a href='/u/goldengirl'><b itemprop='author'>goldengirl</b></a>\n          \n          <time datetime='2015-04-07T12:35:49Z' itemprop='datePublished'>\n            2015-04-07 12:35:49 UTC\n          </time>\n        </span>\n        <span itemprop='position'>#94</span>\n      </div>\n      <div class='post' itemprop='articleBody'>\n        <p>This is my third attempt as post disappears as soon as I attempt to correct lack of capital letters!</p>\r\n<p>Thank you Suma for getting back to me.</p>\r\n<p>I would like PDUK to study all DA warning leaflets and put pressure on drug companies to publish accurate warnings .</p>\r\n<p>It is ridiculous that these leaflets still&nbsp; offer &quot; up to 1 in 100&quot; patients may suffer these side effects.</p>\r\n<p>Even if you prefer to use Weintraub&#39;s figures of &quot;over 14 % &quot; , this is grossly inaccurate.</p>\r\n<p>Weintraub&nbsp;includes patients on a non-therapeutic dose for Parkinsons and those on a very low dose for other conditions such as restless legs, as I understand it.</p>\r\n<p>The Mayo Clinic in 2010 gave the figures for those on a therapeutic dose for Parkinson&#39;s as 1 in 3 and 1 in 2 for men under 50.</p>\r\n<p>Many patients rely on the leaflets for info on the side effects.</p>\r\n<p>They are put at risk because of the drug companies reluctance to tell the truth.</p>\r\n<p>We need PDUK to act to help patients be aware of these side effects before more lives are ruined.</p>\r\n<p>GG</p>\n      </div>\n      <meta itemprop='interactionCount' content='UserLikes:0'>\n      <meta itemprop='interactionCount' content='UserComments:0'>\n      <meta itemprop='headline' content='Despair'>\n      <hr>\n  </div>\n  <div itemscope itemtype='http://schema.org/DiscussionForumPosting'>\n      <div class='creator'>\n        <span>\n          <a href='/u/Eileenpatricia'><b itemprop='author'>Eileenpatricia</b></a>\n          \n          <time datetime='2015-04-07T20:09:09Z' itemprop='datePublished'>\n            2015-04-07 20:09:09 UTC\n          </time>\n        </span>\n        <span itemprop='position'>#95</span>\n      </div>\n      <div class='post' itemprop='articleBody'>\n        <p>Hi Golden Girl,&nbsp;</p>\r\n<p>Since I posted, re. the Neupro (Rotigone) I found a 2014 updated leaflet but it still does not go above 1 in 10 for any of ocd type side effects .&nbsp; If PD UK downloaded the patient leaflets, presumably they would be the latest version .</p>\r\n<p>&nbsp;</p>\r\n<p>I seem to be the&nbsp; one out of a hundred (according to the leaflet) who has experienced binge eating.k&nbsp; Its calmed down now but I when I started the patches and I was woken in the night by my Polymyalgia muscle pain I was&nbsp; down in the kitchen stuffing my face in a most unseemly manner.&nbsp; I&nbsp; PUT ON OVER HALF A STONE IN A FEW MONTHS.&nbsp; tHE pd NURSE THOUGHT IT WAS THE STEROIDS i AM ON BUT THE FACT IS THAT i HAVE BEEN ON THEM ON AND OFF FOR SEVERAL YEARS AND NEVER PUT ON WEIGHT&nbsp; Sorry but I cn&#39;t be bother to correct the capitals&nbsp; - I am not shouting.</p>\r\n<p>On another subject, I am sure that the number of PWP&#39;s is underestimated - apparently there a\\re no firm statistics anywhere in the world.&nbsp; Astonishing.</p>\r\n<p>&nbsp;</p>\r\n<p>&nbsp;</p>\n      </div>\n      <meta itemprop='interactionCount' content='UserLikes:0'>\n      <meta itemprop='interactionCount' content='UserComments:0'>\n      <meta itemprop='headline' content='Despair'>\n      <hr>\n  </div>\n  <div itemscope itemtype='http://schema.org/DiscussionForumPosting'>\n      <div class='creator'>\n        <span>\n          <a href='/u/goldengirl'><b itemprop='author'>goldengirl</b></a>\n          \n          <time datetime='2015-04-08T08:54:19Z' itemprop='datePublished'>\n            2015-04-08 08:54:19 UTC\n          </time>\n        </span>\n        <span itemprop='position'>#96</span>\n      </div>\n      <div class='post' itemprop='articleBody'>\n        <p>Thanks for the update, Eileenpatricia.</p>\r\n<p>It seems an easy task to me for PDUK&nbsp;to download the DA leaflets, check the warnings and if they are inaccurate press the drug companies to give realistic statistics.</p>\r\n<p>Using Weintraub it would read &quot;at least 14% of patients will suffer ICDs&quot;</p>\r\n<p>I would prefer the higher &nbsp;Mayo Clinic figures...1 in 3.</p>\r\n<p>The warning needs to add that as the dose increases the likelihood of these side effects increases.</p>\r\n<p>The gross inaccuracy of the leaflets at the moment is unacceptable.</p>\r\n<p>GG</p>\n      </div>\n      <meta itemprop='interactionCount' content='UserLikes:0'>\n      <meta itemprop='interactionCount' content='UserComments:0'>\n      <meta itemprop='headline' content='Despair'>\n      <hr>\n  </div>\n  <div itemscope itemtype='http://schema.org/DiscussionForumPosting'>\n      <div class='creator'>\n        <span>\n          <a href='/u/benji'><b itemprop='author'>benji</b></a>\n          \n          <time datetime='2015-04-09T22:36:23Z' itemprop='datePublished'>\n            2015-04-09 22:36:23 UTC\n          </time>\n        </span>\n        <span itemprop='position'>#97</span>\n      </div>\n      <div class='post' itemprop='articleBody'>\n        <p>17 years ago, on diagnosis, OH was put on Requip and within 18 months was on 24mg/day. On referral to another consultant 10 years ago this was reduced to 12mg/day.That was not problematic.</p>\r\n<p>However, on the&nbsp;advice of our present consultant, to&nbsp; try&nbsp;reducing the Requip by even 1mg over a long period and not every day, but every few days, has proven impossible. OCD is just as bad, even&nbsp; worse and withdrawal symptoms are dreadful! Even our consultant said that getting down from a high dose to a lower one is relatively uncomplicated BUT getting down further is a bit of a nightmare. IMO,&nbsp;these drugs should be banned.</p>\n      </div>\n      <meta itemprop='interactionCount' content='UserLikes:0'>\n      <meta itemprop='interactionCount' content='UserComments:0'>\n      <meta itemprop='headline' content='Despair'>\n      <hr>\n  </div>\n  <div itemscope itemtype='http://schema.org/DiscussionForumPosting'>\n      <div class='creator'>\n        <span>\n          <a href='/u/goldengirl'><b itemprop='author'>goldengirl</b></a>\n          \n          <time datetime='2015-04-10T09:07:59Z' itemprop='datePublished'>\n            2015-04-10 09:07:59 UTC\n          </time>\n        </span>\n        <span itemprop='position'>#98</span>\n      </div>\n      <div class='post' itemprop='articleBody'>\n        <p>I feel for you, Benji trying to resolve this situation.</p>\r\n<p>When it happened to us, our Parkinsons&nbsp;nurse arranged for my husband to be admitted to an Intermediate Care ward.</p>\r\n<p>He was in hospital for a month and weaned off the drugs completely.</p>\r\n<p>I won&#39;t pretend it was easy.... he suffered dreadfully, physically and mentally.</p>\r\n<p>We received psychiatric support and he was put on a slowly increasing Sinemet regime.</p>\r\n<p>The mental health team continued to support both of us for 2 years and eventually the OCDs faded away after about a year.</p>\r\n<p>Now 4 years on he is physically very well but still finds it hard to deal with the knowledge of his drug-fuelled behaviour and all it cost us emotionally and financially.</p>\r\n<p>The only advice I can offer as all else has failed is to ask if he can be admitted to hospital and taken off the DAs&nbsp;under supervision.</p>\r\n<p>As I understand it, if the OCDs are there, even a small amount of the drug will maintain the disorder.</p>\r\n<p>I do wish you the best of luck.....there is life after DAs&nbsp;.</p>\r\n<p>Love</p>\r\n<p>GG</p>\r\n<p>&nbsp;</p>\n      </div>\n      <meta itemprop='interactionCount' content='UserLikes:0'>\n      <meta itemprop='interactionCount' content='UserComments:0'>\n      <meta itemprop='headline' content='Despair'>\n      <hr>\n  </div>\n  <div itemscope itemtype='http://schema.org/DiscussionForumPosting'>\n      <div class='creator'>\n        <span>\n          <a href='/u/goldengirl'><b itemprop='author'>goldengirl</b></a>\n          \n          <time datetime='2015-04-10T09:11:09Z' itemprop='datePublished'>\n            2015-04-10 09:11:09 UTC\n          </time>\n        </span>\n        <span itemprop='position'>#99</span>\n      </div>\n      <div class='post' itemprop='articleBody'>\n        <p>Hi Suma</p>\r\n<p>I wonder if you read my post asking if PDUK have any plans to,pressure the drug companies to put accurate warnings in DA leaflets?</p>\r\n<p>Many PWP would be spared all the anguish if they were properly alerted to the real scale of the problem.</p>\r\n<p>Thanks</p>\r\n<p>GG</p>\n      </div>\n      <meta itemprop='interactionCount' content='UserLikes:0'>\n      <meta itemprop='interactionCount' content='UserComments:0'>\n      <meta itemprop='headline' content='Despair'>\n      <hr>\n  </div>\n  <div itemscope itemtype='http://schema.org/DiscussionForumPosting'>\n      <div class='creator'>\n        <span>\n          <a href='/u/ezinda'><b itemprop='author'>ezinda</b></a>\n          \n          <time datetime='2015-04-10T16:43:20Z' itemprop='datePublished'>\n            2015-04-10 16:43:20 UTC\n          </time>\n        </span>\n        <span itemprop='position'>#100</span>\n      </div>\n      <div class='post' itemprop='articleBody'>\n        <p>Hi goldengirl</p>\r\n<p>I&#39;ll pass this on to Suma. I think her response will likely be next week now. Have a good weekend.&nbsp;</p>\r\n<p>Best</p>\r\n<p>Ezinda</p>\n      </div>\n      <meta itemprop='interactionCount' content='UserLikes:0'>\n      <meta itemprop='interactionCount' content='UserComments:0'>\n      <meta itemprop='headline' content='Despair'>\n      <hr>\n  </div>\n\n  <div role='navigation' itemscope itemtype='http://schema.org/SiteNavigationElement'>\n      <span itemprop='name'><a rel=\"prev\" itemprop=\"url\" href=\"/t/despair/7745?page=4\">← previous page</a></span>\n      <span itemprop='name'><b><a rel=\"next\" itemprop=\"url\" href=\"/t/despair/7745?page=6\">next page →</a></b></span>\n  </div>\n\n\n\n\n\n    </div>\n    <footer class=\"container\">\n      <nav class='crawler-nav' itemscope itemtype='http://schema.org/SiteNavigationElement'>\n        <a href='/'>Home</a>\n        <a href=\"/categories\">Categories</a>\n        <a href=\"/guidelines\">FAQ/Guidelines</a>\n        <a href=\"/tos\">Terms of Service</a>\n        <a href=\"/privacy\">Privacy Policy</a>\n      </nav>\n      <p class='powered-by-link'>Powered by <a href=\"https://www.discourse.org\">Discourse</a>, best viewed with JavaScript enabled</p>\n    </footer>\n    \n  </body>\n  \n</html>\n",
  "url": "https://forum.parkinsons.org.uk/t/despair/7745?page=5"
}