{
  "contentId": "51f500c0-886b-11e9-8f96-97f71b5221d6",
  "html": "<!DOCTYPE html>\n<html lang=\"en\">\n  <head>\n    <meta charset=\"utf-8\">\n    <title>CONSTANT CLOSING OF Eyes CAUSED BY PARKINSONS - Wellbeing - Parkinson&#39;s UK Forum</title>\n    <meta name=\"description\" content=\"I would like to hear from anyone else who has the same problems with their eyes. \nI usually get Botox  regularly but because I had a bad fall and my face was badly bruised I have been unable to get them. \nI am hoping the&amp;hellip;\">\n    <meta name=\"author\" content=\"\">\n<meta name=\"generator\" content=\"Discourse 2.2.5 - https://github.com/discourse/discourse version c294ff3609f988dcafb742e91606d60ca13b794d\">\n<link rel=\"icon\" type=\"image/png\" href=\"https://forum.parkinsons.org.uk/uploads/db7928/original/2X/3/311fc84f89f49f38601a2f16b295b6f03d3ce5dd.jpg\">\n<link rel=\"apple-touch-icon\" type=\"image/png\" href=\"https://forum.parkinsons.org.uk/uploads/db7928/original/2X/3/311fc84f89f49f38601a2f16b295b6f03d3ce5dd.jpg\">\n<meta name=\"theme-color\" content=\"#ffffff\">\n<meta name=\"viewport\" content=\"width=device-width, minimum-scale=1.0, maximum-scale=1.0, user-scalable=yes\">\n<link rel=\"canonical\" href=\"https://forum.parkinsons.org.uk/t/constant-closing-of-eyes-caused-by-parkinsons/17679\" />\n<script type=\"application/ld+json\">{\"@context\":\"http://schema.org\",\"@type\":\"WebSite\",\"url\":\"https://forum.parkinsons.org.uk\",\"potentialAction\":{\"@type\":\"SearchAction\",\"target\":\"https://forum.parkinsons.org.uk/search?q={search_term_string}\",\"query-input\":\"required name=search_term_string\"}}</script>\n<link rel=\"search\" type=\"application/opensearchdescription+xml\" href=\"https://forum.parkinsons.org.uk/opensearch.xml\" title=\"Parkinson&#39;s UK Forum Search\">\n\n      <link href=\"/stylesheets/desktop_f99246ae801b083d3e4cca979d0dade8615b39ac.css?__ws=forum.parkinsons.org.uk\" media=\"all\" rel=\"stylesheet\" data-target=\"desktop\" data-theme-id=\"12\"/>\n      <link href=\"/stylesheets/desktop_theme_12_5d27531cf43f9df0c03a6a6ec3109dd05f9dfc49.css?__ws=forum.parkinsons.org.uk\" media=\"all\" rel=\"stylesheet\" data-target=\"desktop_theme\" data-theme-id=\"12\"/>\n    <link href=\"https://fonts.googleapis.com/css?family=Open+Sans\" rel=\"stylesheet\">\n\n    <meta id=\"data-ga-universal-analytics\" data-tracking-code=\"UA-4855628-1\" data-json=\"{&quot;cookieDomain&quot;:&quot;auto&quot;}\" data-auto-link-domains=\"\">\n\n<link rel='preload' href='/assets/google-universal-analytics-f35b4da49411e6f5559073523aab983da483976a3954c79c756f8579f6fbd6ef.js' as='script'/>\n<script src='/assets/google-universal-analytics-f35b4da49411e6f5559073523aab983da483976a3954c79c756f8579f6fbd6ef.js'></script>\n\n      <link rel=\"alternate\" type=\"application/rss+xml\" title=\"RSS feed of &#39;CONSTANT CLOSING OF Eyes CAUSED BY PARKINSONS&#39;\" href=\"https://forum.parkinsons.org.uk/t/constant-closing-of-eyes-caused-by-parkinsons/17679.rss\" />\n  <meta property=\"og:site_name\" content=\"Parkinson&#39;s UK Forum\" />\n<meta name=\"twitter:card\" content=\"summary\" />\n<meta name=\"twitter:image\" content=\"https://forum.parkinsons.org.uk/uploads/db7928/original/2X/3/311fc84f89f49f38601a2f16b295b6f03d3ce5dd.jpg\" />\n<meta property=\"og:image\" content=\"https://forum.parkinsons.org.uk/uploads/db7928/original/2X/3/311fc84f89f49f38601a2f16b295b6f03d3ce5dd.jpg\" />\n<meta property=\"og:url\" content=\"https://forum.parkinsons.org.uk/t/constant-closing-of-eyes-caused-by-parkinsons/17679\" />\n<meta name=\"twitter:url\" content=\"https://forum.parkinsons.org.uk/t/constant-closing-of-eyes-caused-by-parkinsons/17679\" />\n<meta property=\"og:title\" content=\"CONSTANT CLOSING OF Eyes CAUSED BY PARKINSONS\" />\n<meta name=\"twitter:title\" content=\"CONSTANT CLOSING OF Eyes CAUSED BY PARKINSONS\" />\n<meta property=\"og:description\" content=\"I would like to hear from anyone else who has the same problems with their eyes.  I usually get Botox  regularly but because I had a bad fall and my face was badly bruised I have been unable to get them.  I am hoping the last bit of bruising clears up soon.\" />\n<meta name=\"twitter:description\" content=\"I would like to hear from anyone else who has the same problems with their eyes.  I usually get Botox  regularly but because I had a bad fall and my face was badly bruised I have been unable to get them.  I am hoping the last bit of bruising clears up soon.\" />\n<meta name=\"twitter:label1\" value=\"Reading time\" />\n<meta name=\"twitter:data1\" value=\"2 mins \uD83D\uDD51\" />\n<meta name=\"twitter:label2\" value=\"Likes\" />\n<meta name=\"twitter:data2\" value=\"1 ❤\" />\n<meta property=\"article:published_time\" content=\"2019-01-25T15:24:26+00:00\" />\n<meta property=\"og:ignore_canonical\" content=\"true\" />\n\n      <link rel=\"next\" href=\"/t/constant-closing-of-eyes-caused-by-parkinsons/17679?page=2\">\n\n\n    \n  </head>\n  <body class=\"crawler\">\n    <header role=\"banner\">\n    <div class=\"region region-header\">\n        <div class=\"region-header-wrapper\">\n            <div id=\"block-parkinsons-d8-branding\" class=\"block block-system block-system-branding-block\">\n                <a href=\"/\" title=\"Home\" rel=\"home\" class=\"site-logo\">\n                    <img src=\"https://forum.parkinsons.org.uk/uploads/db7928/original/2X/8/862bb7d172e7d127e7f3e147ec43594aa62ac945.png\" alt=\"Parkinson's UK. Change Attitudes. Find a cure. Join us.\">\n                </a>\n            </div>\n            <div id=\"block-helpline\" class=\"block block-block-content block-block-content871cd5af-b938-4947-9dc0-d5c211d08fe3 style-phone\">\n                <div class=\"field field--name-field-link field--type-link field--label-hidden field__item\"><a href=\"tel:+448088000303\">Helpline 0808 800 0303</a></div>\n            </div>\n            <div id=\"block-shop\" class=\"block block-block-content block-block-content6fba5ae5-7797-49cd-8367-f321d8111cd6 style-regular\">\n                <div class=\"field field--name-field-link field--type-link field--label-hidden field__item\"><a href=\"https://shop.parkinsons.org.uk\">Shop</a></div>\n            </div>\n        </div>\n    </div>\n</header>\n\n\n<script src=\"/theme-javascripts/b7e9763fcb584fc8265c56a9f557cd6d2e1e8ed8.js?__ws=forum.parkinsons.org.uk\"></script>\n    <header>\n      <a href=\"/\">\n          <img src=\"https://forum.parkinsons.org.uk/uploads/db7928/original/2X/8/862bb7d172e7d127e7f3e147ec43594aa62ac945.png\" alt=\"Parkinson&#39;s UK Forum\" id=\"site-logo\" style=\"max-width: 150px;\">\n      </a>\n    </header>\n    <div id=\"main-outlet\" class=\"wrap\">\n      <h1>\n  <a href=\"/t/constant-closing-of-eyes-caused-by-parkinsons/17679\">CONSTANT CLOSING OF Eyes CAUSED BY PARKINSONS</a>\n</h1>\n\n<div id='breadcrumbs'>\n    <div id=\"breadcrumb-0\" itemscope itemtype=\"http://data-vocabulary.org/Breadcrumb\"\n        itemref=\"breadcrumb-1\"\n      >\n      <a href=\"/c/about-parkinsons-and-health\" itemprop=\"url\">\n        <span itemprop=\"title\">About Parkinson&#39;s and health</span>\n      </a>\n    </div>\n    <div id=\"breadcrumb-1\" itemscope itemtype=\"http://data-vocabulary.org/Breadcrumb\"\n>\n      <a href=\"/c/about-parkinsons-and-health/wellbeing\" itemprop=\"url\">\n        <span itemprop=\"title\">Wellbeing</span>\n      </a>\n    </div>\n</div>\n\n\n\n\n\n<hr>\n\n\n  <div itemscope itemtype='http://schema.org/DiscussionForumPosting'>\n      <div class='creator'>\n        <span>\n          <a href='/u/babswood'><b itemprop='author'>babswood</b></a>\n          \n          <time datetime='2019-01-25T15:24:26Z' itemprop='datePublished'>\n            2019-01-25 15:24:26 UTC\n          </time>\n        </span>\n        <span itemprop='position'>#1</span>\n      </div>\n      <div class='post' itemprop='articleBody'>\n        <p>I would like to hear from anyone else who has the same problems with their eyes.</p>\n<p>I usually get Botox  regularly but because I had a bad fall and my face was badly bruised I have been unable to get them.</p>\n<p>I am hoping the last bit of bruising clears up soon.</p>\n      </div>\n      <meta itemprop='interactionCount' content='UserLikes:0'>\n      <meta itemprop='interactionCount' content='UserComments:2'>\n      <meta itemprop='headline' content='CONSTANT CLOSING OF Eyes CAUSED BY PARKINSONS'>\n      <hr>\n  </div>\n  <div itemscope itemtype='http://schema.org/DiscussionForumPosting'>\n      <div class='creator'>\n        <span>\n          <a href='/u/malcT'><b itemprop='author'>malcT</b></a>\n          \n          <time datetime='2019-01-26T00:22:47Z' itemprop='datePublished'>\n            2019-01-26 00:22:47 UTC\n          </time>\n        </span>\n        <span itemprop='position'>#2</span>\n      </div>\n      <div class='post' itemprop='articleBody'>\n        <p>Hi <a class=\"mention\" href=\"/u/babswood\">@babswood</a><br>\nI am constantly closing my eyes too. My wife will shout at me thinking I have fallen asleep.<br>\nSometimes I have, however, 9 times out of 10 I have just closed my eyes. It seems more prevalent in the evening when we are watching TV. Having said that I do catch myself doing it during the day.<br>\nI am sorry to hear about your fall, how did it happen?<br>\nI stumble about a lot with my feet sort of stuttering and sticking to the floor, not completely freezing but haven’t fallen yet.<br>\nMal.</p>\n      </div>\n      <meta itemprop='interactionCount' content='UserLikes:0'>\n      <meta itemprop='interactionCount' content='UserComments:1'>\n      <meta itemprop='headline' content='CONSTANT CLOSING OF Eyes CAUSED BY PARKINSONS'>\n      <hr>\n  </div>\n  <div itemscope itemtype='http://schema.org/DiscussionForumPosting'>\n      <div class='creator'>\n        <span>\n          <a href='/u/babswood'><b itemprop='author'>babswood</b></a>\n          \n          <time datetime='2019-01-26T11:32:54Z' itemprop='datePublished'>\n            2019-01-26 11:32:54 UTC\n          </time>\n        </span>\n        <span itemprop='position'>#3</span>\n      </div>\n      <div class='post' itemprop='articleBody'>\n        <p>Have you mentioned this to your neurologist.?</p>\n<p>I’m glad it’s not. Just. Me.!!!</p>\n      </div>\n      <meta itemprop='interactionCount' content='UserLikes:0'>\n      <meta itemprop='interactionCount' content='UserComments:0'>\n      <meta itemprop='headline' content='CONSTANT CLOSING OF Eyes CAUSED BY PARKINSONS'>\n      <hr>\n  </div>\n  <div itemscope itemtype='http://schema.org/DiscussionForumPosting'>\n      <div class='creator'>\n        <span>\n          <a href='/u/Bow2'><b itemprop='author'>Bow2</b></a>\n          \n          <time datetime='2019-01-26T12:03:52Z' itemprop='datePublished'>\n            2019-01-26 12:03:52 UTC\n          </time>\n        </span>\n        <span itemprop='position'>#4</span>\n      </div>\n      <div class='post' itemprop='articleBody'>\n        <p>My mum had this problem due to the Parkinson’s so last year had minor surgery on her eyelids to try and help her eyes open more. It seems to have helped, however temporary it may be.</p>\n      </div>\n      <meta itemprop='interactionCount' content='UserLikes:0'>\n      <meta itemprop='interactionCount' content='UserComments:1'>\n      <meta itemprop='headline' content='CONSTANT CLOSING OF Eyes CAUSED BY PARKINSONS'>\n      <hr>\n  </div>\n  <div itemscope itemtype='http://schema.org/DiscussionForumPosting'>\n      <div class='creator'>\n        <span>\n          <a href='/u/babswood'><b itemprop='author'>babswood</b></a>\n          \n          <time datetime='2019-01-26T16:08:29Z' itemprop='datePublished'>\n            2019-01-26 16:08:29 UTC\n          </time>\n        </span>\n        <span itemprop='position'>#5</span>\n      </div>\n      <div class='post' itemprop='articleBody'>\n        <p>Thanks so much for your replies. There actually does not appear to be many of us withthis problem.</p>\n<p>Babs x x x</p>\n      </div>\n      <meta itemprop='interactionCount' content='UserLikes:0'>\n      <meta itemprop='interactionCount' content='UserComments:1'>\n      <meta itemprop='headline' content='CONSTANT CLOSING OF Eyes CAUSED BY PARKINSONS'>\n      <hr>\n  </div>\n  <div itemscope itemtype='http://schema.org/DiscussionForumPosting'>\n      <div class='creator'>\n        <span>\n          <a href='/u/ANNE29'><b itemprop='author'>ANNE29</b></a>\n          \n          <time datetime='2019-01-26T17:38:24Z' itemprop='datePublished'>\n            2019-01-26 17:38:24 UTC\n          </time>\n        </span>\n        <span itemprop='position'>#6</span>\n      </div>\n      <div class='post' itemprop='articleBody'>\n        <p>Hi babs,<br>\nI also have this problem,I think I replied to you before about this.My Parkinsons is now  getting worse and so is the eyelid problem,they seem to be closed more often than open!!I have had eye drops  etc from the dr but nothing seems to help much,I go to see the pdnurse nextcweek she has mentioned botox my daughter is always on at mebto get</p>\n      </div>\n      <meta itemprop='interactionCount' content='UserLikes:0'>\n      <meta itemprop='interactionCount' content='UserComments:1'>\n      <meta itemprop='headline' content='CONSTANT CLOSING OF Eyes CAUSED BY PARKINSONS'>\n      <hr>\n  </div>\n  <div itemscope itemtype='http://schema.org/DiscussionForumPosting'>\n      <div class='creator'>\n        <span>\n          <a href='/u/ANNE29'><b itemprop='author'>ANNE29</b></a>\n          \n          <time datetime='2019-01-26T17:47:46Z' itemprop='datePublished'>\n            2019-01-26 17:47:46 UTC\n          </time>\n        </span>\n        <span itemprop='position'>#7</span>\n      </div>\n      <div class='post' itemprop='articleBody'>\n        <p>Sorry sent  too soon<br>\nOn at me to get it I know if I lift my eyes up at the side this helps.<br>\nI hope you get your  face sorted soon and get back To your botox ,you have certainly had a lot to deal with,<br>\nCheers AnneD</p>\n      </div>\n      <meta itemprop='interactionCount' content='UserLikes:1'>\n      <meta itemprop='interactionCount' content='UserComments:1'>\n      <meta itemprop='headline' content='CONSTANT CLOSING OF Eyes CAUSED BY PARKINSONS'>\n      <hr>\n  </div>\n  <div itemscope itemtype='http://schema.org/DiscussionForumPosting'>\n      <div class='creator'>\n        <span>\n          <a href='/u/babswood'><b itemprop='author'>babswood</b></a>\n          \n          <time datetime='2019-01-26T18:02:36Z' itemprop='datePublished'>\n            2019-01-26 18:02:36 UTC\n          </time>\n        </span>\n        <span itemprop='position'>#8</span>\n      </div>\n      <div class='post' itemprop='articleBody'>\n        <p>Thanks Anne<br>\nYes I had brought this up before. I think I’m just looking for a majic cure ha ha.</p>\n<p>I’m fed up most of the day feeling my way about.<br>\nHopefully one day eh. I think this is worse than. The shakes and everything else.<br>\nI thank you for replying yet again. Take Care Anne</p>\n      </div>\n      <meta itemprop='interactionCount' content='UserLikes:0'>\n      <meta itemprop='interactionCount' content='UserComments:1'>\n      <meta itemprop='headline' content='CONSTANT CLOSING OF Eyes CAUSED BY PARKINSONS'>\n      <hr>\n  </div>\n  <div itemscope itemtype='http://schema.org/DiscussionForumPosting'>\n      <div class='creator'>\n        <span>\n          <a href='/u/ANNE29'><b itemprop='author'>ANNE29</b></a>\n          \n          <time datetime='2019-01-26T18:27:15Z' itemprop='datePublished'>\n            2019-01-26 18:27:15 UTC\n          </time>\n        </span>\n        <span itemprop='position'>#9</span>\n      </div>\n      <div class='post' itemprop='articleBody'>\n        <p>Hi again,Did you try eyedrops or anything else I also wish there was a cure,thanks Anne</p>\n      </div>\n      <meta itemprop='interactionCount' content='UserLikes:0'>\n      <meta itemprop='interactionCount' content='UserComments:1'>\n      <meta itemprop='headline' content='CONSTANT CLOSING OF Eyes CAUSED BY PARKINSONS'>\n      <hr>\n  </div>\n  <div itemscope itemtype='http://schema.org/DiscussionForumPosting'>\n      <div class='creator'>\n        <span>\n          <a href='/u/dee'><b itemprop='author'>dee</b></a>\n          \n          <time datetime='2019-01-27T11:39:25Z' itemprop='datePublished'>\n            2019-01-27 11:39:25 UTC\n          </time>\n        </span>\n        <span itemprop='position'>#10</span>\n      </div>\n      <div class='post' itemprop='articleBody'>\n        <p>I’m feeling so guilty because I have also had this problem with my mother. I’ve not noticed it too much until recently, and I’m ashamed of myself for asking her repeatedly if she was listening or had fallen asleep on me.<br>\nI’m going to tell her about this right now and remedy my behaviour immediately. Thanks to you all for point out the problem and all the helpful suggestions too.<br>\nxx</p>\n      </div>\n      <meta itemprop='interactionCount' content='UserLikes:0'>\n      <meta itemprop='interactionCount' content='UserComments:1'>\n      <meta itemprop='headline' content='CONSTANT CLOSING OF Eyes CAUSED BY PARKINSONS'>\n      <hr>\n  </div>\n  <div itemscope itemtype='http://schema.org/DiscussionForumPosting'>\n      <div class='creator'>\n        <span>\n          <a href='/u/babswood'><b itemprop='author'>babswood</b></a>\n          \n          <time datetime='2019-01-27T12:39:00Z' itemprop='datePublished'>\n            2019-01-27 12:39:00 UTC\n          </time>\n        </span>\n        <span itemprop='position'>#11</span>\n      </div>\n      <div class='post' itemprop='articleBody'>\n        <p>Hi Anne no I’ve? Not. Tried eyedrops I’m seeing my Dr on Tuesday so will ask him. What were they called.?<br>\nCheers for now x x x</p>\n      </div>\n      <meta itemprop='interactionCount' content='UserLikes:0'>\n      <meta itemprop='interactionCount' content='UserComments:1'>\n      <meta itemprop='headline' content='CONSTANT CLOSING OF Eyes CAUSED BY PARKINSONS'>\n      <hr>\n  </div>\n  <div itemscope itemtype='http://schema.org/DiscussionForumPosting'>\n      <div class='creator'>\n        <span>\n          <a href='/u/babswood'><b itemprop='author'>babswood</b></a>\n          \n          <time datetime='2019-01-27T12:42:02Z' itemprop='datePublished'>\n            2019-01-27 12:42:02 UTC\n          </time>\n        </span>\n        <span itemprop='position'>#12</span>\n      </div>\n      <div class='post' itemprop='articleBody'>\n        <p>Hi Dee</p>\n<p>I hope your mum gets some help As the Botox really helps.</p>\n<p>I get fed up with people saying are you tierd…?</p>\n<p>I’m so glad my post? Has helped someone.</p>\n<p>Babs x x x</p>\n      </div>\n      <meta itemprop='interactionCount' content='UserLikes:0'>\n      <meta itemprop='interactionCount' content='UserComments:0'>\n      <meta itemprop='headline' content='CONSTANT CLOSING OF Eyes CAUSED BY PARKINSONS'>\n      <hr>\n  </div>\n  <div itemscope itemtype='http://schema.org/DiscussionForumPosting'>\n      <div class='creator'>\n        <span>\n          <a href='/u/ANNE29'><b itemprop='author'>ANNE29</b></a>\n          \n          <time datetime='2019-01-27T17:44:57Z' itemprop='datePublished'>\n            2019-01-27 17:44:57 UTC\n          </time>\n        </span>\n        <span itemprop='position'>#13</span>\n      </div>\n      <div class='post' itemprop='articleBody'>\n        <p>Hi Babs, they are called hylo-tear and have also had one called visco tears eys gel both used for dry eyes ,dont know if they have helped much ,I find a hot cloth over my eyes has helped a bit,.<br>\nDid your gp arrange your botox or was it your Parkinson. Clinic,think I will,have to see about this soon.<br>\nCheers Anne D.</p>\n      </div>\n      <meta itemprop='interactionCount' content='UserLikes:0'>\n      <meta itemprop='interactionCount' content='UserComments:2'>\n      <meta itemprop='headline' content='CONSTANT CLOSING OF Eyes CAUSED BY PARKINSONS'>\n      <hr>\n  </div>\n  <div itemscope itemtype='http://schema.org/DiscussionForumPosting'>\n      <div class='creator'>\n        <span>\n          <a href='/u/babswood'><b itemprop='author'>babswood</b></a>\n          \n          <time datetime='2019-01-27T18:55:00Z' itemprop='datePublished'>\n            2019-01-27 18:55:00 UTC\n          </time>\n        </span>\n        <span itemprop='position'>#14</span>\n      </div>\n      <div class='post' itemprop='articleBody'>\n        <p>Thanks Anne as I said? I. See my. Dr Tuesday will let you know. How I go. X x x it was my parkinson’s nurse who arranged the botox? X</p>\n      </div>\n      <meta itemprop='interactionCount' content='UserLikes:0'>\n      <meta itemprop='interactionCount' content='UserComments:1'>\n      <meta itemprop='headline' content='CONSTANT CLOSING OF Eyes CAUSED BY PARKINSONS'>\n      <hr>\n  </div>\n  <div itemscope itemtype='http://schema.org/DiscussionForumPosting'>\n      <div class='creator'>\n        <span>\n          <a href='/u/peasantfarmer'><b itemprop='author'>peasantfarmer</b></a>\n          \n          <time datetime='2019-01-27T22:23:07Z' itemprop='datePublished'>\n            2019-01-27 22:23:07 UTC\n          </time>\n        </span>\n        <span itemprop='position'>#15</span>\n      </div>\n      <div class='post' itemprop='articleBody'>\n        <p>I have the problem of eyelids closure, ataxia or Blepharospasm.   I had drops which help a bit and BOTOX injections which have not worked so far  . They will try a double dose next time. It is not the most troubling  symptom but is embarrassing</p>\n      </div>\n      <meta itemprop='interactionCount' content='UserLikes:0'>\n      <meta itemprop='interactionCount' content='UserComments:0'>\n      <meta itemprop='headline' content='CONSTANT CLOSING OF Eyes CAUSED BY PARKINSONS'>\n      <hr>\n  </div>\n  <div itemscope itemtype='http://schema.org/DiscussionForumPosting'>\n      <div class='creator'>\n        <span>\n          <a href='/u/Appletree'><b itemprop='author'>Appletree</b></a>\n          \n          <time datetime='2019-01-29T04:04:45Z' itemprop='datePublished'>\n            2019-01-29 04:04:45 UTC\n          </time>\n        </span>\n        <span itemprop='position'>#16</span>\n      </div>\n      <div class='post' itemprop='articleBody'>\n        <p>I have had blepharospasm since 2002. Tried Botox once. No help at all. Some days I have to keep touching left brow/pushing it up to encourage them to open. Missed most of Black Panther when I tried going to the cinema for first time in years…having another go at knitting as it helps to keep fingers busy</p>\n<aside class=\"onebox whitelistedgeneric\">\n  <header class=\"source\">\n      <img src=\"https://www.ncbi.nlm.nih.gov/favicon.ico\" class=\"site-icon\" width=\"16\" height=\"16\">\n      <a href=\"https://www.ncbi.nlm.nih.gov/pmc/articles/PMC4356659/\" target=\"_blank\" rel=\"nofollow noopener\">PubMed Central (PMC)</a>\n  </header>\n  <article class=\"onebox-body\">\n    <div class=\"aspect-image\" style=\"--aspect-ratio:690/362;\"><img src=\"https://forum.parkinsons.org.uk/uploads/db7928/original/2X/d/dbe5765aaba22a8bc5823afa9178aaad0ed49757.png\" class=\"thumbnail\"></div>\n\n<h3><a href=\"https://www.ncbi.nlm.nih.gov/pmc/articles/PMC4356659/\" target=\"_blank\" rel=\"nofollow noopener\">Botulinum toxin in the management of blepharospasm: current evidence and recent...</a></h3>\n\n<p>Blepharospasm is a focal (although usually bilateral) dystonia of the orbicularis oculi muscles, producing excessive eye closure. This produces significant disability through functional blindness. Botulinum neurotoxins (BoNT) have become the...</p>\n\n\n  </article>\n  <div class=\"onebox-metadata\">\n    \n    \n  </div>\n  <div style=\"clear: both\"></div>\n</aside>\n\n<p>Botulinum toxin in the management of blepharospasm: current evidence and recent developments <a href=\"https://www.ncbi.nlm.nih.gov/pubmed/?term=Hellman%20A%5BAuthor%5D&amp;cauthor=true&amp;cauthor_uid=25922620\" rel=\"nofollow noopener\">Amy Hellman</a> and <a href=\"https://www.ncbi.nlm.nih.gov/pubmed/?term=Torres-Russotto%20D%5BAuthor%5D&amp;cauthor=true&amp;cauthor_uid=25922620\" rel=\"nofollow noopener\">Diego Torres-Russotto</a><a href=\"https://www.ncbi.nlm.nih.gov/pmc/articles/PMC4356659/\" rel=\"nofollow noopener\">Ther Adv Neurol Disord</a>. 2015 Mar; 8(2): 82–91.</p>\n<p>Blepharospasm is a focal dystonia characterized by involuntary closure of the eyelids</p>\n<p>Blepharospasm often begins as excessive blinking, usually accompanied by feelings of dryness or irritation of the eyes</p>\n<p>It is often exacerbated by bright lights, reading, and watching television. Like other dystonias, blepharospasm may be alleviated by sensory tricks including touching the eyes , the upper face, speaking, or even singing .</p>\n<aside class=\"onebox whitelistedgeneric\">\n  <header class=\"source\">\n      <img src=\"https://images.rxlist.com/images/fav/rx.ico\" class=\"site-icon\" width=\"16\" height=\"16\">\n      <a href=\"https://www.rxlist.com/sinemet-side-effects-drug-center.htm\" target=\"_blank\" rel=\"nofollow noopener\">RxList</a>\n  </header>\n  <article class=\"onebox-body\">\n    <div class=\"aspect-image\" style=\"--aspect-ratio:690/366;\"><img src=\"https://forum.parkinsons.org.uk/uploads/db7928/original/2X/f/fdcf275858d9ecd99e918a6d307a7909447ea24a.jpg\" class=\"thumbnail\"></div>\n\n<h3><a href=\"https://www.rxlist.com/sinemet-side-effects-drug-center.htm\" target=\"_blank\" rel=\"nofollow noopener\">Common Side Effects of Sinemet (Carbidopa-Levodopa) Drug Center - RxList</a></h3>\n\n<p>Find a comprehensive guide to possible side effects including common and rare side effects when taking Sinemet (Carbidopa-Levodopa) for healthcare professionals and consumers.</p>\n\n\n  </article>\n  <div class=\"onebox-metadata\">\n    \n    \n  </div>\n  <div style=\"clear: both\"></div>\n</aside>\n\n<p>Sinemet Side Effects:</p>\n<p>Tell your doctor if you experience unlikely but serious side effects including:</p>\n<p>greatly increased eye blinking/twitching</p>\n<p>uncontrolled muscle movements in your face (chewing, lip smacking, frowning, tongue movement, blinking or eye movement);</p>\n<p><strong>Nervous System/Psychiatric</strong></p>\n<p>extrapyramidal disorder -blepharospasm (which may be taken as an early sign of excess dosage)</p>\n<p><strong>Levodopa-induced Dyskinesia: Clinical Features, Pathophysiology, and Medical Management</strong> <a href=\"https://www.ncbi.nlm.nih.gov/pubmed/?term=Pandey%20S%5BAuthor%5D&amp;cauthor=true&amp;cauthor_uid=28904447\" rel=\"nofollow noopener\">Sanjay Pandey</a> and <a href=\"https://www.ncbi.nlm.nih.gov/pubmed/?term=Srivanitchapoom%20P%5BAuthor%5D&amp;cauthor=true&amp;cauthor_uid=28904447\" rel=\"nofollow noopener\">Prachaya Srivanitchapoom</a> <a href=\"https://www.ncbi.nlm.nih.gov/pmc/articles/PMC5586110/\" rel=\"nofollow noopener\">Ann Indian Acad Neurol</a>. 2017 Jul-Sep; 20(3): 190–198.</p>\n<p>Luquin <em>et al</em> . reported dyskinesia in 168 of 220 PD patients receiving levodopa treatment</p>\n<p>. One hundred and fifty-two patients had on dyskinesia, 31 patients had diphasic dyskinesia and 60 patients had off-period dyskinesia. Eighty-four patients had one type, 68 patients had two types, and 16 patients had three types of dyskinesia.</p>\n<p>Most common types of dyskinesia were</p>\n<p>chorea ( <em>n</em> = 113),</p>\n<p>dystonic posturing of the limbs ( <em>n</em> = 63),</p>\n<p>repetitive movement of the limbs ( <em>n</em> = 24),</p>\n<p>craniocervical dystonia ( <em>n</em> = 15),</p>\n<p>blepharospasm ( <em>n</em> = 6),</p>\n<p>mixed movement disorders ( <em>n</em> = 9),</p>\n<p>myoclonus ( <em>n</em> = 6), and tics ( <em>n</em> = 1).[<a href=\"https://www.ncbi.nlm.nih.gov/pmc/articles/PMC5586110/#ref4\" rel=\"nofollow noopener\">4</a>]</p>\n<p><strong>Drug-Associated Facial Dyskinesias-A Study of 238 Patients</strong> Mauriello, J. A. Jr., Carbonaro, P. ; Dhillon, S. ; Leone, T. ; Franklin, M. . Journal of Neuro-Ophthalmology: June 1998 Vol.18 Issue 2</p>\n<p>Fourteen of 238 patients (5.9%) with facial dyskinesias had been prescribed a variety of antidepressants, antimania medications, antipsychotics, antihistamines, antiparkinsonian drugs, or a combination of these substances before their condition developed.</p>\n<p>The onset of blepharospasm varied from 2 months to 35 years after, administration of the drug.</p>\n<p>Three of seven patients who discontinued the presumed responsible drug had improvement in their facial dyskinesias.</p>\n<p>Of the 11 patients who did not improve when their drugs were stopped or whose medication could not be stopped, all but one patient had a good response to treatment with botulinum toxin A.</p>\n      </div>\n      <meta itemprop='interactionCount' content='UserLikes:0'>\n      <meta itemprop='interactionCount' content='UserComments:0'>\n      <meta itemprop='headline' content='CONSTANT CLOSING OF Eyes CAUSED BY PARKINSONS'>\n      <hr>\n  </div>\n  <div itemscope itemtype='http://schema.org/DiscussionForumPosting'>\n      <div class='creator'>\n        <span>\n          <a href='/u/babswood'><b itemprop='author'>babswood</b></a>\n          \n          <time datetime='2019-01-29T18:58:32Z' itemprop='datePublished'>\n            2019-01-29 18:58:32 UTC\n          </time>\n        </span>\n        <span itemprop='position'>#17</span>\n      </div>\n      <div class='post' itemprop='articleBody'>\n        <p>Hi Anne saw my Dr today and got a dry eye gel. Also sent me over to my opticians to get my eyes checked was told all good but had to get new glasses. Still waiting for P D Nurse contacting me with date for my. Botox. Hoping that all good with you… Babs x x x</p>\n      </div>\n      <meta itemprop='interactionCount' content='UserLikes:0'>\n      <meta itemprop='interactionCount' content='UserComments:1'>\n      <meta itemprop='headline' content='CONSTANT CLOSING OF Eyes CAUSED BY PARKINSONS'>\n      <hr>\n  </div>\n  <div itemscope itemtype='http://schema.org/DiscussionForumPosting'>\n      <div class='creator'>\n        <span>\n          <a href='/u/ANNE29'><b itemprop='author'>ANNE29</b></a>\n          \n          <time datetime='2019-01-30T09:51:54Z' itemprop='datePublished'>\n            2019-01-30 09:51:54 UTC\n          </time>\n        </span>\n        <span itemprop='position'>#18</span>\n      </div>\n      <div class='post' itemprop='articleBody'>\n        <p>Hi Babswood<br>\nGlad you got something from g p ,hopefully you wont have to wait too long for botox…Anne xx</p>\n      </div>\n      <meta itemprop='interactionCount' content='UserLikes:0'>\n      <meta itemprop='interactionCount' content='UserComments:1'>\n      <meta itemprop='headline' content='CONSTANT CLOSING OF Eyes CAUSED BY PARKINSONS'>\n      <hr>\n  </div>\n  <div itemscope itemtype='http://schema.org/DiscussionForumPosting'>\n      <div class='creator'>\n        <span>\n          <a href='/u/babswood'><b itemprop='author'>babswood</b></a>\n          \n          <time datetime='2019-02-05T17:30:09Z' itemprop='datePublished'>\n            2019-02-05 17:30:09 UTC\n          </time>\n        </span>\n        <span itemprop='position'>#19</span>\n      </div>\n      <div class='post' itemprop='articleBody'>\n        <p>Hi there Anne29</p>\n<p>The eye drops are helping my eyes as optician had stated that my eyes were dry.<br>\nThey are not stopping them from closing go on the 19th of this month for my. Botox thank goodness. I have honestly felt like crying as they have been so bad.</p>\n<p>Babsx</p>\n      </div>\n      <meta itemprop='interactionCount' content='UserLikes:0'>\n      <meta itemprop='interactionCount' content='UserComments:0'>\n      <meta itemprop='headline' content='CONSTANT CLOSING OF Eyes CAUSED BY PARKINSONS'>\n      <hr>\n  </div>\n  <div itemscope itemtype='http://schema.org/DiscussionForumPosting'>\n      <div class='creator'>\n        <span>\n          <a href='/u/Bettyblue'><b itemprop='author'>Bettyblue</b></a>\n          \n          <time datetime='2019-02-16T20:26:16Z' itemprop='datePublished'>\n            2019-02-16 20:26:16 UTC\n          </time>\n        </span>\n        <span itemprop='position'>#20</span>\n      </div>\n      <div class='post' itemprop='articleBody'>\n        <p>This sounds like eye distonia see your consultant again.</p>\n      </div>\n      <meta itemprop='interactionCount' content='UserLikes:0'>\n      <meta itemprop='interactionCount' content='UserComments:1'>\n      <meta itemprop='headline' content='CONSTANT CLOSING OF Eyes CAUSED BY PARKINSONS'>\n      <hr>\n  </div>\n\n  <div role='navigation' itemscope itemtype='http://schema.org/SiteNavigationElement'>\n      <span itemprop='name'><b><a rel=\"next\" itemprop=\"url\" href=\"/t/constant-closing-of-eyes-caused-by-parkinsons/17679?page=2\">next page →</a></b></span>\n  </div>\n\n\n\n\n\n    </div>\n    <footer class=\"container\">\n      <nav class='crawler-nav' itemscope itemtype='http://schema.org/SiteNavigationElement'>\n        <a href='/'>Home</a>\n        <a href=\"/categories\">Categories</a>\n        <a href=\"/guidelines\">FAQ/Guidelines</a>\n        <a href=\"/tos\">Terms of Service</a>\n        <a href=\"/privacy\">Privacy Policy</a>\n      </nav>\n      <p class='powered-by-link'>Powered by <a href=\"https://www.discourse.org\">Discourse</a>, best viewed with JavaScript enabled</p>\n    </footer>\n    \n  </body>\n  \n</html>\n",
  "url": "https://forum.parkinsons.org.uk/t/constant-closing-of-eyes-caused-by-parkinsons/17679"
}