{
  "contentId": "7aeb0d90-8865-11e9-8f96-97f71b5221d6",
  "html": "<!DOCTYPE html>\n<html lang=\"en\">\n  <head>\n    <meta charset=\"utf-8\">\n    <title>Attendance allowance - Work, benefits and money - Parkinson&#39;s UK Forum</title>\n    <meta name=\"description\" content=\"Hello, I have just joined the forum, hoping to learn from and share with others.  My mother has Parkinson&amp;#39;s. I am sure I will have other topics as time goes on. For now I have been looking into what financial and other a&amp;hellip;\">\n    <meta name=\"author\" content=\"\">\n<meta name=\"generator\" content=\"Discourse 2.2.5 - https://github.com/discourse/discourse version c294ff3609f988dcafb742e91606d60ca13b794d\">\n<link rel=\"icon\" type=\"image/png\" href=\"https://forum.parkinsons.org.uk/uploads/db7928/original/2X/3/311fc84f89f49f38601a2f16b295b6f03d3ce5dd.jpg\">\n<link rel=\"apple-touch-icon\" type=\"image/png\" href=\"https://forum.parkinsons.org.uk/uploads/db7928/original/2X/3/311fc84f89f49f38601a2f16b295b6f03d3ce5dd.jpg\">\n<meta name=\"theme-color\" content=\"#ffffff\">\n<meta name=\"viewport\" content=\"width=device-width, minimum-scale=1.0, maximum-scale=1.0, user-scalable=yes\">\n<link rel=\"canonical\" href=\"https://forum.parkinsons.org.uk/t/attendance-allowance/10277\" />\n<script type=\"application/ld+json\">{\"@context\":\"http://schema.org\",\"@type\":\"WebSite\",\"url\":\"https://forum.parkinsons.org.uk\",\"potentialAction\":{\"@type\":\"SearchAction\",\"target\":\"https://forum.parkinsons.org.uk/search?q={search_term_string}\",\"query-input\":\"required name=search_term_string\"}}</script>\n<link rel=\"search\" type=\"application/opensearchdescription+xml\" href=\"https://forum.parkinsons.org.uk/opensearch.xml\" title=\"Parkinson&#39;s UK Forum Search\">\n\n      <link href=\"/stylesheets/desktop_f99246ae801b083d3e4cca979d0dade8615b39ac.css?__ws=forum.parkinsons.org.uk\" media=\"all\" rel=\"stylesheet\" data-target=\"desktop\" data-theme-id=\"12\"/>\n      <link href=\"/stylesheets/desktop_theme_12_5d27531cf43f9df0c03a6a6ec3109dd05f9dfc49.css?__ws=forum.parkinsons.org.uk\" media=\"all\" rel=\"stylesheet\" data-target=\"desktop_theme\" data-theme-id=\"12\"/>\n    <link href=\"https://fonts.googleapis.com/css?family=Open+Sans\" rel=\"stylesheet\">\n\n    <meta id=\"data-ga-universal-analytics\" data-tracking-code=\"UA-4855628-1\" data-json=\"{&quot;cookieDomain&quot;:&quot;auto&quot;}\" data-auto-link-domains=\"\">\n\n<link rel='preload' href='/assets/google-universal-analytics-f35b4da49411e6f5559073523aab983da483976a3954c79c756f8579f6fbd6ef.js' as='script'/>\n<script src='/assets/google-universal-analytics-f35b4da49411e6f5559073523aab983da483976a3954c79c756f8579f6fbd6ef.js'></script>\n\n      <link rel=\"alternate\" type=\"application/rss+xml\" title=\"RSS feed of &#39;Attendance allowance&#39;\" href=\"https://forum.parkinsons.org.uk/t/attendance-allowance/10277.rss\" />\n  <meta property=\"og:site_name\" content=\"Parkinson&#39;s UK Forum\" />\n<meta name=\"twitter:card\" content=\"summary\" />\n<meta name=\"twitter:image\" content=\"https://forum.parkinsons.org.uk/uploads/db7928/original/2X/3/311fc84f89f49f38601a2f16b295b6f03d3ce5dd.jpg\" />\n<meta property=\"og:image\" content=\"https://forum.parkinsons.org.uk/uploads/db7928/original/2X/3/311fc84f89f49f38601a2f16b295b6f03d3ce5dd.jpg\" />\n<meta property=\"og:url\" content=\"https://forum.parkinsons.org.uk/t/attendance-allowance/10277\" />\n<meta name=\"twitter:url\" content=\"https://forum.parkinsons.org.uk/t/attendance-allowance/10277\" />\n<meta property=\"og:title\" content=\"Attendance allowance\" />\n<meta name=\"twitter:title\" content=\"Attendance allowance\" />\n<meta property=\"og:description\" content=\"Hello, I have just joined the forum, hoping to learn from and share with others.  My mother has Parkinson&#39;s. I am sure I will have other topics as time goes on. For now I have been looking into what financial and other assistance she might be eligible for. I would be interested to hear if anyone has had experience of successfully applying for attendance allowance, where they or the person they applied for doesn&#39;t have a carer. I thought from reading the guidelines it was one of the eligibility c...\" />\n<meta name=\"twitter:description\" content=\"Hello, I have just joined the forum, hoping to learn from and share with others.  My mother has Parkinson&#39;s. I am sure I will have other topics as time goes on. For now I have been looking into what financial and other assistance she might be eligible for. I would be interested to hear if anyone has had experience of successfully applying for attendance allowance, where they or the person they applied for doesn&#39;t have a carer. I thought from reading the guidelines it was one of the eligibility c...\" />\n<meta property=\"article:published_time\" content=\"2017-12-01T19:52:33+00:00\" />\n<meta property=\"og:ignore_canonical\" content=\"true\" />\n\n\n\n    \n  </head>\n  <body class=\"crawler\">\n    <header role=\"banner\">\n    <div class=\"region region-header\">\n        <div class=\"region-header-wrapper\">\n            <div id=\"block-parkinsons-d8-branding\" class=\"block block-system block-system-branding-block\">\n                <a href=\"/\" title=\"Home\" rel=\"home\" class=\"site-logo\">\n                    <img src=\"https://forum.parkinsons.org.uk/uploads/db7928/original/2X/8/862bb7d172e7d127e7f3e147ec43594aa62ac945.png\" alt=\"Parkinson's UK. Change Attitudes. Find a cure. Join us.\">\n                </a>\n            </div>\n            <div id=\"block-helpline\" class=\"block block-block-content block-block-content871cd5af-b938-4947-9dc0-d5c211d08fe3 style-phone\">\n                <div class=\"field field--name-field-link field--type-link field--label-hidden field__item\"><a href=\"tel:+448088000303\">Helpline 0808 800 0303</a></div>\n            </div>\n            <div id=\"block-shop\" class=\"block block-block-content block-block-content6fba5ae5-7797-49cd-8367-f321d8111cd6 style-regular\">\n                <div class=\"field field--name-field-link field--type-link field--label-hidden field__item\"><a href=\"https://shop.parkinsons.org.uk\">Shop</a></div>\n            </div>\n        </div>\n    </div>\n</header>\n\n\n<script src=\"/theme-javascripts/b7e9763fcb584fc8265c56a9f557cd6d2e1e8ed8.js?__ws=forum.parkinsons.org.uk\"></script>\n    <header>\n      <a href=\"/\">\n          <img src=\"https://forum.parkinsons.org.uk/uploads/db7928/original/2X/8/862bb7d172e7d127e7f3e147ec43594aa62ac945.png\" alt=\"Parkinson&#39;s UK Forum\" id=\"site-logo\" style=\"max-width: 150px;\">\n      </a>\n    </header>\n    <div id=\"main-outlet\" class=\"wrap\">\n      <h1>\n  <a href=\"/t/attendance-allowance/10277\">Attendance allowance</a>\n</h1>\n\n<div id='breadcrumbs'>\n    <div id=\"breadcrumb-0\" itemscope itemtype=\"http://data-vocabulary.org/Breadcrumb\"\n        itemref=\"breadcrumb-1\"\n      >\n      <a href=\"/c/living-with-parkinsons\" itemprop=\"url\">\n        <span itemprop=\"title\">Living with Parkinson&#39;s</span>\n      </a>\n    </div>\n    <div id=\"breadcrumb-1\" itemscope itemtype=\"http://data-vocabulary.org/Breadcrumb\"\n>\n      <a href=\"/c/living-with-parkinsons/work-benefits-and-money\" itemprop=\"url\">\n        <span itemprop=\"title\">Work, benefits and money</span>\n      </a>\n    </div>\n</div>\n\n\n\n\n\n<hr>\n\n\n  <div itemscope itemtype='http://schema.org/DiscussionForumPosting'>\n      <div class='creator'>\n        <span>\n          <a href='/u/Sun-light-17'><b itemprop='author'>Sun-light-17</b></a>\n          \n          <time datetime='2017-12-01T19:52:33Z' itemprop='datePublished'>\n            2017-12-01 19:52:33 UTC\n          </time>\n        </span>\n        <span itemprop='position'>#1</span>\n      </div>\n      <div class='post' itemprop='articleBody'>\n        <p>Hello, I have just joined the forum, hoping to learn from and share with others.&nbsp; My mother has Parkinson&#39;s. I am sure I will have other topics as time goes on. For now I have been looking into what financial and other assistance she might be eligible for. I would be interested to hear if anyone has had experience of successfully applying for attendance allowance, where they or the person they applied for doesn&#39;t have a carer. I thought from reading the guidelines it was one of the eligibility criteria, but apparently not. Shes not yet at the stage of needing a carer, but definitely&nbsp;could do with a few things /help to make life easier, and financial help to do this.&nbsp;</p>\n      </div>\n      <meta itemprop='interactionCount' content='UserLikes:0'>\n      <meta itemprop='interactionCount' content='UserComments:0'>\n      <meta itemprop='headline' content='Attendance allowance'>\n      <hr>\n  </div>\n  <div itemscope itemtype='http://schema.org/DiscussionForumPosting'>\n      <div class='creator'>\n        <span>\n          <a href='/u/Island_Mike'><b itemprop='author'>Island_Mike</b></a>\n          \n          <time datetime='2017-12-09T11:11:57Z' itemprop='datePublished'>\n            2017-12-09 11:11:57 UTC\n          </time>\n        </span>\n        <span itemprop='position'>#2</span>\n      </div>\n      <div class='post' itemprop='articleBody'>\n        <p>Hi Sun-light,</p>\r\n<p>It doesn&rsquo;t sound like your mother qualifies for Attendance Allowance, if she doesn&rsquo;t require care at the moment. If you look at eligibility, you get a broad idea on the criteria:</p>\r\n<p>&nbsp;<a href=\"https://www.gov.uk/attendance-allowance/eligibility\" target=\"_blank\">https://www.gov.uk/attendance-allowance/eligibility</a></p>\r\n<p>If she needs help dressing, and needs supervision or help preparing food for safety reasons, then you might just have a chance. Otherwise don&rsquo;t bother.</p>\r\n<p>if she is on low income, grants are available to help with adapting bathrooms, or fitting stairlifts. This is through the local council, so it&rsquo;s a bit of a lottery these days.</p>\n      </div>\n      <meta itemprop='interactionCount' content='UserLikes:0'>\n      <meta itemprop='interactionCount' content='UserComments:1'>\n      <meta itemprop='headline' content='Attendance allowance'>\n      <hr>\n  </div>\n  <div itemscope itemtype='http://schema.org/DiscussionForumPosting'>\n      <div class='creator'>\n        <span>\n          <a href='/u/Sun-light-17'><b itemprop='author'>Sun-light-17</b></a>\n          \n          <time datetime='2017-12-18T22:47:00Z' itemprop='datePublished'>\n            2017-12-18 22:47:00 UTC\n          </time>\n        </span>\n        <span itemprop='position'>#3</span>\n      </div>\n      <div class='post' itemprop='articleBody'>\n        <p>Hi Mike, thanks for replying. Is this based on your own experience? I did already check the website, hence my hesitancy. However, the manager of one of the local advisors (since the local advisor was no help whatsover) seems to think she would qualify, and that it was not that relevant if she has a carer or not. This is why I wanted to hear from other people&#39;s experiences. She could use the money to get the help she needs - she struggles putting things away, getting things down, preparing and cooking food, etc.&nbsp; Amongst other things,&nbsp; she has extremely poor mobility, made worse by other health conditions.&nbsp;</p>\n      </div>\n      <meta itemprop='interactionCount' content='UserLikes:0'>\n      <meta itemprop='interactionCount' content='UserComments:0'>\n      <meta itemprop='headline' content='Attendance allowance'>\n      <hr>\n  </div>\n  <div itemscope itemtype='http://schema.org/DiscussionForumPosting'>\n      <div class='creator'>\n        <span>\n          <a href='/u/Island_Mike'><b itemprop='author'>Island_Mike</b></a>\n          \n          <time datetime='2017-12-19T15:22:54Z' itemprop='datePublished'>\n            2017-12-19 15:22:54 UTC\n          </time>\n        </span>\n        <span itemprop='position'>#4</span>\n      </div>\n      <div class='post' itemprop='articleBody'>\n        <p>From what you say, all those problems putting things away and getting things down, and preparing and cooking food then she may well qualify for AA. You&rsquo;re right, it&rsquo;s completely irrelevant whether she has a carer or not, nor is it relevant what condition is causing the problem. It&rsquo;s certainly worth a go at applying - if you don&rsquo;t buy a ticket, you won&rsquo;t win the lottery. It&rsquo;s not an enormous amount of money, but it would help. You&rsquo;ve nothing to lose.</p>\n      </div>\n      <meta itemprop='interactionCount' content='UserLikes:0'>\n      <meta itemprop='interactionCount' content='UserComments:0'>\n      <meta itemprop='headline' content='Attendance allowance'>\n      <hr>\n  </div>\n  <div itemscope itemtype='http://schema.org/DiscussionForumPosting'>\n      <div class='creator'>\n        <span>\n          <a href='/u/Margs'><b itemprop='author'>Margs</b></a>\n          \n          <time datetime='2018-08-21T10:41:28Z' itemprop='datePublished'>\n            2018-08-21 10:41:28 UTC\n          </time>\n        </span>\n        <span itemprop='position'>#5</span>\n      </div>\n      <div class='post' itemprop='articleBody'>\n        <p>Hi,  Did your mum apply for AA,  and if so was she successful.</p>\n      </div>\n      <meta itemprop='interactionCount' content='UserLikes:0'>\n      <meta itemprop='interactionCount' content='UserComments:1'>\n      <meta itemprop='headline' content='Attendance allowance'>\n      <hr>\n  </div>\n  <div itemscope itemtype='http://schema.org/DiscussionForumPosting'>\n      <div class='creator'>\n        <span>\n          <a href='/u/Sun-light-17'><b itemprop='author'>Sun-light-17</b></a>\n          \n          <time datetime='2018-08-21T21:45:33Z' itemprop='datePublished'>\n            2018-08-21 21:45:33 UTC\n          </time>\n        </span>\n        <span itemprop='position'>#6</span>\n      </div>\n      <div class='post' itemprop='articleBody'>\n        <p>Hi Margs,<br>\nThanks for following up. The last few months have been quite a journey.<br>\nYes, we managed to get Attendance Allowance for my mum at the higher rate.<br>\nMy advice to anyone is make sure you speak to the specialist benefits advisor at Parkinsons Uk - (the local advisor was zero help). He was extremely helpful with the application, and there to answer questions/support along the way.<br>\nMany of the difficulties people experience they wont necessarily think to say, as they take it for granted, but when you describe the difficulty alot of people with Parkinsons experience, and ask them if it is their experience, the answer is yes. I am sure you know this!<br>\nI am happy to share my experience with the benefits system too.<br>\nAttendance Allowance can be a passport to other benefits or higher rates of benefits, as it qualifies the person for a severe disability premium, ie. it is recognised that their disability means their living expenses - Attendance Allowance aside - will be higher than for other people.<br>\nFor anyone that hasn’t applied for blue badge and taxi card, I also really recommend applying for these. They are really useful to have. (We managed to get these before she got her Attendance Allowance).</p>\n      </div>\n      <meta itemprop='interactionCount' content='UserLikes:0'>\n      <meta itemprop='interactionCount' content='UserComments:1'>\n      <meta itemprop='headline' content='Attendance allowance'>\n      <hr>\n  </div>\n  <div itemscope itemtype='http://schema.org/DiscussionForumPosting'>\n      <div class='creator'>\n        <span>\n          <a href='/u/Sun-light-17'><b itemprop='author'>Sun-light-17</b></a>\n          \n          <time datetime='2018-08-21T21:49:11Z' itemprop='datePublished'>\n            2018-08-21 21:49:11 UTC\n          </time>\n        </span>\n        <span itemprop='position'>#7</span>\n      </div>\n      <div class='post' itemprop='articleBody'>\n        <p>Also, its helpful to keep in mind, either when applying for yourself, or helping someone else apply, that its about the difficulty experienced doing the day to day tasks - ie it may be possible to wash, get dressed, etc, but is it done with more slowly/with difficulty/not as effectively/not as required?</p>\n      </div>\n      <meta itemprop='interactionCount' content='UserLikes:0'>\n      <meta itemprop='interactionCount' content='UserComments:0'>\n      <meta itemprop='headline' content='Attendance allowance'>\n      <hr>\n  </div>\n  <div itemscope itemtype='http://schema.org/DiscussionForumPosting'>\n      <div class='creator'>\n        <span>\n          <a href='/u/Mo1'><b itemprop='author'>Mo1</b></a>\n          \n          <time datetime='2019-03-29T22:32:38Z' itemprop='datePublished'>\n            2019-03-29 22:32:38 UTC\n          </time>\n        </span>\n        <span itemprop='position'>#8</span>\n      </div>\n      <div class='post' itemprop='articleBody'>\n        <p>Hi I wonder if you could help my dad has had Parkinson’s for 10 years we didn’t realise he was entitled to AA and to be honest mum was his main carer and I think kept a lot from us.  Mum now has Alzheimer’s and dads Parkinson’s is progressed we are caring for both dad sleeps a lot his speech his very slurred his movement is very slow he needs help with personal care, dressing, eating nighttime needs, medication as he’s very forgetful to so my question is where do I start with forms.  It’s answering them in the way they want that throws me dad needsconstant care my brother is there 5-6 times a day and night then weekends because I’m a few hrs drive I go.  But I’m trying to fill in the forms I’m just lost with how you answer.  Any help would be amazing x</p>\n      </div>\n      <meta itemprop='interactionCount' content='UserLikes:0'>\n      <meta itemprop='interactionCount' content='UserComments:0'>\n      <meta itemprop='headline' content='Attendance allowance'>\n      <hr>\n  </div>\n  <div itemscope itemtype='http://schema.org/DiscussionForumPosting'>\n      <div class='creator'>\n        <span>\n          <a href='/u/Sun-light-17'><b itemprop='author'>Sun-light-17</b></a>\n          \n          <time datetime='2019-04-01T20:01:55Z' itemprop='datePublished'>\n            2019-04-01 20:01:55 UTC\n          </time>\n        </span>\n        <span itemprop='position'>#9</span>\n      </div>\n      <div class='post' itemprop='articleBody'>\n        <p>Hi Mo1, it sounds like its worth applying for attendance allowance for both of your parents. Sorry you/they are having such a hard time. My initial advice would be - if you didn’t do this already - phone the DWP to request the Attendance Allowance forms, rather than just download them, since this gets logged, and, if it is awarded - which seems very likely - the AA gets backdated to the date you actually requested the form, so it makes a massive difference.<br>\nThere is then a certain period (cant remember how long - it might even be around 6 weeks) you have to complete it and send it back. You can always use a downloaded version to draft the form and then write it out.<br>\nI also strongly advise you straight away to contact the Parkinsons Advice Line, and ask to speak to the Specialist Benefits and Employment Advisor, who can help you with the form.<br>\nDo this ASAP, and don’t  spend time worrying about it. They were far more helpful that the local advisor, who was of no help whatsoever.<br>\nIt sounds like you have a good idea already about what he (/she) struggles with day to day and night time. Just have a careful think through it, and write down the details - but the advisor can also help you with what is relavant that you may not think about.<br>\nLet me know how you get in.<br>\n(Also, in terms of help, it sounds like you need to request a Care Act assessment (for your mum and dad) - that way you can look at getting the help they needed.  It would then get financially assessed, as to what the contribution would be from them e,g. if it was paying for carers. Attendance Allowance does obviously get taken into account for care, minus any disability related expenses.)<br>\nHope this helps, good luck, and let me know how you get on.</p>\n      </div>\n      <meta itemprop='interactionCount' content='UserLikes:0'>\n      <meta itemprop='interactionCount' content='UserComments:0'>\n      <meta itemprop='headline' content='Attendance allowance'>\n      <hr>\n  </div>\n  <div itemscope itemtype='http://schema.org/DiscussionForumPosting'>\n      <div class='creator'>\n        <span>\n          <a href='/u/mary1947'><b itemprop='author'>mary1947</b></a>\n          \n          <time datetime='2019-04-07T06:41:31Z' itemprop='datePublished'>\n            2019-04-07 06:41:31 UTC\n          </time>\n        </span>\n        <span itemprop='position'>#10</span>\n      </div>\n      <div class='post' itemprop='articleBody'>\n        <p>when you apply for AA don;t forget it’s small thing that cause people with PD prob;ems eg making a cup of tea when you have a tremor and pick up the kettle you can easily scold your self H/S this is only one point of filling in the form.</p>\n<p>Also if you are a career you are also entitle to what is called career’s allowance even if you go to work. It’s not much but it helps.</p>\n      </div>\n      <meta itemprop='interactionCount' content='UserLikes:0'>\n      <meta itemprop='interactionCount' content='UserComments:0'>\n      <meta itemprop='headline' content='Attendance allowance'>\n      <hr>\n  </div>\n\n\n\n\n\n\n    </div>\n    <footer class=\"container\">\n      <nav class='crawler-nav' itemscope itemtype='http://schema.org/SiteNavigationElement'>\n        <a href='/'>Home</a>\n        <a href=\"/categories\">Categories</a>\n        <a href=\"/guidelines\">FAQ/Guidelines</a>\n        <a href=\"/tos\">Terms of Service</a>\n        <a href=\"/privacy\">Privacy Policy</a>\n      </nav>\n      <p class='powered-by-link'>Powered by <a href=\"https://www.discourse.org\">Discourse</a>, best viewed with JavaScript enabled</p>\n    </footer>\n    \n  </body>\n  \n</html>\n",
  "url": "https://forum.parkinsons.org.uk/t/attendance-allowance/10277"
}