{
  "contentId": "a6f39740-886f-11e9-8f96-97f71b5221d6",
  "html": "<!DOCTYPE html>\n<html lang=\"en\">\n  <head>\n    <meta charset=\"utf-8\">\n    <title>Night time - Wellbeing - Parkinson&#39;s UK Forum</title>\n    <meta name=\"description\" content=\"Hi All. \nI have had the usual disturbed night. I was wondering is it just me or do others go through this every night. \nI awake and think to my self I need to get up. \nI get myself around to sitting up after about 10 min&amp;hellip;\">\n    <meta name=\"author\" content=\"\">\n<meta name=\"generator\" content=\"Discourse 2.2.5 - https://github.com/discourse/discourse version c294ff3609f988dcafb742e91606d60ca13b794d\">\n<link rel=\"icon\" type=\"image/png\" href=\"https://forum.parkinsons.org.uk/uploads/db7928/original/2X/3/311fc84f89f49f38601a2f16b295b6f03d3ce5dd.jpg\">\n<link rel=\"apple-touch-icon\" type=\"image/png\" href=\"https://forum.parkinsons.org.uk/uploads/db7928/original/2X/3/311fc84f89f49f38601a2f16b295b6f03d3ce5dd.jpg\">\n<meta name=\"theme-color\" content=\"#ffffff\">\n<meta name=\"viewport\" content=\"width=device-width, minimum-scale=1.0, maximum-scale=1.0, user-scalable=yes\">\n<link rel=\"canonical\" href=\"https://forum.parkinsons.org.uk/t/night-time/13674?page=2\" />\n<script type=\"application/ld+json\">{\"@context\":\"http://schema.org\",\"@type\":\"WebSite\",\"url\":\"https://forum.parkinsons.org.uk\",\"potentialAction\":{\"@type\":\"SearchAction\",\"target\":\"https://forum.parkinsons.org.uk/search?q={search_term_string}\",\"query-input\":\"required name=search_term_string\"}}</script>\n<link rel=\"search\" type=\"application/opensearchdescription+xml\" href=\"https://forum.parkinsons.org.uk/opensearch.xml\" title=\"Parkinson&#39;s UK Forum Search\">\n\n      <link href=\"/stylesheets/desktop_f99246ae801b083d3e4cca979d0dade8615b39ac.css?__ws=forum.parkinsons.org.uk\" media=\"all\" rel=\"stylesheet\" data-target=\"desktop\" data-theme-id=\"12\"/>\n      <link href=\"/stylesheets/desktop_theme_12_5d27531cf43f9df0c03a6a6ec3109dd05f9dfc49.css?__ws=forum.parkinsons.org.uk\" media=\"all\" rel=\"stylesheet\" data-target=\"desktop_theme\" data-theme-id=\"12\"/>\n    <link href=\"https://fonts.googleapis.com/css?family=Open+Sans\" rel=\"stylesheet\">\n\n    <meta id=\"data-ga-universal-analytics\" data-tracking-code=\"UA-4855628-1\" data-json=\"{&quot;cookieDomain&quot;:&quot;auto&quot;}\" data-auto-link-domains=\"\">\n\n<link rel='preload' href='/assets/google-universal-analytics-f35b4da49411e6f5559073523aab983da483976a3954c79c756f8579f6fbd6ef.js' as='script'/>\n<script src='/assets/google-universal-analytics-f35b4da49411e6f5559073523aab983da483976a3954c79c756f8579f6fbd6ef.js'></script>\n\n      <link rel=\"alternate\" type=\"application/rss+xml\" title=\"RSS feed of &#39;Night time&#39;\" href=\"https://forum.parkinsons.org.uk/t/night-time/13674.rss\" />\n  <meta property=\"og:site_name\" content=\"Parkinson&#39;s UK Forum\" />\n<meta name=\"twitter:card\" content=\"summary\" />\n<meta name=\"twitter:image\" content=\"https://forum.parkinsons.org.uk/uploads/db7928/original/2X/3/311fc84f89f49f38601a2f16b295b6f03d3ce5dd.jpg\" />\n<meta property=\"og:image\" content=\"https://forum.parkinsons.org.uk/uploads/db7928/original/2X/3/311fc84f89f49f38601a2f16b295b6f03d3ce5dd.jpg\" />\n<meta property=\"og:url\" content=\"https://forum.parkinsons.org.uk/t/night-time/13674?page=2\" />\n<meta name=\"twitter:url\" content=\"https://forum.parkinsons.org.uk/t/night-time/13674?page=2\" />\n<meta property=\"og:title\" content=\"Night time\" />\n<meta name=\"twitter:title\" content=\"Night time\" />\n<meta property=\"og:description\" content=\"Hi, I sometimes put off going to bed because of similar problems, mostly related to turning over or sitting up in bed. I get up usually three times a night to pee, so tired that I am wondering if I will fall asleep while peeing. I recently started taking a requip before bed and feeling much better for it, peeing less often and easier to get up and go when I do need to.\" />\n<meta name=\"twitter:description\" content=\"Hi, I sometimes put off going to bed because of similar problems, mostly related to turning over or sitting up in bed. I get up usually three times a night to pee, so tired that I am wondering if I will fall asleep while peeing. I recently started taking a requip before bed and feeling much better for it, peeing less often and easier to get up and go when I do need to.\" />\n<meta name=\"twitter:label1\" value=\"Reading time\" />\n<meta name=\"twitter:data1\" value=\"5 mins \uD83D\uDD51\" />\n<meta name=\"twitter:label2\" value=\"Likes\" />\n<meta name=\"twitter:data2\" value=\"15 ❤\" />\n<meta property=\"article:published_time\" content=\"2018-05-31T17:35:52+00:00\" />\n<meta property=\"og:ignore_canonical\" content=\"true\" />\n\n      <link rel=\"prev\" href=\"/t/night-time/13674\">\n\n\n    \n  </head>\n  <body class=\"crawler\">\n    <header role=\"banner\">\n    <div class=\"region region-header\">\n        <div class=\"region-header-wrapper\">\n            <div id=\"block-parkinsons-d8-branding\" class=\"block block-system block-system-branding-block\">\n                <a href=\"/\" title=\"Home\" rel=\"home\" class=\"site-logo\">\n                    <img src=\"https://forum.parkinsons.org.uk/uploads/db7928/original/2X/8/862bb7d172e7d127e7f3e147ec43594aa62ac945.png\" alt=\"Parkinson's UK. Change Attitudes. Find a cure. Join us.\">\n                </a>\n            </div>\n            <div id=\"block-helpline\" class=\"block block-block-content block-block-content871cd5af-b938-4947-9dc0-d5c211d08fe3 style-phone\">\n                <div class=\"field field--name-field-link field--type-link field--label-hidden field__item\"><a href=\"tel:+448088000303\">Helpline 0808 800 0303</a></div>\n            </div>\n            <div id=\"block-shop\" class=\"block block-block-content block-block-content6fba5ae5-7797-49cd-8367-f321d8111cd6 style-regular\">\n                <div class=\"field field--name-field-link field--type-link field--label-hidden field__item\"><a href=\"https://shop.parkinsons.org.uk\">Shop</a></div>\n            </div>\n        </div>\n    </div>\n</header>\n\n\n<script src=\"/theme-javascripts/b7e9763fcb584fc8265c56a9f557cd6d2e1e8ed8.js?__ws=forum.parkinsons.org.uk\"></script>\n    <header>\n      <a href=\"/\">\n          <img src=\"https://forum.parkinsons.org.uk/uploads/db7928/original/2X/8/862bb7d172e7d127e7f3e147ec43594aa62ac945.png\" alt=\"Parkinson&#39;s UK Forum\" id=\"site-logo\" style=\"max-width: 150px;\">\n      </a>\n    </header>\n    <div id=\"main-outlet\" class=\"wrap\">\n      <h1>\n  <a href=\"/t/night-time/13674\">Night time</a>\n</h1>\n\n<div id='breadcrumbs'>\n    <div id=\"breadcrumb-0\" itemscope itemtype=\"http://data-vocabulary.org/Breadcrumb\"\n        itemref=\"breadcrumb-1\"\n      >\n      <a href=\"/c/about-parkinsons-and-health\" itemprop=\"url\">\n        <span itemprop=\"title\">About Parkinson&#39;s and health</span>\n      </a>\n    </div>\n    <div id=\"breadcrumb-1\" itemscope itemtype=\"http://data-vocabulary.org/Breadcrumb\"\n>\n      <a href=\"/c/about-parkinsons-and-health/wellbeing\" itemprop=\"url\">\n        <span itemprop=\"title\">Wellbeing</span>\n      </a>\n    </div>\n</div>\n\n\n\n\n\n<hr>\n\n\n  <div itemscope itemtype='http://schema.org/DiscussionForumPosting'>\n      <div class='creator'>\n        <span>\n          <a href='/u/Jakarta'><b itemprop='author'>Jakarta</b></a>\n          \n          <time datetime='2018-05-31T17:35:52Z' itemprop='datePublished'>\n            2018-05-31 17:35:52 UTC\n          </time>\n        </span>\n        <span itemprop='position'>#22</span>\n      </div>\n      <div class='post' itemprop='articleBody'>\n        <p>Hi, I sometimes put off going to bed because of similar problems, mostly related to turning over or sitting up in bed. I get up usually three times a night to pee, so tired that I am wondering if I will fall asleep while peeing. I recently started taking a requip before bed and feeling much better for it, peeing less often and easier to get up and go when I do need to.</p>\n      </div>\n      <meta itemprop='interactionCount' content='UserLikes:0'>\n      <meta itemprop='interactionCount' content='UserComments:1'>\n      <meta itemprop='headline' content='Night time'>\n      <hr>\n  </div>\n  <div itemscope itemtype='http://schema.org/DiscussionForumPosting'>\n      <div class='creator'>\n        <span>\n          <a href='/u/The_Gift'><b itemprop='author'>The_Gift</b></a>\n          \n          <time datetime='2018-05-31T20:24:55Z' itemprop='datePublished'>\n            2018-05-31 20:24:55 UTC\n          </time>\n        </span>\n        <span itemprop='position'>#23</span>\n      </div>\n      <div class='post' itemprop='articleBody'>\n        <p>Hi Night time is differcult medication is reduced during the night time to allow for stronger doses during the day when people are more active.<br>\nPersonally I take modified release medication which in theory you can take once a day, however for me spreading the tablets throughout the day gives me less drop off  or off time. At first I used to take them in three equal doses but found I was having very vivid dreams, so now I take them at breakfast lunch and with my evening meal the only night time tablet is my anti depressant again modified release. Arthritis type pain is also very common due to the body moving in a different way my joints are stiff and swell. Personally I choose to avoid taking medication for this and try to massage any affected area as even pain killers alter how my Parkinson’s medication works.<br>\nThese are things that work for me please check with your specialist before making any alterations to your medication.<br>\nThe support from Parkinson’s UK Guernsey Branch has been crucial to help me back from a very dark place.<br>\nBe patient but above all make sure that you are on medication that does not alter who you are.<br>\nHere’s to a good night s sleep<br>\nMark</p>\n      </div>\n      <meta itemprop='interactionCount' content='UserLikes:0'>\n      <meta itemprop='interactionCount' content='UserComments:0'>\n      <meta itemprop='headline' content='Night time'>\n      <hr>\n  </div>\n  <div itemscope itemtype='http://schema.org/DiscussionForumPosting'>\n      <div class='creator'>\n        <span>\n          <a href='/u/ANNE29'><b itemprop='author'>ANNE29</b></a>\n          \n          <time datetime='2018-06-02T19:58:55Z' itemprop='datePublished'>\n            2018-06-02 19:58:55 UTC\n          </time>\n        </span>\n        <span itemprop='position'>#24</span>\n      </div>\n      <div class='post' itemprop='articleBody'>\n        <p>Hi,<br>\nI also had great difficulty in turning over in <a href=\"http://bed.My\" rel=\"nofollow noopener\">bed.My</a> parkinsons nurse suggested satin sheets and pyjamas or nightie.<br>\nThe difference is amazing I now turn over no problem at all.Hope this info helps.<br>\nCheers Anne</p>\n      </div>\n      <meta itemprop='interactionCount' content='UserLikes:0'>\n      <meta itemprop='interactionCount' content='UserComments:1'>\n      <meta itemprop='headline' content='Night time'>\n      <hr>\n  </div>\n  <div itemscope itemtype='http://schema.org/DiscussionForumPosting'>\n      <div class='creator'>\n        <span>\n          <a href='/u/Jakarta'><b itemprop='author'>Jakarta</b></a>\n          \n          <time datetime='2018-06-04T15:16:23Z' itemprop='datePublished'>\n            2018-06-04 15:16:23 UTC\n          </time>\n        </span>\n        <span itemprop='position'>#25</span>\n      </div>\n      <div class='post' itemprop='articleBody'>\n        <p>thanks, that is a nice idea, i will try that</p>\n      </div>\n      <meta itemprop='interactionCount' content='UserLikes:0'>\n      <meta itemprop='interactionCount' content='UserComments:0'>\n      <meta itemprop='headline' content='Night time'>\n      <hr>\n  </div>\n  <div itemscope itemtype='http://schema.org/DiscussionForumPosting'>\n      <div class='creator'>\n        <span>\n          <a href='/u/Recyclotron'><b itemprop='author'>Recyclotron</b></a>\n          \n          <time datetime='2018-06-06T12:33:26Z' itemprop='datePublished'>\n            2018-06-06 12:33:26 UTC\n          </time>\n        </span>\n        <span itemprop='position'>#26</span>\n      </div>\n      <div class='post' itemprop='articleBody'>\n        <p>I recognise all these symptoms, but have managed to minimise them. I take my madopar at 8am, 1pm and 6pm and go to bed around 10.30pm. I isten to talking books on my Kindle for about 30 minutes then relax and fall asleep. I wake up at 1.30am 2.30am and 4am, but tell myself to ignore my dreams and relax. If I don’t then fall asleep again I listen to soothing classical music on an mp3 player (recordings of BBC proms work best). I go for a pee if I wake up. In the early days I had to resort to sleeping pills, but now I don’t need them. It has been a struggle over about 6 months, but I am almost back to a normal sleeping pattern. You are not alone and don’t give up hope, just experiment to see what works best for you. Poor sleep leads to a bad day for me so this has been my number one project. Best wishes, Bernie</p>\n      </div>\n      <meta itemprop='interactionCount' content='UserLikes:0'>\n      <meta itemprop='interactionCount' content='UserComments:0'>\n      <meta itemprop='headline' content='Night time'>\n      <hr>\n  </div>\n  <div itemscope itemtype='http://schema.org/DiscussionForumPosting'>\n      <div class='creator'>\n        <span>\n          <a href='/u/Imy'><b itemprop='author'>Imy</b></a>\n          \n          <time datetime='2018-06-06T22:58:55Z' itemprop='datePublished'>\n            2018-06-06 22:58:55 UTC\n          </time>\n        </span>\n        <span itemprop='position'>#27</span>\n      </div>\n      <div class='post' itemprop='articleBody'>\n        <p>My bed bar was a gift from heaven. It’s brill. I can get up in 2 minutes instead of 15. Really recommended.</p>\n      </div>\n      <meta itemprop='interactionCount' content='UserLikes:1'>\n      <meta itemprop='interactionCount' content='UserComments:0'>\n      <meta itemprop='headline' content='Night time'>\n      <hr>\n  </div>\n  <div itemscope itemtype='http://schema.org/DiscussionForumPosting'>\n      <div class='creator'>\n        <span>\n          <a href='/u/vicdavies'><b itemprop='author'>vicdavies</b></a>\n          \n          <time datetime='2018-06-15T22:16:49Z' itemprop='datePublished'>\n            2018-06-15 22:16:49 UTC\n          </time>\n        </span>\n        <span itemprop='position'>#28</span>\n      </div>\n      <div class='post' itemprop='articleBody'>\n        <p>Hi Babs -<br>\nBeing so recently diagnosed I really can’t say I have anything like the same problems as you have … all I can do is wholeheartedly sympathise, and tell you there are shadows of the same symptoms beginning to develop for me - in that everything is getting a little harder to do - especially getting up, which requires real willpower, when a year ago I was able to just jump out of bed without a thought. My neck, hip and knee pain is worsening - which doesn’t help of course - but  I don’t know how much of all this is due to my arthritis, and how much is due to PD - do you sometimes wonder the same thing?  I do believe in the power of prayer - so let’s pray for each other, OK?  x <img src=\"//forum.parkinsons.org.uk/images/emoji/twitter/grinning.png?v=5\" title=\":grinning:\" class=\"emoji\" alt=\":grinning:\"></p>\n      </div>\n      <meta itemprop='interactionCount' content='UserLikes:0'>\n      <meta itemprop='interactionCount' content='UserComments:1'>\n      <meta itemprop='headline' content='Night time'>\n      <hr>\n  </div>\n  <div itemscope itemtype='http://schema.org/DiscussionForumPosting'>\n      <div class='creator'>\n        <span>\n          <a href='/u/babswood'><b itemprop='author'>babswood</b></a>\n          \n          <time datetime='2018-06-16T13:43:01Z' itemprop='datePublished'>\n            2018-06-16 13:43:01 UTC\n          </time>\n        </span>\n        <span itemprop='position'>#29</span>\n      </div>\n      <div class='post' itemprop='articleBody'>\n        <p>Vicdavies<br>\nThanks so much for your message.<br>\nI always say that I never really know what pain.is my arthritis and which is my parkinsons…<br>\nWill be thinking of you.</p>\n<p>Babsx</p>\n      </div>\n      <meta itemprop='interactionCount' content='UserLikes:0'>\n      <meta itemprop='interactionCount' content='UserComments:1'>\n      <meta itemprop='headline' content='Night time'>\n      <hr>\n  </div>\n  <div itemscope itemtype='http://schema.org/DiscussionForumPosting'>\n      <div class='creator'>\n        <span>\n          <a href='/u/malcT'><b itemprop='author'>malcT</b></a>\n          \n          <time datetime='2018-06-24T05:58:37Z' itemprop='datePublished'>\n            2018-06-24 05:58:37 UTC\n          </time>\n        </span>\n        <span itemprop='position'>#30</span>\n      </div>\n      <div class='post' itemprop='articleBody'>\n        <p>Hi babswood and you too Vicdavies.</p>\n<p>If you ever find an answer to your question is the pain Arthritis or is it Parkinsons ?<br>\nPlease let me know.</p>\n<p>My money is on Mr P</p>\n<p>A special thanks to you babs, not just for sharing here but for the many, many posts on the forum overall.</p>\n<p>Best wishes<br>\nMal.</p>\n      </div>\n      <meta itemprop='interactionCount' content='UserLikes:0'>\n      <meta itemprop='interactionCount' content='UserComments:1'>\n      <meta itemprop='headline' content='Night time'>\n      <hr>\n  </div>\n  <div itemscope itemtype='http://schema.org/DiscussionForumPosting'>\n      <div class='creator'>\n        <span>\n          <a href='/u/babswood'><b itemprop='author'>babswood</b></a>\n          \n          <time datetime='2018-06-25T06:57:30Z' itemprop='datePublished'>\n            2018-06-25 06:57:30 UTC\n          </time>\n        </span>\n        <span itemprop='position'>#31</span>\n      </div>\n      <div class='post' itemprop='articleBody'>\n        <p>Hi there thanks for your reply.</p>\n<p>At present  the pain that  I have in.my knees is deffo my rheumatoid arthritis.</p>\n<p>The pains that I get in.my arms too is deffo my R A.</p>\n<p>It is the all over pain that I’m not too sure about.</p>\n      </div>\n      <meta itemprop='interactionCount' content='UserLikes:0'>\n      <meta itemprop='interactionCount' content='UserComments:1'>\n      <meta itemprop='headline' content='Night time'>\n      <hr>\n  </div>\n  <div itemscope itemtype='http://schema.org/DiscussionForumPosting'>\n      <div class='creator'>\n        <span>\n          <a href='/u/vicdavies'><b itemprop='author'>vicdavies</b></a>\n          \n          <time datetime='2018-06-26T18:55:53Z' itemprop='datePublished'>\n            2018-06-26 18:55:53 UTC\n          </time>\n        </span>\n        <span itemprop='position'>#32</span>\n      </div>\n      <div class='post' itemprop='articleBody'>\n        <p>Hi Babswood &amp; MalcT …<br>\nAccording to my neurologist, knowing the source of my pain is unhelpful , my body scan shows arthritis just about everywhere - so the pain would be happening whether my PD is involved or not. We all know that the symptoms of PD are very variable dependent on individual experience - for instance, my brother-in-law’s PD involved very little pain … his main problem lay in the continuous, uncontrollable shaking of the right side of his body - whereas I have a comparatively minor jaw tremor which I can stop, if I try hard enough. As I’ve only just been diagnosed, this may all change of course, but I guess I’m stuck with the pain anyway - given that neither my arthritis nor my PD are curable.Not wishing to be negative, the same probably goes for the rest of us, huh?<br>\nAll I know is that I’ve been helped a lot by knowing there are other people out there (like you two) who readily share their experiences and give moral support through this forum. I’ll try my best to do the same <img src=\"https://forum.parkinsons.org.uk/images/emoji/twitter/slight_smile.png?v=5\" title=\":slight_smile:\" class=\"emoji\" alt=\":slight_smile:\"></p>\n      </div>\n      <meta itemprop='interactionCount' content='UserLikes:0'>\n      <meta itemprop='interactionCount' content='UserComments:1'>\n      <meta itemprop='headline' content='Night time'>\n      <hr>\n  </div>\n  <div itemscope itemtype='http://schema.org/DiscussionForumPosting'>\n      <div class='creator'>\n        <span>\n          <a href='/u/malcT'><b itemprop='author'>malcT</b></a>\n          \n          <time datetime='2018-06-27T04:00:20Z' itemprop='datePublished'>\n            2018-06-27 04:00:20 UTC\n          </time>\n        </span>\n        <span itemprop='position'>#33</span>\n      </div>\n      <div class='post' itemprop='articleBody'>\n        <p>Hi Vic,<br>\nMany thanks for your latest post. (and at the fear of taking Babs thread off on a tangent)<br>\nWhilst I understand it<code>s not possible to replace all the joints in your body, for me its important to identify those that can. I think you already know I have had one knee replaced and last week my Surgeon has agreed to replace the other. At least that will give me a fighting chance to walk again unaided and exercise more to help with the other ailments I'm not sure if replacement is an option for Babs as she has a more complicated kind of arthritis, no doubt she will let us know. ( i sincerely hope she doesn</code>t get upset that my 10peneth is not what she wants to talk about here, it was when I saw Parkinsons, Arthritis, and pain mentioned )<br>\nIt’s been said many times and this won’t be the last, we are all different and this is only my side of a very complex situation.<br>\nPlease keep your chin up Vic, and I hope one-day all our prayers may be answered.</p>\n      </div>\n      <meta itemprop='interactionCount' content='UserLikes:0'>\n      <meta itemprop='interactionCount' content='UserComments:1'>\n      <meta itemprop='headline' content='Night time'>\n      <hr>\n  </div>\n  <div itemscope itemtype='http://schema.org/DiscussionForumPosting'>\n      <div class='creator'>\n        <span>\n          <a href='/u/babswood'><b itemprop='author'>babswood</b></a>\n          \n          <time datetime='2018-06-27T05:59:13Z' itemprop='datePublished'>\n            2018-06-27 05:59:13 UTC\n          </time>\n        </span>\n        <span itemprop='position'>#34</span>\n      </div>\n      <div class='post' itemprop='articleBody'>\n        <p>Hi Yes I have had my foot fused and a plate put in as everything  meaning joints were crumbling and I used to be in agony trying to walk.Now my foot feels great and having my back fixed hopefully means I will be able to walk.properly. With my rheaumatoid arthritis I don’t know what it feels like to have no pain.As it is in every joint there’s always one one joint playing up mix that with PD well you can imagine.och well I ain’t gonnae moan as its just not me. Ha ha.</p>\n      </div>\n      <meta itemprop='interactionCount' content='UserLikes:0'>\n      <meta itemprop='interactionCount' content='UserComments:1'>\n      <meta itemprop='headline' content='Night time'>\n      <hr>\n  </div>\n  <div itemscope itemtype='http://schema.org/DiscussionForumPosting'>\n      <div class='creator'>\n        <span>\n          <a href='/u/malcT'><b itemprop='author'>malcT</b></a>\n          \n          <time datetime='2018-06-27T06:05:55Z' itemprop='datePublished'>\n            2018-06-27 06:05:55 UTC\n          </time>\n        </span>\n        <span itemprop='position'>#35</span>\n      </div>\n      <div class='post' itemprop='articleBody'>\n        <p>Well said Babs. Im speechless.<img src=\"https://forum.parkinsons.org.uk/images/emoji/twitter/no_mouth.png?v=5\" title=\":no_mouth:\" class=\"emoji\" alt=\":no_mouth:\"><img src=\"https://forum.parkinsons.org.uk/images/emoji/twitter/no_mouth.png?v=5\" title=\":no_mouth:\" class=\"emoji\" alt=\":no_mouth:\"><br>\nXXX</p>\n      </div>\n      <meta itemprop='interactionCount' content='UserLikes:0'>\n      <meta itemprop='interactionCount' content='UserComments:1'>\n      <meta itemprop='headline' content='Night time'>\n      <hr>\n  </div>\n  <div itemscope itemtype='http://schema.org/DiscussionForumPosting'>\n      <div class='creator'>\n        <span>\n          <a href='/u/vicdavies'><b itemprop='author'>vicdavies</b></a>\n          \n          <time datetime='2018-06-27T09:02:27Z' itemprop='datePublished'>\n            2018-06-27 09:02:27 UTC\n          </time>\n        </span>\n        <span itemprop='position'>#36</span>\n      </div>\n      <div class='post' itemprop='articleBody'>\n        <p>Likewise Babs !! … You surely are the real deal !!..  barrow-loads of admiration for you here xx <img src=\"https://forum.parkinsons.org.uk/images/emoji/twitter/heart_eyes.png?v=5\" title=\":heart_eyes:\" class=\"emoji\" alt=\":heart_eyes:\"> Vic</p>\n      </div>\n      <meta itemprop='interactionCount' content='UserLikes:0'>\n      <meta itemprop='interactionCount' content='UserComments:0'>\n      <meta itemprop='headline' content='Night time'>\n      <hr>\n  </div>\n  <div itemscope itemtype='http://schema.org/DiscussionForumPosting'>\n      <div class='creator'>\n        <span>\n          <a href='/u/Snapper'><b itemprop='author'>Snapper</b></a>\n          \n          <time datetime='2018-06-27T09:45:39Z' itemprop='datePublished'>\n            2018-06-27 09:45:39 UTC\n          </time>\n        </span>\n        <span itemprop='position'>#37</span>\n      </div>\n      <div class='post' itemprop='articleBody'>\n        <p>So glad it’s not just me!<br>\nDay and night counting, shouting, pleading, promising, cajoling, singing, with/without footwear, massaging, tapping,  crying oh the crying through frustration and then anger ( I could go on but it’s not relevant)<br>\nSeconds minutes but not quite the hour yet. Sweating or freezing cold because I’m stuck. Feeling utterly vulnerable.<br>\nThat’s enough said I think. Just wanted to reassure you and also myself.<br>\nI have found one daytime help though, when my daughter or friend have calmed me down because panic sets in, if I watch there feet as they walk it helps me concentrate and get going most times.</p>\n<p>Keep on keeping on.</p>\n      </div>\n      <meta itemprop='interactionCount' content='UserLikes:0'>\n      <meta itemprop='interactionCount' content='UserComments:2'>\n      <meta itemprop='headline' content='Night time'>\n      <hr>\n  </div>\n  <div itemscope itemtype='http://schema.org/DiscussionForumPosting'>\n      <div class='creator'>\n        <span>\n          <a href='/u/cook61'><b itemprop='author'>cook61</b></a>\n          \n          <time datetime='2018-07-04T09:24:34Z' itemprop='datePublished'>\n            2018-07-04 09:24:34 UTC\n          </time>\n        </span>\n        <span itemprop='position'>#38</span>\n      </div>\n      <div class='post' itemprop='articleBody'>\n        <p>God Bless You Snapper!</p>\n      </div>\n      <meta itemprop='interactionCount' content='UserLikes:0'>\n      <meta itemprop='interactionCount' content='UserComments:0'>\n      <meta itemprop='headline' content='Night time'>\n      <hr>\n  </div>\n  <div itemscope itemtype='http://schema.org/DiscussionForumPosting'>\n      <div class='creator'>\n        <span>\n          <a href='/u/babswood'><b itemprop='author'>babswood</b></a>\n          \n          <time datetime='2018-07-04T10:29:19Z' itemprop='datePublished'>\n            2018-07-04 10:29:19 UTC\n          </time>\n        </span>\n        <span itemprop='position'>#39</span>\n      </div>\n      <div class='post' itemprop='articleBody'>\n        <p>Must try !</p>\n<p>Cheers</p>\n      </div>\n      <meta itemprop='interactionCount' content='UserLikes:0'>\n      <meta itemprop='interactionCount' content='UserComments:1'>\n      <meta itemprop='headline' content='Night time'>\n      <hr>\n  </div>\n  <div itemscope itemtype='http://schema.org/DiscussionForumPosting'>\n      <div class='creator'>\n        <span>\n          <a href='/u/Jchilton'><b itemprop='author'>Jchilton</b></a>\n          \n          <time datetime='2018-08-22T20:41:33Z' itemprop='datePublished'>\n            2018-08-22 20:41:33 UTC\n          </time>\n        </span>\n        <span itemprop='position'>#40</span>\n      </div>\n      <div class='post' itemprop='articleBody'>\n        <p>Hi <a class=\"mention\" href=\"/u/babswood\">@babswood</a><br>\nI  too experience bad nights when I can’t sleep . No matter what do  And by the time I do feel sleepy my medication starts wearing off You are certainly not alone</p>\n      </div>\n      <meta itemprop='interactionCount' content='UserLikes:0'>\n      <meta itemprop='interactionCount' content='UserComments:0'>\n      <meta itemprop='headline' content='Night time'>\n      <hr>\n  </div>\n\n  <div role='navigation' itemscope itemtype='http://schema.org/SiteNavigationElement'>\n      <span itemprop='name'><a rel=\"prev\" itemprop=\"url\" href=\"/t/night-time/13674\">← previous page</a></span>\n  </div>\n\n\n\n\n\n    </div>\n    <footer class=\"container\">\n      <nav class='crawler-nav' itemscope itemtype='http://schema.org/SiteNavigationElement'>\n        <a href='/'>Home</a>\n        <a href=\"/categories\">Categories</a>\n        <a href=\"/guidelines\">FAQ/Guidelines</a>\n        <a href=\"/tos\">Terms of Service</a>\n        <a href=\"/privacy\">Privacy Policy</a>\n      </nav>\n      <p class='powered-by-link'>Powered by <a href=\"https://www.discourse.org\">Discourse</a>, best viewed with JavaScript enabled</p>\n    </footer>\n    \n  </body>\n  \n</html>\n",
  "url": "https://forum.parkinsons.org.uk/t/night-time/13674?page=2"
}