{
  "contentId": "6ec4a900-8864-11e9-8f96-97f71b5221d6",
  "html": "<!DOCTYPE html>\n<html lang=\"en\">\n  <head>\n    <meta charset=\"utf-8\">\n    <title>How to help my parents without parenting them - Introductions and personal stories - Parkinson&#39;s UK Forum</title>\n    <meta name=\"description\" content=\"Hi all, \nMy mum has recently been diagnosed with Parkinsons. It currently affects her right hand with a tremor, walking has become slow &amp;amp; unsteady &amp;amp; her speach is sometimes affected. \nMy father cares for her and is doing&amp;hellip;\">\n    <meta name=\"author\" content=\"\">\n<meta name=\"generator\" content=\"Discourse 2.2.5 - https://github.com/discourse/discourse version c294ff3609f988dcafb742e91606d60ca13b794d\">\n<link rel=\"icon\" type=\"image/png\" href=\"https://forum.parkinsons.org.uk/uploads/db7928/original/2X/3/311fc84f89f49f38601a2f16b295b6f03d3ce5dd.jpg\">\n<link rel=\"apple-touch-icon\" type=\"image/png\" href=\"https://forum.parkinsons.org.uk/uploads/db7928/original/2X/3/311fc84f89f49f38601a2f16b295b6f03d3ce5dd.jpg\">\n<meta name=\"theme-color\" content=\"#ffffff\">\n<meta name=\"viewport\" content=\"width=device-width, minimum-scale=1.0, maximum-scale=1.0, user-scalable=yes\">\n<link rel=\"canonical\" href=\"https://forum.parkinsons.org.uk/t/how-to-help-my-parents-without-parenting-them/19498\" />\n<script type=\"application/ld+json\">{\"@context\":\"http://schema.org\",\"@type\":\"WebSite\",\"url\":\"https://forum.parkinsons.org.uk\",\"potentialAction\":{\"@type\":\"SearchAction\",\"target\":\"https://forum.parkinsons.org.uk/search?q={search_term_string}\",\"query-input\":\"required name=search_term_string\"}}</script>\n<link rel=\"search\" type=\"application/opensearchdescription+xml\" href=\"https://forum.parkinsons.org.uk/opensearch.xml\" title=\"Parkinson&#39;s UK Forum Search\">\n\n      <link href=\"/stylesheets/desktop_f99246ae801b083d3e4cca979d0dade8615b39ac.css?__ws=forum.parkinsons.org.uk\" media=\"all\" rel=\"stylesheet\" data-target=\"desktop\" data-theme-id=\"12\"/>\n      <link href=\"/stylesheets/desktop_theme_12_5d27531cf43f9df0c03a6a6ec3109dd05f9dfc49.css?__ws=forum.parkinsons.org.uk\" media=\"all\" rel=\"stylesheet\" data-target=\"desktop_theme\" data-theme-id=\"12\"/>\n    <link href=\"https://fonts.googleapis.com/css?family=Open+Sans\" rel=\"stylesheet\">\n\n    <meta id=\"data-ga-universal-analytics\" data-tracking-code=\"UA-4855628-1\" data-json=\"{&quot;cookieDomain&quot;:&quot;auto&quot;}\" data-auto-link-domains=\"\">\n\n<link rel='preload' href='/assets/google-universal-analytics-f35b4da49411e6f5559073523aab983da483976a3954c79c756f8579f6fbd6ef.js' as='script'/>\n<script src='/assets/google-universal-analytics-f35b4da49411e6f5559073523aab983da483976a3954c79c756f8579f6fbd6ef.js'></script>\n\n      <link rel=\"alternate\" type=\"application/rss+xml\" title=\"RSS feed of &#39;How to help my parents without parenting them&#39;\" href=\"https://forum.parkinsons.org.uk/t/how-to-help-my-parents-without-parenting-them/19498.rss\" />\n  <meta property=\"og:site_name\" content=\"Parkinson&#39;s UK Forum\" />\n<meta name=\"twitter:card\" content=\"summary\" />\n<meta name=\"twitter:image\" content=\"https://forum.parkinsons.org.uk/uploads/db7928/original/2X/3/311fc84f89f49f38601a2f16b295b6f03d3ce5dd.jpg\" />\n<meta property=\"og:image\" content=\"https://forum.parkinsons.org.uk/uploads/db7928/original/2X/3/311fc84f89f49f38601a2f16b295b6f03d3ce5dd.jpg\" />\n<meta property=\"og:url\" content=\"https://forum.parkinsons.org.uk/t/how-to-help-my-parents-without-parenting-them/19498\" />\n<meta name=\"twitter:url\" content=\"https://forum.parkinsons.org.uk/t/how-to-help-my-parents-without-parenting-them/19498\" />\n<meta property=\"og:title\" content=\"How to help my parents without parenting them\" />\n<meta name=\"twitter:title\" content=\"How to help my parents without parenting them\" />\n<meta property=\"og:description\" content=\"Hi all,  My mum has recently been diagnosed with Parkinsons. It currently affects her right hand with a tremor, walking has become slow &amp; unsteady &amp; her speach is sometimes affected.  My father cares for her and is doing an ok job. I notice a decline in her when she returns to her home after staying with me or my brother. They also live very rural so she cant get out unless he takes her. I have asked them to sell up and move to be near me (almost 200miles difference) so myself and my family can ...\" />\n<meta name=\"twitter:description\" content=\"Hi all,  My mum has recently been diagnosed with Parkinsons. It currently affects her right hand with a tremor, walking has become slow &amp; unsteady &amp; her speach is sometimes affected.  My father cares for her and is doing an ok job. I notice a decline in her when she returns to her home after staying with me or my brother. They also live very rural so she cant get out unless he takes her. I have asked them to sell up and move to be near me (almost 200miles difference) so myself and my family can ...\" />\n<meta property=\"article:published_time\" content=\"2019-05-30T10:13:25+00:00\" />\n<meta property=\"og:ignore_canonical\" content=\"true\" />\n\n\n\n    \n  </head>\n  <body class=\"crawler\">\n    <header role=\"banner\">\n    <div class=\"region region-header\">\n        <div class=\"region-header-wrapper\">\n            <div id=\"block-parkinsons-d8-branding\" class=\"block block-system block-system-branding-block\">\n                <a href=\"/\" title=\"Home\" rel=\"home\" class=\"site-logo\">\n                    <img src=\"https://forum.parkinsons.org.uk/uploads/db7928/original/2X/8/862bb7d172e7d127e7f3e147ec43594aa62ac945.png\" alt=\"Parkinson's UK. Change Attitudes. Find a cure. Join us.\">\n                </a>\n            </div>\n            <div id=\"block-helpline\" class=\"block block-block-content block-block-content871cd5af-b938-4947-9dc0-d5c211d08fe3 style-phone\">\n                <div class=\"field field--name-field-link field--type-link field--label-hidden field__item\"><a href=\"tel:+448088000303\">Helpline 0808 800 0303</a></div>\n            </div>\n            <div id=\"block-shop\" class=\"block block-block-content block-block-content6fba5ae5-7797-49cd-8367-f321d8111cd6 style-regular\">\n                <div class=\"field field--name-field-link field--type-link field--label-hidden field__item\"><a href=\"https://shop.parkinsons.org.uk\">Shop</a></div>\n            </div>\n        </div>\n    </div>\n</header>\n\n\n<script src=\"/theme-javascripts/b7e9763fcb584fc8265c56a9f557cd6d2e1e8ed8.js?__ws=forum.parkinsons.org.uk\"></script>\n    <header>\n      <a href=\"/\">\n          <img src=\"https://forum.parkinsons.org.uk/uploads/db7928/original/2X/8/862bb7d172e7d127e7f3e147ec43594aa62ac945.png\" alt=\"Parkinson&#39;s UK Forum\" id=\"site-logo\" style=\"max-width: 150px;\">\n      </a>\n    </header>\n    <div id=\"main-outlet\" class=\"wrap\">\n      <h1>\n  <a href=\"/t/how-to-help-my-parents-without-parenting-them/19498\">How to help my parents without parenting them</a>\n</h1>\n\n<div id='breadcrumbs'>\n    <div id=\"breadcrumb-0\" itemscope itemtype=\"http://data-vocabulary.org/Breadcrumb\"\n        itemref=\"breadcrumb-1\"\n      >\n      <a href=\"/c/about-me\" itemprop=\"url\">\n        <span itemprop=\"title\">About me</span>\n      </a>\n    </div>\n    <div id=\"breadcrumb-1\" itemscope itemtype=\"http://data-vocabulary.org/Breadcrumb\"\n>\n      <a href=\"/c/about-me/introductions-and-personal-stories\" itemprop=\"url\">\n        <span itemprop=\"title\">Introductions and personal stories</span>\n      </a>\n    </div>\n</div>\n\n\n\n\n\n<hr>\n\n\n  <div itemscope itemtype='http://schema.org/DiscussionForumPosting'>\n      <div class='creator'>\n        <span>\n          <a href='/u/Elo'><b itemprop='author'>Elo</b></a>\n          \n          <time datetime='2019-05-30T10:13:25Z' itemprop='datePublished'>\n            2019-05-30 10:13:25 UTC\n          </time>\n        </span>\n        <span itemprop='position'>#1</span>\n      </div>\n      <div class='post' itemprop='articleBody'>\n        <p>Hi all,<br>\nMy mum has recently been diagnosed with Parkinsons. It currently affects her right hand with a tremor, walking has become slow &amp; unsteady &amp; her speach is sometimes affected.<br>\nMy father cares for her and is doing an ok job. I notice a decline in her when she returns to her home after staying with me or my brother. They also live very rural so she cant get out unless he takes her. I have asked them to sell up and move to be near me (almost 200miles difference) so myself and my family can assist in her care and give them both a better quality of life. My father was furious and has taken this as an insult into him not being capable of caring for his wife, thus refusing to move. My mum, would love to be nearer to me and her grandchildren. Am i being selfish and insensitive in requesting this happens for the good of her health? I currently run my own business and have 4 teenage children so moving closer to them is not possible.<br>\nAny advice on how i can help from afar would be appreciated. I’m also not hating on my father; I know full well he loves my mother &amp; believes he is doing the best for her. Other than offering 5days restbite every 6-7 weeks. I dont know what else to do.</p>\n      </div>\n      <meta itemprop='interactionCount' content='UserLikes:0'>\n      <meta itemprop='interactionCount' content='UserComments:0'>\n      <meta itemprop='headline' content='How to help my parents without parenting them'>\n      <hr>\n  </div>\n  <div itemscope itemtype='http://schema.org/DiscussionForumPosting'>\n      <div class='creator'>\n        <span>\n          <a href='/u/Reah'><b itemprop='author'>Reah</b></a>\n          \n          <time datetime='2019-05-30T16:44:36Z' itemprop='datePublished'>\n            2019-05-30 16:44:36 UTC\n          </time>\n        </span>\n        <span itemprop='position'>#2</span>\n      </div>\n      <div class='post' itemprop='articleBody'>\n        <p>Hi <a class=\"mention\" href=\"/u/elo\">@Elo</a>,</p>\n<p>Welcome to the Parkinson’s UK forum.</p>\n<p>This seems like a really difficult situation for all involved, however, it’s really important to remember that Parkinson’s affects everyone differently so I wouldn’t take your dad’s reaction to heart. I’m sure you’ll hear from other members shortly with some supportive comments, in the meantime, both your parents may benefit from in home care. Social services or social work department - or health and social care trust in Northern Ireland - has a responsibility to assess your parents needs and arrange services that can help your mum stay in her home. There 's more information on this here - <a href=\"https://www.parkinsons.org.uk/information-and-support/home-care-and-care-homes\" rel=\"nofollow noopener\">https://www.parkinsons.org.uk/information-and-support/home-care-and-care-homes</a>.</p>\n<p>For more information and support on this, feel free to chat to one of our friendly advisers via our confidential helpline on 0808 800 0303 or email us at <a href=\"/cdn-cgi/l/email-protection#7d15181111123d0d1c0f1614130e12130e53120f1a530816\"><span class=\"__cf_email__\" data-cfemail=\"8be3eee7e7e4cbfbeaf9e0e2e5f8e4e5f8a5e4f9eca5fee0\">[email&#160;protected]</span></a>.</p>\n<p>I hope you find this information helpful.</p>\n<p>Best wishes,<br>\nReah<br>\nForum Community Manager</p>\n      </div>\n      <meta itemprop='interactionCount' content='UserLikes:1'>\n      <meta itemprop='interactionCount' content='UserComments:0'>\n      <meta itemprop='headline' content='How to help my parents without parenting them'>\n      <hr>\n  </div>\n\n\n\n\n\n\n    </div>\n    <footer class=\"container\">\n      <nav class='crawler-nav' itemscope itemtype='http://schema.org/SiteNavigationElement'>\n        <a href='/'>Home</a>\n        <a href=\"/categories\">Categories</a>\n        <a href=\"/guidelines\">FAQ/Guidelines</a>\n        <a href=\"/tos\">Terms of Service</a>\n        <a href=\"/privacy\">Privacy Policy</a>\n      </nav>\n      <p class='powered-by-link'>Powered by <a href=\"https://www.discourse.org\">Discourse</a>, best viewed with JavaScript enabled</p>\n    </footer>\n    \n  <script data-cfasync=\"false\" src=\"/cdn-cgi/scripts/5c5dd728/cloudflare-static/email-decode.min.js\"></script></body>\n  \n</html>\n",
  "url": "https://forum.parkinsons.org.uk/t/how-to-help-my-parents-without-parenting-them/19498"
}