{
  "contentId": "091c0eb0-886c-11e9-8f96-97f71b5221d6",
  "html": "<!DOCTYPE html>\n<html lang=\"en\">\n  <head>\n    <meta charset=\"utf-8\">\n    <title>Door frames - Daily life - Parkinson&#39;s UK Forum</title>\n    <meta name=\"description\" content=\"So, when mum is having a shuffling episode and her feet refuse to move it seems a major hurdle is going from one room to another. It seems that the join in the carpet or door frame, although not a physical barrier causes&amp;hellip;\">\n    <meta name=\"author\" content=\"\">\n<meta name=\"generator\" content=\"Discourse 2.2.5 - https://github.com/discourse/discourse version c294ff3609f988dcafb742e91606d60ca13b794d\">\n<link rel=\"icon\" type=\"image/png\" href=\"https://forum.parkinsons.org.uk/uploads/db7928/original/2X/3/311fc84f89f49f38601a2f16b295b6f03d3ce5dd.jpg\">\n<link rel=\"apple-touch-icon\" type=\"image/png\" href=\"https://forum.parkinsons.org.uk/uploads/db7928/original/2X/3/311fc84f89f49f38601a2f16b295b6f03d3ce5dd.jpg\">\n<meta name=\"theme-color\" content=\"#ffffff\">\n<meta name=\"viewport\" content=\"width=device-width, minimum-scale=1.0, maximum-scale=1.0, user-scalable=yes\">\n<link rel=\"canonical\" href=\"https://forum.parkinsons.org.uk/t/door-frames/17705\" />\n<script type=\"application/ld+json\">{\"@context\":\"http://schema.org\",\"@type\":\"WebSite\",\"url\":\"https://forum.parkinsons.org.uk\",\"potentialAction\":{\"@type\":\"SearchAction\",\"target\":\"https://forum.parkinsons.org.uk/search?q={search_term_string}\",\"query-input\":\"required name=search_term_string\"}}</script>\n<link rel=\"search\" type=\"application/opensearchdescription+xml\" href=\"https://forum.parkinsons.org.uk/opensearch.xml\" title=\"Parkinson&#39;s UK Forum Search\">\n\n      <link href=\"/stylesheets/desktop_f99246ae801b083d3e4cca979d0dade8615b39ac.css?__ws=forum.parkinsons.org.uk\" media=\"all\" rel=\"stylesheet\" data-target=\"desktop\" data-theme-id=\"12\"/>\n      <link href=\"/stylesheets/desktop_theme_12_5d27531cf43f9df0c03a6a6ec3109dd05f9dfc49.css?__ws=forum.parkinsons.org.uk\" media=\"all\" rel=\"stylesheet\" data-target=\"desktop_theme\" data-theme-id=\"12\"/>\n    <link href=\"https://fonts.googleapis.com/css?family=Open+Sans\" rel=\"stylesheet\">\n\n    <meta id=\"data-ga-universal-analytics\" data-tracking-code=\"UA-4855628-1\" data-json=\"{&quot;cookieDomain&quot;:&quot;auto&quot;}\" data-auto-link-domains=\"\">\n\n<link rel='preload' href='/assets/google-universal-analytics-f35b4da49411e6f5559073523aab983da483976a3954c79c756f8579f6fbd6ef.js' as='script'/>\n<script src='/assets/google-universal-analytics-f35b4da49411e6f5559073523aab983da483976a3954c79c756f8579f6fbd6ef.js'></script>\n\n      <link rel=\"alternate\" type=\"application/rss+xml\" title=\"RSS feed of &#39;Door frames&#39;\" href=\"https://forum.parkinsons.org.uk/t/door-frames/17705.rss\" />\n  <meta property=\"og:site_name\" content=\"Parkinson&#39;s UK Forum\" />\n<meta name=\"twitter:card\" content=\"summary\" />\n<meta name=\"twitter:image\" content=\"https://forum.parkinsons.org.uk/uploads/db7928/original/2X/3/311fc84f89f49f38601a2f16b295b6f03d3ce5dd.jpg\" />\n<meta property=\"og:image\" content=\"https://forum.parkinsons.org.uk/uploads/db7928/original/2X/3/311fc84f89f49f38601a2f16b295b6f03d3ce5dd.jpg\" />\n<meta property=\"og:url\" content=\"https://forum.parkinsons.org.uk/t/door-frames/17705\" />\n<meta name=\"twitter:url\" content=\"https://forum.parkinsons.org.uk/t/door-frames/17705\" />\n<meta property=\"og:title\" content=\"Door frames\" />\n<meta name=\"twitter:title\" content=\"Door frames\" />\n<meta property=\"og:description\" content=\"So, when mum is having a shuffling episode and her feet refuse to move it seems a major hurdle is going from one room to another. It seems that the join in the carpet or door frame, although not a physical barrier causes a mental block for her.  Does anyone else have this issue as if I can get some advice it could really make a difference to her.\" />\n<meta name=\"twitter:description\" content=\"So, when mum is having a shuffling episode and her feet refuse to move it seems a major hurdle is going from one room to another. It seems that the join in the carpet or door frame, although not a physical barrier causes a mental block for her.  Does anyone else have this issue as if I can get some advice it could really make a difference to her.\" />\n<meta name=\"twitter:label1\" value=\"Reading time\" />\n<meta name=\"twitter:data1\" value=\"2 mins \uD83D\uDD51\" />\n<meta name=\"twitter:label2\" value=\"Likes\" />\n<meta name=\"twitter:data2\" value=\"1 ❤\" />\n<meta property=\"article:published_time\" content=\"2019-01-27T17:28:44+00:00\" />\n<meta property=\"og:ignore_canonical\" content=\"true\" />\n\n\n\n    \n  </head>\n  <body class=\"crawler\">\n    <header role=\"banner\">\n    <div class=\"region region-header\">\n        <div class=\"region-header-wrapper\">\n            <div id=\"block-parkinsons-d8-branding\" class=\"block block-system block-system-branding-block\">\n                <a href=\"/\" title=\"Home\" rel=\"home\" class=\"site-logo\">\n                    <img src=\"https://forum.parkinsons.org.uk/uploads/db7928/original/2X/8/862bb7d172e7d127e7f3e147ec43594aa62ac945.png\" alt=\"Parkinson's UK. Change Attitudes. Find a cure. Join us.\">\n                </a>\n            </div>\n            <div id=\"block-helpline\" class=\"block block-block-content block-block-content871cd5af-b938-4947-9dc0-d5c211d08fe3 style-phone\">\n                <div class=\"field field--name-field-link field--type-link field--label-hidden field__item\"><a href=\"tel:+448088000303\">Helpline 0808 800 0303</a></div>\n            </div>\n            <div id=\"block-shop\" class=\"block block-block-content block-block-content6fba5ae5-7797-49cd-8367-f321d8111cd6 style-regular\">\n                <div class=\"field field--name-field-link field--type-link field--label-hidden field__item\"><a href=\"https://shop.parkinsons.org.uk\">Shop</a></div>\n            </div>\n        </div>\n    </div>\n</header>\n\n\n<script src=\"/theme-javascripts/b7e9763fcb584fc8265c56a9f557cd6d2e1e8ed8.js?__ws=forum.parkinsons.org.uk\"></script>\n    <header>\n      <a href=\"/\">\n          <img src=\"https://forum.parkinsons.org.uk/uploads/db7928/original/2X/8/862bb7d172e7d127e7f3e147ec43594aa62ac945.png\" alt=\"Parkinson&#39;s UK Forum\" id=\"site-logo\" style=\"max-width: 150px;\">\n      </a>\n    </header>\n    <div id=\"main-outlet\" class=\"wrap\">\n      <h1>\n  <a href=\"/t/door-frames/17705\">Door frames</a>\n</h1>\n\n<div id='breadcrumbs'>\n    <div id=\"breadcrumb-0\" itemscope itemtype=\"http://data-vocabulary.org/Breadcrumb\"\n        itemref=\"breadcrumb-1\"\n      >\n      <a href=\"/c/living-with-parkinsons\" itemprop=\"url\">\n        <span itemprop=\"title\">Living with Parkinson&#39;s</span>\n      </a>\n    </div>\n    <div id=\"breadcrumb-1\" itemscope itemtype=\"http://data-vocabulary.org/Breadcrumb\"\n>\n      <a href=\"/c/living-with-parkinsons/daily-life\" itemprop=\"url\">\n        <span itemprop=\"title\">Daily life</span>\n      </a>\n    </div>\n</div>\n\n\n\n\n\n<hr>\n\n\n  <div itemscope itemtype='http://schema.org/DiscussionForumPosting'>\n      <div class='creator'>\n        <span>\n          <a href='/u/Bow2'><b itemprop='author'>Bow2</b></a>\n          \n          <time datetime='2019-01-27T17:28:44Z' itemprop='datePublished'>\n            2019-01-27 17:28:44 UTC\n          </time>\n        </span>\n        <span itemprop='position'>#1</span>\n      </div>\n      <div class='post' itemprop='articleBody'>\n        <p>So, when mum is having a shuffling episode and her feet refuse to move it seems a major hurdle is going from one room to another. It seems that the join in the carpet or door frame, although not a physical barrier causes a mental block for her.</p>\n<p>Does anyone else have this issue as if I can get some advice it could really make a difference to her.</p>\n      </div>\n      <meta itemprop='interactionCount' content='UserLikes:0'>\n      <meta itemprop='interactionCount' content='UserComments:1'>\n      <meta itemprop='headline' content='Door frames'>\n      <hr>\n  </div>\n  <div itemscope itemtype='http://schema.org/DiscussionForumPosting'>\n      <div class='creator'>\n        <span>\n          <a href='/u/Reah'><b itemprop='author'>Reah</b></a>\n          \n          <time datetime='2019-01-28T16:41:48Z' itemprop='datePublished'>\n            2019-01-28 16:41:48 UTC\n          </time>\n        </span>\n        <span itemprop='position'>#2</span>\n      </div>\n      <div class='post' itemprop='articleBody'>\n        <p>Hi <a class=\"mention\" href=\"/u/bow2\">@Bow2</a>,</p>\n<p>This symptom that you’ve described is actually quite common among people with Parkinson’s.</p>\n<p>Floor coverings can sometimes be a hazard. For example, carpet patterns can be visually confusing. The best thing to do would be to speak to an occupational therapist or physiotherapist about applying strips of tape or plastic footsteps on your mum’s carpet. These can guide her in places she may be more likely to fall, such as in doorways. There’s more information on this on our website here - <a href=\"https://www.parkinsons.org.uk/information-and-support/falls-and-dizziness\">https://www.parkinsons.org.uk/information-and-support/falls-and-dizziness</a></p>\n<p>I hope you find this information useful, however, if you’d like more support on this, please give our helpline a call on 0808 800 0303 from Monday-Friday: 9am-7pm, Saturday: 10am-2pm, or you can email <a href=\"/cdn-cgi/l/email-protection#f098959c9c9fb08091829b999e839f9e83de9f8297de859b\"><span class=\"__cf_email__\" data-cfemail=\"d5bdb0b9b9ba95a5b4a7bebcbba6babba6fbbaa7b2fba0be\">[email&#160;protected]</span></a>.</p>\n<p>Best wishes,<br>\nReah</p>\n      </div>\n      <meta itemprop='interactionCount' content='UserLikes:0'>\n      <meta itemprop='interactionCount' content='UserComments:1'>\n      <meta itemprop='headline' content='Door frames'>\n      <hr>\n  </div>\n  <div itemscope itemtype='http://schema.org/DiscussionForumPosting'>\n      <div class='creator'>\n        <span>\n          <a href='/u/Bow2'><b itemprop='author'>Bow2</b></a>\n          \n          <time datetime='2019-01-28T20:02:37Z' itemprop='datePublished'>\n            2019-01-28 20:02:37 UTC\n          </time>\n        </span>\n        <span itemprop='position'>#3</span>\n      </div>\n      <div class='post' itemprop='articleBody'>\n        <p>That is brilliant, thank you so much. I’m so glad I’ve find this forum. It really helps to ask questions that only those involved in PD can understand.</p>\n<p>Thank you</p>\n      </div>\n      <meta itemprop='interactionCount' content='UserLikes:1'>\n      <meta itemprop='interactionCount' content='UserComments:0'>\n      <meta itemprop='headline' content='Door frames'>\n      <hr>\n  </div>\n  <div itemscope itemtype='http://schema.org/DiscussionForumPosting'>\n      <div class='creator'>\n        <span>\n          <a href='/u/ebot'><b itemprop='author'>ebot</b></a>\n          \n          <time datetime='2019-02-02T08:07:30Z' itemprop='datePublished'>\n            2019-02-02 08:07:30 UTC\n          </time>\n        </span>\n        <span itemprop='position'>#4</span>\n      </div>\n      <div class='post' itemprop='articleBody'>\n        <p>Hi Bow2. As already suggested I would see an OT or physio who specialises in PD. There are many techniques that can help with this common problem but different people respond better to different things. Programs such as PD Warrior and LSVT Big are great at helping people use internal strategies and getting people to think big and powerful with their movements - helping to overcome shuffling and freezing to some degree.  Visual prompts such as lines of tape work for some people but this won’t help when they’re not in their own environment. Marching on the spot, stepping while counting, walking to a beat are all good for more advanced difficulties.  If you can’t get a therapist through the NHs to see you at home I think it’s worth finding a private one. A good therapist will be worth their weight in gold. Hope you find something that works!</p>\n      </div>\n      <meta itemprop='interactionCount' content='UserLikes:0'>\n      <meta itemprop='interactionCount' content='UserComments:0'>\n      <meta itemprop='headline' content='Door frames'>\n      <hr>\n  </div>\n  <div itemscope itemtype='http://schema.org/DiscussionForumPosting'>\n      <div class='creator'>\n        <span>\n          <a href='/u/jimdownunder'><b itemprop='author'>jimdownunder</b></a>\n          \n          <time datetime='2019-02-02T23:43:28Z' itemprop='datePublished'>\n            2019-02-02 23:43:28 UTC\n          </time>\n        </span>\n        <span itemprop='position'>#5</span>\n      </div>\n      <div class='post' itemprop='articleBody'>\n        <p>Hi,<br>\nI know a fellow sufferer who has to waltz through doorways.<br>\nMy problem is doorways with ramps. Even slight ramps cause me to hesitate.<br>\nMy local pharmacy has ramps but fortunately there are two doorways and I find I can go in one and out the other. Going up ramps is OK, just not down. Medication has helped.</p>\n<p>Occupational Therapists are great for helping you find a solution that works.</p>\n<p>Jim</p>\n      </div>\n      <meta itemprop='interactionCount' content='UserLikes:0'>\n      <meta itemprop='interactionCount' content='UserComments:0'>\n      <meta itemprop='headline' content='Door frames'>\n      <hr>\n  </div>\n  <div itemscope itemtype='http://schema.org/DiscussionForumPosting'>\n      <div class='creator'>\n        <span>\n          <a href='/u/Appletree'><b itemprop='author'>Appletree</b></a>\n          \n          <time datetime='2019-02-05T13:16:16Z' itemprop='datePublished'>\n            2019-02-05 13:16:16 UTC\n          </time>\n        </span>\n        <span itemprop='position'>#6</span>\n      </div>\n      <div class='post' itemprop='articleBody'>\n        <p>I remember when I was visiting a friend in Palestine. I didn’t have my trike so I had brought a cane. One day I was walking about the place ok practicing my pidgin arabic, but the next I struggled to make it to the corner shop. I had to keep kicking the cane to get my legs moving. When I started to freeze my friend tried giving me a push up the hill. Not a good idea as you are likely to keel over as postural stability impaired.</p>\n<p>I used to go to a Dance for Parkinson’s group and at the end we would form a circle and hold hands. My legs would start to tremble as if they were revving up to charge in for the Hokey- Cokey.</p>\n<p>Before I got my new walker I was pushing a wheelchair around to help my balance and for ‘just in case’ when my walking got too slow or I froze. I was about to go through the security frame at the airport. They took the wheelchair round the side. Then the woman beckoned me forwards, warning me to be careful not to touch the sides. This froze me to the spot as my arms can to fling about when I’ve got nothing to hang onto and I thought I might set the alarm off.</p>\n<p>My speech had frozen too so I was just standing there getting tearful, trying to explain what the problem was through mime – that my eyes were telling my brain that THE frame was too narrow so my legs would not move. Eventually they twigged and opened the door at the side to let me through – of course I managed that perfectly fine.</p>\n<p>Another time I had taken a cab for a dental appointment. Unfortunately the driver took a wrong turning in the one-way system.  I’ve got akathisia and I can’t stand having to sit doing nothing so as he farted around trying to figure out which way to go I was getting more and more stressed. When I finally got out of the cab I stood in the middle of the zebra crossing and froze. A very kind lady actually got out of her car and helped me across the road .</p>\n<p>The most stressful freeze was when I was visiting Pals (PATIENT ADVIcE AND LIAISon service). I think it was my third visit trying to get a neurology appointment. The woman’s face just said ‘haven’t you got the message - what are you doing here again?’ No she couldn’t help me. No the consultant didn’t want to see me again. I put my arms on the counter to show her my rest tremor and it was “I’m not a clinician”.</p>\n<p>My whole body was shaking by this time. I turned to leave and couldn‘t move. She looked at me like ‘Are you expecting ME to help you?’. Then she realized that for me to leave the office she would have to physically help me. She even had to go and find my trike, which someone had moved. “She needs it.” she said to the security guard, pleased at her sudden transformation into Florence NightingaLE.</p>\n<p><strong>Freezing Phenomenon, the Fifth Cardinal Sign of Parkinsonism</strong> Nir Giladi,  Stanley Fahn Progress in Alzheimer’s and Parkinson’s Disease ed Fisher et al Plenum Press 1998 Vol. 49 of the series Advances in Behavioural Biology pp329-335</p>\n<p>Charcot (1877) appears to have been the first to describe the freezing phenomenon – both start hesitation and freezing when arising – in patients with PD.</p>\n<p>Wechsler 50 years later I(1927) gave the first detailed description of start hesitation in a parkinsoniaN Patient, and during the next 40 years, in the pre-levodopa period, freezing was mentioned by several authors as part of parkinsonian akinesia (Luria 1932 , Schwab 1954; Martin 1967)</p>\n<p>Schwab et al (1959) were the first to include start hesitation as part of parkinsonian “akinesia” and to use the term “freezing” for the “difficulties patients experience shifting from one motor task to another”</p>\n<p>…It seems to be part of the general slowness of movement (bradykinesia) seen in PD or more precisely related to abnormal execution of complex motor tasks such as repetitive, simultaneous or sequential motor acts (Schwab et al 1954, Marsden , 1989)</p>\n<aside class=\"onebox whitelistedgeneric\">\n  <header class=\"source\">\n      <img src=\"https://www.hindawi.com/favicon.ico\" class=\"site-icon\" width=\"16\" height=\"16\">\n      <a href=\"https://www.hindawi.com/journals/pd/2016/9832839/\" target=\"_blank\" rel=\"nofollow noopener\">hindawi.com</a>\n  </header>\n  <article class=\"onebox-body\">\n    <div class=\"aspect-image\" style=\"--aspect-ratio:690/362;\"><img src=\"https://forum.parkinsons.org.uk/uploads/db7928/original/2X/c/c0ecabdd25e009132c9d73aef38c4add40f42edd.jpeg\" class=\"thumbnail\"></div>\n\n<h3><a href=\"https://www.hindawi.com/journals/pd/2016/9832839/\" target=\"_blank\" rel=\"nofollow noopener\">Pathophysiology of Motor Dysfunction in Parkinson’s Disease as the Rationale for...</a></h3>\n\n<p>Cardinal motor features of Parkinson’s disease (PD) include bradykinesia, rest tremor, and rigidity, which appear in the early stages of the disease and largely depend on dopaminergic nigrostriatal denervation. Intermediate and advanced PD...</p>\n\n\n  </article>\n  <div class=\"onebox-metadata\">\n    \n    \n  </div>\n  <div style=\"clear: both\"></div>\n</aside>\n\n<p><strong>Pathophysiology of Motor Dysfunction in Parkinson’s Disease as the Rationale for Drug Treatment and Rehabilitation</strong> <a href=\"https://www.hindawi.com/90131925/\" rel=\"nofollow noopener\">F. Magrinelli</a>, <a href=\"https://www.hindawi.com/46719801/\" rel=\"nofollow noopener\">A. Picelli</a>, <a href=\"https://www.hindawi.com/56563010/\" rel=\"nofollow noopener\">P. Tocco</a>, <a href=\"https://www.hindawi.com/58726812/\" rel=\"nofollow noopener\">A.Federico</a>, <a href=\"https://www.hindawi.com/54857928/\" rel=\"nofollow noopener\">L. Roncari</a>, <a href=\"https://www.hindawi.com/95836218/\" rel=\"nofollow noopener\">N. Smania</a>, <a href=\"https://www.hindawi.com/65189804/\" rel=\"nofollow noopener\">G. Zanette</a>, and <a href=\"https://www.hindawi.com/19501375/\" rel=\"nofollow noopener\">S. Tamrin</a> Parkinson’s Disease Vol. 2016</p>\n<p>The hypotheses on FOG [freezing of gait] pathophysiology have recently shifted towards a multisystem dysfunction, where cognition plays a significant role. Although gait has been long considered a low-level automated motor activity that requires minimal higher cortical functions, growing evidence suggests a role for cognition, especially attention and executive functions in gait control.</p>\n      </div>\n      <meta itemprop='interactionCount' content='UserLikes:0'>\n      <meta itemprop='interactionCount' content='UserComments:0'>\n      <meta itemprop='headline' content='Door frames'>\n      <hr>\n  </div>\n\n\n\n\n\n\n    </div>\n    <footer class=\"container\">\n      <nav class='crawler-nav' itemscope itemtype='http://schema.org/SiteNavigationElement'>\n        <a href='/'>Home</a>\n        <a href=\"/categories\">Categories</a>\n        <a href=\"/guidelines\">FAQ/Guidelines</a>\n        <a href=\"/tos\">Terms of Service</a>\n        <a href=\"/privacy\">Privacy Policy</a>\n      </nav>\n      <p class='powered-by-link'>Powered by <a href=\"https://www.discourse.org\">Discourse</a>, best viewed with JavaScript enabled</p>\n    </footer>\n    \n  <script data-cfasync=\"false\" src=\"/cdn-cgi/scripts/5c5dd728/cloudflare-static/email-decode.min.js\"></script></body>\n  \n</html>\n",
  "url": "https://forum.parkinsons.org.uk/t/door-frames/17705"
}