{
  "contentId": "3864b7f0-8865-11e9-8f96-97f71b5221d6",
  "html": "<!DOCTYPE html>\n<html lang=\"en\">\n  <head>\n    <meta charset=\"utf-8\">\n    <title>Dopamine Agonists and catastrophic Obsessive/Compulsive Disorders - Impulsive and compulsive behaviour - Parkinson&#39;s UK Forum</title>\n    <meta name=\"description\" content=\"Hi.  There has been a significant rise recently in the number of new members joining the forum because they or their loved ones have started to show signs of compulsive behaviour - sometimes called &amp;quot;impulse control disor&amp;hellip;\">\n    <meta name=\"author\" content=\"\">\n<meta name=\"generator\" content=\"Discourse 2.2.5 - https://github.com/discourse/discourse version c294ff3609f988dcafb742e91606d60ca13b794d\">\n<link rel=\"icon\" type=\"image/png\" href=\"https://forum.parkinsons.org.uk/uploads/db7928/original/2X/3/311fc84f89f49f38601a2f16b295b6f03d3ce5dd.jpg\">\n<link rel=\"apple-touch-icon\" type=\"image/png\" href=\"https://forum.parkinsons.org.uk/uploads/db7928/original/2X/3/311fc84f89f49f38601a2f16b295b6f03d3ce5dd.jpg\">\n<meta name=\"theme-color\" content=\"#ffffff\">\n<meta name=\"viewport\" content=\"width=device-width, minimum-scale=1.0, maximum-scale=1.0, user-scalable=yes\">\n<link rel=\"canonical\" href=\"https://forum.parkinsons.org.uk/t/dopamine-agonists-and-catastrophic-obsessive-compulsive-disorders/5335?page=29\" />\n<script type=\"application/ld+json\">{\"@context\":\"http://schema.org\",\"@type\":\"WebSite\",\"url\":\"https://forum.parkinsons.org.uk\",\"potentialAction\":{\"@type\":\"SearchAction\",\"target\":\"https://forum.parkinsons.org.uk/search?q={search_term_string}\",\"query-input\":\"required name=search_term_string\"}}</script>\n<link rel=\"search\" type=\"application/opensearchdescription+xml\" href=\"https://forum.parkinsons.org.uk/opensearch.xml\" title=\"Parkinson&#39;s UK Forum Search\">\n\n      <link href=\"/stylesheets/desktop_f99246ae801b083d3e4cca979d0dade8615b39ac.css?__ws=forum.parkinsons.org.uk\" media=\"all\" rel=\"stylesheet\" data-target=\"desktop\" data-theme-id=\"12\"/>\n      <link href=\"/stylesheets/desktop_theme_12_5d27531cf43f9df0c03a6a6ec3109dd05f9dfc49.css?__ws=forum.parkinsons.org.uk\" media=\"all\" rel=\"stylesheet\" data-target=\"desktop_theme\" data-theme-id=\"12\"/>\n    <link href=\"https://fonts.googleapis.com/css?family=Open+Sans\" rel=\"stylesheet\">\n\n    <meta id=\"data-ga-universal-analytics\" data-tracking-code=\"UA-4855628-1\" data-json=\"{&quot;cookieDomain&quot;:&quot;auto&quot;}\" data-auto-link-domains=\"\">\n\n<link rel='preload' href='/assets/google-universal-analytics-f35b4da49411e6f5559073523aab983da483976a3954c79c756f8579f6fbd6ef.js' as='script'/>\n<script src='/assets/google-universal-analytics-f35b4da49411e6f5559073523aab983da483976a3954c79c756f8579f6fbd6ef.js'></script>\n\n      <link rel=\"alternate\" type=\"application/rss+xml\" title=\"RSS feed of &#39;Dopamine Agonists and catastrophic Obsessive/Compulsive Disorders&#39;\" href=\"https://forum.parkinsons.org.uk/t/dopamine-agonists-and-catastrophic-obsessive-compulsive-disorders/5335.rss\" />\n  <meta property=\"og:site_name\" content=\"Parkinson&#39;s UK Forum\" />\n<meta name=\"twitter:card\" content=\"summary\" />\n<meta name=\"twitter:image\" content=\"https://forum.parkinsons.org.uk/uploads/db7928/original/2X/3/311fc84f89f49f38601a2f16b295b6f03d3ce5dd.jpg\" />\n<meta property=\"og:image\" content=\"https://forum.parkinsons.org.uk/uploads/db7928/original/2X/3/311fc84f89f49f38601a2f16b295b6f03d3ce5dd.jpg\" />\n<meta property=\"og:url\" content=\"https://forum.parkinsons.org.uk/t/dopamine-agonists-and-catastrophic-obsessive-compulsive-disorders/5335?page=29\" />\n<meta name=\"twitter:url\" content=\"https://forum.parkinsons.org.uk/t/dopamine-agonists-and-catastrophic-obsessive-compulsive-disorders/5335?page=29\" />\n<meta property=\"og:title\" content=\"Dopamine Agonists and catastrophic Obsessive/Compulsive Disorders\" />\n<meta name=\"twitter:title\" content=\"Dopamine Agonists and catastrophic Obsessive/Compulsive Disorders\" />\n<meta property=\"og:description\" content=\"Good evening Tryphena  Lovely to see you have taken the plunge to join us. Lots of lovely people on the forum to help and advise with any problems you have.  Stay in touch and take care PB\" />\n<meta name=\"twitter:description\" content=\"Good evening Tryphena  Lovely to see you have taken the plunge to join us. Lots of lovely people on the forum to help and advise with any problems you have.  Stay in touch and take care PB\" />\n<meta name=\"twitter:label1\" value=\"Reading time\" />\n<meta name=\"twitter:data1\" value=\"197 mins \uD83D\uDD51\" />\n<meta name=\"twitter:label2\" value=\"Likes\" />\n<meta name=\"twitter:data2\" value=\"1 ❤\" />\n<meta property=\"article:published_time\" content=\"2011-09-19T18:25:20+00:00\" />\n<meta property=\"og:ignore_canonical\" content=\"true\" />\n\n      <link rel=\"prev\" href=\"/t/dopamine-agonists-and-catastrophic-obsessive-compulsive-disorders/5335?page=28\">\n      <link rel=\"next\" href=\"/t/dopamine-agonists-and-catastrophic-obsessive-compulsive-disorders/5335?page=30\">\n\n\n    \n  </head>\n  <body class=\"crawler\">\n    <header role=\"banner\">\n    <div class=\"region region-header\">\n        <div class=\"region-header-wrapper\">\n            <div id=\"block-parkinsons-d8-branding\" class=\"block block-system block-system-branding-block\">\n                <a href=\"/\" title=\"Home\" rel=\"home\" class=\"site-logo\">\n                    <img src=\"https://forum.parkinsons.org.uk/uploads/db7928/original/2X/8/862bb7d172e7d127e7f3e147ec43594aa62ac945.png\" alt=\"Parkinson's UK. Change Attitudes. Find a cure. Join us.\">\n                </a>\n            </div>\n            <div id=\"block-helpline\" class=\"block block-block-content block-block-content871cd5af-b938-4947-9dc0-d5c211d08fe3 style-phone\">\n                <div class=\"field field--name-field-link field--type-link field--label-hidden field__item\"><a href=\"tel:+448088000303\">Helpline 0808 800 0303</a></div>\n            </div>\n            <div id=\"block-shop\" class=\"block block-block-content block-block-content6fba5ae5-7797-49cd-8367-f321d8111cd6 style-regular\">\n                <div class=\"field field--name-field-link field--type-link field--label-hidden field__item\"><a href=\"https://shop.parkinsons.org.uk\">Shop</a></div>\n            </div>\n        </div>\n    </div>\n</header>\n\n\n<script src=\"/theme-javascripts/b7e9763fcb584fc8265c56a9f557cd6d2e1e8ed8.js?__ws=forum.parkinsons.org.uk\"></script>\n    <header>\n      <a href=\"/\">\n          <img src=\"https://forum.parkinsons.org.uk/uploads/db7928/original/2X/8/862bb7d172e7d127e7f3e147ec43594aa62ac945.png\" alt=\"Parkinson&#39;s UK Forum\" id=\"site-logo\" style=\"max-width: 150px;\">\n      </a>\n    </header>\n    <div id=\"main-outlet\" class=\"wrap\">\n      <h1>\n  <a href=\"/t/dopamine-agonists-and-catastrophic-obsessive-compulsive-disorders/5335\">Dopamine Agonists and catastrophic Obsessive/Compulsive Disorders</a>\n</h1>\n\n<div id='breadcrumbs'>\n    <div id=\"breadcrumb-0\" itemscope itemtype=\"http://data-vocabulary.org/Breadcrumb\"\n        itemref=\"breadcrumb-1\"\n      >\n      <a href=\"/c/about-parkinsons-and-health\" itemprop=\"url\">\n        <span itemprop=\"title\">About Parkinson&#39;s and health</span>\n      </a>\n    </div>\n    <div id=\"breadcrumb-1\" itemscope itemtype=\"http://data-vocabulary.org/Breadcrumb\"\n>\n      <a href=\"/c/about-parkinsons-and-health/impulsive-and-compulsive-behaviour\" itemprop=\"url\">\n        <span itemprop=\"title\">Impulsive and compulsive behaviour</span>\n      </a>\n    </div>\n</div>\n\n\n\n\n\n<hr>\n\n\n  <div itemscope itemtype='http://schema.org/DiscussionForumPosting'>\n      <div class='creator'>\n        <span>\n          <a href='/u/Posh_Bird'><b itemprop='author'>Posh_Bird</b></a>\n          \n          <time datetime='2011-09-19T18:25:20Z' itemprop='datePublished'>\n            2011-09-19 18:25:20 UTC\n          </time>\n        </span>\n        <span itemprop='position'>#561</span>\n      </div>\n      <div class='post' itemprop='articleBody'>\n        Good evening Tryphena<br><br>Lovely to see you have taken the plunge to join us. Lots of lovely people on the forum to help and advise with any problems you have.<br><br>Stay in touch and take care PB\n      </div>\n      <meta itemprop='interactionCount' content='UserLikes:0'>\n      <meta itemprop='interactionCount' content='UserComments:0'>\n      <meta itemprop='headline' content='Dopamine Agonists and catastrophic Obsessive/Compulsive Disorders'>\n      <hr>\n  </div>\n  <div itemscope itemtype='http://schema.org/DiscussionForumPosting'>\n      <div class='creator'>\n        <span>\n          <a href='/u/Eck'><b itemprop='author'>Eck</b></a>\n          \n          <time datetime='2011-09-19T19:54:39Z' itemprop='datePublished'>\n            2011-09-19 19:54:39 UTC\n          </time>\n        </span>\n        <span itemprop='position'>#562</span>\n      </div>\n      <div class='post' itemprop='articleBody'>\n        Hi Tryphena,<br><br>A posiitive delight to hear from you.  Any questions and you will find a veritable plethora of knowledgeable, people who have been through the mill and got out the other side.<br><br>Eck\n      </div>\n      <meta itemprop='interactionCount' content='UserLikes:0'>\n      <meta itemprop='interactionCount' content='UserComments:0'>\n      <meta itemprop='headline' content='Dopamine Agonists and catastrophic Obsessive/Compulsive Disorders'>\n      <hr>\n  </div>\n  <div itemscope itemtype='http://schema.org/DiscussionForumPosting'>\n      <div class='creator'>\n        <span>\n          <a href='/u/rico'><b itemprop='author'>rico</b></a>\n          \n          <time datetime='2011-09-19T22:14:54Z' itemprop='datePublished'>\n            2011-09-19 22:14:54 UTC\n          </time>\n        </span>\n        <span itemprop='position'>#563</span>\n      </div>\n      <div class='post' itemprop='articleBody'>\n        Hi Tryphena, <br><br>Welcome to the forum! Hope you can stay and the people here can help you if you need to ask something.<br><br>So you are on DA's? You aren't on any of the levodopa-based drugs (madopar, sinemet, stalevo etc)?<br><br>Welcome again and very best wishes!!<br>rico\n      </div>\n      <meta itemprop='interactionCount' content='UserLikes:0'>\n      <meta itemprop='interactionCount' content='UserComments:0'>\n      <meta itemprop='headline' content='Dopamine Agonists and catastrophic Obsessive/Compulsive Disorders'>\n      <hr>\n  </div>\n  <div itemscope itemtype='http://schema.org/DiscussionForumPosting'>\n      <div class='creator'>\n        <span>\n          <a href='/u/Eck'><b itemprop='author'>Eck</b></a>\n          \n          <time datetime='2011-09-20T08:51:12Z' itemprop='datePublished'>\n            2011-09-20 08:51:12 UTC\n          </time>\n        </span>\n        <span itemprop='position'>#564</span>\n      </div>\n      <div class='post' itemprop='articleBody'>\n        Anybody any ideas about what I can re-wrap by way of a gift for Mrs Eck and I's anniversary.  I've requested a re-wrap of my Rangers pint pot, can't use it though, it doesn't have a lid.  Although I do have cling film and I could indulge in some straw-napping at McD's next time I have to use their facilities.<br><br>Ahhh the after-math of catastrophic OCD's, the stench of deprivation.<br><br>When I say wrap I mean put in the gift bag I kept from last year.  Its so big by yeah big so, you know, something that will fit in that.  I've only got a week or is it only 4 days.  I better get that bit right at least.  <br><br>So, thinking caps on people.\n      </div>\n      <meta itemprop='interactionCount' content='UserLikes:0'>\n      <meta itemprop='interactionCount' content='UserComments:0'>\n      <meta itemprop='headline' content='Dopamine Agonists and catastrophic Obsessive/Compulsive Disorders'>\n      <hr>\n  </div>\n  <div itemscope itemtype='http://schema.org/DiscussionForumPosting'>\n      <div class='creator'>\n        <span>\n          <a href='/u/Radar47'><b itemprop='author'>Radar47</b></a>\n          \n          <time datetime='2011-09-20T14:59:00Z' itemprop='datePublished'>\n            2011-09-20 14:59:00 UTC\n          </time>\n        </span>\n        <span itemprop='position'>#565</span>\n      </div>\n      <div class='post' itemprop='articleBody'>\n        what about a nice bunch of flowers <strong>ECK</strong> are there any growing next door?<img src='/images/emoji/emoji_one/wink.png?v=3' alt=':wink:' title=':wink:' class='emoji' /><br><br>Radz xx\n      </div>\n      <meta itemprop='interactionCount' content='UserLikes:0'>\n      <meta itemprop='interactionCount' content='UserComments:0'>\n      <meta itemprop='headline' content='Dopamine Agonists and catastrophic Obsessive/Compulsive Disorders'>\n      <hr>\n  </div>\n  <div itemscope itemtype='http://schema.org/DiscussionForumPosting'>\n      <div class='creator'>\n        <span>\n          <a href='/u/rico'><b itemprop='author'>rico</b></a>\n          \n          <time datetime='2011-09-20T22:51:37Z' itemprop='datePublished'>\n            2011-09-20 22:51:37 UTC\n          </time>\n        </span>\n        <span itemprop='position'>#566</span>\n      </div>\n      <div class='post' itemprop='articleBody'>\n        Flowers are a good idea.<br><br>And anythng to do with Rangers (the Hun variety of course and not of the QPR kind), Eck, should be flushed down the bog, where it belongs. <img src='/images/emoji/emoji_one/grin.png?v=3' alt=':grin:' title=':grin:' class='emoji' />\n      </div>\n      <meta itemprop='interactionCount' content='UserLikes:0'>\n      <meta itemprop='interactionCount' content='UserComments:0'>\n      <meta itemprop='headline' content='Dopamine Agonists and catastrophic Obsessive/Compulsive Disorders'>\n      <hr>\n  </div>\n  <div itemscope itemtype='http://schema.org/DiscussionForumPosting'>\n      <div class='creator'>\n        <span>\n          <a href='/u/Eck'><b itemprop='author'>Eck</b></a>\n          \n          <time datetime='2011-09-21T08:23:48Z' itemprop='datePublished'>\n            2011-09-21 08:23:48 UTC\n          </time>\n        </span>\n        <span itemprop='position'>#567</span>\n      </div>\n      <div class='post' itemprop='articleBody'>\n        Thanks for the suggestions.<br><br>Next doors flowers are all withered, lack of sunshine I suspect.\n      </div>\n      <meta itemprop='interactionCount' content='UserLikes:0'>\n      <meta itemprop='interactionCount' content='UserComments:0'>\n      <meta itemprop='headline' content='Dopamine Agonists and catastrophic Obsessive/Compulsive Disorders'>\n      <hr>\n  </div>\n  <div itemscope itemtype='http://schema.org/DiscussionForumPosting'>\n      <div class='creator'>\n        <span>\n          <a href='/u/Drobb'><b itemprop='author'>Drobb</b></a>\n          \n          <time datetime='2011-09-21T15:23:52Z' itemprop='datePublished'>\n            2011-09-21 15:23:52 UTC\n          </time>\n        </span>\n        <span itemprop='position'>#568</span>\n      </div>\n      <div class='post' itemprop='articleBody'>\n        Hi Eck,<br> <br>How about locating an old photo of the both of you, cut out a piece of card with centre piece cut out to display pic, seal back with full size pice of card, decorate frame with pasta (spray gold or silver - obtained from £1 shops) or shells or any beads etc or just your own hand design and present a personalised photo frame? Tell her you chose a paper item (picture) as she's still as special to you as she was on your 1st anniversary <img src='/images/emoji/emoji_one/flushed.png?v=3' alt=':flushed:' title=':flushed:' class='emoji' /><img src='/images/emoji/emoji_one/wink.png?v=3' alt=':wink:' title=':wink:' class='emoji' /> <br><br>OR cut out card into heart shape, place pic inside and get someone on the creative forum to knock you up a romantic poem (some of them have become quite good you know?) <br><br>Then........pop down to McD's nick(sorry..acquire) those straws, cut them into ascending lengths, glue them together to create a hand made flute and seranade her with a tune or two! <img src='/images/emoji/emoji_one/grin.png?v=3' alt=':grin:' title=':grin:' class='emoji' /><br><br>Failing that, your just going to have to place a ribbon on your birthday suit man bits and present yourself!!<img src='/images/emoji/emoji_one/flushed.png?v=3' alt=':flushed:' title=':flushed:' class='emoji' /><img src='/images/emoji/emoji_one/flushed.png?v=3' alt=':flushed:' title=':flushed:' class='emoji' /><img src='/images/emoji/emoji_one/laughing.png?v=3' alt=':laughing:' title=':laughing:' class='emoji' /><br><br>Happy Anniversary to you both<br><br>Diane\n      </div>\n      <meta itemprop='interactionCount' content='UserLikes:0'>\n      <meta itemprop='interactionCount' content='UserComments:0'>\n      <meta itemprop='headline' content='Dopamine Agonists and catastrophic Obsessive/Compulsive Disorders'>\n      <hr>\n  </div>\n  <div itemscope itemtype='http://schema.org/DiscussionForumPosting'>\n      <div class='creator'>\n        <span>\n          <a href='/u/Radar47'><b itemprop='author'>Radar47</b></a>\n          \n          <time datetime='2011-09-21T15:32:30Z' itemprop='datePublished'>\n            2011-09-21 15:32:30 UTC\n          </time>\n        </span>\n        <span itemprop='position'>#569</span>\n      </div>\n      <div class='post' itemprop='articleBody'>\n        <strong>DROBB</strong>....you have made me laugh with your post, I am trying not to form a picture of ECK in my mind LOL<br><br>Great idea though about the picture, I am guessing you are a card maker like myself.<br><br><br>What anniversary is it ECK?  Maybe you could write Mrs ECK a poem.<br><br><br>Radz xx\n      </div>\n      <meta itemprop='interactionCount' content='UserLikes:0'>\n      <meta itemprop='interactionCount' content='UserComments:0'>\n      <meta itemprop='headline' content='Dopamine Agonists and catastrophic Obsessive/Compulsive Disorders'>\n      <hr>\n  </div>\n  <div itemscope itemtype='http://schema.org/DiscussionForumPosting'>\n      <div class='creator'>\n        <span>\n          <a href='/u/Drobb'><b itemprop='author'>Drobb</b></a>\n          \n          <time datetime='2011-09-21T15:43:14Z' itemprop='datePublished'>\n            2011-09-21 15:43:14 UTC\n          </time>\n        </span>\n        <span itemprop='position'>#570</span>\n      </div>\n      <div class='post' itemprop='articleBody'>\n        OOOppps  appear to have had a problem with connection and sent post lots of times!!! <br><br>Hi Radz,<br><br>I'm not really a card maker but do this sort of thing for an art & craft course i teach for adults with learning difficulties. <img src='/images/emoji/emoji_one/rolling_eyes.png?v=3' alt=':rolling_eyes:' title=':rolling_eyes:' class='emoji' /><br><br>Diane\n      </div>\n      <meta itemprop='interactionCount' content='UserLikes:0'>\n      <meta itemprop='interactionCount' content='UserComments:0'>\n      <meta itemprop='headline' content='Dopamine Agonists and catastrophic Obsessive/Compulsive Disorders'>\n      <hr>\n  </div>\n  <div itemscope itemtype='http://schema.org/DiscussionForumPosting'>\n      <div class='creator'>\n        <span>\n          <a href='/u/Eck'><b itemprop='author'>Eck</b></a>\n          \n          <time datetime='2011-09-21T15:44:45Z' itemprop='datePublished'>\n            2011-09-21 15:44:45 UTC\n          </time>\n        </span>\n        <span itemprop='position'>#571</span>\n      </div>\n      <div class='post' itemprop='articleBody'>\n        Brilliant Drobb.<br><br>It will be our twentieth.  Crystal.  <br><br>I'm off  to the haberdashers   and a shop that sells cups.<br><br>Nothing is too much for Mrs Eck.  (She put me right on that score very early on.)\n      </div>\n      <meta itemprop='interactionCount' content='UserLikes:0'>\n      <meta itemprop='interactionCount' content='UserComments:0'>\n      <meta itemprop='headline' content='Dopamine Agonists and catastrophic Obsessive/Compulsive Disorders'>\n      <hr>\n  </div>\n  <div itemscope itemtype='http://schema.org/DiscussionForumPosting'>\n      <div class='creator'>\n        <span>\n          <a href='/u/Drobb'><b itemprop='author'>Drobb</b></a>\n          \n          <time datetime='2011-09-21T15:56:28Z' itemprop='datePublished'>\n            2011-09-21 15:56:28 UTC\n          </time>\n        </span>\n        <span itemprop='position'>#572</span>\n      </div>\n      <div class='post' itemprop='articleBody'>\n        Eck,<br>Crystal wedding anni? only one thing for it then....<br><br>You gotta present yourself with that BIG ribbon swinging from a Crystal chandelier. Ha ha ha ha ha ha <img src='/images/emoji/emoji_one/laughing.png?v=3' alt=':laughing:' title=':laughing:' class='emoji' /><img src='/images/emoji/emoji_one/laughing.png?v=3' alt=':laughing:' title=':laughing:' class='emoji' /><img src='/images/emoji/emoji_one/laughing.png?v=3' alt=':laughing:' title=':laughing:' class='emoji' /><img src='/images/emoji/emoji_one/flushed.png?v=3' alt=':flushed:' title=':flushed:' class='emoji' /><br><br>Diane <img src='/images/emoji/emoji_one/grin.png?v=3' alt=':grin:' title=':grin:' class='emoji' />\n      </div>\n      <meta itemprop='interactionCount' content='UserLikes:0'>\n      <meta itemprop='interactionCount' content='UserComments:0'>\n      <meta itemprop='headline' content='Dopamine Agonists and catastrophic Obsessive/Compulsive Disorders'>\n      <hr>\n  </div>\n  <div itemscope itemtype='http://schema.org/DiscussionForumPosting'>\n      <div class='creator'>\n        <span>\n          <a href='/u/Drobb'><b itemprop='author'>Drobb</b></a>\n          \n          <time datetime='2011-09-21T15:57:13Z' itemprop='datePublished'>\n            2011-09-21 15:57:13 UTC\n          </time>\n        </span>\n        <span itemprop='position'>#573</span>\n      </div>\n      <div class='post' itemprop='articleBody'>\n        Eck,<br>Crystal wedding anni? only one thing for it then....<br><br>You gotta present yourself with that BIG ribbon swinging from a Crystal chandelier. Ha ha ha ha ha ha <img src='/images/emoji/emoji_one/laughing.png?v=3' alt=':laughing:' title=':laughing:' class='emoji' /><img src='/images/emoji/emoji_one/laughing.png?v=3' alt=':laughing:' title=':laughing:' class='emoji' /><img src='/images/emoji/emoji_one/laughing.png?v=3' alt=':laughing:' title=':laughing:' class='emoji' /><img src='/images/emoji/emoji_one/flushed.png?v=3' alt=':flushed:' title=':flushed:' class='emoji' /><br><br>Diane <img src='/images/emoji/emoji_one/grin.png?v=3' alt=':grin:' title=':grin:' class='emoji' />\n      </div>\n      <meta itemprop='interactionCount' content='UserLikes:0'>\n      <meta itemprop='interactionCount' content='UserComments:0'>\n      <meta itemprop='headline' content='Dopamine Agonists and catastrophic Obsessive/Compulsive Disorders'>\n      <hr>\n  </div>\n  <div itemscope itemtype='http://schema.org/DiscussionForumPosting'>\n      <div class='creator'>\n        <span>\n          <a href='/u/Radar47'><b itemprop='author'>Radar47</b></a>\n          \n          <time datetime='2011-09-21T15:58:51Z' itemprop='datePublished'>\n            2011-09-21 15:58:51 UTC\n          </time>\n        </span>\n        <span itemprop='position'>#574</span>\n      </div>\n      <div class='post' itemprop='articleBody'>\n        ECK....20th on my list is China<br><br><br>My darling where have all the years gone<br>Two decades since we became as one<br>On our CHINA anniversary I want you to know<br>My love for you just continues to grow.<br><br><br>Radz xx\n      </div>\n      <meta itemprop='interactionCount' content='UserLikes:0'>\n      <meta itemprop='interactionCount' content='UserComments:0'>\n      <meta itemprop='headline' content='Dopamine Agonists and catastrophic Obsessive/Compulsive Disorders'>\n      <hr>\n  </div>\n  <div itemscope itemtype='http://schema.org/DiscussionForumPosting'>\n      <div class='creator'>\n        <span>\n          <a href='/u/Eck'><b itemprop='author'>Eck</b></a>\n          \n          <time datetime='2011-09-22T08:08:50Z' itemprop='datePublished'>\n            2011-09-22 08:08:50 UTC\n          </time>\n        </span>\n        <span itemprop='position'>#575</span>\n      </div>\n      <div class='post' itemprop='articleBody'>\n        We had better start another thread.  RoS will be back soon, when he sees what we've done to his thread, he'll go apoplectic and get banned again.  Thanks for all the suggestions.  I was trying to highlight the deprivation that can and does come with a catastrophic OCD episode.<br><br>It's not just change your tabs.  It's pick up the tatters that are left and start from square -100,000. <br><br>You think its bad for students starting at -27,000 that they only have to pay off when they start earning X,000's a year.<br><br>Try -100,000 on benefits and the bailiffs chapping at the bit to sell everything you've sweated hard for and, sentimental or not, being hawked for next to nothing and being charged for the privilege.<br><br>Somebody ought to change these barbaric debt laws.  Legalised theft, thats what it is.\n      </div>\n      <meta itemprop='interactionCount' content='UserLikes:0'>\n      <meta itemprop='interactionCount' content='UserComments:0'>\n      <meta itemprop='headline' content='Dopamine Agonists and catastrophic Obsessive/Compulsive Disorders'>\n      <hr>\n  </div>\n  <div itemscope itemtype='http://schema.org/DiscussionForumPosting'>\n      <div class='creator'>\n        <span>\n          <a href='/u/Radar47'><b itemprop='author'>Radar47</b></a>\n          \n          <time datetime='2011-09-24T22:37:35Z' itemprop='datePublished'>\n            2011-09-24 22:37:35 UTC\n          </time>\n        </span>\n        <span itemprop='position'>#576</span>\n      </div>\n      <div class='post' itemprop='articleBody'>\n        <strong>YIPPEE, RAY'S BACK IN 9 DAYS!</strong>\n      </div>\n      <meta itemprop='interactionCount' content='UserLikes:0'>\n      <meta itemprop='interactionCount' content='UserComments:0'>\n      <meta itemprop='headline' content='Dopamine Agonists and catastrophic Obsessive/Compulsive Disorders'>\n      <hr>\n  </div>\n  <div itemscope itemtype='http://schema.org/DiscussionForumPosting'>\n      <div class='creator'>\n        <span>\n          <a href='/u/spam95'><b itemprop='author'>spam95</b></a>\n          \n          <time datetime='2011-09-24T23:00:45Z' itemprop='datePublished'>\n            2011-09-24 23:00:45 UTC\n          </time>\n        </span>\n        <span itemprop='position'>#577</span>\n      </div>\n      <div class='post' itemprop='articleBody'>\n        YipeeQ..Rays back in 9 days<img src='/images/emoji/emoji_one/laughing.png?v=3' alt=':laughing:' title=':laughing:' class='emoji' />\n      </div>\n      <meta itemprop='interactionCount' content='UserLikes:0'>\n      <meta itemprop='interactionCount' content='UserComments:0'>\n      <meta itemprop='headline' content='Dopamine Agonists and catastrophic Obsessive/Compulsive Disorders'>\n      <hr>\n  </div>\n  <div itemscope itemtype='http://schema.org/DiscussionForumPosting'>\n      <div class='creator'>\n        <span>\n          <a href='/u/glenchass'><b itemprop='author'>glenchass</b></a>\n          \n          <time datetime='2011-09-25T06:02:43Z' itemprop='datePublished'>\n            2011-09-25 06:02:43 UTC\n          </time>\n        </span>\n        <span itemprop='position'>#578</span>\n      </div>\n      <div class='post' itemprop='articleBody'>\n        I fully agree with you Eck, I think you and I are in the same boat......without a paddle between us!!!!!<br><br>regards<br>glenchass\n      </div>\n      <meta itemprop='interactionCount' content='UserLikes:0'>\n      <meta itemprop='interactionCount' content='UserComments:0'>\n      <meta itemprop='headline' content='Dopamine Agonists and catastrophic Obsessive/Compulsive Disorders'>\n      <hr>\n  </div>\n  <div itemscope itemtype='http://schema.org/DiscussionForumPosting'>\n      <div class='creator'>\n        <span>\n          <a href='/u/blueeyes47'><b itemprop='author'>blueeyes47</b></a>\n          \n          <time datetime='2011-09-25T07:01:13Z' itemprop='datePublished'>\n            2011-09-25 07:01:13 UTC\n          </time>\n        </span>\n        <span itemprop='position'>#579</span>\n      </div>\n      <div class='post' itemprop='articleBody'>\n        hi ECK and Glenchass,<br> <br><br>Have you considered taking out a debt relief order or even going bankrupt?<br><br>  <br>These days you tend to only hear of the negative side of bankruptcy, however there are a lot of up sides?  With a well worded letter from your Neuro supporting the reason for the debts being due to Medication side effects, would influence the court and reduce the period of bankruptcy to 12 months.  This way all your debts are written off, and you would not lose your home.  A debt relief order (DRO) is even better because you get to clear all your debts without going bankrupt!  However a DRO is limited to i think a ceiling of around £16,000 debts? Otherwise it would have to be a bankruptcy order.  I would advise you to stay clear of going down the IVA route because its a nightmare and your still locked into paying your creditors for years to come!<br><br>If you want any further info or help on your debt management options then feel free to email me.<br><br>best wishes<br>bluey\n      </div>\n      <meta itemprop='interactionCount' content='UserLikes:0'>\n      <meta itemprop='interactionCount' content='UserComments:0'>\n      <meta itemprop='headline' content='Dopamine Agonists and catastrophic Obsessive/Compulsive Disorders'>\n      <hr>\n  </div>\n  <div itemscope itemtype='http://schema.org/DiscussionForumPosting'>\n      <div class='creator'>\n        <span>\n          <a href='/u/goldengirl'><b itemprop='author'>goldengirl</b></a>\n          \n          <time datetime='2011-09-26T19:39:08Z' itemprop='datePublished'>\n            2011-09-26 19:39:08 UTC\n          </time>\n        </span>\n        <span itemprop='position'>#580</span>\n      </div>\n      <div class='post' itemprop='articleBody'>\n        As the carer of a husband suffering the devastating effects of DAs and now off Requip XL and struggling with a return to Sinemet, I was very interested to hear of clinical trials of a new slow release (?1 a day) version af  a levadopa based drug called IPX066.<br>This would seem to offer the advantages of the 1 a day DA without the horrific side effects.<br>Anyone know anything about it?<br>I feel there is a little light on the horizon...<br>x\n      </div>\n      <meta itemprop='interactionCount' content='UserLikes:0'>\n      <meta itemprop='interactionCount' content='UserComments:0'>\n      <meta itemprop='headline' content='Dopamine Agonists and catastrophic Obsessive/Compulsive Disorders'>\n      <hr>\n  </div>\n\n  <div role='navigation' itemscope itemtype='http://schema.org/SiteNavigationElement'>\n      <span itemprop='name'><a rel=\"prev\" itemprop=\"url\" href=\"/t/dopamine-agonists-and-catastrophic-obsessive-compulsive-disorders/5335?page=28\">← previous page</a></span>\n      <span itemprop='name'><b><a rel=\"next\" itemprop=\"url\" href=\"/t/dopamine-agonists-and-catastrophic-obsessive-compulsive-disorders/5335?page=30\">next page →</a></b></span>\n  </div>\n\n\n\n\n\n    </div>\n    <footer class=\"container\">\n      <nav class='crawler-nav' itemscope itemtype='http://schema.org/SiteNavigationElement'>\n        <a href='/'>Home</a>\n        <a href=\"/categories\">Categories</a>\n        <a href=\"/guidelines\">FAQ/Guidelines</a>\n        <a href=\"/tos\">Terms of Service</a>\n        <a href=\"/privacy\">Privacy Policy</a>\n      </nav>\n      <p class='powered-by-link'>Powered by <a href=\"https://www.discourse.org\">Discourse</a>, best viewed with JavaScript enabled</p>\n    </footer>\n    \n  </body>\n  \n</html>\n",
  "url": "https://forum.parkinsons.org.uk/t/dopamine-agonists-and-catastrophic-obsessive-compulsive-disorders/5335?page=29"
}