{
  "contentId": "59463df0-8869-11e9-8f96-97f71b5221d6",
  "html": "<!DOCTYPE html>\n<html lang=\"en\">\n  <head>\n    <meta charset=\"utf-8\">\n    <title>Feeling down - Introductions and personal stories - Parkinson&#39;s UK Forum</title>\n    <meta name=\"description\" content=\"My neurologist has talked me into using Neupro patches. \nThey contain rotigotina. \nI was OK on 2mg but now I have upped to 4mg I am feeling really down and negative. I thought I had seen the back of the tears but the dar&amp;hellip;\">\n    <meta name=\"author\" content=\"\">\n<meta name=\"generator\" content=\"Discourse 2.2.5 - https://github.com/discourse/discourse version c294ff3609f988dcafb742e91606d60ca13b794d\">\n<link rel=\"icon\" type=\"image/png\" href=\"https://forum.parkinsons.org.uk/uploads/db7928/original/2X/3/311fc84f89f49f38601a2f16b295b6f03d3ce5dd.jpg\">\n<link rel=\"apple-touch-icon\" type=\"image/png\" href=\"https://forum.parkinsons.org.uk/uploads/db7928/original/2X/3/311fc84f89f49f38601a2f16b295b6f03d3ce5dd.jpg\">\n<meta name=\"theme-color\" content=\"#ffffff\">\n<meta name=\"viewport\" content=\"width=device-width, minimum-scale=1.0, maximum-scale=1.0, user-scalable=yes\">\n<link rel=\"canonical\" href=\"https://forum.parkinsons.org.uk/t/feeling-down/18481?page=2\" />\n<script type=\"application/ld+json\">{\"@context\":\"http://schema.org\",\"@type\":\"WebSite\",\"url\":\"https://forum.parkinsons.org.uk\",\"potentialAction\":{\"@type\":\"SearchAction\",\"target\":\"https://forum.parkinsons.org.uk/search?q={search_term_string}\",\"query-input\":\"required name=search_term_string\"}}</script>\n<link rel=\"search\" type=\"application/opensearchdescription+xml\" href=\"https://forum.parkinsons.org.uk/opensearch.xml\" title=\"Parkinson&#39;s UK Forum Search\">\n\n      <link href=\"/stylesheets/desktop_f99246ae801b083d3e4cca979d0dade8615b39ac.css?__ws=forum.parkinsons.org.uk\" media=\"all\" rel=\"stylesheet\" data-target=\"desktop\" data-theme-id=\"12\"/>\n      <link href=\"/stylesheets/desktop_theme_12_5d27531cf43f9df0c03a6a6ec3109dd05f9dfc49.css?__ws=forum.parkinsons.org.uk\" media=\"all\" rel=\"stylesheet\" data-target=\"desktop_theme\" data-theme-id=\"12\"/>\n    <link href=\"https://fonts.googleapis.com/css?family=Open+Sans\" rel=\"stylesheet\">\n\n    <meta id=\"data-ga-universal-analytics\" data-tracking-code=\"UA-4855628-1\" data-json=\"{&quot;cookieDomain&quot;:&quot;auto&quot;}\" data-auto-link-domains=\"\">\n\n<link rel='preload' href='/assets/google-universal-analytics-f35b4da49411e6f5559073523aab983da483976a3954c79c756f8579f6fbd6ef.js' as='script'/>\n<script src='/assets/google-universal-analytics-f35b4da49411e6f5559073523aab983da483976a3954c79c756f8579f6fbd6ef.js'></script>\n\n      <link rel=\"alternate\" type=\"application/rss+xml\" title=\"RSS feed of &#39;Feeling down&#39;\" href=\"https://forum.parkinsons.org.uk/t/feeling-down/18481.rss\" />\n  <meta property=\"og:site_name\" content=\"Parkinson&#39;s UK Forum\" />\n<meta name=\"twitter:card\" content=\"summary\" />\n<meta name=\"twitter:image\" content=\"https://forum.parkinsons.org.uk/uploads/db7928/original/2X/3/311fc84f89f49f38601a2f16b295b6f03d3ce5dd.jpg\" />\n<meta property=\"og:image\" content=\"https://forum.parkinsons.org.uk/uploads/db7928/original/2X/3/311fc84f89f49f38601a2f16b295b6f03d3ce5dd.jpg\" />\n<meta property=\"og:url\" content=\"https://forum.parkinsons.org.uk/t/feeling-down/18481?page=2\" />\n<meta name=\"twitter:url\" content=\"https://forum.parkinsons.org.uk/t/feeling-down/18481?page=2\" />\n<meta property=\"og:title\" content=\"Feeling down\" />\n<meta name=\"twitter:title\" content=\"Feeling down\" />\n<meta property=\"og:description\" content=\"Hi hubby, couple of things, I’ve previously been on 16mg Neupro for quite some time. During my biannual Neurologist meeting I complained about dyskinesia, which very fortunately is not one of my normal symptoms, and was advised to gradually reduce back to 8mg which helped quite a lot.  Secondly, I also has separate issues with my head. My problems I’m told are or are similar to stress headaches, though from reading Dr Google I would argue far more frequent. At one stage when my meds were largely...\" />\n<meta name=\"twitter:description\" content=\"Hi hubby, couple of things, I’ve previously been on 16mg Neupro for quite some time. During my biannual Neurologist meeting I complained about dyskinesia, which very fortunately is not one of my normal symptoms, and was advised to gradually reduce back to 8mg which helped quite a lot.  Secondly, I also has separate issues with my head. My problems I’m told are or are similar to stress headaches, though from reading Dr Google I would argue far more frequent. At one stage when my meds were largely...\" />\n<meta property=\"article:published_time\" content=\"2019-04-09T22:40:43+00:00\" />\n<meta property=\"og:ignore_canonical\" content=\"true\" />\n\n      <link rel=\"prev\" href=\"/t/feeling-down/18481\">\n\n\n    \n  </head>\n  <body class=\"crawler\">\n    <header role=\"banner\">\n    <div class=\"region region-header\">\n        <div class=\"region-header-wrapper\">\n            <div id=\"block-parkinsons-d8-branding\" class=\"block block-system block-system-branding-block\">\n                <a href=\"/\" title=\"Home\" rel=\"home\" class=\"site-logo\">\n                    <img src=\"https://forum.parkinsons.org.uk/uploads/db7928/original/2X/8/862bb7d172e7d127e7f3e147ec43594aa62ac945.png\" alt=\"Parkinson's UK. Change Attitudes. Find a cure. Join us.\">\n                </a>\n            </div>\n            <div id=\"block-helpline\" class=\"block block-block-content block-block-content871cd5af-b938-4947-9dc0-d5c211d08fe3 style-phone\">\n                <div class=\"field field--name-field-link field--type-link field--label-hidden field__item\"><a href=\"tel:+448088000303\">Helpline 0808 800 0303</a></div>\n            </div>\n            <div id=\"block-shop\" class=\"block block-block-content block-block-content6fba5ae5-7797-49cd-8367-f321d8111cd6 style-regular\">\n                <div class=\"field field--name-field-link field--type-link field--label-hidden field__item\"><a href=\"https://shop.parkinsons.org.uk\">Shop</a></div>\n            </div>\n        </div>\n    </div>\n</header>\n\n\n<script src=\"/theme-javascripts/b7e9763fcb584fc8265c56a9f557cd6d2e1e8ed8.js?__ws=forum.parkinsons.org.uk\"></script>\n    <header>\n      <a href=\"/\">\n          <img src=\"https://forum.parkinsons.org.uk/uploads/db7928/original/2X/8/862bb7d172e7d127e7f3e147ec43594aa62ac945.png\" alt=\"Parkinson&#39;s UK Forum\" id=\"site-logo\" style=\"max-width: 150px;\">\n      </a>\n    </header>\n    <div id=\"main-outlet\" class=\"wrap\">\n      <h1>\n  <a href=\"/t/feeling-down/18481\">Feeling down</a>\n</h1>\n\n<div id='breadcrumbs'>\n    <div id=\"breadcrumb-0\" itemscope itemtype=\"http://data-vocabulary.org/Breadcrumb\"\n        itemref=\"breadcrumb-1\"\n      >\n      <a href=\"/c/about-me\" itemprop=\"url\">\n        <span itemprop=\"title\">About me</span>\n      </a>\n    </div>\n    <div id=\"breadcrumb-1\" itemscope itemtype=\"http://data-vocabulary.org/Breadcrumb\"\n>\n      <a href=\"/c/about-me/introductions-and-personal-stories\" itemprop=\"url\">\n        <span itemprop=\"title\">Introductions and personal stories</span>\n      </a>\n    </div>\n</div>\n\n\n\n\n\n<hr>\n\n\n  <div itemscope itemtype='http://schema.org/DiscussionForumPosting'>\n      <div class='creator'>\n        <span>\n          <a href='/u/RyderCupplayer'><b itemprop='author'>RyderCupplayer</b></a>\n          \n          <time datetime='2019-04-09T22:40:43Z' itemprop='datePublished'>\n            2019-04-09 22:40:43 UTC\n          </time>\n        </span>\n        <span itemprop='position'>#21</span>\n      </div>\n      <div class='post' itemprop='articleBody'>\n        <p>Hi hubby, couple of things, I’ve previously been on 16mg Neupro for quite some time. During my biannual Neurologist meeting I complained about dyskinesia, which very fortunately is not one of my normal symptoms, and was advised to gradually reduce back to 8mg which helped quite a lot.<br>\nSecondly, I also has separate issues with my head. My problems I’m told are or are similar to stress headaches, though from reading Dr Google I would argue far more frequent. At one stage when my meds were largely out of balance due to my specialist retiring and the NHS failing to provide any PD replacement I had such severe problems mainly in the night eliminating any chance of sleep, At 4 am one night I asked my wife to dump me at A&amp;E (as if they would know what to do!!).<br>\nAfter almost 5 yrs of head issues as they are not headaches in the normal sense, my GP and I are finally trying to understand what is causing this. Next week we should be getting more information from my recent  CT scan.</p>\n<p>I sincerely hope you find respite from your head problems and you can find a Neurologist inwho you trust.</p>\n      </div>\n      <meta itemprop='interactionCount' content='UserLikes:0'>\n      <meta itemprop='interactionCount' content='UserComments:0'>\n      <meta itemprop='headline' content='Feeling down'>\n      <hr>\n  </div>\n  <div itemscope itemtype='http://schema.org/DiscussionForumPosting'>\n      <div class='creator'>\n        <span>\n          <a href='/u/Hubby'><b itemprop='author'>Hubby</b></a>\n          \n          <time datetime='2019-04-13T09:45:36Z' itemprop='datePublished'>\n            2019-04-13 09:45:36 UTC\n          </time>\n        </span>\n        <span itemprop='position'>#22</span>\n      </div>\n      <div class='post' itemprop='articleBody'>\n        <p>Thanks</p>\n      </div>\n      <meta itemprop='interactionCount' content='UserLikes:0'>\n      <meta itemprop='interactionCount' content='UserComments:0'>\n      <meta itemprop='headline' content='Feeling down'>\n      <hr>\n  </div>\n  <div itemscope itemtype='http://schema.org/DiscussionForumPosting'>\n      <div class='creator'>\n        <span>\n          <a href='/u/Molly3'><b itemprop='author'>Molly3</b></a>\n          \n          <time datetime='2019-04-14T10:02:50Z' itemprop='datePublished'>\n            2019-04-14 10:02:50 UTC\n          </time>\n        </span>\n        <span itemprop='position'>#23</span>\n      </div>\n      <div class='post' itemprop='articleBody'>\n        <p>Good morning.  I have just joined but I don’t know where to post my introduction.   I’m not very good on computer/iPads.   Can anyone help me please.    I chose you at random Mrs PD. <img src=\"https://forum.parkinsons.org.uk/images/emoji/twitter/slight_smile.png?v=6\" title=\":slight_smile:\" class=\"emoji\" alt=\":slight_smile:\"></p>\n      </div>\n      <meta itemprop='interactionCount' content='UserLikes:0'>\n      <meta itemprop='interactionCount' content='UserComments:1'>\n      <meta itemprop='headline' content='Feeling down'>\n      <hr>\n  </div>\n  <div itemscope itemtype='http://schema.org/DiscussionForumPosting'>\n      <div class='creator'>\n        <span>\n          <a href='/u/Moderators2'><b itemprop='author'>Moderators2</b></a>\n          \n          <time datetime='2019-04-14T10:24:50Z' itemprop='datePublished'>\n            2019-04-14 10:24:50 UTC\n          </time>\n        </span>\n        <span itemprop='position'>#24</span>\n      </div>\n      <div class='post' itemprop='articleBody'>\n        <p>Hi Molly,</p>\n<p>Welcome to the forum!<br>\nIf you go to <a href=\"https://forum.parkinsons.org.uk/c/about-me/introductions-and-personal-stories\">Introductions and Personal Stories</a> and click on ‘New Topic’ you can post your introduction. There are also some video tutorials here to help you get started. We hope this helps.</p>\n<p>Best wishes,<br>\nEdwina<br>\nModeration Team</p>\n      </div>\n      <meta itemprop='interactionCount' content='UserLikes:0'>\n      <meta itemprop='interactionCount' content='UserComments:0'>\n      <meta itemprop='headline' content='Feeling down'>\n      <hr>\n  </div>\n  <div itemscope itemtype='http://schema.org/DiscussionForumPosting'>\n      <div class='creator'>\n        <span>\n          <a href='/u/Pippa'><b itemprop='author'>Pippa</b></a>\n          \n          <time datetime='2019-04-16T18:26:37Z' itemprop='datePublished'>\n            2019-04-16 18:26:37 UTC\n          </time>\n        </span>\n        <span itemprop='position'>#25</span>\n      </div>\n      <div class='post' itemprop='articleBody'>\n        <p>So many different medications…</p>\n<p>My OH has Madopar to get him going first thing, and can top up with an injection of  4 or 5 ml of Apomorphine ( nothing to do with morphine, confusingly, and I don’t see it mentioned on the forum) during the day between the six doses of Stalevo ,  which helps briefly. Plus 8 mg of Neupro patches.<br>\nSo much out there and so many options and we are at the mercy of the knowledge of which ever professional we see. Not to mention dosages and different names for the same thing…</p>\n      </div>\n      <meta itemprop='interactionCount' content='UserLikes:0'>\n      <meta itemprop='interactionCount' content='UserComments:0'>\n      <meta itemprop='headline' content='Feeling down'>\n      <hr>\n  </div>\n\n  <div role='navigation' itemscope itemtype='http://schema.org/SiteNavigationElement'>\n      <span itemprop='name'><a rel=\"prev\" itemprop=\"url\" href=\"/t/feeling-down/18481\">← previous page</a></span>\n  </div>\n\n\n\n\n\n    </div>\n    <footer class=\"container\">\n      <nav class='crawler-nav' itemscope itemtype='http://schema.org/SiteNavigationElement'>\n        <a href='/'>Home</a>\n        <a href=\"/categories\">Categories</a>\n        <a href=\"/guidelines\">FAQ/Guidelines</a>\n        <a href=\"/tos\">Terms of Service</a>\n        <a href=\"/privacy\">Privacy Policy</a>\n      </nav>\n      <p class='powered-by-link'>Powered by <a href=\"https://www.discourse.org\">Discourse</a>, best viewed with JavaScript enabled</p>\n    </footer>\n    \n  </body>\n  \n</html>\n",
  "url": "https://forum.parkinsons.org.uk/t/feeling-down/18481?page=2"
}