{
  "contentId": "ae0ac390-886b-11e9-8f96-97f71b5221d6",
  "html": "<!DOCTYPE html>\n<html lang=\"en\">\n  <head>\n    <meta charset=\"utf-8\">\n    <title>Is this Impulsive Behaviour? - Impulsive and compulsive behaviour - Parkinson&#39;s UK Forum</title>\n    <meta name=\"description\" content=\"My husband has had PD for 3 years. He is on low dose Sinemet. Last Thursday I received an email from him to say he had left me for an old flame he met at his Mother&amp;#39;s very recent funeral. We have been happily married for&amp;hellip;\">\n    <meta name=\"author\" content=\"\">\n<meta name=\"generator\" content=\"Discourse 2.2.5 - https://github.com/discourse/discourse version c294ff3609f988dcafb742e91606d60ca13b794d\">\n<link rel=\"icon\" type=\"image/png\" href=\"https://forum.parkinsons.org.uk/uploads/db7928/original/2X/3/311fc84f89f49f38601a2f16b295b6f03d3ce5dd.jpg\">\n<link rel=\"apple-touch-icon\" type=\"image/png\" href=\"https://forum.parkinsons.org.uk/uploads/db7928/original/2X/3/311fc84f89f49f38601a2f16b295b6f03d3ce5dd.jpg\">\n<meta name=\"theme-color\" content=\"#ffffff\">\n<meta name=\"viewport\" content=\"width=device-width, minimum-scale=1.0, maximum-scale=1.0, user-scalable=yes\">\n<link rel=\"canonical\" href=\"https://forum.parkinsons.org.uk/t/is-this-impulsive-behaviour/9270\" />\n<script type=\"application/ld+json\">{\"@context\":\"http://schema.org\",\"@type\":\"WebSite\",\"url\":\"https://forum.parkinsons.org.uk\",\"potentialAction\":{\"@type\":\"SearchAction\",\"target\":\"https://forum.parkinsons.org.uk/search?q={search_term_string}\",\"query-input\":\"required name=search_term_string\"}}</script>\n<link rel=\"search\" type=\"application/opensearchdescription+xml\" href=\"https://forum.parkinsons.org.uk/opensearch.xml\" title=\"Parkinson&#39;s UK Forum Search\">\n\n      <link href=\"/stylesheets/desktop_f99246ae801b083d3e4cca979d0dade8615b39ac.css?__ws=forum.parkinsons.org.uk\" media=\"all\" rel=\"stylesheet\" data-target=\"desktop\" data-theme-id=\"12\"/>\n      <link href=\"/stylesheets/desktop_theme_12_5d27531cf43f9df0c03a6a6ec3109dd05f9dfc49.css?__ws=forum.parkinsons.org.uk\" media=\"all\" rel=\"stylesheet\" data-target=\"desktop_theme\" data-theme-id=\"12\"/>\n    <link href=\"https://fonts.googleapis.com/css?family=Open+Sans\" rel=\"stylesheet\">\n\n    <meta id=\"data-ga-universal-analytics\" data-tracking-code=\"UA-4855628-1\" data-json=\"{&quot;cookieDomain&quot;:&quot;auto&quot;}\" data-auto-link-domains=\"\">\n\n<link rel='preload' href='/assets/google-universal-analytics-f35b4da49411e6f5559073523aab983da483976a3954c79c756f8579f6fbd6ef.js' as='script'/>\n<script src='/assets/google-universal-analytics-f35b4da49411e6f5559073523aab983da483976a3954c79c756f8579f6fbd6ef.js'></script>\n\n      <link rel=\"alternate\" type=\"application/rss+xml\" title=\"RSS feed of &#39;Is this Impulsive Behaviour?&#39;\" href=\"https://forum.parkinsons.org.uk/t/is-this-impulsive-behaviour/9270.rss\" />\n  <meta property=\"og:site_name\" content=\"Parkinson&#39;s UK Forum\" />\n<meta name=\"twitter:card\" content=\"summary\" />\n<meta name=\"twitter:image\" content=\"https://forum.parkinsons.org.uk/uploads/db7928/original/2X/3/311fc84f89f49f38601a2f16b295b6f03d3ce5dd.jpg\" />\n<meta property=\"og:image\" content=\"https://forum.parkinsons.org.uk/uploads/db7928/original/2X/3/311fc84f89f49f38601a2f16b295b6f03d3ce5dd.jpg\" />\n<meta property=\"og:url\" content=\"https://forum.parkinsons.org.uk/t/is-this-impulsive-behaviour/9270\" />\n<meta name=\"twitter:url\" content=\"https://forum.parkinsons.org.uk/t/is-this-impulsive-behaviour/9270\" />\n<meta property=\"og:title\" content=\"Is this Impulsive Behaviour?\" />\n<meta name=\"twitter:title\" content=\"Is this Impulsive Behaviour?\" />\n<meta property=\"og:description\" content=\"My husband has had PD for 3 years. He is on low dose Sinemet. Last Thursday I received an email from him to say he had left me for an old flame he met at his Mother&#39;s very recent funeral. We have been happily married for 40 years. This has come out of the blue. Could this be impulsive behaviour or am I just kidding myself. Should I tell his neurologist, an appointment is looming.\" />\n<meta name=\"twitter:description\" content=\"My husband has had PD for 3 years. He is on low dose Sinemet. Last Thursday I received an email from him to say he had left me for an old flame he met at his Mother&#39;s very recent funeral. We have been happily married for 40 years. This has come out of the blue. Could this be impulsive behaviour or am I just kidding myself. Should I tell his neurologist, an appointment is looming.\" />\n<meta property=\"article:published_time\" content=\"2016-06-29T22:18:18+00:00\" />\n<meta property=\"og:ignore_canonical\" content=\"true\" />\n\n\n\n    \n  </head>\n  <body class=\"crawler\">\n    <header role=\"banner\">\n    <div class=\"region region-header\">\n        <div class=\"region-header-wrapper\">\n            <div id=\"block-parkinsons-d8-branding\" class=\"block block-system block-system-branding-block\">\n                <a href=\"/\" title=\"Home\" rel=\"home\" class=\"site-logo\">\n                    <img src=\"https://forum.parkinsons.org.uk/uploads/db7928/original/2X/8/862bb7d172e7d127e7f3e147ec43594aa62ac945.png\" alt=\"Parkinson's UK. Change Attitudes. Find a cure. Join us.\">\n                </a>\n            </div>\n            <div id=\"block-helpline\" class=\"block block-block-content block-block-content871cd5af-b938-4947-9dc0-d5c211d08fe3 style-phone\">\n                <div class=\"field field--name-field-link field--type-link field--label-hidden field__item\"><a href=\"tel:+448088000303\">Helpline 0808 800 0303</a></div>\n            </div>\n            <div id=\"block-shop\" class=\"block block-block-content block-block-content6fba5ae5-7797-49cd-8367-f321d8111cd6 style-regular\">\n                <div class=\"field field--name-field-link field--type-link field--label-hidden field__item\"><a href=\"https://shop.parkinsons.org.uk\">Shop</a></div>\n            </div>\n        </div>\n    </div>\n</header>\n\n\n<script src=\"/theme-javascripts/b7e9763fcb584fc8265c56a9f557cd6d2e1e8ed8.js?__ws=forum.parkinsons.org.uk\"></script>\n    <header>\n      <a href=\"/\">\n          <img src=\"https://forum.parkinsons.org.uk/uploads/db7928/original/2X/8/862bb7d172e7d127e7f3e147ec43594aa62ac945.png\" alt=\"Parkinson&#39;s UK Forum\" id=\"site-logo\" style=\"max-width: 150px;\">\n      </a>\n    </header>\n    <div id=\"main-outlet\" class=\"wrap\">\n      <h1>\n  <a href=\"/t/is-this-impulsive-behaviour/9270\">Is this Impulsive Behaviour?</a>\n</h1>\n\n<div id='breadcrumbs'>\n    <div id=\"breadcrumb-0\" itemscope itemtype=\"http://data-vocabulary.org/Breadcrumb\"\n        itemref=\"breadcrumb-1\"\n      >\n      <a href=\"/c/about-parkinsons-and-health\" itemprop=\"url\">\n        <span itemprop=\"title\">About Parkinson&#39;s and health</span>\n      </a>\n    </div>\n    <div id=\"breadcrumb-1\" itemscope itemtype=\"http://data-vocabulary.org/Breadcrumb\"\n>\n      <a href=\"/c/about-parkinsons-and-health/impulsive-and-compulsive-behaviour\" itemprop=\"url\">\n        <span itemprop=\"title\">Impulsive and compulsive behaviour</span>\n      </a>\n    </div>\n</div>\n\n\n\n\n\n<hr>\n\n\n  <div itemscope itemtype='http://schema.org/DiscussionForumPosting'>\n      <div class='creator'>\n        <span>\n          <a href='/u/solentwitness'><b itemprop='author'>solentwitness</b></a>\n          \n          <time datetime='2016-06-29T22:18:18Z' itemprop='datePublished'>\n            2016-06-29 22:18:18 UTC\n          </time>\n        </span>\n        <span itemprop='position'>#1</span>\n      </div>\n      <div class='post' itemprop='articleBody'>\n        <p>My husband has had PD for 3 years. He is on low dose Sinemet. Last Thursday I received an email from him to say he had left me for an old flame he met at his Mother&#39;s very recent funeral. We have been happily married for 40 years. This has come out of the blue. Could this be impulsive behaviour or am I just kidding myself. Should I tell his neurologist, an appointment is looming.</p>\n      </div>\n      <meta itemprop='interactionCount' content='UserLikes:0'>\n      <meta itemprop='interactionCount' content='UserComments:0'>\n      <meta itemprop='headline' content='Is this Impulsive Behaviour?'>\n      <hr>\n  </div>\n  <div itemscope itemtype='http://schema.org/DiscussionForumPosting'>\n      <div class='creator'>\n        <span>\n          <a href='/u/Oxfordgills'><b itemprop='author'>Oxfordgills</b></a>\n          \n          <time datetime='2016-06-30T21:18:27Z' itemprop='datePublished'>\n            2016-06-30 21:18:27 UTC\n          </time>\n        </span>\n        <span itemprop='position'>#2</span>\n      </div>\n      <div class='post' itemprop='articleBody'>\n        <p>I can imagine you are very confused by this behaviour.&nbsp; Having been married for 40 years this must be a shock.</p>\r\n<p>If you go to your GP you may be eligible for counselling on the NHS.&nbsp; It could just be that your husband is dealing with the diagnosis in his own way.</p>\r\n<p><br />\r\n\tI was diagnosed 15 years ago, and it makes you question everything in your life - the thought did cross mh mind that I should leave mu husband as I did not want to put him through having to look after me for the rest of our lives.&nbsp; I guess | was giving him a way out or maybe questioning his loyalty.&nbsp; Either way, PD changes the way you look at life and particularly the future.</p>\r\n<p>&nbsp;</p>\r\n<p>I dont know what your relationship has been up till now, but maybe he is trying to save you from a life of caring but doesnt know how to tell you. I would try talking to him first to see how he is feeling.</p>\r\n<p><br />\r\n\tI hope you can&nbsp; work this out.&nbsp; All I can say is that being diagnosed changes your outlook and makes you more protective of those you love - maybe in his own way he is trying to save you the heartache.</p>\r\n<p>&nbsp;</p>\n      </div>\n      <meta itemprop='interactionCount' content='UserLikes:0'>\n      <meta itemprop='interactionCount' content='UserComments:0'>\n      <meta itemprop='headline' content='Is this Impulsive Behaviour?'>\n      <hr>\n  </div>\n  <div itemscope itemtype='http://schema.org/DiscussionForumPosting'>\n      <div class='creator'>\n        <span>\n          <a href='/u/solentwitness'><b itemprop='author'>solentwitness</b></a>\n          \n          <time datetime='2016-07-01T08:53:30Z' itemprop='datePublished'>\n            2016-07-01 08:53:30 UTC\n          </time>\n        </span>\n        <span itemprop='position'>#3</span>\n      </div>\n      <div class='post' itemprop='articleBody'>\n        <p>PD is a bitter blow for any sufferer. I have taken heart that many people manage their condition very well and no two people present exactly the same symptoms. I always said I would stand by him no matter what and I would never leave. I do believe he has developed paranoia and depression. I suppose I can only wait now, I don&#39;t even know where he is but at least someone is caring for him. Thank you for your wise insights.</p>\r\n<p>&nbsp;</p>\r\n<p>&nbsp;</p>\n      </div>\n      <meta itemprop='interactionCount' content='UserLikes:0'>\n      <meta itemprop='interactionCount' content='UserComments:0'>\n      <meta itemprop='headline' content='Is this Impulsive Behaviour?'>\n      <hr>\n  </div>\n  <div itemscope itemtype='http://schema.org/DiscussionForumPosting'>\n      <div class='creator'>\n        <span>\n          <a href='/u/john947'><b itemprop='author'>john947</b></a>\n          \n          <time datetime='2016-07-02T02:20:36Z' itemprop='datePublished'>\n            2016-07-02 02:20:36 UTC\n          </time>\n        </span>\n        <span itemprop='position'>#4</span>\n      </div>\n      <div class='post' itemprop='articleBody'>\n        <p>Lady sailor</p>\r\n<p>His having PD or even the drugs is no excuse for his behavior.if there was a problem that led up to this the honorable&nbsp;thing to do is communicate.really when you think us men have little to offer,lol</p>\r\n<p>I wonder if she knew how short changed she is going to be,lol</p>\r\n<p>the laugh will be on him.</p>\r\n<p>Seeing you stated you would stick by him shows you have courage and duty not counting endearing love.</p>\r\n<p>Sounds like your a great woman.Give yourself a pat on the back.</p>\r\n<p>Well hope he does come to his &nbsp;senses&nbsp;</p>\r\n<p>best</p>\r\n<p>john</p>\n      </div>\n      <meta itemprop='interactionCount' content='UserLikes:0'>\n      <meta itemprop='interactionCount' content='UserComments:1'>\n      <meta itemprop='headline' content='Is this Impulsive Behaviour?'>\n      <hr>\n  </div>\n  <div itemscope itemtype='http://schema.org/DiscussionForumPosting'>\n      <div class='creator'>\n        <span>\n          <a href='/u/solentwitness'><b itemprop='author'>solentwitness</b></a>\n          \n          <time datetime='2016-07-02T12:56:54Z' itemprop='datePublished'>\n            2016-07-02 12:56:54 UTC\n          </time>\n        </span>\n        <span itemprop='position'>#5</span>\n      </div>\n      <div class='post' itemprop='articleBody'>\n        <p>Thank you John for your kind words.</p>\n      </div>\n      <meta itemprop='interactionCount' content='UserLikes:0'>\n      <meta itemprop='interactionCount' content='UserComments:0'>\n      <meta itemprop='headline' content='Is this Impulsive Behaviour?'>\n      <hr>\n  </div>\n  <div itemscope itemtype='http://schema.org/DiscussionForumPosting'>\n      <div class='creator'>\n        <span>\n          <a href='/u/fedexlike'><b itemprop='author'>fedexlike</b></a>\n          \n          <time datetime='2016-10-29T09:52:51Z' itemprop='datePublished'>\n            2016-10-29 09:52:51 UTC\n          </time>\n        </span>\n        <span itemprop='position'>#6</span>\n      </div>\n      <div class='post' itemprop='articleBody'>\n        <p>Hello Lady Sailor</p>\r\n<p>&nbsp;&nbsp;&nbsp;&nbsp;&nbsp;&nbsp;&nbsp;&nbsp;&nbsp;&nbsp;&nbsp;&nbsp;&nbsp;&nbsp;&nbsp;&nbsp;&nbsp;&nbsp;&nbsp;&nbsp;&nbsp;&nbsp;&nbsp;&nbsp;&nbsp;&nbsp;&nbsp;&nbsp;&nbsp;&nbsp;&nbsp;&nbsp;&nbsp; It most certainly could&nbsp; be&nbsp; O C B, and in those few words,&nbsp; most&nbsp; certainly could be well they cover all the bases&nbsp; dont&nbsp; they Lady S, I have destroyed friendships, and&nbsp; even my&nbsp; own marriage&nbsp; was teetering on the edge of the&nbsp; abyssso I will explain&nbsp;, my problems started with a fascination of 1/50&nbsp; scale die&nbsp; cast trucks and&nbsp; heavy plant , well no harm there eh LS er&nbsp; &quot;well wrong im afraid&quot; I started buying only one per week, but my intoxication and&nbsp;intensity grew and grew ,you see it&nbsp; was the&nbsp; detailing that had me hooked I&nbsp; just&nbsp; could&nbsp; not resist the draw these vehicles had on me, it all&nbsp; came to a huge verbal clash&nbsp; with&nbsp; my&nbsp; beloved when I PLONKED MYLATEST acquisitions on the kitchen table , there were 10 items none of which cost less than &pound;65.50, the most expensive, a ALLEYS Low Loader with a Class 55 Deltic Alycidon pay load , this combo was a very special one&nbsp; off as it came with a Class 56 Blyth Power, purcased from a old&nbsp; chap in Morpeth I was his best customer as this 86yr old is&nbsp; the master of super detailing LS&nbsp;&nbsp; the&nbsp; 56 was weathered (scruffy as a Trainload&nbsp; Coal should be) and I must&nbsp; say William or Will had truly&nbsp; excelled withmy&nbsp; order, cost&nbsp; &pound;380 ,so&nbsp; my&nbsp; wife&nbsp; saw me place&nbsp; the invoice in my&nbsp; filing cabinet and barked, (she hated&nbsp; my hobby rightly so as it happens)&nbsp; WELL HOW MUCH HAS THIS LOT&nbsp; COST well even I was a&nbsp; bit shocked , at &pound;1428.75p but as&nbsp; all bar two (MODEL ZONE) were one&nbsp; off creations built to my spec via&nbsp; my&nbsp; Morpeth buddy, any way WW3&nbsp; ensued&nbsp; with&nbsp; me&nbsp; arguing my creations will increse in&nbsp; value while when she&nbsp; visits M a S&nbsp; or&nbsp; Top Shop&nbsp; all&nbsp; but her purchases will&nbsp; wear out&nbsp; and&nbsp; devalue</p>\r\n<p>&nbsp;</p>\r\n<p>&nbsp;</p>\r\n<p>&nbsp;</p>\n      </div>\n      <meta itemprop='interactionCount' content='UserLikes:0'>\n      <meta itemprop='interactionCount' content='UserComments:0'>\n      <meta itemprop='headline' content='Is this Impulsive Behaviour?'>\n      <hr>\n  </div>\n  <div itemscope itemtype='http://schema.org/DiscussionForumPosting'>\n      <div class='creator'>\n        <span>\n          <a href='/u/fedexlike'><b itemprop='author'>fedexlike</b></a>\n          \n          <time datetime='2016-10-29T19:28:00Z' itemprop='datePublished'>\n            2016-10-29 19:28:00 UTC\n          </time>\n        </span>\n        <span itemprop='position'>#7</span>\n      </div>\n      <div class='post' itemprop='articleBody'>\n        <p>Sorry I had to stop&nbsp; ,family probs,&nbsp; but&nbsp; you can&nbsp; see how the&nbsp; impulsive behaviour was very&nbsp; costly .</p>\r\n<p>Then&nbsp; the&nbsp; Hypersexual thing&nbsp; kicked&nbsp; off again whichi it &nbsp;has&nbsp; done at least&nbsp; four times in&nbsp; the last&nbsp; ten&nbsp; years, and&nbsp; as my&nbsp; beloved&nbsp; became&nbsp; more&nbsp; and&nbsp; more upset&nbsp; and&nbsp; distant&nbsp; all sorts&nbsp; of&nbsp; horrible&nbsp; things entered my&nbsp; life,,&nbsp; my&nbsp; wife&nbsp; was very close&nbsp; to&nbsp; dumping&nbsp; me&nbsp; and&nbsp; I&nbsp; would have&nbsp; deserved&nbsp; it,&nbsp; and&nbsp; I would die&nbsp; of&nbsp; a broken&nbsp; heart is&nbsp; she left me, next came a&nbsp; unhealthy fascination with&nbsp; porn,&nbsp; and&nbsp;&nbsp; I have at&nbsp; last&nbsp; kicked that&nbsp; nasty infatuation out&nbsp;&nbsp; of&nbsp; my&nbsp; life,very successfully using my&nbsp; own aversion therapy&nbsp; than god&nbsp; my&nbsp; wife&nbsp; saw&nbsp; I was&nbsp; trying and we&nbsp; are&nbsp; now more like we were in our 30s not&nbsp; 60s,. So the chances are&nbsp; your husband is&nbsp; more likely to be intensely&nbsp; besotted by his new friend or hopelessly infatuated&nbsp; if you&nbsp; like in time&nbsp; he will realise his mistake and thats the crossroads where if you still love each&nbsp; other,&nbsp; well&nbsp; I&nbsp; will leave it there as I had a&nbsp;&nbsp;lady of whom i thought very highly shall&nbsp;&nbsp; we&nbsp; say, but I chose not to take&nbsp; that&nbsp; route&nbsp; so&nbsp; you will have doubts and it will take&nbsp; time, time and understanding, PD damges us&nbsp; in so many&nbsp; ways&nbsp; Lady S,&nbsp; but we can&nbsp; choose&nbsp; to mend and repair , in&nbsp; my&nbsp; case our&nbsp;&nbsp; bond is&nbsp; stronger.</p>\r\n<p>&nbsp;&nbsp;&nbsp;&nbsp;&nbsp;&nbsp;&nbsp;&nbsp;&nbsp;&nbsp;&nbsp;&nbsp;&nbsp;&nbsp;&nbsp;&nbsp;&nbsp;&nbsp;&nbsp;&nbsp;&nbsp;&nbsp;&nbsp;&nbsp;&nbsp;&nbsp;&nbsp;&nbsp;&nbsp;&nbsp;&nbsp;&nbsp;&nbsp;&nbsp;&nbsp; I wish you all good things Lady Sailor&nbsp; regards&nbsp; FED</p>\n      </div>\n      <meta itemprop='interactionCount' content='UserLikes:0'>\n      <meta itemprop='interactionCount' content='UserComments:0'>\n      <meta itemprop='headline' content='Is this Impulsive Behaviour?'>\n      <hr>\n  </div>\n\n\n\n\n\n\n    </div>\n    <footer class=\"container\">\n      <nav class='crawler-nav' itemscope itemtype='http://schema.org/SiteNavigationElement'>\n        <a href='/'>Home</a>\n        <a href=\"/categories\">Categories</a>\n        <a href=\"/guidelines\">FAQ/Guidelines</a>\n        <a href=\"/tos\">Terms of Service</a>\n        <a href=\"/privacy\">Privacy Policy</a>\n      </nav>\n      <p class='powered-by-link'>Powered by <a href=\"https://www.discourse.org\">Discourse</a>, best viewed with JavaScript enabled</p>\n    </footer>\n    \n  </body>\n  \n</html>\n",
  "url": "https://forum.parkinsons.org.uk/t/is-this-impulsive-behaviour/9270"
}