{
  "contentId": "ab986400-886b-11e9-8f96-97f71b5221d6",
  "html": "<!DOCTYPE html>\n<html lang=\"en\">\n  <head>\n    <meta charset=\"utf-8\">\n    <title>Please help me. 25 y/o student with mum with PD - gambling, lonliness &amp; bordem - Impulsive and compulsive behaviour - Parkinson&#39;s UK Forum</title>\n    <meta name=\"description\" content=\"My mum has PD and has recently been gambling an awful lot of money, money which she should be using to pay her bills. She has been frequently asking me to buy her shopping and food and also lend her money. I have given h&amp;hellip;\">\n    <meta name=\"author\" content=\"\">\n<meta name=\"generator\" content=\"Discourse 2.2.5 - https://github.com/discourse/discourse version c294ff3609f988dcafb742e91606d60ca13b794d\">\n<link rel=\"icon\" type=\"image/png\" href=\"https://forum.parkinsons.org.uk/uploads/db7928/original/2X/3/311fc84f89f49f38601a2f16b295b6f03d3ce5dd.jpg\">\n<link rel=\"apple-touch-icon\" type=\"image/png\" href=\"https://forum.parkinsons.org.uk/uploads/db7928/original/2X/3/311fc84f89f49f38601a2f16b295b6f03d3ce5dd.jpg\">\n<meta name=\"theme-color\" content=\"#ffffff\">\n<meta name=\"viewport\" content=\"width=device-width, minimum-scale=1.0, maximum-scale=1.0, user-scalable=yes\">\n<link rel=\"canonical\" href=\"https://forum.parkinsons.org.uk/t/please-help-me-25-y-o-student-with-mum-with-pd-gambling-lonliness-bordem/10120\" />\n<script type=\"application/ld+json\">{\"@context\":\"http://schema.org\",\"@type\":\"WebSite\",\"url\":\"https://forum.parkinsons.org.uk\",\"potentialAction\":{\"@type\":\"SearchAction\",\"target\":\"https://forum.parkinsons.org.uk/search?q={search_term_string}\",\"query-input\":\"required name=search_term_string\"}}</script>\n<link rel=\"search\" type=\"application/opensearchdescription+xml\" href=\"https://forum.parkinsons.org.uk/opensearch.xml\" title=\"Parkinson&#39;s UK Forum Search\">\n\n      <link href=\"/stylesheets/desktop_f99246ae801b083d3e4cca979d0dade8615b39ac.css?__ws=forum.parkinsons.org.uk\" media=\"all\" rel=\"stylesheet\" data-target=\"desktop\" data-theme-id=\"12\"/>\n      <link href=\"/stylesheets/desktop_theme_12_5d27531cf43f9df0c03a6a6ec3109dd05f9dfc49.css?__ws=forum.parkinsons.org.uk\" media=\"all\" rel=\"stylesheet\" data-target=\"desktop_theme\" data-theme-id=\"12\"/>\n    <link href=\"https://fonts.googleapis.com/css?family=Open+Sans\" rel=\"stylesheet\">\n\n    <meta id=\"data-ga-universal-analytics\" data-tracking-code=\"UA-4855628-1\" data-json=\"{&quot;cookieDomain&quot;:&quot;auto&quot;}\" data-auto-link-domains=\"\">\n\n<link rel='preload' href='/assets/google-universal-analytics-f35b4da49411e6f5559073523aab983da483976a3954c79c756f8579f6fbd6ef.js' as='script'/>\n<script src='/assets/google-universal-analytics-f35b4da49411e6f5559073523aab983da483976a3954c79c756f8579f6fbd6ef.js'></script>\n\n      <link rel=\"alternate\" type=\"application/rss+xml\" title=\"RSS feed of &#39;Please help me. 25 y/o student with mum with PD - gambling, lonliness &amp; bordem&#39;\" href=\"https://forum.parkinsons.org.uk/t/please-help-me-25-y-o-student-with-mum-with-pd-gambling-lonliness-bordem/10120.rss\" />\n  <meta property=\"og:site_name\" content=\"Parkinson&#39;s UK Forum\" />\n<meta name=\"twitter:card\" content=\"summary\" />\n<meta name=\"twitter:image\" content=\"https://forum.parkinsons.org.uk/uploads/db7928/original/2X/3/311fc84f89f49f38601a2f16b295b6f03d3ce5dd.jpg\" />\n<meta property=\"og:image\" content=\"https://forum.parkinsons.org.uk/uploads/db7928/original/2X/3/311fc84f89f49f38601a2f16b295b6f03d3ce5dd.jpg\" />\n<meta property=\"og:url\" content=\"https://forum.parkinsons.org.uk/t/please-help-me-25-y-o-student-with-mum-with-pd-gambling-lonliness-bordem/10120\" />\n<meta name=\"twitter:url\" content=\"https://forum.parkinsons.org.uk/t/please-help-me-25-y-o-student-with-mum-with-pd-gambling-lonliness-bordem/10120\" />\n<meta property=\"og:title\" content=\"Please help me. 25 y/o student with mum with PD - gambling, lonliness &amp; bordem\" />\n<meta name=\"twitter:title\" content=\"Please help me. 25 y/o student with mum with PD - gambling, lonliness &amp; bordem\" />\n<meta property=\"og:description\" content=\"My mum has PD and has recently been gambling an awful lot of money, money which she should be using to pay her bills. She has been frequently asking me to buy her shopping and food and also lend her money. I have given her hundreds over the last few months. I worry when she has no food as she cannot take her medication without eating and she also seems to be loosing weight.  \r I am a 25 year old male student who lives 5 minutes away from  my mum and Uni starts up again in a week or two. Whilst I...\" />\n<meta name=\"twitter:description\" content=\"My mum has PD and has recently been gambling an awful lot of money, money which she should be using to pay her bills. She has been frequently asking me to buy her shopping and food and also lend her money. I have given her hundreds over the last few months. I worry when she has no food as she cannot take her medication without eating and she also seems to be loosing weight.  \r I am a 25 year old male student who lives 5 minutes away from  my mum and Uni starts up again in a week or two. Whilst I...\" />\n<meta property=\"article:published_time\" content=\"2017-09-07T22:13:04+00:00\" />\n<meta property=\"og:ignore_canonical\" content=\"true\" />\n\n\n\n    \n  </head>\n  <body class=\"crawler\">\n    <header role=\"banner\">\n    <div class=\"region region-header\">\n        <div class=\"region-header-wrapper\">\n            <div id=\"block-parkinsons-d8-branding\" class=\"block block-system block-system-branding-block\">\n                <a href=\"/\" title=\"Home\" rel=\"home\" class=\"site-logo\">\n                    <img src=\"https://forum.parkinsons.org.uk/uploads/db7928/original/2X/8/862bb7d172e7d127e7f3e147ec43594aa62ac945.png\" alt=\"Parkinson's UK. Change Attitudes. Find a cure. Join us.\">\n                </a>\n            </div>\n            <div id=\"block-helpline\" class=\"block block-block-content block-block-content871cd5af-b938-4947-9dc0-d5c211d08fe3 style-phone\">\n                <div class=\"field field--name-field-link field--type-link field--label-hidden field__item\"><a href=\"tel:+448088000303\">Helpline 0808 800 0303</a></div>\n            </div>\n            <div id=\"block-shop\" class=\"block block-block-content block-block-content6fba5ae5-7797-49cd-8367-f321d8111cd6 style-regular\">\n                <div class=\"field field--name-field-link field--type-link field--label-hidden field__item\"><a href=\"https://shop.parkinsons.org.uk\">Shop</a></div>\n            </div>\n        </div>\n    </div>\n</header>\n\n\n<script src=\"/theme-javascripts/b7e9763fcb584fc8265c56a9f557cd6d2e1e8ed8.js?__ws=forum.parkinsons.org.uk\"></script>\n    <header>\n      <a href=\"/\">\n          <img src=\"https://forum.parkinsons.org.uk/uploads/db7928/original/2X/8/862bb7d172e7d127e7f3e147ec43594aa62ac945.png\" alt=\"Parkinson&#39;s UK Forum\" id=\"site-logo\" style=\"max-width: 150px;\">\n      </a>\n    </header>\n    <div id=\"main-outlet\" class=\"wrap\">\n      <h1>\n  <a href=\"/t/please-help-me-25-y-o-student-with-mum-with-pd-gambling-lonliness-bordem/10120\">Please help me. 25 y/o student with mum with PD - gambling, lonliness &amp; bordem</a>\n</h1>\n\n<div id='breadcrumbs'>\n    <div id=\"breadcrumb-0\" itemscope itemtype=\"http://data-vocabulary.org/Breadcrumb\"\n        itemref=\"breadcrumb-1\"\n      >\n      <a href=\"/c/about-parkinsons-and-health\" itemprop=\"url\">\n        <span itemprop=\"title\">About Parkinson&#39;s and health</span>\n      </a>\n    </div>\n    <div id=\"breadcrumb-1\" itemscope itemtype=\"http://data-vocabulary.org/Breadcrumb\"\n>\n      <a href=\"/c/about-parkinsons-and-health/impulsive-and-compulsive-behaviour\" itemprop=\"url\">\n        <span itemprop=\"title\">Impulsive and compulsive behaviour</span>\n      </a>\n    </div>\n</div>\n\n\n\n\n\n<hr>\n\n\n  <div itemscope itemtype='http://schema.org/DiscussionForumPosting'>\n      <div class='creator'>\n        <span>\n          <a href='/u/diane1965'><b itemprop='author'>diane1965</b></a>\n          \n          <time datetime='2017-09-07T22:13:04Z' itemprop='datePublished'>\n            2017-09-07 22:13:04 UTC\n          </time>\n        </span>\n        <span itemprop='position'>#1</span>\n      </div>\n      <div class='post' itemprop='articleBody'>\n        <p>My mum has PD and has recently been gambling an awful lot of money, money which she should be using to pay her bills. She has been frequently asking me to buy her shopping and food and also lend her money. I have given her hundreds over the last few months. I worry when she has no food as she cannot take her medication without eating and she also seems to be loosing weight.&nbsp;</p>\r\n<p>I am a 25 year old male student who lives 5 minutes away from &nbsp;my mum and Uni starts up again in a week or two. Whilst I&#39;ll be staying at home I wont have the time to help my mum as much as I&#39;d like as I&#39;ll also be having to find a job to support myself. I cannot claim carers allowance as a full time student unfortunatley but this does not change the fact that as an only child I&#39;m the only one there to help.</p>\r\n<p>We spoke to my mums nurse about the issue to which my mum became very upset and she also has massive anger outbursts and has also on several ocassions taken the keys from me for the motability car we use to get her around to her appointments and shopping etc. She uses the car as a tool of power almost, even calling the police once to have it taken from me which was unbelievable. She later regrets this and gives me access again. I paid &pound;1000 for the car deposit also so this can be quite a daunting situation.&nbsp;</p>\r\n<p>&nbsp;</p>\r\n<p>Anyway I recently opened a new bank account for my mum to which she didn&#39;t have access and worked out exactly what she had spare per week to spend on food and whatever she liked. The agreement was that I would sort out all of her bills from the main account from which she is locked out of and send her weekly spare money to the new account which I do not have access too.</p>\r\n<p>Upon attempting this the first week my mum managed to snatch the new card from me and gamble nearly &pound;300 within an hour of having the card and also phoned the bank and used the details on the card and her convincing manner to lock me out.</p>\r\n<p>My mums nurse says it may be a medication causing the issues and they are looking to lower the dose now.&nbsp;</p>\r\n<p>Is it actually possible though for such a severe gambling addiction to begin after my mum being on the same medication for 5 years now?</p>\r\n<p>The new plan now is to restart the bank plan with a new card and bank log in details the next time she is paid. My mum has racked up a lot of debt due to this problem. Some of which she cannot afford to pay off.</p>\r\n<p><span style=\"line-height: 1.4;\">Is there any software anyone knows of to block these gambling sites? I fear it may send my mum into one of her anger rampages in which she can be very nasty and do horrible things such as ring colleagues and my college for example making up horrible stories about me but it may need to be done. It&#39;s a horrible situation as I feel my mum is just very lonely and bored and no long feels able to leave the house alone so gambling became a hobby of sorts.&nbsp;</span></p>\r\n<p>I guess my three main concerns are, firstly, as previously mentioned..</p>\r\n<p>1. Could medication of 5 years suddenly cause a gambling addiction?</p>\r\n<p>2. Is there a well known way to block these online gambling websites?</p>\r\n<p>3. Is there anywhere I could find a list of possible hobbies or something that my mum might enjoy doing?</p>\r\n<p>Thank you in advice for any help and I wish everyone here the best of health and happiness.&nbsp;</p>\n      </div>\n      <meta itemprop='interactionCount' content='UserLikes:0'>\n      <meta itemprop='interactionCount' content='UserComments:0'>\n      <meta itemprop='headline' content='Please help me. 25 y/o student with mum with PD - gambling, lonliness &amp; bordem'>\n      <hr>\n  </div>\n  <div itemscope itemtype='http://schema.org/DiscussionForumPosting'>\n      <div class='creator'>\n        <span>\n          <a href='/u/Divine1'><b itemprop='author'>Divine1</b></a>\n          \n          <time datetime='2017-09-08T07:41:59Z' itemprop='datePublished'>\n            2017-09-08 07:41:59 UTC\n          </time>\n        </span>\n        <span itemprop='position'>#2</span>\n      </div>\n      <div class='post' itemprop='articleBody'>\n        <p>Hi Diane 1965,</p>\r\n<p>I so sorry to hear about your mum and especially feel for in this position. You sound like you have so much responsibility so young.</p>\r\n<p>The only point I can comment on is the medication. The obsessive behaviour can come with the medication. Your mother may have had it a while but it&#39;s reached an uncontrollable stage. She needs that looked at ASAP. Ropinerol&nbsp;is on email of the meds&nbsp;that can cause this problem.</p>\r\n<p>The nurse should be able to point out some groups, activities in your area. Unfortunately some areas are better than others.</p>\r\n<p>Have you contacted PD UK by phone. They may give you financial advice. You need support.</p>\r\n<p>Hopefully others with more experience will post. I wish you all the best.&nbsp;</p>\n      </div>\n      <meta itemprop='interactionCount' content='UserLikes:0'>\n      <meta itemprop='interactionCount' content='UserComments:0'>\n      <meta itemprop='headline' content='Please help me. 25 y/o student with mum with PD - gambling, lonliness &amp; bordem'>\n      <hr>\n  </div>\n  <div itemscope itemtype='http://schema.org/DiscussionForumPosting'>\n      <div class='creator'>\n        <span>\n          <a href='/u/Tractorman'><b itemprop='author'>Tractorman</b></a>\n          \n          <time datetime='2017-09-08T08:46:27Z' itemprop='datePublished'>\n            2017-09-08 08:46:27 UTC\n          </time>\n        </span>\n        <span itemprop='position'>#3</span>\n      </div>\n      <div class='post' itemprop='articleBody'>\n        <p>Hi diane&nbsp;1965,</p>\r\n<p>I&#39;m a million miles from being an IT expert, but I&#39;m pretty certain that most versions of windows have &quot;Parental control&quot; settings which you&nbsp;can can select what types of website you want to block access to. I&#39;m sure there&#39;ll be somebody on here can guide you through that. Watch out for impulsive behaviour on the television shopping channels too. I heard from a reliable source of one PWP who had racked up &pound;70,000 worth of debt. Exactly as Divine1 said above a review of meds needs to be done ASAP. Can you try and contact her Neuro&nbsp;directly and impress upon&nbsp;them the massive risks that are hanging over you &amp; Mum.</p>\r\n<p>I hope you can get the progress you need before, what appears to be another negative statistic DA gets notched up.&nbsp;</p>\r\n<p>DA&#39;s can and do work very well for &nbsp;a good many PWP, but I get the impression the PWP&nbsp;needs a cautious eye kept on them for the duration.</p>\r\n<p>Regards,</p>\r\n<p>Tractorman.</p>\n      </div>\n      <meta itemprop='interactionCount' content='UserLikes:0'>\n      <meta itemprop='interactionCount' content='UserComments:0'>\n      <meta itemprop='headline' content='Please help me. 25 y/o student with mum with PD - gambling, lonliness &amp; bordem'>\n      <hr>\n  </div>\n  <div itemscope itemtype='http://schema.org/DiscussionForumPosting'>\n      <div class='creator'>\n        <span>\n          <a href='/u/Tom_JP'><b itemprop='author'>Tom_JP</b></a>\n          \n          <time datetime='2017-09-08T09:56:00Z' itemprop='datePublished'>\n            2017-09-08 09:56:00 UTC\n          </time>\n        </span>\n        <span itemprop='position'>#4</span>\n      </div>\n      <div class='post' itemprop='articleBody'>\n        <p>Hi diane1965,</p>\r\n<p>I&#39;m sorry to hear your mum is struggling at the moment.</p>\r\n<p>You can call the helpline&nbsp;on 0808 800 0303 and someone will be able to advise you directly, and they can also help you find a local group that may be able to provide some more assistance and information around activities that your mum can get involved with.</p>\r\n<p>For any issues with gambling specifically, you can contact the National Gambling Helpline&nbsp;on 0808 8020 133 and there is also a livechat service and much more information at <a href=\"https://www.begambleaware.org/\">https://www.begambleaware.org/</a></p>\r\n<p>You can also visit <a href=\"http://www.gamcare.org.uk/\">http://www.gamcare.org.uk/</a>, which does include information about blocking software, though I think it would definitely be worth speaking to someone first before you take that action.</p>\r\n<p>I hope this helps, please remember that the helpline is there for you as much as your mum if you ever need to speak to someone.</p>\r\n<p>Best wishes,</p>\r\n<p>Tom - Digital Team</p>\r\n<p>&nbsp;</p>\r\n<p>&nbsp;</p>\n      </div>\n      <meta itemprop='interactionCount' content='UserLikes:0'>\n      <meta itemprop='interactionCount' content='UserComments:1'>\n      <meta itemprop='headline' content='Please help me. 25 y/o student with mum with PD - gambling, lonliness &amp; bordem'>\n      <hr>\n  </div>\n  <div itemscope itemtype='http://schema.org/DiscussionForumPosting'>\n      <div class='creator'>\n        <span>\n          <a href='/u/Eileenpatricia'><b itemprop='author'>Eileenpatricia</b></a>\n          \n          <time datetime='2017-09-09T04:35:00Z' itemprop='datePublished'>\n            2017-09-09 04:35:00 UTC\n          </time>\n        </span>\n        <span itemprop='position'>#5</span>\n      </div>\n      <div class='post' itemprop='articleBody'>\n        <p>&nbsp;</p>\r\n<p>Also try contacting the neurologist via their secretary.&nbsp;This is a&nbsp; known side effect of Parkinsons meds in up to 17 per cent of patients &nbsp;When&nbsp; your mother sees the neuro,it is in the nature of these compulsions that they are secretive and naturally she &nbsp;wont confess to any such urges to the neuro.&nbsp; The family should therefore &nbsp;be let in on these scenarios.&nbsp;Dont worryabout&nbsp;&nbsp;contacting the&nbsp; neuro or the PD nurse directly.&nbsp; There are excellent free to download publications on subject of obsessive compulsive disorders caused by Parkinsons meds&nbsp;elsewhere&nbsp; on this site.&nbsp; I would give you the link but&nbsp; not used to the new set-up.</p>\r\n<p>&nbsp;</p>\r\n<p>AlthoughI find my PD nurse very good normalllly it wasonly when&nbsp;&nbsp;&nbsp; &nbsp;I&nbsp;&nbsp; c ontacted the neuro direct that I got help with a meds related problem of my own</p>\n      </div>\n      <meta itemprop='interactionCount' content='UserLikes:0'>\n      <meta itemprop='interactionCount' content='UserComments:0'>\n      <meta itemprop='headline' content='Please help me. 25 y/o student with mum with PD - gambling, lonliness &amp; bordem'>\n      <hr>\n  </div>\n\n\n\n\n\n\n    </div>\n    <footer class=\"container\">\n      <nav class='crawler-nav' itemscope itemtype='http://schema.org/SiteNavigationElement'>\n        <a href='/'>Home</a>\n        <a href=\"/categories\">Categories</a>\n        <a href=\"/guidelines\">FAQ/Guidelines</a>\n        <a href=\"/tos\">Terms of Service</a>\n        <a href=\"/privacy\">Privacy Policy</a>\n      </nav>\n      <p class='powered-by-link'>Powered by <a href=\"https://www.discourse.org\">Discourse</a>, best viewed with JavaScript enabled</p>\n    </footer>\n    \n  </body>\n  \n</html>\n",
  "url": "https://forum.parkinsons.org.uk/t/please-help-me-25-y-o-student-with-mum-with-pd-gambling-lonliness-bordem/10120"
}