{
  "contentId": "a28bbb30-886d-11e9-8f96-97f71b5221d6",
  "html": "<!DOCTYPE html>\n<html lang=\"en\">\n  <head>\n    <meta charset=\"utf-8\">\n    <title>Wallet help please - Daily life - Parkinson&#39;s UK Forum</title>\n    <meta name=\"description\" content=\"Hello, \r\nmy mum was diagnosed with Parkinson&amp;#39;s in December. She struggles using her dominant hand due to her tremor, clumsiness and stiffness. One of the things she finds difficult is paying for items and getting money o&amp;hellip;\">\n    <meta name=\"author\" content=\"\">\n<meta name=\"generator\" content=\"Discourse 2.2.5 - https://github.com/discourse/discourse version c294ff3609f988dcafb742e91606d60ca13b794d\">\n<link rel=\"icon\" type=\"image/png\" href=\"https://forum.parkinsons.org.uk/uploads/db7928/original/2X/3/311fc84f89f49f38601a2f16b295b6f03d3ce5dd.jpg\">\n<link rel=\"apple-touch-icon\" type=\"image/png\" href=\"https://forum.parkinsons.org.uk/uploads/db7928/original/2X/3/311fc84f89f49f38601a2f16b295b6f03d3ce5dd.jpg\">\n<meta name=\"theme-color\" content=\"#ffffff\">\n<meta name=\"viewport\" content=\"width=device-width, minimum-scale=1.0, maximum-scale=1.0, user-scalable=yes\">\n<link rel=\"canonical\" href=\"https://forum.parkinsons.org.uk/t/wallet-help-please/9894\" />\n<script type=\"application/ld+json\">{\"@context\":\"http://schema.org\",\"@type\":\"WebSite\",\"url\":\"https://forum.parkinsons.org.uk\",\"potentialAction\":{\"@type\":\"SearchAction\",\"target\":\"https://forum.parkinsons.org.uk/search?q={search_term_string}\",\"query-input\":\"required name=search_term_string\"}}</script>\n<link rel=\"search\" type=\"application/opensearchdescription+xml\" href=\"https://forum.parkinsons.org.uk/opensearch.xml\" title=\"Parkinson&#39;s UK Forum Search\">\n\n      <link href=\"/stylesheets/desktop_f99246ae801b083d3e4cca979d0dade8615b39ac.css?__ws=forum.parkinsons.org.uk\" media=\"all\" rel=\"stylesheet\" data-target=\"desktop\" data-theme-id=\"12\"/>\n      <link href=\"/stylesheets/desktop_theme_12_5d27531cf43f9df0c03a6a6ec3109dd05f9dfc49.css?__ws=forum.parkinsons.org.uk\" media=\"all\" rel=\"stylesheet\" data-target=\"desktop_theme\" data-theme-id=\"12\"/>\n    <link href=\"https://fonts.googleapis.com/css?family=Open+Sans\" rel=\"stylesheet\">\n\n    <meta id=\"data-ga-universal-analytics\" data-tracking-code=\"UA-4855628-1\" data-json=\"{&quot;cookieDomain&quot;:&quot;auto&quot;}\" data-auto-link-domains=\"\">\n\n<link rel='preload' href='/assets/google-universal-analytics-f35b4da49411e6f5559073523aab983da483976a3954c79c756f8579f6fbd6ef.js' as='script'/>\n<script src='/assets/google-universal-analytics-f35b4da49411e6f5559073523aab983da483976a3954c79c756f8579f6fbd6ef.js'></script>\n\n      <link rel=\"alternate\" type=\"application/rss+xml\" title=\"RSS feed of &#39;Wallet help please&#39;\" href=\"https://forum.parkinsons.org.uk/t/wallet-help-please/9894.rss\" />\n  <meta property=\"og:site_name\" content=\"Parkinson&#39;s UK Forum\" />\n<meta name=\"twitter:card\" content=\"summary\" />\n<meta name=\"twitter:image\" content=\"https://forum.parkinsons.org.uk/uploads/db7928/original/2X/3/311fc84f89f49f38601a2f16b295b6f03d3ce5dd.jpg\" />\n<meta property=\"og:image\" content=\"https://forum.parkinsons.org.uk/uploads/db7928/original/2X/3/311fc84f89f49f38601a2f16b295b6f03d3ce5dd.jpg\" />\n<meta property=\"og:url\" content=\"https://forum.parkinsons.org.uk/t/wallet-help-please/9894\" />\n<meta name=\"twitter:url\" content=\"https://forum.parkinsons.org.uk/t/wallet-help-please/9894\" />\n<meta property=\"og:title\" content=\"Wallet help please\" />\n<meta name=\"twitter:title\" content=\"Wallet help please\" />\n<meta property=\"og:description\" content=\"Hello, \r my mum was diagnosed with Parkinson&#39;s in December. She struggles using her dominant hand due to her tremor, clumsiness and stiffness. One of the things she finds difficult is paying for items and getting money or cards out of her wallet quickly enough- the pressure of the queue makes her symptoms worse. The zip where the coins are kept have a tendency to end up on the floor as the zip goes around the  corners and it isn&#39;t a very big compartment to easily pick coins from. I did buy her a...\" />\n<meta name=\"twitter:description\" content=\"Hello, \r my mum was diagnosed with Parkinson&#39;s in December. She struggles using her dominant hand due to her tremor, clumsiness and stiffness. One of the things she finds difficult is paying for items and getting money or cards out of her wallet quickly enough- the pressure of the queue makes her symptoms worse. The zip where the coins are kept have a tendency to end up on the floor as the zip goes around the  corners and it isn&#39;t a very big compartment to easily pick coins from. I did buy her a...\" />\n<meta property=\"article:published_time\" content=\"2017-05-06T06:18:14+00:00\" />\n<meta property=\"og:ignore_canonical\" content=\"true\" />\n\n\n\n    \n  </head>\n  <body class=\"crawler\">\n    <header role=\"banner\">\n    <div class=\"region region-header\">\n        <div class=\"region-header-wrapper\">\n            <div id=\"block-parkinsons-d8-branding\" class=\"block block-system block-system-branding-block\">\n                <a href=\"/\" title=\"Home\" rel=\"home\" class=\"site-logo\">\n                    <img src=\"https://forum.parkinsons.org.uk/uploads/db7928/original/2X/8/862bb7d172e7d127e7f3e147ec43594aa62ac945.png\" alt=\"Parkinson's UK. Change Attitudes. Find a cure. Join us.\">\n                </a>\n            </div>\n            <div id=\"block-helpline\" class=\"block block-block-content block-block-content871cd5af-b938-4947-9dc0-d5c211d08fe3 style-phone\">\n                <div class=\"field field--name-field-link field--type-link field--label-hidden field__item\"><a href=\"tel:+448088000303\">Helpline 0808 800 0303</a></div>\n            </div>\n            <div id=\"block-shop\" class=\"block block-block-content block-block-content6fba5ae5-7797-49cd-8367-f321d8111cd6 style-regular\">\n                <div class=\"field field--name-field-link field--type-link field--label-hidden field__item\"><a href=\"https://shop.parkinsons.org.uk\">Shop</a></div>\n            </div>\n        </div>\n    </div>\n</header>\n\n\n<script src=\"/theme-javascripts/b7e9763fcb584fc8265c56a9f557cd6d2e1e8ed8.js?__ws=forum.parkinsons.org.uk\"></script>\n    <header>\n      <a href=\"/\">\n          <img src=\"https://forum.parkinsons.org.uk/uploads/db7928/original/2X/8/862bb7d172e7d127e7f3e147ec43594aa62ac945.png\" alt=\"Parkinson&#39;s UK Forum\" id=\"site-logo\" style=\"max-width: 150px;\">\n      </a>\n    </header>\n    <div id=\"main-outlet\" class=\"wrap\">\n      <h1>\n  <a href=\"/t/wallet-help-please/9894\">Wallet help please</a>\n</h1>\n\n<div id='breadcrumbs'>\n    <div id=\"breadcrumb-0\" itemscope itemtype=\"http://data-vocabulary.org/Breadcrumb\"\n        itemref=\"breadcrumb-1\"\n      >\n      <a href=\"/c/living-with-parkinsons\" itemprop=\"url\">\n        <span itemprop=\"title\">Living with Parkinson&#39;s</span>\n      </a>\n    </div>\n    <div id=\"breadcrumb-1\" itemscope itemtype=\"http://data-vocabulary.org/Breadcrumb\"\n>\n      <a href=\"/c/living-with-parkinsons/daily-life\" itemprop=\"url\">\n        <span itemprop=\"title\">Daily life</span>\n      </a>\n    </div>\n</div>\n\n\n\n\n\n<hr>\n\n\n  <div itemscope itemtype='http://schema.org/DiscussionForumPosting'>\n      <div class='creator'>\n        <span>\n          <a href='/u/Wennieflower'><b itemprop='author'>Wennieflower</b></a>\n          \n          <time datetime='2017-05-06T06:18:14Z' itemprop='datePublished'>\n            2017-05-06 06:18:14 UTC\n          </time>\n        </span>\n        <span itemprop='position'>#1</span>\n      </div>\n      <div class='post' itemprop='articleBody'>\n        <p>Hello,</p>\r\n<p>my mum was diagnosed with Parkinson&#39;s in December. She struggles using her dominant hand due to her tremor, clumsiness and stiffness. One of the things she finds difficult is paying for items and getting money or cards out of her wallet quickly enough- the pressure of the queue makes her symptoms worse. The zip where the coins are kept have a tendency to end up on the floor as the zip goes around the &nbsp;corners and it isn&#39;t a very big compartment to easily pick coins from. I did buy her a concertina card holder with a push button but I could only find a cheap one and whilst helpful it has already broken. Plus when she gets cash back then she has to use both the card holder and her wallet which makes things doubly hard.</p>\r\n<p>I would be really grateful if you could recommend a wallet which might help her - a trendy bright one would be even better!</p>\r\n<p>I really look forward to your replies and help (website links would be great) as my research is not getting me very far!</p>\r\n<p>Many thanks,</p>\r\n<p>Wen&nbsp;</p>\r\n<p>&nbsp;</p>\r\n<p>&nbsp;</p>\n      </div>\n      <meta itemprop='interactionCount' content='UserLikes:0'>\n      <meta itemprop='interactionCount' content='UserComments:0'>\n      <meta itemprop='headline' content='Wallet help please'>\n      <hr>\n  </div>\n  <div itemscope itemtype='http://schema.org/DiscussionForumPosting'>\n      <div class='creator'>\n        <span>\n          <a href='/u/deleted.user'><b itemprop='author'>deleted.user</b></a>\n          \n          <time datetime='2017-05-19T22:00:16Z' itemprop='datePublished'>\n            2017-05-19 22:00:16 UTC\n          </time>\n        </span>\n        <span itemprop='position'>#2</span>\n      </div>\n      <div class='post' itemprop='articleBody'>\n        <p>Hi</p>\r\n<p>I Think we all the suffer the same in the same situation.</p>\r\n<p>i take my mother shopping&nbsp; I have the PD and she has the old age so its left for me too struggle to put the shopping up on the conveyor, but i try too put like with like so cold stuff goes with eventually&nbsp;cold bag ect in a order that makes sense to me to handle easier and put away easier when we get home.</p>\r\n<p><br />\r\n\tluckily we now know most of the staff at the supermarket fairly well so, so they know my ways and they know I have pd I always made a point of telling them, so theres no hurrying me at least.</p>\r\n<p>im not too sure about where too get a suitable wallet as most are generic pretty much the same cloth with a motive usually a sport one, you can get those for about 5 quid from sports direct, or&nbsp; there are surfing shops dotted around the country they sell some, with snazzy ozzie esk names on them and designs but they&#39;ll cost&nbsp; 15 quid maybe, a shoe/leather shop might have some other designs that hold coins, another option might be amongst the P UK SHOP which is at the top of the page.</p>\r\n<p>this one is located in ipswich might be worth your while looking? i have bought one from here.</p>\r\n<p><a href=\"https://www.wahoouk.com/product-category/accessories/wallets/\">https://www.wahoouk.com/product-category/accessories/wallets/</a></p>\n      </div>\n      <meta itemprop='interactionCount' content='UserLikes:0'>\n      <meta itemprop='interactionCount' content='UserComments:1'>\n      <meta itemprop='headline' content='Wallet help please'>\n      <hr>\n  </div>\n  <div itemscope itemtype='http://schema.org/DiscussionForumPosting'>\n      <div class='creator'>\n        <span>\n          <a href='/u/deleted.user'><b itemprop='author'>deleted.user</b></a>\n          \n          <time datetime='2017-05-19T22:28:32Z' itemprop='datePublished'>\n            2017-05-19 22:28:32 UTC\n          </time>\n        </span>\n        <span itemprop='position'>#3</span>\n      </div>\n      <div class='post' itemprop='articleBody'>\n        <p>&nbsp;</p>\r\n<p>Another place too look may be your local tk maxx though they might be &pound;10+</p>\n      </div>\n      <meta itemprop='interactionCount' content='UserLikes:0'>\n      <meta itemprop='interactionCount' content='UserComments:0'>\n      <meta itemprop='headline' content='Wallet help please'>\n      <hr>\n  </div>\n  <div itemscope itemtype='http://schema.org/DiscussionForumPosting'>\n      <div class='creator'>\n        <span>\n          <a href='/u/Mosie'><b itemprop='author'>Mosie</b></a>\n          \n          <time datetime='2017-05-21T03:36:45Z' itemprop='datePublished'>\n            2017-05-21 03:36:45 UTC\n          </time>\n        </span>\n        <span itemprop='position'>#4</span>\n      </div>\n      <div class='post' itemprop='articleBody'>\n        <p>I find it best in shops to give up on purse and wallet completely and go for either the sporty bum-bag on a strap round your waist or the sort of small bag people have for their passport when travelling that hangs round your neck and comes down to about waist level. Either give you both hands free for fumbling. Also coins get increasingly difficult and contactless on a card is so much easier when the shop will accept it.</p>\n      </div>\n      <meta itemprop='interactionCount' content='UserLikes:0'>\n      <meta itemprop='interactionCount' content='UserComments:0'>\n      <meta itemprop='headline' content='Wallet help please'>\n      <hr>\n  </div>\n  <div itemscope itemtype='http://schema.org/DiscussionForumPosting'>\n      <div class='creator'>\n        <span>\n          <a href='/u/Daffy'><b itemprop='author'>Daffy</b></a>\n          \n          <time datetime='2017-05-22T18:52:22Z' itemprop='datePublished'>\n            2017-05-22 18:52:22 UTC\n          </time>\n        </span>\n        <span itemprop='position'>#5</span>\n      </div>\n      <div class='post' itemprop='articleBody'>\n        <p>I know exactly how your mother feels when under pressure at checkouts. I was diagnosed last spring. Since then I have changed how I keep money and cards.</p>\r\n<p>I changed handbag to a simple structured one with a long handle I can wear across my body to keep my hands free. Soft floppy bags make things worse. My new bag has one easy to use top zip. Firm lining and a minimum of interior, structured compartments. I now keep bank notes in one easy to access zipped compartment.Bank cards in another. Loyalty cards are kept loose in one of those pockets meant for mobile phones.Loose change is in a small purse with a zip top. Loads of these available in the shops and if it has a distinctive colour/texture so much the better.</p>\r\n<p>At busy checkouts I hand over a note larger than purchase and drop the change into a pocket or the bottom of my handbag to sort out later. If the shop is not too busy or on a good day I use the opportunity&nbsp;to pay with loose change and lighten my purse load.</p>\r\n<p>I find I drop far less and the fumble is less obvious this way. Hope this helps</p>\r\n<p>&nbsp;</p>\n      </div>\n      <meta itemprop='interactionCount' content='UserLikes:0'>\n      <meta itemprop='interactionCount' content='UserComments:0'>\n      <meta itemprop='headline' content='Wallet help please'>\n      <hr>\n  </div>\n  <div itemscope itemtype='http://schema.org/DiscussionForumPosting'>\n      <div class='creator'>\n        <span>\n          <a href='/u/Jackson'><b itemprop='author'>Jackson</b></a>\n          \n          <time datetime='2017-05-31T07:42:55Z' itemprop='datePublished'>\n            2017-05-31 07:42:55 UTC\n          </time>\n        </span>\n        <span itemprop='position'>#6</span>\n      </div>\n      <div class='post' itemprop='articleBody'>\n        <p>Hi, I use pencil cases. Paper chase have a good one with a chunky &nbsp;zip and internal zip where I can put cards (link below) but I also use a standard chunky one with only one compartment for less coordinated days. Maybe it&#39;s just me, but I also find shallow bags with pale lining useful. I can&#39;t find things by feel so I need to be able to see them quickly and &nbsp;pale lining and a bright purse (pencil case!) works well. Also (and I know they are very expensive unless you grab one in a sale) Kipling bags are great because the zips are chunky with round pull tags so easy to get into. Mine has light grey contrasting lining and is a shallow, chunky design (flat bags are too tricky). &nbsp;I also have a purse with a wrist strap on the zip which is good if I&#39;m going to keep it out of my bag for a bit and make up bags are also worth looking at.&nbsp;</p>\r\n<p>Of course I&#39;m still working on the obvious - &quot;I have Parkinson&#39;s, I&#39;m a bit slow could you give me a minute&quot; but maybe one day.&nbsp;</p>\r\n<p>J x</p>\r\n<p><a href=\"https://www.paperchase.co.uk/stationery/essentials/pencil-cases/cs-triple-pencil-case.html\" target=\"_blank\">https://www.paperchase.co.uk/stationery/essentials/pencil-cases/cs-triple-pencil-case.html</a></p>\n      </div>\n      <meta itemprop='interactionCount' content='UserLikes:0'>\n      <meta itemprop='interactionCount' content='UserComments:0'>\n      <meta itemprop='headline' content='Wallet help please'>\n      <hr>\n  </div>\n  <div itemscope itemtype='http://schema.org/DiscussionForumPosting'>\n      <div class='creator'>\n        <span>\n          <a href='/u/KerryJ'><b itemprop='author'>KerryJ</b></a>\n          \n          <time datetime='2017-06-02T16:37:00Z' itemprop='datePublished'>\n            2017-06-02 16:37:00 UTC\n          </time>\n        </span>\n        <span itemprop='position'>#7</span>\n      </div>\n      <div class='post' itemprop='articleBody'>\n        <p>Hi I have recently been diagnosed with PD and know exactly what you mean regarding cards and cash handling. A friend recommended and i can now endorse this recommendation a fab&nbsp;credit card holder which literally holds the cards in a handy&nbsp;colourful protective hard case which you can open very easily and the cards stand out for easy use.The case is aluminium and protects from accidental scanning on contactless machines as well. Goggle &#39;credit card holder&#39; to see what i mean, Amazon sell them and some handbag shops....i carry cash in small leather purse. I hope advice helps make our lives a bit easier.</p>\n      </div>\n      <meta itemprop='interactionCount' content='UserLikes:0'>\n      <meta itemprop='interactionCount' content='UserComments:0'>\n      <meta itemprop='headline' content='Wallet help please'>\n      <hr>\n  </div>\n  <div itemscope itemtype='http://schema.org/DiscussionForumPosting'>\n      <div class='creator'>\n        <span>\n          <a href='/u/kendraallen'><b itemprop='author'>kendraallen</b></a>\n          \n          <time datetime='2019-01-15T15:05:54Z' itemprop='datePublished'>\n            2019-01-15 15:05:54 UTC\n          </time>\n        </span>\n        <span itemprop='position'>#8</span>\n      </div>\n      <div class='post' itemprop='articleBody'>\n        <p>nice sharing!!</p>\n      </div>\n      <meta itemprop='interactionCount' content='UserLikes:0'>\n      <meta itemprop='interactionCount' content='UserComments:0'>\n      <meta itemprop='headline' content='Wallet help please'>\n      <hr>\n  </div>\n\n\n\n\n\n\n    </div>\n    <footer class=\"container\">\n      <nav class='crawler-nav' itemscope itemtype='http://schema.org/SiteNavigationElement'>\n        <a href='/'>Home</a>\n        <a href=\"/categories\">Categories</a>\n        <a href=\"/guidelines\">FAQ/Guidelines</a>\n        <a href=\"/tos\">Terms of Service</a>\n        <a href=\"/privacy\">Privacy Policy</a>\n      </nav>\n      <p class='powered-by-link'>Powered by <a href=\"https://www.discourse.org\">Discourse</a>, best viewed with JavaScript enabled</p>\n    </footer>\n    \n  </body>\n  \n</html>\n",
  "url": "https://forum.parkinsons.org.uk/t/wallet-help-please/9894"
}