{
  "contentId": "6aa809f0-8866-11e9-8f96-97f71b5221d6",
  "html": "<!DOCTYPE html>\n<html lang=\"en\">\n  <head>\n    <meta charset=\"utf-8\">\n    <title>Exanatide - Research discussion - Parkinson&#39;s UK Forum</title>\n    <meta name=\"description\" content=\"http://www.parkinsons.org.uk/about_us/news/news_items/all_news/diabetes_drug_trial_results.aspx  The results are promising. There are some things I am wondering about:   - I wonder whether a brain scan revealed that exan&amp;hellip;\">\n    <meta name=\"author\" content=\"\">\n<meta name=\"generator\" content=\"Discourse 2.2.5 - https://github.com/discourse/discourse version c294ff3609f988dcafb742e91606d60ca13b794d\">\n<link rel=\"icon\" type=\"image/png\" href=\"https://forum.parkinsons.org.uk/uploads/db7928/original/2X/3/311fc84f89f49f38601a2f16b295b6f03d3ce5dd.jpg\">\n<link rel=\"apple-touch-icon\" type=\"image/png\" href=\"https://forum.parkinsons.org.uk/uploads/db7928/original/2X/3/311fc84f89f49f38601a2f16b295b6f03d3ce5dd.jpg\">\n<meta name=\"theme-color\" content=\"#ffffff\">\n<meta name=\"viewport\" content=\"width=device-width, minimum-scale=1.0, maximum-scale=1.0, user-scalable=yes\">\n<link rel=\"canonical\" href=\"https://forum.parkinsons.org.uk/t/exanatide/4013?page=2\" />\n<script type=\"application/ld+json\">{\"@context\":\"http://schema.org\",\"@type\":\"WebSite\",\"url\":\"https://forum.parkinsons.org.uk\",\"potentialAction\":{\"@type\":\"SearchAction\",\"target\":\"https://forum.parkinsons.org.uk/search?q={search_term_string}\",\"query-input\":\"required name=search_term_string\"}}</script>\n<link rel=\"search\" type=\"application/opensearchdescription+xml\" href=\"https://forum.parkinsons.org.uk/opensearch.xml\" title=\"Parkinson&#39;s UK Forum Search\">\n\n      <link href=\"/stylesheets/desktop_f99246ae801b083d3e4cca979d0dade8615b39ac.css?__ws=forum.parkinsons.org.uk\" media=\"all\" rel=\"stylesheet\" data-target=\"desktop\" data-theme-id=\"12\"/>\n      <link href=\"/stylesheets/desktop_theme_12_5d27531cf43f9df0c03a6a6ec3109dd05f9dfc49.css?__ws=forum.parkinsons.org.uk\" media=\"all\" rel=\"stylesheet\" data-target=\"desktop_theme\" data-theme-id=\"12\"/>\n    <link href=\"https://fonts.googleapis.com/css?family=Open+Sans\" rel=\"stylesheet\">\n\n    <meta id=\"data-ga-universal-analytics\" data-tracking-code=\"UA-4855628-1\" data-json=\"{&quot;cookieDomain&quot;:&quot;auto&quot;}\" data-auto-link-domains=\"\">\n\n<link rel='preload' href='/assets/google-universal-analytics-f35b4da49411e6f5559073523aab983da483976a3954c79c756f8579f6fbd6ef.js' as='script'/>\n<script src='/assets/google-universal-analytics-f35b4da49411e6f5559073523aab983da483976a3954c79c756f8579f6fbd6ef.js'></script>\n\n      <link rel=\"alternate\" type=\"application/rss+xml\" title=\"RSS feed of &#39;Exanatide&#39;\" href=\"https://forum.parkinsons.org.uk/t/exanatide/4013.rss\" />\n  <meta property=\"og:site_name\" content=\"Parkinson&#39;s UK Forum\" />\n<meta name=\"twitter:card\" content=\"summary\" />\n<meta name=\"twitter:image\" content=\"https://forum.parkinsons.org.uk/uploads/db7928/original/2X/3/311fc84f89f49f38601a2f16b295b6f03d3ce5dd.jpg\" />\n<meta property=\"og:image\" content=\"https://forum.parkinsons.org.uk/uploads/db7928/original/2X/3/311fc84f89f49f38601a2f16b295b6f03d3ce5dd.jpg\" />\n<meta property=\"og:url\" content=\"https://forum.parkinsons.org.uk/t/exanatide/4013?page=2\" />\n<meta name=\"twitter:url\" content=\"https://forum.parkinsons.org.uk/t/exanatide/4013?page=2\" />\n<meta property=\"og:title\" content=\"Exanatide\" />\n<meta name=\"twitter:title\" content=\"Exanatide\" />\n<meta property=\"og:description\" content=\"Bastyr University are doing (ongoing) research into diet and Parkinson&#39;s progression with some interesting results: http://bastyr.edu/news/general-news-home-page/2017/06/bastyr-launches-parkinsons-program \r  \" />\n<meta name=\"twitter:description\" content=\"Bastyr University are doing (ongoing) research into diet and Parkinson&#39;s progression with some interesting results: http://bastyr.edu/news/general-news-home-page/2017/06/bastyr-launches-parkinsons-program \r  \" />\n<meta name=\"twitter:label1\" value=\"Reading time\" />\n<meta name=\"twitter:data1\" value=\"11 mins \uD83D\uDD51\" />\n<meta name=\"twitter:label2\" value=\"Likes\" />\n<meta name=\"twitter:data2\" value=\"1 ❤\" />\n<meta property=\"article:published_time\" content=\"2017-08-14T12:10:11+00:00\" />\n<meta property=\"og:ignore_canonical\" content=\"true\" />\n\n      <link rel=\"prev\" href=\"/t/exanatide/4013\">\n      <link rel=\"next\" href=\"/t/exanatide/4013?page=3\">\n\n\n    \n  </head>\n  <body class=\"crawler\">\n    <header role=\"banner\">\n    <div class=\"region region-header\">\n        <div class=\"region-header-wrapper\">\n            <div id=\"block-parkinsons-d8-branding\" class=\"block block-system block-system-branding-block\">\n                <a href=\"/\" title=\"Home\" rel=\"home\" class=\"site-logo\">\n                    <img src=\"https://forum.parkinsons.org.uk/uploads/db7928/original/2X/8/862bb7d172e7d127e7f3e147ec43594aa62ac945.png\" alt=\"Parkinson's UK. Change Attitudes. Find a cure. Join us.\">\n                </a>\n            </div>\n            <div id=\"block-helpline\" class=\"block block-block-content block-block-content871cd5af-b938-4947-9dc0-d5c211d08fe3 style-phone\">\n                <div class=\"field field--name-field-link field--type-link field--label-hidden field__item\"><a href=\"tel:+448088000303\">Helpline 0808 800 0303</a></div>\n            </div>\n            <div id=\"block-shop\" class=\"block block-block-content block-block-content6fba5ae5-7797-49cd-8367-f321d8111cd6 style-regular\">\n                <div class=\"field field--name-field-link field--type-link field--label-hidden field__item\"><a href=\"https://shop.parkinsons.org.uk\">Shop</a></div>\n            </div>\n        </div>\n    </div>\n</header>\n\n\n<script src=\"/theme-javascripts/b7e9763fcb584fc8265c56a9f557cd6d2e1e8ed8.js?__ws=forum.parkinsons.org.uk\"></script>\n    <header>\n      <a href=\"/\">\n          <img src=\"https://forum.parkinsons.org.uk/uploads/db7928/original/2X/8/862bb7d172e7d127e7f3e147ec43594aa62ac945.png\" alt=\"Parkinson&#39;s UK Forum\" id=\"site-logo\" style=\"max-width: 150px;\">\n      </a>\n    </header>\n    <div id=\"main-outlet\" class=\"wrap\">\n      <h1>\n  <a href=\"/t/exanatide/4013\">Exanatide</a>\n</h1>\n\n<div id='breadcrumbs'>\n    <div id=\"breadcrumb-0\" itemscope itemtype=\"http://data-vocabulary.org/Breadcrumb\"\n        itemref=\"breadcrumb-1\"\n      >\n      <a href=\"/c/research\" itemprop=\"url\">\n        <span itemprop=\"title\">Research</span>\n      </a>\n    </div>\n    <div id=\"breadcrumb-1\" itemscope itemtype=\"http://data-vocabulary.org/Breadcrumb\"\n>\n      <a href=\"/c/research/research-discussion\" itemprop=\"url\">\n        <span itemprop=\"title\">Research discussion</span>\n      </a>\n    </div>\n</div>\n\n\n\n\n\n<hr>\n\n\n  <div itemscope itemtype='http://schema.org/DiscussionForumPosting'>\n      <div class='creator'>\n        <span>\n          <a href='/u/Drewster'><b itemprop='author'>Drewster</b></a>\n          \n          <time datetime='2017-08-14T12:10:11Z' itemprop='datePublished'>\n            2017-08-14 12:10:11 UTC\n          </time>\n        </span>\n        <span itemprop='position'>#21</span>\n      </div>\n      <div class='post' itemprop='articleBody'>\n        <p>Bastyr University are doing (ongoing) research into diet and Parkinson&#39;s progression with some interesting results:&nbsp;<a href=\"http://bastyr.edu/news/general-news-home-page/2017/06/bastyr-launches-parkinsons-program\" target=\"_blank\">http://bastyr.edu/news/general-news-home-page/2017/06/bastyr-launches-parkinsons-program</a></p>\r\n<p>&nbsp;</p>\n      </div>\n      <meta itemprop='interactionCount' content='UserLikes:0'>\n      <meta itemprop='interactionCount' content='UserComments:0'>\n      <meta itemprop='headline' content='Exanatide'>\n      <hr>\n  </div>\n  <div itemscope itemtype='http://schema.org/DiscussionForumPosting'>\n      <div class='creator'>\n        <span>\n          <a href='/u/Drewster'><b itemprop='author'>Drewster</b></a>\n          \n          <time datetime='2017-08-14T12:13:46Z' itemprop='datePublished'>\n            2017-08-14 12:13:46 UTC\n          </time>\n        </span>\n        <span itemprop='position'>#22</span>\n      </div>\n      <div class='post' itemprop='articleBody'>\n        <p>2013 to 2017 for a drug already widely used.</p>\r\n<p>Fills those of us on the Parkinson&#39;s roller-coaster with no end of confidence.</p>\r\n<p>The lack of funding will stop many a promising therapy reaching the shelves.</p>\r\n<p>Sigh.</p>\n      </div>\n      <meta itemprop='interactionCount' content='UserLikes:0'>\n      <meta itemprop='interactionCount' content='UserComments:0'>\n      <meta itemprop='headline' content='Exanatide'>\n      <hr>\n  </div>\n  <div itemscope itemtype='http://schema.org/DiscussionForumPosting'>\n      <div class='creator'>\n        <span>\n          <a href='/u/Research'><b itemprop='author'>Research</b></a>\n          \n          <time datetime='2017-08-14T14:37:54Z' itemprop='datePublished'>\n            2017-08-14 14:37:54 UTC\n          </time>\n        </span>\n        <span itemprop='position'>#23</span>\n      </div>\n      <div class='post' itemprop='articleBody'>\n        <p>Hi TeeHee,&nbsp;</p>\r\n<p>Exenatide, as well as other diabetes drugs, stimulate the GLP-1 receptors in the pancreas. This causes insulin to be released and so regulates blood sugar levels.&nbsp;</p>\r\n<p>GLP-1 receptors are also found in the brain, and lab-based experiments have suggested that activating them can boost the function of dopamine connections, have anti-inflammatory properties, improve energy production, and switch on cell survival signals.</p>\r\n<p>At the moment, there is little evidence to suggest that dietary changes can significantly influence Parkinson&#39;s symptoms. Eating a balanced diet will improve general wellbeing, and may help people to manage some of their symptoms.&nbsp;</p>\r\n<p>Hope that helps,&nbsp;</p>\r\n<p>Annie</p>\r\n<p>Parkinson&#39;s UK Research Team&nbsp;</p>\r\n<p>&nbsp;</p>\n      </div>\n      <meta itemprop='interactionCount' content='UserLikes:0'>\n      <meta itemprop='interactionCount' content='UserComments:0'>\n      <meta itemprop='headline' content='Exanatide'>\n      <hr>\n  </div>\n  <div itemscope itemtype='http://schema.org/DiscussionForumPosting'>\n      <div class='creator'>\n        <span>\n          <a href='/u/Drewster'><b itemprop='author'>Drewster</b></a>\n          \n          <time datetime='2017-08-15T08:33:05Z' itemprop='datePublished'>\n            2017-08-15 08:33:05 UTC\n          </time>\n        </span>\n        <span itemprop='position'>#24</span>\n      </div>\n      <div class='post' itemprop='articleBody'>\n        <p>Bastyr&nbsp;published the primary conclusions of their ongoing research earlier this year ...</p>\r\n<p>Materials &amp; Methods:</p>\r\n<p>The goal of this ongoing natural history study is to&nbsp;identify modifiable lifestyle variables associated with rate of PD progression. The Patient-Reported Outcomes in PD (PRO-PD) is the primary outcome&nbsp;measure, ranging from 0 (asymptomatic) to 2500 (severe) to assess PD severity.</p>\r\n<p>Pragmatic Results<br />\r\n\tAfter adjusting for age, income, Hoehn &amp; Yahr, and gender, the mean&nbsp;score at diagnosis was 574, with an annual increase of 16 points per year.&nbsp;The FFQ revealed an association between improved outcomes and intake&nbsp;of fresh vegetables, fruits, nuts &amp; seeds, non-fried fish, olive and coconut&nbsp;oil. Canned fruits and vegetables, cheese, ice cream, beef, chicken, and pasta were associated with statistically worse outcomes over time.There was a dose-dependent association between days per week of&nbsp;exercise and reduction in PRO-PD score over time, the benefit becoming&nbsp;statistically significant with three or more days per week. Of the activities listed, yoga was the most beneficial form of exercise. That &ldquo;other&rdquo; was&nbsp;also significant suggests individualized programs may also be effective. Supplements used by &gt;10% of participants are listed here. After adjustments for age, income, HY, and gender, fish oil, coenzyme Q10, and vitamin D were the only three supplements to be associated with fewer&nbsp;PD symptoms over time. Iron and melatonin supplementation were associated with faster PD progression. Because poor sleep has been associated with PD progression, an exploratory analyses was performed to differentiate the impact of insomnia from melatonin, a common treatment for insomnia. The&nbsp;association with the melatonin went away after adjusting for insomnia.</p>\r\n<p>CONCLUSIONS:</p>\r\n<p>The foods most protective against PD progression are staples of the Mediterranean diet. While previous studies have linked dairy and beef intake to PD incidence, this is the first study to&nbsp;demonstrate an association between dairy and beef intake and PD progression. Patients should be encouraged to exercise 30 minutes per day for maximum benefit. Whether yoga can be standardized&nbsp;and exploited to slow PD progression deserves further attention. Individuals reporting consistent&nbsp;supplementation with fish oil, coenzyme Q10, and vitamin D have improved outcomes in a naturalistic&nbsp;setting.<br />\r\n\tThis pragmatic natural history study offers the first evidence base for prescribing a Mediterranean&nbsp;diet, daily exercise, and targeted nutritional supplementation to patients with PD.</p>\n      </div>\n      <meta itemprop='interactionCount' content='UserLikes:0'>\n      <meta itemprop='interactionCount' content='UserComments:0'>\n      <meta itemprop='headline' content='Exanatide'>\n      <hr>\n  </div>\n  <div itemscope itemtype='http://schema.org/DiscussionForumPosting'>\n      <div class='creator'>\n        <span>\n          <a href='/u/Drewster'><b itemprop='author'>Drewster</b></a>\n          \n          <time datetime='2017-08-15T08:47:21Z' itemprop='datePublished'>\n            2017-08-15 08:47:21 UTC\n          </time>\n        </span>\n        <span itemprop='position'>#25</span>\n      </div>\n      <div class='post' itemprop='articleBody'>\n        <p><a href=\"https://bastyr.edu/news/general-news-home-page/2013/05/unusual-parkinsons-study-seeks-learn-positive-deviants-0\" target=\"_blank\">https://bastyr.edu/news/general-news-home-page/2013/05/unusual-parkinsons-study-seeks-learn-positive-deviants-0</a></p>\r\n<p>&nbsp;</p>\n      </div>\n      <meta itemprop='interactionCount' content='UserLikes:0'>\n      <meta itemprop='interactionCount' content='UserComments:0'>\n      <meta itemprop='headline' content='Exanatide'>\n      <hr>\n  </div>\n  <div itemscope itemtype='http://schema.org/DiscussionForumPosting'>\n      <div class='creator'>\n        <span>\n          <a href='/u/Mister_X'><b itemprop='author'>Mister_X</b></a>\n          \n          <time datetime='2017-12-29T10:24:00Z' itemprop='datePublished'>\n            2017-12-29 10:24:00 UTC\n          </time>\n        </span>\n        <span itemprop='position'>#26</span>\n      </div>\n      <div class='post' itemprop='articleBody'>\n        <p>With the incredible good results from the clinical phase I and II trials of exenatide, I wonder why I have the feeling that it will still take a very long time before people will get this. I even have the feeling that exenatide will never be given but that we will lose another 20 years in trying to find another drug that works similar to exenatide and we will test it for another 15 years before giving it to people ... all in the name of safety. I mean, safety is good but aren&#39;t they exagerating here ? In 2 years of trials nobody had any problem with exenatide. PD patients are taking real crap meds&nbsp;for anxiety and sleep disorders that are really dangerous longterm but they don&#39;t seem to care for that. But when it comes to something already being used by people with diabetes for more than a decade, why do we need to test longterm effects in such detail ? PD patients are suffering. They need all the help they can as soon as possible.&nbsp;</p>\n      </div>\n      <meta itemprop='interactionCount' content='UserLikes:0'>\n      <meta itemprop='interactionCount' content='UserComments:1'>\n      <meta itemprop='headline' content='Exanatide'>\n      <hr>\n  </div>\n  <div itemscope itemtype='http://schema.org/DiscussionForumPosting'>\n      <div class='creator'>\n        <span>\n          <a href='/u/goldengirl'><b itemprop='author'>goldengirl</b></a>\n          \n          <time datetime='2017-12-29T20:40:36Z' itemprop='datePublished'>\n            2017-12-29 20:40:36 UTC\n          </time>\n        </span>\n        <span itemprop='position'>#27</span>\n      </div>\n      <div class='post' itemprop='articleBody'>\n        <p>I think we all know it is not about safety...it is about profits and greed.</p>\r\n<p>Exenatide is cheap and out of patent....makers of Parkinson&#39;s meds will make sure that it does not get into the lucrative market...</p>\r\n<p>They will bring &nbsp;new drugs out,probably not as safe or effective, under patent, at vast expense to the NHS and trouser millions.</p>\r\n<p>Like all new drugs, there will be a post-code lottery...we can&#39;t have Opicapone in Leeds.</p>\r\n<p>Patient welfare is not really important when profit is their God.</p>\r\n<p>Read Ben Goldacre&#39;s &#39;Bad Pharma&#39;.</p>\n      </div>\n      <meta itemprop='interactionCount' content='UserLikes:0'>\n      <meta itemprop='interactionCount' content='UserComments:1'>\n      <meta itemprop='headline' content='Exanatide'>\n      <hr>\n  </div>\n  <div itemscope itemtype='http://schema.org/DiscussionForumPosting'>\n      <div class='creator'>\n        <span>\n          <a href='/u/Dave333'><b itemprop='author'>Dave333</b></a>\n          \n          <time datetime='2017-12-30T09:14:51Z' itemprop='datePublished'>\n            2017-12-30 09:14:51 UTC\n          </time>\n        </span>\n        <span itemprop='position'>#28</span>\n      </div>\n      <div class='post' itemprop='articleBody'>\n        <p>Hi Everybody, hope you are all not too bad today.</p>\r\n<p>I share your general concerns about whether Exenatide or other GLP-1 agonists will ever be generally prescribed for PD. It all seems to have gone very quiet since the phase 2 trial results were announced in August 2017. So what is actually happening with regard to a phase 3 trial which I accept is needed? It would be good to hear from PDUK on this topic. Has anyone out there heard anything about a phase 3 trial?</p>\r\n<p>Thanks,</p>\r\n<p>Dave.</p>\n      </div>\n      <meta itemprop='interactionCount' content='UserLikes:0'>\n      <meta itemprop='interactionCount' content='UserComments:0'>\n      <meta itemprop='headline' content='Exanatide'>\n      <hr>\n  </div>\n  <div itemscope itemtype='http://schema.org/DiscussionForumPosting'>\n      <div class='creator'>\n        <span>\n          <a href='/u/goldengirl'><b itemprop='author'>goldengirl</b></a>\n          \n          <time datetime='2017-12-30T19:31:09Z' itemprop='datePublished'>\n            2017-12-30 19:31:09 UTC\n          </time>\n        </span>\n        <span itemprop='position'>#29</span>\n      </div>\n      <div class='post' itemprop='articleBody'>\n        <p>Very interesting and promising.....can research give more information about progress..?</p>\r\n<p>Thanks</p>\r\n<p>GG</p>\r\n<p><a href=\"http://www.thelancet.com/journals/lancet/article/PIIS0140-6736(17)31585-4/abstract\" target=\"_blank\">http://www.thelancet.com/journals/lancet/article/PIIS0140-6736(17)31585-4/abstract</a></p>\n      </div>\n      <meta itemprop='interactionCount' content='UserLikes:0'>\n      <meta itemprop='interactionCount' content='UserComments:0'>\n      <meta itemprop='headline' content='Exanatide'>\n      <hr>\n  </div>\n  <div itemscope itemtype='http://schema.org/DiscussionForumPosting'>\n      <div class='creator'>\n        <span>\n          <a href='/u/Mister_X'><b itemprop='author'>Mister_X</b></a>\n          \n          <time datetime='2017-12-31T13:13:00Z' itemprop='datePublished'>\n            2017-12-31 13:13:00 UTC\n          </time>\n        </span>\n        <span itemprop='position'>#30</span>\n      </div>\n      <div class='post' itemprop='articleBody'>\n        <p>But ey, they keep begging people for money to perform their research. I am really done giving money for any kind of medical research. Last time I was approached by someone for cancer funding. I said: &quot;Why would I sponsor that ? If I sponsor it now and 20 years from I get cancer I will probably need to pay 20.000 euro a year for a cure that has been found with my sponsoring. And if I can&#39;t pay it then they will let me die.&quot;. If this med isn&#39;t given to patients, I will stop any PD funding. Because these PD associations that receive funding are as guilty as the greedy pharma industry.</p>\n      </div>\n      <meta itemprop='interactionCount' content='UserLikes:0'>\n      <meta itemprop='interactionCount' content='UserComments:0'>\n      <meta itemprop='headline' content='Exanatide'>\n      <hr>\n  </div>\n  <div itemscope itemtype='http://schema.org/DiscussionForumPosting'>\n      <div class='creator'>\n        <span>\n          <a href='/u/Research'><b itemprop='author'>Research</b></a>\n          \n          <time datetime='2018-01-04T11:35:00Z' itemprop='datePublished'>\n            2018-01-04 11:35:00 UTC\n          </time>\n        </span>\n        <span itemprop='position'>#31</span>\n      </div>\n      <div class='post' itemprop='articleBody'>\n        <p>Hi all</p>\r\n<p>We completely agree that it takes too long for people to benefit from research into new medications. That&#39;s why our Research Vision is to make new and better treatments available in years not decades. Let&#39;s take a look at some of the issues in the pursuit of repurposed drugs.</p>\r\n<p>Why is more research needed?</p>\r\n<p>For exenatide, a phase 3 trial would be needed to establish the drug works and check for any adverse effects in a large number of people. This is particularly important in Parkinson&#39;s where people experience very different symptoms. It could be that some people with certain symptoms won&#39;t benefit from the treatment, or worse could experience side effects.</p>\r\n<p>Another consideration is how long someone will need to take the drug for. Some drugs may be safe to take short term but have side-effects, or become less effective when taken for longer periods, which would likely be needed to treat Parkinson&rsquo;s. Drugs may also interact with each other &mdash; reducing the effectiveness of other medications or causing unwanted side-effects.</p>\r\n<p>So even approved drugs need to go through the clinical trial process to make sure they are safe for people with Parkinson&rsquo;s. However, for repurposed drugs, this can be a much quicker process that those developed from scratch. We already know much about these drugs so they may skip earlier stages and move into the later phases of trials more swiftly, and be made available quicker.</p>\r\n<p>So, where are we at with exenatide?</p>\r\n<p>The latest results came last August. There&#39;s a brilliant&nbsp;review of where we are so far from Parkinson&#39;s researcher Simon Stott&nbsp;<a href=\"https://scienceofparkinsons.com/2017/08/08/exenatide-an-editorial/\" target=\"_blank\">https://scienceofparkinsons.com/2017/08/08/exenatide-an-editorial/</a> and also our blog on these results here <a href=\"https://medium.com/parkinsons-uk/exenatide-latest-trial-results-explained-ef72fbee3c44\" target=\"_blank\">https://medium.com/parkinsons-uk/exenatide-latest-trial-results-explained-ef72fbee3c44</a> if you haven&#39;t already seen them.&nbsp;</p>\r\n<p>But briefly, results so far are looking good and the next stages are being planned. We believe the academics are in discussions with regulators for a phase III study. Like you we are eagerly awaiting more news and, as further research will likely require many more participants, hope to be able to share opportunities to take&nbsp;exenatide&nbsp;by taking part in the trial</p>\r\n<p>But will these drugs ever be made available?</p>\r\n<p>The issue with profitability of repurposed drugs is undoubtedly&nbsp;a major hurled for bringing these often &#39;off patent&#39; drugs to market (i.e. into the hands of the people who need them). But it&#39;s not just an issue for Parkinson&#39;s.</p>\r\n<p>We are doing all we can to improve the pathway to making drugs like exenatide available - you can read about how we are&nbsp;working with the Government and other charities to do this in our latest blog post: <a href=\"https://medium.com/parkinsons-uk/making-repurposed-treatments-a-reality-5c811d0b413b\" target=\"_blank\">https://medium.com/parkinsons-uk/making-repurposed-treatments-a-reality-5c811d0b413b</a></p>\r\n<p>And there has also been progress in speeding up the delivery of new breakthrough treatments: <a href=\"https://www.parkinsons.org.uk/news/fast-track-route-medicines-and-technology-announced\" target=\"_blank\">https://www.parkinsons.org.uk/news/fast-track-route-medicines-and-technology-announced</a></p>\r\n<p>If you would like to help support this kind of activity, I would recommend finding out about our policy and campaigning work. This is a different way you can help support the charity that does not require a financial donation&nbsp;<a href=\"https://www.parkinsons.org.uk/get-involved/campaign\" target=\"_blank\">https://www.parkinsons.org.uk/get-involved/campaign</a></p>\r\n<p>In summary</p>\r\n<p>Despite the hurdles, there are successes in the history of drug repurposing &ndash; such as sildenafil, an angina medication developed in 1989 now more commonly known as Viagra, and azidothymidine, which failed as a chemotherapy drug but because a HIV medication in the 1980s. Both industry and academic researchers are devoting more resource in the pursuit of repurposed drugs and progress is being made to help these drugs get to market.</p>\r\n<p>We will continue to do all we can to deliver new and better treatments faster, and, as everything we do is led by people affected by Parkinson&#39;s, I hope that you will continue to engage in conversations like these to make sure we are addressing the issues.</p>\r\n<p>With very best wishes for 2018,</p>\r\n<p>Beckie</p>\r\n<p>The Research Team</p>\n      </div>\n      <meta itemprop='interactionCount' content='UserLikes:1'>\n      <meta itemprop='interactionCount' content='UserComments:1'>\n      <meta itemprop='headline' content='Exanatide'>\n      <hr>\n  </div>\n  <div itemscope itemtype='http://schema.org/DiscussionForumPosting'>\n      <div class='creator'>\n        <span>\n          <a href='/u/Mister_X'><b itemprop='author'>Mister_X</b></a>\n          \n          <time datetime='2018-01-05T14:14:13Z' itemprop='datePublished'>\n            2018-01-05 14:14:13 UTC\n          </time>\n        </span>\n        <span itemprop='position'>#32</span>\n      </div>\n      <div class='post' itemprop='articleBody'>\n        <p>I understand you have to follow the procedures but I am highly critical of them. Farmers can poison our food with pesticides without decades of testing what will be the effect of pesticide usage on people but when it comes to testing medicines on people decades of testing is needed. Imagine you have ALS and you know you will die in the coming 6 months and there is a treatment being tested in clinical trials that might help you .. why would you prohibit such a person to take it ? Who cares about the longterm side effects. If you take nothing you die in 6 months which is the worst side effect there exists. Makes no sense at all. In case of Exenatide, given the strong results, people with PD all over the world (at least those that want) should be getting treated with it while being very strongly monitored by their doctor. PD is not something like having the flu. PD is a horrible disease that leads to a horrible condition eventually if you don&#39;t stop its progression. Maybe if you take Exenatide for 10 years you will have some nasty side effects. But if you take nothing you will suffer from horrible side effects even sooner. At least, that is my view on the matter.&nbsp;</p>\r\n<p>&nbsp;</p>\n      </div>\n      <meta itemprop='interactionCount' content='UserLikes:0'>\n      <meta itemprop='interactionCount' content='UserComments:0'>\n      <meta itemprop='headline' content='Exanatide'>\n      <hr>\n  </div>\n  <div itemscope itemtype='http://schema.org/DiscussionForumPosting'>\n      <div class='creator'>\n        <span>\n          <a href='/u/Mister_X'><b itemprop='author'>Mister_X</b></a>\n          \n          <time datetime='2018-01-05T15:00:00Z' itemprop='datePublished'>\n            2018-01-05 15:00:00 UTC\n          </time>\n        </span>\n        <span itemprop='position'>#33</span>\n      </div>\n      <div class='post' itemprop='articleBody'>\n        <p>If I may ask a question ... what is the biggest bottleneck for getting these meds approved as fast as possible ? Is it money ? Is it people volunteering ? Regulators ? ...</p>\n      </div>\n      <meta itemprop='interactionCount' content='UserLikes:0'>\n      <meta itemprop='interactionCount' content='UserComments:0'>\n      <meta itemprop='headline' content='Exanatide'>\n      <hr>\n  </div>\n  <div itemscope itemtype='http://schema.org/DiscussionForumPosting'>\n      <div class='creator'>\n        <span>\n          <a href='/u/Research'><b itemprop='author'>Research</b></a>\n          \n          <time datetime='2018-01-11T14:54:12Z' itemprop='datePublished'>\n            2018-01-11 14:54:12 UTC\n          </time>\n        </span>\n        <span itemprop='position'>#34</span>\n      </div>\n      <div class='post' itemprop='articleBody'>\n        <p>Hi Mister_X</p>\n\n<p>This is a great question, but unfortunately there is no simple answer or single bottleneck.</p>\n\n<p>More funding is required for Parkinson's research at all stages of the pipeline, but a lack of investment in the later stages of clinical trials, which can cost billions of pounds, is one of the bottlenecks. </p>\n\n<p>This stems from Parkinson's being seen as a complex condition in which to carry our clinical research, partly due to the lack of measurements to monitor its progress. Researchers around the world are actively looking for ways to detect and monitor the progression of the condition, so we can identify drugs that may slow it. At the same time our <a href=\"https://www.parkinsons.org.uk/research/improving-clinical-trials\" rel=\"nofollow noopener\">Critical Path for Parkinson's</a> initiative is smoothing out the path for all future drugs by making clinical trials smarter and faster, and working directly with regulators to do this. We hope that this will encourage future investment in clinical trials for Parkinson's.</p>\n\n<p>Another bottleneck is that while early stage, 'basic' scientific research has increased our understanding of the process inside brain cells that lead to their loss in Parkinson's, this knowledge is not always taken forward into drug development. The <a href=\"https://www.parkinsons.org.uk/research/parkinsons-virtual-biotech\" rel=\"nofollow noopener\">Parkinson's Virtual Biotech</a> aims to take the best ideas forward toward clinical trials, so filling this gap.</p>\n\n<p>Finally, recruitment can impact on the success of clinical research, particularly in later stages of trials that require many people to take part. We are engaging with researchers to share participation opportunities and reduce the likelihood that research will fail due to a shortfall of participants. </p>\n\n<p>But as well as quantity, finding the right participants is vital. Researchers are beginning to understand that there are multiple types of Parkinson's, which likely respond to drugs in very different ways. Currently we don't know enough about these possible types of Parkinson's to identify those participants who would benefit from a new therapy and those who would not. This means, when it comes to clinical trials, we are not testing the drugs in the most effective manner. This fact could be responsible for previous Parkinson's clinical trials failing in the late stages.</p>\n\n<p>To combat this, researchers are developing our knowledge of the different types of Parkinson's, and how they respond to drug therapies. At the same time, the Critical Path for Parkinson's aims to improve the way participants are selected for trials to give new therapies the best chance of demonstrating effectiveness. This is essential for trial success, which is necessary for new and better drugs to be made available to the people who need them.</p>\n\n<p>While this is not an exhaustive list, it highlights the complexity of the situation and the progress that is being made to speed up the delivery of new and better treatments. I hope it helps to answer your question.</p>\n\n<p>All the best,<br>Beckie</p>\n\n<p>The Parkinson's UK Research Team</p>\n      </div>\n      <meta itemprop='interactionCount' content='UserLikes:0'>\n      <meta itemprop='interactionCount' content='UserComments:1'>\n      <meta itemprop='headline' content='Exanatide'>\n      <hr>\n  </div>\n  <div itemscope itemtype='http://schema.org/DiscussionForumPosting'>\n      <div class='creator'>\n        <span>\n          <a href='/u/Mister_X'><b itemprop='author'>Mister_X</b></a>\n          \n          <time datetime='2018-01-11T15:26:38Z' itemprop='datePublished'>\n            2018-01-11 15:26:38 UTC\n          </time>\n        </span>\n        <span itemprop='position'>#35</span>\n      </div>\n      <div class='post' itemprop='articleBody'>\n        <p>Thanks for your reply. I have following remarks on them. </p>\n\n<ol><li>You probably heard about Bitcoin, right ? Bitcoin and other cryptocurrencies are a big hype lately. There are even cryptocurrencies used in order to fund scientific projects. To give an example: </li></ol>\n\n<p><a href=\"https://www.emc2.foundation/\" class=\"onebox\" target=\"_blank\" rel=\"nofollow noopener\">https://www.emc2.foundation/</a></p>\n\n<p>The purpose of this project is to fund general scientific research. Maybe your foundation could launch something similar for parkinson's disease or neurodegenerative diseases. This could help with the lack of funding maybe ?  </p>\n\n<ol>\n<li><p>Are people in your trials doing genetic testing ? With statistics or AI techniques it is possible to identify subgroups for which a certain treatment might have helped, and for which it doesn't. </p></li>\n<li><p>I was actually a little bit dissapointed with the Exenatide preclinical trials. It was only tested on mice that got poisoned. It was never tested on mice carrying a specific gene mutation related to PD. Wouldn't it be wiser to test all these meds on several mice carrying each a different PD mutation gene so you can design better clinical trials ? In the past this wasn't possible but nowadays it is possible. After reading a lot about PD research if there is 1 thing that I realized it is that poisoning mice is not really imitating the disease and that's why until now science never managed to slow down or stop the disease. At least, that is my opinion. The same is true for Alzheimer where the focus is all concentrated on beta amyloid but the clinical trials according to me only reflect that their focus is completely wrong.</p></li>\n<li><p>Are you also considering to test the effectiveness of J147 ? Maybe you could work together on this with that research group ? That could also solve the problem of participation because you could do tests in the UK and in the US. Maybe there is a need of research groups to work together.</p></li>\n</ol>\n\n<aside class=\"onebox whitelistedgeneric\">\n  <header class=\"source\">\n    <a href=\"https://www.sciencedaily.com/releases/2018/01/180109090917.htm\" target=\"_blank\" rel=\"nofollow noopener\">sciencedaily.com</a>\n  </header>\n  <article class=\"onebox-body\">\n    <img src=\"//forum.parkinsons.org.uk/images/2018/01/180109090917_1_540x360.jpg\" width=\"\" height=\"\" class=\"thumbnail\">\n\n<h3><a href=\"https://www.sciencedaily.com/releases/2018/01/180109090917.htm\" target=\"_blank\" rel=\"nofollow noopener\">Alzheimer’s drug turns back clock in powerhouse of cell: Researchers identify...</a></h3>\n\n<p>The experimental drug J147 is something of a modern elixir of life; it's been shown to treat Alzheimer's disease and reverse aging in mice and is almost ready for clinical trials in humans. Now scientists have solved the puzzle of what, exactly, J147...</p>\n\n  </article>\n  <div class=\"onebox-metadata\">\n    \n    \n  </div>\n  <div style=\"clear: both\"></div>\n</aside>\n\n\n<p>I am just brainstorming here, not trying to sound like a smartass or anything. I want to avoid that maybe one of my comments is something you didn't thought about but would be helpfull and that you don't do it in the future because I was too scared to mention it. In the end, I just want to help as much as I can in finding a cure, even if my input is limited to donations and posting ideas here.</p>\n      </div>\n      <meta itemprop='interactionCount' content='UserLikes:0'>\n      <meta itemprop='interactionCount' content='UserComments:2'>\n      <meta itemprop='headline' content='Exanatide'>\n      <hr>\n  </div>\n  <div itemscope itemtype='http://schema.org/DiscussionForumPosting'>\n      <div class='creator'>\n        <span>\n          <a href='/u/roberto'><b itemprop='author'>roberto</b></a>\n          \n          <time datetime='2018-01-16T17:07:11Z' itemprop='datePublished'>\n            2018-01-16 17:07:11 UTC\n          </time>\n        </span>\n        <span itemprop='position'>#36</span>\n      </div>\n      <div class='post' itemprop='articleBody'>\n        <p>i was on the exenatide phase 2 trial and i received the placebo. however at the end of the trial i approached my neurologist and requested the drug , as it is a diabetes drug it is classed as off label for pd, anyway i have been using it 2mg injection every week for two years, Is it making a difference? I have no idea. I suppose that another brain scan would reveal any re- population but i have not had any requests to have one and i will bring it up with my nuero next month, I am now on the accordion pill ph3 trial  plus i have been assessed for dbs, i have postponed the dbs until i see what difference the accordion pill makes. i will keep you posted</p>\n      </div>\n      <meta itemprop='interactionCount' content='UserLikes:0'>\n      <meta itemprop='interactionCount' content='UserComments:0'>\n      <meta itemprop='headline' content='Exanatide'>\n      <hr>\n  </div>\n  <div itemscope itemtype='http://schema.org/DiscussionForumPosting'>\n      <div class='creator'>\n        <span>\n          <a href='/u/PeterC'><b itemprop='author'>PeterC</b></a>\n          \n          <time datetime='2018-01-16T20:41:15Z' itemprop='datePublished'>\n            2018-01-16 20:41:15 UTC\n          </time>\n        </span>\n        <span itemprop='position'>#37</span>\n      </div>\n      <div class='post' itemprop='articleBody'>\n        <p>J1347 appears too be derived from turmeric ( circumen). Large body of data on these in PD you can check out. I search on <a href=\"https://europepmc.org/\" rel=\"nofollow noopener\">http://europepmc.org/</a><br>Peter</p>\n      </div>\n      <meta itemprop='interactionCount' content='UserLikes:0'>\n      <meta itemprop='interactionCount' content='UserComments:1'>\n      <meta itemprop='headline' content='Exanatide'>\n      <hr>\n  </div>\n  <div itemscope itemtype='http://schema.org/DiscussionForumPosting'>\n      <div class='creator'>\n        <span>\n          <a href='/u/Mister_X'><b itemprop='author'>Mister_X</b></a>\n          \n          <time datetime='2018-01-26T12:54:45Z' itemprop='datePublished'>\n            2018-01-26 12:54:45 UTC\n          </time>\n        </span>\n        <span itemprop='position'>#38</span>\n      </div>\n      <div class='post' itemprop='articleBody'>\n        <aside class=\"onebox whitelistedgeneric\">\n  <header class=\"source\">\n      <a href=\"https://www.nutraingredients.com/Article/2018/01/25/Curcumin-trial-bolsters-brain-boosting-link\" target=\"_blank\" rel=\"nofollow noopener\">nutraingredients.com</a>\n  </header>\n  <article class=\"onebox-body\">\n    <div class=\"aspect-image\" style=\"--aspect-ratio:690/456;\"><img src=\"//forum.parkinsons.org.uk/uploads/db7928/original/2X/b/b145d9677d5efef1cca1b058bb7ea7f8280f1b0d.jpg\" class=\"thumbnail\"></div>\n\n<h3><a href=\"https://www.nutraingredients.com/Article/2018/01/25/Curcumin-trial-bolsters-brain-boosting-link\" target=\"_blank\" rel=\"nofollow noopener\">Curcumin trial bolsters brain-boosting link</a></h3>\n\n<p>A dose of curcumin supplements twice daily is enough to enhance memory and mood in people with mild, age-related memory loss, according to a UCLA study.</p>\n\n\n  </article>\n  <div class=\"onebox-metadata\">\n    \n    \n  </div>\n  <div style=\"clear: both\"></div>\n</aside>\n\n<p>This recent study showed that curcumin does benefit the brain. It was tested on a group of 40 people. Memory was boosted with 28 % in 18 months. Curcumin was also able to reduce amyloid accumulation. This amyloid formation is linked with Alzheimers disease. Curcumin’s anti-inflammory effect reduced brain inflammation which is considered as one the driving factors of all neurodegenerative diseases.</p>\n<p>The article didn’t say anything about PD. However, this article gives me a very positive outlook about curcumin for PD. First of all, it is anti-inflammatory. From what I have read about neurodegenerative diseases brain inflammation is present in all these diseases and they play an important role in the progression of the diseases. People with PD have brain inflammation so from that respect it looks like this curcumin formulation would also be beneficial for PD patients.</p>\n<p>Besides that I also encountered other studies about Curcumin’s interaction with alpha-synuclein, the hallmark of PD:</p>\n<p><aside class=\"onebox pubmed\">\n  <header class=\"source\">\n      <a href=\"https://www.ncbi.nlm.nih.gov/pubmed/23509976\" target=\"_blank\" rel=\"nofollow noopener\">ncbi.nlm.nih.gov</a>\n  </header>\n  <article class=\"onebox-body\">\n    <h4>\n  <a href=\"https://www.ncbi.nlm.nih.gov/pubmed/23509976\" target=\"_blank\" rel=\"nofollow noopener\">Curcumin modulates α-synuclein aggregation and toxicity.</a>\n</h4>\n\n<div class=\"date\">\n  PK Singh, V Kotia, D Ghosh, GM Mohite, A Kumar and SK Maji,\n  <i>ACS chemical neuroscience</i>, Mar 2013 20\n</div>\n\n<p class=\"pubmed-abstract\">\n  In human beings, Parkinson's disease (PD) is associated with the oligomerization and amyloid formation of α-synuclein (α-Syn). The polyphenolic Asian food ingredient curcumin has proven to be effective against a wide range of human diseases including cancers and neurological disorders. While curcumin has been shown to significantly reduce cell toxicity of α-Syn aggregates, its mechanism of action remains unexplored. Here, using a series of biophysical techniques, we demonstrate that curcumin reduces toxicity by binding to preformed oligomers and fibrils and altering their hydrophobic surface exposure. Further, our fluorescence and two-dimensional nuclear magnetic resonance (2D-NMR) data indicate that curcumin does not bind to monomeric α-Syn but binds specifically to oligomeric intermediates. The degree of curcumin binding correlates with the extent of α-Syn oligomerization, suggesting that the ordered structure of protein is required for effective curcumin binding. The acceleration of aggregation by curcumin may decrease the population of toxic oligomeric intermediates of α-Syn. Collectively; our results suggest that curcumin and related polyphenolic compounds can be pursued as candidate drug targets for treatment of PD and other neurological diseases.\n</p>\n\n  </article>\n  <div class=\"onebox-metadata\">\n    \n    \n  </div>\n  <div style=\"clear: both\"></div>\n</aside>\n<br>\n<aside class=\"onebox whitelistedgeneric\">\n  <header class=\"source\">\n      <img src=\"//forum.parkinsons.org.uk/uploads/db7928/original/2X/6/61916a2df0e43a31b7dc1515991dc2945d6875d5.png\" class=\"site-icon\" width=\"16\" height=\"16\">\n      <a href=\"https://www.nature.com/articles/srep28511\" target=\"_blank\" rel=\"nofollow noopener\">Scientific Reports</a>\n  </header>\n  <article class=\"onebox-body\">\n    <div class=\"aspect-image\" style=\"--aspect-ratio:685/445;\"><img src=\"//forum.parkinsons.org.uk/uploads/db7928/original/2X/e/ec372487df1ecbdbfa98ec655b78d129cb3f0354.jpg\" class=\"thumbnail\"></div>\n\n<h3><a href=\"https://www.nature.com/articles/srep28511\" target=\"_blank\" rel=\"nofollow noopener\">Effect of curcumin analogs onα-synuclein aggregation and cytotoxicity</a></h3>\n\n<p>Effect of curcumin analogs onα-synuclein aggregation and cytotoxicity</p>\n\n\n  </article>\n  <div class=\"onebox-metadata\">\n    \n    \n  </div>\n  <div style=\"clear: both\"></div>\n</aside>\n</p>\n<p>There is evidence that curcumin interacts with toxic alpha-synuclein clumps decreasing its toxicity which would of course again be positive for PD patients. Besides that the article also states that Curcumin induces neurogenesis. According to this article a huge amount of other possible benefits can be found for curcumin with PD.</p>\n<p>The results of the first article I posted can also be found here:</p>\n<aside class=\"onebox whitelistedgeneric\">\n  <header class=\"source\">\n      <a href=\"https://www.sciencedaily.com/releases/2018/01/180123101908.htm\" target=\"_blank\" rel=\"nofollow noopener\">ScienceDaily</a>\n  </header>\n  <article class=\"onebox-body\">\n    \n\n<h3><a href=\"https://www.sciencedaily.com/releases/2018/01/180123101908.htm\" target=\"_blank\" rel=\"nofollow noopener\">Curcumin improves memory and mood: Twice-daily supplements boosted cognitive...</a></h3>\n\n<p>Daily consumption of a certain form of curcumin -- the substance that gives Indian curry its bright color -- improved memory and mood in people with mild, age-related memory loss.</p>\n\n\n  </article>\n  <div class=\"onebox-metadata\">\n    \n    \n  </div>\n  <div style=\"clear: both\"></div>\n</aside>\n\n<p>However, in this article they don’t reveal which curcumin formulation was used. They only state that curcumin with a better absorption was used. In the first article they claim they used theracurmin. I don’t know if this is true. I need to look further into this.</p>\n<p>Edit:</p>\n<p>I found the original research paper: <a href=\"http://www.ajgponline.org/article/S1064-7481(17)30511-0/pdf\" rel=\"nofollow noopener\">http://www.ajgponline.org/article/S1064-7481(17)30511-0/pdf</a></p>\n<p>They did indeed use theracurcumin in this study. I really think this deserves to be studied as a treatment for PD patients.</p>\n<p>Can someone make a separate thread about these findings ? I am not able to make a thread (I don’t know why).</p>\n      </div>\n      <meta itemprop='interactionCount' content='UserLikes:0'>\n      <meta itemprop='interactionCount' content='UserComments:0'>\n      <meta itemprop='headline' content='Exanatide'>\n      <hr>\n  </div>\n  <div itemscope itemtype='http://schema.org/DiscussionForumPosting'>\n      <div class='creator'>\n        <span>\n          <a href='/u/Dave333'><b itemprop='author'>Dave333</b></a>\n          \n          <time datetime='2018-02-06T08:54:59Z' itemprop='datePublished'>\n            2018-02-06 08:54:59 UTC\n          </time>\n        </span>\n        <span itemprop='position'>#39</span>\n      </div>\n      <div class='post' itemprop='articleBody'>\n        <p>Hi Everybody,</p>\n<p>hope you are all not too bad today.<br>\nSo has anybody heard any news about Exenatide recently? This is one of the most promising areas of research in the last year. It would be good to get some up to date information about a phase 3 trial etc.</p>\n<p>Thanks,<br>\nDave.</p>\n      </div>\n      <meta itemprop='interactionCount' content='UserLikes:0'>\n      <meta itemprop='interactionCount' content='UserComments:1'>\n      <meta itemprop='headline' content='Exanatide'>\n      <hr>\n  </div>\n  <div itemscope itemtype='http://schema.org/DiscussionForumPosting'>\n      <div class='creator'>\n        <span>\n          <a href='/u/roberto'><b itemprop='author'>roberto</b></a>\n          \n          <time datetime='2018-02-09T06:55:28Z' itemprop='datePublished'>\n            2018-02-09 06:55:28 UTC\n          </time>\n        </span>\n        <span itemprop='position'>#40</span>\n      </div>\n      <div class='post' itemprop='articleBody'>\n        <p>well as  i have posted before, i have been on exenatide since the trial ended, weekly injection. i could not tell if it works or not. i will continue to take it  just in case. i am on a trial now for the accordance drug. at the moment i am titrating from stalevo to sinemet then to accordance in a couple of weeks.</p>\n      </div>\n      <meta itemprop='interactionCount' content='UserLikes:0'>\n      <meta itemprop='interactionCount' content='UserComments:0'>\n      <meta itemprop='headline' content='Exanatide'>\n      <hr>\n  </div>\n\n  <div role='navigation' itemscope itemtype='http://schema.org/SiteNavigationElement'>\n      <span itemprop='name'><a rel=\"prev\" itemprop=\"url\" href=\"/t/exanatide/4013\">← previous page</a></span>\n      <span itemprop='name'><b><a rel=\"next\" itemprop=\"url\" href=\"/t/exanatide/4013?page=3\">next page →</a></b></span>\n  </div>\n\n\n\n\n\n    </div>\n    <footer class=\"container\">\n      <nav class='crawler-nav' itemscope itemtype='http://schema.org/SiteNavigationElement'>\n        <a href='/'>Home</a>\n        <a href=\"/categories\">Categories</a>\n        <a href=\"/guidelines\">FAQ/Guidelines</a>\n        <a href=\"/tos\">Terms of Service</a>\n        <a href=\"/privacy\">Privacy Policy</a>\n      </nav>\n      <p class='powered-by-link'>Powered by <a href=\"https://www.discourse.org\">Discourse</a>, best viewed with JavaScript enabled</p>\n    </footer>\n    \n  </body>\n  \n</html>\n",
  "url": "https://forum.parkinsons.org.uk/t/exanatide/4013?page=2"
}