{
  "contentId": "9fb66930-886f-11e9-8f96-97f71b5221d6",
  "html": "<!DOCTYPE html>\n<html lang=\"en\">\n  <head>\n    <meta charset=\"utf-8\">\n    <title>Hallucinations and delusions. Help please - Introductions and personal stories - Parkinson&#39;s UK Forum</title>\n    <meta name=\"description\" content=\"Hi everyone \nI am new here but really needing some help and advice please  My mother has advanced Parkinson’s and recently has become increasingly delusional. My father is not coping with it at all and it frequently resu&amp;hellip;\">\n    <meta name=\"author\" content=\"\">\n<meta name=\"generator\" content=\"Discourse 2.2.5 - https://github.com/discourse/discourse version c294ff3609f988dcafb742e91606d60ca13b794d\">\n<link rel=\"icon\" type=\"image/png\" href=\"https://forum.parkinsons.org.uk/uploads/db7928/original/2X/3/311fc84f89f49f38601a2f16b295b6f03d3ce5dd.jpg\">\n<link rel=\"apple-touch-icon\" type=\"image/png\" href=\"https://forum.parkinsons.org.uk/uploads/db7928/original/2X/3/311fc84f89f49f38601a2f16b295b6f03d3ce5dd.jpg\">\n<meta name=\"theme-color\" content=\"#ffffff\">\n<meta name=\"viewport\" content=\"width=device-width, minimum-scale=1.0, maximum-scale=1.0, user-scalable=yes\">\n<link rel=\"canonical\" href=\"https://forum.parkinsons.org.uk/t/hallucinations-and-delusions-help-please/17883\" />\n<script type=\"application/ld+json\">{\"@context\":\"http://schema.org\",\"@type\":\"WebSite\",\"url\":\"https://forum.parkinsons.org.uk\",\"potentialAction\":{\"@type\":\"SearchAction\",\"target\":\"https://forum.parkinsons.org.uk/search?q={search_term_string}\",\"query-input\":\"required name=search_term_string\"}}</script>\n<link rel=\"search\" type=\"application/opensearchdescription+xml\" href=\"https://forum.parkinsons.org.uk/opensearch.xml\" title=\"Parkinson&#39;s UK Forum Search\">\n\n      <link href=\"/stylesheets/desktop_f99246ae801b083d3e4cca979d0dade8615b39ac.css?__ws=forum.parkinsons.org.uk\" media=\"all\" rel=\"stylesheet\" data-target=\"desktop\" data-theme-id=\"12\"/>\n      <link href=\"/stylesheets/desktop_theme_12_5d27531cf43f9df0c03a6a6ec3109dd05f9dfc49.css?__ws=forum.parkinsons.org.uk\" media=\"all\" rel=\"stylesheet\" data-target=\"desktop_theme\" data-theme-id=\"12\"/>\n    <link href=\"https://fonts.googleapis.com/css?family=Open+Sans\" rel=\"stylesheet\">\n\n    <meta id=\"data-ga-universal-analytics\" data-tracking-code=\"UA-4855628-1\" data-json=\"{&quot;cookieDomain&quot;:&quot;auto&quot;}\" data-auto-link-domains=\"\">\n\n<link rel='preload' href='/assets/google-universal-analytics-f35b4da49411e6f5559073523aab983da483976a3954c79c756f8579f6fbd6ef.js' as='script'/>\n<script src='/assets/google-universal-analytics-f35b4da49411e6f5559073523aab983da483976a3954c79c756f8579f6fbd6ef.js'></script>\n\n      <link rel=\"alternate\" type=\"application/rss+xml\" title=\"RSS feed of &#39;Hallucinations and delusions. Help please&#39;\" href=\"https://forum.parkinsons.org.uk/t/hallucinations-and-delusions-help-please/17883.rss\" />\n  <meta property=\"og:site_name\" content=\"Parkinson&#39;s UK Forum\" />\n<meta name=\"twitter:card\" content=\"summary\" />\n<meta name=\"twitter:image\" content=\"https://forum.parkinsons.org.uk/uploads/db7928/original/2X/3/311fc84f89f49f38601a2f16b295b6f03d3ce5dd.jpg\" />\n<meta property=\"og:image\" content=\"https://forum.parkinsons.org.uk/uploads/db7928/original/2X/3/311fc84f89f49f38601a2f16b295b6f03d3ce5dd.jpg\" />\n<meta property=\"og:url\" content=\"https://forum.parkinsons.org.uk/t/hallucinations-and-delusions-help-please/17883\" />\n<meta name=\"twitter:url\" content=\"https://forum.parkinsons.org.uk/t/hallucinations-and-delusions-help-please/17883\" />\n<meta property=\"og:title\" content=\"Hallucinations and delusions. Help please\" />\n<meta name=\"twitter:title\" content=\"Hallucinations and delusions. Help please\" />\n<meta property=\"og:description\" content=\"Hi everyone  I am new here but really needing some help and advice please  My mother has advanced Parkinson’s and recently has become increasingly delusional. My father is not coping with it at all and it frequently results in very distressing arguements and upsetting situations for both parties. I look after my mum one day per week, she has carers that come in twice per day as well as my dads help.  I wonder if anyone has any advice please- I cannot seem to reason with my dad to control his ang...\" />\n<meta name=\"twitter:description\" content=\"Hi everyone  I am new here but really needing some help and advice please  My mother has advanced Parkinson’s and recently has become increasingly delusional. My father is not coping with it at all and it frequently results in very distressing arguements and upsetting situations for both parties. I look after my mum one day per week, she has carers that come in twice per day as well as my dads help.  I wonder if anyone has any advice please- I cannot seem to reason with my dad to control his ang...\" />\n<meta name=\"twitter:label1\" value=\"Reading time\" />\n<meta name=\"twitter:data1\" value=\"1 mins \uD83D\uDD51\" />\n<meta name=\"twitter:label2\" value=\"Likes\" />\n<meta name=\"twitter:data2\" value=\"3 ❤\" />\n<meta property=\"article:published_time\" content=\"2019-02-06T22:12:53+00:00\" />\n<meta property=\"og:ignore_canonical\" content=\"true\" />\n\n\n\n    \n  </head>\n  <body class=\"crawler\">\n    <header role=\"banner\">\n    <div class=\"region region-header\">\n        <div class=\"region-header-wrapper\">\n            <div id=\"block-parkinsons-d8-branding\" class=\"block block-system block-system-branding-block\">\n                <a href=\"/\" title=\"Home\" rel=\"home\" class=\"site-logo\">\n                    <img src=\"https://forum.parkinsons.org.uk/uploads/db7928/original/2X/8/862bb7d172e7d127e7f3e147ec43594aa62ac945.png\" alt=\"Parkinson's UK. Change Attitudes. Find a cure. Join us.\">\n                </a>\n            </div>\n            <div id=\"block-helpline\" class=\"block block-block-content block-block-content871cd5af-b938-4947-9dc0-d5c211d08fe3 style-phone\">\n                <div class=\"field field--name-field-link field--type-link field--label-hidden field__item\"><a href=\"tel:+448088000303\">Helpline 0808 800 0303</a></div>\n            </div>\n            <div id=\"block-shop\" class=\"block block-block-content block-block-content6fba5ae5-7797-49cd-8367-f321d8111cd6 style-regular\">\n                <div class=\"field field--name-field-link field--type-link field--label-hidden field__item\"><a href=\"https://shop.parkinsons.org.uk\">Shop</a></div>\n            </div>\n        </div>\n    </div>\n</header>\n\n\n<script src=\"/theme-javascripts/b7e9763fcb584fc8265c56a9f557cd6d2e1e8ed8.js?__ws=forum.parkinsons.org.uk\"></script>\n    <header>\n      <a href=\"/\">\n          <img src=\"https://forum.parkinsons.org.uk/uploads/db7928/original/2X/8/862bb7d172e7d127e7f3e147ec43594aa62ac945.png\" alt=\"Parkinson&#39;s UK Forum\" id=\"site-logo\" style=\"max-width: 150px;\">\n      </a>\n    </header>\n    <div id=\"main-outlet\" class=\"wrap\">\n      <h1>\n  <a href=\"/t/hallucinations-and-delusions-help-please/17883\">Hallucinations and delusions. Help please</a>\n</h1>\n\n<div id='breadcrumbs'>\n    <div id=\"breadcrumb-0\" itemscope itemtype=\"http://data-vocabulary.org/Breadcrumb\"\n        itemref=\"breadcrumb-1\"\n      >\n      <a href=\"/c/about-me\" itemprop=\"url\">\n        <span itemprop=\"title\">About me</span>\n      </a>\n    </div>\n    <div id=\"breadcrumb-1\" itemscope itemtype=\"http://data-vocabulary.org/Breadcrumb\"\n>\n      <a href=\"/c/about-me/introductions-and-personal-stories\" itemprop=\"url\">\n        <span itemprop=\"title\">Introductions and personal stories</span>\n      </a>\n    </div>\n</div>\n\n\n\n\n\n<hr>\n\n\n  <div itemscope itemtype='http://schema.org/DiscussionForumPosting'>\n      <div class='creator'>\n        <span>\n          <a href='/u/lab83'><b itemprop='author'>lab83</b></a>\n          \n          <time datetime='2019-02-06T22:12:53Z' itemprop='datePublished'>\n            2019-02-06 22:12:53 UTC\n          </time>\n        </span>\n        <span itemprop='position'>#1</span>\n      </div>\n      <div class='post' itemprop='articleBody'>\n        <p>Hi everyone</p>\n<p>I am new here but really needing some help and advice please  My mother has advanced Parkinson’s and recently has become increasingly delusional. My father is not coping with it at all and it frequently results in very distressing arguements and upsetting situations for both parties. I look after my mum one day per week, she has carers that come in twice per day as well as my dads help.<br>\nI wonder if anyone has any advice please- I cannot seem to reason with my dad to control his anger when dealing with it and the Parkinson’s specialists have done little to addrsss the situation and I wonder if if should call them push for an additional appointment? I know there’s no easy solution to this but the situation is getting pretty desperate. I wonder if anyone else has been through this and found a way to help? Many thanks!</p>\n      </div>\n      <meta itemprop='interactionCount' content='UserLikes:0'>\n      <meta itemprop='interactionCount' content='UserComments:0'>\n      <meta itemprop='headline' content='Hallucinations and delusions. Help please'>\n      <hr>\n  </div>\n  <div itemscope itemtype='http://schema.org/DiscussionForumPosting'>\n      <div class='creator'>\n        <span>\n          <a href='/u/Reah'><b itemprop='author'>Reah</b></a>\n          \n          <time datetime='2019-02-07T12:26:30Z' itemprop='datePublished'>\n            2019-02-07 12:26:30 UTC\n          </time>\n        </span>\n        <span itemprop='position'>#2</span>\n      </div>\n      <div class='post' itemprop='articleBody'>\n        <p>Hi <a class=\"mention\" href=\"/u/lab83\">@lab83</a>,</p>\n<p>A warm welcome to the forum.</p>\n<p>Unfortunately, hallucinations and delusions are quite common among people with Parkinson’s and can affect not only the person with the condition, but friends and family too. It’s also not uncommon for carers like your dad to feel frustrated with his situation which can sometimes come across as anger. However, there is extra help available to him, including help from your local social services, NHS continuing health services and our support services. For more information on this, please visit our website here - <a href=\"https://www.parkinsons.org.uk/information-and-support/caring-someone-advanced-parkinsons\">https://www.parkinsons.org.uk/information-and-support/caring-someone-advanced-parkinsons</a>.</p>\n<p>If you’d like to speak to someone urgently about this, you can always give our helpline a call on 0808 800 0303. One of our advisers will be more than happy to offer you more support on this.</p>\n<p>I hope you find this information useful.</p>\n<p>Many thanks,<br>\nReah</p>\n      </div>\n      <meta itemprop='interactionCount' content='UserLikes:1'>\n      <meta itemprop='interactionCount' content='UserComments:0'>\n      <meta itemprop='headline' content='Hallucinations and delusions. Help please'>\n      <hr>\n  </div>\n  <div itemscope itemtype='http://schema.org/DiscussionForumPosting'>\n      <div class='creator'>\n        <span>\n          <a href='/u/PaulSmith'><b itemprop='author'>PaulSmith</b></a>\n          \n          <time datetime='2019-02-07T19:39:07Z' itemprop='datePublished'>\n            2019-02-07 19:39:07 UTC\n          </time>\n        </span>\n        <span itemprop='position'>#3</span>\n      </div>\n      <div class='post' itemprop='articleBody'>\n        <p>Hi,<br>\nI understand this completely - we’ve just been through it. You definitely need to push for another appointment with the Parkinson’s specialist to review the medication. Dopamine agonists are particularly bad actors. In my PwPs case, the change was to come off Dopamine agonists completely and start on a new drug called Opicapone. This reduces the rate at which dopamine is destroyed, enabling a reduction in the amount of levadopa required. In our case, she’s now taking less than half of the levadopa that she was before, the interval has gone from two and a half to four hours and the off periods are much less severe, and less sensitive to timing. To further reduce the hallucinations, Quetiapine, an anti-psychotic was prescribed. Initially at very low dose, half the smallest pill per day. It took more than six months to work out what was the right dosage of levadopa alongside the Opicapone. A year later, going to a full Quetiapine tablet had further benefits, reducing falls and improving night time. The hallucinations and delusions are still there, but are now much more manageable. Everyone is different when it comes to Parkinson’s and their reaction to medication, so there’s no guarantee this would work for you, but reviewing the medication is the place to start.</p>\n      </div>\n      <meta itemprop='interactionCount' content='UserLikes:2'>\n      <meta itemprop='interactionCount' content='UserComments:0'>\n      <meta itemprop='headline' content='Hallucinations and delusions. Help please'>\n      <hr>\n  </div>\n\n\n\n\n\n\n    </div>\n    <footer class=\"container\">\n      <nav class='crawler-nav' itemscope itemtype='http://schema.org/SiteNavigationElement'>\n        <a href='/'>Home</a>\n        <a href=\"/categories\">Categories</a>\n        <a href=\"/guidelines\">FAQ/Guidelines</a>\n        <a href=\"/tos\">Terms of Service</a>\n        <a href=\"/privacy\">Privacy Policy</a>\n      </nav>\n      <p class='powered-by-link'>Powered by <a href=\"https://www.discourse.org\">Discourse</a>, best viewed with JavaScript enabled</p>\n    </footer>\n    \n  </body>\n  \n</html>\n",
  "url": "https://forum.parkinsons.org.uk/t/hallucinations-and-delusions-help-please/17883"
}