{
  "contentId": "d7c98980-8863-11e9-8f96-97f71b5221d6",
  "html": "<!DOCTYPE html>\n<html lang=\"en\">\n  <head>\n    <meta charset=\"utf-8\">\n    <title>Research; on the hypothesis “Parkinson&#39;s disease may start in the gut” - Research discussion - Parkinson&#39;s UK Forum</title>\n    <meta name=\"description\" content=\"On the hypothesis “Parkinson’s disease may start in the gut.” I have to ask; Could one of the main causes of PD be put down to, the work of Antibiotics altering our microbiology? \nA single person test trial, using plant &amp;hellip;\">\n    <meta name=\"author\" content=\"\">\n<meta name=\"generator\" content=\"Discourse 2.2.5 - https://github.com/discourse/discourse version c294ff3609f988dcafb742e91606d60ca13b794d\">\n<link rel=\"icon\" type=\"image/png\" href=\"https://forum.parkinsons.org.uk/uploads/db7928/original/2X/3/311fc84f89f49f38601a2f16b295b6f03d3ce5dd.jpg\">\n<link rel=\"apple-touch-icon\" type=\"image/png\" href=\"https://forum.parkinsons.org.uk/uploads/db7928/original/2X/3/311fc84f89f49f38601a2f16b295b6f03d3ce5dd.jpg\">\n<meta name=\"theme-color\" content=\"#ffffff\">\n<meta name=\"viewport\" content=\"width=device-width, minimum-scale=1.0, maximum-scale=1.0, user-scalable=yes\">\n<link rel=\"canonical\" href=\"https://forum.parkinsons.org.uk/t/research-on-the-hypothesis-parkinsons-disease-may-start-in-the-gut/11836?page=2\" />\n<script type=\"application/ld+json\">{\"@context\":\"http://schema.org\",\"@type\":\"WebSite\",\"url\":\"https://forum.parkinsons.org.uk\",\"potentialAction\":{\"@type\":\"SearchAction\",\"target\":\"https://forum.parkinsons.org.uk/search?q={search_term_string}\",\"query-input\":\"required name=search_term_string\"}}</script>\n<link rel=\"search\" type=\"application/opensearchdescription+xml\" href=\"https://forum.parkinsons.org.uk/opensearch.xml\" title=\"Parkinson&#39;s UK Forum Search\">\n\n      <link href=\"/stylesheets/desktop_f99246ae801b083d3e4cca979d0dade8615b39ac.css?__ws=forum.parkinsons.org.uk\" media=\"all\" rel=\"stylesheet\" data-target=\"desktop\" data-theme-id=\"12\"/>\n      <link href=\"/stylesheets/desktop_theme_12_5d27531cf43f9df0c03a6a6ec3109dd05f9dfc49.css?__ws=forum.parkinsons.org.uk\" media=\"all\" rel=\"stylesheet\" data-target=\"desktop_theme\" data-theme-id=\"12\"/>\n    <link href=\"https://fonts.googleapis.com/css?family=Open+Sans\" rel=\"stylesheet\">\n\n    <meta id=\"data-ga-universal-analytics\" data-tracking-code=\"UA-4855628-1\" data-json=\"{&quot;cookieDomain&quot;:&quot;auto&quot;}\" data-auto-link-domains=\"\">\n\n<link rel='preload' href='/assets/google-universal-analytics-f35b4da49411e6f5559073523aab983da483976a3954c79c756f8579f6fbd6ef.js' as='script'/>\n<script src='/assets/google-universal-analytics-f35b4da49411e6f5559073523aab983da483976a3954c79c756f8579f6fbd6ef.js'></script>\n\n      <link rel=\"alternate\" type=\"application/rss+xml\" title=\"RSS feed of &#39;Research; on the hypothesis “Parkinson&#39;s disease may start in the gut”&#39;\" href=\"https://forum.parkinsons.org.uk/t/research-on-the-hypothesis-parkinsons-disease-may-start-in-the-gut/11836.rss\" />\n  <meta property=\"og:site_name\" content=\"Parkinson&#39;s UK Forum\" />\n<meta name=\"twitter:card\" content=\"summary\" />\n<meta name=\"twitter:image\" content=\"https://forum.parkinsons.org.uk/uploads/db7928/original/2X/3/311fc84f89f49f38601a2f16b295b6f03d3ce5dd.jpg\" />\n<meta property=\"og:image\" content=\"https://forum.parkinsons.org.uk/uploads/db7928/original/2X/3/311fc84f89f49f38601a2f16b295b6f03d3ce5dd.jpg\" />\n<meta property=\"og:url\" content=\"https://forum.parkinsons.org.uk/t/research-on-the-hypothesis-parkinsons-disease-may-start-in-the-gut/11836?page=2\" />\n<meta name=\"twitter:url\" content=\"https://forum.parkinsons.org.uk/t/research-on-the-hypothesis-parkinsons-disease-may-start-in-the-gut/11836?page=2\" />\n<meta property=\"og:title\" content=\"Research; on the hypothesis “Parkinson&#39;s disease may start in the gut”\" />\n<meta name=\"twitter:title\" content=\"Research; on the hypothesis “Parkinson&#39;s disease may start in the gut”\" />\n<meta property=\"og:description\" content=\"All I can add to this discussion is my own experience of altering my diet.  I became interested in trying a low carb diet on the basis that there is a known correlation between T2 diabetes (which my wife has) and PD (which I was diagnosed with 15 months ago) and also that there have been promising trials using T2 meds on patients with PD.  I started on a ketogenic diet 2 months ago without much expectation of anything much happening. To my surprise I felt muscles loosening after about a week and...\" />\n<meta name=\"twitter:description\" content=\"All I can add to this discussion is my own experience of altering my diet.  I became interested in trying a low carb diet on the basis that there is a known correlation between T2 diabetes (which my wife has) and PD (which I was diagnosed with 15 months ago) and also that there have been promising trials using T2 meds on patients with PD.  I started on a ketogenic diet 2 months ago without much expectation of anything much happening. To my surprise I felt muscles loosening after about a week and...\" />\n<meta property=\"article:published_time\" content=\"2018-05-01T21:10:31+00:00\" />\n<meta property=\"og:ignore_canonical\" content=\"true\" />\n\n      <link rel=\"prev\" href=\"/t/research-on-the-hypothesis-parkinsons-disease-may-start-in-the-gut/11836\">\n\n\n    \n  </head>\n  <body class=\"crawler\">\n    <header role=\"banner\">\n    <div class=\"region region-header\">\n        <div class=\"region-header-wrapper\">\n            <div id=\"block-parkinsons-d8-branding\" class=\"block block-system block-system-branding-block\">\n                <a href=\"/\" title=\"Home\" rel=\"home\" class=\"site-logo\">\n                    <img src=\"https://forum.parkinsons.org.uk/uploads/db7928/original/2X/8/862bb7d172e7d127e7f3e147ec43594aa62ac945.png\" alt=\"Parkinson's UK. Change Attitudes. Find a cure. Join us.\">\n                </a>\n            </div>\n            <div id=\"block-helpline\" class=\"block block-block-content block-block-content871cd5af-b938-4947-9dc0-d5c211d08fe3 style-phone\">\n                <div class=\"field field--name-field-link field--type-link field--label-hidden field__item\"><a href=\"tel:+448088000303\">Helpline 0808 800 0303</a></div>\n            </div>\n            <div id=\"block-shop\" class=\"block block-block-content block-block-content6fba5ae5-7797-49cd-8367-f321d8111cd6 style-regular\">\n                <div class=\"field field--name-field-link field--type-link field--label-hidden field__item\"><a href=\"https://shop.parkinsons.org.uk\">Shop</a></div>\n            </div>\n        </div>\n    </div>\n</header>\n\n\n<script src=\"/theme-javascripts/b7e9763fcb584fc8265c56a9f557cd6d2e1e8ed8.js?__ws=forum.parkinsons.org.uk\"></script>\n    <header>\n      <a href=\"/\">\n          <img src=\"https://forum.parkinsons.org.uk/uploads/db7928/original/2X/8/862bb7d172e7d127e7f3e147ec43594aa62ac945.png\" alt=\"Parkinson&#39;s UK Forum\" id=\"site-logo\" style=\"max-width: 150px;\">\n      </a>\n    </header>\n    <div id=\"main-outlet\" class=\"wrap\">\n      <h1>\n  <a href=\"/t/research-on-the-hypothesis-parkinsons-disease-may-start-in-the-gut/11836\">Research; on the hypothesis “Parkinson&#39;s disease may start in the gut”</a>\n</h1>\n\n<div id='breadcrumbs'>\n    <div id=\"breadcrumb-0\" itemscope itemtype=\"http://data-vocabulary.org/Breadcrumb\"\n        itemref=\"breadcrumb-1\"\n      >\n      <a href=\"/c/research\" itemprop=\"url\">\n        <span itemprop=\"title\">Research</span>\n      </a>\n    </div>\n    <div id=\"breadcrumb-1\" itemscope itemtype=\"http://data-vocabulary.org/Breadcrumb\"\n>\n      <a href=\"/c/research/research-discussion\" itemprop=\"url\">\n        <span itemprop=\"title\">Research discussion</span>\n      </a>\n    </div>\n</div>\n\n\n\n\n\n<hr>\n\n\n  <div itemscope itemtype='http://schema.org/DiscussionForumPosting'>\n      <div class='creator'>\n        <span>\n          <a href='/u/francis06'><b itemprop='author'>francis06</b></a>\n          \n          <time datetime='2018-05-01T21:10:31Z' itemprop='datePublished'>\n            2018-05-01 21:10:31 UTC\n          </time>\n        </span>\n        <span itemprop='position'>#21</span>\n      </div>\n      <div class='post' itemprop='articleBody'>\n        <p>All I can add to this discussion is my own experience of altering my diet.<br>\nI became interested in trying a low carb diet on the basis that there is a known correlation between T2 diabetes (which my wife has) and PD (which I was diagnosed with 15 months ago) and also that there have been promising trials using T2 meds on patients with PD.<br>\nI started on a ketogenic diet 2 months ago without much expectation of anything much happening. To my surprise I felt muscles loosening after about a week and after about a month I was able to move more freely than for years. Unfortunately there were less pleasant effects - I had been a bit anxious at first and my anxiety worsened and I had several panic attacks and suffered also from palpitations. My suspicion is that I experienced an excess of dopamine (I was still taking Sinimet as well). I am now taking Diazepam (I believe I have low GABA) and virtually no Sinimet for the last 2 weeks. I also broke from the diet. Some slight stiffness (nothing bad) has returned and I am planning to go back on the diet but very, very cautiously (maybe 2 days a week!).<br>\nMy experience has been that of significant effects of diet (and, yes, it definitely impacted on my gut) but it probably differs from person to person and I would advise anyone to read all the evidence (good and bad) and approach any changes with <em>extreme caution</em>.</p>\n      </div>\n      <meta itemprop='interactionCount' content='UserLikes:0'>\n      <meta itemprop='interactionCount' content='UserComments:1'>\n      <meta itemprop='headline' content='Research; on the hypothesis “Parkinson&#39;s disease may start in the gut”'>\n      <hr>\n  </div>\n  <div itemscope itemtype='http://schema.org/DiscussionForumPosting'>\n      <div class='creator'>\n        <span>\n          <a href='/u/beauxreflets'><b itemprop='author'>beauxreflets</b></a>\n          \n          <time datetime='2018-05-11T17:29:17Z' itemprop='datePublished'>\n            2018-05-11 17:29:17 UTC\n          </time>\n        </span>\n        <span itemprop='position'>#22</span>\n      </div>\n      <div class='post' itemprop='articleBody'>\n        <p>Thank you Francis06,</p>\n<p>The Test Trial I undertook / am undertaking is not one of changing one’s diet. On the contrary, it was a short course of ‘medicinal plant &amp; extracts’ that appear (through their apparent ‘astringent’ knock on effect) to have altered my disposition completely, in a lasting way.</p>\n<p>All the Peripheral nervous system losses (with the exception of an area affected by previous surgery) appear to have been restored to an improved state in being. Example, Smell restored, Mask almost completely gone, Voice more fluid to the extent that I now sound like my son over the phone, Walking and gait almost back to normal, and most importantly, an increased appetite with regular bowel movement (so back to eating a normal diet without too much of a worry).</p>\n<p>That said, I am still reliant on a reduced dosage in Levodopa medication and hoping to be able to reduce the dosage still further, all being well; As I continue monitoring the situation and seeking further means to activate and restore the CNS deficits towards eventually balancing synapse in Start Stop neurons.</p>\n      </div>\n      <meta itemprop='interactionCount' content='UserLikes:0'>\n      <meta itemprop='interactionCount' content='UserComments:1'>\n      <meta itemprop='headline' content='Research; on the hypothesis “Parkinson&#39;s disease may start in the gut”'>\n      <hr>\n  </div>\n  <div itemscope itemtype='http://schema.org/DiscussionForumPosting'>\n      <div class='creator'>\n        <span>\n          <a href='/u/francis06'><b itemprop='author'>francis06</b></a>\n          \n          <time datetime='2018-05-14T17:44:35Z' itemprop='datePublished'>\n            2018-05-14 17:44:35 UTC\n          </time>\n        </span>\n        <span itemprop='position'>#23</span>\n      </div>\n      <div class='post' itemprop='articleBody'>\n        <p>Hi,</p>\n<p>Well I guess its a matter of whatever works for you.  My GP agrees that cutting out all refined carbs can produce benefits for a whole host of illnesses as they can produce an inflammatory response in many people. My neurologist seems keener to just up my dose of Levodopa but I am now down to a single 12.5mg tablet a day and moving as well as I have in the last few years. Smell not restored (although I think it  has improved a bit). Reason I started on a ketogenic diet in the first place is because a number of research teams (in UK, US, France, Korea) have trialled Type 2 diabetes meds for PD with some success so it seems obvious to try a diet recommended for that illness (which my wife has).</p>\n<p>Best of luck with your ongoing trial</p>\n      </div>\n      <meta itemprop='interactionCount' content='UserLikes:0'>\n      <meta itemprop='interactionCount' content='UserComments:0'>\n      <meta itemprop='headline' content='Research; on the hypothesis “Parkinson&#39;s disease may start in the gut”'>\n      <hr>\n  </div>\n\n  <div role='navigation' itemscope itemtype='http://schema.org/SiteNavigationElement'>\n      <span itemprop='name'><a rel=\"prev\" itemprop=\"url\" href=\"/t/research-on-the-hypothesis-parkinsons-disease-may-start-in-the-gut/11836\">← previous page</a></span>\n  </div>\n\n\n\n\n\n    </div>\n    <footer class=\"container\">\n      <nav class='crawler-nav' itemscope itemtype='http://schema.org/SiteNavigationElement'>\n        <a href='/'>Home</a>\n        <a href=\"/categories\">Categories</a>\n        <a href=\"/guidelines\">FAQ/Guidelines</a>\n        <a href=\"/tos\">Terms of Service</a>\n        <a href=\"/privacy\">Privacy Policy</a>\n      </nav>\n      <p class='powered-by-link'>Powered by <a href=\"https://www.discourse.org\">Discourse</a>, best viewed with JavaScript enabled</p>\n    </footer>\n    \n  </body>\n  \n</html>\n",
  "url": "https://forum.parkinsons.org.uk/t/research-on-the-hypothesis-parkinsons-disease-may-start-in-the-gut/11836?page=2"
}