{
  "contentId": "5f8b3e70-886b-11e9-8f96-97f71b5221d6",
  "html": "<!DOCTYPE html>\n<html lang=\"en\">\n  <head>\n    <meta charset=\"utf-8\">\n    <title>Fibromyalgia - Treatments and therapies - Parkinson&#39;s UK Forum</title>\n    <meta name=\"description\" content=\"Hi, has anyone on this site also got fibromyalgia?  I have been looking up my symptoms of a terrible pressure in the back of my neck especially when stressed.    Fibromyalgia came up and reading through the symptoms it c&amp;hellip;\">\n    <meta name=\"author\" content=\"\">\n<meta name=\"generator\" content=\"Discourse 2.2.5 - https://github.com/discourse/discourse version c294ff3609f988dcafb742e91606d60ca13b794d\">\n<link rel=\"icon\" type=\"image/png\" href=\"https://forum.parkinsons.org.uk/uploads/db7928/original/2X/3/311fc84f89f49f38601a2f16b295b6f03d3ce5dd.jpg\">\n<link rel=\"apple-touch-icon\" type=\"image/png\" href=\"https://forum.parkinsons.org.uk/uploads/db7928/original/2X/3/311fc84f89f49f38601a2f16b295b6f03d3ce5dd.jpg\">\n<meta name=\"theme-color\" content=\"#ffffff\">\n<meta name=\"viewport\" content=\"width=device-width, minimum-scale=1.0, maximum-scale=1.0, user-scalable=yes\">\n<link rel=\"canonical\" href=\"https://forum.parkinsons.org.uk/t/fibromyalgia/19579\" />\n<script type=\"application/ld+json\">{\"@context\":\"http://schema.org\",\"@type\":\"WebSite\",\"url\":\"https://forum.parkinsons.org.uk\",\"potentialAction\":{\"@type\":\"SearchAction\",\"target\":\"https://forum.parkinsons.org.uk/search?q={search_term_string}\",\"query-input\":\"required name=search_term_string\"}}</script>\n<link rel=\"search\" type=\"application/opensearchdescription+xml\" href=\"https://forum.parkinsons.org.uk/opensearch.xml\" title=\"Parkinson&#39;s UK Forum Search\">\n\n      <link href=\"/stylesheets/desktop_f99246ae801b083d3e4cca979d0dade8615b39ac.css?__ws=forum.parkinsons.org.uk\" media=\"all\" rel=\"stylesheet\" data-target=\"desktop\" data-theme-id=\"12\"/>\n      <link href=\"/stylesheets/desktop_theme_12_5d27531cf43f9df0c03a6a6ec3109dd05f9dfc49.css?__ws=forum.parkinsons.org.uk\" media=\"all\" rel=\"stylesheet\" data-target=\"desktop_theme\" data-theme-id=\"12\"/>\n    <link href=\"https://fonts.googleapis.com/css?family=Open+Sans\" rel=\"stylesheet\">\n\n    <meta id=\"data-ga-universal-analytics\" data-tracking-code=\"UA-4855628-1\" data-json=\"{&quot;cookieDomain&quot;:&quot;auto&quot;}\" data-auto-link-domains=\"\">\n\n<link rel='preload' href='/assets/google-universal-analytics-f35b4da49411e6f5559073523aab983da483976a3954c79c756f8579f6fbd6ef.js' as='script'/>\n<script src='/assets/google-universal-analytics-f35b4da49411e6f5559073523aab983da483976a3954c79c756f8579f6fbd6ef.js'></script>\n\n      <link rel=\"alternate\" type=\"application/rss+xml\" title=\"RSS feed of &#39;Fibromyalgia&#39;\" href=\"https://forum.parkinsons.org.uk/t/fibromyalgia/19579.rss\" />\n  <meta property=\"og:site_name\" content=\"Parkinson&#39;s UK Forum\" />\n<meta name=\"twitter:card\" content=\"summary\" />\n<meta name=\"twitter:image\" content=\"https://forum.parkinsons.org.uk/user_avatar/forum.parkinsons.org.uk/reah/200/1665_2.png\" />\n<meta property=\"og:image\" content=\"https://forum.parkinsons.org.uk/user_avatar/forum.parkinsons.org.uk/reah/200/1665_2.png\" />\n<meta property=\"og:url\" content=\"https://forum.parkinsons.org.uk/t/fibromyalgia/19579/3\" />\n<meta name=\"twitter:url\" content=\"https://forum.parkinsons.org.uk/t/fibromyalgia/19579/3\" />\n<meta property=\"og:title\" content=\"Fibromyalgia\" />\n<meta name=\"twitter:title\" content=\"Fibromyalgia\" />\n<meta property=\"og:description\" content=\"Hi @Margs1,  There’s been a lot of discussion on the forum about Fibromyalgia that you may find helpful which you can find here and here.  If you do have any questions or concerns, please remember that we’re also here for you and you can call our helpline free on 0808 800 0303.  Best wishes,  Reah\" />\n<meta name=\"twitter:description\" content=\"Hi @Margs1,  There’s been a lot of discussion on the forum about Fibromyalgia that you may find helpful which you can find here and here.  If you do have any questions or concerns, please remember that we’re also here for you and you can call our helpline free on 0808 800 0303.  Best wishes,  Reah\" />\n<meta property=\"article:published_time\" content=\"2019-06-05T15:43:01+00:00\" />\n<meta property=\"og:ignore_canonical\" content=\"true\" />\n\n\n\n    \n  </head>\n  <body class=\"crawler\">\n    <header role=\"banner\">\n    <div class=\"region region-header\">\n        <div class=\"region-header-wrapper\">\n            <div id=\"block-parkinsons-d8-branding\" class=\"block block-system block-system-branding-block\">\n                <a href=\"/\" title=\"Home\" rel=\"home\" class=\"site-logo\">\n                    <img src=\"https://forum.parkinsons.org.uk/uploads/db7928/original/2X/8/862bb7d172e7d127e7f3e147ec43594aa62ac945.png\" alt=\"Parkinson's UK. Change Attitudes. Find a cure. Join us.\">\n                </a>\n            </div>\n            <div id=\"block-helpline\" class=\"block block-block-content block-block-content871cd5af-b938-4947-9dc0-d5c211d08fe3 style-phone\">\n                <div class=\"field field--name-field-link field--type-link field--label-hidden field__item\"><a href=\"tel:+448088000303\">Helpline 0808 800 0303</a></div>\n            </div>\n            <div id=\"block-shop\" class=\"block block-block-content block-block-content6fba5ae5-7797-49cd-8367-f321d8111cd6 style-regular\">\n                <div class=\"field field--name-field-link field--type-link field--label-hidden field__item\"><a href=\"https://shop.parkinsons.org.uk\">Shop</a></div>\n            </div>\n        </div>\n    </div>\n</header>\n\n\n<script src=\"/theme-javascripts/b7e9763fcb584fc8265c56a9f557cd6d2e1e8ed8.js?__ws=forum.parkinsons.org.uk\"></script>\n    <header>\n      <a href=\"/\">\n          <img src=\"https://forum.parkinsons.org.uk/uploads/db7928/original/2X/8/862bb7d172e7d127e7f3e147ec43594aa62ac945.png\" alt=\"Parkinson&#39;s UK Forum\" id=\"site-logo\" style=\"max-width: 150px;\">\n      </a>\n    </header>\n    <div id=\"main-outlet\" class=\"wrap\">\n      <h1>\n  <a href=\"/t/fibromyalgia/19579\">Fibromyalgia</a>\n</h1>\n\n<div id='breadcrumbs'>\n    <div id=\"breadcrumb-0\" itemscope itemtype=\"http://data-vocabulary.org/Breadcrumb\"\n        itemref=\"breadcrumb-1\"\n      >\n      <a href=\"/c/about-parkinsons-and-health\" itemprop=\"url\">\n        <span itemprop=\"title\">About Parkinson&#39;s and health</span>\n      </a>\n    </div>\n    <div id=\"breadcrumb-1\" itemscope itemtype=\"http://data-vocabulary.org/Breadcrumb\"\n>\n      <a href=\"/c/about-parkinsons-and-health/treatments-and-therapies\" itemprop=\"url\">\n        <span itemprop=\"title\">Treatments and therapies</span>\n      </a>\n    </div>\n</div>\n\n\n\n\n\n<hr>\n\n\n  <div itemscope itemtype='http://schema.org/DiscussionForumPosting'>\n      <div class='creator'>\n        <span>\n          <a href='/u/Margs1'><b itemprop='author'>Margs1</b></a>\n          \n          <time datetime='2019-06-04T16:20:13Z' itemprop='datePublished'>\n            2019-06-04 16:20:13 UTC\n          </time>\n        </span>\n        <span itemprop='position'>#1</span>\n      </div>\n      <div class='post' itemprop='articleBody'>\n        <p>Hi, has anyone on this site also got fibromyalgia?  I have been looking up my symptoms of a terrible pressure in the back of my neck especially when stressed.    Fibromyalgia came up and reading through the symptoms it could be me.   I dont think i could be unlucky enough to have two different illnesses and wondered if anyone had any thoughts on this.</p>\n<p>Look forward to some replies.  Thanks.</p>\n      </div>\n      <meta itemprop='interactionCount' content='UserLikes:0'>\n      <meta itemprop='interactionCount' content='UserComments:0'>\n      <meta itemprop='headline' content='Fibromyalgia'>\n      <hr>\n  </div>\n  <div itemscope itemtype='http://schema.org/DiscussionForumPosting'>\n      <div class='creator'>\n        <span>\n          <a href='/u/ANNE29'><b itemprop='author'>ANNE29</b></a>\n          \n          <time datetime='2019-06-05T15:38:23Z' itemprop='datePublished'>\n            2019-06-05 15:38:23 UTC\n          </time>\n        </span>\n        <span itemprop='position'>#2</span>\n      </div>\n      <div class='post' itemprop='articleBody'>\n        <p>Hi Margs1<br>\nI was diagnosed with Fibromyalgia many years before i was diagnosed with pd (2012) .<br>\nI have since heard of other people who were disgnosed with Fibromyalgia and later that. Diagnosis was changed to pd .<br>\nI  alsays</p>\n      </div>\n      <meta itemprop='interactionCount' content='UserLikes:0'>\n      <meta itemprop='interactionCount' content='UserComments:0'>\n      <meta itemprop='headline' content='Fibromyalgia'>\n      <hr>\n  </div>\n  <div itemscope itemtype='http://schema.org/DiscussionForumPosting'>\n      <div class='creator'>\n        <span>\n          <a href='/u/Reah'><b itemprop='author'>Reah</b></a>\n          \n          <time datetime='2019-06-05T15:43:01Z' itemprop='datePublished'>\n            2019-06-05 15:43:01 UTC\n          </time>\n        </span>\n        <span itemprop='position'>#3</span>\n      </div>\n      <div class='post' itemprop='articleBody'>\n        <p>Hi <a class=\"mention\" href=\"/u/margs1\">@Margs1</a>,</p>\n<p>There’s been a lot of discussion on the forum about Fibromyalgia that you may find helpful which you can find <a href=\"https://forum.parkinsons.org.uk/t/young-onset-parkinson-and-fibromyalgia/15558\">here</a> and <a href=\"https://forum.parkinsons.org.uk/t/confused-after-first-neurology-appointment/14206\">here</a>.</p>\n<p>If you do have any questions or concerns, please remember that we’re also here for you and you can call our helpline free on 0808 800 0303.</p>\n<p>Best wishes,<br>\nReah</p>\n      </div>\n      <meta itemprop='interactionCount' content='UserLikes:0'>\n      <meta itemprop='interactionCount' content='UserComments:0'>\n      <meta itemprop='headline' content='Fibromyalgia'>\n      <hr>\n  </div>\n  <div itemscope itemtype='http://schema.org/DiscussionForumPosting'>\n      <div class='creator'>\n        <span>\n          <a href='/u/ANNE29'><b itemprop='author'>ANNE29</b></a>\n          \n          <time datetime='2019-06-05T15:44:55Z' itemprop='datePublished'>\n            2019-06-05 15:44:55 UTC\n          </time>\n        </span>\n        <span itemprop='position'>#4</span>\n      </div>\n      <div class='post' itemprop='articleBody'>\n        <p>I always was doubtful of the Fibromyalgia diagnosis and now i dont think i ever had it</p>\n<p>Cheers AnneD</p>\n      </div>\n      <meta itemprop='interactionCount' content='UserLikes:0'>\n      <meta itemprop='interactionCount' content='UserComments:0'>\n      <meta itemprop='headline' content='Fibromyalgia'>\n      <hr>\n  </div>\n  <div itemscope itemtype='http://schema.org/DiscussionForumPosting'>\n      <div class='creator'>\n        <span>\n          <a href='/u/ANNE29'><b itemprop='author'>ANNE29</b></a>\n          \n          <time datetime='2019-06-05T15:56:24Z' itemprop='datePublished'>\n            2019-06-05 15:56:24 UTC\n          </time>\n        </span>\n        <span itemprop='position'>#5</span>\n      </div>\n      <div class='post' itemprop='articleBody'>\n        <p>Sorry this should have been sent first.<br>\nHi Margs1,<br>\nI was diagnosed with Fibromyalgia a good number of years before being diagnosed with pd in 2012,i have since heard of other people who were first diagnosed with Fibromyalgia and later that diagnosis was changed to pd dont know if this is of much help to you.Cheers ANNE29</p>\n      </div>\n      <meta itemprop='interactionCount' content='UserLikes:0'>\n      <meta itemprop='interactionCount' content='UserComments:1'>\n      <meta itemprop='headline' content='Fibromyalgia'>\n      <hr>\n  </div>\n  <div itemscope itemtype='http://schema.org/DiscussionForumPosting'>\n      <div class='creator'>\n        <span>\n          <a href='/u/Margs1'><b itemprop='author'>Margs1</b></a>\n          \n          <time datetime='2019-06-05T21:20:28Z' itemprop='datePublished'>\n            2019-06-05 21:20:28 UTC\n          </time>\n        </span>\n        <span itemprop='position'>#6</span>\n      </div>\n      <div class='post' itemprop='articleBody'>\n        <p>Thanks Anne  interesting to know two illnesses are similar</p>\n      </div>\n      <meta itemprop='interactionCount' content='UserLikes:0'>\n      <meta itemprop='interactionCount' content='UserComments:0'>\n      <meta itemprop='headline' content='Fibromyalgia'>\n      <hr>\n  </div>\n  <div itemscope itemtype='http://schema.org/DiscussionForumPosting'>\n      <div class='creator'>\n        <span>\n          <a href='/u/peter_corcoran'><b itemprop='author'>peter_corcoran</b></a>\n          \n          <time datetime='2019-06-05T22:02:04Z' itemprop='datePublished'>\n            2019-06-05 22:02:04 UTC\n          </time>\n        </span>\n        <span itemprop='position'>#7</span>\n      </div>\n      <div class='post' itemprop='articleBody'>\n        <p>Hi margs1 I had fibromyalgia years before I was diagnosed with pd at the time we had a consultant in our surgery covering a gp friend and he was working on cases of fibromyalgia so I had every confident diagnosis was right my pd nurse always says Don, t forget you can have more than 1 ailment<br>\nPete</p>\n      </div>\n      <meta itemprop='interactionCount' content='UserLikes:0'>\n      <meta itemprop='interactionCount' content='UserComments:0'>\n      <meta itemprop='headline' content='Fibromyalgia'>\n      <hr>\n  </div>\n\n\n\n\n\n\n    </div>\n    <footer class=\"container\">\n      <nav class='crawler-nav' itemscope itemtype='http://schema.org/SiteNavigationElement'>\n        <a href='/'>Home</a>\n        <a href=\"/categories\">Categories</a>\n        <a href=\"/guidelines\">FAQ/Guidelines</a>\n        <a href=\"/tos\">Terms of Service</a>\n        <a href=\"/privacy\">Privacy Policy</a>\n      </nav>\n      <p class='powered-by-link'>Powered by <a href=\"https://www.discourse.org\">Discourse</a>, best viewed with JavaScript enabled</p>\n    </footer>\n    \n  </body>\n  \n</html>\n",
  "url": "https://forum.parkinsons.org.uk/t/fibromyalgia/19579"
}