{
  "contentId": "53ef6370-8866-11e9-8f96-97f71b5221d6",
  "html": "<!DOCTYPE html>\n<html lang=\"en\">\n  <head>\n    <meta charset=\"utf-8\">\n    <title>Clinical trial in Austria - Research opportunities - Parkinson&#39;s UK Forum</title>\n    <meta name=\"description\" content=\"Hi who can help me please I have E-mailed twice now to Affris in Austria in regards to the trial for their new vaccine also send a further web based message a few days ago no response whatsoever. I really do want and nee&amp;hellip;\">\n    <meta name=\"author\" content=\"\">\n<meta name=\"generator\" content=\"Discourse 2.2.5 - https://github.com/discourse/discourse version c294ff3609f988dcafb742e91606d60ca13b794d\">\n<link rel=\"icon\" type=\"image/png\" href=\"https://forum.parkinsons.org.uk/uploads/db7928/original/2X/3/311fc84f89f49f38601a2f16b295b6f03d3ce5dd.jpg\">\n<link rel=\"apple-touch-icon\" type=\"image/png\" href=\"https://forum.parkinsons.org.uk/uploads/db7928/original/2X/3/311fc84f89f49f38601a2f16b295b6f03d3ce5dd.jpg\">\n<meta name=\"theme-color\" content=\"#ffffff\">\n<meta name=\"viewport\" content=\"width=device-width, minimum-scale=1.0, maximum-scale=1.0, user-scalable=yes\">\n<link rel=\"canonical\" href=\"https://forum.parkinsons.org.uk/t/clinical-trial-in-austria/7669\" />\n<script type=\"application/ld+json\">{\"@context\":\"http://schema.org\",\"@type\":\"WebSite\",\"url\":\"https://forum.parkinsons.org.uk\",\"potentialAction\":{\"@type\":\"SearchAction\",\"target\":\"https://forum.parkinsons.org.uk/search?q={search_term_string}\",\"query-input\":\"required name=search_term_string\"}}</script>\n<link rel=\"search\" type=\"application/opensearchdescription+xml\" href=\"https://forum.parkinsons.org.uk/opensearch.xml\" title=\"Parkinson&#39;s UK Forum Search\">\n\n      <link href=\"/stylesheets/desktop_f99246ae801b083d3e4cca979d0dade8615b39ac.css?__ws=forum.parkinsons.org.uk\" media=\"all\" rel=\"stylesheet\" data-target=\"desktop\" data-theme-id=\"12\"/>\n      <link href=\"/stylesheets/desktop_theme_12_5d27531cf43f9df0c03a6a6ec3109dd05f9dfc49.css?__ws=forum.parkinsons.org.uk\" media=\"all\" rel=\"stylesheet\" data-target=\"desktop_theme\" data-theme-id=\"12\"/>\n    <link href=\"https://fonts.googleapis.com/css?family=Open+Sans\" rel=\"stylesheet\">\n\n    <meta id=\"data-ga-universal-analytics\" data-tracking-code=\"UA-4855628-1\" data-json=\"{&quot;cookieDomain&quot;:&quot;auto&quot;}\" data-auto-link-domains=\"\">\n\n<link rel='preload' href='/assets/google-universal-analytics-f35b4da49411e6f5559073523aab983da483976a3954c79c756f8579f6fbd6ef.js' as='script'/>\n<script src='/assets/google-universal-analytics-f35b4da49411e6f5559073523aab983da483976a3954c79c756f8579f6fbd6ef.js'></script>\n\n      <link rel=\"alternate\" type=\"application/rss+xml\" title=\"RSS feed of &#39;Clinical trial in Austria&#39;\" href=\"https://forum.parkinsons.org.uk/t/clinical-trial-in-austria/7669.rss\" />\n  <meta property=\"og:site_name\" content=\"Parkinson&#39;s UK Forum\" />\n<meta name=\"twitter:card\" content=\"summary\" />\n<meta name=\"twitter:image\" content=\"https://forum.parkinsons.org.uk/uploads/db7928/original/2X/3/311fc84f89f49f38601a2f16b295b6f03d3ce5dd.jpg\" />\n<meta property=\"og:image\" content=\"https://forum.parkinsons.org.uk/uploads/db7928/original/2X/3/311fc84f89f49f38601a2f16b295b6f03d3ce5dd.jpg\" />\n<meta property=\"og:url\" content=\"https://forum.parkinsons.org.uk/t/clinical-trial-in-austria/7669\" />\n<meta name=\"twitter:url\" content=\"https://forum.parkinsons.org.uk/t/clinical-trial-in-austria/7669\" />\n<meta property=\"og:title\" content=\"Clinical trial in Austria\" />\n<meta name=\"twitter:title\" content=\"Clinical trial in Austria\" />\n<meta property=\"og:description\" content=\"Hi who can help me please I have E-mailed twice now to Affris in Austria in regards to the trial for their new vaccine also send a further web based message a few days ago no response whatsoever. I really do want and need to get on that trial. \r   \r BB.\" />\n<meta name=\"twitter:description\" content=\"Hi who can help me please I have E-mailed twice now to Affris in Austria in regards to the trial for their new vaccine also send a further web based message a few days ago no response whatsoever. I really do want and need to get on that trial. \r   \r BB.\" />\n<meta property=\"article:published_time\" content=\"2014-08-14T22:09:23+00:00\" />\n<meta property=\"og:ignore_canonical\" content=\"true\" />\n\n\n\n    \n  </head>\n  <body class=\"crawler\">\n    <header role=\"banner\">\n    <div class=\"region region-header\">\n        <div class=\"region-header-wrapper\">\n            <div id=\"block-parkinsons-d8-branding\" class=\"block block-system block-system-branding-block\">\n                <a href=\"/\" title=\"Home\" rel=\"home\" class=\"site-logo\">\n                    <img src=\"https://forum.parkinsons.org.uk/uploads/db7928/original/2X/8/862bb7d172e7d127e7f3e147ec43594aa62ac945.png\" alt=\"Parkinson's UK. Change Attitudes. Find a cure. Join us.\">\n                </a>\n            </div>\n            <div id=\"block-helpline\" class=\"block block-block-content block-block-content871cd5af-b938-4947-9dc0-d5c211d08fe3 style-phone\">\n                <div class=\"field field--name-field-link field--type-link field--label-hidden field__item\"><a href=\"tel:+448088000303\">Helpline 0808 800 0303</a></div>\n            </div>\n            <div id=\"block-shop\" class=\"block block-block-content block-block-content6fba5ae5-7797-49cd-8367-f321d8111cd6 style-regular\">\n                <div class=\"field field--name-field-link field--type-link field--label-hidden field__item\"><a href=\"https://shop.parkinsons.org.uk\">Shop</a></div>\n            </div>\n        </div>\n    </div>\n</header>\n\n\n<script src=\"/theme-javascripts/b7e9763fcb584fc8265c56a9f557cd6d2e1e8ed8.js?__ws=forum.parkinsons.org.uk\"></script>\n    <header>\n      <a href=\"/\">\n          <img src=\"https://forum.parkinsons.org.uk/uploads/db7928/original/2X/8/862bb7d172e7d127e7f3e147ec43594aa62ac945.png\" alt=\"Parkinson&#39;s UK Forum\" id=\"site-logo\" style=\"max-width: 150px;\">\n      </a>\n    </header>\n    <div id=\"main-outlet\" class=\"wrap\">\n      <h1>\n  <a href=\"/t/clinical-trial-in-austria/7669\">Clinical trial in Austria</a>\n</h1>\n\n<div id='breadcrumbs'>\n    <div id=\"breadcrumb-0\" itemscope itemtype=\"http://data-vocabulary.org/Breadcrumb\"\n        itemref=\"breadcrumb-1\"\n      >\n      <a href=\"/c/research\" itemprop=\"url\">\n        <span itemprop=\"title\">Research</span>\n      </a>\n    </div>\n    <div id=\"breadcrumb-1\" itemscope itemtype=\"http://data-vocabulary.org/Breadcrumb\"\n>\n      <a href=\"/c/research/research-opportunities\" itemprop=\"url\">\n        <span itemprop=\"title\">Research opportunities</span>\n      </a>\n    </div>\n</div>\n\n\n\n\n\n<hr>\n\n\n  <div itemscope itemtype='http://schema.org/DiscussionForumPosting'>\n      <div class='creator'>\n        <span>\n          <a href='/u/Bettyblue'><b itemprop='author'>Bettyblue</b></a>\n          \n          <time datetime='2014-08-14T22:09:23Z' itemprop='datePublished'>\n            2014-08-14 22:09:23 UTC\n          </time>\n        </span>\n        <span itemprop='position'>#1</span>\n      </div>\n      <div class='post' itemprop='articleBody'>\n        <p>Hi who can help me please I have E-mailed&nbsp;twice now to Affris&nbsp;in Austria in regards to the trial for their new vaccine also send a further web based message a few days ago no response whatsoever. I really do want and need to get on that trial.</p>\r\n<p>&nbsp;</p>\r\n<p>BB.</p>\n      </div>\n      <meta itemprop='interactionCount' content='UserLikes:0'>\n      <meta itemprop='interactionCount' content='UserComments:0'>\n      <meta itemprop='headline' content='Clinical trial in Austria'>\n      <hr>\n  </div>\n  <div itemscope itemtype='http://schema.org/DiscussionForumPosting'>\n      <div class='creator'>\n        <span>\n          <a href='/u/redpoppy'><b itemprop='author'>redpoppy</b></a>\n          \n          <time datetime='2014-09-16T17:04:20Z' itemprop='datePublished'>\n            2014-09-16 17:04:20 UTC\n          </time>\n        </span>\n        <span itemprop='position'>#2</span>\n      </div>\n      <div class='post' itemprop='articleBody'>\n        <p>Hi, Betty,</p>\r\n<p>I am sorry noone has replied to your post.</p>\r\n<p>Have you received a response from AFFiRiS yet? It is so rude to ignore an e-mail, but unfortunately on the continent they seem to do that very often. I have a wide experience of that.</p>\r\n<p>As far as the vaccine is concerned, I too think it is the best option for Parkinson&#39;s sufferers, especially as it is not invasive,&nbsp;so I wish they would hurry up to do the second trial, due to start soon, I think. They don&#39;t seem to be in a hurry, though!!!</p>\r\n<p>If it is as positive as the first trial, I can&#39;t see why they should do a third trial, instead of offering the vaccine to any patient who wants it.</p>\r\n<p>Like you, I would go for it even now. Shame we don&#39;t live in Vienna !!!</p>\r\n<p>Regards</p>\n      </div>\n      <meta itemprop='interactionCount' content='UserLikes:0'>\n      <meta itemprop='interactionCount' content='UserComments:0'>\n      <meta itemprop='headline' content='Clinical trial in Austria'>\n      <hr>\n  </div>\n  <div itemscope itemtype='http://schema.org/DiscussionForumPosting'>\n      <div class='creator'>\n        <span>\n          <a href='/u/Bettyblue'><b itemprop='author'>Bettyblue</b></a>\n          \n          <time datetime='2014-09-21T21:56:52Z' itemprop='datePublished'>\n            2014-09-21 21:56:52 UTC\n          </time>\n        </span>\n        <span itemprop='position'>#3</span>\n      </div>\n      <div class='post' itemprop='articleBody'>\n        Hi friend. \r\nNo still no rely 3 times i have tryed now. Maybe they only wanna used there own people. Last application said they would get back to me within 2 months so i agree with you they are rather slack with this vaccine.\n      </div>\n      <meta itemprop='interactionCount' content='UserLikes:0'>\n      <meta itemprop='interactionCount' content='UserComments:0'>\n      <meta itemprop='headline' content='Clinical trial in Austria'>\n      <hr>\n  </div>\n  <div itemscope itemtype='http://schema.org/DiscussionForumPosting'>\n      <div class='creator'>\n        <span>\n          <a href='/u/redpoppy'><b itemprop='author'>redpoppy</b></a>\n          \n          <time datetime='2014-10-03T09:22:00Z' itemprop='datePublished'>\n            2014-10-03 09:22:00 UTC\n          </time>\n        </span>\n        <span itemprop='position'>#4</span>\n      </div>\n      <div class='post' itemprop='articleBody'>\n        <p>Hi, Betty,</p>\r\n<p>I heard that you need to be able to speak German, reside in Austria and be newly diagnosed in order to qualify for the trials, so there is no hope for us I am afraid.</p>\r\n<p>X</p>\n      </div>\n      <meta itemprop='interactionCount' content='UserLikes:0'>\n      <meta itemprop='interactionCount' content='UserComments:0'>\n      <meta itemprop='headline' content='Clinical trial in Austria'>\n      <hr>\n  </div>\n  <div itemscope itemtype='http://schema.org/DiscussionForumPosting'>\n      <div class='creator'>\n        <span>\n          <a href='/u/Bettyblue'><b itemprop='author'>Bettyblue</b></a>\n          \n          <time datetime='2014-11-01T00:20:09Z' itemprop='datePublished'>\n            2014-11-01 00:20:09 UTC\n          </time>\n        </span>\n        <span itemprop='position'>#5</span>\n      </div>\n      <div class='post' itemprop='articleBody'>\n        Hi yes it is true they are favoring there own. But there is another option go on the mjf fox trisl finder website and the trial is at UCL in london exenatide is the drug. I am going for and full body MOT on Dec 4. xx\n      </div>\n      <meta itemprop='interactionCount' content='UserLikes:0'>\n      <meta itemprop='interactionCount' content='UserComments:0'>\n      <meta itemprop='headline' content='Clinical trial in Austria'>\n      <hr>\n  </div>\n  <div itemscope itemtype='http://schema.org/DiscussionForumPosting'>\n      <div class='creator'>\n        <span>\n          <a href='/u/AndrewJohn'><b itemprop='author'>AndrewJohn</b></a>\n          \n          <time datetime='2014-11-01T21:32:20Z' itemprop='datePublished'>\n            2014-11-01 21:32:20 UTC\n          </time>\n        </span>\n        <span itemprop='position'>#6</span>\n      </div>\n      <div class='post' itemprop='articleBody'>\n        <p>Details of the Exenatide trial are given on the topic below this, which I posted on 21st September.</p>\r\n<p>You will need to travel to London 8 or 9 times in total, so probably need to live within an hour or two of there. They will reimburse reasonable&nbsp; travel costs, though.</p>\r\n<p>cheers</p>\r\n<p>Andrewjohn</p>\n      </div>\n      <meta itemprop='interactionCount' content='UserLikes:0'>\n      <meta itemprop='interactionCount' content='UserComments:0'>\n      <meta itemprop='headline' content='Clinical trial in Austria'>\n      <hr>\n  </div>\n  <div itemscope itemtype='http://schema.org/DiscussionForumPosting'>\n      <div class='creator'>\n        <span>\n          <a href='/u/wayne'><b itemprop='author'>wayne</b></a>\n          \n          <time datetime='2014-11-14T16:15:51Z' itemprop='datePublished'>\n            2014-11-14 16:15:51 UTC\n          </time>\n        </span>\n        <span itemprop='position'>#7</span>\n      </div>\n      <div class='post' itemprop='articleBody'>\n        <p>hi everyone</p>\r\n<p>Sounds very positive about Exenatide can anyone fill me in newly diagnosed I need to know what options I have.Im 47 diagnosed Jan 2014</p>\n      </div>\n      <meta itemprop='interactionCount' content='UserLikes:0'>\n      <meta itemprop='interactionCount' content='UserComments:0'>\n      <meta itemprop='headline' content='Clinical trial in Austria'>\n      <hr>\n  </div>\n  <div itemscope itemtype='http://schema.org/DiscussionForumPosting'>\n      <div class='creator'>\n        <span>\n          <a href='/u/wayne'><b itemprop='author'>wayne</b></a>\n          \n          <time datetime='2014-11-14T16:19:31Z' itemprop='datePublished'>\n            2014-11-14 16:19:31 UTC\n          </time>\n        </span>\n        <span itemprop='position'>#8</span>\n      </div>\n      <div class='post' itemprop='articleBody'>\n        <p>Sorry good luck bettyblue let me know how you go on</p>\n      </div>\n      <meta itemprop='interactionCount' content='UserLikes:0'>\n      <meta itemprop='interactionCount' content='UserComments:0'>\n      <meta itemprop='headline' content='Clinical trial in Austria'>\n      <hr>\n  </div>\n  <div itemscope itemtype='http://schema.org/DiscussionForumPosting'>\n      <div class='creator'>\n        <span>\n          <a href='/u/Bettyblue'><b itemprop='author'>Bettyblue</b></a>\n          \n          <time datetime='2014-11-14T17:19:36Z' itemprop='datePublished'>\n            2014-11-14 17:19:36 UTC\n          </time>\n        </span>\n        <span itemprop='position'>#9</span>\n      </div>\n      <div class='post' itemprop='articleBody'>\n        <p>hi chicken legend,</p>\r\n<p>you have been diagonsed at roughly the same age as me have you got a good gp and consutant the most important thing to remember is we have to fight against this condition and learn as much as we can handle.</p>\r\n<p>&nbsp;There are loads of Trials on the MJFOX Website to choose from all you need to do is register and they send you all the info regarding trials worldwide. I have gone for the&nbsp;Exenatide trial simpley because they were the first to invite me to an assement. I really hope it works I will offer to go public if it does, if they are willing to give me the drug for the rest of my life. I will update you that&#39;s a promise. Good luck to you and your loved ones hopefully you will find a trial that&#39;s suited to you.</p>\r\n<p>&nbsp;</p>\r\n<p>Kindest Regards BB&nbsp;</p>\n      </div>\n      <meta itemprop='interactionCount' content='UserLikes:0'>\n      <meta itemprop='interactionCount' content='UserComments:0'>\n      <meta itemprop='headline' content='Clinical trial in Austria'>\n      <hr>\n  </div>\n\n\n\n\n\n\n    </div>\n    <footer class=\"container\">\n      <nav class='crawler-nav' itemscope itemtype='http://schema.org/SiteNavigationElement'>\n        <a href='/'>Home</a>\n        <a href=\"/categories\">Categories</a>\n        <a href=\"/guidelines\">FAQ/Guidelines</a>\n        <a href=\"/tos\">Terms of Service</a>\n        <a href=\"/privacy\">Privacy Policy</a>\n      </nav>\n      <p class='powered-by-link'>Powered by <a href=\"https://www.discourse.org\">Discourse</a>, best viewed with JavaScript enabled</p>\n    </footer>\n    \n  </body>\n  \n</html>\n",
  "url": "https://forum.parkinsons.org.uk/t/clinical-trial-in-austria/7669"
}