{
  "contentId": "47e86dc0-8865-11e9-8f96-97f71b5221d6",
  "html": "<!DOCTYPE html>\n<html lang=\"en\">\n  <head>\n    <meta charset=\"utf-8\">\n    <title>Impulse Control Disorder sent my father to prison - Impulsive and compulsive behaviour - Parkinson&#39;s UK Forum</title>\n    <meta name=\"description\" content=\"This is a WARNING that hopefully many PD patients and carers will now know about… \nImpulse control disorders (ICD) are frequent side effects of dopamine replacement therapy (DRT) used in Parkinson’s disease (PD) with dev&amp;hellip;\">\n    <meta name=\"author\" content=\"\">\n<meta name=\"generator\" content=\"Discourse 2.2.5 - https://github.com/discourse/discourse version c294ff3609f988dcafb742e91606d60ca13b794d\">\n<link rel=\"icon\" type=\"image/png\" href=\"https://forum.parkinsons.org.uk/uploads/db7928/original/2X/3/311fc84f89f49f38601a2f16b295b6f03d3ce5dd.jpg\">\n<link rel=\"apple-touch-icon\" type=\"image/png\" href=\"https://forum.parkinsons.org.uk/uploads/db7928/original/2X/3/311fc84f89f49f38601a2f16b295b6f03d3ce5dd.jpg\">\n<meta name=\"theme-color\" content=\"#ffffff\">\n<meta name=\"viewport\" content=\"width=device-width, minimum-scale=1.0, maximum-scale=1.0, user-scalable=yes\">\n<link rel=\"canonical\" href=\"https://forum.parkinsons.org.uk/t/impulse-control-disorder-sent-my-father-to-prison/17889\" />\n<script type=\"application/ld+json\">{\"@context\":\"http://schema.org\",\"@type\":\"WebSite\",\"url\":\"https://forum.parkinsons.org.uk\",\"potentialAction\":{\"@type\":\"SearchAction\",\"target\":\"https://forum.parkinsons.org.uk/search?q={search_term_string}\",\"query-input\":\"required name=search_term_string\"}}</script>\n<link rel=\"search\" type=\"application/opensearchdescription+xml\" href=\"https://forum.parkinsons.org.uk/opensearch.xml\" title=\"Parkinson&#39;s UK Forum Search\">\n\n      <link href=\"/stylesheets/desktop_f99246ae801b083d3e4cca979d0dade8615b39ac.css?__ws=forum.parkinsons.org.uk\" media=\"all\" rel=\"stylesheet\" data-target=\"desktop\" data-theme-id=\"12\"/>\n      <link href=\"/stylesheets/desktop_theme_12_5d27531cf43f9df0c03a6a6ec3109dd05f9dfc49.css?__ws=forum.parkinsons.org.uk\" media=\"all\" rel=\"stylesheet\" data-target=\"desktop_theme\" data-theme-id=\"12\"/>\n    <link href=\"https://fonts.googleapis.com/css?family=Open+Sans\" rel=\"stylesheet\">\n\n    <meta id=\"data-ga-universal-analytics\" data-tracking-code=\"UA-4855628-1\" data-json=\"{&quot;cookieDomain&quot;:&quot;auto&quot;}\" data-auto-link-domains=\"\">\n\n<link rel='preload' href='/assets/google-universal-analytics-f35b4da49411e6f5559073523aab983da483976a3954c79c756f8579f6fbd6ef.js' as='script'/>\n<script src='/assets/google-universal-analytics-f35b4da49411e6f5559073523aab983da483976a3954c79c756f8579f6fbd6ef.js'></script>\n\n      <link rel=\"alternate\" type=\"application/rss+xml\" title=\"RSS feed of &#39;Impulse Control Disorder sent my father to prison&#39;\" href=\"https://forum.parkinsons.org.uk/t/impulse-control-disorder-sent-my-father-to-prison/17889.rss\" />\n  <meta property=\"og:site_name\" content=\"Parkinson&#39;s UK Forum\" />\n<meta name=\"twitter:card\" content=\"summary\" />\n<meta name=\"twitter:image\" content=\"https://forum.parkinsons.org.uk/uploads/db7928/original/2X/3/311fc84f89f49f38601a2f16b295b6f03d3ce5dd.jpg\" />\n<meta property=\"og:image\" content=\"https://forum.parkinsons.org.uk/uploads/db7928/original/2X/3/311fc84f89f49f38601a2f16b295b6f03d3ce5dd.jpg\" />\n<meta property=\"og:url\" content=\"https://forum.parkinsons.org.uk/t/impulse-control-disorder-sent-my-father-to-prison/17889\" />\n<meta name=\"twitter:url\" content=\"https://forum.parkinsons.org.uk/t/impulse-control-disorder-sent-my-father-to-prison/17889\" />\n<meta property=\"og:title\" content=\"Impulse Control Disorder sent my father to prison\" />\n<meta name=\"twitter:title\" content=\"Impulse Control Disorder sent my father to prison\" />\n<meta property=\"og:description\" content=\"This is a WARNING that hopefully many PD patients and carers will now know about…  Impulse control disorders (ICD) are frequent side effects of dopamine replacement therapy (DRT) used in Parkinson’s disease (PD) with devastating consequences on both the patients and caregivers.  ICD unfortunately seem to be a massive taboo subject and very difficult for patients and carers and the general public to talk about as they involve behavioural addictions including compulsive gambling, shopping, sexual ...\" />\n<meta name=\"twitter:description\" content=\"This is a WARNING that hopefully many PD patients and carers will now know about…  Impulse control disorders (ICD) are frequent side effects of dopamine replacement therapy (DRT) used in Parkinson’s disease (PD) with devastating consequences on both the patients and caregivers.  ICD unfortunately seem to be a massive taboo subject and very difficult for patients and carers and the general public to talk about as they involve behavioural addictions including compulsive gambling, shopping, sexual ...\" />\n<meta name=\"twitter:label1\" value=\"Reading time\" />\n<meta name=\"twitter:data1\" value=\"3 mins \uD83D\uDD51\" />\n<meta name=\"twitter:label2\" value=\"Likes\" />\n<meta name=\"twitter:data2\" value=\"3 ❤\" />\n<meta property=\"article:published_time\" content=\"2019-02-07T11:56:37+00:00\" />\n<meta property=\"og:ignore_canonical\" content=\"true\" />\n\n\n\n    \n  </head>\n  <body class=\"crawler\">\n    <header role=\"banner\">\n    <div class=\"region region-header\">\n        <div class=\"region-header-wrapper\">\n            <div id=\"block-parkinsons-d8-branding\" class=\"block block-system block-system-branding-block\">\n                <a href=\"/\" title=\"Home\" rel=\"home\" class=\"site-logo\">\n                    <img src=\"https://forum.parkinsons.org.uk/uploads/db7928/original/2X/8/862bb7d172e7d127e7f3e147ec43594aa62ac945.png\" alt=\"Parkinson's UK. Change Attitudes. Find a cure. Join us.\">\n                </a>\n            </div>\n            <div id=\"block-helpline\" class=\"block block-block-content block-block-content871cd5af-b938-4947-9dc0-d5c211d08fe3 style-phone\">\n                <div class=\"field field--name-field-link field--type-link field--label-hidden field__item\"><a href=\"tel:+448088000303\">Helpline 0808 800 0303</a></div>\n            </div>\n            <div id=\"block-shop\" class=\"block block-block-content block-block-content6fba5ae5-7797-49cd-8367-f321d8111cd6 style-regular\">\n                <div class=\"field field--name-field-link field--type-link field--label-hidden field__item\"><a href=\"https://shop.parkinsons.org.uk\">Shop</a></div>\n            </div>\n        </div>\n    </div>\n</header>\n\n\n<script src=\"/theme-javascripts/b7e9763fcb584fc8265c56a9f557cd6d2e1e8ed8.js?__ws=forum.parkinsons.org.uk\"></script>\n    <header>\n      <a href=\"/\">\n          <img src=\"https://forum.parkinsons.org.uk/uploads/db7928/original/2X/8/862bb7d172e7d127e7f3e147ec43594aa62ac945.png\" alt=\"Parkinson&#39;s UK Forum\" id=\"site-logo\" style=\"max-width: 150px;\">\n      </a>\n    </header>\n    <div id=\"main-outlet\" class=\"wrap\">\n      <h1>\n  <a href=\"/t/impulse-control-disorder-sent-my-father-to-prison/17889\">Impulse Control Disorder sent my father to prison</a>\n</h1>\n\n<div id='breadcrumbs'>\n    <div id=\"breadcrumb-0\" itemscope itemtype=\"http://data-vocabulary.org/Breadcrumb\"\n        itemref=\"breadcrumb-1\"\n      >\n      <a href=\"/c/about-parkinsons-and-health\" itemprop=\"url\">\n        <span itemprop=\"title\">About Parkinson&#39;s and health</span>\n      </a>\n    </div>\n    <div id=\"breadcrumb-1\" itemscope itemtype=\"http://data-vocabulary.org/Breadcrumb\"\n>\n      <a href=\"/c/about-parkinsons-and-health/impulsive-and-compulsive-behaviour\" itemprop=\"url\">\n        <span itemprop=\"title\">Impulsive and compulsive behaviour</span>\n      </a>\n    </div>\n</div>\n\n\n\n\n\n<hr>\n\n\n  <div itemscope itemtype='http://schema.org/DiscussionForumPosting'>\n      <div class='creator'>\n        <span>\n          <a href='/u/OneStar'><b itemprop='author'>OneStar</b></a>\n          \n          <time datetime='2019-02-07T11:56:37Z' itemprop='datePublished'>\n            2019-02-07 11:56:37 UTC\n          </time>\n        </span>\n        <span itemprop='position'>#1</span>\n      </div>\n      <div class='post' itemprop='articleBody'>\n        <p>This is a <strong>WARNING</strong> that hopefully many PD patients and carers will now know about…</p>\n<p>Impulse control disorders (ICD) are frequent side effects of dopamine replacement therapy (DRT) used in Parkinson’s disease (PD) with devastating consequences on both the patients and caregivers.</p>\n<p>ICD unfortunately seem to be a massive taboo subject and very difficult for patients and carers and the general public to talk about as they involve behavioural addictions including compulsive gambling, shopping, sexual behaviour, and binge eating. All mainly associated with dopamine D2/D3 agonists. Their management is a real clinical challenge due to the lack of medicated alternatives for PD patients.</p>\n<p>Clinical studies have shown that there are clinical risk factors for ICD such as younger age at disease onset, male gender, prior history of depression or substance abuse, REM sleep behaviour disorders and higher rate of dyskinesia. Sadly all of these applied to my dear father and he began to develop the ICD side effects in 2010-2012.</p>\n<p>Specific evaluation tools have now been designed to better evaluate the severity and impact of ICD in PD. Unfortunately in 2010-2012 when my father was (unknowingly to him or us) displaying the behaviours, assessments and medical knowledge of the side effects were not available. Staff were ill-equipped to properly assess my father which subsequently led him down a road of destruction. Patients with ICD display altered processing of reward and loss, and decisional bias associated with altered activity in cortical and subcortical areas of the brain.</p>\n<p>In 2012, my father was experiencing extreme physical debilitating PD symptoms on his current medication and so qualified for a PEJ to be fitted at Kings College Hospital in London so that Duodopa could be administered. It was at this point that he realised what had happened. My father regained some independence and his mind and thinking was altered back to normal. He described the experience as coming out of a torturous fog. However, coming out of the fog came with its catastrophic consequences. He realised what had happened and went with my mother to the police station.</p>\n<p>Horrifically after an arduous court case spanning over months and months, in 2017 my father was sentenced to 8 years imprisonment for a disease and the medication that was supposed to help him!</p>\n<p>It is a cruel outcome and my father has been grossly let down by the lack of medical understanding in the justice system. Fortunately we are a supportive and loving family and we have done our research and found that his is not to blame and the justice system needs to update its links with medicine.</p>\n<p>I intend to do anything I can to ensure that other families are aware of these devastating side effects and don’t succumb to the same pain, torment and suffering that we are all going through.</p>\n      </div>\n      <meta itemprop='interactionCount' content='UserLikes:1'>\n      <meta itemprop='interactionCount' content='UserComments:0'>\n      <meta itemprop='headline' content='Impulse Control Disorder sent my father to prison'>\n      <hr>\n  </div>\n  <div itemscope itemtype='http://schema.org/DiscussionForumPosting'>\n      <div class='creator'>\n        <span>\n          <a href='/u/Reah'><b itemprop='author'>Reah</b></a>\n          \n          <time datetime='2019-02-08T18:23:11Z' itemprop='datePublished'>\n            2019-02-08 18:23:11 UTC\n          </time>\n        </span>\n        <span itemprop='position'>#2</span>\n      </div>\n      <div class='post' itemprop='articleBody'>\n        <p>Hi <a class=\"mention\" href=\"/u/onestar\">@OneStar</a>,</p>\n<p>First of all, my thoughts go out to you and you family, what has happened to your dad is absolutely devastating. Secondly, you are right about ICD, a lot of people do not realise that impulsive and compulsive behaviour is a possible side effect of some Parkinson’s drugs. We have extensive information on this topic on our website for this reason. If you’d like to share this information, you can find it here - <a href=\"https://www.parkinsons.org.uk/information-and-support/impulsive-and-compulsive-behaviour\">https://www.parkinsons.org.uk/information-and-support/impulsive-and-compulsive-behaviour</a></p>\n<p>This is really an unfortunate outcome for you and your family and it wouldn’t be surprising if this affected you emotionally. Therefore, you might find it helpful to speak to someone about this either via our helpline or a local adviser. You can find information on both here - <a href=\"https://www.parkinsons.org.uk/information-and-support/helpline-and-local-advisers\">https://www.parkinsons.org.uk/information-and-support/helpline-and-local-advisers</a></p>\n<p>Do take care.</p>\n<p>Best wishes,<br>\nReah</p>\n      </div>\n      <meta itemprop='interactionCount' content='UserLikes:0'>\n      <meta itemprop='interactionCount' content='UserComments:1'>\n      <meta itemprop='headline' content='Impulse Control Disorder sent my father to prison'>\n      <hr>\n  </div>\n  <div itemscope itemtype='http://schema.org/DiscussionForumPosting'>\n      <div class='creator'>\n        <span>\n          <a href='/u/goldengirl'><b itemprop='author'>goldengirl</b></a>\n          \n          <time datetime='2019-02-08T21:03:17Z' itemprop='datePublished'>\n            2019-02-08 21:03:17 UTC\n          </time>\n        </span>\n        <span itemprop='position'>#3</span>\n      </div>\n      <div class='post' itemprop='articleBody'>\n        <p>Hi Reah,<br>\nThe info you refer OneStar to states, ’ Only a small number of people are affected …’…Please note the latest French research puts it at 50% of patients on a therapeutic dose of DAs.<br>\nThe Mayo Clinic published devastating research results in 2010…<br>\nThe greed of the drug companies will keep this information out of the public gaze.<br>\nI understand their profit-driven motives but PDUK has never challenged the horrific destruction they have inflicted on Parkinson’s patients or their families.<br>\nTens of thousands of lives ruined over 20 years and never a legal challenge in the U.K.,unlike the USA, France and Australia.<br>\nWhy did you never support us?<br>\nGG</p>\n      </div>\n      <meta itemprop='interactionCount' content='UserLikes:0'>\n      <meta itemprop='interactionCount' content='UserComments:0'>\n      <meta itemprop='headline' content='Impulse Control Disorder sent my father to prison'>\n      <hr>\n  </div>\n  <div itemscope itemtype='http://schema.org/DiscussionForumPosting'>\n      <div class='creator'>\n        <span>\n          <a href='/u/Ken2468'><b itemprop='author'>Ken2468</b></a>\n          \n          <time datetime='2019-02-11T23:12:49Z' itemprop='datePublished'>\n            2019-02-11 23:12:49 UTC\n          </time>\n        </span>\n        <span itemprop='position'>#4</span>\n      </div>\n      <div class='post' itemprop='articleBody'>\n        <p>I totally agree with you I got myself in loads of trouble because of the pd medication, I was on 18mg of requip xl a day</p>\n      </div>\n      <meta itemprop='interactionCount' content='UserLikes:0'>\n      <meta itemprop='interactionCount' content='UserComments:1'>\n      <meta itemprop='headline' content='Impulse Control Disorder sent my father to prison'>\n      <hr>\n  </div>\n  <div itemscope itemtype='http://schema.org/DiscussionForumPosting'>\n      <div class='creator'>\n        <span>\n          <a href='/u/Jamesvana'><b itemprop='author'>Jamesvana</b></a>\n          \n          <time datetime='2019-02-12T11:06:27Z' itemprop='datePublished'>\n            2019-02-12 11:06:27 UTC\n          </time>\n        </span>\n        <span itemprop='position'>#5</span>\n      </div>\n      <div class='post' itemprop='articleBody'>\n        <p>Hi Onestar,</p>\n<p>Sincerely sorry to hear this and must be awful.</p>\n<p>Can I ask if you or others are aware to how long before symptoms of ICD can appear? Are there any specific medications that have been linked to ICD that you are aware to? or is it any/ all of them?</p>\n<p>Very nervous after seeing that younger onset seems to have more chance of this happening with the meds.</p>\n      </div>\n      <meta itemprop='interactionCount' content='UserLikes:0'>\n      <meta itemprop='interactionCount' content='UserComments:1'>\n      <meta itemprop='headline' content='Impulse Control Disorder sent my father to prison'>\n      <hr>\n  </div>\n  <div itemscope itemtype='http://schema.org/DiscussionForumPosting'>\n      <div class='creator'>\n        <span>\n          <a href='/u/OneStar'><b itemprop='author'>OneStar</b></a>\n          \n          <time datetime='2019-02-12T11:07:01Z' itemprop='datePublished'>\n            2019-02-12 11:07:01 UTC\n          </time>\n        </span>\n        <span itemprop='position'>#6</span>\n      </div>\n      <div class='post' itemprop='articleBody'>\n        <p>Hi Ken2468.</p>\n<p>I am so sorry to hear you have suffered the devastating ICD side effects aswell. I hope you are ok now and managing your PD symptoms with other medication?</p>\n<p>May I ask how your ICD symptoms came to light? I’d like to know if medical screening has improved now? My father was just simply asked in the consultation room with the PD consultant or the PD nurse if he was experiencing hyper sexuality or increased desire in any activities. As my father wasn’t aware of the damage that the ICD symptoms were causing or the severity of the desires, he used to either deny the side effects or down play them. Sadly it is very difficult for PD patients at this stage to realise they are even displaying the ICD symptoms because the reward system in the brain is stimulated to such a degree that the actions feel good and the desire to repeat the action is so great. Therefore PD sufferers do not wish to disclose the behaviours because their brains are being filled with so much pleasure that they do not see a fault. Its a devastating and confusing side effect that unfortunately is not highlighted enough. Please know that you are not alone and it is far more common than people realise.</p>\n<p>I am astounded that it is so common and yet people are still being incarcerated for it. Initially when i contacted PD UK 3 years ago they offered me telephone counselling. This is fine and very kind but it did not help my father escape a prison sentence. Ultimately, he is serving a sentence for a disease.</p>\n<p>The NHS and the drug company took no responsibility for their actions.</p>\n      </div>\n      <meta itemprop='interactionCount' content='UserLikes:1'>\n      <meta itemprop='interactionCount' content='UserComments:0'>\n      <meta itemprop='headline' content='Impulse Control Disorder sent my father to prison'>\n      <hr>\n  </div>\n  <div itemscope itemtype='http://schema.org/DiscussionForumPosting'>\n      <div class='creator'>\n        <span>\n          <a href='/u/Ken2468'><b itemprop='author'>Ken2468</b></a>\n          \n          <time datetime='2019-02-12T11:55:03Z' itemprop='datePublished'>\n            2019-02-12 11:55:03 UTC\n          </time>\n        </span>\n        <span itemprop='position'>#7</span>\n      </div>\n      <div class='post' itemprop='articleBody'>\n        <p>I was in the police cells all weekend for the 2nd time and without my medication, so without it being in my system I realised that it was the medication that was making me send my girlfriend nasty text and accusations, and I had to keep going to my doctor and she would keep sending my consultant letters telling him my concerns, then we got a Parkinson’s nurse and I explained to her the urges I was getting and eventually got my medication changed. Then I got a new consultant who told me he was getting me off the requip because it gave bad impulse behaviour.</p>\n      </div>\n      <meta itemprop='interactionCount' content='UserLikes:0'>\n      <meta itemprop='interactionCount' content='UserComments:0'>\n      <meta itemprop='headline' content='Impulse Control Disorder sent my father to prison'>\n      <hr>\n  </div>\n  <div itemscope itemtype='http://schema.org/DiscussionForumPosting'>\n      <div class='creator'>\n        <span>\n          <a href='/u/OneStar'><b itemprop='author'>OneStar</b></a>\n          \n          <time datetime='2019-02-12T14:54:01Z' itemprop='datePublished'>\n            2019-02-12 14:54:01 UTC\n          </time>\n        </span>\n        <span itemprop='position'>#8</span>\n      </div>\n      <div class='post' itemprop='articleBody'>\n        <p>Hi Jamesvana</p>\n<p>Thanks for your message. Im sorry to read you have early onset PD. Although there are risk factors that should be seriously considered, please know that the ICD symptoms do not effect everyone. You are wise to question it though and i would highly recommend you having an open and frank discussion with the PD nurse and consultant asap. And please please attend the clinic appointment with a caregiver/partner. Often the symptoms are not depicted in the same way by the patient as they are the caregiver. Do read the link below if you’re interested?</p>\n<p>Unfortunately the crimes my father was committing were over the period of 2 years when my father had reached a peak in his medication. Due to the nature of the side effects, the actions became very secretive and he didn’t realise how damaging the behaviours were. If you met my father pre PD and ICD you would be shocked. He was a kind normal man with a full time job and a young family. He slowly transformed into a different unrecognisable man. He became very reclusive and defensive if you challenged him about anything. We have now realised he didn’t just display one ICD. When he was at his worst, he also displayed punding (would take things apart and then rebuild through the night), excessive eating (packets and packets of chocolate and biscuits especially in the night), excessive shopping (thousands of debt for my mother)…the list goes on. Unfortunately we were uneducated and unsupported and we made naive excuses for his behaviour. We had not been informed about ICD side effects to look out for. My father was immobile most of the time as his “off periods” were severe…dribbling, unable to swallow safely, unable to breathe comfortably etc. He sipped through a straw, my brother used to help him to the toilet…etc. My father had reached a stage in the disease where it was not manageable. so when he had his periods of being “on” and able to eat a biscuit or work on his car or buy a new piece of electrical equipment, we allowed and accepted it. It took years before we all realised what was happening. My mother took away the credit card in the hope that he would stop spending. however we didn’t realise that he was suffering with hyper sexuality beyond measure and this was most damaging of all. Unfortunately we just thought that the PD had changed his behaviour. We didn’t realise he was suffering from ICD.</p>\n<p>My advice would be to attend every clinic appointment and with the support of a partner/someone that lives with you and have very frank discussions about ICD. There is so much on the internet and also on PDUK about ICD so hopefully medical professionals are better equipped now to support potential sufferers.</p>\n<p>Take Care</p>\n<aside class=\"onebox pdf\">\n  <header class=\"source\">\n      <a href=\"https://www.ean.org/fileadmin/user_upload/CME_Article_2015_April.pdf\" target=\"_blank\" rel=\"nofollow noopener\">ean.org</a>\n  </header>\n  <article class=\"onebox-body\">\n    <a href=\"https://www.ean.org/fileadmin/user_upload/CME_Article_2015_April.pdf\" target=\"_blank\" rel=\"nofollow noopener\"><span class=\"pdf-onebox-logo\"></span></a>\n<h3><a href=\"https://www.ean.org/fileadmin/user_upload/CME_Article_2015_April.pdf\" target=\"_blank\" rel=\"nofollow noopener\">CME_Article_2015_April.pdf</a></h3>\n\n<p class=\"filesize\">463.76 KB</p>\n\n  </article>\n  <div class=\"onebox-metadata\">\n    \n    \n  </div>\n  <div style=\"clear: both\"></div>\n</aside>\n\n<aside class=\"onebox whitelistedgeneric\">\n  <header class=\"source\">\n      <img src=\"https://forum.parkinsons.org.uk/uploads/db7928/original/2X/8/878af813f4dcd144650022415460a6834f7fc35b.png\" class=\"site-icon\" width=\"152\" height=\"152\">\n      <a href=\"https://www.rewardfoundation.org/brain-basics/reward-system/\" target=\"_blank\" rel=\"nofollow noopener\">The Reward Foundation</a>\n  </header>\n  <article class=\"onebox-body\">\n    <div class=\"aspect-image\" style=\"--aspect-ratio:690/446;\"><img src=\"https://forum.parkinsons.org.uk/uploads/db7928/original/2X/0/03dafa64b08adc33f6bcde5f859799e8aee42a47.png\" class=\"thumbnail\"></div>\n\n<h3><a href=\"https://www.rewardfoundation.org/brain-basics/reward-system/\" target=\"_blank\" rel=\"nofollow noopener\">Brain basics: reward system drives our behaviour| Reward Foundation</a></h3>\n\n<p>The reward system centered on the striatum drives our behaviour and uses dopamine to create wanting towards novelty and sources of pleasure.</p>\n\n\n  </article>\n  <div class=\"onebox-metadata\">\n    \n    \n  </div>\n  <div style=\"clear: both\"></div>\n</aside>\n\n<p><a href=\"https://www.nice.org.uk/guidance/ng71/evidence/full-guideline-pdf-4538466253\" class=\"onebox\" target=\"_blank\" rel=\"nofollow noopener\">https://www.nice.org.uk/guidance/ng71/evidence/full-guideline-pdf-4538466253</a></p>\n      </div>\n      <meta itemprop='interactionCount' content='UserLikes:1'>\n      <meta itemprop='interactionCount' content='UserComments:0'>\n      <meta itemprop='headline' content='Impulse Control Disorder sent my father to prison'>\n      <hr>\n  </div>\n\n\n\n\n\n\n    </div>\n    <footer class=\"container\">\n      <nav class='crawler-nav' itemscope itemtype='http://schema.org/SiteNavigationElement'>\n        <a href='/'>Home</a>\n        <a href=\"/categories\">Categories</a>\n        <a href=\"/guidelines\">FAQ/Guidelines</a>\n        <a href=\"/tos\">Terms of Service</a>\n        <a href=\"/privacy\">Privacy Policy</a>\n      </nav>\n      <p class='powered-by-link'>Powered by <a href=\"https://www.discourse.org\">Discourse</a>, best viewed with JavaScript enabled</p>\n    </footer>\n    \n  </body>\n  \n</html>\n",
  "url": "https://forum.parkinsons.org.uk/t/impulse-control-disorder-sent-my-father-to-prison/17889"
}