{
  "contentId": "52f90dd0-886c-11e9-8f96-97f71b5221d6",
  "html": "<!DOCTYPE html>\n<html lang=\"en\">\n  <head>\n    <meta charset=\"utf-8\">\n    <title>Cars - Carers, friends and family - Parkinson&#39;s UK Forum</title>\n    <meta name=\"description\" content=\"Hi everyone \nAny recommendations for cars that are easier to get in and out of?  Also any features you’d recommend (automatic, parking brake ++?)  Husband has Parkinsons and I have a bad back.  2 kids aged 4 and 5 so we &amp;hellip;\">\n    <meta name=\"author\" content=\"\">\n<meta name=\"generator\" content=\"Discourse 2.2.5 - https://github.com/discourse/discourse version c294ff3609f988dcafb742e91606d60ca13b794d\">\n<link rel=\"icon\" type=\"image/png\" href=\"https://forum.parkinsons.org.uk/uploads/db7928/original/2X/3/311fc84f89f49f38601a2f16b295b6f03d3ce5dd.jpg\">\n<link rel=\"apple-touch-icon\" type=\"image/png\" href=\"https://forum.parkinsons.org.uk/uploads/db7928/original/2X/3/311fc84f89f49f38601a2f16b295b6f03d3ce5dd.jpg\">\n<meta name=\"theme-color\" content=\"#ffffff\">\n<meta name=\"viewport\" content=\"width=device-width, minimum-scale=1.0, maximum-scale=1.0, user-scalable=yes\">\n<link rel=\"canonical\" href=\"https://forum.parkinsons.org.uk/t/cars/16500\" />\n<script type=\"application/ld+json\">{\"@context\":\"http://schema.org\",\"@type\":\"WebSite\",\"url\":\"https://forum.parkinsons.org.uk\",\"potentialAction\":{\"@type\":\"SearchAction\",\"target\":\"https://forum.parkinsons.org.uk/search?q={search_term_string}\",\"query-input\":\"required name=search_term_string\"}}</script>\n<link rel=\"search\" type=\"application/opensearchdescription+xml\" href=\"https://forum.parkinsons.org.uk/opensearch.xml\" title=\"Parkinson&#39;s UK Forum Search\">\n\n      <link href=\"/stylesheets/desktop_f99246ae801b083d3e4cca979d0dade8615b39ac.css?__ws=forum.parkinsons.org.uk\" media=\"all\" rel=\"stylesheet\" data-target=\"desktop\" data-theme-id=\"12\"/>\n      <link href=\"/stylesheets/desktop_theme_12_5d27531cf43f9df0c03a6a6ec3109dd05f9dfc49.css?__ws=forum.parkinsons.org.uk\" media=\"all\" rel=\"stylesheet\" data-target=\"desktop_theme\" data-theme-id=\"12\"/>\n    <link href=\"https://fonts.googleapis.com/css?family=Open+Sans\" rel=\"stylesheet\">\n\n    <meta id=\"data-ga-universal-analytics\" data-tracking-code=\"UA-4855628-1\" data-json=\"{&quot;cookieDomain&quot;:&quot;auto&quot;}\" data-auto-link-domains=\"\">\n\n<link rel='preload' href='/assets/google-universal-analytics-f35b4da49411e6f5559073523aab983da483976a3954c79c756f8579f6fbd6ef.js' as='script'/>\n<script src='/assets/google-universal-analytics-f35b4da49411e6f5559073523aab983da483976a3954c79c756f8579f6fbd6ef.js'></script>\n\n      <link rel=\"alternate\" type=\"application/rss+xml\" title=\"RSS feed of &#39;Cars&#39;\" href=\"https://forum.parkinsons.org.uk/t/cars/16500.rss\" />\n  <meta property=\"og:site_name\" content=\"Parkinson&#39;s UK Forum\" />\n<meta name=\"twitter:card\" content=\"summary\" />\n<meta name=\"twitter:image\" content=\"https://forum.parkinsons.org.uk/uploads/db7928/original/2X/3/311fc84f89f49f38601a2f16b295b6f03d3ce5dd.jpg\" />\n<meta property=\"og:image\" content=\"https://forum.parkinsons.org.uk/uploads/db7928/original/2X/3/311fc84f89f49f38601a2f16b295b6f03d3ce5dd.jpg\" />\n<meta property=\"og:url\" content=\"https://forum.parkinsons.org.uk/t/cars/16500\" />\n<meta name=\"twitter:url\" content=\"https://forum.parkinsons.org.uk/t/cars/16500\" />\n<meta property=\"og:title\" content=\"Cars\" />\n<meta name=\"twitter:title\" content=\"Cars\" />\n<meta property=\"og:description\" content=\"Hi everyone  Any recommendations for cars that are easier to get in and out of?  Also any features you’d recommend (automatic, parking brake ++?)  Husband has Parkinsons and I have a bad back.  2 kids aged 4 and 5 so we need minimum 5 seats.  Thanks!\" />\n<meta name=\"twitter:description\" content=\"Hi everyone  Any recommendations for cars that are easier to get in and out of?  Also any features you’d recommend (automatic, parking brake ++?)  Husband has Parkinsons and I have a bad back.  2 kids aged 4 and 5 so we need minimum 5 seats.  Thanks!\" />\n<meta property=\"article:published_time\" content=\"2018-11-06T22:47:25+00:00\" />\n<meta property=\"og:ignore_canonical\" content=\"true\" />\n\n\n\n    \n  </head>\n  <body class=\"crawler\">\n    <header role=\"banner\">\n    <div class=\"region region-header\">\n        <div class=\"region-header-wrapper\">\n            <div id=\"block-parkinsons-d8-branding\" class=\"block block-system block-system-branding-block\">\n                <a href=\"/\" title=\"Home\" rel=\"home\" class=\"site-logo\">\n                    <img src=\"https://forum.parkinsons.org.uk/uploads/db7928/original/2X/8/862bb7d172e7d127e7f3e147ec43594aa62ac945.png\" alt=\"Parkinson's UK. Change Attitudes. Find a cure. Join us.\">\n                </a>\n            </div>\n            <div id=\"block-helpline\" class=\"block block-block-content block-block-content871cd5af-b938-4947-9dc0-d5c211d08fe3 style-phone\">\n                <div class=\"field field--name-field-link field--type-link field--label-hidden field__item\"><a href=\"tel:+448088000303\">Helpline 0808 800 0303</a></div>\n            </div>\n            <div id=\"block-shop\" class=\"block block-block-content block-block-content6fba5ae5-7797-49cd-8367-f321d8111cd6 style-regular\">\n                <div class=\"field field--name-field-link field--type-link field--label-hidden field__item\"><a href=\"https://shop.parkinsons.org.uk\">Shop</a></div>\n            </div>\n        </div>\n    </div>\n</header>\n\n\n<script src=\"/theme-javascripts/b7e9763fcb584fc8265c56a9f557cd6d2e1e8ed8.js?__ws=forum.parkinsons.org.uk\"></script>\n    <header>\n      <a href=\"/\">\n          <img src=\"https://forum.parkinsons.org.uk/uploads/db7928/original/2X/8/862bb7d172e7d127e7f3e147ec43594aa62ac945.png\" alt=\"Parkinson&#39;s UK Forum\" id=\"site-logo\" style=\"max-width: 150px;\">\n      </a>\n    </header>\n    <div id=\"main-outlet\" class=\"wrap\">\n      <h1>\n  <a href=\"/t/cars/16500\">Cars</a>\n</h1>\n\n<div id='breadcrumbs'>\n    <div id=\"breadcrumb-0\" itemscope itemtype=\"http://data-vocabulary.org/Breadcrumb\"\n        itemref=\"breadcrumb-1\"\n      >\n      <a href=\"/c/living-with-parkinsons\" itemprop=\"url\">\n        <span itemprop=\"title\">Living with Parkinson&#39;s</span>\n      </a>\n    </div>\n    <div id=\"breadcrumb-1\" itemscope itemtype=\"http://data-vocabulary.org/Breadcrumb\"\n>\n      <a href=\"/c/living-with-parkinsons/carers-friends-and-family\" itemprop=\"url\">\n        <span itemprop=\"title\">Carers, friends and family</span>\n      </a>\n    </div>\n</div>\n\n\n\n\n\n<hr>\n\n\n  <div itemscope itemtype='http://schema.org/DiscussionForumPosting'>\n      <div class='creator'>\n        <span>\n          <a href='/u/RMH'><b itemprop='author'>RMH</b></a>\n          \n          <time datetime='2018-11-06T22:47:25Z' itemprop='datePublished'>\n            2018-11-06 22:47:25 UTC\n          </time>\n        </span>\n        <span itemprop='position'>#1</span>\n      </div>\n      <div class='post' itemprop='articleBody'>\n        <p>Hi everyone</p>\n<p>Any recommendations for cars that are easier to get in and out of?  Also any features you’d recommend (automatic, parking brake ++?)  Husband has Parkinsons and I have a bad back.  2 kids aged 4 and 5 so we need minimum 5 seats.</p>\n<p>Thanks!</p>\n      </div>\n      <meta itemprop='interactionCount' content='UserLikes:0'>\n      <meta itemprop='interactionCount' content='UserComments:0'>\n      <meta itemprop='headline' content='Cars'>\n      <hr>\n  </div>\n  <div itemscope itemtype='http://schema.org/DiscussionForumPosting'>\n      <div class='creator'>\n        <span>\n          <a href='/u/Reah'><b itemprop='author'>Reah</b></a>\n          \n          <time datetime='2018-11-07T11:55:14Z' itemprop='datePublished'>\n            2018-11-07 11:55:14 UTC\n          </time>\n        </span>\n        <span itemprop='position'>#2</span>\n      </div>\n      <div class='post' itemprop='articleBody'>\n        <p>Hi <a class=\"mention\" href=\"/u/rmh\">@RMH</a>,</p>\n<p>Welcome to the forum. <img src=\"https://forum.parkinsons.org.uk/images/emoji/twitter/slightly_smiling_face.png?v=6\" title=\":slightly_smiling_face:\" class=\"emoji\" alt=\":slightly_smiling_face:\"></p>\n<p>I’m sure you’ll receive some helpful tips from our members soon. However, in the meantime, you can check out the ‘Driving’ section on our website for advice on how make driving easier and safer. You can find this information here - <a href=\"https://www.parkinsons.org.uk/information-and-support/vehicle-adaptations-and-exemptions\">https://www.parkinsons.org.uk/information-and-support/vehicle-adaptations-and-exemptions</a></p>\n<p>I hope this helps!</p>\n<p>Best wishes,<br>\nReah</p>\n      </div>\n      <meta itemprop='interactionCount' content='UserLikes:0'>\n      <meta itemprop='interactionCount' content='UserComments:1'>\n      <meta itemprop='headline' content='Cars'>\n      <hr>\n  </div>\n  <div itemscope itemtype='http://schema.org/DiscussionForumPosting'>\n      <div class='creator'>\n        <span>\n          <a href='/u/RMH'><b itemprop='author'>RMH</b></a>\n          \n          <time datetime='2018-11-07T22:00:11Z' itemprop='datePublished'>\n            2018-11-07 22:00:11 UTC\n          </time>\n        </span>\n        <span itemprop='position'>#3</span>\n      </div>\n      <div class='post' itemprop='articleBody'>\n        <p>Great thank you Reah!</p>\n      </div>\n      <meta itemprop='interactionCount' content='UserLikes:1'>\n      <meta itemprop='interactionCount' content='UserComments:0'>\n      <meta itemprop='headline' content='Cars'>\n      <hr>\n  </div>\n  <div itemscope itemtype='http://schema.org/DiscussionForumPosting'>\n      <div class='creator'>\n        <span>\n          <a href='/u/jps1926'><b itemprop='author'>jps1926</b></a>\n          \n          <time datetime='2018-11-09T01:38:15Z' itemprop='datePublished'>\n            2018-11-09 01:38:15 UTC\n          </time>\n        </span>\n        <span itemprop='position'>#4</span>\n      </div>\n      <div class='post' itemprop='articleBody'>\n        <p>Cars can be tricky o ly advice I would offer is go and try lots of makes and models as there is so much choice and difference I Height of seats and door width access. Depending on how PD is affecting hubby will also be a big factor. In my case I have issues with left leg so an automatic was a no brained and I settled on a Kia Venga. Love the car and they way it drives.<br>\nJust checking that hubby has informed DVLA and insurance company, if not you need to do that first as DVLA may put a medical requirement on his licence and a review period. Mine was reissued with a 3 year limit before I have to reapply. Also consider applying to local council for a blue badge as wider parking spaces certainly makes life easier. Hope this helps.</p>\n      </div>\n      <meta itemprop='interactionCount' content='UserLikes:0'>\n      <meta itemprop='interactionCount' content='UserComments:0'>\n      <meta itemprop='headline' content='Cars'>\n      <hr>\n  </div>\n  <div itemscope itemtype='http://schema.org/DiscussionForumPosting'>\n      <div class='creator'>\n        <span>\n          <a href='/u/jimdownunder'><b itemprop='author'>jimdownunder</b></a>\n          \n          <time datetime='2018-11-11T02:46:07Z' itemprop='datePublished'>\n            2018-11-11 02:46:07 UTC\n          </time>\n        </span>\n        <span itemprop='position'>#5</span>\n      </div>\n      <div class='post' itemprop='articleBody'>\n        <p>When we were looking for a new car, my mother-in-law was a frequent passenger and she had severe mobility problems.<br>\nWe ended up with a Subaru Forester but I expect most SUV type vehicles will be similar.<br>\nHigh enough that you don’t have to bend but not so high you need a foot stool.</p>\n<p>The doors open wide allowing helpers to get close enough, and get a wheelchair there as well.<br>\nThe sill under the door was very narrow, allowing the travelers legs to hang down of the edge of the seat. It saves a lot of shuffling.</p>\n<p>I will have to get rid on my MG soon because I find it getting more difficult as I age.</p>\n<p>Jim</p>\n      </div>\n      <meta itemprop='interactionCount' content='UserLikes:0'>\n      <meta itemprop='interactionCount' content='UserComments:0'>\n      <meta itemprop='headline' content='Cars'>\n      <hr>\n  </div>\n\n\n\n\n\n\n    </div>\n    <footer class=\"container\">\n      <nav class='crawler-nav' itemscope itemtype='http://schema.org/SiteNavigationElement'>\n        <a href='/'>Home</a>\n        <a href=\"/categories\">Categories</a>\n        <a href=\"/guidelines\">FAQ/Guidelines</a>\n        <a href=\"/tos\">Terms of Service</a>\n        <a href=\"/privacy\">Privacy Policy</a>\n      </nav>\n      <p class='powered-by-link'>Powered by <a href=\"https://www.discourse.org\">Discourse</a>, best viewed with JavaScript enabled</p>\n    </footer>\n    \n  </body>\n  \n</html>\n",
  "url": "https://forum.parkinsons.org.uk/t/cars/16500"
}