{
  "contentId": "a26f1d60-886b-11e9-8f96-97f71b5221d6",
  "html": "<!DOCTYPE html>\n<html lang=\"en\">\n  <head>\n    <meta charset=\"utf-8\">\n    <title>Hitting people with your fist - Impulsive and compulsive behaviour - Parkinson&#39;s UK Forum</title>\n    <meta name=\"description\" content=\"Having just spent the evening in the local police station - does anyone have experience of hitting people due to the side-effects of stalevo and/or neupro and/or madopar?\">\n    <meta name=\"author\" content=\"\">\n<meta name=\"generator\" content=\"Discourse 2.2.5 - https://github.com/discourse/discourse version c294ff3609f988dcafb742e91606d60ca13b794d\">\n<link rel=\"icon\" type=\"image/png\" href=\"https://forum.parkinsons.org.uk/uploads/db7928/original/2X/3/311fc84f89f49f38601a2f16b295b6f03d3ce5dd.jpg\">\n<link rel=\"apple-touch-icon\" type=\"image/png\" href=\"https://forum.parkinsons.org.uk/uploads/db7928/original/2X/3/311fc84f89f49f38601a2f16b295b6f03d3ce5dd.jpg\">\n<meta name=\"theme-color\" content=\"#ffffff\">\n<meta name=\"viewport\" content=\"width=device-width, minimum-scale=1.0, maximum-scale=1.0, user-scalable=yes\">\n<link rel=\"canonical\" href=\"https://forum.parkinsons.org.uk/t/hitting-people-with-your-fist/9387\" />\n<script type=\"application/ld+json\">{\"@context\":\"http://schema.org\",\"@type\":\"WebSite\",\"url\":\"https://forum.parkinsons.org.uk\",\"potentialAction\":{\"@type\":\"SearchAction\",\"target\":\"https://forum.parkinsons.org.uk/search?q={search_term_string}\",\"query-input\":\"required name=search_term_string\"}}</script>\n<link rel=\"search\" type=\"application/opensearchdescription+xml\" href=\"https://forum.parkinsons.org.uk/opensearch.xml\" title=\"Parkinson&#39;s UK Forum Search\">\n\n      <link href=\"/stylesheets/desktop_f99246ae801b083d3e4cca979d0dade8615b39ac.css?__ws=forum.parkinsons.org.uk\" media=\"all\" rel=\"stylesheet\" data-target=\"desktop\" data-theme-id=\"12\"/>\n      <link href=\"/stylesheets/desktop_theme_12_5d27531cf43f9df0c03a6a6ec3109dd05f9dfc49.css?__ws=forum.parkinsons.org.uk\" media=\"all\" rel=\"stylesheet\" data-target=\"desktop_theme\" data-theme-id=\"12\"/>\n    <link href=\"https://fonts.googleapis.com/css?family=Open+Sans\" rel=\"stylesheet\">\n\n    <meta id=\"data-ga-universal-analytics\" data-tracking-code=\"UA-4855628-1\" data-json=\"{&quot;cookieDomain&quot;:&quot;auto&quot;}\" data-auto-link-domains=\"\">\n\n<link rel='preload' href='/assets/google-universal-analytics-f35b4da49411e6f5559073523aab983da483976a3954c79c756f8579f6fbd6ef.js' as='script'/>\n<script src='/assets/google-universal-analytics-f35b4da49411e6f5559073523aab983da483976a3954c79c756f8579f6fbd6ef.js'></script>\n\n      <link rel=\"alternate\" type=\"application/rss+xml\" title=\"RSS feed of &#39;Hitting people with your fist&#39;\" href=\"https://forum.parkinsons.org.uk/t/hitting-people-with-your-fist/9387.rss\" />\n  <meta property=\"og:site_name\" content=\"Parkinson&#39;s UK Forum\" />\n<meta name=\"twitter:card\" content=\"summary\" />\n<meta name=\"twitter:image\" content=\"https://forum.parkinsons.org.uk/uploads/db7928/original/2X/3/311fc84f89f49f38601a2f16b295b6f03d3ce5dd.jpg\" />\n<meta property=\"og:image\" content=\"https://forum.parkinsons.org.uk/uploads/db7928/original/2X/3/311fc84f89f49f38601a2f16b295b6f03d3ce5dd.jpg\" />\n<meta property=\"og:url\" content=\"https://forum.parkinsons.org.uk/t/hitting-people-with-your-fist/9387\" />\n<meta name=\"twitter:url\" content=\"https://forum.parkinsons.org.uk/t/hitting-people-with-your-fist/9387\" />\n<meta property=\"og:title\" content=\"Hitting people with your fist\" />\n<meta name=\"twitter:title\" content=\"Hitting people with your fist\" />\n<meta property=\"og:description\" content=\"Having just spent the evening in the local police station - does anyone have experience of hitting people due to the side-effects of stalevo and/or neupro and/or madopar?\" />\n<meta name=\"twitter:description\" content=\"Having just spent the evening in the local police station - does anyone have experience of hitting people due to the side-effects of stalevo and/or neupro and/or madopar?\" />\n<meta property=\"article:published_time\" content=\"2016-08-24T14:33:28+00:00\" />\n<meta property=\"og:ignore_canonical\" content=\"true\" />\n\n\n\n    \n  </head>\n  <body class=\"crawler\">\n    <header role=\"banner\">\n    <div class=\"region region-header\">\n        <div class=\"region-header-wrapper\">\n            <div id=\"block-parkinsons-d8-branding\" class=\"block block-system block-system-branding-block\">\n                <a href=\"/\" title=\"Home\" rel=\"home\" class=\"site-logo\">\n                    <img src=\"https://forum.parkinsons.org.uk/uploads/db7928/original/2X/8/862bb7d172e7d127e7f3e147ec43594aa62ac945.png\" alt=\"Parkinson's UK. Change Attitudes. Find a cure. Join us.\">\n                </a>\n            </div>\n            <div id=\"block-helpline\" class=\"block block-block-content block-block-content871cd5af-b938-4947-9dc0-d5c211d08fe3 style-phone\">\n                <div class=\"field field--name-field-link field--type-link field--label-hidden field__item\"><a href=\"tel:+448088000303\">Helpline 0808 800 0303</a></div>\n            </div>\n            <div id=\"block-shop\" class=\"block block-block-content block-block-content6fba5ae5-7797-49cd-8367-f321d8111cd6 style-regular\">\n                <div class=\"field field--name-field-link field--type-link field--label-hidden field__item\"><a href=\"https://shop.parkinsons.org.uk\">Shop</a></div>\n            </div>\n        </div>\n    </div>\n</header>\n\n\n<script src=\"/theme-javascripts/b7e9763fcb584fc8265c56a9f557cd6d2e1e8ed8.js?__ws=forum.parkinsons.org.uk\"></script>\n    <header>\n      <a href=\"/\">\n          <img src=\"https://forum.parkinsons.org.uk/uploads/db7928/original/2X/8/862bb7d172e7d127e7f3e147ec43594aa62ac945.png\" alt=\"Parkinson&#39;s UK Forum\" id=\"site-logo\" style=\"max-width: 150px;\">\n      </a>\n    </header>\n    <div id=\"main-outlet\" class=\"wrap\">\n      <h1>\n  <a href=\"/t/hitting-people-with-your-fist/9387\">Hitting people with your fist</a>\n</h1>\n\n<div id='breadcrumbs'>\n    <div id=\"breadcrumb-0\" itemscope itemtype=\"http://data-vocabulary.org/Breadcrumb\"\n        itemref=\"breadcrumb-1\"\n      >\n      <a href=\"/c/about-parkinsons-and-health\" itemprop=\"url\">\n        <span itemprop=\"title\">About Parkinson&#39;s and health</span>\n      </a>\n    </div>\n    <div id=\"breadcrumb-1\" itemscope itemtype=\"http://data-vocabulary.org/Breadcrumb\"\n>\n      <a href=\"/c/about-parkinsons-and-health/impulsive-and-compulsive-behaviour\" itemprop=\"url\">\n        <span itemprop=\"title\">Impulsive and compulsive behaviour</span>\n      </a>\n    </div>\n</div>\n\n\n\n\n\n<hr>\n\n\n  <div itemscope itemtype='http://schema.org/DiscussionForumPosting'>\n      <div class='creator'>\n        <span>\n          <a href='/u/turnip'><b itemprop='author'>turnip</b></a>\n          \n          <time datetime='2016-08-24T14:33:28Z' itemprop='datePublished'>\n            2016-08-24 14:33:28 UTC\n          </time>\n        </span>\n        <span itemprop='position'>#1</span>\n      </div>\n      <div class='post' itemprop='articleBody'>\n        <p>Having just spent the evening in the local police station - does anyone have experience of hitting people due to the side-effects of stalevo and/or neupro and/or madopar?</p>\n      </div>\n      <meta itemprop='interactionCount' content='UserLikes:0'>\n      <meta itemprop='interactionCount' content='UserComments:0'>\n      <meta itemprop='headline' content='Hitting people with your fist'>\n      <hr>\n  </div>\n  <div itemscope itemtype='http://schema.org/DiscussionForumPosting'>\n      <div class='creator'>\n        <span>\n          <a href='/u/smudger.s'><b itemprop='author'>smudger.s</b></a>\n          \n          <time datetime='2016-09-04T17:22:03Z' itemprop='datePublished'>\n            2016-09-04 17:22:03 UTC\n          </time>\n        </span>\n        <span itemprop='position'>#2</span>\n      </div>\n      <div class='post' itemprop='articleBody'>\n        <p>hello turnip...hitting people whilst on madapar..no...were you drinking any alcohol at the time?....or was the person you hit?...</p>\n      </div>\n      <meta itemprop='interactionCount' content='UserLikes:0'>\n      <meta itemprop='interactionCount' content='UserComments:0'>\n      <meta itemprop='headline' content='Hitting people with your fist'>\n      <hr>\n  </div>\n  <div itemscope itemtype='http://schema.org/DiscussionForumPosting'>\n      <div class='creator'>\n        <span>\n          <a href='/u/turnip'><b itemprop='author'>turnip</b></a>\n          \n          <time datetime='2016-09-06T05:00:58Z' itemprop='datePublished'>\n            2016-09-06 05:00:58 UTC\n          </time>\n        </span>\n        <span itemprop='position'>#3</span>\n      </div>\n      <div class='post' itemprop='articleBody'>\n        Perfectly sober. Don't touch the stuff.  Think neupro patches may be causing anger problem solving.  Going to plead guilty but insane.\n      </div>\n      <meta itemprop='interactionCount' content='UserLikes:0'>\n      <meta itemprop='interactionCount' content='UserComments:0'>\n      <meta itemprop='headline' content='Hitting people with your fist'>\n      <hr>\n  </div>\n  <div itemscope itemtype='http://schema.org/DiscussionForumPosting'>\n      <div class='creator'>\n        <span>\n          <a href='/u/turnip'><b itemprop='author'>turnip</b></a>\n          \n          <time datetime='2016-09-08T06:26:11Z' itemprop='datePublished'>\n            2016-09-08 06:26:11 UTC\n          </time>\n        </span>\n        <span itemprop='position'>#4</span>\n      </div>\n      <div class='post' itemprop='articleBody'>\n        By the way I am normally a very quit reasonable person\n      </div>\n      <meta itemprop='interactionCount' content='UserLikes:0'>\n      <meta itemprop='interactionCount' content='UserComments:0'>\n      <meta itemprop='headline' content='Hitting people with your fist'>\n      <hr>\n  </div>\n  <div itemscope itemtype='http://schema.org/DiscussionForumPosting'>\n      <div class='creator'>\n        <span>\n          <a href='/u/turnip'><b itemprop='author'>turnip</b></a>\n          \n          <time datetime='2016-09-08T06:27:32Z' itemprop='datePublished'>\n            2016-09-08 06:27:32 UTC\n          </time>\n        </span>\n        <span itemprop='position'>#5</span>\n      </div>\n      <div class='post' itemprop='articleBody'>\n        This is serious by the way\n      </div>\n      <meta itemprop='interactionCount' content='UserLikes:0'>\n      <meta itemprop='interactionCount' content='UserComments:0'>\n      <meta itemprop='headline' content='Hitting people with your fist'>\n      <hr>\n  </div>\n  <div itemscope itemtype='http://schema.org/DiscussionForumPosting'>\n      <div class='creator'>\n        <span>\n          <a href='/u/porthos'><b itemprop='author'>porthos</b></a>\n          \n          <time datetime='2016-09-08T10:45:01Z' itemprop='datePublished'>\n            2016-09-08 10:45:01 UTC\n          </time>\n        </span>\n        <span itemprop='position'>#6</span>\n      </div>\n      <div class='post' itemprop='articleBody'>\n        <p>Hi Turnip</p>\r\n<p>Sorry about your predicament. It&#39;s been making me think and I don&#39;t know if there is any value in what I concluded, or who you can talk to to see if there is any validation but here goes. Please bear with me through the waffle.</p>\r\n<p>I don&#39;t know about pd meds as still being considered but I also have epilepsy and although I prefer to control it through avoiding triggers it did get bad enough where I gave in and tried the meds for a while. One of the meds side effect s was to really louse up emotions and made me go really weird, I lived on the edge of hysterics all the time I took it, nearly a year. It nearly wrecked my marriage and all. Researching it I found it was nicknames the angerdrug and was even taken into consideration if you ended up in court because of what it does to you.</p>\r\n<p>I don&#39;t know if pd meds can do the same sort of thing, but they are doing things to the brains chemistry and I know some can cause compulsive behaviour, so it would be interesting to know if you can find out if the meds have any reputation and if you can get them considered by the powers to be.</p>\r\n<p>I don&#39;t know how you can find out though, maybe the helpline would be worth a visit.</p>\r\n<p>Take care</p>\n      </div>\n      <meta itemprop='interactionCount' content='UserLikes:0'>\n      <meta itemprop='interactionCount' content='UserComments:0'>\n      <meta itemprop='headline' content='Hitting people with your fist'>\n      <hr>\n  </div>\n  <div itemscope itemtype='http://schema.org/DiscussionForumPosting'>\n      <div class='creator'>\n        <span>\n          <a href='/u/Kat_Cimetta'><b itemprop='author'>Kat_Cimetta</b></a>\n          \n          <time datetime='2016-09-08T10:58:42Z' itemprop='datePublished'>\n            2016-09-08 10:58:42 UTC\n          </time>\n        </span>\n        <span itemprop='position'>#7</span>\n      </div>\n      <div class='post' itemprop='articleBody'>\n        <p>Hi Turnip,&nbsp;</p>\r\n<p>Do you think it would help to talk to someone here (at PUK) about this? Do you need some advice? &nbsp;</p>\r\n<p>I can look in to seeing how we can best support you.&nbsp;</p>\r\n<p>Kat</p>\n      </div>\n      <meta itemprop='interactionCount' content='UserLikes:0'>\n      <meta itemprop='interactionCount' content='UserComments:0'>\n      <meta itemprop='headline' content='Hitting people with your fist'>\n      <hr>\n  </div>\n  <div itemscope itemtype='http://schema.org/DiscussionForumPosting'>\n      <div class='creator'>\n        <span>\n          <a href='/u/turnip'><b itemprop='author'>turnip</b></a>\n          \n          <time datetime='2016-09-10T03:20:47Z' itemprop='datePublished'>\n            2016-09-10 03:20:47 UTC\n          </time>\n        </span>\n        <span itemprop='position'>#8</span>\n      </div>\n      <div class='post' itemprop='articleBody'>\n        Thanks katc. Getting medical, legal and psychological advice.\r\nBut might be useful to know of others with rage  problems and neuro. \r\nThanks again\n      </div>\n      <meta itemprop='interactionCount' content='UserLikes:0'>\n      <meta itemprop='interactionCount' content='UserComments:1'>\n      <meta itemprop='headline' content='Hitting people with your fist'>\n      <hr>\n  </div>\n  <div itemscope itemtype='http://schema.org/DiscussionForumPosting'>\n      <div class='creator'>\n        <span>\n          <a href='/u/Moderators2'><b itemprop='author'>Moderators2</b></a>\n          \n          <time datetime='2016-09-10T10:13:55Z' itemprop='datePublished'>\n            2016-09-10 10:13:55 UTC\n          </time>\n        </span>\n        <span itemprop='position'>#9</span>\n      </div>\n      <div class='post' itemprop='articleBody'>\n        <p>Hi Turnip,</p>\r\n<p>It&#39;s great to hear that you&#39;re getting different types of advice, I hope you&#39;ll find it helpful.&nbsp;</p>\r\n<p><span style=\"line-height: 1.4;\">I will pass your request to the team to see how they can help.</span></p>\r\n<p>Take care,</p>\r\n<p>Edwina</p>\r\n<p>Moderation Team</p>\n      </div>\n      <meta itemprop='interactionCount' content='UserLikes:0'>\n      <meta itemprop='interactionCount' content='UserComments:0'>\n      <meta itemprop='headline' content='Hitting people with your fist'>\n      <hr>\n  </div>\n  <div itemscope itemtype='http://schema.org/DiscussionForumPosting'>\n      <div class='creator'>\n        <span>\n          <a href='/u/porthos'><b itemprop='author'>porthos</b></a>\n          \n          <time datetime='2016-09-10T11:59:04Z' itemprop='datePublished'>\n            2016-09-10 11:59:04 UTC\n          </time>\n        </span>\n        <span itemprop='position'>#10</span>\n      </div>\n      <div class='post' itemprop='articleBody'>\n        <p>Hi Turnip</p>\r\n<p>Glad you are gettin&nbsp;support. It&#39;s really scary when you feel your mind and body is not under your own control for a while. Hope it all gets resolved soon.</p>\r\n<p>Take care</p>\n      </div>\n      <meta itemprop='interactionCount' content='UserLikes:0'>\n      <meta itemprop='interactionCount' content='UserComments:0'>\n      <meta itemprop='headline' content='Hitting people with your fist'>\n      <hr>\n  </div>\n  <div itemscope itemtype='http://schema.org/DiscussionForumPosting'>\n      <div class='creator'>\n        <span>\n          <a href='/u/fedexlike'><b itemprop='author'>fedexlike</b></a>\n          \n          <time datetime='2016-09-23T21:26:28Z' itemprop='datePublished'>\n            2016-09-23 21:26:28 UTC\n          </time>\n        </span>\n        <span itemprop='position'>#11</span>\n      </div>\n      <div class='post' itemprop='articleBody'>\n        <p>Hello old&nbsp; friend, im&nbsp; sorry&nbsp; you&nbsp; have&nbsp; had trouble with the&nbsp; sweeny ,&nbsp; I&nbsp; have had&nbsp; very&nbsp; severe&nbsp; Dyskie attacks</p>\r\n<p>and&nbsp; have&nbsp; stabbed myself in my&nbsp; cheek but&nbsp; all&nbsp; the&nbsp; anger&nbsp; is&nbsp; diverted&nbsp; inward and&nbsp; stored&nbsp; for&nbsp; later&nbsp; use and&nbsp; I need&nbsp; industrial&nbsp; strength&nbsp; goggles or&nbsp; my&nbsp; eyes&nbsp; will&nbsp; suffer, I&nbsp; hope&nbsp; all&nbsp; is ok with&nbsp; you my&nbsp; friend&nbsp; I&nbsp; am&nbsp; now&nbsp; going&nbsp; to&nbsp; post&nbsp; on&nbsp; the OCB&nbsp; thread as&nbsp; its&nbsp; there&nbsp; I&nbsp; will explain my&nbsp; absence</p>\r\n<p>&nbsp;&nbsp;&nbsp;&nbsp;&nbsp;&nbsp;&nbsp;&nbsp;&nbsp;&nbsp;&nbsp;&nbsp;&nbsp;&nbsp;&nbsp;&nbsp;&nbsp;&nbsp;&nbsp;&nbsp;&nbsp;&nbsp;&nbsp;&nbsp;&nbsp;&nbsp;&nbsp;&nbsp;&nbsp;&nbsp;&nbsp;&nbsp;&nbsp;&nbsp;&nbsp;&nbsp;&nbsp;&nbsp;&nbsp;&nbsp;&nbsp;&nbsp;&nbsp;&nbsp;&nbsp;&nbsp;&nbsp;&nbsp;&nbsp;&nbsp;&nbsp;&nbsp;&nbsp;&nbsp;&nbsp; Best&nbsp; wishes&nbsp;&nbsp;&nbsp;&nbsp;&nbsp;&nbsp;&nbsp;&nbsp; FED</p>\n      </div>\n      <meta itemprop='interactionCount' content='UserLikes:0'>\n      <meta itemprop='interactionCount' content='UserComments:0'>\n      <meta itemprop='headline' content='Hitting people with your fist'>\n      <hr>\n  </div>\n  <div itemscope itemtype='http://schema.org/DiscussionForumPosting'>\n      <div class='creator'>\n        <span>\n          <a href='/u/smudger.s'><b itemprop='author'>smudger.s</b></a>\n          \n          <time datetime='2016-09-26T07:00:12Z' itemprop='datePublished'>\n            2016-09-26 07:00:12 UTC\n          </time>\n        </span>\n        <span itemprop='position'>#12</span>\n      </div>\n      <div class='post' itemprop='articleBody'>\n        <p>morning turnip..apologies if i seemed to be&nbsp;speaking out of term ,i asked if you were in a social situation&nbsp;and if alcohol was involved to see&nbsp;why you reacted in order to understand your situation as ive not heard of that reaction before ,and maybe to learn from it...hope things worked out ok after all said and done .</p>\n      </div>\n      <meta itemprop='interactionCount' content='UserLikes:0'>\n      <meta itemprop='interactionCount' content='UserComments:0'>\n      <meta itemprop='headline' content='Hitting people with your fist'>\n      <hr>\n  </div>\n  <div itemscope itemtype='http://schema.org/DiscussionForumPosting'>\n      <div class='creator'>\n        <span>\n          <a href='/u/turnip'><b itemprop='author'>turnip</b></a>\n          \n          <time datetime='2016-10-15T01:08:57Z' itemprop='datePublished'>\n            2016-10-15 01:08:57 UTC\n          </time>\n        </span>\n        <span itemprop='position'>#13</span>\n      </div>\n      <div class='post' itemprop='articleBody'>\n        Thanks, especially fed. I pleaded guilty and the neuro was cited as relevant. Fortunately we have a very humane and wise magistrate and I have no conviction. \r\nCheers\n      </div>\n      <meta itemprop='interactionCount' content='UserLikes:0'>\n      <meta itemprop='interactionCount' content='UserComments:0'>\n      <meta itemprop='headline' content='Hitting people with your fist'>\n      <hr>\n  </div>\n  <div itemscope itemtype='http://schema.org/DiscussionForumPosting'>\n      <div class='creator'>\n        <span>\n          <a href='/u/gus'><b itemprop='author'>gus</b></a>\n          \n          <time datetime='2016-10-15T12:27:57Z' itemprop='datePublished'>\n            2016-10-15 12:27:57 UTC\n          </time>\n        </span>\n        <span itemprop='position'>#14</span>\n      </div>\n      <div class='post' itemprop='articleBody'>\n        Sorry to hear about this , i hope you get sorted in past i have read your threads and you sound like a strong person so I'm sure you will find away to get back to normatively\n      </div>\n      <meta itemprop='interactionCount' content='UserLikes:0'>\n      <meta itemprop='interactionCount' content='UserComments:0'>\n      <meta itemprop='headline' content='Hitting people with your fist'>\n      <hr>\n  </div>\n  <div itemscope itemtype='http://schema.org/DiscussionForumPosting'>\n      <div class='creator'>\n        <span>\n          <a href='/u/turnip'><b itemprop='author'>turnip</b></a>\n          \n          <time datetime='2016-10-16T13:11:18Z' itemprop='datePublished'>\n            2016-10-16 13:11:18 UTC\n          </time>\n        </span>\n        <span itemprop='position'>#15</span>\n      </div>\n      <div class='post' itemprop='articleBody'>\n        <p>it was very scary. but also an interesting experience.</p>\r\n<p>one important lesson is dont call the police if you commit a crime.</p>\n      </div>\n      <meta itemprop='interactionCount' content='UserLikes:0'>\n      <meta itemprop='interactionCount' content='UserComments:0'>\n      <meta itemprop='headline' content='Hitting people with your fist'>\n      <hr>\n  </div>\n\n\n\n\n\n\n    </div>\n    <footer class=\"container\">\n      <nav class='crawler-nav' itemscope itemtype='http://schema.org/SiteNavigationElement'>\n        <a href='/'>Home</a>\n        <a href=\"/categories\">Categories</a>\n        <a href=\"/guidelines\">FAQ/Guidelines</a>\n        <a href=\"/tos\">Terms of Service</a>\n        <a href=\"/privacy\">Privacy Policy</a>\n      </nav>\n      <p class='powered-by-link'>Powered by <a href=\"https://www.discourse.org\">Discourse</a>, best viewed with JavaScript enabled</p>\n    </footer>\n    \n  </body>\n  \n</html>\n",
  "url": "https://forum.parkinsons.org.uk/t/hitting-people-with-your-fist/9387"
}