{
  "contentId": "8c07b2e0-8865-11e9-8f96-97f71b5221d6",
  "html": "<!DOCTYPE html>\n<html lang=\"en\">\n  <head>\n    <meta charset=\"utf-8\">\n    <title>Shuffling - Daily life - Parkinson&#39;s UK Forum</title>\n    <meta name=\"description\" content=\"I wonder if anyone has particular advise for helping with shuffling?. My partner has had PD for around 4 years, we exercise on regular basis, walking, pilates, he goes to the gym doing weight lifting. Recently started cl&amp;hellip;\">\n    <meta name=\"author\" content=\"\">\n<meta name=\"generator\" content=\"Discourse 2.2.5 - https://github.com/discourse/discourse version c294ff3609f988dcafb742e91606d60ca13b794d\">\n<link rel=\"icon\" type=\"image/png\" href=\"https://forum.parkinsons.org.uk/uploads/db7928/original/2X/3/311fc84f89f49f38601a2f16b295b6f03d3ce5dd.jpg\">\n<link rel=\"apple-touch-icon\" type=\"image/png\" href=\"https://forum.parkinsons.org.uk/uploads/db7928/original/2X/3/311fc84f89f49f38601a2f16b295b6f03d3ce5dd.jpg\">\n<meta name=\"theme-color\" content=\"#ffffff\">\n<meta name=\"viewport\" content=\"width=device-width, minimum-scale=1.0, maximum-scale=1.0, user-scalable=yes\">\n<link rel=\"canonical\" href=\"https://forum.parkinsons.org.uk/t/shuffling/18773\" />\n<script type=\"application/ld+json\">{\"@context\":\"http://schema.org\",\"@type\":\"WebSite\",\"url\":\"https://forum.parkinsons.org.uk\",\"potentialAction\":{\"@type\":\"SearchAction\",\"target\":\"https://forum.parkinsons.org.uk/search?q={search_term_string}\",\"query-input\":\"required name=search_term_string\"}}</script>\n<link rel=\"search\" type=\"application/opensearchdescription+xml\" href=\"https://forum.parkinsons.org.uk/opensearch.xml\" title=\"Parkinson&#39;s UK Forum Search\">\n\n      <link href=\"/stylesheets/desktop_f99246ae801b083d3e4cca979d0dade8615b39ac.css?__ws=forum.parkinsons.org.uk\" media=\"all\" rel=\"stylesheet\" data-target=\"desktop\" data-theme-id=\"12\"/>\n      <link href=\"/stylesheets/desktop_theme_12_5d27531cf43f9df0c03a6a6ec3109dd05f9dfc49.css?__ws=forum.parkinsons.org.uk\" media=\"all\" rel=\"stylesheet\" data-target=\"desktop_theme\" data-theme-id=\"12\"/>\n    <link href=\"https://fonts.googleapis.com/css?family=Open+Sans\" rel=\"stylesheet\">\n\n    <meta id=\"data-ga-universal-analytics\" data-tracking-code=\"UA-4855628-1\" data-json=\"{&quot;cookieDomain&quot;:&quot;auto&quot;}\" data-auto-link-domains=\"\">\n\n<link rel='preload' href='/assets/google-universal-analytics-f35b4da49411e6f5559073523aab983da483976a3954c79c756f8579f6fbd6ef.js' as='script'/>\n<script src='/assets/google-universal-analytics-f35b4da49411e6f5559073523aab983da483976a3954c79c756f8579f6fbd6ef.js'></script>\n\n      <link rel=\"alternate\" type=\"application/rss+xml\" title=\"RSS feed of &#39;Shuffling&#39;\" href=\"https://forum.parkinsons.org.uk/t/shuffling/18773.rss\" />\n  <meta property=\"og:site_name\" content=\"Parkinson&#39;s UK Forum\" />\n<meta name=\"twitter:card\" content=\"summary\" />\n<meta name=\"twitter:image\" content=\"https://forum.parkinsons.org.uk/uploads/db7928/original/2X/3/311fc84f89f49f38601a2f16b295b6f03d3ce5dd.jpg\" />\n<meta property=\"og:image\" content=\"https://forum.parkinsons.org.uk/uploads/db7928/original/2X/3/311fc84f89f49f38601a2f16b295b6f03d3ce5dd.jpg\" />\n<meta property=\"og:url\" content=\"https://forum.parkinsons.org.uk/t/shuffling/18773\" />\n<meta name=\"twitter:url\" content=\"https://forum.parkinsons.org.uk/t/shuffling/18773\" />\n<meta property=\"og:title\" content=\"Shuffling\" />\n<meta name=\"twitter:title\" content=\"Shuffling\" />\n<meta property=\"og:description\" content=\"I wonder if anyone has particular advise for helping with shuffling?. My partner has had PD for around 4 years, we exercise on regular basis, walking, pilates, he goes to the gym doing weight lifting. Recently started class where pysio us pd warrior trained. The shuffling is one of the concerns for him &amp; we wondered if anyone else has discovered ways of helping with this? Thanks in advance.\" />\n<meta name=\"twitter:description\" content=\"I wonder if anyone has particular advise for helping with shuffling?. My partner has had PD for around 4 years, we exercise on regular basis, walking, pilates, he goes to the gym doing weight lifting. Recently started class where pysio us pd warrior trained. The shuffling is one of the concerns for him &amp; we wondered if anyone else has discovered ways of helping with this? Thanks in advance.\" />\n<meta property=\"article:published_time\" content=\"2019-04-10T08:21:40+00:00\" />\n<meta property=\"og:ignore_canonical\" content=\"true\" />\n\n\n\n    \n  </head>\n  <body class=\"crawler\">\n    <header role=\"banner\">\n    <div class=\"region region-header\">\n        <div class=\"region-header-wrapper\">\n            <div id=\"block-parkinsons-d8-branding\" class=\"block block-system block-system-branding-block\">\n                <a href=\"/\" title=\"Home\" rel=\"home\" class=\"site-logo\">\n                    <img src=\"https://forum.parkinsons.org.uk/uploads/db7928/original/2X/8/862bb7d172e7d127e7f3e147ec43594aa62ac945.png\" alt=\"Parkinson's UK. Change Attitudes. Find a cure. Join us.\">\n                </a>\n            </div>\n            <div id=\"block-helpline\" class=\"block block-block-content block-block-content871cd5af-b938-4947-9dc0-d5c211d08fe3 style-phone\">\n                <div class=\"field field--name-field-link field--type-link field--label-hidden field__item\"><a href=\"tel:+448088000303\">Helpline 0808 800 0303</a></div>\n            </div>\n            <div id=\"block-shop\" class=\"block block-block-content block-block-content6fba5ae5-7797-49cd-8367-f321d8111cd6 style-regular\">\n                <div class=\"field field--name-field-link field--type-link field--label-hidden field__item\"><a href=\"https://shop.parkinsons.org.uk\">Shop</a></div>\n            </div>\n        </div>\n    </div>\n</header>\n\n\n<script src=\"/theme-javascripts/b7e9763fcb584fc8265c56a9f557cd6d2e1e8ed8.js?__ws=forum.parkinsons.org.uk\"></script>\n    <header>\n      <a href=\"/\">\n          <img src=\"https://forum.parkinsons.org.uk/uploads/db7928/original/2X/8/862bb7d172e7d127e7f3e147ec43594aa62ac945.png\" alt=\"Parkinson&#39;s UK Forum\" id=\"site-logo\" style=\"max-width: 150px;\">\n      </a>\n    </header>\n    <div id=\"main-outlet\" class=\"wrap\">\n      <h1>\n  <a href=\"/t/shuffling/18773\">Shuffling</a>\n</h1>\n\n<div id='breadcrumbs'>\n    <div id=\"breadcrumb-0\" itemscope itemtype=\"http://data-vocabulary.org/Breadcrumb\"\n        itemref=\"breadcrumb-1\"\n      >\n      <a href=\"/c/living-with-parkinsons\" itemprop=\"url\">\n        <span itemprop=\"title\">Living with Parkinson&#39;s</span>\n      </a>\n    </div>\n    <div id=\"breadcrumb-1\" itemscope itemtype=\"http://data-vocabulary.org/Breadcrumb\"\n>\n      <a href=\"/c/living-with-parkinsons/daily-life\" itemprop=\"url\">\n        <span itemprop=\"title\">Daily life</span>\n      </a>\n    </div>\n</div>\n\n\n\n\n\n<hr>\n\n\n  <div itemscope itemtype='http://schema.org/DiscussionForumPosting'>\n      <div class='creator'>\n        <span>\n          <a href='/u/pudding52'><b itemprop='author'>pudding52</b></a>\n          \n          <time datetime='2019-04-10T08:21:40Z' itemprop='datePublished'>\n            2019-04-10 08:21:40 UTC\n          </time>\n        </span>\n        <span itemprop='position'>#1</span>\n      </div>\n      <div class='post' itemprop='articleBody'>\n        <p>I wonder if anyone has particular advise for helping with shuffling?. My partner has had PD for around 4 years, we exercise on regular basis, walking, pilates, he goes to the gym doing weight lifting. Recently started class where pysio us pd warrior trained. The shuffling is one of the concerns for him &amp; we wondered if anyone else has discovered ways of helping with this? Thanks in advance.</p>\n      </div>\n      <meta itemprop='interactionCount' content='UserLikes:0'>\n      <meta itemprop='interactionCount' content='UserComments:0'>\n      <meta itemprop='headline' content='Shuffling'>\n      <hr>\n  </div>\n  <div itemscope itemtype='http://schema.org/DiscussionForumPosting'>\n      <div class='creator'>\n        <span>\n          <a href='/u/Reah'><b itemprop='author'>Reah</b></a>\n          \n          <time datetime='2019-04-10T11:47:07Z' itemprop='datePublished'>\n            2019-04-10 11:47:07 UTC\n          </time>\n        </span>\n        <span itemprop='position'>#2</span>\n      </div>\n      <div class='post' itemprop='articleBody'>\n        <p>Hi <a class=\"mention\" href=\"/u/pudding52\">@pudding52</a>,</p>\n<p>I’m sure you’ll receive some helpful comments from members of our community soon. In the meantime, I think your partner is on the right tracks with seeing a physiotherapist - some people with Parkinson’s have found physio to improve symptoms. We have more information on this on our website here - <a href=\"https://www.parkinsons.org.uk/information-and-support/slowness-movement\" rel=\"nofollow noopener\">https://www.parkinsons.org.uk/information-and-support/slowness-movement</a>.</p>\n<p>For more support on how best to support your husband, please feel free to contact our helpline on 0808 800 0303 or email us at <a href=\"/cdn-cgi/l/email-protection#c0a8a5acacaf80b0a1b2aba9aeb3afaeb3eeafb2a7eeb5ab\"><span class=\"__cf_email__\" data-cfemail=\"9ff7faf3f3f0dfeffeedf4f6f1ecf0f1ecb1f0edf8b1eaf4\">[email&#160;protected]</span></a>.</p>\n<p>Best wishes,<br>\nReah</p>\n      </div>\n      <meta itemprop='interactionCount' content='UserLikes:0'>\n      <meta itemprop='interactionCount' content='UserComments:1'>\n      <meta itemprop='headline' content='Shuffling'>\n      <hr>\n  </div>\n  <div itemscope itemtype='http://schema.org/DiscussionForumPosting'>\n      <div class='creator'>\n        <span>\n          <a href='/u/Hubby'><b itemprop='author'>Hubby</b></a>\n          \n          <time datetime='2019-04-13T09:53:04Z' itemprop='datePublished'>\n            2019-04-13 09:53:04 UTC\n          </time>\n        </span>\n        <span itemprop='position'>#3</span>\n      </div>\n      <div class='post' itemprop='articleBody'>\n        <p>Concentration is the key.<br>\nThings we normally do naturally are affected by Parkinsons.<br>\nWalking is one such thing.<br>\nI can correct my shuffle to almost unnoticeable if I concentrate.<br>\nHeel-toe heel-toe.<br>\nUnfortunately when my concentration wanes the shuffle returns.</p>\n      </div>\n      <meta itemprop='interactionCount' content='UserLikes:0'>\n      <meta itemprop='interactionCount' content='UserComments:0'>\n      <meta itemprop='headline' content='Shuffling'>\n      <hr>\n  </div>\n  <div itemscope itemtype='http://schema.org/DiscussionForumPosting'>\n      <div class='creator'>\n        <span>\n          <a href='/u/JohnnyD'><b itemprop='author'>JohnnyD</b></a>\n          \n          <time datetime='2019-04-15T13:40:03Z' itemprop='datePublished'>\n            2019-04-15 13:40:03 UTC\n          </time>\n        </span>\n        <span itemprop='position'>#4</span>\n      </div>\n      <div class='post' itemprop='articleBody'>\n        <p>Hi pudding52.</p>\n<p>I noticed I was shuffling a while ago. My Physiotherapist gave me a walking stick. Not because I need it to lean on, or use all the time, But it helps to lengthen my stride.</p>\n      </div>\n      <meta itemprop='interactionCount' content='UserLikes:0'>\n      <meta itemprop='interactionCount' content='UserComments:2'>\n      <meta itemprop='headline' content='Shuffling'>\n      <hr>\n  </div>\n  <div itemscope itemtype='http://schema.org/DiscussionForumPosting'>\n      <div class='creator'>\n        <span>\n          <a href='/u/pudding52'><b itemprop='author'>pudding52</b></a>\n          \n          <time datetime='2019-04-15T19:35:57Z' itemprop='datePublished'>\n            2019-04-15 19:35:57 UTC\n          </time>\n        </span>\n        <span itemprop='position'>#5</span>\n      </div>\n      <div class='post' itemprop='articleBody'>\n        <p>thanks Reah</p>\n      </div>\n      <meta itemprop='interactionCount' content='UserLikes:0'>\n      <meta itemprop='interactionCount' content='UserComments:0'>\n      <meta itemprop='headline' content='Shuffling'>\n      <hr>\n  </div>\n  <div itemscope itemtype='http://schema.org/DiscussionForumPosting'>\n      <div class='creator'>\n        <span>\n          <a href='/u/pudding52'><b itemprop='author'>pudding52</b></a>\n          \n          <time datetime='2019-04-15T19:37:06Z' itemprop='datePublished'>\n            2019-04-15 19:37:06 UTC\n          </time>\n        </span>\n        <span itemprop='position'>#6</span>\n      </div>\n      <div class='post' itemprop='articleBody'>\n        <p>Hi JohnnyD</p>\n<p>Thank you  for you helpful advice</p>\n      </div>\n      <meta itemprop='interactionCount' content='UserLikes:0'>\n      <meta itemprop='interactionCount' content='UserComments:0'>\n      <meta itemprop='headline' content='Shuffling'>\n      <hr>\n  </div>\n  <div itemscope itemtype='http://schema.org/DiscussionForumPosting'>\n      <div class='creator'>\n        <span>\n          <a href='/u/pudding52'><b itemprop='author'>pudding52</b></a>\n          \n          <time datetime='2019-04-15T19:39:55Z' itemprop='datePublished'>\n            2019-04-15 19:39:55 UTC\n          </time>\n        </span>\n        <span itemprop='position'>#7</span>\n      </div>\n      <div class='post' itemprop='articleBody'>\n        <p>Thank you all for your helpful advice:grinning:</p>\n      </div>\n      <meta itemprop='interactionCount' content='UserLikes:0'>\n      <meta itemprop='interactionCount' content='UserComments:0'>\n      <meta itemprop='headline' content='Shuffling'>\n      <hr>\n  </div>\n  <div itemscope itemtype='http://schema.org/DiscussionForumPosting'>\n      <div class='creator'>\n        <span>\n          <a href='/u/Nufcash'><b itemprop='author'>Nufcash</b></a>\n          \n          <time datetime='2019-04-17T09:48:15Z' itemprop='datePublished'>\n            2019-04-17 09:48:15 UTC\n          </time>\n        </span>\n        <span itemprop='position'>#8</span>\n      </div>\n      <div class='post' itemprop='articleBody'>\n        <p>Hi pudding52, I also occasionally do the parky shuffle as someone once called it. It happens to me when I’m switching off (meds are wearing off). Have you or your partner told his PD nurse or neurologist as his meds may need a slight tweak? My PD nurse once told me to try and lengthen my stride if I could which works for me.</p>\n      </div>\n      <meta itemprop='interactionCount' content='UserLikes:0'>\n      <meta itemprop='interactionCount' content='UserComments:1'>\n      <meta itemprop='headline' content='Shuffling'>\n      <hr>\n  </div>\n  <div itemscope itemtype='http://schema.org/DiscussionForumPosting'>\n      <div class='creator'>\n        <span>\n          <a href='/u/JCPB'><b itemprop='author'>JCPB</b></a>\n          \n          <time datetime='2019-04-20T08:03:57Z' itemprop='datePublished'>\n            2019-04-20 08:03:57 UTC\n          </time>\n        </span>\n        <span itemprop='position'>#9</span>\n      </div>\n      <div class='post' itemprop='articleBody'>\n        <p>Take up Nordic Walking. It’s brilliant! Go to nordicwalkinguk for details. It improves your balance and stride length and your confidence. The website can sell you a pair of adjustable length poles and it has excellent videos at no cost to teach you how to do it. Best of all, it exercises %90+ of your skeletal muscles. I do a 4-mile walk at dawn when the dawn chorus is in full volume. There is no traffic noise or pollution and I feel as if I am in another world. Then back home with a good appetite for breakfast and the whole day ahead of me to enjoy POSITIVELY,<br>\nI f you an shuffle you can Nordic walk. Look it up! Cheers John</p>\n      </div>\n      <meta itemprop='interactionCount' content='UserLikes:0'>\n      <meta itemprop='interactionCount' content='UserComments:0'>\n      <meta itemprop='headline' content='Shuffling'>\n      <hr>\n  </div>\n  <div itemscope itemtype='http://schema.org/DiscussionForumPosting'>\n      <div class='creator'>\n        <span>\n          <a href='/u/pudding52'><b itemprop='author'>pudding52</b></a>\n          \n          <time datetime='2019-04-20T10:51:08Z' itemprop='datePublished'>\n            2019-04-20 10:51:08 UTC\n          </time>\n        </span>\n        <span itemprop='position'>#10</span>\n      </div>\n      <div class='post' itemprop='articleBody'>\n        <p>Hi JCPB<br>\nThanks for the advice.  We used to do Nordic awhile ago but it stopped on that one.  I was a bit concerned how hubby held poles, I was worried he would trip up but of course can develop a technique I am sure.  He goes to a  class (where physio trained in pd warrior) uses poles.  Will have to have another go as still have the poles.  Not sure we would do 4 miles though!, well done!</p>\n<p>Sheila</p>\n      </div>\n      <meta itemprop='interactionCount' content='UserLikes:0'>\n      <meta itemprop='interactionCount' content='UserComments:0'>\n      <meta itemprop='headline' content='Shuffling'>\n      <hr>\n  </div>\n  <div itemscope itemtype='http://schema.org/DiscussionForumPosting'>\n      <div class='creator'>\n        <span>\n          <a href='/u/pudding52'><b itemprop='author'>pudding52</b></a>\n          \n          <time datetime='2019-04-20T10:53:13Z' itemprop='datePublished'>\n            2019-04-20 10:53:13 UTC\n          </time>\n        </span>\n        <span itemprop='position'>#11</span>\n      </div>\n      <div class='post' itemprop='articleBody'>\n        <p>Hi Nufcash</p>\n<p>Just seen nurse &amp; at her suggestion he will try increase tabs but he is very against this, I can understand why.  Hes doing lots of work on walking etc exercises too.</p>\n<p>Sheila</p>\n      </div>\n      <meta itemprop='interactionCount' content='UserLikes:0'>\n      <meta itemprop='interactionCount' content='UserComments:0'>\n      <meta itemprop='headline' content='Shuffling'>\n      <hr>\n  </div>\n  <div itemscope itemtype='http://schema.org/DiscussionForumPosting'>\n      <div class='creator'>\n        <span>\n          <a href='/u/pudding52'><b itemprop='author'>pudding52</b></a>\n          \n          <time datetime='2019-04-20T10:54:59Z' itemprop='datePublished'>\n            2019-04-20 10:54:59 UTC\n          </time>\n        </span>\n        <span itemprop='position'>#12</span>\n      </div>\n      <div class='post' itemprop='articleBody'>\n        <p>Hi JohnnyD</p>\n<p>Working on getting him to use stick, doesn’t need it but will help him especially when he finds difficult to stop after walking longish way</p>\n<p>Sheila</p>\n      </div>\n      <meta itemprop='interactionCount' content='UserLikes:0'>\n      <meta itemprop='interactionCount' content='UserComments:1'>\n      <meta itemprop='headline' content='Shuffling'>\n      <hr>\n  </div>\n  <div itemscope itemtype='http://schema.org/DiscussionForumPosting'>\n      <div class='creator'>\n        <span>\n          <a href='/u/JohnnyD'><b itemprop='author'>JohnnyD</b></a>\n          \n          <time datetime='2019-04-20T14:04:01Z' itemprop='datePublished'>\n            2019-04-20 14:04:01 UTC\n          </time>\n        </span>\n        <span itemprop='position'>#13</span>\n      </div>\n      <div class='post' itemprop='articleBody'>\n        <p>Hi Pudding52.</p>\n<p>That<code>s different – finding it difficult to stop! Most find it difficult to get going… I don</code>t use the stick around the house and garden, only if I have to go out. It can get in the way when shopping. Trying to put something in a bag with the hand that<code>s holding the bag, get</code>s confusing. But the stick has a crook shaped handle, and with a bit of luck, will hang on your arm…</p>\n      </div>\n      <meta itemprop='interactionCount' content='UserLikes:0'>\n      <meta itemprop='interactionCount' content='UserComments:1'>\n      <meta itemprop='headline' content='Shuffling'>\n      <hr>\n  </div>\n  <div itemscope itemtype='http://schema.org/DiscussionForumPosting'>\n      <div class='creator'>\n        <span>\n          <a href='/u/pudding52'><b itemprop='author'>pudding52</b></a>\n          \n          <time datetime='2019-04-22T09:18:58Z' itemprop='datePublished'>\n            2019-04-22 09:18:58 UTC\n          </time>\n        </span>\n        <span itemprop='position'>#14</span>\n      </div>\n      <div class='post' itemprop='articleBody'>\n        <p>Hi JohnnyD</p>\n<p>Probably didn’t explain right, its when he has been walking for awhile then when comes to stop he sort of stutters on the spot, its a matter of a technique to try to develop I suppose that works for you.  Will get him to try a stick as worried he may fall if doesn’t have me or something to hang onto.</p>\n<p>Sheila</p>\n      </div>\n      <meta itemprop='interactionCount' content='UserLikes:0'>\n      <meta itemprop='interactionCount' content='UserComments:1'>\n      <meta itemprop='headline' content='Shuffling'>\n      <hr>\n  </div>\n  <div itemscope itemtype='http://schema.org/DiscussionForumPosting'>\n      <div class='creator'>\n        <span>\n          <a href='/u/JohnnyD'><b itemprop='author'>JohnnyD</b></a>\n          \n          <time datetime='2019-04-22T12:01:35Z' itemprop='datePublished'>\n            2019-04-22 12:01:35 UTC\n          </time>\n        </span>\n        <span itemprop='position'>#15</span>\n      </div>\n      <div class='post' itemprop='articleBody'>\n        <p>Hi pudding52.</p>\n<p>He should definitely use a stick! Falling over is not recommended, and causes a lot more hassle than the stick. It`s so easy to fall over. Please tell him it makes sense.</p>\n      </div>\n      <meta itemprop='interactionCount' content='UserLikes:0'>\n      <meta itemprop='interactionCount' content='UserComments:0'>\n      <meta itemprop='headline' content='Shuffling'>\n      <hr>\n  </div>\n\n\n\n\n\n\n    </div>\n    <footer class=\"container\">\n      <nav class='crawler-nav' itemscope itemtype='http://schema.org/SiteNavigationElement'>\n        <a href='/'>Home</a>\n        <a href=\"/categories\">Categories</a>\n        <a href=\"/guidelines\">FAQ/Guidelines</a>\n        <a href=\"/tos\">Terms of Service</a>\n        <a href=\"/privacy\">Privacy Policy</a>\n      </nav>\n      <p class='powered-by-link'>Powered by <a href=\"https://www.discourse.org\">Discourse</a>, best viewed with JavaScript enabled</p>\n    </footer>\n    \n  <script data-cfasync=\"false\" src=\"/cdn-cgi/scripts/5c5dd728/cloudflare-static/email-decode.min.js\"></script></body>\n  \n</html>\n",
  "url": "https://forum.parkinsons.org.uk/t/shuffling/18773"
}