{
  "contentId": "4b966bd0-674e-11e9-8b11-2bb10ea1bee3",
  "html": "<!DOCTYPE html>\r\n<!--[if IE 8 ]><html class=\"ie ie8\" lang=\"fr-FR\"> <![endif]-->\r\n<!--[if (gte IE 9)|!(IE)]><!--><html lang=\"fr-FR\"> <!--<![endif]-->\r\n<head>\r\n<!--<meta http-equiv=\"X-UA-Compatible\" content=\"IE=edge,chrome=1\">-->\r\n<meta charset=\"UTF-8\">\r\n<title>enregistrement | Franceparkinsonforum</title>\r\n<link rel=\"profile\" href=\"https://gmpg.org/xfn/11\">\r\n<link rel=\"pingback\" href=\"https://forum.franceparkinson.fr/xmlrpc.php\">\r\n<meta name='robots' content='noindex,follow' />\n<meta name=\"viewport\" content=\"width=device-width, user-scalable=no, initial-scale=1.0, minimum-scale=1.0, maximum-scale=1.0\"><link rel='dns-prefetch' href='//s.w.org' />\n<link rel=\"alternate\" type=\"application/rss+xml\" title=\"Franceparkinsonforum &raquo; Flux\" href=\"https://forum.franceparkinson.fr/feed/\" />\n<link rel=\"alternate\" type=\"application/rss+xml\" title=\"Franceparkinsonforum &raquo; Flux des commentaires\" href=\"https://forum.franceparkinson.fr/comments/feed/\" />\n\t\t<script type=\"text/javascript\">\n\t\t\twindow._wpemojiSettings = {\"baseUrl\":\"https:\\/\\/s.w.org\\/images\\/core\\/emoji\\/2\\/72x72\\/\",\"ext\":\".png\",\"svgUrl\":\"https:\\/\\/s.w.org\\/images\\/core\\/emoji\\/2\\/svg\\/\",\"svgExt\":\".svg\",\"source\":{\"concatemoji\":\"https:\\/\\/forum.franceparkinson.fr\\/wp-includes\\/js\\/wp-emoji-release.min.js?ver=4.6.1\"}};\n\t\t\t!function(a,b,c){function d(a){var c,d,e,f,g,h=b.createElement(\"canvas\"),i=h.getContext&&h.getContext(\"2d\"),j=String.fromCharCode;if(!i||!i.fillText)return!1;switch(i.textBaseline=\"top\",i.font=\"600 32px Arial\",a){case\"flag\":return i.fillText(j(55356,56806,55356,56826),0,0),!(h.toDataURL().length<3e3)&&(i.clearRect(0,0,h.width,h.height),i.fillText(j(55356,57331,65039,8205,55356,57096),0,0),c=h.toDataURL(),i.clearRect(0,0,h.width,h.height),i.fillText(j(55356,57331,55356,57096),0,0),d=h.toDataURL(),c!==d);case\"diversity\":return i.fillText(j(55356,57221),0,0),e=i.getImageData(16,16,1,1).data,f=e[0]+\",\"+e[1]+\",\"+e[2]+\",\"+e[3],i.fillText(j(55356,57221,55356,57343),0,0),e=i.getImageData(16,16,1,1).data,g=e[0]+\",\"+e[1]+\",\"+e[2]+\",\"+e[3],f!==g;case\"simple\":return i.fillText(j(55357,56835),0,0),0!==i.getImageData(16,16,1,1).data[0];case\"unicode8\":return i.fillText(j(55356,57135),0,0),0!==i.getImageData(16,16,1,1).data[0];case\"unicode9\":return i.fillText(j(55358,56631),0,0),0!==i.getImageData(16,16,1,1).data[0]}return!1}function e(a){var c=b.createElement(\"script\");c.src=a,c.type=\"text/javascript\",b.getElementsByTagName(\"head\")[0].appendChild(c)}var f,g,h,i;for(i=Array(\"simple\",\"flag\",\"unicode8\",\"diversity\",\"unicode9\"),c.supports={everything:!0,everythingExceptFlag:!0},h=0;h<i.length;h++)c.supports[i[h]]=d(i[h]),c.supports.everything=c.supports.everything&&c.supports[i[h]],\"flag\"!==i[h]&&(c.supports.everythingExceptFlag=c.supports.everythingExceptFlag&&c.supports[i[h]]);c.supports.everythingExceptFlag=c.supports.everythingExceptFlag&&!c.supports.flag,c.DOMReady=!1,c.readyCallback=function(){c.DOMReady=!0},c.supports.everything||(g=function(){c.readyCallback()},b.addEventListener?(b.addEventListener(\"DOMContentLoaded\",g,!1),a.addEventListener(\"load\",g,!1)):(a.attachEvent(\"onload\",g),b.attachEvent(\"onreadystatechange\",function(){\"complete\"===b.readyState&&c.readyCallback()})),f=c.source||{},f.concatemoji?e(f.concatemoji):f.wpemoji&&f.twemoji&&(e(f.twemoji),e(f.wpemoji)))}(window,document,window._wpemojiSettings);\n\t\t</script>\n\t\t<style type=\"text/css\">\nimg.wp-smiley,\nimg.emoji {\n\tdisplay: inline !important;\n\tborder: none !important;\n\tbox-shadow: none !important;\n\theight: 1em !important;\n\twidth: 1em !important;\n\tmargin: 0 .07em !important;\n\tvertical-align: -0.1em !important;\n\tbackground: none !important;\n\tpadding: 0 !important;\n}\n</style>\n<link rel='stylesheet' id='bbp-default-css'  href='https://forum.franceparkinson.fr/wp-content/themes/yeahthemes-sparkle/css/bbpress.css?ver=2.5.10-6063' type='text/css' media='screen' />\n<link rel='stylesheet' id='bbpressmoderationstyle-css'  href='https://forum.franceparkinson.fr/wp-content/plugins/bbpressmoderation/style.css?ver=4.6.1' type='text/css' media='all' />\n<link rel='stylesheet' id='bootstrap-css'  href='https://forum.franceparkinson.fr/wp-content/themes/yeahthemes-sparkle/framework/css/bootstrap.min.css?ver=4.6.1' type='text/css' media='all' />\n<link rel='stylesheet' id='font-awesome-css'  href='https://forum.franceparkinson.fr/wp-content/themes/yeahthemes-sparkle/css/font-awesome.css?ver=4.6.1' type='text/css' media='all' />\n<link rel='stylesheet' id='theme-default-style-css'  href='https://forum.franceparkinson.fr/wp-content/themes/sparkle-childtheme/style.css?ver=2.0.4' type='text/css' media='all' />\n<link rel='stylesheet' id='animate-css'  href='https://forum.franceparkinson.fr/wp-content/themes/yeahthemes-sparkle/css/animate.css?ver=4.6.1' type='text/css' media='all' />\n<link rel='stylesheet' id='flexslider-css'  href='https://forum.franceparkinson.fr/wp-content/themes/yeahthemes-sparkle/css/flexslider.css?ver=4.6.1' type='text/css' media='all' />\n<script>if (document.location.protocol != \"https:\") {document.location = document.URL.replace(/^http:/i, \"https:\");}</script><script type='text/javascript' src='https://forum.franceparkinson.fr/wp-includes/js/jquery/jquery.js?ver=1.12.4'></script>\n<script type='text/javascript' src='https://forum.franceparkinson.fr/wp-includes/js/jquery/jquery-migrate.min.js?ver=1.4.1'></script>\n<link rel='https://api.w.org/' href='https://forum.franceparkinson.fr/wp-json/' />\n<link rel=\"EditURI\" type=\"application/rsd+xml\" title=\"RSD\" href=\"https://forum.franceparkinson.fr/xmlrpc.php?rsd\" />\n<link rel=\"wlwmanifest\" type=\"application/wlwmanifest+xml\" href=\"https://forum.franceparkinson.fr/wp-includes/wlwmanifest.xml\" /> \n<meta name=\"generator\" content=\"WordPress 4.6.1\" />\n<link rel=\"canonical\" href=\"https://forum.franceparkinson.fr/enregistrement/\" />\n<link rel='shortlink' href='https://forum.franceparkinson.fr/?p=43' />\n<link rel=\"alternate\" type=\"application/json+oembed\" href=\"https://forum.franceparkinson.fr/wp-json/oembed/1.0/embed?url=https%3A%2F%2Fforum.franceparkinson.fr%2Fenregistrement%2F\" />\n<link rel=\"alternate\" type=\"text/xml+oembed\" href=\"https://forum.franceparkinson.fr/wp-json/oembed/1.0/embed?url=https%3A%2F%2Fforum.franceparkinson.fr%2Fenregistrement%2F&#038;format=xml\" />\n<style id=\"custom-styles\">::selection {background-color: #bc013f;color: #ffffff;}::-moz-selection {background-color: #bc013f;color: #ffffff;}blockquote p{font-size: 18px;}.form-control,.btn,.navbar,.alert,.list-group {border-radius: 2px;-webkit-border-radius: 2px;}.form-control:focus {border-color: #bc013f;box-shadow: inset 0 1px 1px rgba(0,0,0,0.075), 0 0 8px #bc013f;-webkit-box-shadow: inset 0 1px 1px rgba(0,0,0,0.075), 0 0 8px #bc013f;}/** * Button */.btn-default,.btn-primary,.btn-secondary,.btn-success,.btn-info,.btn-warning,.btn-danger {    box-shadow: none !important;}/*Common styles*/.btn:active,.btn.active {background-image: none;}.btn i{color: #ffffff !important;}.btn-link i,.btn-default i{color: #aaaaaa !important;}/*Apply the mixin to the buttons*/.btn:hover,.btn:focus,.btn:active,.btn.active {background-color: #363b3f;border-color:#363b3f;color: #ffffff !important;}.btn-primary,.btn-secondary,.btn-success,.btn-info,.btn-warning,.btn-danger{color: #ffffff !important;}/*Primary*/.btn-primary{background-repeat: repeat-x;background-color: #bc013f;border-color: #bc013f;}/*Secondary*/.btn-secondary{background-repeat: repeat-x;background-color: #363b3f;border-color: #363b3f;}/*Success*/.btn-success{background-color: #5cb85c;border-color: #5cb85c;}.btn-info{background-color: #5bc0de;border-color: #5bc0de;}.btn-warning{background-color: #f0ad4e;border-color: #f0ad4e;}.btn-danger{background-color: #d9534f;border-color: #d9534f;}.btn-link{background: none;border-color: transparent;}.btn-link:hover{color: #363b3f !important;}/*Label*/.label-primary{background: #bc013f;}.label-success{background: #5cb85c;}.label-info{background: #5bc0de;}.label-warning{background: #f0ad4e;}.label-danger{background: #d9534f;}.form-group .control-label{color:#333333;}/** * Alert */.alert {background-color: #fafafa;border-color: #ddd;color:#777777;}.progress {background-color:#fafafa; height: 24px;}.progress-bar {background-color:#bc013f;text-align: left; text-indent: 1em; line-height: 24px;}.progress-bar-secondary {background-color:#363b3f;}/** * List group */.panel-footer{background: #fafafa;border-color: #eee;border-color: rgba(0,0,0,0.08);}.panel-default{border-color: #eee;border-color: rgba(0,0,0,0.08);}.panel-default > .panel-heading {background-color: #fafafa;border-color: #eee;border-color: rgba(0,0,0,0.08);}.panel-primary{border-color:#bc013f;}.panel-primary > .panel-heading {background:#bc013f;border-color:#bc013f;}.panel-secondary{border-color:#363b3f;}.panel-secondary > .panel-heading {background:#363b3f;border-color:#363b3f;}body{font-family:'Helvetica Neue', Helvetica, Arial, sans-serif;font-size: 13px;line-height:1.75;color: #777777; }a{color: #bc013f;}a:hover{color: #363b3f;}a.active, .active a{color: #bc013f;}h1, h2, h3, h4, h5, h6,b, strong{color:  #363b3f;}select:focus,select:active{border-color:  #bc013f;box-shadow: 0 0 5px  #bc013f;}input[type='text'], input[type='number'], input[type='email'], input[type='url'], input[type='password'], input[type='search'], textarea, textarea.form-control{line-height: 1.75;}input[type='text']:focus, input[type='number']:focus, input[type='email']:focus, input[type='url']:focus, input[type='password']:focus, input[type='search']:focus, textarea:focus, textarea.form-control:focus{border-color:  #bc013f;box-shadow: inset 0 1px 1px rgba(0,0,0,0.075), 0 0 8px #bc013f;}.boxed-layout #page{box-shadow: 0 0 30px rgba(0,0,0,0.2);-webkit-box-shadow: 0 0 30px rgba(0,0,0,0.2);-moz-box-shadow: 0 0 30px rgba(0,0,0,0.2);}/** * Mejs audio Player */#page .mejs-controls{background-color: #363b3f;}#page .mejs-controls .mejs-time-rail .mejs-time-current,#page .mejs-controls .mejs-horizontal-volume-slider .mejs-horizontal-volume-current{background:  #bc013f;}#page .wp-playlist-light,#page .wp-playlist-item .wp-playlist-caption{color: #777777;}#page .wp-playlist-item.wp-playlist-playing .wp-playlist-caption{color: #bc013f;}/** * =Mobile Menu */.mobile-navigation{background-color: #363b3f;}.mobile-navigation a{color: rgba(255,255,255,.7);}.mobile-navigation a:hover{color: #ffffff;}/** * =Header */   html .main-menu-toggle>*{background-color:#b8bdc1 !important;}.site-header .site-top-menu{color: rgba(255,255,255,.7);background-color: #2c3135;}.site-header .site-top-menu li.current-menu-item > a{color: #ffffff;}.site-header .site-top-menu a{color: rgba(255,255,255,.7);}.site-header .site-top-menu a:hover{color: #ffffff;}.site-header .site-banner{background-color: #363b3f;}/*Main nav*/.site-header .main-navigation .menu > li.menu-item:hover,.site-header .main-navigation .menu > li.current-menu-item{background-color:#ffffff;}.site-header .main-navigation .menu > li > a{color:#b8bdc1;}.site-header .main-navigation .menu li.current > a{color: #bc013f;}.site-header .main-navigation .menu li.current-menu-item > a{color:#363b3f;}.site-header .main-navigation .menu li.menu-item:hover > a{color:#363b3f;}.site-header .main-navigation .menu ul li a{color: #777777;}.site-header .main-navigation .menu ul li:hover > a,.site-header .main-navigation .menu ul li a:hover{color: #bc013f;}/** * =Site hero */.site-hero.style-color-gradient .hentry .hero-brick-bg:before {    background-repeat: repeat-x;    background-image: -webkit-linear-gradient(45deg,  #bc013f 0%, rgba(111, 160, 33, 0) 100%);    background-image: linear-gradient(45deg,  #bc013f 0%, rgba(111, 160, 33, 0) 100%);}/** * =Sidebar */.widget-area a{color: #bc013f;}.widget-area a:hover{color: #363b3f;}.widget-area a.active,.widget-area .active > a{color: #bc013f;}.widget-area ul li.current-cat > a,.widget-area ul li.current_page_item > a{color: #bc013f;}.widget-area ul li a{color: #363b3f;}.widget-area ul li a:hover{color: #bc013f;}/** * =Footer */.footer-widgets{color: #777777;a{color: #bc013f;&:hover{color: #363b3f;}}    a.active, .active > a{color: #bc013f;}ul li{&.current-cat a, &.current_page_item a{color: #bc013f;}a{color: #777777;&:hover{color: #131313;}}}}/** * =Footer */.footer-widgets{color: #777777;}.footer-widgets a{color: #bc013f;}.footer-widgets a:hover{color: #363b3f;}.footer-widgets a.active, .footer-widgets .active > a{color: #bc013f;}.footer-widgets ul li.current-cat a,.footer-widgets ul li.current_page_item a{color: #bc013f;}.footer-widgets ul li a{color: #777777;}.footer-widgets ul li a:hover{color: #131313;}/** * Cat tag */.cat-tag{color:#ffffff;background-color: #bc013f;opacity: .95;}/** * Entry tag */.entry-tags a{color:#777777;}.entry-tags a:hover{color:#ffffff;}/** * Color */ .site-banner .site-logo a, .main-navigation ul.menu>li.site-mobile-menu-toggle{ color: #b8bdc1; }/** * Primary color */.primary-color,.primary-2-secondary a,.secondary-2-primary a:hover,.secondary-2-primary a:hover > *,.gray-2-primary:hover,.gray-2-primary a:hover,.gray-2-primary a:hover *,.current-cat a,.current_page_item a,.pagination-nav .page-numbers.current{color: #bc013f;}/** * Secondary color */.secondary-color,.secondary-2-primary a,.primary-2-secondary a:hover,.primary-2-secondary a:hover *,.gray-2-secondary:hover,.gray-2-secondary a:hover,.gray-2-secondary a:hover *,.form-allowed-tags code,.pagination-nav a.page-numbers:hover,.yeahslider.news-scroller a.yeahslider-next:hover, .yeahslider.news-scroller a.yeahslider-prev:hover{color: #363b3f;}/** * Gray color */.gray-color,.gray-2-secondary a,.gray-2-primary,.gray-2-primary a,.gray-icon,.gray-icon i,time,.pagination-nav a.page-numbers,.yt-social-sharing span.show-all-social-services i,.yeahslider.news-scroller a.yeahslider-next, .yeahslider.news-scroller a.yeahslider-prev{color: #aaaaaa;}/** * Background */.white-bgcolor,.boxed-layout .inner-wrapper{background-color:#ffffff;}.yt-social-sharing span.show-all-social-services,.entry-tags a{background-color: #fafafa;}.secondary-bgcolor,.site-modal .site-modal-backdrop,.yeahslider .slides li .caption,.yeahslider .yeahslider-direction-nav a > span.nav-button, .yeahslider .yeahslider-pauseplay a > span.nav-button{background-color: #363b3f;}.primary-bgcolor,.entry-tags a:hover{background-color: #bc013f;}.review-mark.review-type-percentage,.review-mark.review-type-point{background: #bc013f;}/** * Border Color */.yt-sliding-tabs-header-trigger > span:before{border-color: #ffffff;}fieldset legend,.wp-caption:before,.boundary-column:before,.site-content[role='main'] article.post,#page .wp-playlist.wp-audio-playlist,.widget:before,.yt-twitter-profile-wrapper .yt-twitter-profile-body,.yt-tabby-tabs-header,.slashes-navigation li:before,.pagination-nav .page-numbers:before,.yt-sliding-tabs-header-trigger > span,.post-list-with-thumbnail.vertical li:before,.post-list-with-thumbnail li a span.number:before,.post-page-navigation,.post-page-navigation:before,.comments-area,.comment-body,.yt-font-size-changer span,.yt-impressive-like-button .yt-il-symbol, .yt-impressive-like-button .yt-il-symbol > span,.infinite-scroll #infinite-handle span{border-color: #eee;border-color: rgba(0,0,0,0.08);}/* Custom CSS*/h1{font-family:Arial, Helvetica, sans-serif;font-size:30px;font-weight:400;font-style:normal;line-height:1.35;letter-spacing:0px;text-transform:none;margin-bottom:35px;}h2{font-family:Arial, Helvetica, sans-serif;font-size:26px;font-weight:400;font-style:normal;line-height:1.35;letter-spacing:0px;text-transform:none;margin-bottom:30px;}h3, .widget-title{font-family:Arial, Helvetica, sans-serif;font-size:22px;font-weight:400;font-style:normal;line-height:1.75;letter-spacing:0px;text-transform:none;margin-bottom:20px;}h4{font-family:Arial, Helvetica, sans-serif;font-size:20px;font-weight:400;font-style:normal;line-height:1.75;letter-spacing:0px;text-transform:none;margin-bottom:20px;}h5{font-family:Arial, Helvetica, sans-serif;font-size:16px;font-weight:400;font-style:normal;line-height:1.75;letter-spacing:0px;text-transform:none;margin-bottom:15px;}h6{font-family:Arial, Helvetica, sans-serif;font-size:13px;font-weight:400;font-style:normal;line-height:1.75;letter-spacing:0px;text-transform:none;margin-bottom:10px;}h1 strong, h2 strong, h3 strong, h4 strong, h5 strong, h6 strong{font-family:Arial, Helvetica, sans-serif;font-weight:400;font-style:normal;}body{color:#777777;font-family:Arial, Helvetica, sans-serif;font-size:13px;font-weight:400;font-style:normal;line-height:1.75;letter-spacing:0px;text-transform:none;}.inner-wrapper{}.site-header .site-banner{}.site-header .main-navigation ul.menu > li > a, .site-mobile-navigation ul.menu > li {font-family:Arial, Helvetica, sans-serif;font-size:14px;font-weight:400;font-style:normal;letter-spacing:0px;text-transform:none;}.site-header ul ul.sub-menu > li, .site-mobile-navigation ul ul.sub-menu > li{font-family:Arial, Helvetica, sans-serif;font-size:12px;font-weight:400;font-style:normal;letter-spacing:0px;text-transform:none;}.site-content article .entry-title{font-family:Arial, Helvetica, sans-serif;font-size:36px;font-weight:400;font-style:normal;line-height:1.35;letter-spacing:0px;text-transform:none;}h1.page-title, h1.entry-title, .site-content article h1.entry-title{font-family:Arial, Helvetica, sans-serif;font-size:40px;font-weight:400;font-style:normal;line-height:1.35;letter-spacing:0px;text-transform:none;}.widget-title{font-family:Arial, Helvetica, sans-serif;font-size:18px;font-weight:400;font-style:normal;line-height:1.75;letter-spacing:0px;text-transform:none;margin-bottom:15px;}#site-hero h2.entry-title{font-family:Arial, Helvetica, sans-serif;font-weight:400;font-style:normal;line-height:1.25;letter-spacing:0px;text-transform:none;}.footer-widgets{font-family:Arial, Helvetica, sans-serif;font-size:13px;font-weight:400;font-style:normal;line-height:1.75;letter-spacing:0px;text-transform:none;}.footer-widgets h1, .footer-widgets h2, .footer-widgets h3, .footer-widgets h4, .footer-widgets h5, .footer-widgets h6{font-family:Arial, Helvetica, sans-serif;font-size:18px;font-weight:400;font-style:normal;line-height:1.75;letter-spacing:0px;text-transform:none;margin-bottom:15px;}</style>\t\t<style type=\"text/css\">.recentcomments a{display:inline !important;padding:0 !important;margin:0 !important;}</style>\n\t\t\r\n<!--[if lt IE 9]>\r\n  <script src=\"https://forum.franceparkinson.fr/wp-content/themes/yeahthemes-sparkle/includes/js/html5shiv.js\"></script>\r\n  <script src=\"https://forum.franceparkinson.fr/wp-content/themes/yeahthemes-sparkle/includes/js/respond.min.js\"></script>\r\n<![endif]-->\r\n\r\n</head>\r\n\r\n<body data-rsssl=1 class=\"not-logged-in yeah-framework page page-id-43 page-template-default unrecognized-browser unrecognized-platform desktop modal-search layout-default\">\r\n\r\n<!--[if lt IE 9]>\r\n<div id=\"yt-ancient-browser-notification\">\r\n  <div class=\"container\">\r\n    <p>Oops! Your browser is <strong><em>ancient!</em></strong> :( - <a href=\"http://browsehappy.com/\" target=\"_blank\">Upgrade to a different browser</a> or <a href=\"http://www.google.com/chromeframe/?redirect=true\">install Google Chrome Frame</a> to experience this site.</p>  </div>\r\n</div>\r\n<![endif]-->\r\n\r\n\r\n<div id=\"page\" class=\"hfeed site full-width-wrapper\">\r\n\r\n\r\n<div class=\"inner-wrapper\">\r\n\r\n  \r\n\r\n    <header id=\"masthead\" class=\"site-header desktop\" role=\"banner\">\r\n      <div class=\"site-header-main\">\r\n      <div class=\"logotagline\">\r\n<div class=\"logo\">\r\n<a href=\"https://franceparkinson.fr\"><img src=\"https://www.franceparkinson.fr/wp-content/themes/twentysixteen-child/img/Logo/logofranceparkinson.png\" alt=\"logofranceparkinson\"></a>\r\n</div>\r\n        </div>\r\n<div class=\"menuetrecherche\">\r\n<div class=\"topmenu\">\r\n<div class=\"menu-top-bar-container\"><ul id=\"menu-top-bar\" class=\"menu\"><li id=\"menu-item-8\" class=\"menubold menu-item menu-item-type-custom menu-item-object-custom first-child menu-item-8\"><a href=\"https://soutenir.franceparkinson.fr/fr_FR/login\">Espace adhérents / donateurs</a></li>\n<li id=\"menu-item-9\" class=\"menu-item menu-item-type-custom menu-item-object-custom menu-item-home menu-item-9\"><a href=\"https://forum.franceparkinson.fr/\">Accès Forum</a></li>\n<li id=\"menu-item-10\" class=\"menu-item menu-item-type-custom menu-item-object-custom menu-item-10\"><a href=\"http://www.franceparkinson.fr/contact/\">Contact</a></li>\n<li id=\"menu-item-12\" class=\"menuicon menu-item menu-item-type-custom menu-item-object-custom menu-item-12\"><a href=\"https://www.facebook.com/chaquepasestuneconquete/\"><i class=\"fa fa-facebook\" aria-hidden=\"true\"></i></a></li>\n<li id=\"menu-item-11\" class=\"menuicon firsticon menu-item menu-item-type-custom menu-item-object-custom menu-item-11\"><a href=\"https://twitter.com/franceparkinson\"><i class=\"fa fa-twitter\" aria-hidden=\"true\"></i></a></li>\n<li id=\"menu-item-13\" class=\"menuicon menu-item menu-item-type-custom menu-item-object-custom last-child menu-item-13\"><a href=\"https://www.youtube.com/user/ParkinsonFrance\"><i class=\"fa fa-youtube-play\" aria-hidden=\"true\"></i></a></li>\n</ul></div></div>\r\n        <div class=\"headerrecherche\">\r\n          <form method=\"get\" id=\"formulairederecherhce\" action=\"https://forum.franceparkinson.fr/\">\r\n<div><input type=\"text\" size=\"13px\" name=\"s\" id=\"formulairerecherche\" value=\"Votre recherche ici...\" onfocus=\"if(this.value==this.defaultValue)this.value='';\" onblur=\"if(this.value=='')this.value=this.defaultValue;\"/>\r\n<input type=\"submit\" id=\"searchsubmit\" value=\"&#xf002;\" class=\"btn\" />\r\n</div>\r\n</form>\r\n        </div>\r\n</div>\r\n<div class=\"menucta\">\r\n<div class=\"menu-menu-call-to-action-container\"><ul id=\"menu-menu-call-to-action\" class=\"menu\"><li id=\"menu-item-6\" class=\"ctaboutique menu-item menu-item-type-custom menu-item-object-custom first-child menu-item-6\"><a href=\"http://www.franceparkinson.fr/la-boutique/\">Boutique</a></li>\n<li id=\"menu-item-7\" class=\"ctadon menu-item menu-item-type-custom menu-item-object-custom last-child menu-item-7\"><a href=\"https://soutenir.franceparkinson.fr/!mon_choix\">Faire un don</a></li>\n</ul></div></div>\r\n\r\n              </div><!-- .site-header-main -->\r\n      <div class=\"logofacilitiheader\">\r\n<a href=\"http://ws.facil-iti.com/\" target=\"_blank\"><img src=\"https://www.franceparkinson.fr/wp-content/themes/twentysixteen-child/img/Logo/logofacilitiheader.jpg\" alt=\"logofaciliti\"></a>\r\n</div>\r\n    </header><!-- .site-header -->\r\n\r\n\r\n    <header id=\"masthead\" class=\"site-header headertablette\" role=\"banner\">\r\n      <div class=\"site-header-main\">\r\n<div class=\"tablettemenulogosearch\">\r\n<div class=\"topmenu\">\r\n<div class=\"menu-top-bar-container\"><ul id=\"menu-top-bar-1\" class=\"menu\"><li class=\"menubold menu-item menu-item-type-custom menu-item-object-custom first-child menu-item-8\"><a href=\"https://soutenir.franceparkinson.fr/fr_FR/login\">Espace adhérents / donateurs</a></li>\n<li class=\"menu-item menu-item-type-custom menu-item-object-custom menu-item-home menu-item-9\"><a href=\"https://forum.franceparkinson.fr/\">Accès Forum</a></li>\n<li class=\"menu-item menu-item-type-custom menu-item-object-custom menu-item-10\"><a href=\"http://www.franceparkinson.fr/contact/\">Contact</a></li>\n<li class=\"menuicon menu-item menu-item-type-custom menu-item-object-custom menu-item-12\"><a href=\"https://www.facebook.com/chaquepasestuneconquete/\"><i class=\"fa fa-facebook\" aria-hidden=\"true\"></i></a></li>\n<li class=\"menuicon firsticon menu-item menu-item-type-custom menu-item-object-custom menu-item-11\"><a href=\"https://twitter.com/franceparkinson\"><i class=\"fa fa-twitter\" aria-hidden=\"true\"></i></a></li>\n<li class=\"menuicon menu-item menu-item-type-custom menu-item-object-custom last-child menu-item-13\"><a href=\"https://www.youtube.com/user/ParkinsonFrance\"><i class=\"fa fa-youtube-play\" aria-hidden=\"true\"></i></a></li>\n</ul></div></div>\r\n      <div class=\"logotagline\">\r\n<div class=\"logo\">\r\n<a href=\"/\"><img src=\"https://www.franceparkinson.fr/wp-content/themes/twentysixteen-child/img/Logo/logofranceparkinson.png\" alt=\"logofranceparkinson\"></a>\r\n</div>\r\n        </div>\r\n<div class=\"menuetrecherche\">\r\n        <div class=\"headerrecherche\">\r\n          <form method=\"get\" id=\"formulairederecherhce\" action=\"https://forum.franceparkinson.fr/\">\r\n<div><input type=\"text\" size=\"13px\" name=\"s\" id=\"formulairerecherche\" value=\"Votre recherche ici...\" onfocus=\"if(this.value==this.defaultValue)this.value='';\" onblur=\"if(this.value=='')this.value=this.defaultValue;\"/>\r\n<input type=\"submit\" id=\"searchsubmit\" value=\"&#xf002;\" class=\"btn\" />\r\n</div>\r\n</form>\r\n        </div>\r\n</div>\r\n</div>\r\n<div class=\"menucta\">\r\n<div class=\"menu-menu-call-to-action-container\"><ul id=\"menu-menu-call-to-action-1\" class=\"menu\"><li class=\"ctaboutique menu-item menu-item-type-custom menu-item-object-custom first-child menu-item-6\"><a href=\"http://www.franceparkinson.fr/la-boutique/\">Boutique</a></li>\n<li class=\"ctadon menu-item menu-item-type-custom menu-item-object-custom last-child menu-item-7\"><a href=\"https://soutenir.franceparkinson.fr/!mon_choix\">Faire un don</a></li>\n</ul></div></div>\r\n\r\n              </div><!-- .site-header-main -->\r\n      <div class=\"logofacilitiheader\">\r\n<a href=\"https://ws.facil-iti.com/\" target=\"_blank\"><img src=\"https://www.franceparkinson.fr/wp-content/themes/twentysixteen-child/img/Logo/logofacilitiheader.jpg\" alt=\"logofaciliti\"></a>\r\n</div>\r\n    </header><!-- .site-header -->\r\n\r\n\r\n\r\n    <header id=\"masthead\" class=\"site-header headermobile\" role=\"banner\">\r\n      <div class=\"site-header-main\">\r\n                <div class=\"logotagline\">\r\n          <div class=\"logo\">\r\n            <a href=\"/\"><img src=\"https://www.franceparkinson.fr/wp-content/themes/twentysixteen-child/img/Logo/logofranceparkinson.png\" alt=\"logofranceparkinson\"></a>\r\n          </div>\r\n        </div>\r\n\r\n        <div class=\"menucta\">\r\n          <div class=\"menu-menu-call-to-action-container\"><ul id=\"menu-menu-call-to-action-2\" class=\"menu\"><li class=\"ctaboutique menu-item menu-item-type-custom menu-item-object-custom first-child menu-item-6\"><a href=\"http://www.franceparkinson.fr/la-boutique/\">Boutique</a></li>\n<li class=\"ctadon menu-item menu-item-type-custom menu-item-object-custom last-child menu-item-7\"><a href=\"https://soutenir.franceparkinson.fr/!mon_choix\">Faire un don</a></li>\n</ul></div>        </div>\r\n\r\n        <div class=\"menuetrecherche\">\r\n          <div class=\"headerrecherche\">\r\n            <form method=\"get\" id=\"formulairederecherhce\" action=\"https://forum.franceparkinson.fr/\">\r\n              <div>\r\n                <input type=\"text\" size=\"13px\" name=\"s\" id=\"formulairerecherche\" value=\"Votre recherche ici...\" onfocus=\"if(this.value==this.defaultValue)this.value='';\" onblur=\"if(this.value=='')this.value=this.defaultValue;\"/>\r\n                <input type=\"submit\" id=\"searchsubmit\" value=\"&#xf002;\" class=\"btn\" />\r\n              </div>\r\n            </form>\r\n        </div>\r\n      </div>\r\n\r\n\r\n      </div><!-- .site-header-main -->\r\n    </header><!-- .site-header -->\r\n\r\n\r\n<div class=\"headerinstit\" style=\"background-image: url('/wp-content/themes/sparkle-childtheme/images/bg/backgroundforums.jpg');\">\r\n<h1>FORUM – Pour s’exprimer et partager</h1>\r\n</div>\r\n\r\n\r\n\r\n\r\n  \r\n  <div id=\"main\" class=\"site-main\">\r\n  <div class=\"bbpressbreadcrumbs\"><div class=\"bbp-breadcrumb\"><p><a href=\"https://forum.franceparkinson.fr/\" class=\"bbp-breadcrumb-home\">Homepage</a> <span class=\"bbp-breadcrumb-sep\">&rsaquo;</span> <a href=\"https://forum.franceparkinson.fr/forums/\" class=\"bbp-breadcrumb-root\">Forums</a> <span class=\"bbp-breadcrumb-sep\">&rsaquo;</span> <span class=\"bbp-breadcrumb-current\">enregistrement</span></p></div></div>\r\n    \t\n\t<div class=\"container main-columns\">\n\n\t\t<div class=\"row\">\n\n\t\t\t\t\t\t\n\t\t\t<div id=\"primary\" class=\"content-area col-sm-12 col-md-7 col-md-push-2 col-lg-7 col-lg-push-2 boundary-column\">\n\t\t\t\t\n\t\t\t\t\t\t\t\t\n\t\t\t\t<main id=\"content\" class=\"site-content\" role=\"main\">\n\t\t\t\t\t\n\t\t\t\t\t\t\t\t\t\t\n\t\t\t\t\t\t\t\t\t\t\t\n\t\t\t\t\t\t\n\t\t\t\t\t\t<article id=\"post-43\" class=\"post-43 page type-page status-publish hentry main-hentry\">\n\t\t<header class=\"entry-header\">\n\t\t<h1 class=\"entry-title\">enregistrement</h1>\n\t</header><!-- .entry-header -->\n\t\t<div class=\"entry-content\">\n\t\t<p><em>Pour protéger votre vie privée, n&#8217;utilisez pas votre nom complet ou votre adresse mail comme identifiant.</em></p>\n\n<form method=\"post\" action=\"https://forum.franceparkinson.fr/wp-login.php\" class=\"bbp-login-form\">\n\t<fieldset class=\"bbp-form\">\n\t\t<legend>Créer un compte</legend>\n\n\t\t<div class=\"bbp-template-notice\">\n\t\t\t<p>Votre nom d&#39;utilisateur doit &ecirc;tre unique et ne peut pas &ecirc;tre modifi&eacute; ult&eacute;rieurement.</p>\n\t\t\t<p>Nous utilisons votre adresse &eacute;lectronique pour vous envoyer un mot de passe s&eacute;curis&eacute; et v&eacute;rifier votre compte.</p>\n\n\t\t</div>\n\n\t\t<div class=\"bbp-username\">\n\t\t\t<label for=\"user_login\">Identifiant: </label>\n\t\t\t<input type=\"text\" name=\"user_login\" value=\"\" size=\"20\" id=\"user_login\" tabindex=\"101\" />\n\t\t</div>\n\n\t\t<div class=\"bbp-email\">\n\t\t\t<label for=\"user_email\">E-mail : </label>\n\t\t\t<input type=\"text\" name=\"user_email\" value=\"\" size=\"20\" id=\"user_email\" tabindex=\"102\" />\n\t\t</div>\n\n\t\t\n\t\t<div class=\"bbp-submit-wrapper\">\n\n\t\t\t<button type=\"submit\" tabindex=\"103\" name=\"user-submit\" class=\"button submit user-submit\">Inscription</button>\n\n\t\t\t\n\t\t<input type=\"hidden\" name=\"action\"      value=\"register\" />\n\t\t<input type=\"hidden\" name=\"user-cookie\" value=\"1\" />\n\n\t\t<input type=\"hidden\" id=\"bbp_redirect_to\" name=\"redirect_to\" value=\"?checkemail=registered\" /><input type=\"hidden\" id=\"_wpnonce\" name=\"_wpnonce\" value=\"8a42df59f0\" /><input type=\"hidden\" name=\"_wp_http_referer\" value=\"/enregistrement/\" />\n\t\t</div>\n\t</fieldset>\n</form>\n\n\t\t\t</div><!-- .entry-content -->\n\t</article><!-- #post-## -->\n\n\t\t\t\t\t\t\t\t\t\t\t\t\n\t\t\t\t\t\t\n\t\t\t\t\t\t\t\t\t\t\n\t\t\t\t\t\n\t\t\t\t</main><!-- #content -->\n\t\t\t\n\t\t\t\t\t\t\t\t\n\t\t\t</div><!-- #primary -->\n\t\t\t\n\t\t\t\n\t\t\t\t\t\n\t<div id=\"secondary\" class=\"widget-area col-sm-6 col-md-3 col-md-push-2 col-lg-3 col-lg-push-2\" role=\"complementary\">\n\t\n\t\t\t\t\n\t\t<aside id=\"bbp_login_widget-2\" class=\"widget bbp_widget_login\"><h3 class=\"widget-title\">Connectez-vous</h3>\n\t\t\t<form method=\"post\" action=\"https://forum.franceparkinson.fr/wp-login.php\" class=\"bbp-login-form\">\n\t\t\t\t<fieldset>\n\t\t\t\t\t<legend>Connexion</legend>\n\n\t\t\t\t\t<div class=\"bbp-username\">\n\t\t\t\t\t\t<label for=\"user_login\">Identifiant: </label>\n\t\t\t\t\t\t<input type=\"text\" name=\"log\" value=\"\" size=\"20\" id=\"user_login\" tabindex=\"104\" />\n\t\t\t\t\t</div>\n\n\t\t\t\t\t<div class=\"bbp-password\">\n\t\t\t\t\t\t<label for=\"user_pass\">Mot de passe: </label>\n\t\t\t\t\t\t<input type=\"password\" name=\"pwd\" value=\"\" size=\"20\" id=\"user_pass\" tabindex=\"105\" />\n\t\t\t\t\t</div>\n\n\t\t\t\t\t<div class=\"bbp-remember-me\">\n\t\t\t\t\t\t<input type=\"checkbox\" name=\"rememberme\" value=\"forever\"  id=\"rememberme\" tabindex=\"106\" />\n\t\t\t\t\t\t<label for=\"rememberme\">Se souvenir de moi</label>\n\t\t\t\t\t</div>\n\n\t\t\t\t\t<div class=\"bbp-submit-wrapper\">\n\n\t\t\t\t\t\t\n\t\t\t\t\t\t<button type=\"submit\" name=\"user-submit\" id=\"user-submit\" tabindex=\"107\" class=\"button submit user-submit\">Connexion</button>\n\n\t\t\t\t\t\t\n\t\t<input type=\"hidden\" name=\"user-cookie\" value=\"1\" />\n\n\t\t<input type=\"hidden\" id=\"bbp_redirect_to\" name=\"redirect_to\" value=\"https://forum.franceparkinson.fr/enregistrement/\" /><input type=\"hidden\" id=\"_wpnonce\" name=\"_wpnonce\" value=\"6c94f9c8a6\" /><input type=\"hidden\" name=\"_wp_http_referer\" value=\"/enregistrement/\" />\n\t\t\t\t\t</div>\n\n\t\t\t\t\t\n\t\t\t\t\t\t<div class=\"bbp-login-links\">\n\n\t\t\t\t\t\t\t\n\t\t\t\t\t\t\t\t<a href=\"/enregistrement/\" title=\"Inscription\" class=\"bbp-register-link\">Inscription</a>\n\n\t\t\t\t\t\t\t\n\t\t\t\t\t\t\t\n\t\t\t\t\t\t\t\t<a href=\"/mot-de-passe-perdu/\" title=\"Mot de passe oubli&eacute;\" class=\"bbp-lostpass-link\">Mot de passe oubli&eacute;</a>\n\n\t\t\t\t\t\t\t\n\t\t\t\t\t\t</div>\n\n\t\t\t\t\t\n\t\t\t\t</fieldset>\n\t\t\t</form>\n\n\t\t</aside><aside id=\"text-3\" class=\"widget widget_text\">\t\t\t<div class=\"textwidget\"><div class=\"widgetforum\">\r\n<div class=\"imagewidget\">\r\n<img src=\"/wp-content/themes/sparkle-childtheme/images/icon/iconbenevole.png\" alt=\"iconbenevole\">\r\n</div>\r\n<div class=\"textedewidget\">\r\n<p>Forums Bénévoles</p>\r\n<a href=\"https://forum.franceparkinson.fr/forums/forum/forum-benevoles/\">> Accès privé</a>\r\n</div>\r\n<div class=\"clearwidget\">\r\n</div></div>\n\t\t</aside><aside id=\"text-4\" class=\"widget widget_text\">\t\t\t<div class=\"textwidget\"><div class=\"widgetforum\">\r\n<div class=\"imagewidget\">\r\n<img src=\"/wp-content/themes/sparkle-childtheme/images/icon/iconbenevole.png\" alt=\"iconbenevole\">\r\n</div>\r\n<div class=\"textedewidget\">\r\n<p>Forums A2PA</p>\r\n<a href=\"https://forum.franceparkinson.fr/forums/forum/forum-a2pa/\">> Accès privé</a>\r\n</div>\r\n<div class=\"clearwidget\">\r\n</div></div>\n\t\t</aside><aside id=\"bbp_views_widget-3\" class=\"widget widget_display_views\"><h3 class=\"widget-title\">Afficher les sujets par</h3>\n\t\t<ul>\n\n\t\t\t\n\t\t\t\t<li><a class=\"bbp-view-title\" href=\"https://forum.franceparkinson.fr/forums/view/popular/\">Sujets populaires</a></li>\n\n\t\t\t\n\t\t\t\t<li><a class=\"bbp-view-title\" href=\"https://forum.franceparkinson.fr/forums/view/no-replies/\">Sujets sans r&eacute;ponses</a></li>\n\n\t\t\t\n\t\t</ul>\n\n\t\t</aside><aside id=\"bbp_stats_widget-2\" class=\"widget widget_display_stats\"><h3 class=\"widget-title\">Statistiques du forum</h3>\n<dl role=\"main\">\n\n\t\n\t<dt>Utilisateurs enregistr&eacute;s</dt>\n\t<dd>\n\t\t<strong>1&nbsp;386</strong>\n\t</dd>\n\n\t<dt>Forums</dt>\n\t<dd>\n\t\t<strong>3</strong>\n\t</dd>\n\n\t<dt>Sujets</dt>\n\t<dd>\n\t\t<strong>56</strong>\n\t</dd>\n\n\t<dt>Réponses</dt>\n\t<dd>\n\t\t<strong>228</strong>\n\t</dd>\n<!--\n\t<dt></dt>\n\t<dd>\n\t\t<strong></strong>\n\t</dd>\n\n\t\n\t\t<dt></dt>\n\t\t<dd>\n\t\t\t<strong></strong>\n\t\t</dd>\n\n\t<?php//  endif; ?>\n\n\t\n\t\t<dt></dt>\n\t\t<dd>\n\t\t\t<strong>\n\t\t\t\t<abbr title=\"\"></abbr>\n\t\t\t</strong>\n\t\t</dd>\n\n\t\n\t\n\t\t<dt></dt>\n\t\t<dd>\n\t\t\t<strong>\n\t\t\t\t<abbr title=\"\"></abbr>\n\t\t\t</strong>\n\t\t</dd>\n\n\t-->\n\t\n</dl>\n\n</aside>\t\t\n\t\t\t\t\n\t</div><!-- #secondary -->\n\t\n\t\t\n\t\t\n\t<div id=\"tertiary\" class=\"widget-area col-sm-6 col-md-2 col-md-pull-10 col-lg-2 col-lg-pull-10\" role=\"complementary\">\n\t\n\t\t\t\t\n\t\t<aside id=\"pg_forums_widget-2\" class=\"widget widget_display_forums\"><h3 class=\"widget-title\">Forums par thèmes</h3>\r\n        <ul>\r\n\r\n            \r\n                <li><a class=\"bbp-forum-title\" href=\"https://forum.franceparkinson.fr/forums/forum/moi-et-ma-maladie-au-quotidien/\" title=\"Moi et ma maladie au quotidien\">Moi et ma maladie au quotidien</a></li>\r\n\t\t\t\r\n            \r\n        </ul>\r\n\r\n        </aside><aside id=\"pg_topics_widget-2\" class=\"widget widget_display_topics\"><h3 class=\"widget-title\">Sujets récents</h3>\r\n        <ul>\r\n\r\n            \r\n                <li>\r\n                    <a class=\"bbp-forum-title\" href=\"https://forum.franceparkinson.fr/forums/topic/semelles-orthopediques-pour-des-problemes-dequilibre/\" title=\"Semelles orthopédiques pour des problèmes d&#8217;équilibre\">Semelles orthopédiques pour des problèmes d&#8217;équilibre</a>\r\n\r\n                    \r\n                    \r\n                </li>\r\n\r\n            \r\n                <li>\r\n                    <a class=\"bbp-forum-title\" href=\"https://forum.franceparkinson.fr/forums/topic/problemes-de-deglutition/\" title=\"Problèmes de déglutition\">Problèmes de déglutition</a>\r\n\r\n                    \r\n                    \r\n                </li>\r\n\r\n            \r\n                <li>\r\n                    <a class=\"bbp-forum-title\" href=\"https://forum.franceparkinson.fr/forums/topic/memoire-sur-les-aidants-familiaux-aides-de-parkinson/\" title=\"Mémoire sur les Aidants Familiaux aidés de Parkinson\">Mémoire sur les Aidants Familiaux aidés de Parkinson</a>\r\n\r\n                    \r\n                    \r\n                </li>\r\n\r\n            \r\n                <li>\r\n                    <a class=\"bbp-forum-title\" href=\"https://forum.franceparkinson.fr/forums/topic/question-dune-etudiante-en-orthophonie/\" title=\"Question d&#8217;une étudiante en orthophonie\">Question d&#8217;une étudiante en orthophonie</a>\r\n\r\n                    \r\n                    \r\n                </li>\r\n\r\n            \r\n                <li>\r\n                    <a class=\"bbp-forum-title\" href=\"https://forum.franceparkinson.fr/forums/topic/que-fais-tu-aujourd-hui/\" title=\"QUE FAIS TU AUJOURD HUI?\">QUE FAIS TU AUJOURD HUI?</a>\r\n\r\n                    \r\n                    \r\n                </li>\r\n\r\n            \r\n                <li>\r\n                    <a class=\"bbp-forum-title\" href=\"https://forum.franceparkinson.fr/forums/topic/suite-operatoire/\" title=\"Suite opératoire\">Suite opératoire</a>\r\n\r\n                    \r\n                    \r\n                </li>\r\n\r\n            \r\n        </ul>\r\n\r\n        </aside><aside id=\"pg_replies_widget-2\" class=\"widget widget_display_replies\"><h3 class=\"widget-title\">Réponses récentes</h3>\r\n        <ul>\r\n\r\n            \r\n                <li>\r\n\r\n                    <a class=\"bbp-reply-topic-title\" href=\"https://forum.franceparkinson.fr/forums/topic/proche-dun-malade-de-parkinson-quelles-sont-vos-inquietudes-que-dire-quel-role-avoir/#post-793\" title=\"Bonjour\nMa maman à cette maladie depuis 10ans, e&hellip;\">Proche d’un malade de Parkinson, quelles sont vos inquiétudes ? Que dire ? Quel rôle avoir ?</a>\r\n                </li>\r\n\r\n            \r\n                <li>\r\n\r\n                    <a class=\"bbp-reply-topic-title\" href=\"https://forum.franceparkinson.fr/forums/topic/intolerance-aux-traitements/#post-791\" title=\"sous traitement depuis 6 ans, je suis aujourd&amp;#82&hellip;\">Intolérance aux traitements</a>\r\n                </li>\r\n\r\n            \r\n                <li>\r\n\r\n                    <a class=\"bbp-reply-topic-title\" href=\"https://forum.franceparkinson.fr/forums/topic/proche-dun-malade-de-parkinson-quelles-sont-vos-inquietudes-que-dire-quel-role-avoir/#post-792\" title=\"Bonjour\nMa maman à cette maladie depuis 10ans, e&hellip;\">Proche d’un malade de Parkinson, quelles sont vos inquiétudes ? Que dire ? Quel rôle avoir ?</a>\r\n                </li>\r\n\r\n            \r\n                <li>\r\n\r\n                    <a class=\"bbp-reply-topic-title\" href=\"https://forum.franceparkinson.fr/forums/topic/intolerance-aux-traitements/#post-794\" title=\"Bonjour je suis sous traitement trevistal et moi &hellip;\">Intolérance aux traitements</a>\r\n                </li>\r\n\r\n            \r\n                <li>\r\n\r\n                    <a class=\"bbp-reply-topic-title\" href=\"https://forum.franceparkinson.fr/forums/topic/intolerance-aux-traitements/#post-795\" title=\"Bonjour venus je suis épouse de homme atteint de&hellip;\">Intolérance aux traitements</a>\r\n                </li>\r\n\r\n            \r\n        </ul>\r\n\r\n        </aside>\t\t\n\t\t\t\t\n\t</div><!-- #secondary -->\n\t\n\t\t\t</div>\n\t</div>\n\t\n      </div><!-- #main -->\r\n\r\n  \r\n\r\n\r\n    <footer id=\"colophon\" class=\"site-footer\" role=\"contentinfo\">\r\n    <div class=\"contentfooter\">\r\n      <div class=\"menufooter\">\r\n        <div class=\"menu-menufooter-container\"><ul id=\"menu-menufooter\" class=\"menu\"><li id=\"menu-item-37\" class=\"menu-item menu-item-type-post_type menu-item-object-page first-child menu-item-37\"><a href=\"https://forum.franceparkinson.fr/charte/\">Charte</a></li>\n<li id=\"menu-item-38\" class=\"menu-item menu-item-type-custom menu-item-object-custom last-child menu-item-38\"><a href=\"http://www.franceparkinson.fr/contact/\">Contact</a></li>\n</ul></div>      </div>\r\n      <div class=\"mentionfooter\">\r\n        <p>&copy;  2019 Franceparkinsonforum<p>\r\n      </div>\r\n      <div class=\"logofaciliti\">\r\n        <a href=\"#\">\r\n          <img src=\"https://www.franceparkinson.fr/wp-content/themes/twentysixteen-child/img/Logo/logofaciliti.png\">\r\n        </a>\r\n      </div>\r\n    </div>\r\n\r\n    </footer><!-- .site-footer -->\r\n\r\n\r\n  \r\n</div><!--/.inner-wrapper-->\r\n\r\n  <nav id=\"mobile-menu-nav-wrapper\" class=\"mobile-navigation hidden-md hidden-lg\" role=\"navigation\">\n\t<ul class=\"menu\"><li>Create a Menu for small screen in <a href=\"https://forum.franceparkinson.fr/wp-admin/nav-menus.php\">Menus</a> and assign it as Mobile Menu in <a href=\"https://forum.franceparkinson.fr/wp-admin/nav-menus.php?action=locations\">Theme Location</a></li></ul>\t\t\n\t<a href=\"javascript:void(0)\" class=\"main-menu-toggle hidden-md hidden-lg\"><span class=\"bar1\"></span><span class=\"bar2\"></span><span class=\"bar3\"></span></a>\n</nav><div class=\"site-modal hidden\" data-role=\"search\">\n<div class=\"site-modal-backdrop\" data-action=\"close-modal\" data-selector=\".site-modal\" data-role=\"search\" data-remove-class=\"active\" data-add-class=\"hidden\" data-body-active=\"modal-active modal-search-active overflow-hidden\"></div>\n<div class=\"site-modal-inner\">\n\t<div class=\"site-modal-content-wrapper\">\n\t\t<div class=\"site-modal-content site-modal-search\" data-request=\"regular\">\n\t\t\t<form class=\"form-horizontal site-modal-content-inner search-form\" role=\"search\" method=\"get\" action=\"https://forum.franceparkinson.fr/\">\n\n\t\t\t\t<h3 class=\"site-modal-heading\">Search the site</h3>\n\t\t\t\t<div class=\"form-group has-feedback\">\n\t\t\t\t  <input class=\"form-control input-lg search-field\" type=\"search\" placeholder=\"Text to search&hellip;\" value=\"\" name=\"s\" title=\"Search for:\" data-swplive=\"true\" autocomplete=\"off\">\n\t\t\t\t  <span class=\"form-control-feedback\"><i class=\"fa fa-search\"></i></span>\n\t\t\t\t  <input type=\"submit\" class=\"search-submit btn btn-primary hidden\" value=\"Search\">\t\t\t\t</div>\n\t\t\t\t\n\t\t\t</form>\n\t\t\t\t\t\t<span class=\"site-modal-close\" data-action=\"close-modal\" data-selector=\".site-modal\" data-role=\"search\" data-remove-class=\"active\" data-add-class=\"hidden\" data-body-active=\"modal-active modal-search-active overflow-hidden\">&times;</span>\n\t\t</div>\n\t</div>\n</div>\n</div>\r\n</div><!--/#page-->\r\n\r\n\r\n<script type='text/javascript' src='https://forum.franceparkinson.fr/wp-content/themes/yeahthemes-sparkle/framework/js/bootstrap.min.js?ver=3.0.3'></script>\n<script type='text/javascript' src='https://forum.franceparkinson.fr/wp-content/themes/yeahthemes-sparkle/js/jquery.flexslider.min.js?ver=2.1'></script>\n<script type='text/javascript' src='https://forum.franceparkinson.fr/wp-content/themes/yeahthemes-sparkle/js/yt.script.min.js?ver=1.0'></script>\n<script type='text/javascript' src='https://forum.franceparkinson.fr/wp-content/themes/yeahthemes-sparkle/js/jquery.sharrre.min.js?ver=1.0'></script>\n<script type='text/javascript'>\n/* <![CDATA[ */\nvar Yeahthemes = {\"_vars\":{\"currentPostID\":\"43\",\"ajaxurl\":\"https:\\/\\/forum.franceparkinson.fr\\/?yt_ajaxify=1\",\"nonce\":\"bbf2f25762\"},\"themeVars\":{\"nonce\":\"37796e1852\",\"megaMenu\":{\"nonce\":\"8faa9e9019\",\"ajax\":false,\"effect\":\"fadeIn\"},\"mobileMenuNonce\":\"3df10545f8\",\"mobileMenuEffect\":\"zoomOut\",\"widgetAjaxPostsByCatNonce\":\"39b5245dba\"}};\n/* ]]> */\n</script>\n<script type='text/javascript' src='https://forum.franceparkinson.fr/wp-content/themes/yeahthemes-sparkle/js/yt.custom.min.js?ver=1.0'></script>\n<script type='text/javascript' src='https://forum.franceparkinson.fr/wp-includes/js/wp-embed.min.js?ver=4.6.1'></script>\n\r\n</body>\r\n\r\n</html>\r\n",
  "url": "https://forum.franceparkinson.fr/enregistrement/"
}