{
  "contentId": "669a70f0-8866-11e9-8f96-97f71b5221d6",
  "html": "<!DOCTYPE html>\n<html lang=\"en\">\n  <head>\n    <meta charset=\"utf-8\">\n    <title>Parkinson uk nurse… - Research Support Network - Parkinson&#39;s UK Forum</title>\n    <meta name=\"description\" content=\"\">\n    <meta name=\"author\" content=\"\">\n<meta name=\"generator\" content=\"Discourse 2.2.5 - https://github.com/discourse/discourse version c294ff3609f988dcafb742e91606d60ca13b794d\">\n<link rel=\"icon\" type=\"image/png\" href=\"https://forum.parkinsons.org.uk/uploads/db7928/original/2X/3/311fc84f89f49f38601a2f16b295b6f03d3ce5dd.jpg\">\n<link rel=\"apple-touch-icon\" type=\"image/png\" href=\"https://forum.parkinsons.org.uk/uploads/db7928/original/2X/3/311fc84f89f49f38601a2f16b295b6f03d3ce5dd.jpg\">\n<meta name=\"theme-color\" content=\"#ffffff\">\n<meta name=\"viewport\" content=\"width=device-width, minimum-scale=1.0, maximum-scale=1.0, user-scalable=yes\">\n<link rel=\"canonical\" href=\"https://forum.parkinsons.org.uk/t/parkinson-uk-nurse/10220\" />\n<script type=\"application/ld+json\">{\"@context\":\"http://schema.org\",\"@type\":\"WebSite\",\"url\":\"https://forum.parkinsons.org.uk\",\"potentialAction\":{\"@type\":\"SearchAction\",\"target\":\"https://forum.parkinsons.org.uk/search?q={search_term_string}\",\"query-input\":\"required name=search_term_string\"}}</script>\n<link rel=\"search\" type=\"application/opensearchdescription+xml\" href=\"https://forum.parkinsons.org.uk/opensearch.xml\" title=\"Parkinson&#39;s UK Forum Search\">\n\n      <link href=\"/stylesheets/desktop_f99246ae801b083d3e4cca979d0dade8615b39ac.css?__ws=forum.parkinsons.org.uk\" media=\"all\" rel=\"stylesheet\" data-target=\"desktop\" data-theme-id=\"12\"/>\n      <link href=\"/stylesheets/desktop_theme_12_5d27531cf43f9df0c03a6a6ec3109dd05f9dfc49.css?__ws=forum.parkinsons.org.uk\" media=\"all\" rel=\"stylesheet\" data-target=\"desktop_theme\" data-theme-id=\"12\"/>\n    <link href=\"https://fonts.googleapis.com/css?family=Open+Sans\" rel=\"stylesheet\">\n\n    <meta id=\"data-ga-universal-analytics\" data-tracking-code=\"UA-4855628-1\" data-json=\"{&quot;cookieDomain&quot;:&quot;auto&quot;}\" data-auto-link-domains=\"\">\n\n<link rel='preload' href='/assets/google-universal-analytics-f35b4da49411e6f5559073523aab983da483976a3954c79c756f8579f6fbd6ef.js' as='script'/>\n<script src='/assets/google-universal-analytics-f35b4da49411e6f5559073523aab983da483976a3954c79c756f8579f6fbd6ef.js'></script>\n\n      <link rel=\"alternate\" type=\"application/rss+xml\" title=\"RSS feed of &#39;Parkinson uk nurse…&#39;\" href=\"https://forum.parkinsons.org.uk/t/parkinson-uk-nurse/10220.rss\" />\n  <meta property=\"og:site_name\" content=\"Parkinson&#39;s UK Forum\" />\n<meta name=\"twitter:card\" content=\"summary\" />\n<meta name=\"twitter:image\" content=\"https://forum.parkinsons.org.uk/uploads/db7928/original/2X/3/311fc84f89f49f38601a2f16b295b6f03d3ce5dd.jpg\" />\n<meta property=\"og:image\" content=\"https://forum.parkinsons.org.uk/uploads/db7928/original/2X/3/311fc84f89f49f38601a2f16b295b6f03d3ce5dd.jpg\" />\n<meta property=\"og:url\" content=\"https://forum.parkinsons.org.uk/t/parkinson-uk-nurse/10220\" />\n<meta name=\"twitter:url\" content=\"https://forum.parkinsons.org.uk/t/parkinson-uk-nurse/10220\" />\n<meta property=\"og:title\" content=\"Parkinson uk nurse…\" />\n<meta name=\"twitter:title\" content=\"Parkinson uk nurse…\" />\n<meta property=\"article:published_time\" content=\"2017-11-02T15:39:50+00:00\" />\n<meta property=\"og:ignore_canonical\" content=\"true\" />\n\n\n\n    \n  </head>\n  <body class=\"crawler\">\n    <header role=\"banner\">\n    <div class=\"region region-header\">\n        <div class=\"region-header-wrapper\">\n            <div id=\"block-parkinsons-d8-branding\" class=\"block block-system block-system-branding-block\">\n                <a href=\"/\" title=\"Home\" rel=\"home\" class=\"site-logo\">\n                    <img src=\"https://forum.parkinsons.org.uk/uploads/db7928/original/2X/8/862bb7d172e7d127e7f3e147ec43594aa62ac945.png\" alt=\"Parkinson's UK. Change Attitudes. Find a cure. Join us.\">\n                </a>\n            </div>\n            <div id=\"block-helpline\" class=\"block block-block-content block-block-content871cd5af-b938-4947-9dc0-d5c211d08fe3 style-phone\">\n                <div class=\"field field--name-field-link field--type-link field--label-hidden field__item\"><a href=\"tel:+448088000303\">Helpline 0808 800 0303</a></div>\n            </div>\n            <div id=\"block-shop\" class=\"block block-block-content block-block-content6fba5ae5-7797-49cd-8367-f321d8111cd6 style-regular\">\n                <div class=\"field field--name-field-link field--type-link field--label-hidden field__item\"><a href=\"https://shop.parkinsons.org.uk\">Shop</a></div>\n            </div>\n        </div>\n    </div>\n</header>\n\n\n<script src=\"/theme-javascripts/b7e9763fcb584fc8265c56a9f557cd6d2e1e8ed8.js?__ws=forum.parkinsons.org.uk\"></script>\n    <header>\n      <a href=\"/\">\n          <img src=\"https://forum.parkinsons.org.uk/uploads/db7928/original/2X/8/862bb7d172e7d127e7f3e147ec43594aa62ac945.png\" alt=\"Parkinson&#39;s UK Forum\" id=\"site-logo\" style=\"max-width: 150px;\">\n      </a>\n    </header>\n    <div id=\"main-outlet\" class=\"wrap\">\n      <h1>\n  <a href=\"/t/parkinson-uk-nurse/10220\">Parkinson uk nurse…</a>\n</h1>\n\n<div id='breadcrumbs'>\n    <div id=\"breadcrumb-0\" itemscope itemtype=\"http://data-vocabulary.org/Breadcrumb\"\n        itemref=\"breadcrumb-1\"\n      >\n      <a href=\"/c/research\" itemprop=\"url\">\n        <span itemprop=\"title\">Research</span>\n      </a>\n    </div>\n    <div id=\"breadcrumb-1\" itemscope itemtype=\"http://data-vocabulary.org/Breadcrumb\"\n>\n      <a href=\"/c/research/research-support-network\" itemprop=\"url\">\n        <span itemprop=\"title\">Research Support Network</span>\n      </a>\n    </div>\n</div>\n\n\n\n\n\n<hr>\n\n\n  <div itemscope itemtype='http://schema.org/DiscussionForumPosting'>\n      <div class='creator'>\n        <span>\n          <a href='/u/Scunny1969'><b itemprop='author'>Scunny1969</b></a>\n          \n          <time datetime='2017-11-02T15:39:50Z' itemprop='datePublished'>\n            2017-11-02 15:39:50 UTC\n          </time>\n        </span>\n        <span itemprop='position'>#1</span>\n      </div>\n      <div class='post' itemprop='articleBody'>\n        \n      </div>\n      <meta itemprop='interactionCount' content='UserLikes:0'>\n      <meta itemprop='interactionCount' content='UserComments:0'>\n      <meta itemprop='headline' content='Parkinson uk nurse…'>\n      <hr>\n  </div>\n  <div itemscope itemtype='http://schema.org/DiscussionForumPosting'>\n      <div class='creator'>\n        <span>\n          <a href='/u/benji'><b itemprop='author'>benji</b></a>\n          \n          <time datetime='2017-11-02T22:55:15Z' itemprop='datePublished'>\n            2017-11-02 22:55:15 UTC\n          </time>\n        </span>\n        <span itemprop='position'>#2</span>\n      </div>\n      <div class='post' itemprop='articleBody'>\n        <p>Hi Scunny,</p>\r\n<p>I see this is your first post, and the forum does take some getting used to, so prevail and try again to post what you wanted to say, please.</p>\r\n<p>You have actually opened up a thread for me that I wanted to start so hope that you won&#39;t mind if I hijack it as&nbsp;I have been in contact with Admin. as I can&#39;t , for some reason,&nbsp; start a new topic.</p>\r\n<p>Are you happy with your PNS or not?</p>\r\n<p>My OH has now been in hospital for just over 2 weeks. There IS a PSN based at that hospital. The day after&nbsp; they were admitted I had reason to call the PSN at the clinic they attend to say that I could not discuss&nbsp; the tweaks in their medication, as arranged, as they were in hospital.I fully expected that they would contact our local PSN to tell them that my OH was in the local hospital.15 days and NO contact!!! Frankly, I am disgusted.</p>\r\n<p>I suggested some time ago that our local PSN attend, maybe&nbsp;twice a year for an hour or so,&nbsp;our branch meetings to, informally address little concerns that did not require an appointment for a home visit, which, in my experience, with them being on leave, being at a conference, is usually 3 weeks or so later.</p>\r\n<p>Further disgusted to have the PSN say that our meetings clashed with their clinic attendance AND, even more&nbsp; disgusted for the PSN to say that, the consultant wanted them to learn. Do they not have any training or expertise on their appointment, seems not??Now I do see the need for PSN&#39;s to sit on on appointments with those newly diagnosed and those who have a problem&nbsp;&nbsp;&nbsp;&nbsp;with their medication needing adjustment BUT, SITTING IN ON EVERY APPOINTMMENT?? why?</p>\r\n<p>In the 20 years since diagnosis, we have rarely&nbsp; needed a PSN, and have not experienced this until recently,sitting in on&nbsp;every consultation.</p>\r\n<p>I ask&nbsp;why PSN&#39;s are not out there, in the community, doing what I and others, expect of them??</p>\r\n<p>Our local PSN&nbsp; has been in our area now for a year. Not one phone call in that time to see how OH is but they are full on when it comes to attending some of our fund raiisng events.<br />\r\n\t&nbsp;</p>\r\n<p>Maybe PUK can advise me of the job description of PSN&#39;s. Should&nbsp;they make contact with PWP in their area maybe twice a year and should they attend branch meetings at all?</p>\r\n<p>If their remit is neither of the above, then or branch will seriously consider any further donations to extend the PSN&#39;s network.</p>\n      </div>\n      <meta itemprop='interactionCount' content='UserLikes:0'>\n      <meta itemprop='interactionCount' content='UserComments:0'>\n      <meta itemprop='headline' content='Parkinson uk nurse…'>\n      <hr>\n  </div>\n  <div itemscope itemtype='http://schema.org/DiscussionForumPosting'>\n      <div class='creator'>\n        <span>\n          <a href='/u/benji'><b itemprop='author'>benji</b></a>\n          \n          <time datetime='2017-11-03T23:08:50Z' itemprop='datePublished'>\n            2017-11-03 23:08:50 UTC\n          </time>\n        </span>\n        <span itemprop='position'>#3</span>\n      </div>\n      <div class='post' itemprop='articleBody'>\n        <p>Over to you PUK.</p>\n      </div>\n      <meta itemprop='interactionCount' content='UserLikes:0'>\n      <meta itemprop='interactionCount' content='UserComments:0'>\n      <meta itemprop='headline' content='Parkinson uk nurse…'>\n      <hr>\n  </div>\n  <div itemscope itemtype='http://schema.org/DiscussionForumPosting'>\n      <div class='creator'>\n        <span>\n          <a href='/u/Moderators2'><b itemprop='author'>Moderators2</b></a>\n          \n          <time datetime='2017-11-04T00:14:11Z' itemprop='datePublished'>\n            2017-11-04 00:14:11 UTC\n          </time>\n        </span>\n        <span itemprop='position'>#4</span>\n      </div>\n      <div class='post' itemprop='articleBody'>\n        <p>Hi Benji,</p>\r\n<p>I&#39;m really sorry that you are so disappointed with your Parkinson&#39;s nurse. You can find out more about what they do and what their remit is here:&nbsp;<a href=\"https://www.parkinsons.org.uk/information-and-support/parkinsons-nurses\" target=\"_blank\">https://www.parkinsons.org.uk/information-and-support/parkinsons-nurses</a></p>\r\n<p>Have you been in touch with your local adviser? They can be a huge source of help. Please have a look here if you haven&#39;t contacted yours yet:&nbsp;<a href=\"https://www.parkinsons.org.uk/information-and-support/helpline-and-local-advisers\" target=\"_blank\">https://www.parkinsons.org.uk/information-and-support/helpline-and-local-advisers</a></p>\r\n<p>It would be very helpful if you could ring the helpline to discuss the issues you have been having with your Parkinson&#39;s nurse. As you know, you can access Parkinson&#39;s nurses on the helpline, but it might also be very useful to explore what can be done to improve the service you have been receiving from yours and look at alternative sources of help.</p>\r\n<p>Best wishes,</p>\r\n<p>Mara (Moderation team)&nbsp;</p>\n      </div>\n      <meta itemprop='interactionCount' content='UserLikes:0'>\n      <meta itemprop='interactionCount' content='UserComments:0'>\n      <meta itemprop='headline' content='Parkinson uk nurse…'>\n      <hr>\n  </div>\n  <div itemscope itemtype='http://schema.org/DiscussionForumPosting'>\n      <div class='creator'>\n        <span>\n          <a href='/u/Babesbrown'><b itemprop='author'>Babesbrown</b></a>\n          \n          <time datetime='2017-11-05T09:41:00Z' itemprop='datePublished'>\n            2017-11-05 09:41:00 UTC\n          </time>\n        </span>\n        <span itemprop='position'>#5</span>\n      </div>\n      <div class='post' itemprop='articleBody'>\n        <p>My husband hasnt&nbsp; seen a PD nurse for over a year....despite leaving messages on her voicemail asking her to contact us.</p>\r\n<p>She was copied into a letter in April from the consultant asking her to contact us....</p>\r\n<p>I saw the PD local advisor a few weeks ago at a group and mentioned it to her,she said she would email the nurse.....</p>\r\n<p>We saw the consultant again in October and again mentioned we hadnt seen the PD nurse...she was again copied into the letter we recieved back from the visit asking her to contact us...</p>\r\n<p>Well.last week we finally got an appointment for December..over 15months since we saw a PD nurse..at the bottom if the letter in capital letters it stated &quot;If you have seen your consultant recently please ring to cancel this appointment and reschedule for another time&quot;..!!!!! She has obviously received the copy of the letter from the consultant so knows we saw him in October.</p>\r\n<p>BUT there is no way we are cancelling this appointment as its taken over a year to get it.....</p>\r\n<p>Feeling sadly let down by the system......</p>\n      </div>\n      <meta itemprop='interactionCount' content='UserLikes:0'>\n      <meta itemprop='interactionCount' content='UserComments:0'>\n      <meta itemprop='headline' content='Parkinson uk nurse…'>\n      <hr>\n  </div>\n  <div itemscope itemtype='http://schema.org/DiscussionForumPosting'>\n      <div class='creator'>\n        <span>\n          <a href='/u/TeeHee'><b itemprop='author'>TeeHee</b></a>\n          \n          <time datetime='2017-11-05T22:02:52Z' itemprop='datePublished'>\n            2017-11-05 22:02:52 UTC\n          </time>\n        </span>\n        <span itemprop='position'>#6</span>\n      </div>\n      <div class='post' itemprop='articleBody'>\n        <p>BB,</p>\r\n<p>Sorry to read not much progress on PD &nbsp;nurse situation. &nbsp;I really hope you are able&nbsp;to sort things out with the pd nurse in December and before leaving the appt&nbsp;you will have booked your next appt.</p>\r\n<p>Fingers crossed BB, good luck and take care. x</p>\r\n<p>&nbsp;</p>\r\n<p>&nbsp;</p>\n      </div>\n      <meta itemprop='interactionCount' content='UserLikes:0'>\n      <meta itemprop='interactionCount' content='UserComments:0'>\n      <meta itemprop='headline' content='Parkinson uk nurse…'>\n      <hr>\n  </div>\n  <div itemscope itemtype='http://schema.org/DiscussionForumPosting'>\n      <div class='creator'>\n        <span>\n          <a href='/u/Babesbrown'><b itemprop='author'>Babesbrown</b></a>\n          \n          <time datetime='2017-11-06T07:16:55Z' itemprop='datePublished'>\n            2017-11-06 07:16:55 UTC\n          </time>\n        </span>\n        <span itemprop='position'>#7</span>\n      </div>\n      <div class='post' itemprop='articleBody'>\n        <p>Morning TeeHee..</p>\r\n<p>Thanks for your reply.</p>\r\n<p>At the moment both myself and my Husband are very despondent with the whole PD situatuon.When my husband was diagnoised by the consultant, the GP admitted to us afterwards that he had probably misdiagnosed him for 4/5 years...it was frozen shoulder,trapped nerve etc etc.because he was only 55 when the symptons started.He was to young for the PD diagnoisis.....this happens so many times I now know.So my husband is probably 6years + down the line with PD now.</p>\r\n<p>Then we were told about the amazing support and help available to both of us....face to face help not phone line help! Sadly that hasnt materialized for us.</p>\r\n<p>At the moment my husband is really angry about the PD nurse and the way he is being treated, basically having to complain to get an appointment. We are not the complaining sort of people normally just get on with things.</p>\r\n<p>He is saying he cant be bothered to see her as he may say something to her, but its me who is saying we will see her and we are not going to reschedule the appointment on principal.....surely anyone with PD has enough stress in their lives without the &quot;professionals&quot; adding to that...we are both working still and my husband is pushing himself daily to carry on as he has a very manual job. I know he is deteriorating before my eyes.... Maybe to the PD nurse he is just a name on a list.....</p>\r\n<p>Thats the way the system is making us feel...</p>\r\n<p>I will let you know how the appointment goes...not holding out any hope of another appointment booked on the day though....</p>\r\n<p>Sorry if this sounds like a rant but its just the frustration of it all and not meant to be a moan....</p>\r\n<p>Thanks for your reply.</p>\r\n<p>Denise&nbsp;</p>\n      </div>\n      <meta itemprop='interactionCount' content='UserLikes:0'>\n      <meta itemprop='interactionCount' content='UserComments:0'>\n      <meta itemprop='headline' content='Parkinson uk nurse…'>\n      <hr>\n  </div>\n  <div itemscope itemtype='http://schema.org/DiscussionForumPosting'>\n      <div class='creator'>\n        <span>\n          <a href='/u/TeeHee'><b itemprop='author'>TeeHee</b></a>\n          \n          <time datetime='2017-11-06T14:13:00Z' itemprop='datePublished'>\n            2017-11-06 14:13:00 UTC\n          </time>\n        </span>\n        <span itemprop='position'>#8</span>\n      </div>\n      <div class='post' itemprop='articleBody'>\n        <p>Denise,</p>\r\n<p>It&#39;s not a rant just you releasing all that frustration and its good for you.</p>\r\n<p>I was diagnosed with PD aged 46 , a few months away from my PD 10 yr anniversary. &nbsp;I am changing my pd nurse as no support , etc... I will have to travel a bit more but I am hopeful this will help. Is this an option for you?</p>\r\n<p>I discussed this with my GP who agreed and did the paperwork, awaiting next appt details. &nbsp;I like you &nbsp;have problems getting an appt. and when I do see her its a negative experience. I am not convinced caring, supportive are words in her vocabulary I feel she is cold and dismissive.</p>\r\n<p>&nbsp;I think she may be an&nbsp;NHS android /robot in the guise of a female and have to resist checking the back of her neck for wires or a plug socket.&nbsp;</p>\r\n<p>My little burst of frustration BB, but am thinking of you and keep us updated.&nbsp;</p>\r\n<p>Xxxx</p>\n      </div>\n      <meta itemprop='interactionCount' content='UserLikes:0'>\n      <meta itemprop='interactionCount' content='UserComments:0'>\n      <meta itemprop='headline' content='Parkinson uk nurse…'>\n      <hr>\n  </div>\n  <div itemscope itemtype='http://schema.org/DiscussionForumPosting'>\n      <div class='creator'>\n        <span>\n          <a href='/u/benji'><b itemprop='author'>benji</b></a>\n          \n          <time datetime='2017-11-06T23:10:25Z' itemprop='datePublished'>\n            2017-11-06 23:10:25 UTC\n          </time>\n        </span>\n        <span itemprop='position'>#9</span>\n      </div>\n      <div class='post' itemprop='articleBody'>\n        <p>Seems it is not only us that are having problems with PSN&#39;s. Thanks for your posts, babesbrown and TeeHee.</p>\r\n<p>&nbsp;</p>\n      </div>\n      <meta itemprop='interactionCount' content='UserLikes:0'>\n      <meta itemprop='interactionCount' content='UserComments:0'>\n      <meta itemprop='headline' content='Parkinson uk nurse…'>\n      <hr>\n  </div>\n  <div itemscope itemtype='http://schema.org/DiscussionForumPosting'>\n      <div class='creator'>\n        <span>\n          <a href='/u/benji'><b itemprop='author'>benji</b></a>\n          \n          <time datetime='2018-04-08T22:44:28Z' itemprop='datePublished'>\n            2018-04-08 22:44:28 UTC\n          </time>\n        </span>\n        <span itemprop='position'>#10</span>\n      </div>\n      <div class='post' itemprop='articleBody'>\n        <p>OH now home for 8 weeks after 101 days in hospital. No visit whilst an inpatient from the PSN since  before Christmas or since discharge from hospital.</p>\n<p>Indirectly we have heard that the absence will be a long one. Why has nobody contacted us with an alternative contact.</p>\n<p>We are also in limbo with regard to a consultant. Our consultant of many years is not in our local  health board area BUT, one has been appointed for our LHB but has no knowledge of the many past years of history. Continuity is very important.( Whilst in hospital many doctors wanted to change medication, almost on a daily basis. They didn’t understand that one bad day did not warrant a change/review of meds.)</p>\n<p>However, getting to the appointment would be a nightmare and impossible. We can however, see a Dr at our local hospital, the one whose care was less than exemplary whilst OH was an inpatient, who increased and added new meds, which had no benefit or improvement, and who also missed a problem that has now resulted in an urgent referral for a CT scan after I expressed my concern for months.</p>\n<p>Between the devil and the…</p>\n      </div>\n      <meta itemprop='interactionCount' content='UserLikes:0'>\n      <meta itemprop='interactionCount' content='UserComments:0'>\n      <meta itemprop='headline' content='Parkinson uk nurse…'>\n      <hr>\n  </div>\n\n\n\n\n\n\n    </div>\n    <footer class=\"container\">\n      <nav class='crawler-nav' itemscope itemtype='http://schema.org/SiteNavigationElement'>\n        <a href='/'>Home</a>\n        <a href=\"/categories\">Categories</a>\n        <a href=\"/guidelines\">FAQ/Guidelines</a>\n        <a href=\"/tos\">Terms of Service</a>\n        <a href=\"/privacy\">Privacy Policy</a>\n      </nav>\n      <p class='powered-by-link'>Powered by <a href=\"https://www.discourse.org\">Discourse</a>, best viewed with JavaScript enabled</p>\n    </footer>\n    \n  </body>\n  \n</html>\n",
  "url": "https://forum.parkinsons.org.uk/t/parkinson-uk-nurse/10220"
}