{
  "contentId": "69cac1f0-8869-11e9-8f96-97f71b5221d6",
  "html": "<!DOCTYPE html>\n<html lang=\"en\">\n  <head>\n    <meta charset=\"utf-8\">\n    <title>Becoming a carer - Introductions and personal stories - Parkinson&#39;s UK Forum</title>\n    <meta name=\"description\" content=\"Hi to anyone out there who might come across this…(my first post) \nI have very recently become my husband’s carer following a fall at end of June in which he broke his hip. He came out of hospital/rehab on Wednesday and &amp;hellip;\">\n    <meta name=\"author\" content=\"\">\n<meta name=\"generator\" content=\"Discourse 2.2.5 - https://github.com/discourse/discourse version c294ff3609f988dcafb742e91606d60ca13b794d\">\n<link rel=\"icon\" type=\"image/png\" href=\"https://forum.parkinsons.org.uk/uploads/db7928/original/2X/3/311fc84f89f49f38601a2f16b295b6f03d3ce5dd.jpg\">\n<link rel=\"apple-touch-icon\" type=\"image/png\" href=\"https://forum.parkinsons.org.uk/uploads/db7928/original/2X/3/311fc84f89f49f38601a2f16b295b6f03d3ce5dd.jpg\">\n<meta name=\"theme-color\" content=\"#ffffff\">\n<meta name=\"viewport\" content=\"width=device-width, minimum-scale=1.0, maximum-scale=1.0, user-scalable=yes\">\n<link rel=\"canonical\" href=\"https://forum.parkinsons.org.uk/t/becoming-a-carer/15580?page=3\" />\n<script type=\"application/ld+json\">{\"@context\":\"http://schema.org\",\"@type\":\"WebSite\",\"url\":\"https://forum.parkinsons.org.uk\",\"potentialAction\":{\"@type\":\"SearchAction\",\"target\":\"https://forum.parkinsons.org.uk/search?q={search_term_string}\",\"query-input\":\"required name=search_term_string\"}}</script>\n<link rel=\"search\" type=\"application/opensearchdescription+xml\" href=\"https://forum.parkinsons.org.uk/opensearch.xml\" title=\"Parkinson&#39;s UK Forum Search\">\n\n      <link href=\"/stylesheets/desktop_f99246ae801b083d3e4cca979d0dade8615b39ac.css?__ws=forum.parkinsons.org.uk\" media=\"all\" rel=\"stylesheet\" data-target=\"desktop\" data-theme-id=\"12\"/>\n      <link href=\"/stylesheets/desktop_theme_12_5d27531cf43f9df0c03a6a6ec3109dd05f9dfc49.css?__ws=forum.parkinsons.org.uk\" media=\"all\" rel=\"stylesheet\" data-target=\"desktop_theme\" data-theme-id=\"12\"/>\n    <link href=\"https://fonts.googleapis.com/css?family=Open+Sans\" rel=\"stylesheet\">\n\n    <meta id=\"data-ga-universal-analytics\" data-tracking-code=\"UA-4855628-1\" data-json=\"{&quot;cookieDomain&quot;:&quot;auto&quot;}\" data-auto-link-domains=\"\">\n\n<link rel='preload' href='/assets/google-universal-analytics-f35b4da49411e6f5559073523aab983da483976a3954c79c756f8579f6fbd6ef.js' as='script'/>\n<script src='/assets/google-universal-analytics-f35b4da49411e6f5559073523aab983da483976a3954c79c756f8579f6fbd6ef.js'></script>\n\n      <link rel=\"alternate\" type=\"application/rss+xml\" title=\"RSS feed of &#39;Becoming a carer&#39;\" href=\"https://forum.parkinsons.org.uk/t/becoming-a-carer/15580.rss\" />\n  <meta property=\"og:site_name\" content=\"Parkinson&#39;s UK Forum\" />\n<meta name=\"twitter:card\" content=\"summary\" />\n<meta name=\"twitter:image\" content=\"https://forum.parkinsons.org.uk/uploads/db7928/original/2X/3/311fc84f89f49f38601a2f16b295b6f03d3ce5dd.jpg\" />\n<meta property=\"og:image\" content=\"https://forum.parkinsons.org.uk/uploads/db7928/original/2X/3/311fc84f89f49f38601a2f16b295b6f03d3ce5dd.jpg\" />\n<meta property=\"og:url\" content=\"https://forum.parkinsons.org.uk/t/becoming-a-carer/15580?page=3\" />\n<meta name=\"twitter:url\" content=\"https://forum.parkinsons.org.uk/t/becoming-a-carer/15580?page=3\" />\n<meta property=\"og:title\" content=\"Becoming a carer\" />\n<meta name=\"twitter:title\" content=\"Becoming a carer\" />\n<meta property=\"og:description\" content=\"Thanks a lot Reah, I wouldn’t  have seen the post otherwise  Regards,  Pippa\" />\n<meta name=\"twitter:description\" content=\"Thanks a lot Reah, I wouldn’t  have seen the post otherwise  Regards,  Pippa\" />\n<meta name=\"twitter:label1\" value=\"Reading time\" />\n<meta name=\"twitter:data1\" value=\"21 mins \uD83D\uDD51\" />\n<meta name=\"twitter:label2\" value=\"Likes\" />\n<meta name=\"twitter:data2\" value=\"17 ❤\" />\n<meta property=\"article:published_time\" content=\"2019-04-16T17:45:17+00:00\" />\n<meta property=\"og:ignore_canonical\" content=\"true\" />\n\n      <link rel=\"prev\" href=\"/t/becoming-a-carer/15580?page=2\">\n\n\n    \n  </head>\n  <body class=\"crawler\">\n    <header role=\"banner\">\n    <div class=\"region region-header\">\n        <div class=\"region-header-wrapper\">\n            <div id=\"block-parkinsons-d8-branding\" class=\"block block-system block-system-branding-block\">\n                <a href=\"/\" title=\"Home\" rel=\"home\" class=\"site-logo\">\n                    <img src=\"https://forum.parkinsons.org.uk/uploads/db7928/original/2X/8/862bb7d172e7d127e7f3e147ec43594aa62ac945.png\" alt=\"Parkinson's UK. Change Attitudes. Find a cure. Join us.\">\n                </a>\n            </div>\n            <div id=\"block-helpline\" class=\"block block-block-content block-block-content871cd5af-b938-4947-9dc0-d5c211d08fe3 style-phone\">\n                <div class=\"field field--name-field-link field--type-link field--label-hidden field__item\"><a href=\"tel:+448088000303\">Helpline 0808 800 0303</a></div>\n            </div>\n            <div id=\"block-shop\" class=\"block block-block-content block-block-content6fba5ae5-7797-49cd-8367-f321d8111cd6 style-regular\">\n                <div class=\"field field--name-field-link field--type-link field--label-hidden field__item\"><a href=\"https://shop.parkinsons.org.uk\">Shop</a></div>\n            </div>\n        </div>\n    </div>\n</header>\n\n\n<script src=\"/theme-javascripts/b7e9763fcb584fc8265c56a9f557cd6d2e1e8ed8.js?__ws=forum.parkinsons.org.uk\"></script>\n    <header>\n      <a href=\"/\">\n          <img src=\"https://forum.parkinsons.org.uk/uploads/db7928/original/2X/8/862bb7d172e7d127e7f3e147ec43594aa62ac945.png\" alt=\"Parkinson&#39;s UK Forum\" id=\"site-logo\" style=\"max-width: 150px;\">\n      </a>\n    </header>\n    <div id=\"main-outlet\" class=\"wrap\">\n      <h1>\n  <a href=\"/t/becoming-a-carer/15580\">Becoming a carer</a>\n</h1>\n\n<div id='breadcrumbs'>\n    <div id=\"breadcrumb-0\" itemscope itemtype=\"http://data-vocabulary.org/Breadcrumb\"\n        itemref=\"breadcrumb-1\"\n      >\n      <a href=\"/c/about-me\" itemprop=\"url\">\n        <span itemprop=\"title\">About me</span>\n      </a>\n    </div>\n    <div id=\"breadcrumb-1\" itemscope itemtype=\"http://data-vocabulary.org/Breadcrumb\"\n>\n      <a href=\"/c/about-me/introductions-and-personal-stories\" itemprop=\"url\">\n        <span itemprop=\"title\">Introductions and personal stories</span>\n      </a>\n    </div>\n</div>\n\n\n\n\n\n<hr>\n\n\n  <div itemscope itemtype='http://schema.org/DiscussionForumPosting'>\n      <div class='creator'>\n        <span>\n          <a href='/u/Pippa'><b itemprop='author'>Pippa</b></a>\n          \n          <time datetime='2019-04-16T17:45:17Z' itemprop='datePublished'>\n            2019-04-16 17:45:17 UTC\n          </time>\n        </span>\n        <span itemprop='position'>#41</span>\n      </div>\n      <div class='post' itemprop='articleBody'>\n        <p>Thanks a lot Reah, I wouldn’t  have seen the post otherwise</p>\n<p>Regards,<br>\nPippa</p>\n      </div>\n      <meta itemprop='interactionCount' content='UserLikes:0'>\n      <meta itemprop='interactionCount' content='UserComments:1'>\n      <meta itemprop='headline' content='Becoming a carer'>\n      <hr>\n  </div>\n  <div itemscope itemtype='http://schema.org/DiscussionForumPosting'>\n      <div class='creator'>\n        <span>\n          <a href='/u/Reah'><b itemprop='author'>Reah</b></a>\n          \n          <time datetime='2019-04-17T09:18:18Z' itemprop='datePublished'>\n            2019-04-17 09:18:18 UTC\n          </time>\n        </span>\n        <span itemprop='position'>#42</span>\n      </div>\n      <div class='post' itemprop='articleBody'>\n        <p>You’re welcome. <img src=\"https://forum.parkinsons.org.uk/images/emoji/twitter/blush.png?v=6\" title=\":blush:\" class=\"emoji\" alt=\":blush:\"></p>\n<p>Best wishes,<br>\nReah</p>\n      </div>\n      <meta itemprop='interactionCount' content='UserLikes:0'>\n      <meta itemprop='interactionCount' content='UserComments:0'>\n      <meta itemprop='headline' content='Becoming a carer'>\n      <hr>\n  </div>\n  <div itemscope itemtype='http://schema.org/DiscussionForumPosting'>\n      <div class='creator'>\n        <span>\n          <a href='/u/Livinginhope'><b itemprop='author'>Livinginhope</b></a>\n          \n          <time datetime='2019-04-17T13:17:39Z' itemprop='datePublished'>\n            2019-04-17 13:17:39 UTC\n          </time>\n        </span>\n        <span itemprop='position'>#43</span>\n      </div>\n      <div class='post' itemprop='articleBody'>\n        <p>Thank you Pippa. I’ve received your PM and I’ll continue this conversation privately, but I just wanted to say publicly, in case it helps others in a similar situation, how amazing it was to receive your reply on here yesterday. It felt like a block of ice inside me melting. It was extraordinary, and unexpected. The mere fact of making contact with someone else who empirically understands - I never imagined it could be so powerful. So to anyone else feeling alone and wondering whether to reach out, I’d say “please, for your own sake, do it”.</p>\n      </div>\n      <meta itemprop='interactionCount' content='UserLikes:2'>\n      <meta itemprop='interactionCount' content='UserComments:1'>\n      <meta itemprop='headline' content='Becoming a carer'>\n      <hr>\n  </div>\n  <div itemscope itemtype='http://schema.org/DiscussionForumPosting'>\n      <div class='creator'>\n        <span>\n          <a href='/u/Giffy1'><b itemprop='author'>Giffy1</b></a>\n          \n          <time datetime='2019-04-21T22:48:53Z' itemprop='datePublished'>\n            2019-04-21 22:48:53 UTC\n          </time>\n        </span>\n        <span itemprop='position'>#44</span>\n      </div>\n      <div class='post' itemprop='articleBody'>\n        <p>It’s good to read this thread. I feel dreadfully alone much of the time. My husband has had PD diagnosed for 11 years, he’s 74, ten years older than me. He’s still mobile but I see PD creeping and stealing a little more of him every day. We live in a rather isolated situation and although I still get out and about, I feel increasing anxiety about him falling and just lately he’s been getting confused more. He’s been to the local memory clinic and they diagnosed 'some cognitive impairment '. He doesn’t want to go to a PD support group, because he doesn’t want to see how bad he will become. He is becoming more and more isolated and as his needs occupy me more,  I fear that I too will be even more alone.<br>\nI guess someone will read this, and so many of you are so much worse off than I am, I feel kind of selfish. Thanks for being out there.</p>\n      </div>\n      <meta itemprop='interactionCount' content='UserLikes:1'>\n      <meta itemprop='interactionCount' content='UserComments:2'>\n      <meta itemprop='headline' content='Becoming a carer'>\n      <hr>\n  </div>\n  <div itemscope itemtype='http://schema.org/DiscussionForumPosting'>\n      <div class='creator'>\n        <span>\n          <a href='/u/Livinginhope'><b itemprop='author'>Livinginhope</b></a>\n          \n          <time datetime='2019-04-22T08:52:31Z' itemprop='datePublished'>\n            2019-04-22 08:52:31 UTC\n          </time>\n        </span>\n        <span itemprop='position'>#45</span>\n      </div>\n      <div class='post' itemprop='articleBody'>\n        <p>So sorry you feel so alone, Giffy1. I hope reaching out here and forming some sort of connection with those of us in a similar boat will lessen your sense of aloneness. It helps me, but if I’m honest knowing there are so many of us struggling with this challenge and feeling so isolated also makes me angry because we are doing such a hard job and there is so little understanding (I think) in society of what that’s like and what it means. I guess many people would say that looking after each other as we become infirm and as we age is what comes with a long-term relationship, with marriage. But that’s too glib a response. The  situation you and I and other carers find ourselves in is very specific to our time and culture. Not only are people living longer, but the dispersed nature of modern families means that when one partner develops a long-term condition, the other partner cares for them alone, whereas in earlier times and in other cultures much of the day to day burden would be  shared within the family and even the wider community. On the plus side, I find that my husband‘s condition, and the particular situation we’re in at the moment where he’s suffered a bit of a crisis and isn’t at home for the time being, has brought out extraordinary kindness in people, some of whom I didn’t know very well beforehand.<br>\nI found this on a website recently:<br>\n“One woman stated that after caring for her husband for 20 years, she stopped calling it Parkinson’s and started calling it “Infinite Disease”, because there is no end to the number of ways it can break your heart. When you are caring for someone with Parkinson’s, Alzheimer’s or any other long-term disease, it’s not at all unusual for friends and family members to inquire about the condition of your loved one and never even think to ask about what’s happening in your mind, heart or body. As a caregiver, you have to learn that you cannot count on anyone who hasn’t done what you’re doing to recognize or understand how incredibly difficult this journey can be.”<br>\nI guess that’s why we’re all here in this forum.</p>\n      </div>\n      <meta itemprop='interactionCount' content='UserLikes:1'>\n      <meta itemprop='interactionCount' content='UserComments:1'>\n      <meta itemprop='headline' content='Becoming a carer'>\n      <hr>\n  </div>\n  <div itemscope itemtype='http://schema.org/DiscussionForumPosting'>\n      <div class='creator'>\n        <span>\n          <a href='/u/Pippa'><b itemprop='author'>Pippa</b></a>\n          \n          <time datetime='2019-04-22T10:33:34Z' itemprop='datePublished'>\n            2019-04-22 10:33:34 UTC\n          </time>\n        </span>\n        <span itemprop='position'>#46</span>\n      </div>\n      <div class='post' itemprop='articleBody'>\n        <p>Hi Giffy1,<br>\nGood of you to bare your soul and put it out there…it’a  bit like fishing ( not that I go fishing)…casting the line and hoping, trusting, that something will happen. Takes courage and vulnerability.<br>\nSuch a huge adjustment to expectations and hopes as to what life was going to be like , and so many dimensions to the experience of caring for a partner, some of which I find very difficult to put into words.<br>\nFor what it is worth, I think that comparisons are odious…some people seem to have it “worse”, others “better”. But who is to say ( not that it matters)… ? So many variables ( physical condition, emotional and psychological resilience, past  experience , belief system, support system, financial resources etc etc ) that it makes it impossible to quantify in any but a very superficial sense. We each have enough on our plates without adding further guilt for feeling bad and looking over our shoulders at what others are doing, or what we think they are thinking, though I do that a lot and it doesn’t help, and I am often wrong.<br>\nA lot of the time I don’t even want to have to explain or describe how my OH is, or how I am…can it not be taken as read that it is hard and that a spontaneous and unconditional act of kindness, without being asked for,  is what is needed? I guess that some, many , people fear getting it wrong ( and that is easy to do too), or interfering or whatever…it’s not an exact science. This might sound awful, but having to add “be grateful “ to my list of things to be done is sometimes a step too far .<br>\nI am sure we all ( in this boat) fear or dread what is to come…in my better moments I force myself not to think about it, or not beyond the next month or so, or tell myself that I really don’t know ( having married his lordship 27 years ago, much against the views of my parents who predicted problems if we lasted over 20 years due to the age difference…on the grounds, apart from love, that he or I or both of us could get run over by a bus the following day…) Sufficient unto the day, and all that (…is the evil thereof).<br>\nI hope you are able to let some of this glorious sun seep into your skin and bones and be warmed by it,<br>\nBest wishes, Pippa</p>\n      </div>\n      <meta itemprop='interactionCount' content='UserLikes:0'>\n      <meta itemprop='interactionCount' content='UserComments:0'>\n      <meta itemprop='headline' content='Becoming a carer'>\n      <hr>\n  </div>\n  <div itemscope itemtype='http://schema.org/DiscussionForumPosting'>\n      <div class='creator'>\n        <span>\n          <a href='/u/Pippa'><b itemprop='author'>Pippa</b></a>\n          \n          <time datetime='2019-04-23T12:33:54Z' itemprop='datePublished'>\n            2019-04-23 12:33:54 UTC\n          </time>\n        </span>\n        <span itemprop='position'>#47</span>\n      </div>\n      <div class='post' itemprop='articleBody'>\n        <p>Hi there,<br>\nCan your current “crisis” ( for which read, a break for you) allow you to have a massage or some such…anything to allow others to care for you for a change? . Perhaps not easy to do, but you could always imagine your best friend getting it for you as a treat.<br>\nIf recent events  mean you are going to and from some medical establishment , then I hope you are able to let others do what is needs  to be done whilst you take care of yourself and get in touch, albeit briefly maybe , with you as you, just in case you had forgotten who that is!.</p>\n<p>Wondering whether you got my messages…not that a reply is needed,…</p>\n<p>Warm regards, ,</p>\n      </div>\n      <meta itemprop='interactionCount' content='UserLikes:0'>\n      <meta itemprop='interactionCount' content='UserComments:0'>\n      <meta itemprop='headline' content='Becoming a carer'>\n      <hr>\n  </div>\n  <div itemscope itemtype='http://schema.org/DiscussionForumPosting'>\n      <div class='creator'>\n        <span>\n          <a href='/u/Livinginhope'><b itemprop='author'>Livinginhope</b></a>\n          \n          <time datetime='2019-04-23T13:07:40Z' itemprop='datePublished'>\n            2019-04-23 13:07:40 UTC\n          </time>\n        </span>\n        <span itemprop='position'>#48</span>\n      </div>\n      <div class='post' itemprop='articleBody'>\n        <p>Hi Pippa</p>\n<p>I’ve sent three email replies … one on 17th, two on 21st. I wonder what’s happening to them! I just hit ‘reply’ at the bottom of each of your emails - maybe that wasn’t the right way to do it, or maybe they’re sitting in some private space in your forum account? Can you tell me what you did to PM me and then I can do the same to send messages to you, which I would very much like to do.</p>\n<p>V best</p>\n      </div>\n      <meta itemprop='interactionCount' content='UserLikes:0'>\n      <meta itemprop='interactionCount' content='UserComments:0'>\n      <meta itemprop='headline' content='Becoming a carer'>\n      <hr>\n  </div>\n  <div itemscope itemtype='http://schema.org/DiscussionForumPosting'>\n      <div class='creator'>\n        <span>\n          <a href='/u/sheffy'><b itemprop='author'>sheffy</b></a>\n          \n          <time datetime='2019-04-23T20:32:26Z' itemprop='datePublished'>\n            2019-04-23 20:32:26 UTC\n          </time>\n        </span>\n        <span itemprop='position'>#49</span>\n      </div>\n      <div class='post' itemprop='articleBody'>\n        <p>Hello Pippa, believe it or not  a couple of years ago a few of us on the forum who suffered with parkinsons and got on really well, decided to have ‘meet up’, I arranged it to meet up in a hotel in York, where we really enjoyed ourselves. So it is possible for a few of you carers to meet up if you have someone willing to take on the responsibly to arrange something, it will do you all good to meet with someone in the same situation as yourself. Hope this can be possible for you too.</p>\n<p>sheffy</p>\n      </div>\n      <meta itemprop='interactionCount' content='UserLikes:1'>\n      <meta itemprop='interactionCount' content='UserComments:0'>\n      <meta itemprop='headline' content='Becoming a carer'>\n      <hr>\n  </div>\n  <div itemscope itemtype='http://schema.org/DiscussionForumPosting'>\n      <div class='creator'>\n        <span>\n          <a href='/u/NicolaC'><b itemprop='author'>NicolaC</b></a>\n          \n          <time datetime='2019-04-23T21:33:03Z' itemprop='datePublished'>\n            2019-04-23 21:33:03 UTC\n          </time>\n        </span>\n        <span itemprop='position'>#50</span>\n      </div>\n      <div class='post' itemprop='articleBody'>\n        <p>Hi <a class=\"mention\" href=\"/u/livinginhope\">@Livinginhope</a> <a class=\"mention\" href=\"/u/pippa\">@Pippa</a> and <a class=\"mention\" href=\"/u/giffy1\">@Giffy1</a>,</p>\n<p>I’m also a carer and your posts have made me quite emotional, because like you. I’ve had people enquiring after both my husband and my father and just expecting me to ‘get on with it’. The constant falls (my father) and the change in personality (my husband). I’m dealing with both children living at home still (GCSEs last year), depression and social anxiety from the stress and I’m losing my hearing. I wish we all had different lives.</p>\n<p>My father has had Parkinson’s for 20 years and my husband was diagnosed 7 years ago. I’m 49. When my mother died 8 years ago we never realised how much she was dealing with and I feel a lot of guilt over the fact that we didn’t take her seriously when she complained about my father, because now I know what she was having to deal with.</p>\n<p>My father is now in assisted living after a roller coaster of 5 years of trying to prove his independence and the home is struggling to cope and want him to go into nursing care. He has lost all his friends because of his stubbornness and refusal to accept his condition.</p>\n<p>I too have wondered about a place where carers can come together and talk about this and I’ve created a facebook group. I don’t know if the mods know of any other forums for carers?</p>\n<p>Thank you for being brave enough to put it out there.</p>\n      </div>\n      <meta itemprop='interactionCount' content='UserLikes:1'>\n      <meta itemprop='interactionCount' content='UserComments:1'>\n      <meta itemprop='headline' content='Becoming a carer'>\n      <hr>\n  </div>\n  <div itemscope itemtype='http://schema.org/DiscussionForumPosting'>\n      <div class='creator'>\n        <span>\n          <a href='/u/luna'><b itemprop='author'>luna</b></a>\n          \n          <time datetime='2019-04-25T20:16:20Z' itemprop='datePublished'>\n            2019-04-25 20:16:20 UTC\n          </time>\n        </span>\n        <span itemprop='position'>#51</span>\n      </div>\n      <div class='post' itemprop='articleBody'>\n        <p>Hi All<br>\nI stumbled across this thread and I am so glad I have. What you have been sharing resonates with me too. My partner was diagnosed with Parkinson’s in 2014, although the symptoms were there well before. He is 14 years older than me, I have just turned 53. Our 19 year old son lives at home. The stress this illness is placing us all under is awful. It isn’t living, it’s existing. I no longer see the person I once fell in love with and I don’t know how to cope. He has just come out of hospital following an infection. The delusions were awful. He was classed as a level 4 risk with a hospital security office assigned to him. He is home now but is now doubly incontient and does little to help himself. Refuses outside help and is waiting for an appointment at the memory clinic, as short term recall is getting much worse. It has helped to read that others understand on here.</p>\n      </div>\n      <meta itemprop='interactionCount' content='UserLikes:0'>\n      <meta itemprop='interactionCount' content='UserComments:1'>\n      <meta itemprop='headline' content='Becoming a carer'>\n      <hr>\n  </div>\n  <div itemscope itemtype='http://schema.org/DiscussionForumPosting'>\n      <div class='creator'>\n        <span>\n          <a href='/u/Pippa'><b itemprop='author'>Pippa</b></a>\n          \n          <time datetime='2019-04-25T21:42:39Z' itemprop='datePublished'>\n            2019-04-25 21:42:39 UTC\n          </time>\n        </span>\n        <span itemprop='position'>#52</span>\n      </div>\n      <div class='post' itemprop='articleBody'>\n        <p>Hey Luna,<br>\nA warm welcome to this thread …the more the merrier , in a gallows humour kind of way! . It is a very leaky boat that we find ourselves in but there is strange kind of comfort to be had in knowing that other people are dealing with the same kind of stuff.<br>\nIt is indeed a shitty business in more ways than one and a million miles away from what any of us would ever have chosen. I quite like the analogy of thinking that you are going on holiday to , say Mauritius, and ending up in Alaska instead. Different yes, but not impossible to survive in.</p>\n<p>I have no idea how long it takes to adjust, to “ accept” one’s  changed circumstances…maybe it is a daily process, or even hourly, rather than a wholesale acceptance, or is it more like a very gradual having to let go ( or something being pulled from your grasp) of former hopes and plans .</p>\n<p>You are coping in one way or another…probably not as you might have imagined you would but then that was before you had to and now this is reality… very different. I am frequently dismayed at my failure to live up to my own standards but I do know I am doing the best I can and I guess you are too.<br>\nOn a practical note, has your husband been referred to incontinence clinic. In case not, they provide all sorts which can make life a little easier ( e.g. external catheter for night and/or day use…a godsend if ever there was one) . We have a Community Neuro rehab team in this area…worth finding out if you do too. Not sure why my husband wasn’t referred to them immediately but better late than never. A multi disciplinary team …OTs, physios, psychologist ( for me too) medics etc.</p>\n<p>Delirium is the pits…horrible, horrible horrible and can drag on for a while. It is so very real for the person in the throes of it, even when they later realise it was not.<br>\nAnd yes,  this wretched PD is transforming of our loved ones ( and ourselves) . My  BP ( before Parkinson’s) husband is slowly but surely being erased and replaced by someone else altogether. His occasional awareness of that himself is the cause of great distress and grief for him .<br>\nHow to mourn the loss of a person when they are still here, and as often causing distress and conflict as anything else? .<br>\nI wonder how your son is coping, and what support is put there for him ( other than you of course.) So hard for any child to experience  the frailty and vulnerability of a parent, esp when they are just beginning to try to find their own way in the world.<br>\nDo keep in touch, if only to have a wail. Although you may feel very alone and lonely at times, there are people out here in the ether of the forum who can help ease things a little just by sharing the experience.<br>\nWarm regards, Pippa</p>\n      </div>\n      <meta itemprop='interactionCount' content='UserLikes:0'>\n      <meta itemprop='interactionCount' content='UserComments:1'>\n      <meta itemprop='headline' content='Becoming a carer'>\n      <hr>\n  </div>\n  <div itemscope itemtype='http://schema.org/DiscussionForumPosting'>\n      <div class='creator'>\n        <span>\n          <a href='/u/Reah'><b itemprop='author'>Reah</b></a>\n          \n          <time datetime='2019-04-26T11:29:37Z' itemprop='datePublished'>\n            2019-04-26 11:29:37 UTC\n          </time>\n        </span>\n        <span itemprop='position'>#53</span>\n      </div>\n      <div class='post' itemprop='articleBody'>\n        <p>Hi <a class=\"mention\" href=\"/u/nicolac\">@NicolaC</a>,</p>\n<p>I’m so happy to see that you’ve found this thread and it has helped you. To answer your question  about support for carers, in addition to the forum, there are services available to help such as local local carers’ groups and counselling. We have more information on this on our website including a search tool to look up your local support group which you can find here - <a href=\"https://www.parkinsons.org.uk/information-and-support/caring-someone-parkinsons\" rel=\"nofollow noopener\">https://www.parkinsons.org.uk/information-and-support/caring-someone-parkinsons</a>.</p>\n<p>You may also find our comprehensive carers’ guide helpful. It offers practical help and advice, whether you provide care and support for someone who has recently been diagnosed, or someone who has been living with Parkinson’s for a while. You can download this here - <a href=\"https://www.parkinsons.org.uk/sites/default/files/2018-09/B071%20The%20carer%27s%20guide%20WEB.pdf\" rel=\"nofollow noopener\">https://www.parkinsons.org.uk/sites/default/files/2018-09/B071%20The%20carer’s%20guide%20WEB.pdf</a>.</p>\n<p>Lastly, you can always give our helpline a call for more information and support on 0808 800 0303 or email us <a href=\"/cdn-cgi/l/email-protection#3c54595050537c4c5d4e5755524f53524f12534e5b124957\"><span class=\"__cf_email__\" data-cfemail=\"dbb3beb7b7b49babbaa9b0b2b5a8b4b5a8f5b4a9bcf5aeb0\">[email&#160;protected]</span></a>.</p>\n<p>Best wishes,<br>\nReah</p>\n      </div>\n      <meta itemprop='interactionCount' content='UserLikes:0'>\n      <meta itemprop='interactionCount' content='UserComments:0'>\n      <meta itemprop='headline' content='Becoming a carer'>\n      <hr>\n  </div>\n  <div itemscope itemtype='http://schema.org/DiscussionForumPosting'>\n      <div class='creator'>\n        <span>\n          <a href='/u/luna'><b itemprop='author'>luna</b></a>\n          \n          <time datetime='2019-04-26T18:20:20Z' itemprop='datePublished'>\n            2019-04-26 18:20:20 UTC\n          </time>\n        </span>\n        <span itemprop='position'>#54</span>\n      </div>\n      <div class='post' itemprop='articleBody'>\n        <p>Hi Pippa,<br>\nA very leaky boat and somebody appears to have pinched the oars and jammed the rudder!! Your analogy made me smile, so thank you <img src=\"https://forum.parkinsons.org.uk/images/emoji/twitter/pray.png?v=6\" title=\":pray:\" class=\"emoji\" alt=\":pray:\"></p>\n<p>I’m not sure we ever accept fully. I am at the stage of making it through to the end of each day and finding something, however small, to be grateful for.  You are right, we are coping, but it really doesn’t feel like it at times. Those times it feels like your best will never be good enough. On to the next day…</p>\n<p>Yes, he has been referred to urology. Had test and op plus tablets. Better but a long way off. Neurology nurse has said she was altering meds and referring him to clinics but nothing. Chased up on last appointment to no avail.</p>\n<p>My son isn’t coping. He has severe psoriasis and the stress is not helping his condition. It just seems wrong that we are the ones on antidepressants to cope with someone else’s illness.</p>\n<p>Thanks again</p>\n      </div>\n      <meta itemprop='interactionCount' content='UserLikes:0'>\n      <meta itemprop='interactionCount' content='UserComments:1'>\n      <meta itemprop='headline' content='Becoming a carer'>\n      <hr>\n  </div>\n  <div itemscope itemtype='http://schema.org/DiscussionForumPosting'>\n      <div class='creator'>\n        <span>\n          <a href='/u/Pippa'><b itemprop='author'>Pippa</b></a>\n          \n          <time datetime='2019-04-29T10:38:27Z' itemprop='datePublished'>\n            2019-04-29 10:38:27 UTC\n          </time>\n        </span>\n        <span itemprop='position'>#55</span>\n      </div>\n      <div class='post' itemprop='articleBody'>\n        <p>Our minds can be our worst enemies…our best has to be good enough, we cannot do anymore, …maybe the word “good” needs a bit of tweaking to include, in this context , feeling and getting frustrated and being short tempered and having bad days . Just being there and sticking with it is and not doing harm , has to “good enough”  under these circumstances. Let us set the bar a little lower and then feel good for being able to jump higher from time to time. It is hard enough without beating ourselves up too, but so much easier said than done.<br>\nWould your son be able to and allow himself to stay the occasional night with local friends…he as much as you needs some “ normality” in his life and a chance to put aside, albeit briefly, all that is going on at home without feeling guilty about needing and wanting that.<br>\nAm away right now so limited access to internet but will drop by the forum when I can.<br>\nWarm wishes, Pippa</p>\n      </div>\n      <meta itemprop='interactionCount' content='UserLikes:0'>\n      <meta itemprop='interactionCount' content='UserComments:0'>\n      <meta itemprop='headline' content='Becoming a carer'>\n      <hr>\n  </div>\n\n  <div role='navigation' itemscope itemtype='http://schema.org/SiteNavigationElement'>\n      <span itemprop='name'><a rel=\"prev\" itemprop=\"url\" href=\"/t/becoming-a-carer/15580?page=2\">← previous page</a></span>\n  </div>\n\n\n\n\n\n    </div>\n    <footer class=\"container\">\n      <nav class='crawler-nav' itemscope itemtype='http://schema.org/SiteNavigationElement'>\n        <a href='/'>Home</a>\n        <a href=\"/categories\">Categories</a>\n        <a href=\"/guidelines\">FAQ/Guidelines</a>\n        <a href=\"/tos\">Terms of Service</a>\n        <a href=\"/privacy\">Privacy Policy</a>\n      </nav>\n      <p class='powered-by-link'>Powered by <a href=\"https://www.discourse.org\">Discourse</a>, best viewed with JavaScript enabled</p>\n    </footer>\n    \n  <script data-cfasync=\"false\" src=\"/cdn-cgi/scripts/5c5dd728/cloudflare-static/email-decode.min.js\"></script></body>\n  \n</html>\n",
  "url": "https://forum.parkinsons.org.uk/t/becoming-a-carer/15580?page=3"
}