{
  "contentId": "88f22af0-8864-11e9-8f96-97f71b5221d6",
  "html": "<!DOCTYPE html>\n<html lang=\"en\">\n  <head>\n    <meta charset=\"utf-8\">\n    <title>Today I cried for me - Introductions and personal stories - Parkinson&#39;s UK Forum</title>\n    <meta name=\"description\" content=\"Today I cried, I cried for me \nI cried for my lost dignity \nI cried for all the things I’ve lost \nThose little things I miss the most \nI cried for me and for my pain \nFor things I’ll never do again \nI cried for legs that&amp;hellip;\">\n    <meta name=\"author\" content=\"\">\n<meta name=\"generator\" content=\"Discourse 2.2.5 - https://github.com/discourse/discourse version c294ff3609f988dcafb742e91606d60ca13b794d\">\n<link rel=\"icon\" type=\"image/png\" href=\"https://forum.parkinsons.org.uk/uploads/db7928/original/2X/3/311fc84f89f49f38601a2f16b295b6f03d3ce5dd.jpg\">\n<link rel=\"apple-touch-icon\" type=\"image/png\" href=\"https://forum.parkinsons.org.uk/uploads/db7928/original/2X/3/311fc84f89f49f38601a2f16b295b6f03d3ce5dd.jpg\">\n<meta name=\"theme-color\" content=\"#ffffff\">\n<meta name=\"viewport\" content=\"width=device-width, minimum-scale=1.0, maximum-scale=1.0, user-scalable=yes\">\n<link rel=\"canonical\" href=\"https://forum.parkinsons.org.uk/t/today-i-cried-for-me/14890?page=4\" />\n<script type=\"application/ld+json\">{\"@context\":\"http://schema.org\",\"@type\":\"WebSite\",\"url\":\"https://forum.parkinsons.org.uk\",\"potentialAction\":{\"@type\":\"SearchAction\",\"target\":\"https://forum.parkinsons.org.uk/search?q={search_term_string}\",\"query-input\":\"required name=search_term_string\"}}</script>\n<link rel=\"search\" type=\"application/opensearchdescription+xml\" href=\"https://forum.parkinsons.org.uk/opensearch.xml\" title=\"Parkinson&#39;s UK Forum Search\">\n\n      <link href=\"/stylesheets/desktop_f99246ae801b083d3e4cca979d0dade8615b39ac.css?__ws=forum.parkinsons.org.uk\" media=\"all\" rel=\"stylesheet\" data-target=\"desktop\" data-theme-id=\"12\"/>\n      <link href=\"/stylesheets/desktop_theme_12_5d27531cf43f9df0c03a6a6ec3109dd05f9dfc49.css?__ws=forum.parkinsons.org.uk\" media=\"all\" rel=\"stylesheet\" data-target=\"desktop_theme\" data-theme-id=\"12\"/>\n    <link href=\"https://fonts.googleapis.com/css?family=Open+Sans\" rel=\"stylesheet\">\n\n    <meta id=\"data-ga-universal-analytics\" data-tracking-code=\"UA-4855628-1\" data-json=\"{&quot;cookieDomain&quot;:&quot;auto&quot;}\" data-auto-link-domains=\"\">\n\n<link rel='preload' href='/assets/google-universal-analytics-f35b4da49411e6f5559073523aab983da483976a3954c79c756f8579f6fbd6ef.js' as='script'/>\n<script src='/assets/google-universal-analytics-f35b4da49411e6f5559073523aab983da483976a3954c79c756f8579f6fbd6ef.js'></script>\n\n      <link rel=\"alternate\" type=\"application/rss+xml\" title=\"RSS feed of &#39;Today I cried for me&#39;\" href=\"https://forum.parkinsons.org.uk/t/today-i-cried-for-me/14890.rss\" />\n  <meta property=\"og:site_name\" content=\"Parkinson&#39;s UK Forum\" />\n<meta name=\"twitter:card\" content=\"summary\" />\n<meta name=\"twitter:image\" content=\"https://forum.parkinsons.org.uk/uploads/db7928/original/2X/3/311fc84f89f49f38601a2f16b295b6f03d3ce5dd.jpg\" />\n<meta property=\"og:image\" content=\"https://forum.parkinsons.org.uk/uploads/db7928/original/2X/3/311fc84f89f49f38601a2f16b295b6f03d3ce5dd.jpg\" />\n<meta property=\"og:url\" content=\"https://forum.parkinsons.org.uk/t/today-i-cried-for-me/14890?page=4\" />\n<meta name=\"twitter:url\" content=\"https://forum.parkinsons.org.uk/t/today-i-cried-for-me/14890?page=4\" />\n<meta property=\"og:title\" content=\"Today I cried for me\" />\n<meta name=\"twitter:title\" content=\"Today I cried for me\" />\n<meta property=\"og:description\" content=\"Hi hubby. My oldest boy takes the piss  Says i should shower at the swimming pool as they have life guards  Im doing much better.  Dint know if you know. I dont have parkinsons.  I actually had a stroke leaving my left side somewhat affected with PD like symptoms  The list of my meds is endless but i am improving  But i will not leave the forum as i have made so many friends  Hope your grandson keeps you tied up for many years  Take care my friend  Keirh\" />\n<meta name=\"twitter:description\" content=\"Hi hubby. My oldest boy takes the piss  Says i should shower at the swimming pool as they have life guards  Im doing much better.  Dint know if you know. I dont have parkinsons.  I actually had a stroke leaving my left side somewhat affected with PD like symptoms  The list of my meds is endless but i am improving  But i will not leave the forum as i have made so many friends  Hope your grandson keeps you tied up for many years  Take care my friend  Keirh\" />\n<meta name=\"twitter:label1\" value=\"Reading time\" />\n<meta name=\"twitter:data1\" value=\"8 mins \uD83D\uDD51\" />\n<meta name=\"twitter:label2\" value=\"Likes\" />\n<meta name=\"twitter:data2\" value=\"47 ❤\" />\n<meta property=\"article:published_time\" content=\"2019-01-17T10:56:05+00:00\" />\n<meta property=\"og:ignore_canonical\" content=\"true\" />\n\n      <link rel=\"prev\" href=\"/t/today-i-cried-for-me/14890?page=3\">\n\n\n    \n  </head>\n  <body class=\"crawler\">\n    <header role=\"banner\">\n    <div class=\"region region-header\">\n        <div class=\"region-header-wrapper\">\n            <div id=\"block-parkinsons-d8-branding\" class=\"block block-system block-system-branding-block\">\n                <a href=\"/\" title=\"Home\" rel=\"home\" class=\"site-logo\">\n                    <img src=\"https://forum.parkinsons.org.uk/uploads/db7928/original/2X/8/862bb7d172e7d127e7f3e147ec43594aa62ac945.png\" alt=\"Parkinson's UK. Change Attitudes. Find a cure. Join us.\">\n                </a>\n            </div>\n            <div id=\"block-helpline\" class=\"block block-block-content block-block-content871cd5af-b938-4947-9dc0-d5c211d08fe3 style-phone\">\n                <div class=\"field field--name-field-link field--type-link field--label-hidden field__item\"><a href=\"tel:+448088000303\">Helpline 0808 800 0303</a></div>\n            </div>\n            <div id=\"block-shop\" class=\"block block-block-content block-block-content6fba5ae5-7797-49cd-8367-f321d8111cd6 style-regular\">\n                <div class=\"field field--name-field-link field--type-link field--label-hidden field__item\"><a href=\"https://shop.parkinsons.org.uk\">Shop</a></div>\n            </div>\n        </div>\n    </div>\n</header>\n\n\n<script src=\"/theme-javascripts/b7e9763fcb584fc8265c56a9f557cd6d2e1e8ed8.js?__ws=forum.parkinsons.org.uk\"></script>\n    <header>\n      <a href=\"/\">\n          <img src=\"https://forum.parkinsons.org.uk/uploads/db7928/original/2X/8/862bb7d172e7d127e7f3e147ec43594aa62ac945.png\" alt=\"Parkinson&#39;s UK Forum\" id=\"site-logo\" style=\"max-width: 150px;\">\n      </a>\n    </header>\n    <div id=\"main-outlet\" class=\"wrap\">\n      <h1>\n  <a href=\"/t/today-i-cried-for-me/14890\">Today I cried for me</a>\n</h1>\n\n<div id='breadcrumbs'>\n    <div id=\"breadcrumb-0\" itemscope itemtype=\"http://data-vocabulary.org/Breadcrumb\"\n        itemref=\"breadcrumb-1\"\n      >\n      <a href=\"/c/about-me\" itemprop=\"url\">\n        <span itemprop=\"title\">About me</span>\n      </a>\n    </div>\n    <div id=\"breadcrumb-1\" itemscope itemtype=\"http://data-vocabulary.org/Breadcrumb\"\n>\n      <a href=\"/c/about-me/introductions-and-personal-stories\" itemprop=\"url\">\n        <span itemprop=\"title\">Introductions and personal stories</span>\n      </a>\n    </div>\n</div>\n\n\n\n\n\n<hr>\n\n\n  <div itemscope itemtype='http://schema.org/DiscussionForumPosting'>\n      <div class='creator'>\n        <span>\n          <a href='/u/itsmylfe'><b itemprop='author'>itsmylfe</b></a>\n          \n          <time datetime='2019-01-17T10:56:05Z' itemprop='datePublished'>\n            2019-01-17 10:56:05 UTC\n          </time>\n        </span>\n        <span itemprop='position'>#61</span>\n      </div>\n      <div class='post' itemprop='articleBody'>\n        <p>Hi hubby. My oldest boy takes the piss<br>\nSays i should shower at the swimming pool as they have life guards<br>\nIm doing much better.<br>\nDint know if you know. I dont have parkinsons.<br>\nI actually had a stroke leaving my left side somewhat affected with PD like symptoms<br>\nThe list of my meds is endless but i am improving<br>\nBut i will not leave the forum as i have made so many friends<br>\nHope your grandson keeps you tied up for many years<br>\nTake care my friend<br>\nKeirh</p>\n      </div>\n      <meta itemprop='interactionCount' content='UserLikes:0'>\n      <meta itemprop='interactionCount' content='UserComments:0'>\n      <meta itemprop='headline' content='Today I cried for me'>\n      <hr>\n  </div>\n  <div itemscope itemtype='http://schema.org/DiscussionForumPosting'>\n      <div class='creator'>\n        <span>\n          <a href='/u/Hubby'><b itemprop='author'>Hubby</b></a>\n          \n          <time datetime='2019-01-17T22:51:32Z' itemprop='datePublished'>\n            2019-01-17 22:51:32 UTC\n          </time>\n        </span>\n        <span itemprop='position'>#62</span>\n      </div>\n      <div class='post' itemprop='articleBody'>\n        <p>Glad you’re feeling better at the moment.<br>\nI heard \" it’s my life\" by Bon Jovi a couple of weeks ago when I was a bit down. Give it a listen. It’s a great message ;<br>\nTake care mate<br>\nHubby</p>\n      </div>\n      <meta itemprop='interactionCount' content='UserLikes:0'>\n      <meta itemprop='interactionCount' content='UserComments:1'>\n      <meta itemprop='headline' content='Today I cried for me'>\n      <hr>\n  </div>\n  <div itemscope itemtype='http://schema.org/DiscussionForumPosting'>\n      <div class='creator'>\n        <span>\n          <a href='/u/Hubby'><b itemprop='author'>Hubby</b></a>\n          \n          <time datetime='2019-01-24T08:01:11Z' itemprop='datePublished'>\n            2019-01-24 08:01:11 UTC\n          </time>\n        </span>\n        <span itemprop='position'>#63</span>\n      </div>\n      <div class='post' itemprop='articleBody'>\n        <p>A couple of days ago I was at a real low point.<br>\nI posted how I was feeling.<br>\nWas it removed?<br>\nI can’t find it anywhere.<br>\nIt was a little negative perhaps but that’s the nature of parkinsons.<br>\nIt’s no use pretending that we are all strong parkinsons super warriors all of the time. That gives a false impression.<br>\nHubby</p>\n      </div>\n      <meta itemprop='interactionCount' content='UserLikes:0'>\n      <meta itemprop='interactionCount' content='UserComments:0'>\n      <meta itemprop='headline' content='Today I cried for me'>\n      <hr>\n  </div>\n  <div itemscope itemtype='http://schema.org/DiscussionForumPosting'>\n      <div class='creator'>\n        <span>\n          <a href='/u/Reah'><b itemprop='author'>Reah</b></a>\n          \n          <time datetime='2019-01-24T12:22:21Z' itemprop='datePublished'>\n            2019-01-24 12:22:21 UTC\n          </time>\n        </span>\n        <span itemprop='position'>#64</span>\n      </div>\n      <div class='post' itemprop='articleBody'>\n        <p>Hi <a class=\"mention\" href=\"/u/hubby\">@Hubby</a>,</p>\n<p>I’m sorry to hear that you’ve feeling low recently. Please remember that you can still email our helpline service  if you’d like to speak to one of advisers about what you’re going through, even if you live outside of the UK. Please email us at <a href=\"/cdn-cgi/l/email-protection#aac2cfc6c6c5eadacbd8c1c3c4d9c5c4d984c5d8cd84dfc1\"><span class=\"__cf_email__\" data-cfemail=\"761e131a1a19360617041d1f18051918055819041158031d\">[email&#160;protected]</span></a>.</p>\n<p>Regarding your post, I don’t recall deleting any of your posts and I haven’t received any notifications from our moderators about this either. Do you know the exact date that you published your post? Please let me know so I can look into this for you.</p>\n<p>Best wishes,<br>\nReah</p>\n      </div>\n      <meta itemprop='interactionCount' content='UserLikes:0'>\n      <meta itemprop='interactionCount' content='UserComments:0'>\n      <meta itemprop='headline' content='Today I cried for me'>\n      <hr>\n  </div>\n  <div itemscope itemtype='http://schema.org/DiscussionForumPosting'>\n      <div class='creator'>\n        <span>\n          <a href='/u/malcT'><b itemprop='author'>malcT</b></a>\n          \n          <time datetime='2019-01-24T16:43:02Z' itemprop='datePublished'>\n            2019-01-24 16:43:02 UTC\n          </time>\n        </span>\n        <span itemprop='position'>#65</span>\n      </div>\n      <div class='post' itemprop='articleBody'>\n        <p>Hi <a class=\"mention\" href=\"/u/hubby\">@Hubby</a>.<br>\nWas this part of the post you are looking for H ?</p>\n<p>If just one had listened<br>\nWhen I tried to explain<br>\nIt might have unburdened<br>\nSome of the pain</p>\n<p>So I’ve stopped reaching out<br>\nKeep my troubles inside<br>\nIt’s easier to pretend<br>\nEasier to hide</p>\n<p>So still ill keep clowning<br>\nKeep messing about<br>\nDesperately not letting<br>\nThe inside out.</p>\n<p>The inside out.</p>\n<p>I recall responding with an Emoji of a broken heart.<br>\nIf it’s not that one H, im afraid I missed it too.</p>\n<p>Mal.</p>\n      </div>\n      <meta itemprop='interactionCount' content='UserLikes:0'>\n      <meta itemprop='interactionCount' content='UserComments:0'>\n      <meta itemprop='headline' content='Today I cried for me'>\n      <hr>\n  </div>\n  <div itemscope itemtype='http://schema.org/DiscussionForumPosting'>\n      <div class='creator'>\n        <span>\n          <a href='/u/sheffy'><b itemprop='author'>sheffy</b></a>\n          \n          <time datetime='2019-01-24T20:07:17Z' itemprop='datePublished'>\n            2019-01-24 20:07:17 UTC\n          </time>\n        </span>\n        <span itemprop='position'>#66</span>\n      </div>\n      <div class='post' itemprop='articleBody'>\n        <p>Hello Hubby - I wonder if it is the time of year or the weather, because I have been at an all time low, just crying at the least little thing, I can’t explain how I really felt or why… getting on the brighter side little by little, trying to totally snap out of it. Wished I had managed to read your poem fully to realise how you were feeling and to have been able  to send you encouragement.</p>\n<p>Sending good wishes - sheffy xx</p>\n      </div>\n      <meta itemprop='interactionCount' content='UserLikes:0'>\n      <meta itemprop='interactionCount' content='UserComments:0'>\n      <meta itemprop='headline' content='Today I cried for me'>\n      <hr>\n  </div>\n  <div itemscope itemtype='http://schema.org/DiscussionForumPosting'>\n      <div class='creator'>\n        <span>\n          <a href='/u/opal'><b itemprop='author'>opal</b></a>\n          \n          <time datetime='2019-05-06T17:06:25Z' itemprop='datePublished'>\n            2019-05-06 17:06:25 UTC\n          </time>\n        </span>\n        <span itemprop='position'>#67</span>\n      </div>\n      <div class='post' itemprop='articleBody'>\n        <p>Hi I haven’t got the hang of this site so I’m probably going to be talking to myself!  I have had this dam disease for 11 years and feel things have really changed lately. My anxiety has gone sky high and I wake in the middle of the night catching my breath and shaking (great fun)  I can cope with my physical problems but this horrible feeling in my brain is terrible as it stays with me all day . Anyone else feel this way ? I have been taking mertazapine 30 mg for over 2 years</p>\n      </div>\n      <meta itemprop='interactionCount' content='UserLikes:0'>\n      <meta itemprop='interactionCount' content='UserComments:2'>\n      <meta itemprop='headline' content='Today I cried for me'>\n      <hr>\n  </div>\n  <div itemscope itemtype='http://schema.org/DiscussionForumPosting'>\n      <div class='creator'>\n        <span>\n          <a href='/u/sheffy'><b itemprop='author'>sheffy</b></a>\n          \n          <time datetime='2019-05-06T22:04:34Z' itemprop='datePublished'>\n            2019-05-06 22:04:34 UTC\n          </time>\n        </span>\n        <span itemprop='position'>#68</span>\n      </div>\n      <div class='post' itemprop='articleBody'>\n        <p>Hello opal, no you are not on your own, there is always someone who will answer!<br>\nI’ve had PD for nigh on nine years now and can honestly say I have never felt like that, but we are not all the same. We all take different meds also. Perhaps you need to have a word with your PD nurse or Neurologist or ring the helpline and have a talk with someone, I don’t think you should cope with this on your own</p>\n<p>Please see someone and take care - sheffy</p>\n      </div>\n      <meta itemprop='interactionCount' content='UserLikes:0'>\n      <meta itemprop='interactionCount' content='UserComments:0'>\n      <meta itemprop='headline' content='Today I cried for me'>\n      <hr>\n  </div>\n  <div itemscope itemtype='http://schema.org/DiscussionForumPosting'>\n      <div class='creator'>\n        <span>\n          <a href='/u/Reah'><b itemprop='author'>Reah</b></a>\n          \n          <time datetime='2019-05-07T10:57:20Z' itemprop='datePublished'>\n            2019-05-07 10:57:20 UTC\n          </time>\n        </span>\n        <span itemprop='position'>#69</span>\n      </div>\n      <div class='post' itemprop='articleBody'>\n        <p>Hi <a class=\"mention\" href=\"/u/opal\">@opal</a>,</p>\n<p>I’m really sorry to hear that you are going through a difficult time with your anxiety; I agree with Sheffy’s advice, you should definitely raise this with your GP or Parkinson’s nurse. You may find that your anxiety may increase during your “off” period when medication is wearing off and if that’s the case, changes to your medication may help. We have more information on anxiety on our website here - <a href=\"https://www.parkinsons.org.uk/information-and-support/anxiety\" rel=\"nofollow noopener\">https://www.parkinsons.org.uk/information-and-support/anxiety</a>.  There’s also some practical tips on how to manage your anxiety including some helpful mindfulness techniques which you can find here - <a href=\"https://www.parkinsons.org.uk/information-and-support/mindfulness-and-parkinsons\" rel=\"nofollow noopener\">https://www.parkinsons.org.uk/information-and-support/mindfulness-and-parkinsons</a>.</p>\n<p>Just to echo what Sheffy has said, you are not alone and I’m confident that you’ll gain more support from the forum community. I can appreciate that the information above may be a little bit overwhelming which could potentially trigger your anxiety, so do feel free to have a friendly chat with one of our advisers via our helpline if you have anymore questions on 0808 800 0303.</p>\n<p>Best wishes,<br>\nReah</p>\n      </div>\n      <meta itemprop='interactionCount' content='UserLikes:0'>\n      <meta itemprop='interactionCount' content='UserComments:0'>\n      <meta itemprop='headline' content='Today I cried for me'>\n      <hr>\n  </div>\n\n  <div role='navigation' itemscope itemtype='http://schema.org/SiteNavigationElement'>\n      <span itemprop='name'><a rel=\"prev\" itemprop=\"url\" href=\"/t/today-i-cried-for-me/14890?page=3\">← previous page</a></span>\n  </div>\n\n\n\n\n\n    </div>\n    <footer class=\"container\">\n      <nav class='crawler-nav' itemscope itemtype='http://schema.org/SiteNavigationElement'>\n        <a href='/'>Home</a>\n        <a href=\"/categories\">Categories</a>\n        <a href=\"/guidelines\">FAQ/Guidelines</a>\n        <a href=\"/tos\">Terms of Service</a>\n        <a href=\"/privacy\">Privacy Policy</a>\n      </nav>\n      <p class='powered-by-link'>Powered by <a href=\"https://www.discourse.org\">Discourse</a>, best viewed with JavaScript enabled</p>\n    </footer>\n    \n  <script data-cfasync=\"false\" src=\"/cdn-cgi/scripts/5c5dd728/cloudflare-static/email-decode.min.js\"></script></body>\n  \n</html>\n",
  "url": "https://forum.parkinsons.org.uk/t/today-i-cried-for-me/14890?page=4"
}