{
  "contentId": "751d3180-8866-11e9-8f96-97f71b5221d6",
  "html": "<!DOCTYPE html>\n<html lang=\"en\">\n  <head>\n    <meta charset=\"utf-8\">\n    <title>Research Forum in East Midlands - Research Support Network - Parkinson&#39;s UK Forum</title>\n    <meta name=\"description\" content=\"East Midlands Research Forum \r\n11th October 2014 in Nottingham \r\non Exercise for Parkinson&amp;#39;s: Finding out what really works. \r\nFor details and how to register see \r\nhttp://em-rsn.info/newsletter/RF%20Nottingham%20enhance&amp;hellip;\">\n    <meta name=\"author\" content=\"\">\n<meta name=\"generator\" content=\"Discourse 2.2.5 - https://github.com/discourse/discourse version c294ff3609f988dcafb742e91606d60ca13b794d\">\n<link rel=\"icon\" type=\"image/png\" href=\"https://forum.parkinsons.org.uk/uploads/db7928/original/2X/3/311fc84f89f49f38601a2f16b295b6f03d3ce5dd.jpg\">\n<link rel=\"apple-touch-icon\" type=\"image/png\" href=\"https://forum.parkinsons.org.uk/uploads/db7928/original/2X/3/311fc84f89f49f38601a2f16b295b6f03d3ce5dd.jpg\">\n<meta name=\"theme-color\" content=\"#ffffff\">\n<meta name=\"viewport\" content=\"width=device-width, minimum-scale=1.0, maximum-scale=1.0, user-scalable=yes\">\n<link rel=\"canonical\" href=\"https://forum.parkinsons.org.uk/t/research-forum-in-east-midlands/7637\" />\n<script type=\"application/ld+json\">{\"@context\":\"http://schema.org\",\"@type\":\"WebSite\",\"url\":\"https://forum.parkinsons.org.uk\",\"potentialAction\":{\"@type\":\"SearchAction\",\"target\":\"https://forum.parkinsons.org.uk/search?q={search_term_string}\",\"query-input\":\"required name=search_term_string\"}}</script>\n<link rel=\"search\" type=\"application/opensearchdescription+xml\" href=\"https://forum.parkinsons.org.uk/opensearch.xml\" title=\"Parkinson&#39;s UK Forum Search\">\n\n      <link href=\"/stylesheets/desktop_f99246ae801b083d3e4cca979d0dade8615b39ac.css?__ws=forum.parkinsons.org.uk\" media=\"all\" rel=\"stylesheet\" data-target=\"desktop\" data-theme-id=\"12\"/>\n      <link href=\"/stylesheets/desktop_theme_12_5d27531cf43f9df0c03a6a6ec3109dd05f9dfc49.css?__ws=forum.parkinsons.org.uk\" media=\"all\" rel=\"stylesheet\" data-target=\"desktop_theme\" data-theme-id=\"12\"/>\n    <link href=\"https://fonts.googleapis.com/css?family=Open+Sans\" rel=\"stylesheet\">\n\n    <meta id=\"data-ga-universal-analytics\" data-tracking-code=\"UA-4855628-1\" data-json=\"{&quot;cookieDomain&quot;:&quot;auto&quot;}\" data-auto-link-domains=\"\">\n\n<link rel='preload' href='/assets/google-universal-analytics-f35b4da49411e6f5559073523aab983da483976a3954c79c756f8579f6fbd6ef.js' as='script'/>\n<script src='/assets/google-universal-analytics-f35b4da49411e6f5559073523aab983da483976a3954c79c756f8579f6fbd6ef.js'></script>\n\n      <link rel=\"alternate\" type=\"application/rss+xml\" title=\"RSS feed of &#39;Research Forum in East Midlands&#39;\" href=\"https://forum.parkinsons.org.uk/t/research-forum-in-east-midlands/7637.rss\" />\n  <meta property=\"og:site_name\" content=\"Parkinson&#39;s UK Forum\" />\n<meta name=\"twitter:card\" content=\"summary\" />\n<meta name=\"twitter:image\" content=\"https://forum.parkinsons.org.uk/uploads/db7928/original/2X/3/311fc84f89f49f38601a2f16b295b6f03d3ce5dd.jpg\" />\n<meta property=\"og:image\" content=\"https://forum.parkinsons.org.uk/uploads/db7928/original/2X/3/311fc84f89f49f38601a2f16b295b6f03d3ce5dd.jpg\" />\n<meta property=\"og:url\" content=\"https://forum.parkinsons.org.uk/t/research-forum-in-east-midlands/7637\" />\n<meta name=\"twitter:url\" content=\"https://forum.parkinsons.org.uk/t/research-forum-in-east-midlands/7637\" />\n<meta property=\"og:title\" content=\"Research Forum in East Midlands\" />\n<meta name=\"twitter:title\" content=\"Research Forum in East Midlands\" />\n<meta property=\"og:description\" content=\"East Midlands Research Forum \r 11th October 2014 in Nottingham \r on Exercise for Parkinson&#39;s: Finding out what really works. \r For details and how to register see \r http://em-rsn.info/newsletter/RF%20Nottingham%20enhanced%20flyer.pdf \r  \" />\n<meta name=\"twitter:description\" content=\"East Midlands Research Forum \r 11th October 2014 in Nottingham \r on Exercise for Parkinson&#39;s: Finding out what really works. \r For details and how to register see \r http://em-rsn.info/newsletter/RF%20Nottingham%20enhanced%20flyer.pdf \r  \" />\n<meta property=\"article:published_time\" content=\"2014-08-06T11:55:15+00:00\" />\n<meta property=\"og:ignore_canonical\" content=\"true\" />\n\n\n\n    \n  </head>\n  <body class=\"crawler\">\n    <header role=\"banner\">\n    <div class=\"region region-header\">\n        <div class=\"region-header-wrapper\">\n            <div id=\"block-parkinsons-d8-branding\" class=\"block block-system block-system-branding-block\">\n                <a href=\"/\" title=\"Home\" rel=\"home\" class=\"site-logo\">\n                    <img src=\"https://forum.parkinsons.org.uk/uploads/db7928/original/2X/8/862bb7d172e7d127e7f3e147ec43594aa62ac945.png\" alt=\"Parkinson's UK. Change Attitudes. Find a cure. Join us.\">\n                </a>\n            </div>\n            <div id=\"block-helpline\" class=\"block block-block-content block-block-content871cd5af-b938-4947-9dc0-d5c211d08fe3 style-phone\">\n                <div class=\"field field--name-field-link field--type-link field--label-hidden field__item\"><a href=\"tel:+448088000303\">Helpline 0808 800 0303</a></div>\n            </div>\n            <div id=\"block-shop\" class=\"block block-block-content block-block-content6fba5ae5-7797-49cd-8367-f321d8111cd6 style-regular\">\n                <div class=\"field field--name-field-link field--type-link field--label-hidden field__item\"><a href=\"https://shop.parkinsons.org.uk\">Shop</a></div>\n            </div>\n        </div>\n    </div>\n</header>\n\n\n<script src=\"/theme-javascripts/b7e9763fcb584fc8265c56a9f557cd6d2e1e8ed8.js?__ws=forum.parkinsons.org.uk\"></script>\n    <header>\n      <a href=\"/\">\n          <img src=\"https://forum.parkinsons.org.uk/uploads/db7928/original/2X/8/862bb7d172e7d127e7f3e147ec43594aa62ac945.png\" alt=\"Parkinson&#39;s UK Forum\" id=\"site-logo\" style=\"max-width: 150px;\">\n      </a>\n    </header>\n    <div id=\"main-outlet\" class=\"wrap\">\n      <h1>\n  <a href=\"/t/research-forum-in-east-midlands/7637\">Research Forum in East Midlands</a>\n</h1>\n\n<div id='breadcrumbs'>\n    <div id=\"breadcrumb-0\" itemscope itemtype=\"http://data-vocabulary.org/Breadcrumb\"\n        itemref=\"breadcrumb-1\"\n      >\n      <a href=\"/c/research\" itemprop=\"url\">\n        <span itemprop=\"title\">Research</span>\n      </a>\n    </div>\n    <div id=\"breadcrumb-1\" itemscope itemtype=\"http://data-vocabulary.org/Breadcrumb\"\n>\n      <a href=\"/c/research/research-support-network\" itemprop=\"url\">\n        <span itemprop=\"title\">Research Support Network</span>\n      </a>\n    </div>\n</div>\n\n\n\n\n\n<hr>\n\n\n  <div itemscope itemtype='http://schema.org/DiscussionForumPosting'>\n      <div class='creator'>\n        <span>\n          <a href='/u/droflet'><b itemprop='author'>droflet</b></a>\n          \n          <time datetime='2014-08-06T11:55:15Z' itemprop='datePublished'>\n            2014-08-06 11:55:15 UTC\n          </time>\n        </span>\n        <span itemprop='position'>#1</span>\n      </div>\n      <div class='post' itemprop='articleBody'>\n        <p>East Midlands Research Forum</p>\r\n<p>11th October 2014 in Nottingham</p>\r\n<p>on <strong>Exercise for Parkinson&#39;s: Finding out what really works</strong>.</p>\r\n<p>For details and how to register see</p>\r\n<p><a href=\"http://em-rsn.info/newsletter/RF%20Nottingham%20enhanced%20flyer.pdf\" target=\"_blank\">http://em-rsn.info/newsletter/RF%20Nottingham%20enhanced%20flyer.pdf</a></p>\r\n<p>&nbsp;</p>\n      </div>\n      <meta itemprop='interactionCount' content='UserLikes:0'>\n      <meta itemprop='interactionCount' content='UserComments:0'>\n      <meta itemprop='headline' content='Research Forum in East Midlands'>\n      <hr>\n  </div>\n  <div itemscope itemtype='http://schema.org/DiscussionForumPosting'>\n      <div class='creator'>\n        <span>\n          <a href='/u/callisto'><b itemprop='author'>callisto</b></a>\n          \n          <time datetime='2014-10-13T21:00:21Z' itemprop='datePublished'>\n            2014-10-13 21:00:21 UTC\n          </time>\n        </span>\n        <span itemprop='position'>#2</span>\n      </div>\n      <div class='post' itemprop='articleBody'>\n        <p>I went to this forum, as did over 100 other people. It was excellent, well organised,interesting and fun. I wonder how many other people who attended allowed themselves a &#39;rest day&#39; yesterday but got up this morning determined to take exercise a bit more seriously. &nbsp; Nin Bajaj, one of the speakers in Nottingham, said that &nbsp;although prgress is being made, he does not think a cure is imminent. &nbsp;So, those of us living with Parkinson&#39;s today need to do what we can to manage our condition. Other researchers speaking at the event left us in no doubt that exercise really does help. But, of course, it only works if you do. So, off I went to the gym.</p>\r\n<p>I look forward to a report of the Forum in the next E Mids RSN Newsletter, but meanwhile it would be good to hear from anyone else who was there. Also, let&#39;s not forget the event was led and organised largely by volunteers. Well done and thank you.</p>\r\n<p>&nbsp;</p>\n      </div>\n      <meta itemprop='interactionCount' content='UserLikes:0'>\n      <meta itemprop='interactionCount' content='UserComments:1'>\n      <meta itemprop='headline' content='Research Forum in East Midlands'>\n      <hr>\n  </div>\n  <div itemscope itemtype='http://schema.org/DiscussionForumPosting'>\n      <div class='creator'>\n        <span>\n          <a href='/u/droflet'><b itemprop='author'>droflet</b></a>\n          \n          <time datetime='2014-10-14T08:54:11Z' itemprop='datePublished'>\n            2014-10-14 08:54:11 UTC\n          </time>\n        </span>\n        <span itemprop='position'>#3</span>\n      </div>\n      <div class='post' itemprop='articleBody'>\n        <p>Here is a link to a pic that shows what fun exercise can be!</p>\r\n<p><a href=\"http://em-rsn.info/docs/IMG_1131S.jpg\">http://em-rsn.info/docs/IMG_1131S.jpg</a></p>\n      </div>\n      <meta itemprop='interactionCount' content='UserLikes:0'>\n      <meta itemprop='interactionCount' content='UserComments:0'>\n      <meta itemprop='headline' content='Research Forum in East Midlands'>\n      <hr>\n  </div>\n  <div itemscope itemtype='http://schema.org/DiscussionForumPosting'>\n      <div class='creator'>\n        <span>\n          <a href='/u/Leyther'><b itemprop='author'>Leyther</b></a>\n          \n          <time datetime='2015-02-01T06:47:17Z' itemprop='datePublished'>\n            2015-02-01 06:47:17 UTC\n          </time>\n        </span>\n        <span itemprop='position'>#4</span>\n      </div>\n      <div class='post' itemprop='articleBody'>\n        <p><a href=\"http://em-rsn.info/docs/IMG_1131S.jpg\" target=\"_blank\">http://em-rsn.info/docs/IMG_1131S.jpg</a></p>\r\n<p>Caption: The last remaining vestiges of Rangers supporters practice their response to Celtic prior to today&#39;s old firm derby.</p>\n      </div>\n      <meta itemprop='interactionCount' content='UserLikes:0'>\n      <meta itemprop='interactionCount' content='UserComments:0'>\n      <meta itemprop='headline' content='Research Forum in East Midlands'>\n      <hr>\n  </div>\n  <div itemscope itemtype='http://schema.org/DiscussionForumPosting'>\n      <div class='creator'>\n        <span>\n          <a href='/u/droflet'><b itemprop='author'>droflet</b></a>\n          \n          <time datetime='2015-02-05T17:14:16Z' itemprop='datePublished'>\n            2015-02-05 17:14:16 UTC\n          </time>\n        </span>\n        <span itemprop='position'>#5</span>\n      </div>\n      <div class='post' itemprop='articleBody'>\n        <p>Well, Leyther, I thought at first that your post was vandalism - but I appreciate the joke!&nbsp; Others should click on the link!</p>\r\n<p>Droflet.</p>\n      </div>\n      <meta itemprop='interactionCount' content='UserLikes:0'>\n      <meta itemprop='interactionCount' content='UserComments:0'>\n      <meta itemprop='headline' content='Research Forum in East Midlands'>\n      <hr>\n  </div>\n  <div itemscope itemtype='http://schema.org/DiscussionForumPosting'>\n      <div class='creator'>\n        <span>\n          <a href='/u/Leyther'><b itemprop='author'>Leyther</b></a>\n          \n          <time datetime='2015-02-06T13:01:55Z' itemprop='datePublished'>\n            2015-02-06 13:01:55 UTC\n          </time>\n        </span>\n        <span itemprop='position'>#6</span>\n      </div>\n      <div class='post' itemprop='articleBody'>\n        <p>It&#39;s no joke if you support Rangers!!!</p>\n      </div>\n      <meta itemprop='interactionCount' content='UserLikes:0'>\n      <meta itemprop='interactionCount' content='UserComments:0'>\n      <meta itemprop='headline' content='Research Forum in East Midlands'>\n      <hr>\n  </div>\n  <div itemscope itemtype='http://schema.org/DiscussionForumPosting'>\n      <div class='creator'>\n        <span>\n          <a href='/u/Leyther'><b itemprop='author'>Leyther</b></a>\n          \n          <time datetime='2015-08-09T06:38:01Z' itemprop='datePublished'>\n            2015-08-09 06:38:01 UTC\n          </time>\n        </span>\n        <span itemprop='position'>#7</span>\n      </div>\n      <div class='post' itemprop='articleBody'>\n        <p>As is the current trend, and with the new season upon us I hereby declare this link revitalised.</p>\n      </div>\n      <meta itemprop='interactionCount' content='UserLikes:0'>\n      <meta itemprop='interactionCount' content='UserComments:0'>\n      <meta itemprop='headline' content='Research Forum in East Midlands'>\n      <hr>\n  </div>\n\n\n\n\n\n\n    </div>\n    <footer class=\"container\">\n      <nav class='crawler-nav' itemscope itemtype='http://schema.org/SiteNavigationElement'>\n        <a href='/'>Home</a>\n        <a href=\"/categories\">Categories</a>\n        <a href=\"/guidelines\">FAQ/Guidelines</a>\n        <a href=\"/tos\">Terms of Service</a>\n        <a href=\"/privacy\">Privacy Policy</a>\n      </nav>\n      <p class='powered-by-link'>Powered by <a href=\"https://www.discourse.org\">Discourse</a>, best viewed with JavaScript enabled</p>\n    </footer>\n    \n  </body>\n  \n</html>\n",
  "url": "https://forum.parkinsons.org.uk/t/research-forum-in-east-midlands/7637"
}