{
  "contentId": "d2dd0890-886b-11e9-8f96-97f71b5221d6",
  "html": "<!DOCTYPE html>\n<html lang=\"en\">\n  <head>\n    <meta charset=\"utf-8\">\n    <title>Freezing - Symptoms - Parkinson&#39;s UK Forum</title>\n    <meta name=\"description\" content=\"Can anyone offer me some advise on freezing? \nMy mum was diagnosed last year and this is her biggest problem. She is doing amazing in this daunting journey but i would love to be able to help with some ways she can try t&amp;hellip;\">\n    <meta name=\"author\" content=\"\">\n<meta name=\"generator\" content=\"Discourse 2.2.5 - https://github.com/discourse/discourse version c294ff3609f988dcafb742e91606d60ca13b794d\">\n<link rel=\"icon\" type=\"image/png\" href=\"https://forum.parkinsons.org.uk/uploads/db7928/original/2X/3/311fc84f89f49f38601a2f16b295b6f03d3ce5dd.jpg\">\n<link rel=\"apple-touch-icon\" type=\"image/png\" href=\"https://forum.parkinsons.org.uk/uploads/db7928/original/2X/3/311fc84f89f49f38601a2f16b295b6f03d3ce5dd.jpg\">\n<meta name=\"theme-color\" content=\"#ffffff\">\n<meta name=\"viewport\" content=\"width=device-width, minimum-scale=1.0, maximum-scale=1.0, user-scalable=yes\">\n<link rel=\"canonical\" href=\"https://forum.parkinsons.org.uk/t/freezing/18529\" />\n<script type=\"application/ld+json\">{\"@context\":\"http://schema.org\",\"@type\":\"WebSite\",\"url\":\"https://forum.parkinsons.org.uk\",\"potentialAction\":{\"@type\":\"SearchAction\",\"target\":\"https://forum.parkinsons.org.uk/search?q={search_term_string}\",\"query-input\":\"required name=search_term_string\"}}</script>\n<link rel=\"search\" type=\"application/opensearchdescription+xml\" href=\"https://forum.parkinsons.org.uk/opensearch.xml\" title=\"Parkinson&#39;s UK Forum Search\">\n\n      <link href=\"/stylesheets/desktop_f99246ae801b083d3e4cca979d0dade8615b39ac.css?__ws=forum.parkinsons.org.uk\" media=\"all\" rel=\"stylesheet\" data-target=\"desktop\" data-theme-id=\"12\"/>\n      <link href=\"/stylesheets/desktop_theme_12_5d27531cf43f9df0c03a6a6ec3109dd05f9dfc49.css?__ws=forum.parkinsons.org.uk\" media=\"all\" rel=\"stylesheet\" data-target=\"desktop_theme\" data-theme-id=\"12\"/>\n    <link href=\"https://fonts.googleapis.com/css?family=Open+Sans\" rel=\"stylesheet\">\n\n    <meta id=\"data-ga-universal-analytics\" data-tracking-code=\"UA-4855628-1\" data-json=\"{&quot;cookieDomain&quot;:&quot;auto&quot;}\" data-auto-link-domains=\"\">\n\n<link rel='preload' href='/assets/google-universal-analytics-f35b4da49411e6f5559073523aab983da483976a3954c79c756f8579f6fbd6ef.js' as='script'/>\n<script src='/assets/google-universal-analytics-f35b4da49411e6f5559073523aab983da483976a3954c79c756f8579f6fbd6ef.js'></script>\n\n      <link rel=\"alternate\" type=\"application/rss+xml\" title=\"RSS feed of &#39;Freezing&#39;\" href=\"https://forum.parkinsons.org.uk/t/freezing/18529.rss\" />\n  <meta property=\"og:site_name\" content=\"Parkinson&#39;s UK Forum\" />\n<meta name=\"twitter:card\" content=\"summary\" />\n<meta name=\"twitter:image\" content=\"https://forum.parkinsons.org.uk/uploads/db7928/original/2X/3/311fc84f89f49f38601a2f16b295b6f03d3ce5dd.jpg\" />\n<meta property=\"og:image\" content=\"https://forum.parkinsons.org.uk/uploads/db7928/original/2X/3/311fc84f89f49f38601a2f16b295b6f03d3ce5dd.jpg\" />\n<meta property=\"og:url\" content=\"https://forum.parkinsons.org.uk/t/freezing/18529\" />\n<meta name=\"twitter:url\" content=\"https://forum.parkinsons.org.uk/t/freezing/18529\" />\n<meta property=\"og:title\" content=\"Freezing\" />\n<meta name=\"twitter:title\" content=\"Freezing\" />\n<meta property=\"og:description\" content=\"Can anyone offer me some advise on freezing?  My mum was diagnosed last year and this is her biggest problem. She is doing amazing in this daunting journey but i would love to be able to help with some ways she can try to help herself when she does freeze. Thanks so much on advance.\" />\n<meta name=\"twitter:description\" content=\"Can anyone offer me some advise on freezing?  My mum was diagnosed last year and this is her biggest problem. She is doing amazing in this daunting journey but i would love to be able to help with some ways she can try to help herself when she does freeze. Thanks so much on advance.\" />\n<meta name=\"twitter:label1\" value=\"Reading time\" />\n<meta name=\"twitter:data1\" value=\"1 mins \uD83D\uDD51\" />\n<meta name=\"twitter:label2\" value=\"Likes\" />\n<meta name=\"twitter:data2\" value=\"5 ❤\" />\n<meta property=\"article:published_time\" content=\"2019-03-22T22:00:48+00:00\" />\n<meta property=\"og:ignore_canonical\" content=\"true\" />\n\n\n\n    \n  </head>\n  <body class=\"crawler\">\n    <header role=\"banner\">\n    <div class=\"region region-header\">\n        <div class=\"region-header-wrapper\">\n            <div id=\"block-parkinsons-d8-branding\" class=\"block block-system block-system-branding-block\">\n                <a href=\"/\" title=\"Home\" rel=\"home\" class=\"site-logo\">\n                    <img src=\"https://forum.parkinsons.org.uk/uploads/db7928/original/2X/8/862bb7d172e7d127e7f3e147ec43594aa62ac945.png\" alt=\"Parkinson's UK. Change Attitudes. Find a cure. Join us.\">\n                </a>\n            </div>\n            <div id=\"block-helpline\" class=\"block block-block-content block-block-content871cd5af-b938-4947-9dc0-d5c211d08fe3 style-phone\">\n                <div class=\"field field--name-field-link field--type-link field--label-hidden field__item\"><a href=\"tel:+448088000303\">Helpline 0808 800 0303</a></div>\n            </div>\n            <div id=\"block-shop\" class=\"block block-block-content block-block-content6fba5ae5-7797-49cd-8367-f321d8111cd6 style-regular\">\n                <div class=\"field field--name-field-link field--type-link field--label-hidden field__item\"><a href=\"https://shop.parkinsons.org.uk\">Shop</a></div>\n            </div>\n        </div>\n    </div>\n</header>\n\n\n<script src=\"/theme-javascripts/b7e9763fcb584fc8265c56a9f557cd6d2e1e8ed8.js?__ws=forum.parkinsons.org.uk\"></script>\n    <header>\n      <a href=\"/\">\n          <img src=\"https://forum.parkinsons.org.uk/uploads/db7928/original/2X/8/862bb7d172e7d127e7f3e147ec43594aa62ac945.png\" alt=\"Parkinson&#39;s UK Forum\" id=\"site-logo\" style=\"max-width: 150px;\">\n      </a>\n    </header>\n    <div id=\"main-outlet\" class=\"wrap\">\n      <h1>\n  <a href=\"/t/freezing/18529\">Freezing</a>\n</h1>\n\n<div id='breadcrumbs'>\n    <div id=\"breadcrumb-0\" itemscope itemtype=\"http://data-vocabulary.org/Breadcrumb\"\n        itemref=\"breadcrumb-1\"\n      >\n      <a href=\"/c/about-parkinsons-and-health\" itemprop=\"url\">\n        <span itemprop=\"title\">About Parkinson&#39;s and health</span>\n      </a>\n    </div>\n    <div id=\"breadcrumb-1\" itemscope itemtype=\"http://data-vocabulary.org/Breadcrumb\"\n>\n      <a href=\"/c/about-parkinsons-and-health/symptoms\" itemprop=\"url\">\n        <span itemprop=\"title\">Symptoms</span>\n      </a>\n    </div>\n</div>\n\n\n\n\n\n<hr>\n\n\n  <div itemscope itemtype='http://schema.org/DiscussionForumPosting'>\n      <div class='creator'>\n        <span>\n          <a href='/u/Gemk99'><b itemprop='author'>Gemk99</b></a>\n          \n          <time datetime='2019-03-22T22:00:48Z' itemprop='datePublished'>\n            2019-03-22 22:00:48 UTC\n          </time>\n        </span>\n        <span itemprop='position'>#1</span>\n      </div>\n      <div class='post' itemprop='articleBody'>\n        <p>Can anyone offer me some advise on freezing?<br>\nMy mum was diagnosed last year and this is her biggest problem. She is doing amazing in this daunting journey but i would love to be able to help with some ways she can try to help herself when she does freeze. Thanks so much on advance.</p>\n      </div>\n      <meta itemprop='interactionCount' content='UserLikes:0'>\n      <meta itemprop='interactionCount' content='UserComments:0'>\n      <meta itemprop='headline' content='Freezing'>\n      <hr>\n  </div>\n  <div itemscope itemtype='http://schema.org/DiscussionForumPosting'>\n      <div class='creator'>\n        <span>\n          <a href='/u/FF'><b itemprop='author'>FF</b></a>\n          \n          <time datetime='2019-03-22T23:01:12Z' itemprop='datePublished'>\n            2019-03-22 23:01:12 UTC\n          </time>\n        </span>\n        <span itemprop='position'>#2</span>\n      </div>\n      <div class='post' itemprop='articleBody'>\n        <p>Different things work for different people but -</p>\n<p>Taking a deep breath (trying too hard makes freezing worse).<br>\nCounting/swinging arms before stepping sometimes helps.<br>\nRather than thinking about walking forward, stepping back/sideways first can help or thinking about lifting knees high or toes, thinking about kicking a ball, singing</p>\n<p>Tea dancing can really help as the music helps the timing. May start off barely getting round the room, but gradually during sessions it can really improve as the system of steps help.</p>\n<p>Sometimes you find one thing works for a while then you need to adapt. Good posture also important to prevent falling (leaning forward encourages shuffle and then loss of balance)</p>\n<p>Good luck. Hopefully the above will give you some ideas to find something that works</p>\n      </div>\n      <meta itemprop='interactionCount' content='UserLikes:2'>\n      <meta itemprop='interactionCount' content='UserComments:1'>\n      <meta itemprop='headline' content='Freezing'>\n      <hr>\n  </div>\n  <div itemscope itemtype='http://schema.org/DiscussionForumPosting'>\n      <div class='creator'>\n        <span>\n          <a href='/u/Gemk99'><b itemprop='author'>Gemk99</b></a>\n          \n          <time datetime='2019-03-23T22:46:43Z' itemprop='datePublished'>\n            2019-03-23 22:46:43 UTC\n          </time>\n        </span>\n        <span itemprop='position'>#3</span>\n      </div>\n      <div class='post' itemprop='articleBody'>\n        <p>Thank you so much for responding. I saw my mum today and feeling very low as feel i can’t help so good to have something to offer her.</p>\n      </div>\n      <meta itemprop='interactionCount' content='UserLikes:0'>\n      <meta itemprop='interactionCount' content='UserComments:1'>\n      <meta itemprop='headline' content='Freezing'>\n      <hr>\n  </div>\n  <div itemscope itemtype='http://schema.org/DiscussionForumPosting'>\n      <div class='creator'>\n        <span>\n          <a href='/u/FF'><b itemprop='author'>FF</b></a>\n          \n          <time datetime='2019-03-24T05:24:05Z' itemprop='datePublished'>\n            2019-03-24 05:24:05 UTC\n          </time>\n        </span>\n        <span itemprop='position'>#4</span>\n      </div>\n      <div class='post' itemprop='articleBody'>\n        <p>Very welcome. It’s so tough, but taking a deep breath and just finding good things to smile about makes it easier on you both.</p>\n<p>I video!  I video anything that I know makes dad happy. The changing seasons from the conservatory. Their dogs, animals, the birds in the garden, their singing, the heron etc. So on hard days we can watch them.<br>\nI video him achieving things - at moment he is in hospital, so every visitor gets pictures and videos with him. On his good days that he can get walking, I video him so he can look at what he managed (&amp; see his posture etc).<br>\nI look up music on google to play him as he requests (even though he has an iPod with 15 days non stop music) and we listen to it. He tries to think of ones he thinks I can’t find <img src=\"https://forum.parkinsons.org.uk/images/emoji/twitter/joy.png?v=6\" title=\":joy:\" class=\"emoji\" alt=\":joy:\">.<br>\nI find funny/cute clips from Internet for us to watch etc. Things we can do together to enjoy and have conversations (limited) about.</p>\n<p>Find “your thing” and you can both enjoy each other’s company, even on a bad day. I only just joined here a few days ago, but definitely useful</p>\n      </div>\n      <meta itemprop='interactionCount' content='UserLikes:0'>\n      <meta itemprop='interactionCount' content='UserComments:0'>\n      <meta itemprop='headline' content='Freezing'>\n      <hr>\n  </div>\n  <div itemscope itemtype='http://schema.org/DiscussionForumPosting'>\n      <div class='creator'>\n        <span>\n          <a href='/u/Gemk99'><b itemprop='author'>Gemk99</b></a>\n          \n          <time datetime='2019-03-24T07:55:29Z' itemprop='datePublished'>\n            2019-03-24 07:55:29 UTC\n          </time>\n        </span>\n        <span itemprop='position'>#5</span>\n      </div>\n      <div class='post' itemprop='articleBody'>\n        <p>Thanks definitely going to do the videos and photos. As a family we laugh a lot and it is hard when there are bad days and laughter is harder to find. Just got to make sure we keep doing that.</p>\n      </div>\n      <meta itemprop='interactionCount' content='UserLikes:1'>\n      <meta itemprop='interactionCount' content='UserComments:0'>\n      <meta itemprop='headline' content='Freezing'>\n      <hr>\n  </div>\n  <div itemscope itemtype='http://schema.org/DiscussionForumPosting'>\n      <div class='creator'>\n        <span>\n          <a href='/u/Omahatom'><b itemprop='author'>Omahatom</b></a>\n          \n          <time datetime='2019-03-24T09:26:09Z' itemprop='datePublished'>\n            2019-03-24 09:26:09 UTC\n          </time>\n        </span>\n        <span itemprop='position'>#6</span>\n      </div>\n      <div class='post' itemprop='articleBody'>\n        <p>Hello Gemk99<br>\nI would like to ad it is important knowing from my own experience observing other that freezing increases the chance of falls.  Especially if it is what I call the momentary stop and go type.  When this happens you tend to fall forward with momentum. When this happened your feet do not take a long stride.  But they start a very short stutter shuffle.  The tired one is the more likely you don’t catch up. Face first nose dive the result.  If your mom(USA) does not have a cane or walker it is time to get one. Falls and the injuries they cause are hard to come back from.  At my therapy here in the states the cane is part of my avoiding a freeze.  I was taught to use the canes anchor point as a reference to step forward and my foot lands even with it.  It is wise when your mum is walking not to talk to her. Her attention must focus on walking.  For me a distraction halts my brain communication to my feet.<br>\nAs was mentioned there are many ways is avoid freezing.  The  learning which one works best takes some time.  The main event to avoid first is the fall.  A walker or a cane helps.   Hope you find what works PWP Tom.</p>\n      </div>\n      <meta itemprop='interactionCount' content='UserLikes:1'>\n      <meta itemprop='interactionCount' content='UserComments:0'>\n      <meta itemprop='headline' content='Freezing'>\n      <hr>\n  </div>\n  <div itemscope itemtype='http://schema.org/DiscussionForumPosting'>\n      <div class='creator'>\n        <span>\n          <a href='/u/Gemk99'><b itemprop='author'>Gemk99</b></a>\n          \n          <time datetime='2019-03-24T13:32:44Z' itemprop='datePublished'>\n            2019-03-24 13:32:44 UTC\n          </time>\n        </span>\n        <span itemprop='position'>#7</span>\n      </div>\n      <div class='post' itemprop='articleBody'>\n        <p>Thank you for this. I think i will have to urge towards the use of a stick as she is the first type you said with the momentary stop and go. I saw a video about encouraging her whrn it happens to stop, stand straight and then different ways to try and get her to restart again but i do worry she will fall. Only trouble is PD is bringing out the stubborn side in her where she doesn’t want to appear weak and doesn’t want people to make a fuss of her so it may not be quite so easy to get her to do it. I will try though. Thanks for your advise.</p>\n      </div>\n      <meta itemprop='interactionCount' content='UserLikes:0'>\n      <meta itemprop='interactionCount' content='UserComments:1'>\n      <meta itemprop='headline' content='Freezing'>\n      <hr>\n  </div>\n  <div itemscope itemtype='http://schema.org/DiscussionForumPosting'>\n      <div class='creator'>\n        <span>\n          <a href='/u/FF'><b itemprop='author'>FF</b></a>\n          \n          <time datetime='2019-03-24T22:12:00Z' itemprop='datePublished'>\n            2019-03-24 22:12:00 UTC\n          </time>\n        </span>\n        <span itemprop='position'>#8</span>\n      </div>\n      <div class='post' itemprop='articleBody'>\n        <p>Also good to get Physiotherapy. They are good at helping to find the ways of coping and “unfreezing” with the benefit of having bars etc to hold.<br>\nCane/walkers will give confidence and help prevent falls, but still need to learn the tools/tricks to cope</p>\n      </div>\n      <meta itemprop='interactionCount' content='UserLikes:0'>\n      <meta itemprop='interactionCount' content='UserComments:0'>\n      <meta itemprop='headline' content='Freezing'>\n      <hr>\n  </div>\n  <div itemscope itemtype='http://schema.org/DiscussionForumPosting'>\n      <div class='creator'>\n        <span>\n          <a href='/u/Gemk99'><b itemprop='author'>Gemk99</b></a>\n          \n          <time datetime='2019-03-26T21:33:41Z' itemprop='datePublished'>\n            2019-03-26 21:33:41 UTC\n          </time>\n        </span>\n        <span itemprop='position'>#9</span>\n      </div>\n      <div class='post' itemprop='articleBody'>\n        <p>She is still waiting for her physio appointment. Must make her chase that up if it can offer help for the freezing. Thanks.</p>\n      </div>\n      <meta itemprop='interactionCount' content='UserLikes:1'>\n      <meta itemprop='interactionCount' content='UserComments:0'>\n      <meta itemprop='headline' content='Freezing'>\n      <hr>\n  </div>\n  <div itemscope itemtype='http://schema.org/DiscussionForumPosting'>\n      <div class='creator'>\n        <span>\n          <a href='/u/Christo'><b itemprop='author'>Christo</b></a>\n          \n          <time datetime='2019-04-08T09:03:31Z' itemprop='datePublished'>\n            2019-04-08 09:03:31 UTC\n          </time>\n        </span>\n        <span itemprop='position'>#10</span>\n      </div>\n      <div class='post' itemprop='articleBody'>\n        <p>Freezing is my main problem too. I find that whistling or humming a nice rhythmic tune like a marchworks quite well but it depends on your taste in music I suppose.</p>\n      </div>\n      <meta itemprop='interactionCount' content='UserLikes:0'>\n      <meta itemprop='interactionCount' content='UserComments:0'>\n      <meta itemprop='headline' content='Freezing'>\n      <hr>\n  </div>\n\n\n\n\n\n\n    </div>\n    <footer class=\"container\">\n      <nav class='crawler-nav' itemscope itemtype='http://schema.org/SiteNavigationElement'>\n        <a href='/'>Home</a>\n        <a href=\"/categories\">Categories</a>\n        <a href=\"/guidelines\">FAQ/Guidelines</a>\n        <a href=\"/tos\">Terms of Service</a>\n        <a href=\"/privacy\">Privacy Policy</a>\n      </nav>\n      <p class='powered-by-link'>Powered by <a href=\"https://www.discourse.org\">Discourse</a>, best viewed with JavaScript enabled</p>\n    </footer>\n    \n  </body>\n  \n</html>\n",
  "url": "https://forum.parkinsons.org.uk/t/freezing/18529"
}