{
  "contentId": "c099a870-8869-11e9-8f96-97f71b5221d6",
  "html": "<!DOCTYPE html>\n<html lang=\"en\">\n  <head>\n    <meta charset=\"utf-8\">\n    <title>Sinemet shortage status - Treatments and therapies - Parkinson&#39;s UK Forum</title>\n    <meta name=\"description\" content=\"Just returned from the Chemist who said they are unable to fulfil my regular monthly prescription. They offered no advice as to what to do so I have asked the GP for some advice.  I see from earlier posts that there were&amp;hellip;\">\n    <meta name=\"author\" content=\"\">\n<meta name=\"generator\" content=\"Discourse 2.2.5 - https://github.com/discourse/discourse version c294ff3609f988dcafb742e91606d60ca13b794d\">\n<link rel=\"icon\" type=\"image/png\" href=\"https://forum.parkinsons.org.uk/uploads/db7928/original/2X/3/311fc84f89f49f38601a2f16b295b6f03d3ce5dd.jpg\">\n<link rel=\"apple-touch-icon\" type=\"image/png\" href=\"https://forum.parkinsons.org.uk/uploads/db7928/original/2X/3/311fc84f89f49f38601a2f16b295b6f03d3ce5dd.jpg\">\n<meta name=\"theme-color\" content=\"#ffffff\">\n<meta name=\"viewport\" content=\"width=device-width, minimum-scale=1.0, maximum-scale=1.0, user-scalable=yes\">\n<link rel=\"canonical\" href=\"https://forum.parkinsons.org.uk/t/sinemet-shortage-status/16700?page=2\" />\n<script type=\"application/ld+json\">{\"@context\":\"http://schema.org\",\"@type\":\"WebSite\",\"url\":\"https://forum.parkinsons.org.uk\",\"potentialAction\":{\"@type\":\"SearchAction\",\"target\":\"https://forum.parkinsons.org.uk/search?q={search_term_string}\",\"query-input\":\"required name=search_term_string\"}}</script>\n<link rel=\"search\" type=\"application/opensearchdescription+xml\" href=\"https://forum.parkinsons.org.uk/opensearch.xml\" title=\"Parkinson&#39;s UK Forum Search\">\n\n      <link href=\"/stylesheets/desktop_f99246ae801b083d3e4cca979d0dade8615b39ac.css?__ws=forum.parkinsons.org.uk\" media=\"all\" rel=\"stylesheet\" data-target=\"desktop\" data-theme-id=\"12\"/>\n      <link href=\"/stylesheets/desktop_theme_12_5d27531cf43f9df0c03a6a6ec3109dd05f9dfc49.css?__ws=forum.parkinsons.org.uk\" media=\"all\" rel=\"stylesheet\" data-target=\"desktop_theme\" data-theme-id=\"12\"/>\n    <link href=\"https://fonts.googleapis.com/css?family=Open+Sans\" rel=\"stylesheet\">\n\n    <meta id=\"data-ga-universal-analytics\" data-tracking-code=\"UA-4855628-1\" data-json=\"{&quot;cookieDomain&quot;:&quot;auto&quot;}\" data-auto-link-domains=\"\">\n\n<link rel='preload' href='/assets/google-universal-analytics-f35b4da49411e6f5559073523aab983da483976a3954c79c756f8579f6fbd6ef.js' as='script'/>\n<script src='/assets/google-universal-analytics-f35b4da49411e6f5559073523aab983da483976a3954c79c756f8579f6fbd6ef.js'></script>\n\n      <link rel=\"alternate\" type=\"application/rss+xml\" title=\"RSS feed of &#39;Sinemet shortage status&#39;\" href=\"https://forum.parkinsons.org.uk/t/sinemet-shortage-status/16700.rss\" />\n  <meta property=\"og:site_name\" content=\"Parkinson&#39;s UK Forum\" />\n<meta name=\"twitter:card\" content=\"summary\" />\n<meta name=\"twitter:image\" content=\"https://forum.parkinsons.org.uk/user_avatar/forum.parkinsons.org.uk/reah/200/1665_2.png\" />\n<meta property=\"og:image\" content=\"https://forum.parkinsons.org.uk/user_avatar/forum.parkinsons.org.uk/reah/200/1665_2.png\" />\n<meta property=\"og:url\" content=\"https://forum.parkinsons.org.uk/t/sinemet-shortage-status/16700/24\" />\n<meta name=\"twitter:url\" content=\"https://forum.parkinsons.org.uk/t/sinemet-shortage-status/16700/24\" />\n<meta property=\"og:title\" content=\"Sinemet shortage status\" />\n<meta name=\"twitter:title\" content=\"Sinemet shortage status\" />\n<meta property=\"og:description\" content=\"Hi @sheffy,  Yes, unfortunately there is a shortage on a variety of Sinemet medication including the 12.5/50mg and they won’t be available to early June. This, of course, is’t fair to people with Parkinson’s who depend on this medication, however, your GP or pharmacist can discuss this with you and should be able to offer you a suitable alternative.  We’ve posted more information on the forum here - Sinemet News Update: 10/05/19.  As always, if you have anymore questions and/or concerns, please ...\" />\n<meta name=\"twitter:description\" content=\"Hi @sheffy,  Yes, unfortunately there is a shortage on a variety of Sinemet medication including the 12.5/50mg and they won’t be available to early June. This, of course, is’t fair to people with Parkinson’s who depend on this medication, however, your GP or pharmacist can discuss this with you and should be able to offer you a suitable alternative.  We’ve posted more information on the forum here - Sinemet News Update: 10/05/19.  As always, if you have anymore questions and/or concerns, please ...\" />\n<meta property=\"article:published_time\" content=\"2019-05-29T11:19:57+00:00\" />\n<meta property=\"og:ignore_canonical\" content=\"true\" />\n\n\n\n    \n  </head>\n  <body class=\"crawler\">\n    <header role=\"banner\">\n    <div class=\"region region-header\">\n        <div class=\"region-header-wrapper\">\n            <div id=\"block-parkinsons-d8-branding\" class=\"block block-system block-system-branding-block\">\n                <a href=\"/\" title=\"Home\" rel=\"home\" class=\"site-logo\">\n                    <img src=\"https://forum.parkinsons.org.uk/uploads/db7928/original/2X/8/862bb7d172e7d127e7f3e147ec43594aa62ac945.png\" alt=\"Parkinson's UK. Change Attitudes. Find a cure. Join us.\">\n                </a>\n            </div>\n            <div id=\"block-helpline\" class=\"block block-block-content block-block-content871cd5af-b938-4947-9dc0-d5c211d08fe3 style-phone\">\n                <div class=\"field field--name-field-link field--type-link field--label-hidden field__item\"><a href=\"tel:+448088000303\">Helpline 0808 800 0303</a></div>\n            </div>\n            <div id=\"block-shop\" class=\"block block-block-content block-block-content6fba5ae5-7797-49cd-8367-f321d8111cd6 style-regular\">\n                <div class=\"field field--name-field-link field--type-link field--label-hidden field__item\"><a href=\"https://shop.parkinsons.org.uk\">Shop</a></div>\n            </div>\n        </div>\n    </div>\n</header>\n\n\n<script src=\"/theme-javascripts/b7e9763fcb584fc8265c56a9f557cd6d2e1e8ed8.js?__ws=forum.parkinsons.org.uk\"></script>\n    <header>\n      <a href=\"/\">\n          <img src=\"https://forum.parkinsons.org.uk/uploads/db7928/original/2X/8/862bb7d172e7d127e7f3e147ec43594aa62ac945.png\" alt=\"Parkinson&#39;s UK Forum\" id=\"site-logo\" style=\"max-width: 150px;\">\n      </a>\n    </header>\n    <div id=\"main-outlet\" class=\"wrap\">\n      <h1>\n  <a href=\"/t/sinemet-shortage-status/16700\">Sinemet shortage status</a>\n</h1>\n\n<div id='breadcrumbs'>\n    <div id=\"breadcrumb-0\" itemscope itemtype=\"http://data-vocabulary.org/Breadcrumb\"\n        itemref=\"breadcrumb-1\"\n      >\n      <a href=\"/c/about-parkinsons-and-health\" itemprop=\"url\">\n        <span itemprop=\"title\">About Parkinson&#39;s and health</span>\n      </a>\n    </div>\n    <div id=\"breadcrumb-1\" itemscope itemtype=\"http://data-vocabulary.org/Breadcrumb\"\n>\n      <a href=\"/c/about-parkinsons-and-health/treatments-and-therapies\" itemprop=\"url\">\n        <span itemprop=\"title\">Treatments and therapies</span>\n      </a>\n    </div>\n</div>\n\n\n\n\n\n<hr>\n\n\n  <div itemscope itemtype='http://schema.org/DiscussionForumPosting'>\n      <div class='creator'>\n        <span>\n          <a href='/u/sheffy'><b itemprop='author'>sheffy</b></a>\n          \n          <time datetime='2019-05-24T11:46:19Z' itemprop='datePublished'>\n            2019-05-24 11:46:19 UTC\n          </time>\n        </span>\n        <span itemprop='position'>#12</span>\n      </div>\n      <div class='post' itemprop='articleBody'>\n        <p>Good afternoon Reah, just wondered if you have any info regarding the latest shortage of Sinimet 12.5/50mg? I take 2 tabs 3 times a day, and have enough to last me two weeks.</p>\n<p>Thanks sheffy <img src=\"https://forum.parkinsons.org.uk/images/emoji/twitter/pensive.png?v=6\" title=\":pensive:\" class=\"emoji\" alt=\":pensive:\"></p>\n      </div>\n      <meta itemprop='interactionCount' content='UserLikes:0'>\n      <meta itemprop='interactionCount' content='UserComments:0'>\n      <meta itemprop='headline' content='Sinemet shortage status'>\n      <hr>\n  </div>\n  <div itemscope itemtype='http://schema.org/DiscussionForumPosting'>\n      <div class='creator'>\n        <span>\n          <a href='/u/Marigold'><b itemprop='author'>Marigold</b></a>\n          \n          <time datetime='2019-05-24T13:54:10Z' itemprop='datePublished'>\n            2019-05-24 13:54:10 UTC\n          </time>\n        </span>\n        <span itemprop='position'>#13</span>\n      </div>\n      <div class='post' itemprop='articleBody'>\n        <p>The sinemet-news-update dated 10 May on the website is very interesting and mentions shortages as well as changes to 3 products. I only found it by doing a search rather than it being flagged for information.  Other websites indicate that flows/deliveries should start in June. This implies a few more weeks with no supplies.</p>\n<p>There are references to patients having discussions with GPs and pharmacist to look at alternatives. This all sounds very cosy and is all well and good if there had been some planning/notification in advance. Allowing patients to turn up at the pharmacy to pick up a regular monthly prescription, with only enough tablets for a few days left, to be told there are no supplies is not good practice!  I am sure most of us do not have more than a week or two of tablets in reserve.</p>\n<p>I know I have an alternative as I take 2 x 12.5/25mg 5 times per day and could use Sinemet 25/100mg instead. I used a generic brand last time and didn’t notice too much difference. What I need to try and do now is find a local pharmacy that actually has stocks of Sinemet 25/100 as supplies are getting low due its use as an alternative for the other tablets.</p>\n<p>I am surprised at the lack of local co-ordination and the apparent reliance on the patient to find tablets and organise updated prescriptions from the GP etc.  I don’t know how many of us take Sinemet but surely it is more than a handful in each area.  Does anyone have any stats on this?</p>\n<p>Marigold</p>\n      </div>\n      <meta itemprop='interactionCount' content='UserLikes:0'>\n      <meta itemprop='interactionCount' content='UserComments:0'>\n      <meta itemprop='headline' content='Sinemet shortage status'>\n      <hr>\n  </div>\n  <div itemscope itemtype='http://schema.org/DiscussionForumPosting'>\n      <div class='creator'>\n        <span>\n          <a href='/u/eubielicious'><b itemprop='author'>eubielicious</b></a>\n          \n          <time datetime='2019-05-25T15:12:24Z' itemprop='datePublished'>\n            2019-05-25 15:12:24 UTC\n          </time>\n        </span>\n        <span itemprop='position'>#14</span>\n      </div>\n      <div class='post' itemprop='articleBody'>\n        <p>I have my meds. One of the doctors at my surgery had a chat with the pharmacist and they have come up with a solution - halving the 25mg/100mg tablets and I’m taking one of those (half a tablet) three times a day. Not perfect but it’s a solution, although I feel for the poor pharmacist having to divide 120 tablets in two!!!</p>\n<p>Euan</p>\n      </div>\n      <meta itemprop='interactionCount' content='UserLikes:0'>\n      <meta itemprop='interactionCount' content='UserComments:1'>\n      <meta itemprop='headline' content='Sinemet shortage status'>\n      <hr>\n  </div>\n  <div itemscope itemtype='http://schema.org/DiscussionForumPosting'>\n      <div class='creator'>\n        <span>\n          <a href='/u/Marigold'><b itemprop='author'>Marigold</b></a>\n          \n          <time datetime='2019-05-25T16:30:14Z' itemprop='datePublished'>\n            2019-05-25 16:30:14 UTC\n          </time>\n        </span>\n        <span itemprop='position'>#15</span>\n      </div>\n      <div class='post' itemprop='articleBody'>\n        <p>Glad you have found a solution.<br>\nI got a new prescription from the GP and managed to get some 25/100 Sinemet from Boots this morning - it was their last packet. I think it might have to investige the generics next month!</p>\n<p>Take care taking the tablets - they can make you feel nauseous. I always have a small water biscuit with mine and a glass of water.  They work better if you have them on an empty stomach - 30 mins before eating or 2 hours after eating and also seem to work better if the amount of protein in the diet is reduced.  I hope you manage to establish a regular routine.</p>\n<p>Marigold</p>\n      </div>\n      <meta itemprop='interactionCount' content='UserLikes:0'>\n      <meta itemprop='interactionCount' content='UserComments:1'>\n      <meta itemprop='headline' content='Sinemet shortage status'>\n      <hr>\n  </div>\n  <div itemscope itemtype='http://schema.org/DiscussionForumPosting'>\n      <div class='creator'>\n        <span>\n          <a href='/u/eubielicious'><b itemprop='author'>eubielicious</b></a>\n          \n          <time datetime='2019-05-25T16:35:37Z' itemprop='datePublished'>\n            2019-05-25 16:35:37 UTC\n          </time>\n        </span>\n        <span itemprop='position'>#16</span>\n      </div>\n      <div class='post' itemprop='articleBody'>\n        <p>Thanks Marigold. I’ve been on them for about a week and a half and have had no problems with nausea at all. I’m not sure about how best to schedule them, so have been having them at about 7am, then at noon and again about 5-6pm - not sure if they need to be more spaced out. I’m careful with protein as you say, I’m allowing 30 mins or so before even having milk in my coffee!</p>\n      </div>\n      <meta itemprop='interactionCount' content='UserLikes:0'>\n      <meta itemprop='interactionCount' content='UserComments:1'>\n      <meta itemprop='headline' content='Sinemet shortage status'>\n      <hr>\n  </div>\n  <div itemscope itemtype='http://schema.org/DiscussionForumPosting'>\n      <div class='creator'>\n        <span>\n          <a href='/u/Roy_S'><b itemprop='author'>Roy_S</b></a>\n          \n          <time datetime='2019-05-25T17:14:17Z' itemprop='datePublished'>\n            2019-05-25 17:14:17 UTC\n          </time>\n        </span>\n        <span itemprop='position'>#17</span>\n      </div>\n      <div class='post' itemprop='articleBody'>\n        <aside class=\"quote no-group\" data-post=\"16\" data-topic=\"16700\">\n<div class=\"title\">\n<div class=\"quote-controls\"></div>\n<img alt width=\"20\" height=\"20\" src=\"https://forum.parkinsons.org.uk/user_avatar/forum.parkinsons.org.uk/eubielicious/40/3028_2.png\" class=\"avatar\"> eubielicious:</div>\n<blockquote>\n<p>I’m not sure about how best to schedule them</p>\n</blockquote>\n</aside>\n<p>I’ve just been prescribed them, the neurologist said take them at 8am then 8pm for 2 weeks then add another at 2pm after that. He never mentioned about taking them with food but I tend to do that anyway, good excuse for a snack sometimes <img src=\"https://forum.parkinsons.org.uk/images/emoji/twitter/slight_smile.png?v=6\" title=\":slight_smile:\" class=\"emoji\" alt=\":slight_smile:\"> .</p>\n      </div>\n      <meta itemprop='interactionCount' content='UserLikes:1'>\n      <meta itemprop='interactionCount' content='UserComments:0'>\n      <meta itemprop='headline' content='Sinemet shortage status'>\n      <hr>\n  </div>\n  <div itemscope itemtype='http://schema.org/DiscussionForumPosting'>\n      <div class='creator'>\n        <span>\n          <a href='/u/Margs1'><b itemprop='author'>Margs1</b></a>\n          \n          <time datetime='2019-05-28T16:45:19Z' itemprop='datePublished'>\n            2019-05-28 16:45:19 UTC\n          </time>\n        </span>\n        <span itemprop='position'>#18</span>\n      </div>\n      <div class='post' itemprop='articleBody'>\n        <p>When I moved to a different area my new doctor said they did not prescribe sinemet but an alternative as sinemet was too expensive.   I got in touch with my consultant who said it would not make any difference taking a different make.    So far I have been ok.</p>\n      </div>\n      <meta itemprop='interactionCount' content='UserLikes:0'>\n      <meta itemprop='interactionCount' content='UserComments:1'>\n      <meta itemprop='headline' content='Sinemet shortage status'>\n      <hr>\n  </div>\n  <div itemscope itemtype='http://schema.org/DiscussionForumPosting'>\n      <div class='creator'>\n        <span>\n          <a href='/u/sheffy'><b itemprop='author'>sheffy</b></a>\n          \n          <time datetime='2019-05-28T18:47:28Z' itemprop='datePublished'>\n            2019-05-28 18:47:28 UTC\n          </time>\n        </span>\n        <span itemprop='position'>#19</span>\n      </div>\n      <div class='post' itemprop='articleBody'>\n        <p>Hello Margs1, I know some Parkinson sufferers cannot tolerate the cheaper meds, with me it was the cheaper Ropinirole brands that I couldn’t (and still can’t) tolerate. I wonder if is the length of time you have been on the expensive brands (in my case from being diagnosed in 2010) and that the body gets used to a particular brand. I am now having problems with supplies of my Sinimet 12.5/50mg, and I have been on them for just over a year now, taking 6 tablets a day, so hope by introducing a generic for this med that it will not upset my regime</p>\n<p>I live in hope - sheffy</p>\n      </div>\n      <meta itemprop='interactionCount' content='UserLikes:0'>\n      <meta itemprop='interactionCount' content='UserComments:1'>\n      <meta itemprop='headline' content='Sinemet shortage status'>\n      <hr>\n  </div>\n  <div itemscope itemtype='http://schema.org/DiscussionForumPosting'>\n      <div class='creator'>\n        <span>\n          <a href='/u/sheffy'><b itemprop='author'>sheffy</b></a>\n          \n          <time datetime='2019-05-28T19:37:39Z' itemprop='datePublished'>\n            2019-05-28 19:37:39 UTC\n          </time>\n        </span>\n        <span itemprop='position'>#20</span>\n      </div>\n      <div class='post' itemprop='articleBody'>\n        <p>Hello Reah or anyone on the Moderation Team.<br>\nI posted you last week sometime to ask you if you could give us any information at all about the shortage of some Sinimet  meds namely 12.5/50mg, are the supplies running short and near to being unable to supply anymore at all, to the point of loosing all Sinimet supplies, and to give us hope that another med will take it’s place?? Most of it’s users are so reliant on this medication!</p>\n<p>sheffy</p>\n      </div>\n      <meta itemprop='interactionCount' content='UserLikes:0'>\n      <meta itemprop='interactionCount' content='UserComments:2'>\n      <meta itemprop='headline' content='Sinemet shortage status'>\n      <hr>\n  </div>\n  <div itemscope itemtype='http://schema.org/DiscussionForumPosting'>\n      <div class='creator'>\n        <span>\n          <a href='/u/LittleMixWorry'><b itemprop='author'>LittleMixWorry</b></a>\n          \n          <time datetime='2019-05-28T21:13:43Z' itemprop='datePublished'>\n            2019-05-28 21:13:43 UTC\n          </time>\n        </span>\n        <span itemprop='position'>#21</span>\n      </div>\n      <div class='post' itemprop='articleBody'>\n        <p>I mentioned it to my GP and Parky Nurse, not heard what we are supposed to do!  Cold Turkey off Sinemet???  FFS!!!</p>\n      </div>\n      <meta itemprop='interactionCount' content='UserLikes:0'>\n      <meta itemprop='interactionCount' content='UserComments:0'>\n      <meta itemprop='headline' content='Sinemet shortage status'>\n      <hr>\n  </div>\n  <div itemscope itemtype='http://schema.org/DiscussionForumPosting'>\n      <div class='creator'>\n        <span>\n          <a href='/u/Marigold'><b itemprop='author'>Marigold</b></a>\n          \n          <time datetime='2019-05-29T08:06:07Z' itemprop='datePublished'>\n            2019-05-29 08:06:07 UTC\n          </time>\n        </span>\n        <span itemprop='position'>#22</span>\n      </div>\n      <div class='post' itemprop='articleBody'>\n        <p>The statement on Sinemet shortages in the News Section on this site  was updated on 17 May but there hasn’t been any further update.  Looks like supplies to warehouses and then to pharmacies will be mid-late June.  When this happened last time (Nov 18) I had to liaise with both the GP and the pharmacy as the GP has to confirm that they are happy for a generic or different drug to be supplied as an alternative.</p>\n      </div>\n      <meta itemprop='interactionCount' content='UserLikes:0'>\n      <meta itemprop='interactionCount' content='UserComments:0'>\n      <meta itemprop='headline' content='Sinemet shortage status'>\n      <hr>\n  </div>\n  <div itemscope itemtype='http://schema.org/DiscussionForumPosting'>\n      <div class='creator'>\n        <span>\n          <a href='/u/Margs1'><b itemprop='author'>Margs1</b></a>\n          \n          <time datetime='2019-05-29T09:53:10Z' itemprop='datePublished'>\n            2019-05-29 09:53:10 UTC\n          </time>\n        </span>\n        <span itemprop='position'>#23</span>\n      </div>\n      <div class='post' itemprop='articleBody'>\n        <p>Hi Sheffy,  sorry I didnt reply earlier I never received an email about a reply like I usually do.  I have only been diagnosed since last April and was put straight on Sinemet.  I moved in August and have been on another brand since then.</p>\n      </div>\n      <meta itemprop='interactionCount' content='UserLikes:0'>\n      <meta itemprop='interactionCount' content='UserComments:0'>\n      <meta itemprop='headline' content='Sinemet shortage status'>\n      <hr>\n  </div>\n  <div itemscope itemtype='http://schema.org/DiscussionForumPosting'>\n      <div class='creator'>\n        <span>\n          <a href='/u/Reah'><b itemprop='author'>Reah</b></a>\n          \n          <time datetime='2019-05-29T11:19:57Z' itemprop='datePublished'>\n            2019-05-29 11:19:57 UTC\n          </time>\n        </span>\n        <span itemprop='position'>#24</span>\n      </div>\n      <div class='post' itemprop='articleBody'>\n        <p>Hi <a class=\"mention\" href=\"/u/sheffy\">@sheffy</a>,</p>\n<p>Yes, unfortunately there is a shortage on a variety of Sinemet medication including the 12.5/50mg and they won’t be available to early June. This, of course, is’t fair to people with Parkinson’s who depend on this medication, however, your GP or pharmacist can discuss this with you and should be able to offer you a suitable alternative.</p>\n<p>We’ve posted more information on the forum here - <a href=\"https://forum.parkinsons.org.uk/t/sinemet-news-update-10-05-19/19198\" class=\"inline-onebox\">Sinemet News Update: 10/05/19</a>.</p>\n<p>As always, if you have anymore questions and/or concerns, please do not hesitate to contact our helpline.</p>\n<p>Best wishes,<br>\nReah</p>\n      </div>\n      <meta itemprop='interactionCount' content='UserLikes:0'>\n      <meta itemprop='interactionCount' content='UserComments:0'>\n      <meta itemprop='headline' content='Sinemet shortage status'>\n      <hr>\n  </div>\n  <div itemscope itemtype='http://schema.org/DiscussionForumPosting'>\n      <div class='creator'>\n        <span>\n          <a href='/u/jps1926'><b itemprop='author'>jps1926</b></a>\n          \n          <time datetime='2019-05-30T20:00:23Z' itemprop='datePublished'>\n            2019-05-30 20:00:23 UTC\n          </time>\n        </span>\n        <span itemprop='position'>#25</span>\n      </div>\n      <div class='post' itemprop='articleBody'>\n        <p>Well I went to collect my Sinemet 12.5/50 and Sinemet CR 50/200 today and the cupboard was bare. Give Boots credit they called all 3 surgeries and other pharmacies in my local area and no one has any. They are saying late June they are hoping they may get some. Couldn’t get an appointment with my GP but again they are not much use. Fortunately I am with my Neurologists tomorrow so fingers crossed for a result. However he is not allowed to write me prescription as I live in another Primary care trust. My surgery will not act on a telephone call from him and he has to write a letter and then fax it which of course takes time. Can be up to 1 week delay, I run out on Tuesday evening so Wednesday at work might not be good… Oh well I will be positive and hope he can sort it out and also instruct my GP to refer me to the PD nurse as I have now found out the delay in seeing a PD nurse is again because I live in a different PCT. I chose to go with Neurologist to Cambs when Norfolk PCT stopped using him 1 day a week 18 months ago as it is easier to get to Addenbrokes than my local hospital and I also attend the Brain Disease Research centre at Addenbrokes on the same day so only have to take one day every six months off work.<br>\nSo fingers crossed for a solution tomorrow <img src=\"https://forum.parkinsons.org.uk/images/emoji/twitter/sunglasses.png?v=6\" title=\":sunglasses:\" class=\"emoji\" alt=\":sunglasses:\"></p>\n      </div>\n      <meta itemprop='interactionCount' content='UserLikes:0'>\n      <meta itemprop='interactionCount' content='UserComments:1'>\n      <meta itemprop='headline' content='Sinemet shortage status'>\n      <hr>\n  </div>\n  <div itemscope itemtype='http://schema.org/DiscussionForumPosting'>\n      <div class='creator'>\n        <span>\n          <a href='/u/Stoakview'><b itemprop='author'>Stoakview</b></a>\n          \n          <time datetime='2019-05-30T21:00:47Z' itemprop='datePublished'>\n            2019-05-30 21:00:47 UTC\n          </time>\n        </span>\n        <span itemprop='position'>#26</span>\n      </div>\n      <div class='post' itemprop='articleBody'>\n        <p>I had the same problem last week.  Sorted By getting a script for the 25/100 tabs and cutting these in half. Irritating that the pharmacist can’t be allowed t divide by two and issue this without a script but there it is. Very alarming as I take it every  two hours and grind to a halt without! I shall stock pile after this.</p>\n      </div>\n      <meta itemprop='interactionCount' content='UserLikes:0'>\n      <meta itemprop='interactionCount' content='UserComments:0'>\n      <meta itemprop='headline' content='Sinemet shortage status'>\n      <hr>\n  </div>\n  <div itemscope itemtype='http://schema.org/DiscussionForumPosting'>\n      <div class='creator'>\n        <span>\n          <a href='/u/Marigold'><b itemprop='author'>Marigold</b></a>\n          \n          <time datetime='2019-05-31T08:41:45Z' itemprop='datePublished'>\n            2019-05-31 08:41:45 UTC\n          </time>\n        </span>\n        <span itemprop='position'>#27</span>\n      </div>\n      <div class='post' itemprop='articleBody'>\n        <p>I find it frightening that individuals have to go round to try and find a solution. Boots have been very good here as well but if there aren’t any supplies then there is not a lot they can do. I am not sure how these ‘generic’ versions are accessed and whether the GP has to issue yet another prescription, or even if there are generics available - they might have run out as well!   Is this the process for all drug shortages - what about those who are not able to search for replacements?    There hasn’t been any contact from my PD Nurse - although she is a non-prescribing nurse so even if I managed to contact her so she couldn’t take direct action.<br>\nGood luck at Addenbrookes. My Neuro is here as well.</p>\n      </div>\n      <meta itemprop='interactionCount' content='UserLikes:0'>\n      <meta itemprop='interactionCount' content='UserComments:1'>\n      <meta itemprop='headline' content='Sinemet shortage status'>\n      <hr>\n  </div>\n  <div itemscope itemtype='http://schema.org/DiscussionForumPosting'>\n      <div class='creator'>\n        <span>\n          <a href='/u/jps1926'><b itemprop='author'>jps1926</b></a>\n          \n          <time datetime='2019-05-31T09:07:36Z' itemprop='datePublished'>\n            2019-05-31 09:07:36 UTC\n          </time>\n        </span>\n        <span itemprop='position'>#28</span>\n      </div>\n      <div class='post' itemprop='articleBody'>\n        <p>Professor Barker has told me the alternatives which he recommends which is Madopar if I am reading his handwriting correctly. Also my lucky day <img src=\"https://forum.parkinsons.org.uk/images/emoji/twitter/four_leaf_clover.png?v=6\" title=\":four_leaf_clover:\" class=\"emoji\" alt=\":four_leaf_clover:\">there is stock of both Sinemet at Addenbrookes just now waiting for the prescription to be made up <img src=\"https://forum.parkinsons.org.uk/images/emoji/twitter/sunglasses.png?v=6\" title=\":sunglasses:\" class=\"emoji\" alt=\":sunglasses:\"> good luck to all who are also struggling to get what they need to keep going and trying to get on as normal as possible with enjoying life <img src=\"https://forum.parkinsons.org.uk/images/emoji/twitter/blue_heart.png?v=6\" title=\":blue_heart:\" class=\"emoji\" alt=\":blue_heart:\"><img src=\"https://forum.parkinsons.org.uk/images/emoji/twitter/sunglasses.png?v=6\" title=\":sunglasses:\" class=\"emoji\" alt=\":sunglasses:\"></p>\n      </div>\n      <meta itemprop='interactionCount' content='UserLikes:0'>\n      <meta itemprop='interactionCount' content='UserComments:1'>\n      <meta itemprop='headline' content='Sinemet shortage status'>\n      <hr>\n  </div>\n  <div itemscope itemtype='http://schema.org/DiscussionForumPosting'>\n      <div class='creator'>\n        <span>\n          <a href='/u/jps1926'><b itemprop='author'>jps1926</b></a>\n          \n          <time datetime='2019-05-31T10:04:05Z' itemprop='datePublished'>\n            2019-05-31 10:04:05 UTC\n          </time>\n        </span>\n        <span itemprop='position'>#29</span>\n      </div>\n      <div class='post' itemprop='articleBody'>\n        <p>Well a good appointment with Professor Barker he has upped my meds as he says I am little undercooked at the moment <img src=\"https://forum.parkinsons.org.uk/images/emoji/twitter/+1.png?v=6\" title=\":+1:\" class=\"emoji\" alt=\":+1:\"> and he has also checked and Addenbrookes have my meds so sat waiting for prescription to be sorted as they will not accept a paper one he has given me.</p>\n<p>They have called other Lloyd’s branches in Cambridgeshire and no one has any. They will not let me have my meds as it has not been done on the computer  I can actually see them 8 ft away\uD83D\uDE20 gone back to neurologists reception he says it is a valid prescription and does not have access to the computer prescribing facility.</p>\n<p>Back to Lloyd’s well you could try walking around pharmacies in Cambridge or go back to Professor Barker and get him to do it on line. CATCH ****** 22. Explained I have done that so was suggested I could always try A&amp;E. Computer says no <img src=\"https://forum.parkinsons.org.uk/images/emoji/twitter/angry.png?v=6\" title=\":angry:\" class=\"emoji\" alt=\":angry:\"><img src=\"https://forum.parkinsons.org.uk/images/emoji/twitter/angry.png?v=6\" title=\":angry:\" class=\"emoji\" alt=\":angry:\"><img src=\"https://forum.parkinsons.org.uk/images/emoji/twitter/angry.png?v=6\" title=\":angry:\" class=\"emoji\" alt=\":angry:\"><img src=\"https://forum.parkinsons.org.uk/images/emoji/twitter/angry.png?v=6\" title=\":angry:\" class=\"emoji\" alt=\":angry:\"><img src=\"https://forum.parkinsons.org.uk/images/emoji/twitter/angry.png?v=6\" title=\":angry:\" class=\"emoji\" alt=\":angry:\"> you could not make this up. Solution. I will write you a different prescription which I should be able to gef filled somewhere. What an absolute joke of caring</p>\n<p>Gone back to see neurology reception for one last time hoping to get somewhere but not confident at all.</p>\n      </div>\n      <meta itemprop='interactionCount' content='UserLikes:1'>\n      <meta itemprop='interactionCount' content='UserComments:0'>\n      <meta itemprop='headline' content='Sinemet shortage status'>\n      <hr>\n  </div>\n  <div itemscope itemtype='http://schema.org/DiscussionForumPosting'>\n      <div class='creator'>\n        <span>\n          <a href='/u/Marigold'><b itemprop='author'>Marigold</b></a>\n          \n          <time datetime='2019-05-31T10:49:40Z' itemprop='datePublished'>\n            2019-05-31 10:49:40 UTC\n          </time>\n        </span>\n        <span itemprop='position'>#30</span>\n      </div>\n      <div class='post' itemprop='articleBody'>\n        <p>How frustrating - especially when you can see the tablets on the shelf!   I am baffled by the system - perhaps it is just Cambridge.<br>\nGood luck</p>\n      </div>\n      <meta itemprop='interactionCount' content='UserLikes:0'>\n      <meta itemprop='interactionCount' content='UserComments:1'>\n      <meta itemprop='headline' content='Sinemet shortage status'>\n      <hr>\n  </div>\n  <div itemscope itemtype='http://schema.org/DiscussionForumPosting'>\n      <div class='creator'>\n        <span>\n          <a href='/u/jps1926'><b itemprop='author'>jps1926</b></a>\n          \n          <time datetime='2019-05-31T13:32:32Z' itemprop='datePublished'>\n            2019-05-31 13:32:32 UTC\n          </time>\n        </span>\n        <span itemprop='position'>#31</span>\n      </div>\n      <div class='post' itemprop='articleBody'>\n        <p>Hi Marigold, yes sorted professor Barker called Boots in Downham Market went through what he wanted for me instead of Sinemet CR and then wrote me a new prescription. Just collected them and now sat at home with feet up enjoying a nice cup of coffee. Oh what a day it’s been, never mind weekend with hopefully some nice weather to make things seem better <img src=\"https://forum.parkinsons.org.uk/images/emoji/twitter/sunglasses.png?v=6\" title=\":sunglasses:\" class=\"emoji\" alt=\":sunglasses:\"></p>\n      </div>\n      <meta itemprop='interactionCount' content='UserLikes:0'>\n      <meta itemprop='interactionCount' content='UserComments:0'>\n      <meta itemprop='headline' content='Sinemet shortage status'>\n      <hr>\n  </div>\n\n\n\n\n\n\n    </div>\n    <footer class=\"container\">\n      <nav class='crawler-nav' itemscope itemtype='http://schema.org/SiteNavigationElement'>\n        <a href='/'>Home</a>\n        <a href=\"/categories\">Categories</a>\n        <a href=\"/guidelines\">FAQ/Guidelines</a>\n        <a href=\"/tos\">Terms of Service</a>\n        <a href=\"/privacy\">Privacy Policy</a>\n      </nav>\n      <p class='powered-by-link'>Powered by <a href=\"https://www.discourse.org\">Discourse</a>, best viewed with JavaScript enabled</p>\n    </footer>\n    \n  </body>\n  \n</html>\n",
  "url": "https://forum.parkinsons.org.uk/t/sinemet-shortage-status/16700?page=2"
}