{
  "contentId": "a8bf2f80-886f-11e9-8f96-97f71b5221d6",
  "html": "<!DOCTYPE html>\n<html lang=\"en\">\n  <head>\n    <meta charset=\"utf-8\">\n    <title>Swimming with Pd - Wellbeing - Parkinson&#39;s UK Forum</title>\n    <meta name=\"description\" content=\"Hi everyone, \nI wanted to share a positive experience I have had recently regarding swimming with Pd. Having swum from  an early age, i competed to a high level until I was diagnosed at 47. Ironically it was swimming , o&amp;hellip;\">\n    <meta name=\"author\" content=\"\">\n<meta name=\"generator\" content=\"Discourse 2.2.5 - https://github.com/discourse/discourse version c294ff3609f988dcafb742e91606d60ca13b794d\">\n<link rel=\"icon\" type=\"image/png\" href=\"https://forum.parkinsons.org.uk/uploads/db7928/original/2X/3/311fc84f89f49f38601a2f16b295b6f03d3ce5dd.jpg\">\n<link rel=\"apple-touch-icon\" type=\"image/png\" href=\"https://forum.parkinsons.org.uk/uploads/db7928/original/2X/3/311fc84f89f49f38601a2f16b295b6f03d3ce5dd.jpg\">\n<meta name=\"theme-color\" content=\"#ffffff\">\n<meta name=\"viewport\" content=\"width=device-width, minimum-scale=1.0, maximum-scale=1.0, user-scalable=yes\">\n<link rel=\"canonical\" href=\"https://forum.parkinsons.org.uk/t/swimming-with-pd/15806\" />\n<script type=\"application/ld+json\">{\"@context\":\"http://schema.org\",\"@type\":\"WebSite\",\"url\":\"https://forum.parkinsons.org.uk\",\"potentialAction\":{\"@type\":\"SearchAction\",\"target\":\"https://forum.parkinsons.org.uk/search?q={search_term_string}\",\"query-input\":\"required name=search_term_string\"}}</script>\n<link rel=\"search\" type=\"application/opensearchdescription+xml\" href=\"https://forum.parkinsons.org.uk/opensearch.xml\" title=\"Parkinson&#39;s UK Forum Search\">\n\n      <link href=\"/stylesheets/desktop_f99246ae801b083d3e4cca979d0dade8615b39ac.css?__ws=forum.parkinsons.org.uk\" media=\"all\" rel=\"stylesheet\" data-target=\"desktop\" data-theme-id=\"12\"/>\n      <link href=\"/stylesheets/desktop_theme_12_5d27531cf43f9df0c03a6a6ec3109dd05f9dfc49.css?__ws=forum.parkinsons.org.uk\" media=\"all\" rel=\"stylesheet\" data-target=\"desktop_theme\" data-theme-id=\"12\"/>\n    <link href=\"https://fonts.googleapis.com/css?family=Open+Sans\" rel=\"stylesheet\">\n\n    <meta id=\"data-ga-universal-analytics\" data-tracking-code=\"UA-4855628-1\" data-json=\"{&quot;cookieDomain&quot;:&quot;auto&quot;}\" data-auto-link-domains=\"\">\n\n<link rel='preload' href='/assets/google-universal-analytics-f35b4da49411e6f5559073523aab983da483976a3954c79c756f8579f6fbd6ef.js' as='script'/>\n<script src='/assets/google-universal-analytics-f35b4da49411e6f5559073523aab983da483976a3954c79c756f8579f6fbd6ef.js'></script>\n\n      <link rel=\"alternate\" type=\"application/rss+xml\" title=\"RSS feed of &#39;Swimming with Pd&#39;\" href=\"https://forum.parkinsons.org.uk/t/swimming-with-pd/15806.rss\" />\n  <meta property=\"og:site_name\" content=\"Parkinson&#39;s UK Forum\" />\n<meta name=\"twitter:card\" content=\"summary\" />\n<meta name=\"twitter:image\" content=\"https://forum.parkinsons.org.uk/uploads/db7928/original/2X/3/311fc84f89f49f38601a2f16b295b6f03d3ce5dd.jpg\" />\n<meta property=\"og:image\" content=\"https://forum.parkinsons.org.uk/uploads/db7928/original/2X/3/311fc84f89f49f38601a2f16b295b6f03d3ce5dd.jpg\" />\n<meta property=\"og:url\" content=\"https://forum.parkinsons.org.uk/t/swimming-with-pd/15806\" />\n<meta name=\"twitter:url\" content=\"https://forum.parkinsons.org.uk/t/swimming-with-pd/15806\" />\n<meta property=\"og:title\" content=\"Swimming with Pd\" />\n<meta name=\"twitter:title\" content=\"Swimming with Pd\" />\n<meta property=\"og:description\" content=\"Hi everyone,  I wanted to share a positive experience I have had recently regarding swimming with Pd. Having swum from  an early age, i competed to a high level until I was diagnosed at 47. Ironically it was swimming , or the inability to swim efficiently, which marked the onset of Pd as I found it more difficult to coordinate movement. Ironically this more than anything caused me to feel down whilst other symptoms seemed manageable through drugs. I was lucky to have an excellent team in Bath wh...\" />\n<meta name=\"twitter:description\" content=\"Hi everyone,  I wanted to share a positive experience I have had recently regarding swimming with Pd. Having swum from  an early age, i competed to a high level until I was diagnosed at 47. Ironically it was swimming , or the inability to swim efficiently, which marked the onset of Pd as I found it more difficult to coordinate movement. Ironically this more than anything caused me to feel down whilst other symptoms seemed manageable through drugs. I was lucky to have an excellent team in Bath wh...\" />\n<meta name=\"twitter:label1\" value=\"Reading time\" />\n<meta name=\"twitter:data1\" value=\"1 mins \uD83D\uDD51\" />\n<meta name=\"twitter:label2\" value=\"Likes\" />\n<meta name=\"twitter:data2\" value=\"1 ❤\" />\n<meta property=\"article:published_time\" content=\"2018-09-23T09:47:20+00:00\" />\n<meta property=\"og:ignore_canonical\" content=\"true\" />\n\n\n\n    \n  </head>\n  <body class=\"crawler\">\n    <header role=\"banner\">\n    <div class=\"region region-header\">\n        <div class=\"region-header-wrapper\">\n            <div id=\"block-parkinsons-d8-branding\" class=\"block block-system block-system-branding-block\">\n                <a href=\"/\" title=\"Home\" rel=\"home\" class=\"site-logo\">\n                    <img src=\"https://forum.parkinsons.org.uk/uploads/db7928/original/2X/8/862bb7d172e7d127e7f3e147ec43594aa62ac945.png\" alt=\"Parkinson's UK. Change Attitudes. Find a cure. Join us.\">\n                </a>\n            </div>\n            <div id=\"block-helpline\" class=\"block block-block-content block-block-content871cd5af-b938-4947-9dc0-d5c211d08fe3 style-phone\">\n                <div class=\"field field--name-field-link field--type-link field--label-hidden field__item\"><a href=\"tel:+448088000303\">Helpline 0808 800 0303</a></div>\n            </div>\n            <div id=\"block-shop\" class=\"block block-block-content block-block-content6fba5ae5-7797-49cd-8367-f321d8111cd6 style-regular\">\n                <div class=\"field field--name-field-link field--type-link field--label-hidden field__item\"><a href=\"https://shop.parkinsons.org.uk\">Shop</a></div>\n            </div>\n        </div>\n    </div>\n</header>\n\n\n<script src=\"/theme-javascripts/b7e9763fcb584fc8265c56a9f557cd6d2e1e8ed8.js?__ws=forum.parkinsons.org.uk\"></script>\n    <header>\n      <a href=\"/\">\n          <img src=\"https://forum.parkinsons.org.uk/uploads/db7928/original/2X/8/862bb7d172e7d127e7f3e147ec43594aa62ac945.png\" alt=\"Parkinson&#39;s UK Forum\" id=\"site-logo\" style=\"max-width: 150px;\">\n      </a>\n    </header>\n    <div id=\"main-outlet\" class=\"wrap\">\n      <h1>\n  <a href=\"/t/swimming-with-pd/15806\">Swimming with Pd</a>\n</h1>\n\n<div id='breadcrumbs'>\n    <div id=\"breadcrumb-0\" itemscope itemtype=\"http://data-vocabulary.org/Breadcrumb\"\n        itemref=\"breadcrumb-1\"\n      >\n      <a href=\"/c/about-parkinsons-and-health\" itemprop=\"url\">\n        <span itemprop=\"title\">About Parkinson&#39;s and health</span>\n      </a>\n    </div>\n    <div id=\"breadcrumb-1\" itemscope itemtype=\"http://data-vocabulary.org/Breadcrumb\"\n>\n      <a href=\"/c/about-parkinsons-and-health/wellbeing\" itemprop=\"url\">\n        <span itemprop=\"title\">Wellbeing</span>\n      </a>\n    </div>\n</div>\n\n\n\n\n\n<hr>\n\n\n  <div itemscope itemtype='http://schema.org/DiscussionForumPosting'>\n      <div class='creator'>\n        <span>\n          <a href='/u/Sealy69'><b itemprop='author'>Sealy69</b></a>\n          \n          <time datetime='2018-09-23T09:47:20Z' itemprop='datePublished'>\n            2018-09-23 09:47:20 UTC\n          </time>\n        </span>\n        <span itemprop='position'>#1</span>\n      </div>\n      <div class='post' itemprop='articleBody'>\n        <p>Hi everyone,</p>\n<p>I wanted to share a positive experience I have had recently regarding swimming with Pd. Having swum from  an early age, i competed to a high level until I was diagnosed at 47. Ironically it was swimming , or the inability to swim efficiently, which marked the onset of Pd as I found it more difficult to coordinate movement. Ironically this more than anything caused me to feel down whilst other symptoms seemed manageable through drugs. I was lucky to have an excellent team in Bath who after a few false starts have honed my medication ( only 21 pills a day!) after 18 months, so that I am swimming efficiently again. I now take cobeneldopa 5x 3 per day with pramipexole x 3 with additional tabs first thing in the morning and last thing at night! I am also a strong advocate of movement/ exercise to relieve stiff arms / legs! Despite having to stick to pill taking times I have greatly appreciated this development which has made me feel so much better! Has anyone else had such issues with swimming?</p>\n      </div>\n      <meta itemprop='interactionCount' content='UserLikes:0'>\n      <meta itemprop='interactionCount' content='UserComments:1'>\n      <meta itemprop='headline' content='Swimming with Pd'>\n      <hr>\n  </div>\n  <div itemscope itemtype='http://schema.org/DiscussionForumPosting'>\n      <div class='creator'>\n        <span>\n          <a href='/u/RyderCupplayer'><b itemprop='author'>RyderCupplayer</b></a>\n          \n          <time datetime='2018-09-24T06:26:09Z' itemprop='datePublished'>\n            2018-09-24 06:26:09 UTC\n          </time>\n        </span>\n        <span itemprop='position'>#2</span>\n      </div>\n      <div class='post' itemprop='articleBody'>\n        <p>Hi, we’ve just started taking the grandchildren on Saturdays. Whilst it’s great seeing them gain confidence and become more proficient swimmers it’s helping me enormously, as I’ve suffered with badly with back pain, and more recently muscle loss to my shoulders and legs.  I’m sure this is helping my general health and mental posivity. I’m now able to add some light weight repetitions.<br>\nTwo months to my 8th anniversary of this damned disease, which I’m fighting day by day.<br>\nPaul</p>\n      </div>\n      <meta itemprop='interactionCount' content='UserLikes:0'>\n      <meta itemprop='interactionCount' content='UserComments:1'>\n      <meta itemprop='headline' content='Swimming with Pd'>\n      <hr>\n  </div>\n  <div itemscope itemtype='http://schema.org/DiscussionForumPosting'>\n      <div class='creator'>\n        <span>\n          <a href='/u/Sealy69'><b itemprop='author'>Sealy69</b></a>\n          \n          <time datetime='2018-09-24T08:11:55Z' itemprop='datePublished'>\n            2018-09-24 08:11:55 UTC\n          </time>\n        </span>\n        <span itemprop='position'>#3</span>\n      </div>\n      <div class='post' itemprop='articleBody'>\n        <p>Hi Paul - good to hear swimming is helping. The general advice seems to be any exercise is good and as long you feel comfortable then Swimming is great! Enjoy — great doing it with friends family; this really helped when I was down and finding it challenging !</p>\n      </div>\n      <meta itemprop='interactionCount' content='UserLikes:0'>\n      <meta itemprop='interactionCount' content='UserComments:1'>\n      <meta itemprop='headline' content='Swimming with Pd'>\n      <hr>\n  </div>\n  <div itemscope itemtype='http://schema.org/DiscussionForumPosting'>\n      <div class='creator'>\n        <span>\n          <a href='/u/mrs.t'><b itemprop='author'>mrs.t</b></a>\n          \n          <time datetime='2018-09-25T23:43:47Z' itemprop='datePublished'>\n            2018-09-25 23:43:47 UTC\n          </time>\n        </span>\n        <span itemprop='position'>#4</span>\n      </div>\n      <div class='post' itemprop='articleBody'>\n        <p>yep, have always enjoyed swimming. rediscovered it and when I can muster the energy I  ALWAYS feel better afterwards.</p>\n      </div>\n      <meta itemprop='interactionCount' content='UserLikes:0'>\n      <meta itemprop='interactionCount' content='UserComments:0'>\n      <meta itemprop='headline' content='Swimming with Pd'>\n      <hr>\n  </div>\n  <div itemscope itemtype='http://schema.org/DiscussionForumPosting'>\n      <div class='creator'>\n        <span>\n          <a href='/u/Malin'><b itemprop='author'>Malin</b></a>\n          \n          <time datetime='2018-09-28T09:30:06Z' itemprop='datePublished'>\n            2018-09-28 09:30:06 UTC\n          </time>\n        </span>\n        <span itemprop='position'>#5</span>\n      </div>\n      <div class='post' itemprop='articleBody'>\n        <p>Hi, I too have had difficulty with co-ordination whilst swimming.  I used to swim 60 lengths of front crawl every week and found it very frustrating that I couldn’t manage to swim one.  However, on holiday my son and husband have been encouraging me to try breast stroke. So far so good.  I must keep it up.<br>\nMarilyn</p>\n      </div>\n      <meta itemprop='interactionCount' content='UserLikes:0'>\n      <meta itemprop='interactionCount' content='UserComments:3'>\n      <meta itemprop='headline' content='Swimming with Pd'>\n      <hr>\n  </div>\n  <div itemscope itemtype='http://schema.org/DiscussionForumPosting'>\n      <div class='creator'>\n        <span>\n          <a href='/u/Jchilton'><b itemprop='author'>Jchilton</b></a>\n          \n          <time datetime='2018-09-28T15:20:44Z' itemprop='datePublished'>\n            2018-09-28 15:20:44 UTC\n          </time>\n        </span>\n        <span itemprop='position'>#6</span>\n      </div>\n      <div class='post' itemprop='articleBody'>\n        <p>I can honestly say swimming is good for you. I know everyone is different but it is good thereby for most. Even I an off state I find I can’t feel my symptoms when I!<br>\nam in the water</p>\n      </div>\n      <meta itemprop='interactionCount' content='UserLikes:0'>\n      <meta itemprop='interactionCount' content='UserComments:0'>\n      <meta itemprop='headline' content='Swimming with Pd'>\n      <hr>\n  </div>\n  <div itemscope itemtype='http://schema.org/DiscussionForumPosting'>\n      <div class='creator'>\n        <span>\n          <a href='/u/jim_Davies'><b itemprop='author'>jim_Davies</b></a>\n          \n          <time datetime='2018-09-29T19:32:12Z' itemprop='datePublished'>\n            2018-09-29 19:32:12 UTC\n          </time>\n        </span>\n        <span itemprop='position'>#7</span>\n      </div>\n      <div class='post' itemprop='articleBody'>\n        <p>I was diagnosed last year at 52 having been a keen cyclist and runner. I took up swimming to help keep my posture  ‘long’. I go at least 4 times a week and find it an excellent way of of reducing shoulder pain.  It’s almost as good as the meds I’m on - 2.72mg of pramiprexol slow release and 20mg of Amitreptolyn at night.</p>\n      </div>\n      <meta itemprop='interactionCount' content='UserLikes:0'>\n      <meta itemprop='interactionCount' content='UserComments:2'>\n      <meta itemprop='headline' content='Swimming with Pd'>\n      <hr>\n  </div>\n  <div itemscope itemtype='http://schema.org/DiscussionForumPosting'>\n      <div class='creator'>\n        <span>\n          <a href='/u/Jchilton'><b itemprop='author'>Jchilton</b></a>\n          \n          <time datetime='2018-09-30T19:54:45Z' itemprop='datePublished'>\n            2018-09-30 19:54:45 UTC\n          </time>\n        </span>\n        <span itemprop='position'>#8</span>\n      </div>\n      <div class='post' itemprop='articleBody'>\n        <p>Good for you. I can’t swim a few yard’s without getting tired .these days but at least when I’m in the water I feel like like  big weight is lifted of my shoulders</p>\n      </div>\n      <meta itemprop='interactionCount' content='UserLikes:1'>\n      <meta itemprop='interactionCount' content='UserComments:0'>\n      <meta itemprop='headline' content='Swimming with Pd'>\n      <hr>\n  </div>\n  <div itemscope itemtype='http://schema.org/DiscussionForumPosting'>\n      <div class='creator'>\n        <span>\n          <a href='/u/Sealy69'><b itemprop='author'>Sealy69</b></a>\n          \n          <time datetime='2018-10-01T15:57:16Z' itemprop='datePublished'>\n            2018-10-01 15:57:16 UTC\n          </time>\n        </span>\n        <span itemprop='position'>#9</span>\n      </div>\n      <div class='post' itemprop='articleBody'>\n        <p>It’s worth persevering as swimming, or even just being in the water,  can bring about so much well being!</p>\n      </div>\n      <meta itemprop='interactionCount' content='UserLikes:0'>\n      <meta itemprop='interactionCount' content='UserComments:0'>\n      <meta itemprop='headline' content='Swimming with Pd'>\n      <hr>\n  </div>\n  <div itemscope itemtype='http://schema.org/DiscussionForumPosting'>\n      <div class='creator'>\n        <span>\n          <a href='/u/Sealy69'><b itemprop='author'>Sealy69</b></a>\n          \n          <time datetime='2018-10-01T16:02:41Z' itemprop='datePublished'>\n            2018-10-01 16:02:41 UTC\n          </time>\n        </span>\n        <span itemprop='position'>#10</span>\n      </div>\n      <div class='post' itemprop='articleBody'>\n        <p>Hi Jim ; swimming is great as helps recouperation for injuries etc especially when using hot / cold ( sauna / plunge pool) - weight bearing etc</p>\n      </div>\n      <meta itemprop='interactionCount' content='UserLikes:0'>\n      <meta itemprop='interactionCount' content='UserComments:0'>\n      <meta itemprop='headline' content='Swimming with Pd'>\n      <hr>\n  </div>\n  <div itemscope itemtype='http://schema.org/DiscussionForumPosting'>\n      <div class='creator'>\n        <span>\n          <a href='/u/Sealy69'><b itemprop='author'>Sealy69</b></a>\n          \n          <time datetime='2018-10-01T16:12:23Z' itemprop='datePublished'>\n            2018-10-01 16:12:23 UTC\n          </time>\n        </span>\n        <span itemprop='position'>#11</span>\n      </div>\n      <div class='post' itemprop='articleBody'>\n        <p>Malin - I can relate , it was so challenging not being able to do something I’d done easily for 30 years ! It’s worth persevering with different meds as am able to swim almost as good as prior to being diagnosed! Keep strong!</p>\n      </div>\n      <meta itemprop='interactionCount' content='UserLikes:0'>\n      <meta itemprop='interactionCount' content='UserComments:0'>\n      <meta itemprop='headline' content='Swimming with Pd'>\n      <hr>\n  </div>\n\n\n\n\n\n\n    </div>\n    <footer class=\"container\">\n      <nav class='crawler-nav' itemscope itemtype='http://schema.org/SiteNavigationElement'>\n        <a href='/'>Home</a>\n        <a href=\"/categories\">Categories</a>\n        <a href=\"/guidelines\">FAQ/Guidelines</a>\n        <a href=\"/tos\">Terms of Service</a>\n        <a href=\"/privacy\">Privacy Policy</a>\n      </nav>\n      <p class='powered-by-link'>Powered by <a href=\"https://www.discourse.org\">Discourse</a>, best viewed with JavaScript enabled</p>\n    </footer>\n    \n  </body>\n  \n</html>\n",
  "url": "https://forum.parkinsons.org.uk/t/swimming-with-pd/15806"
}