{
  "contentId": "aaf3aa70-8869-11e9-8f96-97f71b5221d6",
  "html": "<!DOCTYPE html>\n<html lang=\"en\">\n  <head>\n    <meta charset=\"utf-8\">\n    <title>London Working Age Parkinson&#39;s Meet-up - News, events and taking part - Parkinson&#39;s UK Forum</title>\n    <meta name=\"description\" content=\"Hello everyone! \nThe next London Working Age Parkinson’s Meet-up is this coming Wednesday, 27th June and we’d love to see you there! \nFull details below, as is the date for July. \nHope to see  you on Wednesday! \nAndy \nP.&amp;hellip;\">\n    <meta name=\"author\" content=\"\">\n<meta name=\"generator\" content=\"Discourse 2.2.5 - https://github.com/discourse/discourse version c294ff3609f988dcafb742e91606d60ca13b794d\">\n<link rel=\"icon\" type=\"image/png\" href=\"https://forum.parkinsons.org.uk/uploads/db7928/original/2X/3/311fc84f89f49f38601a2f16b295b6f03d3ce5dd.jpg\">\n<link rel=\"apple-touch-icon\" type=\"image/png\" href=\"https://forum.parkinsons.org.uk/uploads/db7928/original/2X/3/311fc84f89f49f38601a2f16b295b6f03d3ce5dd.jpg\">\n<meta name=\"theme-color\" content=\"#ffffff\">\n<meta name=\"viewport\" content=\"width=device-width, minimum-scale=1.0, maximum-scale=1.0, user-scalable=yes\">\n<link rel=\"canonical\" href=\"https://forum.parkinsons.org.uk/t/london-working-age-parkinsons-meet-up/14233\" />\n<script type=\"application/ld+json\">{\"@context\":\"http://schema.org\",\"@type\":\"WebSite\",\"url\":\"https://forum.parkinsons.org.uk\",\"potentialAction\":{\"@type\":\"SearchAction\",\"target\":\"https://forum.parkinsons.org.uk/search?q={search_term_string}\",\"query-input\":\"required name=search_term_string\"}}</script>\n<link rel=\"search\" type=\"application/opensearchdescription+xml\" href=\"https://forum.parkinsons.org.uk/opensearch.xml\" title=\"Parkinson&#39;s UK Forum Search\">\n\n      <link href=\"/stylesheets/desktop_f99246ae801b083d3e4cca979d0dade8615b39ac.css?__ws=forum.parkinsons.org.uk\" media=\"all\" rel=\"stylesheet\" data-target=\"desktop\" data-theme-id=\"12\"/>\n      <link href=\"/stylesheets/desktop_theme_12_5d27531cf43f9df0c03a6a6ec3109dd05f9dfc49.css?__ws=forum.parkinsons.org.uk\" media=\"all\" rel=\"stylesheet\" data-target=\"desktop_theme\" data-theme-id=\"12\"/>\n    <link href=\"https://fonts.googleapis.com/css?family=Open+Sans\" rel=\"stylesheet\">\n\n    <meta id=\"data-ga-universal-analytics\" data-tracking-code=\"UA-4855628-1\" data-json=\"{&quot;cookieDomain&quot;:&quot;auto&quot;}\" data-auto-link-domains=\"\">\n\n<link rel='preload' href='/assets/google-universal-analytics-f35b4da49411e6f5559073523aab983da483976a3954c79c756f8579f6fbd6ef.js' as='script'/>\n<script src='/assets/google-universal-analytics-f35b4da49411e6f5559073523aab983da483976a3954c79c756f8579f6fbd6ef.js'></script>\n\n      <link rel=\"alternate\" type=\"application/rss+xml\" title=\"RSS feed of &#39;London Working Age Parkinson&#39;s Meet-up&#39;\" href=\"https://forum.parkinsons.org.uk/t/london-working-age-parkinsons-meet-up/14233.rss\" />\n  <meta property=\"og:site_name\" content=\"Parkinson&#39;s UK Forum\" />\n<meta name=\"twitter:card\" content=\"summary\" />\n<meta name=\"twitter:image\" content=\"https://forum.parkinsons.org.uk/uploads/db7928/original/2X/3/311fc84f89f49f38601a2f16b295b6f03d3ce5dd.jpg\" />\n<meta property=\"og:image\" content=\"https://forum.parkinsons.org.uk/uploads/db7928/original/2X/3/311fc84f89f49f38601a2f16b295b6f03d3ce5dd.jpg\" />\n<meta property=\"og:url\" content=\"https://forum.parkinsons.org.uk/t/london-working-age-parkinsons-meet-up/14233\" />\n<meta name=\"twitter:url\" content=\"https://forum.parkinsons.org.uk/t/london-working-age-parkinsons-meet-up/14233\" />\n<meta property=\"og:title\" content=\"London Working Age Parkinson&#39;s Meet-up\" />\n<meta name=\"twitter:title\" content=\"London Working Age Parkinson&#39;s Meet-up\" />\n<meta property=\"og:description\" content=\"Hello everyone!  The next London Working Age Parkinson’s Meet-up is this coming Wednesday, 27th June and we’d love to see you there!  Full details below, as is the date for July.  Hope to see  you on Wednesday!  Andy  P.S. Should you wish to be put on the mailing list to receive details of future Meet-ups, please email me at agwclark@yahoo.com  Forthcoming Meet-ups:    Wednesday 27th June    Tuesday 24th July    London Working Age Parkinson’s Meet-ups:  From: 6.00pm  At: Roundhouse Bar &amp; Café, C...\" />\n<meta name=\"twitter:description\" content=\"Hello everyone!  The next London Working Age Parkinson’s Meet-up is this coming Wednesday, 27th June and we’d love to see you there!  Full details below, as is the date for July.  Hope to see  you on Wednesday!  Andy  P.S. Should you wish to be put on the mailing list to receive details of future Meet-ups, please email me at agwclark@yahoo.com  Forthcoming Meet-ups:    Wednesday 27th June    Tuesday 24th July    London Working Age Parkinson’s Meet-ups:  From: 6.00pm  At: Roundhouse Bar &amp; Café, C...\" />\n<meta property=\"article:published_time\" content=\"2018-06-25T10:43:49+00:00\" />\n<meta property=\"og:ignore_canonical\" content=\"true\" />\n\n\n\n    \n  </head>\n  <body class=\"crawler\">\n    <header role=\"banner\">\n    <div class=\"region region-header\">\n        <div class=\"region-header-wrapper\">\n            <div id=\"block-parkinsons-d8-branding\" class=\"block block-system block-system-branding-block\">\n                <a href=\"/\" title=\"Home\" rel=\"home\" class=\"site-logo\">\n                    <img src=\"https://forum.parkinsons.org.uk/uploads/db7928/original/2X/8/862bb7d172e7d127e7f3e147ec43594aa62ac945.png\" alt=\"Parkinson's UK. Change Attitudes. Find a cure. Join us.\">\n                </a>\n            </div>\n            <div id=\"block-helpline\" class=\"block block-block-content block-block-content871cd5af-b938-4947-9dc0-d5c211d08fe3 style-phone\">\n                <div class=\"field field--name-field-link field--type-link field--label-hidden field__item\"><a href=\"tel:+448088000303\">Helpline 0808 800 0303</a></div>\n            </div>\n            <div id=\"block-shop\" class=\"block block-block-content block-block-content6fba5ae5-7797-49cd-8367-f321d8111cd6 style-regular\">\n                <div class=\"field field--name-field-link field--type-link field--label-hidden field__item\"><a href=\"https://shop.parkinsons.org.uk\">Shop</a></div>\n            </div>\n        </div>\n    </div>\n</header>\n\n\n<script src=\"/theme-javascripts/b7e9763fcb584fc8265c56a9f557cd6d2e1e8ed8.js?__ws=forum.parkinsons.org.uk\"></script>\n    <header>\n      <a href=\"/\">\n          <img src=\"https://forum.parkinsons.org.uk/uploads/db7928/original/2X/8/862bb7d172e7d127e7f3e147ec43594aa62ac945.png\" alt=\"Parkinson&#39;s UK Forum\" id=\"site-logo\" style=\"max-width: 150px;\">\n      </a>\n    </header>\n    <div id=\"main-outlet\" class=\"wrap\">\n      <h1>\n  <a href=\"/t/london-working-age-parkinsons-meet-up/14233\">London Working Age Parkinson&#39;s Meet-up</a>\n</h1>\n\n<div id='breadcrumbs'>\n    <div id=\"breadcrumb-0\" itemscope itemtype=\"http://data-vocabulary.org/Breadcrumb\"\n        itemref=\"breadcrumb-1\"\n      >\n      <a href=\"/c/get-involved\" itemprop=\"url\">\n        <span itemprop=\"title\">Get involved</span>\n      </a>\n    </div>\n    <div id=\"breadcrumb-1\" itemscope itemtype=\"http://data-vocabulary.org/Breadcrumb\"\n>\n      <a href=\"/c/get-involved/news-events-and-taking-part\" itemprop=\"url\">\n        <span itemprop=\"title\">News, events and taking part</span>\n      </a>\n    </div>\n</div>\n\n\n\n\n\n<hr>\n\n\n  <div itemscope itemtype='http://schema.org/DiscussionForumPosting'>\n      <div class='creator'>\n        <span>\n          <a href='/u/agwclark'><b itemprop='author'>agwclark</b></a>\n          \n          <time datetime='2018-06-25T10:43:49Z' itemprop='datePublished'>\n            2018-06-25 10:43:49 UTC\n          </time>\n        </span>\n        <span itemprop='position'>#1</span>\n      </div>\n      <div class='post' itemprop='articleBody'>\n        <p>Hello everyone!</p>\n<p>The next London Working Age Parkinson’s Meet-up is this coming Wednesday, 27th June and we’d love to see you there!</p>\n<p>Full details below, as is the date for July.</p>\n<p>Hope to see  you on Wednesday!</p>\n<p>Andy</p>\n<p>P.S. Should you wish to be put on the mailing list to receive details of future Meet-ups, please email me at <a href=\"/cdn-cgi/l/email-protection#82e3e5f5e1eee3f0e9c2fbe3eaededace1edef\"><span class=\"__cf_email__\" data-cfemail=\"e6878191858a87948da69f878e8989c885898b\">[email&#160;protected]</span></a></p>\n<p><strong>Forthcoming Meet-ups:</strong></p>\n<ul>\n<li>\n<p>Wednesday 27th June</p>\n</li>\n<li>\n<p>Tuesday 24th July</p>\n</li>\n</ul>\n<p><strong>London Working Age Parkinson’s Meet-ups:</strong></p>\n<p>From: 6.00pm</p>\n<p>At: Roundhouse Bar &amp; Café, Chalk Farm Road, NW1 8EH</p>\n<p>(opposite Chalk Farm tube station)</p>\n<p>Snacks will be provided.</p>\n<p>Carers welcome. As are Parkinson’s Nurses, Local Advisors and the like.</p>\n<p>Limited parking spaces are available. If you need one, please contact me and I will arrange.</p>\n      </div>\n      <meta itemprop='interactionCount' content='UserLikes:0'>\n      <meta itemprop='interactionCount' content='UserComments:0'>\n      <meta itemprop='headline' content='London Working Age Parkinson&#39;s Meet-up'>\n      <hr>\n  </div>\n\n\n\n\n\n\n    </div>\n    <footer class=\"container\">\n      <nav class='crawler-nav' itemscope itemtype='http://schema.org/SiteNavigationElement'>\n        <a href='/'>Home</a>\n        <a href=\"/categories\">Categories</a>\n        <a href=\"/guidelines\">FAQ/Guidelines</a>\n        <a href=\"/tos\">Terms of Service</a>\n        <a href=\"/privacy\">Privacy Policy</a>\n      </nav>\n      <p class='powered-by-link'>Powered by <a href=\"https://www.discourse.org\">Discourse</a>, best viewed with JavaScript enabled</p>\n    </footer>\n    \n  <script data-cfasync=\"false\" src=\"/cdn-cgi/scripts/5c5dd728/cloudflare-static/email-decode.min.js\"></script></body>\n  \n</html>\n",
  "url": "https://forum.parkinsons.org.uk/t/london-working-age-parkinsons-meet-up/14233"
}