{
  "contentId": "5d72a990-8869-11e9-8f96-97f71b5221d6",
  "html": "<!DOCTYPE html>\n<html lang=\"en\">\n  <head>\n    <meta charset=\"utf-8\">\n    <title>Family member in denile of REM - Introductions and personal stories - Parkinson&#39;s UK Forum</title>\n    <meta name=\"description\" content=\"HI I tried to write about this problem a few days ago, went to post it and all my work went some wear else, even though I had saved it. \nAny way I was diagnosed with PD 2010 last year my brother who is 7 years older was &amp;hellip;\">\n    <meta name=\"author\" content=\"\">\n<meta name=\"generator\" content=\"Discourse 2.2.5 - https://github.com/discourse/discourse version c294ff3609f988dcafb742e91606d60ca13b794d\">\n<link rel=\"icon\" type=\"image/png\" href=\"https://forum.parkinsons.org.uk/uploads/db7928/original/2X/3/311fc84f89f49f38601a2f16b295b6f03d3ce5dd.jpg\">\n<link rel=\"apple-touch-icon\" type=\"image/png\" href=\"https://forum.parkinsons.org.uk/uploads/db7928/original/2X/3/311fc84f89f49f38601a2f16b295b6f03d3ce5dd.jpg\">\n<meta name=\"theme-color\" content=\"#ffffff\">\n<meta name=\"viewport\" content=\"width=device-width, minimum-scale=1.0, maximum-scale=1.0, user-scalable=yes\">\n<link rel=\"canonical\" href=\"https://forum.parkinsons.org.uk/t/family-member-in-denile-of-rem/17995\" />\n<script type=\"application/ld+json\">{\"@context\":\"http://schema.org\",\"@type\":\"WebSite\",\"url\":\"https://forum.parkinsons.org.uk\",\"potentialAction\":{\"@type\":\"SearchAction\",\"target\":\"https://forum.parkinsons.org.uk/search?q={search_term_string}\",\"query-input\":\"required name=search_term_string\"}}</script>\n<link rel=\"search\" type=\"application/opensearchdescription+xml\" href=\"https://forum.parkinsons.org.uk/opensearch.xml\" title=\"Parkinson&#39;s UK Forum Search\">\n\n      <link href=\"/stylesheets/desktop_f99246ae801b083d3e4cca979d0dade8615b39ac.css?__ws=forum.parkinsons.org.uk\" media=\"all\" rel=\"stylesheet\" data-target=\"desktop\" data-theme-id=\"12\"/>\n      <link href=\"/stylesheets/desktop_theme_12_5d27531cf43f9df0c03a6a6ec3109dd05f9dfc49.css?__ws=forum.parkinsons.org.uk\" media=\"all\" rel=\"stylesheet\" data-target=\"desktop_theme\" data-theme-id=\"12\"/>\n    <link href=\"https://fonts.googleapis.com/css?family=Open+Sans\" rel=\"stylesheet\">\n\n    <meta id=\"data-ga-universal-analytics\" data-tracking-code=\"UA-4855628-1\" data-json=\"{&quot;cookieDomain&quot;:&quot;auto&quot;}\" data-auto-link-domains=\"\">\n\n<link rel='preload' href='/assets/google-universal-analytics-f35b4da49411e6f5559073523aab983da483976a3954c79c756f8579f6fbd6ef.js' as='script'/>\n<script src='/assets/google-universal-analytics-f35b4da49411e6f5559073523aab983da483976a3954c79c756f8579f6fbd6ef.js'></script>\n\n      <link rel=\"alternate\" type=\"application/rss+xml\" title=\"RSS feed of &#39;Family member in denile of REM&#39;\" href=\"https://forum.parkinsons.org.uk/t/family-member-in-denile-of-rem/17995.rss\" />\n  <meta property=\"og:site_name\" content=\"Parkinson&#39;s UK Forum\" />\n<meta name=\"twitter:card\" content=\"summary\" />\n<meta name=\"twitter:image\" content=\"https://forum.parkinsons.org.uk/uploads/db7928/original/2X/3/311fc84f89f49f38601a2f16b295b6f03d3ce5dd.jpg\" />\n<meta property=\"og:image\" content=\"https://forum.parkinsons.org.uk/uploads/db7928/original/2X/3/311fc84f89f49f38601a2f16b295b6f03d3ce5dd.jpg\" />\n<meta property=\"og:url\" content=\"https://forum.parkinsons.org.uk/t/family-member-in-denile-of-rem/17995\" />\n<meta name=\"twitter:url\" content=\"https://forum.parkinsons.org.uk/t/family-member-in-denile-of-rem/17995\" />\n<meta property=\"og:title\" content=\"Family member in denile of REM\" />\n<meta name=\"twitter:title\" content=\"Family member in denile of REM\" />\n<meta property=\"og:description\" content=\"HI I tried to write about this problem a few days ago, went to post it and all my work went some wear else, even though I had saved it.  Any way I was diagnosed with PD 2010 last year my brother who is 7 years older was also diagnosed with PD, now as I am a member of Parkinson’s UK I had collected all the mags and research mags, so I sent these over to my brother to look at.  Phoned a few weeks later&quot; &quot; Hi D how are you&quot;   well I can’t stop these tremor’s said D &quot;have you got a PD Nurse “not sur...\" />\n<meta name=\"twitter:description\" content=\"HI I tried to write about this problem a few days ago, went to post it and all my work went some wear else, even though I had saved it.  Any way I was diagnosed with PD 2010 last year my brother who is 7 years older was also diagnosed with PD, now as I am a member of Parkinson’s UK I had collected all the mags and research mags, so I sent these over to my brother to look at.  Phoned a few weeks later&quot; &quot; Hi D how are you&quot;   well I can’t stop these tremor’s said D &quot;have you got a PD Nurse “not sur...\" />\n<meta property=\"article:published_time\" content=\"2019-02-14T07:34:44+00:00\" />\n<meta property=\"og:ignore_canonical\" content=\"true\" />\n\n\n\n    \n  </head>\n  <body class=\"crawler\">\n    <header role=\"banner\">\n    <div class=\"region region-header\">\n        <div class=\"region-header-wrapper\">\n            <div id=\"block-parkinsons-d8-branding\" class=\"block block-system block-system-branding-block\">\n                <a href=\"/\" title=\"Home\" rel=\"home\" class=\"site-logo\">\n                    <img src=\"https://forum.parkinsons.org.uk/uploads/db7928/original/2X/8/862bb7d172e7d127e7f3e147ec43594aa62ac945.png\" alt=\"Parkinson's UK. Change Attitudes. Find a cure. Join us.\">\n                </a>\n            </div>\n            <div id=\"block-helpline\" class=\"block block-block-content block-block-content871cd5af-b938-4947-9dc0-d5c211d08fe3 style-phone\">\n                <div class=\"field field--name-field-link field--type-link field--label-hidden field__item\"><a href=\"tel:+448088000303\">Helpline 0808 800 0303</a></div>\n            </div>\n            <div id=\"block-shop\" class=\"block block-block-content block-block-content6fba5ae5-7797-49cd-8367-f321d8111cd6 style-regular\">\n                <div class=\"field field--name-field-link field--type-link field--label-hidden field__item\"><a href=\"https://shop.parkinsons.org.uk\">Shop</a></div>\n            </div>\n        </div>\n    </div>\n</header>\n\n\n<script src=\"/theme-javascripts/b7e9763fcb584fc8265c56a9f557cd6d2e1e8ed8.js?__ws=forum.parkinsons.org.uk\"></script>\n    <header>\n      <a href=\"/\">\n          <img src=\"https://forum.parkinsons.org.uk/uploads/db7928/original/2X/8/862bb7d172e7d127e7f3e147ec43594aa62ac945.png\" alt=\"Parkinson&#39;s UK Forum\" id=\"site-logo\" style=\"max-width: 150px;\">\n      </a>\n    </header>\n    <div id=\"main-outlet\" class=\"wrap\">\n      <h1>\n  <a href=\"/t/family-member-in-denile-of-rem/17995\">Family member in denile of REM</a>\n</h1>\n\n<div id='breadcrumbs'>\n    <div id=\"breadcrumb-0\" itemscope itemtype=\"http://data-vocabulary.org/Breadcrumb\"\n        itemref=\"breadcrumb-1\"\n      >\n      <a href=\"/c/about-me\" itemprop=\"url\">\n        <span itemprop=\"title\">About me</span>\n      </a>\n    </div>\n    <div id=\"breadcrumb-1\" itemscope itemtype=\"http://data-vocabulary.org/Breadcrumb\"\n>\n      <a href=\"/c/about-me/introductions-and-personal-stories\" itemprop=\"url\">\n        <span itemprop=\"title\">Introductions and personal stories</span>\n      </a>\n    </div>\n</div>\n\n\n\n\n\n<hr>\n\n\n  <div itemscope itemtype='http://schema.org/DiscussionForumPosting'>\n      <div class='creator'>\n        <span>\n          <a href='/u/mary1947'><b itemprop='author'>mary1947</b></a>\n          \n          <time datetime='2019-02-14T07:34:44Z' itemprop='datePublished'>\n            2019-02-14 07:34:44 UTC\n          </time>\n        </span>\n        <span itemprop='position'>#1</span>\n      </div>\n      <div class='post' itemprop='articleBody'>\n        <p>HI I tried to write about this problem a few days ago, went to post it and all my work went some wear else, even though I had saved it.<br>\nAny way I was diagnosed with PD 2010 last year my brother who is 7 years older was also diagnosed with PD, now as I am a member of Parkinson’s UK I had collected all the mags and research mags, so I sent these over to my brother to look at.  Phoned a few weeks later\" \" Hi D how are you\"   well I can’t stop these tremor’s said D \"have you got a PD Nurse “not sure what one of those is” I explained yet again more about PD. Now I also explained to his wife some of the conditition’s but she did not want to know, they live in Lincolnshire so I’m sure that he would get good care from “Pilgrims” hospital.</p>\n<p>The other day I phoned “how are you D”  jumped out of bed the other night cut my head and shoulder I 'm sure that I was chasing this bloke. Don’t say any more you have REM  I explained what it was told D to go and see his doctor straight away. “Nah its a one off said D” NO! NO! its not said me. but to cut a long story short, my brother is in denial also his wife is in denial because she seems as though she doe’s not want to know. I no it’s cruel but I know and you no REM will not go away with out meds help. I can’t do any more for D till he accepts that he has Parkonson’s and REM.</p>\n      </div>\n      <meta itemprop='interactionCount' content='UserLikes:0'>\n      <meta itemprop='interactionCount' content='UserComments:0'>\n      <meta itemprop='headline' content='Family member in denile of REM'>\n      <hr>\n  </div>\n  <div itemscope itemtype='http://schema.org/DiscussionForumPosting'>\n      <div class='creator'>\n        <span>\n          <a href='/u/Omahatom'><b itemprop='author'>Omahatom</b></a>\n          \n          <time datetime='2019-02-14T12:07:44Z' itemprop='datePublished'>\n            2019-02-14 12:07:44 UTC\n          </time>\n        </span>\n        <span itemprop='position'>#2</span>\n      </div>\n      <div class='post' itemprop='articleBody'>\n        <p>Hello mary1947 I have RSD.  Mine will over power the medicine to stop it from happening.  So I guess I can give my advise.<br>\nI would focus on your brothers wife about the facts about the disorder.  IMO  speak to his wife in private.<br>\nMy wife an RN in the USA never heard of it. But she was on the receiving end of punches and kicks. She also new I jumped off building and hit the floor allot. Enough said on this part.<br>\nBest advise is to stress the injuries that result from the disorder. I would make it a point to let her know that you can have it many years before one gets PD. (also not all get PD that have it)  With this point mentioned.  Stress many with untreated RSD require ER visits because of head injuries and broken bones (Rem person and Sleep partner) Make the PD low key and don,t bring it up. Say to her it won’t hurt to have it checked. Better than physical injury. Tom</p>\n      </div>\n      <meta itemprop='interactionCount' content='UserLikes:0'>\n      <meta itemprop='interactionCount' content='UserComments:1'>\n      <meta itemprop='headline' content='Family member in denile of REM'>\n      <hr>\n  </div>\n  <div itemscope itemtype='http://schema.org/DiscussionForumPosting'>\n      <div class='creator'>\n        <span>\n          <a href='/u/mary1947'><b itemprop='author'>mary1947</b></a>\n          \n          <time datetime='2019-04-05T02:33:04Z' itemprop='datePublished'>\n            2019-04-05 02:33:04 UTC\n          </time>\n        </span>\n        <span itemprop='position'>#3</span>\n      </div>\n      <div class='post' itemprop='articleBody'>\n        <p>so sorry for the late reply but thanks for the advice it is very difficult when it’s my brothers second wife and she to has health problems. i will try ans speak with her but she doe’s not want to know all i can do is keep trying hopefully before any thing serious happens . Once again thanks.</p>\n      </div>\n      <meta itemprop='interactionCount' content='UserLikes:0'>\n      <meta itemprop='interactionCount' content='UserComments:0'>\n      <meta itemprop='headline' content='Family member in denile of REM'>\n      <hr>\n  </div>\n  <div itemscope itemtype='http://schema.org/DiscussionForumPosting'>\n      <div class='creator'>\n        <span>\n          <a href='/u/Omahatom'><b itemprop='author'>Omahatom</b></a>\n          \n          <time datetime='2019-04-05T10:27:52Z' itemprop='datePublished'>\n            2019-04-05 10:27:52 UTC\n          </time>\n        </span>\n        <span itemprop='position'>#4</span>\n      </div>\n      <div class='post' itemprop='articleBody'>\n        <p>mary1947<br>\nHope you can make some headways with his wife. This week I fought an introder in my REM. I  sleep in a recliner zipped up in a sleeping bag.  I didn’t zip it up.  I was able to get out of the chair and move 3 meters to a lamp broke it and bumped my arm on the corner of a cabinet.  I must have just missed striking my head on the corner. From the looks of my arm.  If it was my temple the outcome could of been much worse.  Send her my post.   My wife is a registered nurse  and she does everything to avoid getting injured or me getting injured.  Tom PWP and P with RSD!</p>\n      </div>\n      <meta itemprop='interactionCount' content='UserLikes:0'>\n      <meta itemprop='interactionCount' content='UserComments:1'>\n      <meta itemprop='headline' content='Family member in denile of REM'>\n      <hr>\n  </div>\n  <div itemscope itemtype='http://schema.org/DiscussionForumPosting'>\n      <div class='creator'>\n        <span>\n          <a href='/u/mary1947'><b itemprop='author'>mary1947</b></a>\n          \n          <time datetime='2019-04-05T20:28:52Z' itemprop='datePublished'>\n            2019-04-05 20:28:52 UTC\n          </time>\n        </span>\n        <span itemprop='position'>#5</span>\n      </div>\n      <div class='post' itemprop='articleBody'>\n        <p>thanks Omahatom have spoke again to my brother and he’s going to speak to his doctor so hopefully every thing will be ok.<br>\nMy husband has REM so i understand what you are going though he doe’s not have PD and he has had REM for about 10 years to took our GPs ages to agree form him to see someone  at the hospital. We changed GPs 3 times 1st one told us to have singe beds 2nd told us to sleep in separated room 3rd sent hubby to hospital. So now with meds its under control.</p>\n      </div>\n      <meta itemprop='interactionCount' content='UserLikes:0'>\n      <meta itemprop='interactionCount' content='UserComments:0'>\n      <meta itemprop='headline' content='Family member in denile of REM'>\n      <hr>\n  </div>\n\n\n\n\n\n\n    </div>\n    <footer class=\"container\">\n      <nav class='crawler-nav' itemscope itemtype='http://schema.org/SiteNavigationElement'>\n        <a href='/'>Home</a>\n        <a href=\"/categories\">Categories</a>\n        <a href=\"/guidelines\">FAQ/Guidelines</a>\n        <a href=\"/tos\">Terms of Service</a>\n        <a href=\"/privacy\">Privacy Policy</a>\n      </nav>\n      <p class='powered-by-link'>Powered by <a href=\"https://www.discourse.org\">Discourse</a>, best viewed with JavaScript enabled</p>\n    </footer>\n    \n  </body>\n  \n</html>\n",
  "url": "https://forum.parkinsons.org.uk/t/family-member-in-denile-of-rem/17995"
}