{
  "contentId": "944e7e30-8864-11e9-8f96-97f71b5221d6",
  "html": "<!DOCTYPE html>\n<html lang=\"en\">\n  <head>\n    <meta charset=\"utf-8\">\n    <title>Help us raise awareness of Parkinson’s and Parkinson’s UK - News, events and taking part - Parkinson&#39;s UK Forum</title>\n    <meta name=\"description\" content=\"Help us raise awareness of Parkinson’s and Parkinson’s UK \nParkinson’s UK will be launching a campaign in 2019 to raise awareness and increase understanding of Parkinson’s and the work that we do. We’re currently develop&amp;hellip;\">\n    <meta name=\"author\" content=\"\">\n<meta name=\"generator\" content=\"Discourse 2.2.5 - https://github.com/discourse/discourse version c294ff3609f988dcafb742e91606d60ca13b794d\">\n<link rel=\"icon\" type=\"image/png\" href=\"https://forum.parkinsons.org.uk/uploads/db7928/original/2X/3/311fc84f89f49f38601a2f16b295b6f03d3ce5dd.jpg\">\n<link rel=\"apple-touch-icon\" type=\"image/png\" href=\"https://forum.parkinsons.org.uk/uploads/db7928/original/2X/3/311fc84f89f49f38601a2f16b295b6f03d3ce5dd.jpg\">\n<meta name=\"theme-color\" content=\"#ffffff\">\n<meta name=\"viewport\" content=\"width=device-width, minimum-scale=1.0, maximum-scale=1.0, user-scalable=yes\">\n<link rel=\"canonical\" href=\"https://forum.parkinsons.org.uk/t/help-us-raise-awareness-of-parkinson-s-and-parkinson-s-uk/16436\" />\n<script type=\"application/ld+json\">{\"@context\":\"http://schema.org\",\"@type\":\"WebSite\",\"url\":\"https://forum.parkinsons.org.uk\",\"potentialAction\":{\"@type\":\"SearchAction\",\"target\":\"https://forum.parkinsons.org.uk/search?q={search_term_string}\",\"query-input\":\"required name=search_term_string\"}}</script>\n<link rel=\"search\" type=\"application/opensearchdescription+xml\" href=\"https://forum.parkinsons.org.uk/opensearch.xml\" title=\"Parkinson&#39;s UK Forum Search\">\n\n      <link href=\"/stylesheets/desktop_f99246ae801b083d3e4cca979d0dade8615b39ac.css?__ws=forum.parkinsons.org.uk\" media=\"all\" rel=\"stylesheet\" data-target=\"desktop\" data-theme-id=\"12\"/>\n      <link href=\"/stylesheets/desktop_theme_12_5d27531cf43f9df0c03a6a6ec3109dd05f9dfc49.css?__ws=forum.parkinsons.org.uk\" media=\"all\" rel=\"stylesheet\" data-target=\"desktop_theme\" data-theme-id=\"12\"/>\n    <link href=\"https://fonts.googleapis.com/css?family=Open+Sans\" rel=\"stylesheet\">\n\n    <meta id=\"data-ga-universal-analytics\" data-tracking-code=\"UA-4855628-1\" data-json=\"{&quot;cookieDomain&quot;:&quot;auto&quot;}\" data-auto-link-domains=\"\">\n\n<link rel='preload' href='/assets/google-universal-analytics-f35b4da49411e6f5559073523aab983da483976a3954c79c756f8579f6fbd6ef.js' as='script'/>\n<script src='/assets/google-universal-analytics-f35b4da49411e6f5559073523aab983da483976a3954c79c756f8579f6fbd6ef.js'></script>\n\n      <link rel=\"alternate\" type=\"application/rss+xml\" title=\"RSS feed of &#39;Help us raise awareness of Parkinson’s and Parkinson’s UK&#39;\" href=\"https://forum.parkinsons.org.uk/t/help-us-raise-awareness-of-parkinson-s-and-parkinson-s-uk/16436.rss\" />\n  <meta property=\"og:site_name\" content=\"Parkinson&#39;s UK Forum\" />\n<meta name=\"twitter:card\" content=\"summary\" />\n<meta name=\"twitter:image\" content=\"https://forum.parkinsons.org.uk/uploads/db7928/original/2X/3/311fc84f89f49f38601a2f16b295b6f03d3ce5dd.jpg\" />\n<meta property=\"og:image\" content=\"https://forum.parkinsons.org.uk/uploads/db7928/original/2X/3/311fc84f89f49f38601a2f16b295b6f03d3ce5dd.jpg\" />\n<meta property=\"og:url\" content=\"https://forum.parkinsons.org.uk/t/help-us-raise-awareness-of-parkinson-s-and-parkinson-s-uk/16436\" />\n<meta name=\"twitter:url\" content=\"https://forum.parkinsons.org.uk/t/help-us-raise-awareness-of-parkinson-s-and-parkinson-s-uk/16436\" />\n<meta property=\"og:title\" content=\"Help us raise awareness of Parkinson’s and Parkinson’s UK\" />\n<meta name=\"twitter:title\" content=\"Help us raise awareness of Parkinson’s and Parkinson’s UK\" />\n<meta property=\"og:description\" content=\"Help us raise awareness of Parkinson’s and Parkinson’s UK  Parkinson’s UK will be launching a campaign in 2019 to raise awareness and increase understanding of Parkinson’s and the work that we do. We’re currently developing an idea for this campaign and we’re looking for a selection of our forum members to feedback on whether the concept represents Parkinson’s in a way that feels accurate.  If you’d like to take part by sharing your thoughts, please direct message Reah by Friday 16 November.  Wh...\" />\n<meta name=\"twitter:description\" content=\"Help us raise awareness of Parkinson’s and Parkinson’s UK  Parkinson’s UK will be launching a campaign in 2019 to raise awareness and increase understanding of Parkinson’s and the work that we do. We’re currently developing an idea for this campaign and we’re looking for a selection of our forum members to feedback on whether the concept represents Parkinson’s in a way that feels accurate.  If you’d like to take part by sharing your thoughts, please direct message Reah by Friday 16 November.  Wh...\" />\n<meta property=\"article:published_time\" content=\"2018-11-02T17:48:17+00:00\" />\n<meta property=\"og:ignore_canonical\" content=\"true\" />\n\n\n\n    \n  </head>\n  <body class=\"crawler\">\n    <header role=\"banner\">\n    <div class=\"region region-header\">\n        <div class=\"region-header-wrapper\">\n            <div id=\"block-parkinsons-d8-branding\" class=\"block block-system block-system-branding-block\">\n                <a href=\"/\" title=\"Home\" rel=\"home\" class=\"site-logo\">\n                    <img src=\"https://forum.parkinsons.org.uk/uploads/db7928/original/2X/8/862bb7d172e7d127e7f3e147ec43594aa62ac945.png\" alt=\"Parkinson's UK. Change Attitudes. Find a cure. Join us.\">\n                </a>\n            </div>\n            <div id=\"block-helpline\" class=\"block block-block-content block-block-content871cd5af-b938-4947-9dc0-d5c211d08fe3 style-phone\">\n                <div class=\"field field--name-field-link field--type-link field--label-hidden field__item\"><a href=\"tel:+448088000303\">Helpline 0808 800 0303</a></div>\n            </div>\n            <div id=\"block-shop\" class=\"block block-block-content block-block-content6fba5ae5-7797-49cd-8367-f321d8111cd6 style-regular\">\n                <div class=\"field field--name-field-link field--type-link field--label-hidden field__item\"><a href=\"https://shop.parkinsons.org.uk\">Shop</a></div>\n            </div>\n        </div>\n    </div>\n</header>\n\n\n<script src=\"/theme-javascripts/b7e9763fcb584fc8265c56a9f557cd6d2e1e8ed8.js?__ws=forum.parkinsons.org.uk\"></script>\n    <header>\n      <a href=\"/\">\n          <img src=\"https://forum.parkinsons.org.uk/uploads/db7928/original/2X/8/862bb7d172e7d127e7f3e147ec43594aa62ac945.png\" alt=\"Parkinson&#39;s UK Forum\" id=\"site-logo\" style=\"max-width: 150px;\">\n      </a>\n    </header>\n    <div id=\"main-outlet\" class=\"wrap\">\n      <h1>\n  <a href=\"/t/help-us-raise-awareness-of-parkinson-s-and-parkinson-s-uk/16436\">Help us raise awareness of Parkinson’s and Parkinson’s UK</a>\n</h1>\n\n<div id='breadcrumbs'>\n    <div id=\"breadcrumb-0\" itemscope itemtype=\"http://data-vocabulary.org/Breadcrumb\"\n        itemref=\"breadcrumb-1\"\n      >\n      <a href=\"/c/get-involved\" itemprop=\"url\">\n        <span itemprop=\"title\">Get involved</span>\n      </a>\n    </div>\n    <div id=\"breadcrumb-1\" itemscope itemtype=\"http://data-vocabulary.org/Breadcrumb\"\n>\n      <a href=\"/c/get-involved/news-events-and-taking-part\" itemprop=\"url\">\n        <span itemprop=\"title\">News, events and taking part</span>\n      </a>\n    </div>\n</div>\n\n\n\n\n\n<hr>\n\n\n  <div itemscope itemtype='http://schema.org/DiscussionForumPosting'>\n      <div class='creator'>\n        <span>\n          <a href='/u/Reah'><b itemprop='author'>Reah</b></a>\n          \n          <time datetime='2018-11-02T17:48:17Z' itemprop='datePublished'>\n            2018-11-02 17:48:17 UTC\n          </time>\n        </span>\n        <span itemprop='position'>#1</span>\n      </div>\n      <div class='post' itemprop='articleBody'>\n        <p><strong>Help us raise awareness of Parkinson’s and Parkinson’s UK</strong></p>\n<p>Parkinson’s UK will be launching a campaign in 2019 to raise awareness and increase understanding of Parkinson’s and the work that we do. We’re currently developing an idea for this campaign and we’re looking for a selection of our forum members to feedback on whether the concept represents Parkinson’s in a way that feels accurate.</p>\n<p>If you’d like to take part by sharing your thoughts, please direct message Reah by Friday 16 November.</p>\n<p><em><strong>What would we need from you?</strong></em></p>\n<p>We’ll need your email address so that we can send you a full feedback request with the concept and a little more background in late November, most likely on Tuesday 27th. We would like you to share your feedback by Monday 3 December and this should take no longer than 30 minutes.</p>\n      </div>\n      <meta itemprop='interactionCount' content='UserLikes:0'>\n      <meta itemprop='interactionCount' content='UserComments:0'>\n      <meta itemprop='headline' content='Help us raise awareness of Parkinson’s and Parkinson’s UK'>\n      <hr>\n  </div>\n  <div itemscope itemtype='http://schema.org/DiscussionForumPosting'>\n      <div class='creator'>\n        <span>\n          <a href='/u/Reah'><b itemprop='author'>Reah</b></a>\n          \n            made this a banner . It will appear at the top of every page until it is dismissed by the user.\n          <time datetime='2018-11-02T17:48:31Z' itemprop='datePublished'>\n            2018-11-02 17:48:31 UTC\n          </time>\n        </span>\n        <span itemprop='position'>#2</span>\n      </div>\n      <div class='post' itemprop='articleBody'>\n        \n      </div>\n      <meta itemprop='interactionCount' content='UserLikes:0'>\n      <meta itemprop='interactionCount' content='UserComments:0'>\n      <meta itemprop='headline' content='Help us raise awareness of Parkinson’s and Parkinson’s UK'>\n      <hr>\n  </div>\n  <div itemscope itemtype='http://schema.org/DiscussionForumPosting'>\n      <div class='creator'>\n        <span>\n          <a href='/u/Reah'><b itemprop='author'>Reah</b></a>\n          \n            removed this banner . It will no longer appear at the top of every page.\n          <time datetime='2018-11-08T11:57:52Z' itemprop='datePublished'>\n            2018-11-08 11:57:52 UTC\n          </time>\n        </span>\n        <span itemprop='position'>#3</span>\n      </div>\n      <div class='post' itemprop='articleBody'>\n        \n      </div>\n      <meta itemprop='interactionCount' content='UserLikes:0'>\n      <meta itemprop='interactionCount' content='UserComments:0'>\n      <meta itemprop='headline' content='Help us raise awareness of Parkinson’s and Parkinson’s UK'>\n      <hr>\n  </div>\n\n\n\n\n\n\n    </div>\n    <footer class=\"container\">\n      <nav class='crawler-nav' itemscope itemtype='http://schema.org/SiteNavigationElement'>\n        <a href='/'>Home</a>\n        <a href=\"/categories\">Categories</a>\n        <a href=\"/guidelines\">FAQ/Guidelines</a>\n        <a href=\"/tos\">Terms of Service</a>\n        <a href=\"/privacy\">Privacy Policy</a>\n      </nav>\n      <p class='powered-by-link'>Powered by <a href=\"https://www.discourse.org\">Discourse</a>, best viewed with JavaScript enabled</p>\n    </footer>\n    \n  </body>\n  \n</html>\n",
  "url": "https://forum.parkinsons.org.uk/t/help-us-raise-awareness-of-parkinson-s-and-parkinson-s-uk/16436"
}