{
  "contentId": "71364fd0-8865-11e9-8f96-97f71b5221d6",
  "html": "<!DOCTYPE html>\n<html lang=\"en\">\n  <head>\n    <meta charset=\"utf-8\">\n    <title>Meeting this head on - Young Onset Parkinson&#39;s - Parkinson&#39;s UK Forum</title>\n    <meta name=\"description\" content=\"I have recently been diagnosed at the age of 50 with mild symptoms.  At first I was in denial but then I realised that I had to fight this.  I have a 16 year old with CFS who experiences severe symptoms and my Dad has de&amp;hellip;\">\n    <meta name=\"author\" content=\"\">\n<meta name=\"generator\" content=\"Discourse 2.2.5 - https://github.com/discourse/discourse version c294ff3609f988dcafb742e91606d60ca13b794d\">\n<link rel=\"icon\" type=\"image/png\" href=\"https://forum.parkinsons.org.uk/uploads/db7928/original/2X/3/311fc84f89f49f38601a2f16b295b6f03d3ce5dd.jpg\">\n<link rel=\"apple-touch-icon\" type=\"image/png\" href=\"https://forum.parkinsons.org.uk/uploads/db7928/original/2X/3/311fc84f89f49f38601a2f16b295b6f03d3ce5dd.jpg\">\n<meta name=\"theme-color\" content=\"#ffffff\">\n<meta name=\"viewport\" content=\"width=device-width, minimum-scale=1.0, maximum-scale=1.0, user-scalable=yes\">\n<link rel=\"canonical\" href=\"https://forum.parkinsons.org.uk/t/meeting-this-head-on/18009\" />\n<script type=\"application/ld+json\">{\"@context\":\"http://schema.org\",\"@type\":\"WebSite\",\"url\":\"https://forum.parkinsons.org.uk\",\"potentialAction\":{\"@type\":\"SearchAction\",\"target\":\"https://forum.parkinsons.org.uk/search?q={search_term_string}\",\"query-input\":\"required name=search_term_string\"}}</script>\n<link rel=\"search\" type=\"application/opensearchdescription+xml\" href=\"https://forum.parkinsons.org.uk/opensearch.xml\" title=\"Parkinson&#39;s UK Forum Search\">\n\n      <link href=\"/stylesheets/desktop_f99246ae801b083d3e4cca979d0dade8615b39ac.css?__ws=forum.parkinsons.org.uk\" media=\"all\" rel=\"stylesheet\" data-target=\"desktop\" data-theme-id=\"12\"/>\n      <link href=\"/stylesheets/desktop_theme_12_5d27531cf43f9df0c03a6a6ec3109dd05f9dfc49.css?__ws=forum.parkinsons.org.uk\" media=\"all\" rel=\"stylesheet\" data-target=\"desktop_theme\" data-theme-id=\"12\"/>\n    <link href=\"https://fonts.googleapis.com/css?family=Open+Sans\" rel=\"stylesheet\">\n\n    <meta id=\"data-ga-universal-analytics\" data-tracking-code=\"UA-4855628-1\" data-json=\"{&quot;cookieDomain&quot;:&quot;auto&quot;}\" data-auto-link-domains=\"\">\n\n<link rel='preload' href='/assets/google-universal-analytics-f35b4da49411e6f5559073523aab983da483976a3954c79c756f8579f6fbd6ef.js' as='script'/>\n<script src='/assets/google-universal-analytics-f35b4da49411e6f5559073523aab983da483976a3954c79c756f8579f6fbd6ef.js'></script>\n\n      <link rel=\"alternate\" type=\"application/rss+xml\" title=\"RSS feed of &#39;Meeting this head on&#39;\" href=\"https://forum.parkinsons.org.uk/t/meeting-this-head-on/18009.rss\" />\n  <meta property=\"og:site_name\" content=\"Parkinson&#39;s UK Forum\" />\n<meta name=\"twitter:card\" content=\"summary\" />\n<meta name=\"twitter:image\" content=\"https://forum.parkinsons.org.uk/uploads/db7928/original/2X/3/311fc84f89f49f38601a2f16b295b6f03d3ce5dd.jpg\" />\n<meta property=\"og:image\" content=\"https://forum.parkinsons.org.uk/uploads/db7928/original/2X/3/311fc84f89f49f38601a2f16b295b6f03d3ce5dd.jpg\" />\n<meta property=\"og:url\" content=\"https://forum.parkinsons.org.uk/t/meeting-this-head-on/18009\" />\n<meta name=\"twitter:url\" content=\"https://forum.parkinsons.org.uk/t/meeting-this-head-on/18009\" />\n<meta property=\"og:title\" content=\"Meeting this head on\" />\n<meta name=\"twitter:title\" content=\"Meeting this head on\" />\n<meta property=\"og:description\" content=\"I have recently been diagnosed at the age of 50 with mild symptoms.  At first I was in denial but then I realised that I had to fight this.  I have a 16 year old with CFS who experiences severe symptoms and my Dad has deteriorating Macular Degeneration - they both rely on me.  So, I have started the Couch to 5k challenge, started swimming lessons to improve my stamina in the pool, attend Pilates and yoga classes.  I have taken the advice of others on this forum - I have Parkinson’s but it does n...\" />\n<meta name=\"twitter:description\" content=\"I have recently been diagnosed at the age of 50 with mild symptoms.  At first I was in denial but then I realised that I had to fight this.  I have a 16 year old with CFS who experiences severe symptoms and my Dad has deteriorating Macular Degeneration - they both rely on me.  So, I have started the Couch to 5k challenge, started swimming lessons to improve my stamina in the pool, attend Pilates and yoga classes.  I have taken the advice of others on this forum - I have Parkinson’s but it does n...\" />\n<meta property=\"article:published_time\" content=\"2019-02-15T12:17:34+00:00\" />\n<meta property=\"og:ignore_canonical\" content=\"true\" />\n\n\n\n    \n  </head>\n  <body class=\"crawler\">\n    <header role=\"banner\">\n    <div class=\"region region-header\">\n        <div class=\"region-header-wrapper\">\n            <div id=\"block-parkinsons-d8-branding\" class=\"block block-system block-system-branding-block\">\n                <a href=\"/\" title=\"Home\" rel=\"home\" class=\"site-logo\">\n                    <img src=\"https://forum.parkinsons.org.uk/uploads/db7928/original/2X/8/862bb7d172e7d127e7f3e147ec43594aa62ac945.png\" alt=\"Parkinson's UK. Change Attitudes. Find a cure. Join us.\">\n                </a>\n            </div>\n            <div id=\"block-helpline\" class=\"block block-block-content block-block-content871cd5af-b938-4947-9dc0-d5c211d08fe3 style-phone\">\n                <div class=\"field field--name-field-link field--type-link field--label-hidden field__item\"><a href=\"tel:+448088000303\">Helpline 0808 800 0303</a></div>\n            </div>\n            <div id=\"block-shop\" class=\"block block-block-content block-block-content6fba5ae5-7797-49cd-8367-f321d8111cd6 style-regular\">\n                <div class=\"field field--name-field-link field--type-link field--label-hidden field__item\"><a href=\"https://shop.parkinsons.org.uk\">Shop</a></div>\n            </div>\n        </div>\n    </div>\n</header>\n\n\n<script src=\"/theme-javascripts/b7e9763fcb584fc8265c56a9f557cd6d2e1e8ed8.js?__ws=forum.parkinsons.org.uk\"></script>\n    <header>\n      <a href=\"/\">\n          <img src=\"https://forum.parkinsons.org.uk/uploads/db7928/original/2X/8/862bb7d172e7d127e7f3e147ec43594aa62ac945.png\" alt=\"Parkinson&#39;s UK Forum\" id=\"site-logo\" style=\"max-width: 150px;\">\n      </a>\n    </header>\n    <div id=\"main-outlet\" class=\"wrap\">\n      <h1>\n  <a href=\"/t/meeting-this-head-on/18009\">Meeting this head on</a>\n</h1>\n\n<div id='breadcrumbs'>\n    <div id=\"breadcrumb-0\" itemscope itemtype=\"http://data-vocabulary.org/Breadcrumb\"\n        itemref=\"breadcrumb-1\"\n      >\n      <a href=\"/c/living-with-parkinsons\" itemprop=\"url\">\n        <span itemprop=\"title\">Living with Parkinson&#39;s</span>\n      </a>\n    </div>\n    <div id=\"breadcrumb-1\" itemscope itemtype=\"http://data-vocabulary.org/Breadcrumb\"\n>\n      <a href=\"/c/living-with-parkinsons/young-onset-parkinsons\" itemprop=\"url\">\n        <span itemprop=\"title\">Young Onset Parkinson&#39;s</span>\n      </a>\n    </div>\n</div>\n\n\n\n\n\n<hr>\n\n\n  <div itemscope itemtype='http://schema.org/DiscussionForumPosting'>\n      <div class='creator'>\n        <span>\n          <a href='/u/Bexby'><b itemprop='author'>Bexby</b></a>\n          \n          <time datetime='2019-02-15T12:17:34Z' itemprop='datePublished'>\n            2019-02-15 12:17:34 UTC\n          </time>\n        </span>\n        <span itemprop='position'>#1</span>\n      </div>\n      <div class='post' itemprop='articleBody'>\n        <p>I have recently been diagnosed at the age of 50 with mild symptoms.  At first I was in denial but then I realised that I had to fight this.  I have a 16 year old with CFS who experiences severe symptoms and my Dad has deteriorating Macular Degeneration - they both rely on me.<br>\nSo, I have started the Couch to 5k challenge, started swimming lessons to improve my stamina in the pool, attend Pilates and yoga classes.<br>\nI have taken the advice of others on this forum - I have Parkinson’s but it does not and will not define me.</p>\n      </div>\n      <meta itemprop='interactionCount' content='UserLikes:0'>\n      <meta itemprop='interactionCount' content='UserComments:0'>\n      <meta itemprop='headline' content='Meeting this head on'>\n      <hr>\n  </div>\n  <div itemscope itemtype='http://schema.org/DiscussionForumPosting'>\n      <div class='creator'>\n        <span>\n          <a href='/u/buzbyc'><b itemprop='author'>buzbyc</b></a>\n          \n          <time datetime='2019-02-15T13:08:54Z' itemprop='datePublished'>\n            2019-02-15 13:08:54 UTC\n          </time>\n        </span>\n        <span itemprop='position'>#2</span>\n      </div>\n      <div class='post' itemprop='articleBody'>\n        <p>Hi Bexby,<br>\nSounds like you’ve got an excellent approach.  I completed the couch to 5K challenge at the end of last year after previously having a lifelong fear and dislike of running.  The sense of achievement was amazing and I’m now hooked.  I’d recommend you find out whether there’s a local parkrun to you where people get together to run a 5k every Saturday morning.<br>\nSounds like you’ve got the exercise thing covered.  I also strongly believe that diet is another key way to fight the challenge we’ve been given - you may already be on to this.<br>\nStay positive and keep fighting<br>\nNick</p>\n      </div>\n      <meta itemprop='interactionCount' content='UserLikes:0'>\n      <meta itemprop='interactionCount' content='UserComments:1'>\n      <meta itemprop='headline' content='Meeting this head on'>\n      <hr>\n  </div>\n  <div itemscope itemtype='http://schema.org/DiscussionForumPosting'>\n      <div class='creator'>\n        <span>\n          <a href='/u/Bexby'><b itemprop='author'>Bexby</b></a>\n          \n          <time datetime='2019-02-15T15:33:59Z' itemprop='datePublished'>\n            2019-02-15 15:33:59 UTC\n          </time>\n        </span>\n        <span itemprop='position'>#3</span>\n      </div>\n      <div class='post' itemprop='articleBody'>\n        <p>Thanks Nick<br>\nI’ve been looking at my diet as well.  I also read about a trial taking place involving a special probiotic. Can’t remember the name right now but am going to follow it up - something like ‘Symprove’ I think, but I could be wrong.<br>\nThere is a parkrun fairly close, not sure I’m ready yet but something like that would be a good goal to aim for.<br>\nBecky</p>\n      </div>\n      <meta itemprop='interactionCount' content='UserLikes:0'>\n      <meta itemprop='interactionCount' content='UserComments:1'>\n      <meta itemprop='headline' content='Meeting this head on'>\n      <hr>\n  </div>\n  <div itemscope itemtype='http://schema.org/DiscussionForumPosting'>\n      <div class='creator'>\n        <span>\n          <a href='/u/Marita'><b itemprop='author'>Marita</b></a>\n          \n          <time datetime='2019-03-25T17:55:50Z' itemprop='datePublished'>\n            2019-03-25 17:55:50 UTC\n          </time>\n        </span>\n        <span itemprop='position'>#4</span>\n      </div>\n      <div class='post' itemprop='articleBody'>\n        <p>You are quite correct, the probiotic is called Symprove. The trial is being done at King’s College, but, as my husband wasn’t eligible because he suffers from Crohn’s disease as well as PD, we went ahead and bought the 12-week course.  He is currently on his first week, and so no result as yet.</p>\n      </div>\n      <meta itemprop='interactionCount' content='UserLikes:0'>\n      <meta itemprop='interactionCount' content='UserComments:1'>\n      <meta itemprop='headline' content='Meeting this head on'>\n      <hr>\n  </div>\n  <div itemscope itemtype='http://schema.org/DiscussionForumPosting'>\n      <div class='creator'>\n        <span>\n          <a href='/u/Bexby'><b itemprop='author'>Bexby</b></a>\n          \n          <time datetime='2019-04-03T10:17:11Z' itemprop='datePublished'>\n            2019-04-03 10:17:11 UTC\n          </time>\n        </span>\n        <span itemprop='position'>#5</span>\n      </div>\n      <div class='post' itemprop='articleBody'>\n        <p>Thanks.  Please let me know how he gets on.<br>\nB</p>\n      </div>\n      <meta itemprop='interactionCount' content='UserLikes:0'>\n      <meta itemprop='interactionCount' content='UserComments:0'>\n      <meta itemprop='headline' content='Meeting this head on'>\n      <hr>\n  </div>\n\n\n\n\n\n\n    </div>\n    <footer class=\"container\">\n      <nav class='crawler-nav' itemscope itemtype='http://schema.org/SiteNavigationElement'>\n        <a href='/'>Home</a>\n        <a href=\"/categories\">Categories</a>\n        <a href=\"/guidelines\">FAQ/Guidelines</a>\n        <a href=\"/tos\">Terms of Service</a>\n        <a href=\"/privacy\">Privacy Policy</a>\n      </nav>\n      <p class='powered-by-link'>Powered by <a href=\"https://www.discourse.org\">Discourse</a>, best viewed with JavaScript enabled</p>\n    </footer>\n    \n  </body>\n  \n</html>\n",
  "url": "https://forum.parkinsons.org.uk/t/meeting-this-head-on/18009"
}