{
  "contentId": "9f115b20-8865-11e9-8f96-97f71b5221d6",
  "html": "<!DOCTYPE html>\n<html lang=\"en\">\n  <head>\n    <meta charset=\"utf-8\">\n    <title>Should I still go for promotion at work? - Work, benefits and money - Parkinson&#39;s UK Forum</title>\n    <meta name=\"description\" content=\"Hello, I would be grateful for any advice/experiences on continuing to work at full capacity with PD.  \r\nI am due to go through a promotion process at work next month but found out in January this year that I have Parkin&amp;hellip;\">\n    <meta name=\"author\" content=\"\">\n<meta name=\"generator\" content=\"Discourse 2.2.5 - https://github.com/discourse/discourse version c294ff3609f988dcafb742e91606d60ca13b794d\">\n<link rel=\"icon\" type=\"image/png\" href=\"https://forum.parkinsons.org.uk/uploads/db7928/original/2X/3/311fc84f89f49f38601a2f16b295b6f03d3ce5dd.jpg\">\n<link rel=\"apple-touch-icon\" type=\"image/png\" href=\"https://forum.parkinsons.org.uk/uploads/db7928/original/2X/3/311fc84f89f49f38601a2f16b295b6f03d3ce5dd.jpg\">\n<meta name=\"theme-color\" content=\"#ffffff\">\n<meta name=\"viewport\" content=\"width=device-width, minimum-scale=1.0, maximum-scale=1.0, user-scalable=yes\">\n<link rel=\"canonical\" href=\"https://forum.parkinsons.org.uk/t/should-i-still-go-for-promotion-at-work/9876\" />\n<script type=\"application/ld+json\">{\"@context\":\"http://schema.org\",\"@type\":\"WebSite\",\"url\":\"https://forum.parkinsons.org.uk\",\"potentialAction\":{\"@type\":\"SearchAction\",\"target\":\"https://forum.parkinsons.org.uk/search?q={search_term_string}\",\"query-input\":\"required name=search_term_string\"}}</script>\n<link rel=\"search\" type=\"application/opensearchdescription+xml\" href=\"https://forum.parkinsons.org.uk/opensearch.xml\" title=\"Parkinson&#39;s UK Forum Search\">\n\n      <link href=\"/stylesheets/desktop_f99246ae801b083d3e4cca979d0dade8615b39ac.css?__ws=forum.parkinsons.org.uk\" media=\"all\" rel=\"stylesheet\" data-target=\"desktop\" data-theme-id=\"12\"/>\n      <link href=\"/stylesheets/desktop_theme_12_5d27531cf43f9df0c03a6a6ec3109dd05f9dfc49.css?__ws=forum.parkinsons.org.uk\" media=\"all\" rel=\"stylesheet\" data-target=\"desktop_theme\" data-theme-id=\"12\"/>\n    <link href=\"https://fonts.googleapis.com/css?family=Open+Sans\" rel=\"stylesheet\">\n\n    <meta id=\"data-ga-universal-analytics\" data-tracking-code=\"UA-4855628-1\" data-json=\"{&quot;cookieDomain&quot;:&quot;auto&quot;}\" data-auto-link-domains=\"\">\n\n<link rel='preload' href='/assets/google-universal-analytics-f35b4da49411e6f5559073523aab983da483976a3954c79c756f8579f6fbd6ef.js' as='script'/>\n<script src='/assets/google-universal-analytics-f35b4da49411e6f5559073523aab983da483976a3954c79c756f8579f6fbd6ef.js'></script>\n\n      <link rel=\"alternate\" type=\"application/rss+xml\" title=\"RSS feed of &#39;Should I still go for promotion at work?&#39;\" href=\"https://forum.parkinsons.org.uk/t/should-i-still-go-for-promotion-at-work/9876.rss\" />\n  <meta property=\"og:site_name\" content=\"Parkinson&#39;s UK Forum\" />\n<meta name=\"twitter:card\" content=\"summary\" />\n<meta name=\"twitter:image\" content=\"https://forum.parkinsons.org.uk/uploads/db7928/original/2X/3/311fc84f89f49f38601a2f16b295b6f03d3ce5dd.jpg\" />\n<meta property=\"og:image\" content=\"https://forum.parkinsons.org.uk/uploads/db7928/original/2X/3/311fc84f89f49f38601a2f16b295b6f03d3ce5dd.jpg\" />\n<meta property=\"og:url\" content=\"https://forum.parkinsons.org.uk/t/should-i-still-go-for-promotion-at-work/9876\" />\n<meta name=\"twitter:url\" content=\"https://forum.parkinsons.org.uk/t/should-i-still-go-for-promotion-at-work/9876\" />\n<meta property=\"og:title\" content=\"Should I still go for promotion at work?\" />\n<meta name=\"twitter:title\" content=\"Should I still go for promotion at work?\" />\n<meta property=\"og:description\" content=\"Hello, I would be grateful for any advice/experiences on continuing to work at full capacity with PD.  \r I am due to go through a promotion process at work next month but found out in January this year that I have Parkinson&#39;s.  After a couple of months of tests and consultations I am now on medication (pramipexole) that seems to control my symptoms well.  I am able to function pretty well in the office though, as I typically work 48-50 hours per week, I do still get tired from time to time. My j...\" />\n<meta name=\"twitter:description\" content=\"Hello, I would be grateful for any advice/experiences on continuing to work at full capacity with PD.  \r I am due to go through a promotion process at work next month but found out in January this year that I have Parkinson&#39;s.  After a couple of months of tests and consultations I am now on medication (pramipexole) that seems to control my symptoms well.  I am able to function pretty well in the office though, as I typically work 48-50 hours per week, I do still get tired from time to time. My j...\" />\n<meta name=\"twitter:label1\" value=\"Reading time\" />\n<meta name=\"twitter:data1\" value=\"3 mins \uD83D\uDD51\" />\n<meta name=\"twitter:label2\" value=\"Likes\" />\n<meta name=\"twitter:data2\" value=\"1 ❤\" />\n<meta property=\"article:published_time\" content=\"2017-04-23T16:08:36+00:00\" />\n<meta property=\"og:ignore_canonical\" content=\"true\" />\n\n\n\n    \n  </head>\n  <body class=\"crawler\">\n    <header role=\"banner\">\n    <div class=\"region region-header\">\n        <div class=\"region-header-wrapper\">\n            <div id=\"block-parkinsons-d8-branding\" class=\"block block-system block-system-branding-block\">\n                <a href=\"/\" title=\"Home\" rel=\"home\" class=\"site-logo\">\n                    <img src=\"https://forum.parkinsons.org.uk/uploads/db7928/original/2X/8/862bb7d172e7d127e7f3e147ec43594aa62ac945.png\" alt=\"Parkinson's UK. Change Attitudes. Find a cure. Join us.\">\n                </a>\n            </div>\n            <div id=\"block-helpline\" class=\"block block-block-content block-block-content871cd5af-b938-4947-9dc0-d5c211d08fe3 style-phone\">\n                <div class=\"field field--name-field-link field--type-link field--label-hidden field__item\"><a href=\"tel:+448088000303\">Helpline 0808 800 0303</a></div>\n            </div>\n            <div id=\"block-shop\" class=\"block block-block-content block-block-content6fba5ae5-7797-49cd-8367-f321d8111cd6 style-regular\">\n                <div class=\"field field--name-field-link field--type-link field--label-hidden field__item\"><a href=\"https://shop.parkinsons.org.uk\">Shop</a></div>\n            </div>\n        </div>\n    </div>\n</header>\n\n\n<script src=\"/theme-javascripts/b7e9763fcb584fc8265c56a9f557cd6d2e1e8ed8.js?__ws=forum.parkinsons.org.uk\"></script>\n    <header>\n      <a href=\"/\">\n          <img src=\"https://forum.parkinsons.org.uk/uploads/db7928/original/2X/8/862bb7d172e7d127e7f3e147ec43594aa62ac945.png\" alt=\"Parkinson&#39;s UK Forum\" id=\"site-logo\" style=\"max-width: 150px;\">\n      </a>\n    </header>\n    <div id=\"main-outlet\" class=\"wrap\">\n      <h1>\n  <a href=\"/t/should-i-still-go-for-promotion-at-work/9876\">Should I still go for promotion at work?</a>\n</h1>\n\n<div id='breadcrumbs'>\n    <div id=\"breadcrumb-0\" itemscope itemtype=\"http://data-vocabulary.org/Breadcrumb\"\n        itemref=\"breadcrumb-1\"\n      >\n      <a href=\"/c/living-with-parkinsons\" itemprop=\"url\">\n        <span itemprop=\"title\">Living with Parkinson&#39;s</span>\n      </a>\n    </div>\n    <div id=\"breadcrumb-1\" itemscope itemtype=\"http://data-vocabulary.org/Breadcrumb\"\n>\n      <a href=\"/c/living-with-parkinsons/work-benefits-and-money\" itemprop=\"url\">\n        <span itemprop=\"title\">Work, benefits and money</span>\n      </a>\n    </div>\n</div>\n\n\n\n\n\n<hr>\n\n\n  <div itemscope itemtype='http://schema.org/DiscussionForumPosting'>\n      <div class='creator'>\n        <span>\n          <a href='/u/JF'><b itemprop='author'>JF</b></a>\n          \n          <time datetime='2017-04-23T16:08:36Z' itemprop='datePublished'>\n            2017-04-23 16:08:36 UTC\n          </time>\n        </span>\n        <span itemprop='position'>#1</span>\n      </div>\n      <div class='post' itemprop='articleBody'>\n        <p>Hello, I would be grateful for any advice/experiences on continuing to work at full capacity with PD.&nbsp;</p>\r\n<p>I am due to go through a promotion process at work next month but found out&nbsp;in January this year&nbsp;that&nbsp;I have Parkinson&#39;s.&nbsp; After a couple of months of tests and consultations I am now on medication (pramipexole) that seems to control my symptoms well.&nbsp; I&nbsp;am&nbsp;able to function pretty well in the office though, as I typically work 48-50 hours per week, I do still get tired from time to time. My job currently involves managing multiple IT projects and teams for various clients across London and the UK.</p>\r\n<p>Am I crazy to consider going for promotion to the next level, given this could be more demanding, more pressure and possibly more travel?&nbsp; As a 47 year old,&nbsp;I still need to work for another 8-10 years to pay off the mortgage etc. before I can afford to retire,&nbsp;and part of me thinks that I should play it safe: stick with my current role with a view to gradually winding down through a flexible work arrangement if and when my symptoms start to get worse.&nbsp; However, my boss knows about my condition and he&nbsp;is still very supportive of the promotion with a sort of &quot;you only live once&quot; attitude.</p>\r\n<p>Any thoughts and anecdotes much appreciated!</p>\n      </div>\n      <meta itemprop='interactionCount' content='UserLikes:0'>\n      <meta itemprop='interactionCount' content='UserComments:0'>\n      <meta itemprop='headline' content='Should I still go for promotion at work?'>\n      <hr>\n  </div>\n  <div itemscope itemtype='http://schema.org/DiscussionForumPosting'>\n      <div class='creator'>\n        <span>\n          <a href='/u/benji'><b itemprop='author'>benji</b></a>\n          \n          <time datetime='2017-04-23T21:51:10Z' itemprop='datePublished'>\n            2017-04-23 21:51:10 UTC\n          </time>\n        </span>\n        <span itemprop='position'>#2</span>\n      </div>\n      <div class='post' itemprop='articleBody'>\n        <p>That says it all, your boss is supportive. I hope that a promotion would result in, not only an increase in salary, but also an increased occupational pension and thus it is even&nbsp;more imperative that you go for this, as in the future, if you decide to retire early, it will contribute to a larger work pension due to the more years you have worked. I think that is right??</p>\r\n<p>You have only just been diagnosed and have many more years ahead of you that you can work. OH was diagnosed in 1998 and only gave up work some years later and others with Parkinsons &nbsp;are able to work for far longer</p>\r\n<p>I hope you get some replies from someone in the same position that can advise you on this, otherwise phone the&nbsp;PUK helpline</p>\r\n<p>I think your boss is great and has the above in mind; a better result for you in years to come.:-)</p>\r\n<p>&nbsp;</p>\n      </div>\n      <meta itemprop='interactionCount' content='UserLikes:0'>\n      <meta itemprop='interactionCount' content='UserComments:0'>\n      <meta itemprop='headline' content='Should I still go for promotion at work?'>\n      <hr>\n  </div>\n  <div itemscope itemtype='http://schema.org/DiscussionForumPosting'>\n      <div class='creator'>\n        <span>\n          <a href='/u/JF'><b itemprop='author'>JF</b></a>\n          \n          <time datetime='2017-04-24T18:36:52Z' itemprop='datePublished'>\n            2017-04-24 18:36:52 UTC\n          </time>\n        </span>\n        <span itemprop='position'>#3</span>\n      </div>\n      <div class='post' itemprop='articleBody'>\n        <p>Thanks benji. &nbsp;</p>\r\n<p>The extra money would certainly help but I&#39;m concerned about fatigue - I already get quite tired at work sometimes and I&#39;m guessing it only gets worse?. &nbsp;I think I should probably have a frank conversation with my boss...</p>\r\n<p>JF</p>\n      </div>\n      <meta itemprop='interactionCount' content='UserLikes:0'>\n      <meta itemprop='interactionCount' content='UserComments:0'>\n      <meta itemprop='headline' content='Should I still go for promotion at work?'>\n      <hr>\n  </div>\n  <div itemscope itemtype='http://schema.org/DiscussionForumPosting'>\n      <div class='creator'>\n        <span>\n          <a href='/u/DivineR'><b itemprop='author'>DivineR</b></a>\n          \n          <time datetime='2017-04-24T18:59:00Z' itemprop='datePublished'>\n            2017-04-24 18:59:00 UTC\n          </time>\n        </span>\n        <span itemprop='position'>#4</span>\n      </div>\n      <div class='post' itemprop='articleBody'>\n        Hi JF, \r\nYou're situation is a difficult one. Knowing that you are well qualified for and have the backing of your boss for this promotion is great. Also knowing that it's a big undertaking and alot of hours could be hard on you physically. You're young and as Benji says still have years ahead of you work wise. \r\nIt's more about how you want to live your life. If you enjoy your job that's good for your mental health.  Talk to your boss and explain how fatigue and stress can exacerbate symptoms. Maybe a compromise can be found.  Do what's best for you. Good luck\n      </div>\n      <meta itemprop='interactionCount' content='UserLikes:0'>\n      <meta itemprop='interactionCount' content='UserComments:0'>\n      <meta itemprop='headline' content='Should I still go for promotion at work?'>\n      <hr>\n  </div>\n  <div itemscope itemtype='http://schema.org/DiscussionForumPosting'>\n      <div class='creator'>\n        <span>\n          <a href='/u/JF'><b itemprop='author'>JF</b></a>\n          \n          <time datetime='2017-04-27T18:39:12Z' itemprop='datePublished'>\n            2017-04-27 18:39:12 UTC\n          </time>\n        </span>\n        <span itemprop='position'>#5</span>\n      </div>\n      <div class='post' itemprop='articleBody'>\n        <p>Thank you both!</p>\r\n<p>I have decided to have an open and frank discussion with my boss and with HR to see if I can reach a solution that works for everyone...</p>\n      </div>\n      <meta itemprop='interactionCount' content='UserLikes:0'>\n      <meta itemprop='interactionCount' content='UserComments:0'>\n      <meta itemprop='headline' content='Should I still go for promotion at work?'>\n      <hr>\n  </div>\n  <div itemscope itemtype='http://schema.org/DiscussionForumPosting'>\n      <div class='creator'>\n        <span>\n          <a href='/u/Kendo'><b itemprop='author'>Kendo</b></a>\n          \n          <time datetime='2017-04-27T22:40:51Z' itemprop='datePublished'>\n            2017-04-27 22:40:51 UTC\n          </time>\n        </span>\n        <span itemprop='position'>#6</span>\n      </div>\n      <div class='post' itemprop='articleBody'>\n        JF\r\nGetting diagnosed at a relatively young age usually means the symptoms progress slower.  This means that with the right adjustments as time goes on you and your employer are really going to benefit.\r\n\r\nYes, the time will come when (insert your own negative scenario).  But right now is your time.\r\n\r\nYour boss recognises what you have to offer. Accept this and discuss how you can get the best out of the situation. \r\n\r\nYou should work out how to take breaks to maintain your energy levels. \r\n\r\nThey could take on someone else but guess what, they could fall ill as well, leave, and most probably not do as good a job as you.\r\n\r\nYes, you'll want to make the most of life.  For you right now that can include progressing your career.\r\n\r\nMy only note of concern is take a close look at the Mirapexin leaflet.  The drug does address PD symptoms but can add in some unwanted side effects.\r\n\r\nTake care.\n      </div>\n      <meta itemprop='interactionCount' content='UserLikes:0'>\n      <meta itemprop='interactionCount' content='UserComments:0'>\n      <meta itemprop='headline' content='Should I still go for promotion at work?'>\n      <hr>\n  </div>\n  <div itemscope itemtype='http://schema.org/DiscussionForumPosting'>\n      <div class='creator'>\n        <span>\n          <a href='/u/Jackson'><b itemprop='author'>Jackson</b></a>\n          \n          <time datetime='2017-05-02T21:10:02Z' itemprop='datePublished'>\n            2017-05-02 21:10:02 UTC\n          </time>\n        </span>\n        <span itemprop='position'>#7</span>\n      </div>\n      <div class='post' itemprop='articleBody'>\n        <p>Hi, just wondering how you&#39;re getting on? I was in a similar position a couple of years ago - I took a promotion after &#39;fessing&nbsp;up&#39; about being diagnosed two years earlier at 48/49 years old. My line manager at the time was supportive but retired and now that I&#39;m stuck in the seemingly never ending round of public sector cuts things are tricky. Having hit a few walls, I&#39;ve tried to do the right thing but I&#39;m&nbsp;now on way too familiar terms with OH and HR &nbsp;:-S. Not a good thing as it happens.</p>\r\n<p>I think, however, that you have to balance all the arguments and then just do what feels right&nbsp;and deal with the consequences. Parkinson&#39;s is&nbsp;crap any which way you look at it but I find myself still working (just) a few years after diagnosis and I&#39;d be in trouble now with or without the promotion so I guess I&#39;d rather be in trouble having taken it...... (I think that&#39;s what I mean). I do wish, with&nbsp;hindsight, that I had not tried so hard to prove that Parkinson&#39;s wasn&#39;t affecting me in the early days and had pushed for an ongoing dialogue because things would be documented and it might have made things easier to manage at this point ... but who knows.</p>\r\n<p>Good luck. J</p>\n      </div>\n      <meta itemprop='interactionCount' content='UserLikes:0'>\n      <meta itemprop='interactionCount' content='UserComments:0'>\n      <meta itemprop='headline' content='Should I still go for promotion at work?'>\n      <hr>\n  </div>\n  <div itemscope itemtype='http://schema.org/DiscussionForumPosting'>\n      <div class='creator'>\n        <span>\n          <a href='/u/JF'><b itemprop='author'>JF</b></a>\n          \n          <time datetime='2017-05-11T15:04:27Z' itemprop='datePublished'>\n            2017-05-11 15:04:27 UTC\n          </time>\n        </span>\n        <span itemprop='position'>#8</span>\n      </div>\n      <div class='post' itemprop='articleBody'>\n        <p>Hi J, thanks for your insights.&nbsp; It&#39;s comforting to know I am not alone.</p>\r\n<p>After speaking to a number of people I decided to go through the promotion process (a fairly intimidating series of panel interviews which happen next month).&nbsp; I&#39;m not guaranteed to get the promotion but I have a very good chance.</p>\r\n<p>The advice I was given, which made a lot of sense to me, was to think of it like a woman trying to get pregnant.&nbsp; It might happen straight away or it might take years, so a hypothetical shouldn&#39;t stand in the way of a career progression.&nbsp;</p>\r\n<p>Of course the truth is I already have something akin to morning sickness (I am often tired at work), and it will only get worse!&nbsp; But like you I figured if I have to stop work or move to a&nbsp;part time&nbsp;work arrangement at some point, better to do it on a higher salary.&nbsp; The other advantage of being more senior is I potentially have more control over my workload and ability to work from home occasionally.</p>\r\n<p>The other thing I am thinking is to be honest with myself and my employer when I inevitably find that I can no longer manage a full workload.</p>\r\n<p>So, we shall see....</p>\r\n<p>JF</p>\r\n<p>&nbsp;</p>\r\n<p>&nbsp;</p>\n      </div>\n      <meta itemprop='interactionCount' content='UserLikes:0'>\n      <meta itemprop='interactionCount' content='UserComments:0'>\n      <meta itemprop='headline' content='Should I still go for promotion at work?'>\n      <hr>\n  </div>\n  <div itemscope itemtype='http://schema.org/DiscussionForumPosting'>\n      <div class='creator'>\n        <span>\n          <a href='/u/JF'><b itemprop='author'>JF</b></a>\n          \n          <time datetime='2017-09-03T05:12:58Z' itemprop='datePublished'>\n            2017-09-03 05:12:58 UTC\n          </time>\n        </span>\n        <span itemprop='position'>#9</span>\n      </div>\n      <div class='post' itemprop='articleBody'>\n        <p>So, I went for the promotion and got it.</p>\r\n<p>I think key to my situation has been transparency from when I was initially diagnosed: with HR, with my boss, with his boss, and with some of my team. &nbsp;I have been pleasantly surprised how supportive most people have been. &nbsp;Raising awareness of my symptoms, including the fatigue, has generally only been a positive thing.</p>\r\n<p>I currently work from home one day per week and I&#39;ve set expectations that at some point in the future I will need to apply for a flexible working arrangement (e.g. working a 4 day week). &nbsp;I&#39;m going to try and be honest about what I can and cannot do at work, so for example I&#39;ve already cut back on travel. &nbsp;I&#39;m sure there will come a time when I have to bite the bullet and stop my current role altogether, but for now I&#39;m continuing as best I can. &nbsp;Despite all this, it&#39;s still hard every day.....</p>\r\n<p>I&#39;m lucky and not every employer is as reasonable as mine but I would encourage other people recently diagnosed to not try and hide their condition, and If there is an occupational health facility available then it&#39;s a good idea to register early.</p>\r\n<p>&nbsp;</p>\n      </div>\n      <meta itemprop='interactionCount' content='UserLikes:1'>\n      <meta itemprop='interactionCount' content='UserComments:0'>\n      <meta itemprop='headline' content='Should I still go for promotion at work?'>\n      <hr>\n  </div>\n  <div itemscope itemtype='http://schema.org/DiscussionForumPosting'>\n      <div class='creator'>\n        <span>\n          <a href='/u/benji'><b itemprop='author'>benji</b></a>\n          \n          <time datetime='2017-09-03T21:54:50Z' itemprop='datePublished'>\n            2017-09-03 21:54:50 UTC\n          </time>\n        </span>\n        <span itemprop='position'>#10</span>\n      </div>\n      <div class='post' itemprop='articleBody'>\n        <p>Good to hear JF. Thanks for your update.</p>\n      </div>\n      <meta itemprop='interactionCount' content='UserLikes:0'>\n      <meta itemprop='interactionCount' content='UserComments:0'>\n      <meta itemprop='headline' content='Should I still go for promotion at work?'>\n      <hr>\n  </div>\n  <div itemscope itemtype='http://schema.org/DiscussionForumPosting'>\n      <div class='creator'>\n        <span>\n          <a href='/u/Jackson'><b itemprop='author'>Jackson</b></a>\n          \n          <time datetime='2017-09-04T04:58:00Z' itemprop='datePublished'>\n            2017-09-04 04:58:00 UTC\n          </time>\n        </span>\n        <span itemprop='position'>#11</span>\n      </div>\n      <div class='post' itemprop='articleBody'>\n        <p>That&#39;s really good to hear, congratulations on the promotion.&nbsp;</p>\r\n<p>J :)</p>\n      </div>\n      <meta itemprop='interactionCount' content='UserLikes:0'>\n      <meta itemprop='interactionCount' content='UserComments:0'>\n      <meta itemprop='headline' content='Should I still go for promotion at work?'>\n      <hr>\n  </div>\n  <div itemscope itemtype='http://schema.org/DiscussionForumPosting'>\n      <div class='creator'>\n        <span>\n          <a href='/u/Kendo'><b itemprop='author'>Kendo</b></a>\n          \n          <time datetime='2017-09-04T11:15:43Z' itemprop='datePublished'>\n            2017-09-04 11:15:43 UTC\n          </time>\n        </span>\n        <span itemprop='position'>#12</span>\n      </div>\n      <div class='post' itemprop='articleBody'>\n        <p>JF</p>\r\n<p>Well done to you and your employer. &nbsp;</p>\r\n<p>K</p>\r\n<p>K</p>\r\n<p>&nbsp;</p>\r\n<p>&nbsp;</p>\r\n<p>&nbsp;</p>\n      </div>\n      <meta itemprop='interactionCount' content='UserLikes:0'>\n      <meta itemprop='interactionCount' content='UserComments:0'>\n      <meta itemprop='headline' content='Should I still go for promotion at work?'>\n      <hr>\n  </div>\n  <div itemscope itemtype='http://schema.org/DiscussionForumPosting'>\n      <div class='creator'>\n        <span>\n          <a href='/u/benji'><b itemprop='author'>benji</b></a>\n          \n          <time datetime='2017-09-05T22:47:27Z' itemprop='datePublished'>\n            2017-09-05 22:47:27 UTC\n          </time>\n        </span>\n        <span itemprop='position'>#13</span>\n      </div>\n      <div class='post' itemprop='articleBody'>\n        <p>Great news and well done.</p>\r\n<p>&nbsp;</p>\n      </div>\n      <meta itemprop='interactionCount' content='UserLikes:0'>\n      <meta itemprop='interactionCount' content='UserComments:0'>\n      <meta itemprop='headline' content='Should I still go for promotion at work?'>\n      <hr>\n  </div>\n  <div itemscope itemtype='http://schema.org/DiscussionForumPosting'>\n      <div class='creator'>\n        <span>\n          <a href='/u/eWizzard'><b itemprop='author'>eWizzard</b></a>\n          \n          <time datetime='2018-06-27T09:44:14Z' itemprop='datePublished'>\n            2018-06-27 09:44:14 UTC\n          </time>\n        </span>\n        <span itemprop='position'>#14</span>\n      </div>\n      <div class='post' itemprop='articleBody'>\n        <p>Hello,<br>\nI joined the forum recently and now browsing throug the threads.<br>\nI do not have yet significant symptoms but anxiety and fatigue. My employer is not yet aware of my condition and I plan not to tell for the time being. I work from home twice a week. I would like to take over more responsibility but i’m Scared of “not making it” and increasing pressure. I’m aware that I will need more time for myself. So I launched the ball of “wanting more responsibility” because it is good you are considered as “keen to pursue career” but I’m not really pushing for it.</p>\n<p>What a game…</p>\n      </div>\n      <meta itemprop='interactionCount' content='UserLikes:0'>\n      <meta itemprop='interactionCount' content='UserComments:1'>\n      <meta itemprop='headline' content='Should I still go for promotion at work?'>\n      <hr>\n  </div>\n  <div itemscope itemtype='http://schema.org/DiscussionForumPosting'>\n      <div class='creator'>\n        <span>\n          <a href='/u/JF'><b itemprop='author'>JF</b></a>\n          \n          <time datetime='2018-06-27T10:26:40Z' itemprop='datePublished'>\n            2018-06-27 10:26:40 UTC\n          </time>\n        </span>\n        <span itemprop='position'>#15</span>\n      </div>\n      <div class='post' itemprop='articleBody'>\n        <p>Whether to disclose your condition is a personal choice and perhaps depends on how forward thinking your employer is.</p>\n<p>I am fortunate to have a good employer and would say that being open about my PD diagnosis with HR etc. has certainly been the right thing to do in my situation.</p>\n<p>9 months on since my promotion, it is certainly tough getting through the work weeks, but generally my colleagues are more understanding when I need to work from home or limit my work hours due to the fatigue.</p>\n      </div>\n      <meta itemprop='interactionCount' content='UserLikes:0'>\n      <meta itemprop='interactionCount' content='UserComments:0'>\n      <meta itemprop='headline' content='Should I still go for promotion at work?'>\n      <hr>\n  </div>\n\n\n\n\n\n\n    </div>\n    <footer class=\"container\">\n      <nav class='crawler-nav' itemscope itemtype='http://schema.org/SiteNavigationElement'>\n        <a href='/'>Home</a>\n        <a href=\"/categories\">Categories</a>\n        <a href=\"/guidelines\">FAQ/Guidelines</a>\n        <a href=\"/tos\">Terms of Service</a>\n        <a href=\"/privacy\">Privacy Policy</a>\n      </nav>\n      <p class='powered-by-link'>Powered by <a href=\"https://www.discourse.org\">Discourse</a>, best viewed with JavaScript enabled</p>\n    </footer>\n    \n  </body>\n  \n</html>\n",
  "url": "https://forum.parkinsons.org.uk/t/should-i-still-go-for-promotion-at-work/9876"
}