{
  "contentId": "1da35970-8870-11e9-8f96-97f71b5221d6",
  "html": "<!DOCTYPE html>\n<html lang=\"en\">\n  <head>\n    <meta charset=\"utf-8\">\n    <title>Newly diagnosed. Panic attacks - Newly diagnosed - Parkinson&#39;s UK Forum</title>\n    <meta name=\"description\" content=\"Hi everyone. I am 46 and was diagnosed on 23rd February. As much as I know there are worse things in life I can&amp;#39;t stop feeling anxious and panicking about the future. My youngest has just turned 3 and I&amp;#39;m worried I won&amp;#39;t&amp;hellip;\">\n    <meta name=\"author\" content=\"\">\n<meta name=\"generator\" content=\"Discourse 2.2.5 - https://github.com/discourse/discourse version c294ff3609f988dcafb742e91606d60ca13b794d\">\n<link rel=\"icon\" type=\"image/png\" href=\"https://forum.parkinsons.org.uk/uploads/db7928/original/2X/3/311fc84f89f49f38601a2f16b295b6f03d3ce5dd.jpg\">\n<link rel=\"apple-touch-icon\" type=\"image/png\" href=\"https://forum.parkinsons.org.uk/uploads/db7928/original/2X/3/311fc84f89f49f38601a2f16b295b6f03d3ce5dd.jpg\">\n<meta name=\"theme-color\" content=\"#ffffff\">\n<meta name=\"viewport\" content=\"width=device-width, minimum-scale=1.0, maximum-scale=1.0, user-scalable=yes\">\n<link rel=\"canonical\" href=\"https://forum.parkinsons.org.uk/t/newly-diagnosed-panic-attacks/9804\" />\n<script type=\"application/ld+json\">{\"@context\":\"http://schema.org\",\"@type\":\"WebSite\",\"url\":\"https://forum.parkinsons.org.uk\",\"potentialAction\":{\"@type\":\"SearchAction\",\"target\":\"https://forum.parkinsons.org.uk/search?q={search_term_string}\",\"query-input\":\"required name=search_term_string\"}}</script>\n<link rel=\"search\" type=\"application/opensearchdescription+xml\" href=\"https://forum.parkinsons.org.uk/opensearch.xml\" title=\"Parkinson&#39;s UK Forum Search\">\n\n      <link href=\"/stylesheets/desktop_f99246ae801b083d3e4cca979d0dade8615b39ac.css?__ws=forum.parkinsons.org.uk\" media=\"all\" rel=\"stylesheet\" data-target=\"desktop\" data-theme-id=\"12\"/>\n      <link href=\"/stylesheets/desktop_theme_12_5d27531cf43f9df0c03a6a6ec3109dd05f9dfc49.css?__ws=forum.parkinsons.org.uk\" media=\"all\" rel=\"stylesheet\" data-target=\"desktop_theme\" data-theme-id=\"12\"/>\n    <link href=\"https://fonts.googleapis.com/css?family=Open+Sans\" rel=\"stylesheet\">\n\n    <meta id=\"data-ga-universal-analytics\" data-tracking-code=\"UA-4855628-1\" data-json=\"{&quot;cookieDomain&quot;:&quot;auto&quot;}\" data-auto-link-domains=\"\">\n\n<link rel='preload' href='/assets/google-universal-analytics-f35b4da49411e6f5559073523aab983da483976a3954c79c756f8579f6fbd6ef.js' as='script'/>\n<script src='/assets/google-universal-analytics-f35b4da49411e6f5559073523aab983da483976a3954c79c756f8579f6fbd6ef.js'></script>\n\n      <link rel=\"alternate\" type=\"application/rss+xml\" title=\"RSS feed of &#39;Newly diagnosed. Panic attacks&#39;\" href=\"https://forum.parkinsons.org.uk/t/newly-diagnosed-panic-attacks/9804.rss\" />\n  <meta property=\"og:site_name\" content=\"Parkinson&#39;s UK Forum\" />\n<meta name=\"twitter:card\" content=\"summary\" />\n<meta name=\"twitter:image\" content=\"https://forum.parkinsons.org.uk/uploads/db7928/original/2X/3/311fc84f89f49f38601a2f16b295b6f03d3ce5dd.jpg\" />\n<meta property=\"og:image\" content=\"https://forum.parkinsons.org.uk/uploads/db7928/original/2X/3/311fc84f89f49f38601a2f16b295b6f03d3ce5dd.jpg\" />\n<meta property=\"og:url\" content=\"https://forum.parkinsons.org.uk/t/newly-diagnosed-panic-attacks/9804\" />\n<meta name=\"twitter:url\" content=\"https://forum.parkinsons.org.uk/t/newly-diagnosed-panic-attacks/9804\" />\n<meta property=\"og:title\" content=\"Newly diagnosed. Panic attacks\" />\n<meta name=\"twitter:title\" content=\"Newly diagnosed. Panic attacks\" />\n<meta property=\"og:description\" content=\"Hi everyone. I am 46 and was diagnosed on 23rd February. As much as I know there are worse things in life I can&#39;t stop feeling anxious and panicking about the future. My youngest has just turned 3 and I&#39;m worried I won&#39;t be able to do as much with her as I did my other children or I won&#39;t be around to see her grow up. I can&#39;t stop thinking about what is going on inside my brain and how quickly it will progress. I feel like I&#39;ve lost control of my life  and worry if I will develop lewy body demen...\" />\n<meta name=\"twitter:description\" content=\"Hi everyone. I am 46 and was diagnosed on 23rd February. As much as I know there are worse things in life I can&#39;t stop feeling anxious and panicking about the future. My youngest has just turned 3 and I&#39;m worried I won&#39;t be able to do as much with her as I did my other children or I won&#39;t be around to see her grow up. I can&#39;t stop thinking about what is going on inside my brain and how quickly it will progress. I feel like I&#39;ve lost control of my life  and worry if I will develop lewy body demen...\" />\n<meta property=\"article:published_time\" content=\"2017-03-14T21:38:57+00:00\" />\n<meta property=\"og:ignore_canonical\" content=\"true\" />\n\n\n\n    \n  </head>\n  <body class=\"crawler\">\n    <header role=\"banner\">\n    <div class=\"region region-header\">\n        <div class=\"region-header-wrapper\">\n            <div id=\"block-parkinsons-d8-branding\" class=\"block block-system block-system-branding-block\">\n                <a href=\"/\" title=\"Home\" rel=\"home\" class=\"site-logo\">\n                    <img src=\"https://forum.parkinsons.org.uk/uploads/db7928/original/2X/8/862bb7d172e7d127e7f3e147ec43594aa62ac945.png\" alt=\"Parkinson's UK. Change Attitudes. Find a cure. Join us.\">\n                </a>\n            </div>\n            <div id=\"block-helpline\" class=\"block block-block-content block-block-content871cd5af-b938-4947-9dc0-d5c211d08fe3 style-phone\">\n                <div class=\"field field--name-field-link field--type-link field--label-hidden field__item\"><a href=\"tel:+448088000303\">Helpline 0808 800 0303</a></div>\n            </div>\n            <div id=\"block-shop\" class=\"block block-block-content block-block-content6fba5ae5-7797-49cd-8367-f321d8111cd6 style-regular\">\n                <div class=\"field field--name-field-link field--type-link field--label-hidden field__item\"><a href=\"https://shop.parkinsons.org.uk\">Shop</a></div>\n            </div>\n        </div>\n    </div>\n</header>\n\n\n<script src=\"/theme-javascripts/b7e9763fcb584fc8265c56a9f557cd6d2e1e8ed8.js?__ws=forum.parkinsons.org.uk\"></script>\n    <header>\n      <a href=\"/\">\n          <img src=\"https://forum.parkinsons.org.uk/uploads/db7928/original/2X/8/862bb7d172e7d127e7f3e147ec43594aa62ac945.png\" alt=\"Parkinson&#39;s UK Forum\" id=\"site-logo\" style=\"max-width: 150px;\">\n      </a>\n    </header>\n    <div id=\"main-outlet\" class=\"wrap\">\n      <h1>\n  <a href=\"/t/newly-diagnosed-panic-attacks/9804\">Newly diagnosed. Panic attacks</a>\n</h1>\n\n<div id='breadcrumbs'>\n    <div id=\"breadcrumb-0\" itemscope itemtype=\"http://data-vocabulary.org/Breadcrumb\"\n        itemref=\"breadcrumb-1\"\n      >\n      <a href=\"/c/about-parkinsons-and-health\" itemprop=\"url\">\n        <span itemprop=\"title\">About Parkinson&#39;s and health</span>\n      </a>\n    </div>\n    <div id=\"breadcrumb-1\" itemscope itemtype=\"http://data-vocabulary.org/Breadcrumb\"\n>\n      <a href=\"/c/about-parkinsons-and-health/newly-diagnosed\" itemprop=\"url\">\n        <span itemprop=\"title\">Newly diagnosed</span>\n      </a>\n    </div>\n</div>\n\n\n\n\n\n<hr>\n\n\n  <div itemscope itemtype='http://schema.org/DiscussionForumPosting'>\n      <div class='creator'>\n        <span>\n          <a href='/u/Littleoldme'><b itemprop='author'>Littleoldme</b></a>\n          \n          <time datetime='2017-03-14T21:38:57Z' itemprop='datePublished'>\n            2017-03-14 21:38:57 UTC\n          </time>\n        </span>\n        <span itemprop='position'>#1</span>\n      </div>\n      <div class='post' itemprop='articleBody'>\n        Hi everyone. I am 46 and was diagnosed on 23rd February. As much as I know there are worse things in life I can't stop feeling anxious and panicking about the future. My youngest has just turned 3 and I'm worried I won't be able to do as much with her as I did my other children or I won't be around to see her grow up. I can't stop thinking about what is going on inside my brain and how quickly it will progress. I feel like I've lost control of my life  and worry if I will develop lewy body dementia. My dad died just under 2 years ago at age 79 from parkinsons he was diagnosed at age 75. I can't sleep can't eat I feel physically sick with worry. Did anyone else feel like this. Do these feelings go away or is the anxiety all part of it.\n      </div>\n      <meta itemprop='interactionCount' content='UserLikes:0'>\n      <meta itemprop='interactionCount' content='UserComments:0'>\n      <meta itemprop='headline' content='Newly diagnosed. Panic attacks'>\n      <hr>\n  </div>\n  <div itemscope itemtype='http://schema.org/DiscussionForumPosting'>\n      <div class='creator'>\n        <span>\n          <a href='/u/benji'><b itemprop='author'>benji</b></a>\n          \n          <time datetime='2017-03-14T23:49:32Z' itemprop='datePublished'>\n            2017-03-14 23:49:32 UTC\n          </time>\n        </span>\n        <span itemprop='position'>#2</span>\n      </div>\n      <div class='post' itemprop='articleBody'>\n        <p>Hi.</p>\r\n<p>MY OH was diagnosed at 47, they are now 66. Strangely, we had none of your concerns on &nbsp;diagnosis almost 20 years ago. Maybe it was a godsend that the internet was not so readily available to us then. Maybe ignorance was bliss!</p>\r\n<p>Stop Googling, stop worrying, stop speculating&nbsp;on the maybes and speak to either your consultant/Parkinsons&nbsp;nurse or phone the PUK helpline to allay your fears. Meanwhile, there is a great deal of information on the PUK&nbsp;website and free&nbsp;leaflets on anything that may concern you right now, including Lewy Body dementia.</p>\r\n<p>Nobody dies from Parkinsons, maybe they die from the complications that may arise in old age associated with Parkinsons but Parkinson does not kill you outright, despite the spurious&nbsp;reports in the press which I have always challenged when they say that so and so has died from Parkinsons.</p>\r\n<p>We had young twin daughters when oh was diagnosed. They fully participated in all that they did.</p>\r\n<p>20 years later I admit that our life is very different to what I imagined it would be at our age but we still enjoy most of what we used to,and look forward to doing even more, while we are able to and for as long as we are able to. It is most definitely NOT a death sentence, just life changing but that is after many years and even then everyone&#39;s Parkinsons progresses at a different rate.</p>\r\n<p>&nbsp;</p>\n      </div>\n      <meta itemprop='interactionCount' content='UserLikes:0'>\n      <meta itemprop='interactionCount' content='UserComments:0'>\n      <meta itemprop='headline' content='Newly diagnosed. Panic attacks'>\n      <hr>\n  </div>\n  <div itemscope itemtype='http://schema.org/DiscussionForumPosting'>\n      <div class='creator'>\n        <span>\n          <a href='/u/Littleoldme'><b itemprop='author'>Littleoldme</b></a>\n          \n          <time datetime='2017-03-15T11:38:41Z' itemprop='datePublished'>\n            2017-03-15 11:38:41 UTC\n          </time>\n        </span>\n        <span itemprop='position'>#3</span>\n      </div>\n      <div class='post' itemprop='articleBody'>\n        Thank you very much for your words of support. It is really helpful to know that you both managed to raise your twins and enjoy time with them regardless of parkinsons.\r\nYou are right I know life goes on but as you say just not how I imagined it would be.\r\nI will definitely look up the helpline.\n      </div>\n      <meta itemprop='interactionCount' content='UserLikes:0'>\n      <meta itemprop='interactionCount' content='UserComments:0'>\n      <meta itemprop='headline' content='Newly diagnosed. Panic attacks'>\n      <hr>\n  </div>\n  <div itemscope itemtype='http://schema.org/DiscussionForumPosting'>\n      <div class='creator'>\n        <span>\n          <a href='/u/juju'><b itemprop='author'>juju</b></a>\n          \n          <time datetime='2017-03-17T11:25:27Z' itemprop='datePublished'>\n            2017-03-17 11:25:27 UTC\n          </time>\n        </span>\n        <span itemprop='position'>#4</span>\n      </div>\n      <div class='post' itemprop='articleBody'>\n        <p>hi, my heart goes out to you. I was diagnosed 8 years ago, I am 55 now. &nbsp;I was a worrier and i panicked that dementia would affect me as it had other family members. &nbsp;I am not saying for one minute that you should do this but I can only share my experience in the hope that it helps you.</p>\r\n<p>My pd specialist at my first appointment told me that in his many years experience, those patients with pd faired better with a positive attitude and not using google. &nbsp;So I have found a physical therapist who works with people with neurological problems. She devises exercise programmes suited to me that help with keeping my joints from stiffening up and help my mood. &nbsp;I also found that mindfulness helps me live in the moment and not the future.&nbsp;</p>\r\n<p>The people on this site help also. &nbsp;They bravely share their story&#39;s and their fears and you don&#39;t feel alone. &nbsp;As benji has said its not a death sentence, it is something you deal with every day, but you can also enjoy each day. &nbsp;</p>\r\n<p>juju</p>\r\n<p>&nbsp;</p>\r\n<p>&nbsp;</p>\n      </div>\n      <meta itemprop='interactionCount' content='UserLikes:0'>\n      <meta itemprop='interactionCount' content='UserComments:1'>\n      <meta itemprop='headline' content='Newly diagnosed. Panic attacks'>\n      <hr>\n  </div>\n  <div itemscope itemtype='http://schema.org/DiscussionForumPosting'>\n      <div class='creator'>\n        <span>\n          <a href='/u/DivineR'><b itemprop='author'>DivineR</b></a>\n          \n          <time datetime='2017-03-17T15:10:47Z' itemprop='datePublished'>\n            2017-03-17 15:10:47 UTC\n          </time>\n        </span>\n        <span itemprop='position'>#5</span>\n      </div>\n      <div class='post' itemprop='articleBody'>\n        Hi, \r\nI was diagnosed last year aged 50, like most people I've most likely had PD for 3/4years before that. \r\nIt will take a while to sink in and get used to this new way of thinking about what's ahead.  As JUJU said, live in the moment. You can still do all you want to do but maybe in a different way. \r\nGive yourself time, surround yourself with supportive people. Try not to get stressed as this can make PD symptoms worse.\n      </div>\n      <meta itemprop='interactionCount' content='UserLikes:0'>\n      <meta itemprop='interactionCount' content='UserComments:1'>\n      <meta itemprop='headline' content='Newly diagnosed. Panic attacks'>\n      <hr>\n  </div>\n  <div itemscope itemtype='http://schema.org/DiscussionForumPosting'>\n      <div class='creator'>\n        <span>\n          <a href='/u/Littleoldme'><b itemprop='author'>Littleoldme</b></a>\n          \n          <time datetime='2017-03-19T09:24:32Z' itemprop='datePublished'>\n            2017-03-19 09:24:32 UTC\n          </time>\n        </span>\n        <span itemprop='position'>#6</span>\n      </div>\n      <div class='post' itemprop='articleBody'>\n        Thank you juju. It's really helpful to speak to other people in the same situation. I will definitely speak to the physiotherapist now and as you said positive thinking x\n      </div>\n      <meta itemprop='interactionCount' content='UserLikes:0'>\n      <meta itemprop='interactionCount' content='UserComments:1'>\n      <meta itemprop='headline' content='Newly diagnosed. Panic attacks'>\n      <hr>\n  </div>\n  <div itemscope itemtype='http://schema.org/DiscussionForumPosting'>\n      <div class='creator'>\n        <span>\n          <a href='/u/Littleoldme'><b itemprop='author'>Littleoldme</b></a>\n          \n          <time datetime='2017-03-19T09:26:54Z' itemprop='datePublished'>\n            2017-03-19 09:26:54 UTC\n          </time>\n        </span>\n        <span itemprop='position'>#7</span>\n      </div>\n      <div class='post' itemprop='articleBody'>\n        Hi Divine R\r\n\r\nThank you for your reply. You are definitely right about stress making of worse. I have noticed how I tremor more and feel generally worse in any kind of stress. Relaxation is the way forward for sure x\n      </div>\n      <meta itemprop='interactionCount' content='UserLikes:0'>\n      <meta itemprop='interactionCount' content='UserComments:0'>\n      <meta itemprop='headline' content='Newly diagnosed. Panic attacks'>\n      <hr>\n  </div>\n  <div itemscope itemtype='http://schema.org/DiscussionForumPosting'>\n      <div class='creator'>\n        <span>\n          <a href='/u/wpgchap'><b itemprop='author'>wpgchap</b></a>\n          \n          <time datetime='2017-03-24T20:07:00Z' itemprop='datePublished'>\n            2017-03-24 20:07:00 UTC\n          </time>\n        </span>\n        <span itemprop='position'>#8</span>\n      </div>\n      <div class='post' itemprop='articleBody'>\n        <p>Hi little - you have had lots of good advice so I won&#39;t repeat it. &nbsp;I am old now and getting older. &nbsp;I was diagnosed at age 64 and am coming up to 71st year. &nbsp;The only thing I would stress is exercise. &nbsp;Exercise, exercise and then exercise some more. &nbsp;Exercise is widely thought to be the only thing that may slow the progress. &nbsp;I exercise compulsively and nothing much has changed for me. &nbsp;The changes I have noticed could be due to the fact that I am getting on in life. &nbsp;Anyway, I have kept a blog since 2011 in which I document my journey. &nbsp;You can find it at <a href=\"https://www.wpgchap.blogspot.ca\" target=\"_blank\">www.wpgchap.blogspot.ca</a>. &nbsp;There a people all over the world who are experiencing the crushing news that they have PD. &nbsp; I have had 70,000 page views in that time. &nbsp;I try to tell my tale and things I have learned in a non-frightening, but informative,&nbsp;manner. &nbsp;You might find it interesting and hopefully it&nbsp;will reassure you that it&#39;s not so bad being a PWP. &nbsp; Good luck.</p>\n      </div>\n      <meta itemprop='interactionCount' content='UserLikes:0'>\n      <meta itemprop='interactionCount' content='UserComments:0'>\n      <meta itemprop='headline' content='Newly diagnosed. Panic attacks'>\n      <hr>\n  </div>\n  <div itemscope itemtype='http://schema.org/DiscussionForumPosting'>\n      <div class='creator'>\n        <span>\n          <a href='/u/FEDEXLIKE2'><b itemprop='author'>FEDEXLIKE2</b></a>\n          \n          <time datetime='2017-04-02T11:46:32Z' itemprop='datePublished'>\n            2017-04-02 11:46:32 UTC\n          </time>\n        </span>\n        <span itemprop='position'>#9</span>\n      </div>\n      <div class='post' itemprop='articleBody'>\n        <p>&nbsp;</p>\r\n<p>&nbsp; &nbsp; &nbsp; &nbsp; &nbsp; &nbsp; Littleolme eh</p>\r\n<p>&nbsp; &nbsp; &nbsp; &nbsp; &nbsp; &nbsp; &nbsp; &nbsp; &nbsp; &nbsp;YOUR F&nbsp;orum&nbsp;name &nbsp;spells out your attitude to BLACKHEART&nbsp; yes its going&nbsp;th hange&nbsp;your lifr, of course how &nbsp;much it &nbsp;does so is up to you its 19 yrs in 1week&nbsp;I was given the &nbsp;decision after not much of a noisy spell with some bloke called &nbsp;MR,,I, HE LOOKS INSIDE YOUR HEAD and produces the &nbsp; &quot;&nbsp;yeh or neih&quot; so when Mr Is very noisy scanner which I can undestand being inserted,,oooh&nbsp;I love that word inserted, It sends extreme signals &nbsp;to parts of my &nbsp;brain which has so mething to do &nbsp;with my &nbsp;very sexy (sometimes ) wife &nbsp;Lorraine inserted &nbsp;oooh &nbsp;ill have to stop threre is another word &nbsp; that has the same effect and that &nbsp;word is &nbsp; I dont know if &nbsp;I should spell this &nbsp;as &nbsp;it has a immediate effect, oh you &nbsp; only live once or 9 if you are a cat, though ,back in god OLD Seventy 4 we had a fine cat called SIMON, &quot;&quot;YES YES I KNOW&quot; &nbsp;but as in the &nbsp;sadly missed MR JOHNNY CASH SONG, JUST CALL ME SUE, IT MADE HIM TOUGHER QUICKER&quot; and boy was &nbsp;he &nbsp;ia&nbsp;scrapper he matured into a truly gracefull &nbsp;feline and we began to worry when other Toms called him out every &nbsp;night in what became a war over territory &nbsp;, now &nbsp;you may &nbsp;wonder what &nbsp;the heck &nbsp;has this to &nbsp;do with anxiety well let me complete this tale and ( OH &nbsp;THAT WORD IS INSERTING BY &nbsp; THE WAY, OH OOH I am so &nbsp;sorry please &nbsp;excuse my unforgivable behavior&nbsp;&quot;insr&quot;&quot; NO NO NO MORE sorry my dear friends I will distract using my cat, now as I SAID IT WAS mostly night time I &nbsp;was 24yrs old and woulld defend with avengence&nbsp; &nbsp;any unfairness unequality&nbsp; which I thought was well unfair orr&nbsp;unequal and &nbsp;so t &nbsp;was my friiends one long hot summer I &nbsp;began to pick up the sounds of interlopers heading inward, now &nbsp;I &nbsp;dont&nbsp; know &nbsp;how &nbsp;I do &nbsp;this &nbsp;and &nbsp;it &nbsp;happens to &nbsp;this &nbsp;day, but I can sense when im&nbsp;in for trouble &nbsp;though I HAD NO IDEA WHAT &nbsp;WAS &nbsp;ABOUT &nbsp;TO &nbsp;OCCUR, my Ex &nbsp;wife was wallkiing home from her shift at the Working Mens &nbsp;Club, about 1/2 a &nbsp;mile from &nbsp;our &nbsp;home and well I wont dwell &nbsp;on &nbsp;this as its upsetting, anyway as my very lovely wife was only 20yds from home two of the local &nbsp;low life grabbed her and, well you &nbsp;get &nbsp;the &nbsp;picture I &nbsp;remember I was watching BOB REDFORD, in my view &nbsp;one &nbsp;of his &nbsp;finest movies &nbsp;JERAMIA&nbsp;JOHNSON, &nbsp;when our MEGA&nbsp;MOGGY began to howl , the scene where Jeramia&nbsp;was fighting off multiple attacks by Native Kree&nbsp; and Cherokee young warriors bore more than a similar predicament to my young &nbsp;feline buddy , now at this thought he began &nbsp;to fly &nbsp;around our &nbsp;home, &nbsp;howling &nbsp;and &nbsp;screeching in a way &nbsp;he &nbsp;had &nbsp;never done before so &nbsp;against my dear x wifes &nbsp;instructions &nbsp;I set &nbsp;him &nbsp;free, &nbsp;I counted 6 &nbsp;opponents one he knocked &nbsp;A,,,,E &nbsp;OWER&nbsp;EL&#39;&#39;&#39;&#39;W &nbsp;with &nbsp;his momentum, he &nbsp;ran &nbsp;straight at &nbsp; another with a savagery &nbsp;only &nbsp;matched by the hunting skills &nbsp;of &nbsp;Lionesses on the savannah of Keyna&nbsp;and Serenghetti&nbsp;, but &nbsp;among &nbsp;all these &nbsp;howling &nbsp;screeching sounds which &nbsp;could &nbsp;currldle blood at 5 &nbsp;miles there &nbsp;was &nbsp; anothher,, more human sound,, now along &nbsp;the back &nbsp;garden &nbsp;of &nbsp;out &nbsp;home there was &nbsp;a &nbsp;six &nbsp; foot &nbsp;lap &nbsp;panel fence you &nbsp;know &nbsp;the type &nbsp;the &nbsp;woos &nbsp;is &nbsp;woven together &nbsp;and &nbsp;though &nbsp; my &nbsp;wife said &nbsp;she didnt &nbsp;want &nbsp;a &nbsp;gate fitted &nbsp;, well &nbsp;much &nbsp;as I do &nbsp;today &nbsp;really with &nbsp;WN2, &nbsp;I &nbsp; &nbsp;just &nbsp;ignored her and &nbsp;as I &nbsp;after &nbsp;about &nbsp;3 months had &nbsp;Identified &nbsp;the &nbsp;other &nbsp;noise &nbsp;as &nbsp; FED &nbsp;FED &nbsp;HELP &nbsp; my brain finally &nbsp;kicked &nbsp;into &nbsp;gear &nbsp;now I MUST &nbsp;STOP HERE as belofd&nbsp;needs me back soon</p>\r\n<p>, &nbsp; &nbsp; &nbsp; &nbsp; &nbsp;but Im&nbsp; B:uG::&lt;&lt;ed if I CAN remembe</p>\n      </div>\n      <meta itemprop='interactionCount' content='UserLikes:0'>\n      <meta itemprop='interactionCount' content='UserComments:0'>\n      <meta itemprop='headline' content='Newly diagnosed. Panic attacks'>\n      <hr>\n  </div>\n  <div itemscope itemtype='http://schema.org/DiscussionForumPosting'>\n      <div class='creator'>\n        <span>\n          <a href='/u/FEDEXLIKE2'><b itemprop='author'>FEDEXLIKE2</b></a>\n          \n          <time datetime='2017-04-02T13:11:44Z' itemprop='datePublished'>\n            2017-04-02 13:11:44 UTC\n          </time>\n        </span>\n        <span itemprop='position'>#10</span>\n      </div>\n      <div class='post' itemprop='articleBody'>\n        <p><img alt=\"cool\" height=\"23\" src=\"https://www.parkinsons.org.uk/sites/all/modules/custom/park_smilies/images/gifs/cool.gif\" title=\"cool\" width=\"23\" /></p>\r\n<p>&nbsp; &nbsp; &nbsp; &nbsp; &nbsp; &nbsp;Sorry about &nbsp;that but &nbsp;I would have &nbsp;timed &nbsp;out ,beloved wanted a &nbsp;screw &nbsp;or a long &nbsp; screw &nbsp;well &nbsp;NO &nbsp;CHANCE &nbsp; thought I , so she &nbsp;wheeled be &nbsp;down &nbsp;to &nbsp;the summer &nbsp;house &nbsp;where &nbsp;there are &nbsp;3 &nbsp;shelves &nbsp;each &nbsp;shelf &nbsp;has 8 containers with &nbsp;screws by &nbsp;the thousand &nbsp; and &nbsp;the &nbsp;sizes &nbsp;written &nbsp;in &nbsp;large felt &nbsp;tip are &nbsp;clearly &nbsp;marked &nbsp;upon &nbsp;the &nbsp;sides, &nbsp;so &nbsp;she &nbsp;had &nbsp; her &nbsp;screw &nbsp;and &nbsp; returned to &nbsp;finish &nbsp;this &nbsp;tale. of &nbsp;unfolding violence I opened &nbsp;the &nbsp;gate &nbsp;just as &nbsp;these &nbsp;thugs gained &nbsp;the &nbsp;advantage so I wasted &nbsp;no &nbsp;time stamping down &nbsp;with &nbsp;MAX &nbsp; VENOM on one thugs nicely positioned hand, &nbsp;the &nbsp;sound &nbsp;of &nbsp;crunching fingers was &nbsp;immensely &nbsp; satisfying, &nbsp;but &nbsp;what &nbsp;happened &nbsp;next, and I swear &nbsp;I &nbsp;could &nbsp;not &nbsp;believe it &nbsp;this &nbsp;screaming &nbsp;banshee wrapped around &nbsp;the &nbsp;thug sitting &nbsp;astride my &nbsp;wife &nbsp;and &nbsp;began &nbsp;to &nbsp;kick &nbsp;the &nbsp;BARsteward, &nbsp;in &nbsp;the &nbsp;face &nbsp; with &nbsp;his &nbsp;back &nbsp;legs &nbsp;this &nbsp;had &nbsp;the &nbsp;effect of &nbsp;turning &nbsp; the &nbsp;brave &nbsp;young &nbsp;sex &nbsp;attacker &nbsp;into a screaming &nbsp; GET &nbsp;IT &nbsp;OFF &nbsp;GET &nbsp;IT &nbsp;OFF ,for a moment I was going &nbsp;to &nbsp;do &nbsp;just &nbsp;that &nbsp;but SIMON WENT UP A GEAR &nbsp;and as thug 1 &nbsp;tried &nbsp;in &nbsp;vain &nbsp;to &nbsp;remove him his bite went &nbsp;through flesh &nbsp;and &nbsp;dug &nbsp;into bone &nbsp;he &nbsp;was &nbsp;by &nbsp;then &nbsp;helpless and &nbsp;his &nbsp;brave companion was long &nbsp;gone though &nbsp;we &nbsp; knew &nbsp;him and eventually &nbsp;thug 1 was &nbsp;released from &nbsp;his attacker &nbsp;from &nbsp;helll with &nbsp;a &nbsp;bucket &nbsp;full &nbsp;of &nbsp;water, &nbsp; SIMON &nbsp;hated &nbsp;water, and &nbsp;he &nbsp;ran away &nbsp;when &nbsp;he &nbsp;released &nbsp;this &nbsp;nut &nbsp;case &nbsp;it &nbsp;was &nbsp;obvious &nbsp;his &nbsp;right &nbsp;eye &nbsp;was &nbsp;severely &nbsp;damaged and we &nbsp;subsequently found &nbsp;out &nbsp;he &nbsp;had &nbsp;been &nbsp;blinded in &nbsp;the &nbsp;right eye the &nbsp;ploice&nbsp; were &nbsp;called &nbsp;as &nbsp;the &nbsp; screams were &nbsp;heard by &nbsp;neighbours and &nbsp;we even had a polis&nbsp;visit us &nbsp;to ask to &nbsp;see &nbsp;our &nbsp;dangerous &nbsp;dog &nbsp;,&quot; &nbsp;we &nbsp;dont&nbsp; have &nbsp;a &nbsp;dangerous &nbsp;dog&quot;, we &nbsp;have a &nbsp;CIWS,, &nbsp;or &nbsp;close &nbsp;in &nbsp;weapon systen; &nbsp; &quot;OH &nbsp;WHATS &nbsp;ONE &nbsp;OF &nbsp;THEM&quot; &nbsp; well &nbsp;when I said &nbsp;HEs&nbsp; a CAT, &nbsp;He just would not &nbsp;believe &nbsp;me &nbsp;and &nbsp;just as &nbsp;he &nbsp;was &nbsp;leaving the cat &nbsp;flap opened and in came the &nbsp;warrior &nbsp;covered &nbsp;in &nbsp;blood and &nbsp;bits &nbsp;of &nbsp;thug, and &nbsp;when &nbsp;he &nbsp;spotted &nbsp;the &nbsp;young polis, &nbsp;he &nbsp;arched &nbsp;his &nbsp;back &nbsp;and &nbsp;was &nbsp;ready &nbsp;to &nbsp;go &nbsp;again, so &nbsp;I &nbsp;BOOTED &nbsp;HIM &nbsp;UP &nbsp;THE &nbsp;BOTTTY&nbsp; &nbsp; into &nbsp;the &nbsp;kitchen, &nbsp;there &nbsp;was &nbsp;to &nbsp;be &nbsp;a investigation but &nbsp;two &nbsp;days later as I was setting &nbsp;off &nbsp;to &nbsp;work his &nbsp;body &nbsp;was &nbsp;lying on &nbsp;the &nbsp;front &nbsp;step shot &nbsp;through &nbsp;the &nbsp;right &nbsp;eye.</p>\r\n<p>&nbsp;We became &nbsp;persecuted in &nbsp;our &nbsp;street &nbsp;our &nbsp;car &nbsp;tyres were &nbsp;knifed &nbsp;I was &nbsp;attacked in &nbsp;the &nbsp;club &nbsp;buddies &nbsp;dissapeared and &nbsp;as &nbsp;it &nbsp;got &nbsp;closer &nbsp;to &nbsp;the &nbsp;trial we &nbsp;had &nbsp;to &nbsp;be &nbsp;alert as &nbsp;abuse &nbsp;of &nbsp;some &nbsp;kind &nbsp; occurred &nbsp;every &nbsp;day,</p>\r\n<p>&nbsp; &nbsp; &nbsp; &nbsp; &nbsp; &nbsp; &nbsp; &nbsp; &nbsp; &nbsp; &nbsp; &nbsp; &nbsp; &nbsp; &nbsp; &nbsp; &nbsp; &nbsp; &nbsp;They were &nbsp;connvicted &nbsp;and &nbsp;both got &nbsp;5yrs&nbsp; and &nbsp;from &nbsp;that &nbsp;terrible &nbsp;event to &nbsp;this &nbsp;day I have &nbsp;suffered with &nbsp;anxiety, &nbsp;though &nbsp;PD &nbsp;has &nbsp;worsened it &nbsp;I fear &nbsp;parky &nbsp;more &nbsp;than &nbsp;any &nbsp;thug &nbsp;but &nbsp;it &nbsp;can &nbsp;be &nbsp;controlled &nbsp;with &nbsp; CBT&nbsp; cognitive &nbsp;behaviour therapy speak &nbsp;to &nbsp;your &nbsp;GP it certainly &nbsp;works &nbsp;for &nbsp;me &nbsp;so &nbsp;see if &nbsp;you &nbsp;can &nbsp; get a appointment &nbsp; &nbsp;remember &nbsp;SHY &nbsp;BAIRNS&nbsp;GET &nbsp;NOWT&nbsp; &nbsp; &nbsp; &nbsp; &nbsp; &nbsp; &nbsp; &nbsp; &nbsp; &nbsp; &nbsp; &nbsp; &nbsp; &nbsp;Take care &nbsp; FED</p>\r\n<p>&nbsp;</p>\n      </div>\n      <meta itemprop='interactionCount' content='UserLikes:0'>\n      <meta itemprop='interactionCount' content='UserComments:0'>\n      <meta itemprop='headline' content='Newly diagnosed. Panic attacks'>\n      <hr>\n  </div>\n\n\n\n\n\n\n    </div>\n    <footer class=\"container\">\n      <nav class='crawler-nav' itemscope itemtype='http://schema.org/SiteNavigationElement'>\n        <a href='/'>Home</a>\n        <a href=\"/categories\">Categories</a>\n        <a href=\"/guidelines\">FAQ/Guidelines</a>\n        <a href=\"/tos\">Terms of Service</a>\n        <a href=\"/privacy\">Privacy Policy</a>\n      </nav>\n      <p class='powered-by-link'>Powered by <a href=\"https://www.discourse.org\">Discourse</a>, best viewed with JavaScript enabled</p>\n    </footer>\n    \n  </body>\n  \n</html>\n",
  "url": "https://forum.parkinsons.org.uk/t/newly-diagnosed-panic-attacks/9804"
}