{
  "contentId": "21196a30-886c-11e9-8f96-97f71b5221d6",
  "html": "<!DOCTYPE html>\n<html lang=\"en\">\n  <head>\n    <meta charset=\"utf-8\">\n    <title>Needing help completing PIP&#39;s Mandatory Reconsideration Notice - Work, benefits and money - Parkinson&#39;s UK Forum</title>\n    <meta name=\"description\" content=\"Hi All \r\n\tYesterday I received my PIP&amp;#39;s assessment result informing me that I no longer qualify for the high rate mobility and that I have been down graded to the standard rate.  This despite the fact that I have had the&amp;hellip;\">\n    <meta name=\"author\" content=\"\">\n<meta name=\"generator\" content=\"Discourse 2.2.5 - https://github.com/discourse/discourse version c294ff3609f988dcafb742e91606d60ca13b794d\">\n<link rel=\"icon\" type=\"image/png\" href=\"https://forum.parkinsons.org.uk/uploads/db7928/original/2X/3/311fc84f89f49f38601a2f16b295b6f03d3ce5dd.jpg\">\n<link rel=\"apple-touch-icon\" type=\"image/png\" href=\"https://forum.parkinsons.org.uk/uploads/db7928/original/2X/3/311fc84f89f49f38601a2f16b295b6f03d3ce5dd.jpg\">\n<meta name=\"theme-color\" content=\"#ffffff\">\n<meta name=\"viewport\" content=\"width=device-width, minimum-scale=1.0, maximum-scale=1.0, user-scalable=yes\">\n<link rel=\"canonical\" href=\"https://forum.parkinsons.org.uk/t/needing-help-completing-pips-mandatory-reconsideration-notice/9980\" />\n<script type=\"application/ld+json\">{\"@context\":\"http://schema.org\",\"@type\":\"WebSite\",\"url\":\"https://forum.parkinsons.org.uk\",\"potentialAction\":{\"@type\":\"SearchAction\",\"target\":\"https://forum.parkinsons.org.uk/search?q={search_term_string}\",\"query-input\":\"required name=search_term_string\"}}</script>\n<link rel=\"search\" type=\"application/opensearchdescription+xml\" href=\"https://forum.parkinsons.org.uk/opensearch.xml\" title=\"Parkinson&#39;s UK Forum Search\">\n\n      <link href=\"/stylesheets/desktop_f99246ae801b083d3e4cca979d0dade8615b39ac.css?__ws=forum.parkinsons.org.uk\" media=\"all\" rel=\"stylesheet\" data-target=\"desktop\" data-theme-id=\"12\"/>\n      <link href=\"/stylesheets/desktop_theme_12_5d27531cf43f9df0c03a6a6ec3109dd05f9dfc49.css?__ws=forum.parkinsons.org.uk\" media=\"all\" rel=\"stylesheet\" data-target=\"desktop_theme\" data-theme-id=\"12\"/>\n    <link href=\"https://fonts.googleapis.com/css?family=Open+Sans\" rel=\"stylesheet\">\n\n    <meta id=\"data-ga-universal-analytics\" data-tracking-code=\"UA-4855628-1\" data-json=\"{&quot;cookieDomain&quot;:&quot;auto&quot;}\" data-auto-link-domains=\"\">\n\n<link rel='preload' href='/assets/google-universal-analytics-f35b4da49411e6f5559073523aab983da483976a3954c79c756f8579f6fbd6ef.js' as='script'/>\n<script src='/assets/google-universal-analytics-f35b4da49411e6f5559073523aab983da483976a3954c79c756f8579f6fbd6ef.js'></script>\n\n      <link rel=\"alternate\" type=\"application/rss+xml\" title=\"RSS feed of &#39;Needing help completing PIP&#39;s Mandatory Reconsideration Notice&#39;\" href=\"https://forum.parkinsons.org.uk/t/needing-help-completing-pips-mandatory-reconsideration-notice/9980.rss\" />\n  <meta property=\"og:site_name\" content=\"Parkinson&#39;s UK Forum\" />\n<meta name=\"twitter:card\" content=\"summary\" />\n<meta name=\"twitter:image\" content=\"https://forum.parkinsons.org.uk/uploads/db7928/original/2X/3/311fc84f89f49f38601a2f16b295b6f03d3ce5dd.jpg\" />\n<meta property=\"og:image\" content=\"https://forum.parkinsons.org.uk/uploads/db7928/original/2X/3/311fc84f89f49f38601a2f16b295b6f03d3ce5dd.jpg\" />\n<meta property=\"og:url\" content=\"https://forum.parkinsons.org.uk/t/needing-help-completing-pips-mandatory-reconsideration-notice/9980\" />\n<meta name=\"twitter:url\" content=\"https://forum.parkinsons.org.uk/t/needing-help-completing-pips-mandatory-reconsideration-notice/9980\" />\n<meta property=\"og:title\" content=\"Needing help completing PIP&#39;s Mandatory Reconsideration Notice\" />\n<meta name=\"twitter:title\" content=\"Needing help completing PIP&#39;s Mandatory Reconsideration Notice\" />\n<meta property=\"og:description\" content=\"Hi All \r \tYesterday I received my PIP&#39;s assessment result informing me that I no longer qualify for the high rate mobility and that I have been down graded to the standard rate.  This despite the fact that I have had the DLA  high rate mobility for the past 9 years.  (DLA was awarded indefinitely but this doesn&#39;t seem to matter).   I am stressed out and can&#39;t think straight.  What should I write in the mandatory reconsideration notice?  Unfortunately I do not have a copy of my original applicati...\" />\n<meta name=\"twitter:description\" content=\"Hi All \r \tYesterday I received my PIP&#39;s assessment result informing me that I no longer qualify for the high rate mobility and that I have been down graded to the standard rate.  This despite the fact that I have had the DLA  high rate mobility for the past 9 years.  (DLA was awarded indefinitely but this doesn&#39;t seem to matter).   I am stressed out and can&#39;t think straight.  What should I write in the mandatory reconsideration notice?  Unfortunately I do not have a copy of my original applicati...\" />\n<meta property=\"article:published_time\" content=\"2017-06-25T15:39:41+00:00\" />\n<meta property=\"og:ignore_canonical\" content=\"true\" />\n\n\n\n    \n  </head>\n  <body class=\"crawler\">\n    <header role=\"banner\">\n    <div class=\"region region-header\">\n        <div class=\"region-header-wrapper\">\n            <div id=\"block-parkinsons-d8-branding\" class=\"block block-system block-system-branding-block\">\n                <a href=\"/\" title=\"Home\" rel=\"home\" class=\"site-logo\">\n                    <img src=\"https://forum.parkinsons.org.uk/uploads/db7928/original/2X/8/862bb7d172e7d127e7f3e147ec43594aa62ac945.png\" alt=\"Parkinson's UK. Change Attitudes. Find a cure. Join us.\">\n                </a>\n            </div>\n            <div id=\"block-helpline\" class=\"block block-block-content block-block-content871cd5af-b938-4947-9dc0-d5c211d08fe3 style-phone\">\n                <div class=\"field field--name-field-link field--type-link field--label-hidden field__item\"><a href=\"tel:+448088000303\">Helpline 0808 800 0303</a></div>\n            </div>\n            <div id=\"block-shop\" class=\"block block-block-content block-block-content6fba5ae5-7797-49cd-8367-f321d8111cd6 style-regular\">\n                <div class=\"field field--name-field-link field--type-link field--label-hidden field__item\"><a href=\"https://shop.parkinsons.org.uk\">Shop</a></div>\n            </div>\n        </div>\n    </div>\n</header>\n\n\n<script src=\"/theme-javascripts/b7e9763fcb584fc8265c56a9f557cd6d2e1e8ed8.js?__ws=forum.parkinsons.org.uk\"></script>\n    <header>\n      <a href=\"/\">\n          <img src=\"https://forum.parkinsons.org.uk/uploads/db7928/original/2X/8/862bb7d172e7d127e7f3e147ec43594aa62ac945.png\" alt=\"Parkinson&#39;s UK Forum\" id=\"site-logo\" style=\"max-width: 150px;\">\n      </a>\n    </header>\n    <div id=\"main-outlet\" class=\"wrap\">\n      <h1>\n  <a href=\"/t/needing-help-completing-pips-mandatory-reconsideration-notice/9980\">Needing help completing PIP&#39;s Mandatory Reconsideration Notice</a>\n</h1>\n\n<div id='breadcrumbs'>\n    <div id=\"breadcrumb-0\" itemscope itemtype=\"http://data-vocabulary.org/Breadcrumb\"\n        itemref=\"breadcrumb-1\"\n      >\n      <a href=\"/c/living-with-parkinsons\" itemprop=\"url\">\n        <span itemprop=\"title\">Living with Parkinson&#39;s</span>\n      </a>\n    </div>\n    <div id=\"breadcrumb-1\" itemscope itemtype=\"http://data-vocabulary.org/Breadcrumb\"\n>\n      <a href=\"/c/living-with-parkinsons/work-benefits-and-money\" itemprop=\"url\">\n        <span itemprop=\"title\">Work, benefits and money</span>\n      </a>\n    </div>\n</div>\n\n\n\n\n\n<hr>\n\n\n  <div itemscope itemtype='http://schema.org/DiscussionForumPosting'>\n      <div class='creator'>\n        <span>\n          <a href='/u/Powrie'><b itemprop='author'>Powrie</b></a>\n          \n          <time datetime='2017-06-25T15:39:41Z' itemprop='datePublished'>\n            2017-06-25 15:39:41 UTC\n          </time>\n        </span>\n        <span itemprop='position'>#1</span>\n      </div>\n      <div class='post' itemprop='articleBody'>\n        <p>Hi All<br />\r\n\tYesterday I received my PIP&#39;s assessment result informing me that I no longer qualify for the high rate mobility and that I have been down graded to the standard rate.&nbsp; This despite the fact that I have had the DLA&nbsp; high rate mobility for the past 9 years.&nbsp; (DLA was awarded indefinitely but this doesn&#39;t seem to matter).&nbsp;&nbsp; I am stressed out and can&#39;t think straight.&nbsp; What should I write in the mandatory reconsideration notice?&nbsp; Unfortunately I do not have a copy of my original application as the person who helped me fill in the forms forgot to take a copy!<br />\r\n\tThe letter stated:<br />\r\n\tPlanning and following a journey&nbsp;&nbsp;&nbsp;&nbsp; -&nbsp;&nbsp; 0 points<br />\r\n\tMoving around&nbsp;&nbsp;&nbsp;&nbsp;&nbsp;&nbsp;&nbsp;&nbsp;&nbsp;&nbsp;&nbsp;&nbsp;&nbsp;&nbsp;&nbsp;&nbsp;&nbsp;&nbsp;&nbsp;&nbsp;&nbsp;&nbsp;&nbsp;&nbsp;&nbsp;&nbsp;&nbsp;&nbsp;&nbsp;&nbsp;&nbsp;&nbsp;&nbsp; -&nbsp; 10 points<br />\r\n\t<br />\r\n\tMoving around states - &quot;you can stand and then move using an aid or appliance more than 20 metres but no more than 50 metres&quot;&nbsp; -&nbsp; this is not so.&nbsp; I can&#39;t stand still&nbsp; for more than 10 seconds as I&nbsp; feel&nbsp;&nbsp;&nbsp; I will fall down. Can&#39;t wait in queues at check-outs for this reason.&nbsp; As for walking I think up to 10 metres is a more accurate distance. As for planning a journey - if it&#39;s somewhere new to me I have to take someone with me to do a dummy run or I wouldn&#39;t be able to go without doing this.&nbsp; I need constant reassurance.<br />\r\n\tI know many&nbsp; PWP have had big problems transferring to PIP&#39;s so I am hoping that someone may be able to help me through their own experiences.<br />\r\n\tMany thanks.<br />\r\n\tPowrie<br />\r\n\t<br />\r\n\t&nbsp;</p>\n      </div>\n      <meta itemprop='interactionCount' content='UserLikes:0'>\n      <meta itemprop='interactionCount' content='UserComments:0'>\n      <meta itemprop='headline' content='Needing help completing PIP&#39;s Mandatory Reconsideration Notice'>\n      <hr>\n  </div>\n  <div itemscope itemtype='http://schema.org/DiscussionForumPosting'>\n      <div class='creator'>\n        <span>\n          <a href='/u/benji'><b itemprop='author'>benji</b></a>\n          \n          <time datetime='2017-06-26T17:00:33Z' itemprop='datePublished'>\n            2017-06-26 17:00:33 UTC\n          </time>\n        </span>\n        <span itemprop='position'>#2</span>\n      </div>\n      <div class='post' itemprop='articleBody'>\n        <p>I would suggest phoning the helpline or contacting your local Parkinsons Information and Support worker.</p>\r\n<p>I was at a&nbsp; regional PUK meeting last week and we were told that PUK has a good success rate on such appeal processes.</p>\r\n<p>BTW, sack the person who helped you.</p>\r\n<p>&nbsp;</p>\r\n<p>Wishing you all the best.</p>\n      </div>\n      <meta itemprop='interactionCount' content='UserLikes:0'>\n      <meta itemprop='interactionCount' content='UserComments:1'>\n      <meta itemprop='headline' content='Needing help completing PIP&#39;s Mandatory Reconsideration Notice'>\n      <hr>\n  </div>\n  <div itemscope itemtype='http://schema.org/DiscussionForumPosting'>\n      <div class='creator'>\n        <span>\n          <a href='/u/babswood'><b itemprop='author'>babswood</b></a>\n          \n          <time datetime='2017-06-27T06:10:54Z' itemprop='datePublished'>\n            2017-06-27 06:10:54 UTC\n          </time>\n        </span>\n        <span itemprop='position'>#3</span>\n      </div>\n      <div class='post' itemprop='articleBody'>\n        <p><u>Hi&nbsp;</u></p>\r\n<p><u>please go to your citizens advice who will do everything for you.!!!</u></p>\n      </div>\n      <meta itemprop='interactionCount' content='UserLikes:0'>\n      <meta itemprop='interactionCount' content='UserComments:1'>\n      <meta itemprop='headline' content='Needing help completing PIP&#39;s Mandatory Reconsideration Notice'>\n      <hr>\n  </div>\n  <div itemscope itemtype='http://schema.org/DiscussionForumPosting'>\n      <div class='creator'>\n        <span>\n          <a href='/u/Powrie'><b itemprop='author'>Powrie</b></a>\n          \n          <time datetime='2017-06-28T08:30:02Z' itemprop='datePublished'>\n            2017-06-28 08:30:02 UTC\n          </time>\n        </span>\n        <span itemprop='position'>#4</span>\n      </div>\n      <div class='post' itemprop='articleBody'>\n        <p>Hi benji</p>\r\n<p><br />\r\n\tThanks for your support..I really appreciate you taking the time to help.&nbsp; I will keep you posted.</p>\r\n<p>&nbsp;</p>\r\n<p>Regards</p>\r\n<p>Powrie</p>\n      </div>\n      <meta itemprop='interactionCount' content='UserLikes:0'>\n      <meta itemprop='interactionCount' content='UserComments:0'>\n      <meta itemprop='headline' content='Needing help completing PIP&#39;s Mandatory Reconsideration Notice'>\n      <hr>\n  </div>\n  <div itemscope itemtype='http://schema.org/DiscussionForumPosting'>\n      <div class='creator'>\n        <span>\n          <a href='/u/Powrie'><b itemprop='author'>Powrie</b></a>\n          \n          <time datetime='2017-06-28T08:32:03Z' itemprop='datePublished'>\n            2017-06-28 08:32:03 UTC\n          </time>\n        </span>\n        <span itemprop='position'>#5</span>\n      </div>\n      <div class='post' itemprop='articleBody'>\n        <p>Hi Glasgow girl</p>\r\n<p>&nbsp;</p>\r\n<p>Many thanks for your reply.&nbsp; It&#39;s greatly appreciated.&nbsp; Will keep you posted.</p>\r\n<p>&nbsp;</p>\r\n<p>Regards</p>\r\n<p><br />\r\n\tPowrie</p>\n      </div>\n      <meta itemprop='interactionCount' content='UserLikes:0'>\n      <meta itemprop='interactionCount' content='UserComments:0'>\n      <meta itemprop='headline' content='Needing help completing PIP&#39;s Mandatory Reconsideration Notice'>\n      <hr>\n  </div>\n  <div itemscope itemtype='http://schema.org/DiscussionForumPosting'>\n      <div class='creator'>\n        <span>\n          <a href='/u/Trish53'><b itemprop='author'>Trish53</b></a>\n          \n          <time datetime='2017-07-02T06:56:15Z' itemprop='datePublished'>\n            2017-07-02 06:56:15 UTC\n          </time>\n        </span>\n        <span itemprop='position'>#6</span>\n      </div>\n      <div class='post' itemprop='articleBody'>\n        <p>Hi Powrie</p>\r\n<p>You have my sympathy I am going through the same process at the moment. I have been downgraded from enhanced to standard rate care on PIP despite being on high rate DLA indefinitely and am now waiting the outcome of my mandatory reconsideration request without much hope.You need to act fairly quickly to get your request in because you only have a month from the date they sent their letter not the date you received it ( which in my case took nine days !). The advice from Glasgow Girl and Benji is good, either one of these organisations will help you. Did you have to have a face to face assessment? If so you could do with ringing DWP and asking for a copy of the assessors report.&nbsp;</p>\n      </div>\n      <meta itemprop='interactionCount' content='UserLikes:0'>\n      <meta itemprop='interactionCount' content='UserComments:1'>\n      <meta itemprop='headline' content='Needing help completing PIP&#39;s Mandatory Reconsideration Notice'>\n      <hr>\n  </div>\n  <div itemscope itemtype='http://schema.org/DiscussionForumPosting'>\n      <div class='creator'>\n        <span>\n          <a href='/u/Powrie'><b itemprop='author'>Powrie</b></a>\n          \n          <time datetime='2017-07-07T11:55:07Z' itemprop='datePublished'>\n            2017-07-07 11:55:07 UTC\n          </time>\n        </span>\n        <span itemprop='position'>#7</span>\n      </div>\n      <div class='post' itemprop='articleBody'>\n        <p>Hi Trish53</p>\r\n<p><br />\r\n\tYes I had a face to face with the assessor in my home.&nbsp; I have rung the DWP asking for information regarding the mandatory reconsideration letter.&nbsp; They were actually very helpful. CAB helped me with the mandatory reconsideration letter and it has been posted off.&nbsp; This time I have copies of the letter!&nbsp; So fingers crossed&nbsp; Will keep you posted.</p>\r\n<p><br />\r\n\tPowrie</p>\n      </div>\n      <meta itemprop='interactionCount' content='UserLikes:0'>\n      <meta itemprop='interactionCount' content='UserComments:0'>\n      <meta itemprop='headline' content='Needing help completing PIP&#39;s Mandatory Reconsideration Notice'>\n      <hr>\n  </div>\n  <div itemscope itemtype='http://schema.org/DiscussionForumPosting'>\n      <div class='creator'>\n        <span>\n          <a href='/u/Island_Mike'><b itemprop='author'>Island_Mike</b></a>\n          \n          <time datetime='2017-09-16T01:04:36Z' itemprop='datePublished'>\n            2017-09-16 01:04:36 UTC\n          </time>\n        </span>\n        <span itemprop='position'>#8</span>\n      </div>\n      <div class='post' itemprop='articleBody'>\n        <p>The reason why so many people are having problems switching from DLA to PIP is that the goalposts have shifted. This is seen most in the mobility award, where specific distances are now the rule. It has to be said, on DLA, some folk with motability awards could walk a sight further than 20m. It matters little if you think that&#39;s unfair, those are the rules. You won&#39;t get higher rate mobility if you can, whether that is with sticks or not.</p>\r\n<p>Similarly, with daily living, each question on the form scores so many points. If your point score doesn&#39;t reach the higher level, you&#39;ll either get standard rate, or in some cases nothing at all.&nbsp;</p>\r\n<p>This makes assessing the degree of disablement fairly straightforward. And those same standards are applied in mandatory reconsideration, and also in appeals.&nbsp;</p>\r\n<p>It should be remembered that these awards are not meant as income replacement, they reflect the additional costs of being disabled- employing a cleaner once or twice a week, or using a taxi for the weekly shop.&nbsp;</p>\r\n<p>For info, I&#39;ve just been awarded enhanced rate mobility and standard rate daily living. Just in time - I&#39;m 65 in January.</p>\n      </div>\n      <meta itemprop='interactionCount' content='UserLikes:0'>\n      <meta itemprop='interactionCount' content='UserComments:0'>\n      <meta itemprop='headline' content='Needing help completing PIP&#39;s Mandatory Reconsideration Notice'>\n      <hr>\n  </div>\n  <div itemscope itemtype='http://schema.org/DiscussionForumPosting'>\n      <div class='creator'>\n        <span>\n          <a href='/u/Powrie'><b itemprop='author'>Powrie</b></a>\n          \n          <time datetime='2017-09-30T13:57:23Z' itemprop='datePublished'>\n            2017-09-30 13:57:23 UTC\n          </time>\n        </span>\n        <span itemprop='position'>#9</span>\n      </div>\n      <div class='post' itemprop='articleBody'>\n        <p><br />\r\n\tMandatory Reconsideration Letter</p>\r\n<p><br />\r\n\tAfter many weeks and phone calls I finally received the result of the Mandatory Reconsideration Letter.&nbsp; The DWP have awarded me the enhanced rate for both components of PIP&#39;s. I am over the moon!&nbsp; Welfare Rights people say this is rare&nbsp; and that normally the decision would be taken at a tribunal. I am to receive backdated payments also.</p>\r\n<p>Regards</p>\r\n<p>Powrie</p>\r\n<p>&nbsp;</p>\n      </div>\n      <meta itemprop='interactionCount' content='UserLikes:0'>\n      <meta itemprop='interactionCount' content='UserComments:1'>\n      <meta itemprop='headline' content='Needing help completing PIP&#39;s Mandatory Reconsideration Notice'>\n      <hr>\n  </div>\n  <div itemscope itemtype='http://schema.org/DiscussionForumPosting'>\n      <div class='creator'>\n        <span>\n          <a href='/u/babswood'><b itemprop='author'>babswood</b></a>\n          \n          <time datetime='2017-10-01T10:24:47Z' itemprop='datePublished'>\n            2017-10-01 10:24:47 UTC\n          </time>\n        </span>\n        <span itemprop='position'>#10</span>\n      </div>\n      <div class='post' itemprop='articleBody'>\n        <p><em>Hi Powrie</em></p>\r\n<p><em>Im so gld that at last common sense prevails.</em></p>\r\n<p><em>So pleased for you. But remain angry that people like us are put through this.</em></p>\r\n<p><em>Best Wishes x x x&nbsp;</em></p>\n      </div>\n      <meta itemprop='interactionCount' content='UserLikes:0'>\n      <meta itemprop='interactionCount' content='UserComments:1'>\n      <meta itemprop='headline' content='Needing help completing PIP&#39;s Mandatory Reconsideration Notice'>\n      <hr>\n  </div>\n  <div itemscope itemtype='http://schema.org/DiscussionForumPosting'>\n      <div class='creator'>\n        <span>\n          <a href='/u/sheffy'><b itemprop='author'>sheffy</b></a>\n          \n          <time datetime='2017-10-02T20:02:18Z' itemprop='datePublished'>\n            2017-10-02 20:02:18 UTC\n          </time>\n        </span>\n        <span itemprop='position'>#11</span>\n      </div>\n      <div class='post' itemprop='articleBody'>\n        <p>&nbsp;</p>\r\n<p>&nbsp;</p>\r\n<p>Hi Powrie</p>\r\n<p>&nbsp;</p>\r\n<p>Congratulations on your news , I agree with Glasgow girl very much, people with Parkinsons or any other Neurological disease should&nbsp;not&nbsp;have to go through this stress and meaning to feel degraded for something they didn&#39;t ask to have in the beginning.</p>\r\n<p>I am so pleased for you - Shefinn</p>\n      </div>\n      <meta itemprop='interactionCount' content='UserLikes:0'>\n      <meta itemprop='interactionCount' content='UserComments:1'>\n      <meta itemprop='headline' content='Needing help completing PIP&#39;s Mandatory Reconsideration Notice'>\n      <hr>\n  </div>\n  <div itemscope itemtype='http://schema.org/DiscussionForumPosting'>\n      <div class='creator'>\n        <span>\n          <a href='/u/Powrie'><b itemprop='author'>Powrie</b></a>\n          \n          <time datetime='2017-10-05T14:09:18Z' itemprop='datePublished'>\n            2017-10-05 14:09:18 UTC\n          </time>\n        </span>\n        <span itemprop='position'>#12</span>\n      </div>\n      <div class='post' itemprop='articleBody'>\n        <p>Hi Shefinn</p>\r\n<p><br />\r\n\tThank you for your kind words.&nbsp; I agree with you that the stress of going through this process is unacceptable for people with Neuro conditions. &nbsp;</p>\r\n<p>Regards</p>\r\n<p><br />\r\n\tPowrie</p>\r\n<p>&nbsp;</p>\n      </div>\n      <meta itemprop='interactionCount' content='UserLikes:0'>\n      <meta itemprop='interactionCount' content='UserComments:0'>\n      <meta itemprop='headline' content='Needing help completing PIP&#39;s Mandatory Reconsideration Notice'>\n      <hr>\n  </div>\n  <div itemscope itemtype='http://schema.org/DiscussionForumPosting'>\n      <div class='creator'>\n        <span>\n          <a href='/u/Powrie'><b itemprop='author'>Powrie</b></a>\n          \n          <time datetime='2017-10-05T14:13:08Z' itemprop='datePublished'>\n            2017-10-05 14:13:08 UTC\n          </time>\n        </span>\n        <span itemprop='position'>#13</span>\n      </div>\n      <div class='post' itemprop='articleBody'>\n        <p>Hi Glasgow Girl</p>\r\n<p>Many thanks for your kind words.&nbsp; I am so glad that it&#39;s over for now.&nbsp; When I read the letter I was delighted and felt a weight lift off my shoulders.</p>\r\n<p><br />\r\n\tRegards</p>\r\n<p>Powrie</p>\n      </div>\n      <meta itemprop='interactionCount' content='UserLikes:0'>\n      <meta itemprop='interactionCount' content='UserComments:0'>\n      <meta itemprop='headline' content='Needing help completing PIP&#39;s Mandatory Reconsideration Notice'>\n      <hr>\n  </div>\n\n\n\n\n\n\n    </div>\n    <footer class=\"container\">\n      <nav class='crawler-nav' itemscope itemtype='http://schema.org/SiteNavigationElement'>\n        <a href='/'>Home</a>\n        <a href=\"/categories\">Categories</a>\n        <a href=\"/guidelines\">FAQ/Guidelines</a>\n        <a href=\"/tos\">Terms of Service</a>\n        <a href=\"/privacy\">Privacy Policy</a>\n      </nav>\n      <p class='powered-by-link'>Powered by <a href=\"https://www.discourse.org\">Discourse</a>, best viewed with JavaScript enabled</p>\n    </footer>\n    \n  </body>\n  \n</html>\n",
  "url": "https://forum.parkinsons.org.uk/t/needing-help-completing-pips-mandatory-reconsideration-notice/9980"
}