{
  "contentId": "cd44b0e0-886b-11e9-8f96-97f71b5221d6",
  "html": "<!DOCTYPE html>\n<html lang=\"en\">\n  <head>\n    <meta charset=\"utf-8\">\n    <title>Should’ve been a gunslinger - Symptoms - Parkinson&#39;s UK Forum</title>\n    <meta name=\"description\" content=\"“Gunslinger’s gait”: a new cause of unilaterally unilaterally reduced arm swing. BMJ Online 351:h6141 · Dec. 2015 R.Araujo, J.J.Ferreira, A.Antonini, B.Bloem \n“…an asymmetrically reduced arm swing …can be the earliest &amp;hellip;\">\n    <meta name=\"author\" content=\"\">\n<meta name=\"generator\" content=\"Discourse 2.2.5 - https://github.com/discourse/discourse version c294ff3609f988dcafb742e91606d60ca13b794d\">\n<link rel=\"icon\" type=\"image/png\" href=\"https://forum.parkinsons.org.uk/uploads/db7928/original/2X/3/311fc84f89f49f38601a2f16b295b6f03d3ce5dd.jpg\">\n<link rel=\"apple-touch-icon\" type=\"image/png\" href=\"https://forum.parkinsons.org.uk/uploads/db7928/original/2X/3/311fc84f89f49f38601a2f16b295b6f03d3ce5dd.jpg\">\n<meta name=\"theme-color\" content=\"#ffffff\">\n<meta name=\"viewport\" content=\"width=device-width, minimum-scale=1.0, maximum-scale=1.0, user-scalable=yes\">\n<link rel=\"canonical\" href=\"https://forum.parkinsons.org.uk/t/should-ve-been-a-gunslinger/18198\" />\n<script type=\"application/ld+json\">{\"@context\":\"http://schema.org\",\"@type\":\"WebSite\",\"url\":\"https://forum.parkinsons.org.uk\",\"potentialAction\":{\"@type\":\"SearchAction\",\"target\":\"https://forum.parkinsons.org.uk/search?q={search_term_string}\",\"query-input\":\"required name=search_term_string\"}}</script>\n<link rel=\"search\" type=\"application/opensearchdescription+xml\" href=\"https://forum.parkinsons.org.uk/opensearch.xml\" title=\"Parkinson&#39;s UK Forum Search\">\n\n      <link href=\"/stylesheets/desktop_f99246ae801b083d3e4cca979d0dade8615b39ac.css?__ws=forum.parkinsons.org.uk\" media=\"all\" rel=\"stylesheet\" data-target=\"desktop\" data-theme-id=\"12\"/>\n      <link href=\"/stylesheets/desktop_theme_12_5d27531cf43f9df0c03a6a6ec3109dd05f9dfc49.css?__ws=forum.parkinsons.org.uk\" media=\"all\" rel=\"stylesheet\" data-target=\"desktop_theme\" data-theme-id=\"12\"/>\n    <link href=\"https://fonts.googleapis.com/css?family=Open+Sans\" rel=\"stylesheet\">\n\n    <meta id=\"data-ga-universal-analytics\" data-tracking-code=\"UA-4855628-1\" data-json=\"{&quot;cookieDomain&quot;:&quot;auto&quot;}\" data-auto-link-domains=\"\">\n\n<link rel='preload' href='/assets/google-universal-analytics-f35b4da49411e6f5559073523aab983da483976a3954c79c756f8579f6fbd6ef.js' as='script'/>\n<script src='/assets/google-universal-analytics-f35b4da49411e6f5559073523aab983da483976a3954c79c756f8579f6fbd6ef.js'></script>\n\n      <link rel=\"alternate\" type=\"application/rss+xml\" title=\"RSS feed of &#39;Should’ve been a gunslinger&#39;\" href=\"https://forum.parkinsons.org.uk/t/should-ve-been-a-gunslinger/18198.rss\" />\n  <meta property=\"og:site_name\" content=\"Parkinson&#39;s UK Forum\" />\n<meta name=\"twitter:card\" content=\"summary\" />\n<meta name=\"twitter:image\" content=\"https://forum.parkinsons.org.uk/uploads/db7928/original/2X/3/311fc84f89f49f38601a2f16b295b6f03d3ce5dd.jpg\" />\n<meta property=\"og:image\" content=\"https://forum.parkinsons.org.uk/uploads/db7928/original/2X/3/311fc84f89f49f38601a2f16b295b6f03d3ce5dd.jpg\" />\n<meta property=\"og:url\" content=\"https://forum.parkinsons.org.uk/t/should-ve-been-a-gunslinger/18198\" />\n<meta name=\"twitter:url\" content=\"https://forum.parkinsons.org.uk/t/should-ve-been-a-gunslinger/18198\" />\n<meta property=\"og:title\" content=\"Should’ve been a gunslinger\" />\n<meta name=\"twitter:title\" content=\"Should’ve been a gunslinger\" />\n<meta property=\"og:description\" content=\"“Gunslinger’s gait”: a new cause of unilaterally unilaterally reduced arm swing. BMJ Online 351:h6141 · Dec. 2015 R.Araujo, J.J.Ferreira, A.Antonini, B.Bloem  “…an asymmetrically reduced arm swing …can be the earliest presenting sign of Parkinson’s disease…  We propose that this new gait pattern, which we term “gunslinger’s gait,” may result from a behavioural adaptation, possibly triggered by KGB or other forms of weapons training where trainees are taught to keep their right hand close to th...\" />\n<meta name=\"twitter:description\" content=\"“Gunslinger’s gait”: a new cause of unilaterally unilaterally reduced arm swing. BMJ Online 351:h6141 · Dec. 2015 R.Araujo, J.J.Ferreira, A.Antonini, B.Bloem  “…an asymmetrically reduced arm swing …can be the earliest presenting sign of Parkinson’s disease…  We propose that this new gait pattern, which we term “gunslinger’s gait,” may result from a behavioural adaptation, possibly triggered by KGB or other forms of weapons training where trainees are taught to keep their right hand close to th...\" />\n<meta property=\"article:published_time\" content=\"2019-03-01T10:09:14+00:00\" />\n<meta property=\"og:ignore_canonical\" content=\"true\" />\n\n\n\n    \n  </head>\n  <body class=\"crawler\">\n    <header role=\"banner\">\n    <div class=\"region region-header\">\n        <div class=\"region-header-wrapper\">\n            <div id=\"block-parkinsons-d8-branding\" class=\"block block-system block-system-branding-block\">\n                <a href=\"/\" title=\"Home\" rel=\"home\" class=\"site-logo\">\n                    <img src=\"https://forum.parkinsons.org.uk/uploads/db7928/original/2X/8/862bb7d172e7d127e7f3e147ec43594aa62ac945.png\" alt=\"Parkinson's UK. Change Attitudes. Find a cure. Join us.\">\n                </a>\n            </div>\n            <div id=\"block-helpline\" class=\"block block-block-content block-block-content871cd5af-b938-4947-9dc0-d5c211d08fe3 style-phone\">\n                <div class=\"field field--name-field-link field--type-link field--label-hidden field__item\"><a href=\"tel:+448088000303\">Helpline 0808 800 0303</a></div>\n            </div>\n            <div id=\"block-shop\" class=\"block block-block-content block-block-content6fba5ae5-7797-49cd-8367-f321d8111cd6 style-regular\">\n                <div class=\"field field--name-field-link field--type-link field--label-hidden field__item\"><a href=\"https://shop.parkinsons.org.uk\">Shop</a></div>\n            </div>\n        </div>\n    </div>\n</header>\n\n\n<script src=\"/theme-javascripts/b7e9763fcb584fc8265c56a9f557cd6d2e1e8ed8.js?__ws=forum.parkinsons.org.uk\"></script>\n    <header>\n      <a href=\"/\">\n          <img src=\"https://forum.parkinsons.org.uk/uploads/db7928/original/2X/8/862bb7d172e7d127e7f3e147ec43594aa62ac945.png\" alt=\"Parkinson&#39;s UK Forum\" id=\"site-logo\" style=\"max-width: 150px;\">\n      </a>\n    </header>\n    <div id=\"main-outlet\" class=\"wrap\">\n      <h1>\n  <a href=\"/t/should-ve-been-a-gunslinger/18198\">Should’ve been a gunslinger</a>\n</h1>\n\n<div id='breadcrumbs'>\n    <div id=\"breadcrumb-0\" itemscope itemtype=\"http://data-vocabulary.org/Breadcrumb\"\n        itemref=\"breadcrumb-1\"\n      >\n      <a href=\"/c/about-parkinsons-and-health\" itemprop=\"url\">\n        <span itemprop=\"title\">About Parkinson&#39;s and health</span>\n      </a>\n    </div>\n    <div id=\"breadcrumb-1\" itemscope itemtype=\"http://data-vocabulary.org/Breadcrumb\"\n>\n      <a href=\"/c/about-parkinsons-and-health/symptoms\" itemprop=\"url\">\n        <span itemprop=\"title\">Symptoms</span>\n      </a>\n    </div>\n</div>\n\n\n\n\n\n<hr>\n\n\n  <div itemscope itemtype='http://schema.org/DiscussionForumPosting'>\n      <div class='creator'>\n        <span>\n          <a href='/u/Appletree'><b itemprop='author'>Appletree</b></a>\n          \n          <time datetime='2019-03-01T10:09:14Z' itemprop='datePublished'>\n            2019-03-01 10:09:14 UTC\n          </time>\n        </span>\n        <span itemprop='position'>#1</span>\n      </div>\n      <div class='post' itemprop='articleBody'>\n        <aside class=\"onebox pdf\">\n  <header class=\"source\">\n      <a href=\"https://core.ac.uk/download/pdf/94982300.pdf\" target=\"_blank\" rel=\"nofollow noopener\">core.ac.uk</a>\n  </header>\n  <article class=\"onebox-body\">\n    <a href=\"https://core.ac.uk/download/pdf/94982300.pdf\" target=\"_blank\" rel=\"nofollow noopener\"><span class=\"pdf-onebox-logo\"></span></a>\n<h3><a href=\"https://core.ac.uk/download/pdf/94982300.pdf\" target=\"_blank\" rel=\"nofollow noopener\">94982300.pdf</a></h3>\n\n<p class=\"filesize\">652.00 KB</p>\n\n  </article>\n  <div class=\"onebox-metadata\">\n    \n    \n  </div>\n  <div style=\"clear: both\"></div>\n</aside>\n\n<p>“Gunslinger’s gait”: a new cause of unilaterally unilaterally reduced arm swing. BMJ Online 351:h6141 · Dec. 2015 R.Araujo, J.J.Ferreira, A.Antonini, B.Bloem</p>\n<p>“…an asymmetrically reduced arm swing …can be the earliest presenting sign of Parkinson’s disease…</p>\n<p>We propose that this new gait pattern, which we term “gunslinger’s gait,” may result from a behavioural adaptation, possibly triggered by KGB or other forms of weapons training where trainees are taught to keep their right hand close to the chest while walking, allowing them to quickly draw a gun when faced with a foe. This should be included in the differential diagnosis of a unilaterally reduced arm swing.”</p>\n<p>—=-</p>\n<p>In October 2002 I had been told that I had a ‘tic’. The report from this first appointment with a movement disorder specialist noted Dystonia, Myoclonus and Chorea.</p>\n<p>In December 2002 I was given a drug called Sulpiride.</p>\n<p>By mid-September 2003 the physiotherapist noted the following <strong>: s</strong> tiff right elbow , ache in right shoulder blade,</p>\n<p>bilateral shoulder pain, chest pain, difficulty walking, tension in shoulder, food gets stuck at back of tongue , can go down wrong way, choking, stiffness in arms/neck worse when walking, neck pain, tightness right side of neck</p>\n<p>neck flexed, right arm flexed at elbow, bilateral shoulder girdles elevated, no armswing right.</p>\n<p>By January 2004 the speech therapist had also noted drooling and another physio noted reduced trunk rotation.</p>\n<p>No-one told me anything about tardive dyskinesia or parkinsonism</p>\n<p><strong>Sulpiride in tardive dyskinesia</strong> . <a href=\"https://www.ncbi.nlm.nih.gov/pubmed/?term=Casey%20DE%5BAuthor%5D&amp;cauthor=true&amp;cauthor_uid=44375\" rel=\"nofollow noopener\">Casey DE</a>, <a href=\"https://www.ncbi.nlm.nih.gov/pubmed/?term=Gerlach%20J%5BAuthor%5D&amp;cauthor=true&amp;cauthor_uid=44375\" rel=\"nofollow noopener\">Gerlach J</a>, <a href=\"https://www.ncbi.nlm.nih.gov/pubmed/?term=Simmelsgaard%20H%5BAuthor%5D&amp;cauthor=true&amp;cauthor_uid=44375\" rel=\"nofollow noopener\">Simmelsgaard H</a>. <a href=\"https://www.ncbi.nlm.nih.gov/pubmed/44375\" rel=\"nofollow noopener\">Psychopharmacology (Berl).</a> 1979;66(1):73-7.</p>\n<p>Tardive dyskinesia can be suppressed by drugs that block dopaminergic receptors, but often at the cost of a concomitant increase in parkinsonism.</p>\n<p><strong>Tiapride in levodopa-induced involuntary movements</strong> A.J. LEES, C. M. LANDER, AND G.M.STERN  Journal of Neurology, Neurosurgery,and Psychiatry, 1979, 42, 380-383</p>\n<p>The therapeutic possibilities of selective dopamine receptor blockade led to the use of haloperidol (Klawans and Weiner,1974) and pimozide (Tarsy et al., 1975) in the treatment of levodopa-induced peak dose dyskinesias.</p>\n<p>Both drugs effectively suppressed involuntary movements but caused an unacceptable increase in disability</p>\n<p>from Parkinsonism.</p>\n<p><strong>A double blind trial of sulpiride in Huntington’s disease and tardive dyskinesia</strong> N Quinn and CD Marsden Journal of Neurology, Neurosurgery, and Psychiatry, 1984, Vol 47, 844-847</p>\n<p>The low incidence of drug-induced parkinsonism in Huntington’s disease patients may simply be a reflection of the difficulty of recognizing it in the presence of marked chorea</p>\n<p>By contrast, signs of emerging or worsening parkinsonism were seen in seven of the nine tardive dyskinesia patients.</p>\n<p>In five of them it was evident after only two weeks treatment with sulpiride</p>\n<p><strong>The dystonias</strong> .C.D.Marsden and N.P.Quinn. BMJ 1990 Jan 20; 300(6718): 139–144.</p>\n<p>Dopamine receptor agonists or neuroleptics or such as phenothiazines, haloperidol, or pimozide are also sometimes useful. Often they act non-specifically, damping down excessive movements by causing a degree of drug-induced parkinsonism; there is also the risk of adding a tardive dyskinesia to the dystonia.</p>\n<p><strong>Parkinson’s Disease and other Movement Disorders</strong>  M.J Edwards, M. Stamelou, N.Quinn, K.P Bhatia OUP 2016</p>\n<p>p.129 Sulpiride Main side effects: extrapyramidal side effects (parkinsonism, acute dystonic reactions, tardive dyskinesia, akathisia) …Neuroleptic malignant syndrome is a rare, but important side effect</p>\n      </div>\n      <meta itemprop='interactionCount' content='UserLikes:0'>\n      <meta itemprop='interactionCount' content='UserComments:0'>\n      <meta itemprop='headline' content='Should’ve been a gunslinger'>\n      <hr>\n  </div>\n  <div itemscope itemtype='http://schema.org/DiscussionForumPosting'>\n      <div class='creator'>\n        <span>\n          <a href='/u/Omahatom'><b itemprop='author'>Omahatom</b></a>\n          \n          <time datetime='2019-03-01T11:39:42Z' itemprop='datePublished'>\n            2019-03-01 11:39:42 UTC\n          </time>\n        </span>\n        <span itemprop='position'>#2</span>\n      </div>\n      <div class='post' itemprop='articleBody'>\n        <p>Appletree<br>\nProbably where I am from. Students studying to be movement specialists must be taking  medicine for anxiety. (gunslinger syndrome)  Good thing the only guns I own were 12Ga shoot guns for bird hunting with the dogs. (hunting done now) That way I got the proper assessment while walking. And the CIA had no reason to keep an eye on me.<br>\nThe article made me remember once before diagnosis my wife and I went to a party. Wife RN intensive care at that time.  Without me realizing it a student that was at the party, excepted in a movement specialist program observed my walk and posture.</p>\n<p>In a short time the student introduced himself to my wife and I.  He continued a conversation asking me how long I had parkinson’s?   Not ever hearing that and only being told my physical problems were from sports injuries.(general family doctor)</p>\n<p>I wish at that time I could of told him he was incorrect.  That it was just that I was Former KGB.  Well now I have really messed up!  Our government has words that if you say them on your computer you are put on a watch list. LOL</p>\n<p>Now I have messed up again.  I bet the UK has the same program!  Apple tree you are now on their watch list. (sorry)</p>\n<p>Keep fighting Parkinson’s  and thanks for posting the study.   Tom</p>\n      </div>\n      <meta itemprop='interactionCount' content='UserLikes:0'>\n      <meta itemprop='interactionCount' content='UserComments:0'>\n      <meta itemprop='headline' content='Should’ve been a gunslinger'>\n      <hr>\n  </div>\n  <div itemscope itemtype='http://schema.org/DiscussionForumPosting'>\n      <div class='creator'>\n        <span>\n          <a href='/u/Appletree'><b itemprop='author'>Appletree</b></a>\n          \n          <time datetime='2019-03-02T10:20:24Z' itemprop='datePublished'>\n            2019-03-02 10:20:24 UTC\n          </time>\n        </span>\n        <span itemprop='position'>#3</span>\n      </div>\n      <div class='post' itemprop='articleBody'>\n        <p>That’s how our Billy Connolly found out about parkinson’s - someone just came up to him</p>\n<aside class=\"onebox whitelistedgeneric\">\n  <header class=\"source\">\n      <img src=\"https://www.dailymail.co.uk/favicon.ico?v=2\" class=\"site-icon\" width=\"48\" height=\"48\">\n      <a href=\"https://www.dailymail.co.uk/tvshowbiz/article-2566601/Billy-Connolly-discovered-Parkinsons-disease-Australian-fan-spotted-odd-walk-told-tested.html\" target=\"_blank\" title=\"12:18PM - 24 February 2014\" rel=\"nofollow noopener\">Mail Online – 24 Feb 14</a>\n  </header>\n  <article class=\"onebox-body\">\n    <div class=\"aspect-image\" style=\"--aspect-ratio:636/382;\"><img src=\"https://forum.parkinsons.org.uk/uploads/db7928/original/2X/2/2be5cee14f2cd2c36f5d145283fc1bad503ef3a0.jpeg\" class=\"thumbnail\"></div>\n\n<h3><a href=\"https://www.dailymail.co.uk/tvshowbiz/article-2566601/Billy-Connolly-discovered-Parkinsons-disease-Australian-fan-spotted-odd-walk-told-tested.html\" target=\"_blank\" rel=\"nofollow noopener\">Billy Connolly discovered he had Parkinson's disease through a fan</a></h3>\n\n<p>The 71-year-old Scottish star told how a Tasmanian doctor diagnosed him on the spot after seeing him walking through a hotel lobby.</p>\n\n\n  </article>\n  <div class=\"onebox-metadata\">\n    \n    \n  </div>\n  <div style=\"clear: both\"></div>\n</aside>\n\n<p>And talking of humour – the secret weapon  in the parkinsonian armamentarium. This is what I grew up with:</p>\n<p>Monty Python the fish slapping dance</p>\n<div class=\"lazyYT\" data-youtube-id=\"T8XeDvKqI4E\" data-youtube-title=\"Monty Python - The Fish Slapping Dance\" data-width=\"480\" data-height=\"270\" data-parameters=\"feature=oembed&amp;wmode=opaque\"></div>\n      </div>\n      <meta itemprop='interactionCount' content='UserLikes:0'>\n      <meta itemprop='interactionCount' content='UserComments:0'>\n      <meta itemprop='headline' content='Should’ve been a gunslinger'>\n      <hr>\n  </div>\n  <div itemscope itemtype='http://schema.org/DiscussionForumPosting'>\n      <div class='creator'>\n        <span>\n          <a href='/u/Omahatom'><b itemprop='author'>Omahatom</b></a>\n          \n          <time datetime='2019-03-02T11:36:28Z' itemprop='datePublished'>\n            2019-03-02 11:36:28 UTC\n          </time>\n        </span>\n        <span itemprop='position'>#4</span>\n      </div>\n      <div class='post' itemprop='articleBody'>\n        <p>Appletree<br>\nWe used to get Benny Hill here in the states. Loved his show. Some of his skits would of not been liked by the Pope.<br>\nBut I laughed at them on Late Saturday evenings.  And on Sunday I visited the confessional.  I think the priest may have been upset when I was on vacation. Because he would miss that weeks show!   Tom</p>\n      </div>\n      <meta itemprop='interactionCount' content='UserLikes:0'>\n      <meta itemprop='interactionCount' content='UserComments:0'>\n      <meta itemprop='headline' content='Should’ve been a gunslinger'>\n      <hr>\n  </div>\n\n\n\n\n\n\n    </div>\n    <footer class=\"container\">\n      <nav class='crawler-nav' itemscope itemtype='http://schema.org/SiteNavigationElement'>\n        <a href='/'>Home</a>\n        <a href=\"/categories\">Categories</a>\n        <a href=\"/guidelines\">FAQ/Guidelines</a>\n        <a href=\"/tos\">Terms of Service</a>\n        <a href=\"/privacy\">Privacy Policy</a>\n      </nav>\n      <p class='powered-by-link'>Powered by <a href=\"https://www.discourse.org\">Discourse</a>, best viewed with JavaScript enabled</p>\n    </footer>\n    \n  </body>\n  \n</html>\n",
  "url": "https://forum.parkinsons.org.uk/t/should-ve-been-a-gunslinger/18198"
}