{
  "contentId": "458b3fb0-886c-11e9-8f96-97f71b5221d6",
  "html": "<!DOCTYPE html>\n<html lang=\"en\">\n  <head>\n    <meta charset=\"utf-8\">\n    <title>Latest Work, benefits and money topics - Parkinson&#39;s UK Forum</title>\n    <meta name=\"description\" content=\"Parkinson&#39;s UK Forum\">\n    <meta name=\"author\" content=\"\">\n<meta name=\"generator\" content=\"Discourse 2.2.5 - https://github.com/discourse/discourse version c294ff3609f988dcafb742e91606d60ca13b794d\">\n<link rel=\"icon\" type=\"image/png\" href=\"https://forum.parkinsons.org.uk/uploads/db7928/original/2X/3/311fc84f89f49f38601a2f16b295b6f03d3ce5dd.jpg\">\n<link rel=\"apple-touch-icon\" type=\"image/png\" href=\"https://forum.parkinsons.org.uk/uploads/db7928/original/2X/3/311fc84f89f49f38601a2f16b295b6f03d3ce5dd.jpg\">\n<meta name=\"theme-color\" content=\"#ffffff\">\n<meta name=\"viewport\" content=\"width=device-width, minimum-scale=1.0, maximum-scale=1.0, user-scalable=yes\">\n<link rel=\"canonical\" href=\"https://forum.parkinsons.org.uk/c/living-with-parkinsons/work-benefits-and-money\" />\n<script type=\"application/ld+json\">{\"@context\":\"http://schema.org\",\"@type\":\"WebSite\",\"url\":\"https://forum.parkinsons.org.uk\",\"potentialAction\":{\"@type\":\"SearchAction\",\"target\":\"https://forum.parkinsons.org.uk/search?q={search_term_string}\",\"query-input\":\"required name=search_term_string\"}}</script>\n<link rel=\"search\" type=\"application/opensearchdescription+xml\" href=\"https://forum.parkinsons.org.uk/opensearch.xml\" title=\"Parkinson&#39;s UK Forum Search\">\n\n      <link href=\"/stylesheets/desktop_f99246ae801b083d3e4cca979d0dade8615b39ac.css?__ws=forum.parkinsons.org.uk\" media=\"all\" rel=\"stylesheet\" data-target=\"desktop\" data-theme-id=\"12\"/>\n      <link href=\"/stylesheets/desktop_theme_12_5d27531cf43f9df0c03a6a6ec3109dd05f9dfc49.css?__ws=forum.parkinsons.org.uk\" media=\"all\" rel=\"stylesheet\" data-target=\"desktop_theme\" data-theme-id=\"12\"/>\n    <link href=\"https://fonts.googleapis.com/css?family=Open+Sans\" rel=\"stylesheet\">\n\n    <meta id=\"data-ga-universal-analytics\" data-tracking-code=\"UA-4855628-1\" data-json=\"{&quot;cookieDomain&quot;:&quot;auto&quot;}\" data-auto-link-domains=\"\">\n\n<link rel='preload' href='/assets/google-universal-analytics-f35b4da49411e6f5559073523aab983da483976a3954c79c756f8579f6fbd6ef.js' as='script'/>\n<script src='/assets/google-universal-analytics-f35b4da49411e6f5559073523aab983da483976a3954c79c756f8579f6fbd6ef.js'></script>\n\n        <link rel=\"next\" href=\"/c/living-with-parkinsons/work-benefits-and-money/l/latest?no_subcategories=false&amp;page=1\">\n    <link rel=\"alternate\" type=\"application/rss+xml\" title=\"Latest posts\" href=\"https://forum.parkinsons.org.uk/posts.rss\" />\n    <link rel=\"alternate\" type=\"application/rss+xml\" title=\"Latest topics\" href=\"https://forum.parkinsons.org.uk/latest.rss\" />\n    <link rel=\"alternate\" type=\"application/rss+xml\" title=\"RSS feed of topics in the &#39;Work, benefits and money&#39; category\" href=\"https://forum.parkinsons.org.uk/c/living-with-parkinsons/work-benefits-and-money.rss\" />\n    <meta property=\"og:site_name\" content=\"Parkinson&#39;s UK Forum\" />\n<meta name=\"twitter:card\" content=\"summary\" />\n<meta name=\"twitter:image\" content=\"https://forum.parkinsons.org.uk/uploads/db7928/original/2X/3/311fc84f89f49f38601a2f16b295b6f03d3ce5dd.jpg\" />\n<meta property=\"og:image\" content=\"https://forum.parkinsons.org.uk/uploads/db7928/original/2X/3/311fc84f89f49f38601a2f16b295b6f03d3ce5dd.jpg\" />\n<meta property=\"og:url\" content=\"https://forum.parkinsons.org.uk/c/living-with-parkinsons/work-benefits-and-money/l/latest?no_subcategories=false\" />\n<meta name=\"twitter:url\" content=\"https://forum.parkinsons.org.uk/c/living-with-parkinsons/work-benefits-and-money/l/latest?no_subcategories=false\" />\n<meta property=\"og:title\" content=\"Work, benefits and money\" />\n<meta name=\"twitter:title\" content=\"Work, benefits and money\" />\n\n\n    \n  </head>\n  <body class=\"crawler\">\n    <header role=\"banner\">\n    <div class=\"region region-header\">\n        <div class=\"region-header-wrapper\">\n            <div id=\"block-parkinsons-d8-branding\" class=\"block block-system block-system-branding-block\">\n                <a href=\"/\" title=\"Home\" rel=\"home\" class=\"site-logo\">\n                    <img src=\"https://forum.parkinsons.org.uk/uploads/db7928/original/2X/8/862bb7d172e7d127e7f3e147ec43594aa62ac945.png\" alt=\"Parkinson's UK. Change Attitudes. Find a cure. Join us.\">\n                </a>\n            </div>\n            <div id=\"block-helpline\" class=\"block block-block-content block-block-content871cd5af-b938-4947-9dc0-d5c211d08fe3 style-phone\">\n                <div class=\"field field--name-field-link field--type-link field--label-hidden field__item\"><a href=\"tel:+448088000303\">Helpline 0808 800 0303</a></div>\n            </div>\n            <div id=\"block-shop\" class=\"block block-block-content block-block-content6fba5ae5-7797-49cd-8367-f321d8111cd6 style-regular\">\n                <div class=\"field field--name-field-link field--type-link field--label-hidden field__item\"><a href=\"https://shop.parkinsons.org.uk\">Shop</a></div>\n            </div>\n        </div>\n    </div>\n</header>\n\n\n<script src=\"/theme-javascripts/b7e9763fcb584fc8265c56a9f557cd6d2e1e8ed8.js?__ws=forum.parkinsons.org.uk\"></script>\n    <header>\n      <a href=\"/\">\n          <img src=\"https://forum.parkinsons.org.uk/uploads/db7928/original/2X/8/862bb7d172e7d127e7f3e147ec43594aa62ac945.png\" alt=\"Parkinson&#39;s UK Forum\" id=\"site-logo\" style=\"max-width: 150px;\">\n      </a>\n    </header>\n    <div id=\"main-outlet\" class=\"wrap\">\n      \n\n\n\n  <h1>\n      <a itemprop=\"item\" href=\"/c/living-with-parkinsons\">\n        <span itemprop='name'>Living with Parkinson&#39;s</span>\n</a>      &nbsp;\n\n    <a itemprop=\"item\" href=\"/c/living-with-parkinsons/work-benefits-and-money\">\n      <span itemprop='name'>Work, benefits and money</span>\n</a>  </h1>\n  <br/>\n\n\n<div class='topic-list' itemscope itemtype='http://schema.org/ItemList'>\n  <meta itemprop='itemListOrder' content='http://schema.org/ItemListOrderDescending'>\n    <div itemprop='itemListElement' itemscope itemtype='http://schema.org/ListItem'>\n      <meta itemprop='position' content='0'>\n      <meta itemprop='url' content='https://forum.parkinsons.org.uk/t/about-the-work-benefit-and-money-category/16196'>\n      <a href='https://forum.parkinsons.org.uk/t/about-the-work-benefit-and-money-category/16196'>\n        <span itemprop='name'>About the Work, Benefit and Money Category</span>\n      </a>\n      <span class=\"page-links\"></span>\n      <span class='posts' title='posts'>(3)</span>\n\n        <p class='excerpt'>\n          This forum is for discussion of work-related issues, such as continuing to work after your diagnosis, coping with your job, or informing your employers about Parkinson’s. It’s also about the options available to you if y&hellip;\n        </p>\n    </div>\n    <div itemprop='itemListElement' itemscope itemtype='http://schema.org/ListItem'>\n      <meta itemprop='position' content='1'>\n      <meta itemprop='url' content='https://forum.parkinsons.org.uk/t/about-the-work-benefits-and-money-category/30'>\n      <a href='https://forum.parkinsons.org.uk/t/about-the-work-benefits-and-money-category/30'>\n        <span itemprop='name'>About the Work, benefits and money category</span>\n      </a>\n      <span class=\"page-links\"></span>\n      <span class='posts' title='posts'>(1)</span>\n\n    </div>\n    <div itemprop='itemListElement' itemscope itemtype='http://schema.org/ListItem'>\n      <meta itemprop='position' content='2'>\n      <meta itemprop='url' content='https://forum.parkinsons.org.uk/t/about-the-work-benefits-and-money-forum/6662'>\n      <a href='https://forum.parkinsons.org.uk/t/about-the-work-benefits-and-money-forum/6662'>\n        <span itemprop='name'>About the Work, benefits and money forum</span>\n      </a>\n      <span class=\"page-links\"></span>\n      <span class='posts' title='posts'>(1)</span>\n\n    </div>\n    <div itemprop='itemListElement' itemscope itemtype='http://schema.org/ListItem'>\n      <meta itemprop='position' content='3'>\n      <meta itemprop='url' content='https://forum.parkinsons.org.uk/t/trustee-elections-could-you-be-our-next-trustee/19578'>\n      <a href='https://forum.parkinsons.org.uk/t/trustee-elections-could-you-be-our-next-trustee/19578'>\n        <span itemprop='name'>Trustee Elections – could you be our next trustee?</span>\n      </a>\n      <span class=\"page-links\"></span>\n      <span class='posts' title='posts'>(1)</span>\n\n    </div>\n    <div itemprop='itemListElement' itemscope itemtype='http://schema.org/ListItem'>\n      <meta itemprop='position' content='4'>\n      <meta itemprop='url' content='https://forum.parkinsons.org.uk/t/retirement/19537'>\n      <a href='https://forum.parkinsons.org.uk/t/retirement/19537'>\n        <span itemprop='name'>Retirement</span>\n      </a>\n      <span class=\"page-links\"></span>\n      <span class='posts' title='posts'>(4)</span>\n\n    </div>\n    <div itemprop='itemListElement' itemscope itemtype='http://schema.org/ListItem'>\n      <meta itemprop='position' content='5'>\n      <meta itemprop='url' content='https://forum.parkinsons.org.uk/t/work-and-parkinson-s/19492'>\n      <a href='https://forum.parkinsons.org.uk/t/work-and-parkinson-s/19492'>\n        <span itemprop='name'>Work and Parkinson’s</span>\n      </a>\n      <span class=\"page-links\"></span>\n      <span class='posts' title='posts'>(2)</span>\n\n    </div>\n    <div itemprop='itemListElement' itemscope itemtype='http://schema.org/ListItem'>\n      <meta itemprop='position' content='6'>\n      <meta itemprop='url' content='https://forum.parkinsons.org.uk/t/help-with-applying-for-pip/19125'>\n      <a href='https://forum.parkinsons.org.uk/t/help-with-applying-for-pip/19125'>\n        <span itemprop='name'>Help with applying for pip</span>\n      </a>\n      <span class=\"page-links\"></span>\n      <span class='posts' title='posts'>(11)</span>\n\n    </div>\n    <div itemprop='itemListElement' itemscope itemtype='http://schema.org/ListItem'>\n      <meta itemprop='position' content='7'>\n      <meta itemprop='url' content='https://forum.parkinsons.org.uk/t/pip-awards/19364'>\n      <a href='https://forum.parkinsons.org.uk/t/pip-awards/19364'>\n        <span itemprop='name'>PIP Awards</span>\n      </a>\n      <span class=\"page-links\"></span>\n      <span class='posts' title='posts'>(10)</span>\n\n    </div>\n    <div itemprop='itemListElement' itemscope itemtype='http://schema.org/ListItem'>\n      <meta itemprop='position' content='8'>\n      <meta itemprop='url' content='https://forum.parkinsons.org.uk/t/meds/18984'>\n      <a href='https://forum.parkinsons.org.uk/t/meds/18984'>\n        <span itemprop='name'>Meds</span>\n      </a>\n      <span class=\"page-links\"></span>\n      <span class='posts' title='posts'>(1)</span>\n\n    </div>\n    <div itemprop='itemListElement' itemscope itemtype='http://schema.org/ListItem'>\n      <meta itemprop='position' content='9'>\n      <meta itemprop='url' content='https://forum.parkinsons.org.uk/t/paying-for-meds/18968'>\n      <a href='https://forum.parkinsons.org.uk/t/paying-for-meds/18968'>\n        <span itemprop='name'>Paying for meds</span>\n      </a>\n      <span class=\"page-links\"></span>\n      <span class='posts' title='posts'>(1)</span>\n\n    </div>\n    <div itemprop='itemListElement' itemscope itemtype='http://schema.org/ListItem'>\n      <meta itemprop='position' content='10'>\n      <meta itemprop='url' content='https://forum.parkinsons.org.uk/t/attendance-allowance/10277'>\n      <a href='https://forum.parkinsons.org.uk/t/attendance-allowance/10277'>\n        <span itemprop='name'>Attendance allowance</span>\n      </a>\n      <span class=\"page-links\"></span>\n      <span class='posts' title='posts'>(10)</span>\n\n    </div>\n    <div itemprop='itemListElement' itemscope itemtype='http://schema.org/ListItem'>\n      <meta itemprop='position' content='11'>\n      <meta itemprop='url' content='https://forum.parkinsons.org.uk/t/hello-and-a-question/8438'>\n      <a href='https://forum.parkinsons.org.uk/t/hello-and-a-question/8438'>\n        <span itemprop='name'>Hello, and a question</span>\n      </a>\n      <span class=\"page-links\">( <a href='/t/hello-and-a-question/8438?page=2'>2</a>  <a href='/t/hello-and-a-question/8438?page=3'>3</a> )</span>\n      <span class='posts' title='posts'>(45)</span>\n\n    </div>\n    <div itemprop='itemListElement' itemscope itemtype='http://schema.org/ListItem'>\n      <meta itemprop='position' content='12'>\n      <meta itemprop='url' content='https://forum.parkinsons.org.uk/t/off-sick-after-dbs/17894'>\n      <a href='https://forum.parkinsons.org.uk/t/off-sick-after-dbs/17894'>\n        <span itemprop='name'>Off Sick after DBS</span>\n      </a>\n      <span class=\"page-links\"></span>\n      <span class='posts' title='posts'>(2)</span>\n\n    </div>\n    <div itemprop='itemListElement' itemscope itemtype='http://schema.org/ListItem'>\n      <meta itemprop='position' content='13'>\n      <meta itemprop='url' content='https://forum.parkinsons.org.uk/t/employment-solicitors-with-good-experience-of-representing-people-with-pd/17827'>\n      <a href='https://forum.parkinsons.org.uk/t/employment-solicitors-with-good-experience-of-representing-people-with-pd/17827'>\n        <span itemprop='name'>Employment solicitors with good experience of representing people with PD</span>\n      </a>\n      <span class=\"page-links\"></span>\n      <span class='posts' title='posts'>(2)</span>\n\n    </div>\n    <div itemprop='itemListElement' itemscope itemtype='http://schema.org/ListItem'>\n      <meta itemprop='position' content='14'>\n      <meta itemprop='url' content='https://forum.parkinsons.org.uk/t/impending-retirement-at-46-and-a-half/17610'>\n      <a href='https://forum.parkinsons.org.uk/t/impending-retirement-at-46-and-a-half/17610'>\n        <span itemprop='name'>Impending retirement at 46 and a half!</span>\n      </a>\n      <span class=\"page-links\"></span>\n      <span class='posts' title='posts'>(8)</span>\n\n    </div>\n    <div itemprop='itemListElement' itemscope itemtype='http://schema.org/ListItem'>\n      <meta itemprop='position' content='15'>\n      <meta itemprop='url' content='https://forum.parkinsons.org.uk/t/i-had-my-pip-assessment-yesterday/16837'>\n      <a href='https://forum.parkinsons.org.uk/t/i-had-my-pip-assessment-yesterday/16837'>\n        <span itemprop='name'>I had my PIP assessment yesterday</span>\n      </a>\n      <span class=\"page-links\"></span>\n      <span class='posts' title='posts'>(7)</span>\n\n    </div>\n    <div itemprop='itemListElement' itemscope itemtype='http://schema.org/ListItem'>\n      <meta itemprop='position' content='16'>\n      <meta itemprop='url' content='https://forum.parkinsons.org.uk/t/what-help-is-there-for-self-employed/17526'>\n      <a href='https://forum.parkinsons.org.uk/t/what-help-is-there-for-self-employed/17526'>\n        <span itemprop='name'>What help is there for Self Employed</span>\n      </a>\n      <span class=\"page-links\"></span>\n      <span class='posts' title='posts'>(4)</span>\n\n    </div>\n    <div itemprop='itemListElement' itemscope itemtype='http://schema.org/ListItem'>\n      <meta itemprop='position' content='17'>\n      <meta itemprop='url' content='https://forum.parkinsons.org.uk/t/voluntary-redundancy/17507'>\n      <a href='https://forum.parkinsons.org.uk/t/voluntary-redundancy/17507'>\n        <span itemprop='name'>Voluntary redundancy</span>\n      </a>\n      <span class=\"page-links\"></span>\n      <span class='posts' title='posts'>(3)</span>\n\n    </div>\n    <div itemprop='itemListElement' itemscope itemtype='http://schema.org/ListItem'>\n      <meta itemprop='position' content='18'>\n      <meta itemprop='url' content='https://forum.parkinsons.org.uk/t/benefits/15837'>\n      <a href='https://forum.parkinsons.org.uk/t/benefits/15837'>\n        <span itemprop='name'>Benefits!!!</span>\n      </a>\n      <span class=\"page-links\"></span>\n      <span class='posts' title='posts'>(3)</span>\n\n    </div>\n    <div itemprop='itemListElement' itemscope itemtype='http://schema.org/ListItem'>\n      <meta itemprop='position' content='19'>\n      <meta itemprop='url' content='https://forum.parkinsons.org.uk/t/staying-in-work/16483'>\n      <a href='https://forum.parkinsons.org.uk/t/staying-in-work/16483'>\n        <span itemprop='name'>Staying in work</span>\n      </a>\n      <span class=\"page-links\"></span>\n      <span class='posts' title='posts'>(9)</span>\n\n    </div>\n    <div itemprop='itemListElement' itemscope itemtype='http://schema.org/ListItem'>\n      <meta itemprop='position' content='20'>\n      <meta itemprop='url' content='https://forum.parkinsons.org.uk/t/going-backwards/7629'>\n      <a href='https://forum.parkinsons.org.uk/t/going-backwards/7629'>\n        <span itemprop='name'>Going backwards</span>\n      </a>\n      <span class=\"page-links\"></span>\n      <span class='posts' title='posts'>(8)</span>\n\n    </div>\n    <div itemprop='itemListElement' itemscope itemtype='http://schema.org/ListItem'>\n      <meta itemprop='position' content='21'>\n      <meta itemprop='url' content='https://forum.parkinsons.org.uk/t/employed-by-parkinsons-uk/16160'>\n      <a href='https://forum.parkinsons.org.uk/t/employed-by-parkinsons-uk/16160'>\n        <span itemprop='name'>Employed by Parkinson&#39;s uk</span>\n      </a>\n      <span class=\"page-links\"></span>\n      <span class='posts' title='posts'>(4)</span>\n\n    </div>\n    <div itemprop='itemListElement' itemscope itemtype='http://schema.org/ListItem'>\n      <meta itemprop='position' content='22'>\n      <meta itemprop='url' content='https://forum.parkinsons.org.uk/t/entitlement-to-any-form-of-financial-support/10230'>\n      <a href='https://forum.parkinsons.org.uk/t/entitlement-to-any-form-of-financial-support/10230'>\n        <span itemprop='name'>Entitlement to any form of financial support</span>\n      </a>\n      <span class=\"page-links\"></span>\n      <span class='posts' title='posts'>(14)</span>\n\n    </div>\n    <div itemprop='itemListElement' itemscope itemtype='http://schema.org/ListItem'>\n      <meta itemprop='position' content='23'>\n      <meta itemprop='url' content='https://forum.parkinsons.org.uk/t/work-suggestion/15228'>\n      <a href='https://forum.parkinsons.org.uk/t/work-suggestion/15228'>\n        <span itemprop='name'>Work suggestion</span>\n      </a>\n      <span class=\"page-links\"></span>\n      <span class='posts' title='posts'>(8)</span>\n\n    </div>\n    <div itemprop='itemListElement' itemscope itemtype='http://schema.org/ListItem'>\n      <meta itemprop='position' content='24'>\n      <meta itemprop='url' content='https://forum.parkinsons.org.uk/t/critical-illness-claim/15227'>\n      <a href='https://forum.parkinsons.org.uk/t/critical-illness-claim/15227'>\n        <span itemprop='name'>critical illness claim</span>\n      </a>\n      <span class=\"page-links\"></span>\n      <span class='posts' title='posts'>(6)</span>\n\n    </div>\n    <div itemprop='itemListElement' itemscope itemtype='http://schema.org/ListItem'>\n      <meta itemprop='position' content='25'>\n      <meta itemprop='url' content='https://forum.parkinsons.org.uk/t/weekend-residential-for-younger-working-age/14971'>\n      <a href='https://forum.parkinsons.org.uk/t/weekend-residential-for-younger-working-age/14971'>\n        <span itemprop='name'>Weekend Residential For Younger &amp; Working-Age</span>\n      </a>\n      <span class=\"page-links\"></span>\n      <span class='posts' title='posts'>(1)</span>\n\n    </div>\n    <div itemprop='itemListElement' itemscope itemtype='http://schema.org/ListItem'>\n      <meta itemprop='position' content='26'>\n      <meta itemprop='url' content='https://forum.parkinsons.org.uk/t/self-employed/14918'>\n      <a href='https://forum.parkinsons.org.uk/t/self-employed/14918'>\n        <span itemprop='name'>Self Employed </span>\n      </a>\n      <span class=\"page-links\"></span>\n      <span class='posts' title='posts'>(1)</span>\n\n    </div>\n    <div itemprop='itemListElement' itemscope itemtype='http://schema.org/ListItem'>\n      <meta itemprop='position' content='27'>\n      <meta itemprop='url' content='https://forum.parkinsons.org.uk/t/employer-nightmare/14794'>\n      <a href='https://forum.parkinsons.org.uk/t/employer-nightmare/14794'>\n        <span itemprop='name'>Employer nightmare</span>\n      </a>\n      <span class=\"page-links\"></span>\n      <span class='posts' title='posts'>(6)</span>\n\n    </div>\n    <div itemprop='itemListElement' itemscope itemtype='http://schema.org/ListItem'>\n      <meta itemprop='position' content='28'>\n      <meta itemprop='url' content='https://forum.parkinsons.org.uk/t/pip-campaign-to-review-the-system/14752'>\n      <a href='https://forum.parkinsons.org.uk/t/pip-campaign-to-review-the-system/14752'>\n        <span itemprop='name'>PIP campaign to review the system</span>\n      </a>\n      <span class=\"page-links\"></span>\n      <span class='posts' title='posts'>(2)</span>\n\n    </div>\n    <div itemprop='itemListElement' itemscope itemtype='http://schema.org/ListItem'>\n      <meta itemprop='position' content='29'>\n      <meta itemprop='url' content='https://forum.parkinsons.org.uk/t/should-i-still-go-for-promotion-at-work/9876'>\n      <a href='https://forum.parkinsons.org.uk/t/should-i-still-go-for-promotion-at-work/9876'>\n        <span itemprop='name'>Should I still go for promotion at work?</span>\n      </a>\n      <span class=\"page-links\"></span>\n      <span class='posts' title='posts'>(15)</span>\n\n    </div>\n</div>\n\n  <div role='navigation' itemscope itemtype='http://schema.org/SiteNavigationElement'>\n    <span itemprop='name'><b><a href='/c/living-with-parkinsons/work-benefits-and-money/l/latest?no_subcategories=false&amp;page=1' rel='next' itemprop='url'>next page →</a></b></span>\n  </div>\n\n\n <!-- include_crawler_content? -->\n\n\n\n  \n\n    </div>\n    <footer class=\"container\">\n      <nav class='crawler-nav' itemscope itemtype='http://schema.org/SiteNavigationElement'>\n        <a href='/'>Home</a>\n        <a href=\"/categories\">Categories</a>\n        <a href=\"/guidelines\">FAQ/Guidelines</a>\n        <a href=\"/tos\">Terms of Service</a>\n        <a href=\"/privacy\">Privacy Policy</a>\n      </nav>\n      <p class='powered-by-link'>Powered by <a href=\"https://www.discourse.org\">Discourse</a>, best viewed with JavaScript enabled</p>\n    </footer>\n    \n  </body>\n  \n</html>\n",
  "url": "https://forum.parkinsons.org.uk/c/living-with-parkinsons/work-benefits-and-money"
}