{
  "contentId": "aaec1810-8863-11e9-8f96-97f71b5221d6",
  "html": "<!DOCTYPE html>\n<html lang=\"en\">\n  <head>\n    <meta charset=\"utf-8\">\n    <title>holidays - Daily life - Parkinson&#39;s UK Forum</title>\n    <meta name=\"description\" content=\"My husband and I need a change of scenery but have very little confidence these days.  He has PD, for past 4 years, and is very well .  We cope with most problems but the holiday thing seems to be a real problem to us, I&amp;hellip;\">\n    <meta name=\"author\" content=\"\">\n<meta name=\"generator\" content=\"Discourse 2.2.5 - https://github.com/discourse/discourse version c294ff3609f988dcafb742e91606d60ca13b794d\">\n<link rel=\"icon\" type=\"image/png\" href=\"https://forum.parkinsons.org.uk/uploads/db7928/original/2X/3/311fc84f89f49f38601a2f16b295b6f03d3ce5dd.jpg\">\n<link rel=\"apple-touch-icon\" type=\"image/png\" href=\"https://forum.parkinsons.org.uk/uploads/db7928/original/2X/3/311fc84f89f49f38601a2f16b295b6f03d3ce5dd.jpg\">\n<meta name=\"theme-color\" content=\"#ffffff\">\n<meta name=\"viewport\" content=\"width=device-width, minimum-scale=1.0, maximum-scale=1.0, user-scalable=yes\">\n<link rel=\"canonical\" href=\"https://forum.parkinsons.org.uk/t/holidays/19478\" />\n<script type=\"application/ld+json\">{\"@context\":\"http://schema.org\",\"@type\":\"WebSite\",\"url\":\"https://forum.parkinsons.org.uk\",\"potentialAction\":{\"@type\":\"SearchAction\",\"target\":\"https://forum.parkinsons.org.uk/search?q={search_term_string}\",\"query-input\":\"required name=search_term_string\"}}</script>\n<link rel=\"search\" type=\"application/opensearchdescription+xml\" href=\"https://forum.parkinsons.org.uk/opensearch.xml\" title=\"Parkinson&#39;s UK Forum Search\">\n\n      <link href=\"/stylesheets/desktop_f99246ae801b083d3e4cca979d0dade8615b39ac.css?__ws=forum.parkinsons.org.uk\" media=\"all\" rel=\"stylesheet\" data-target=\"desktop\" data-theme-id=\"12\"/>\n      <link href=\"/stylesheets/desktop_theme_12_5d27531cf43f9df0c03a6a6ec3109dd05f9dfc49.css?__ws=forum.parkinsons.org.uk\" media=\"all\" rel=\"stylesheet\" data-target=\"desktop_theme\" data-theme-id=\"12\"/>\n    <link href=\"https://fonts.googleapis.com/css?family=Open+Sans\" rel=\"stylesheet\">\n\n    <meta id=\"data-ga-universal-analytics\" data-tracking-code=\"UA-4855628-1\" data-json=\"{&quot;cookieDomain&quot;:&quot;auto&quot;}\" data-auto-link-domains=\"\">\n\n<link rel='preload' href='/assets/google-universal-analytics-f35b4da49411e6f5559073523aab983da483976a3954c79c756f8579f6fbd6ef.js' as='script'/>\n<script src='/assets/google-universal-analytics-f35b4da49411e6f5559073523aab983da483976a3954c79c756f8579f6fbd6ef.js'></script>\n\n      <link rel=\"alternate\" type=\"application/rss+xml\" title=\"RSS feed of &#39;holidays&#39;\" href=\"https://forum.parkinsons.org.uk/t/holidays/19478.rss\" />\n  <meta property=\"og:site_name\" content=\"Parkinson&#39;s UK Forum\" />\n<meta name=\"twitter:card\" content=\"summary\" />\n<meta name=\"twitter:image\" content=\"https://forum.parkinsons.org.uk/uploads/db7928/original/2X/3/311fc84f89f49f38601a2f16b295b6f03d3ce5dd.jpg\" />\n<meta property=\"og:image\" content=\"https://forum.parkinsons.org.uk/uploads/db7928/original/2X/3/311fc84f89f49f38601a2f16b295b6f03d3ce5dd.jpg\" />\n<meta property=\"og:url\" content=\"https://forum.parkinsons.org.uk/t/holidays/19478\" />\n<meta name=\"twitter:url\" content=\"https://forum.parkinsons.org.uk/t/holidays/19478\" />\n<meta property=\"og:title\" content=\"holidays\" />\n<meta name=\"twitter:title\" content=\"holidays\" />\n<meta property=\"og:description\" content=\"My husband and I need a change of scenery but have very little confidence these days.  He has PD, for past 4 years, and is very well .  We cope with most problems but the holiday thing seems to be a real problem to us, I don’t drive except locally so we must use public transport if we go far, we also prefer self catering which is expensive for two. So we would have to take luggage and if it is a bad day for my husband then I would have to manage it all and I have bad knee which causes difficulty...\" />\n<meta name=\"twitter:description\" content=\"My husband and I need a change of scenery but have very little confidence these days.  He has PD, for past 4 years, and is very well .  We cope with most problems but the holiday thing seems to be a real problem to us, I don’t drive except locally so we must use public transport if we go far, we also prefer self catering which is expensive for two. So we would have to take luggage and if it is a bad day for my husband then I would have to manage it all and I have bad knee which causes difficulty...\" />\n<meta name=\"twitter:label1\" value=\"Reading time\" />\n<meta name=\"twitter:data1\" value=\"1 mins \uD83D\uDD51\" />\n<meta name=\"twitter:label2\" value=\"Likes\" />\n<meta name=\"twitter:data2\" value=\"1 ❤\" />\n<meta property=\"article:published_time\" content=\"2019-05-27T21:00:22+00:00\" />\n<meta property=\"og:ignore_canonical\" content=\"true\" />\n\n\n\n    \n  </head>\n  <body class=\"crawler\">\n    <header role=\"banner\">\n    <div class=\"region region-header\">\n        <div class=\"region-header-wrapper\">\n            <div id=\"block-parkinsons-d8-branding\" class=\"block block-system block-system-branding-block\">\n                <a href=\"/\" title=\"Home\" rel=\"home\" class=\"site-logo\">\n                    <img src=\"https://forum.parkinsons.org.uk/uploads/db7928/original/2X/8/862bb7d172e7d127e7f3e147ec43594aa62ac945.png\" alt=\"Parkinson's UK. Change Attitudes. Find a cure. Join us.\">\n                </a>\n            </div>\n            <div id=\"block-helpline\" class=\"block block-block-content block-block-content871cd5af-b938-4947-9dc0-d5c211d08fe3 style-phone\">\n                <div class=\"field field--name-field-link field--type-link field--label-hidden field__item\"><a href=\"tel:+448088000303\">Helpline 0808 800 0303</a></div>\n            </div>\n            <div id=\"block-shop\" class=\"block block-block-content block-block-content6fba5ae5-7797-49cd-8367-f321d8111cd6 style-regular\">\n                <div class=\"field field--name-field-link field--type-link field--label-hidden field__item\"><a href=\"https://shop.parkinsons.org.uk\">Shop</a></div>\n            </div>\n        </div>\n    </div>\n</header>\n\n\n<script src=\"/theme-javascripts/b7e9763fcb584fc8265c56a9f557cd6d2e1e8ed8.js?__ws=forum.parkinsons.org.uk\"></script>\n    <header>\n      <a href=\"/\">\n          <img src=\"https://forum.parkinsons.org.uk/uploads/db7928/original/2X/8/862bb7d172e7d127e7f3e147ec43594aa62ac945.png\" alt=\"Parkinson&#39;s UK Forum\" id=\"site-logo\" style=\"max-width: 150px;\">\n      </a>\n    </header>\n    <div id=\"main-outlet\" class=\"wrap\">\n      <h1>\n  <a href=\"/t/holidays/19478\">holidays</a>\n</h1>\n\n<div id='breadcrumbs'>\n    <div id=\"breadcrumb-0\" itemscope itemtype=\"http://data-vocabulary.org/Breadcrumb\"\n        itemref=\"breadcrumb-1\"\n      >\n      <a href=\"/c/living-with-parkinsons\" itemprop=\"url\">\n        <span itemprop=\"title\">Living with Parkinson&#39;s</span>\n      </a>\n    </div>\n    <div id=\"breadcrumb-1\" itemscope itemtype=\"http://data-vocabulary.org/Breadcrumb\"\n>\n      <a href=\"/c/living-with-parkinsons/daily-life\" itemprop=\"url\">\n        <span itemprop=\"title\">Daily life</span>\n      </a>\n    </div>\n</div>\n\n\n\n\n\n<hr>\n\n\n  <div itemscope itemtype='http://schema.org/DiscussionForumPosting'>\n      <div class='creator'>\n        <span>\n          <a href='/u/modian'><b itemprop='author'>modian</b></a>\n          \n          <time datetime='2019-05-27T21:00:22Z' itemprop='datePublished'>\n            2019-05-27 21:00:22 UTC\n          </time>\n        </span>\n        <span itemprop='position'>#1</span>\n      </div>\n      <div class='post' itemprop='articleBody'>\n        <p>My husband and I need a change of scenery but have very little confidence these days.  He has PD, for past 4 years, and is very well .  We cope with most problems but the holiday thing seems to be a real problem to us, I don’t drive except locally so we must use public transport if we go far, we also prefer self catering which is expensive for two. So we would have to take luggage and if it is a bad day for my husband then I would have to manage it all and I have bad knee which causes difficulty with walking.  What I really want to know is would it be worth it?  We are happy with our life even though we don’t go far but do feel we should be doing more before things get worse.  Any advice?  Thanks</p>\n      </div>\n      <meta itemprop='interactionCount' content='UserLikes:0'>\n      <meta itemprop='interactionCount' content='UserComments:0'>\n      <meta itemprop='headline' content='holidays'>\n      <hr>\n  </div>\n  <div itemscope itemtype='http://schema.org/DiscussionForumPosting'>\n      <div class='creator'>\n        <span>\n          <a href='/u/Moderators2'><b itemprop='author'>Moderators2</b></a>\n          \n          <time datetime='2019-05-27T21:12:03Z' itemprop='datePublished'>\n            2019-05-27 21:12:03 UTC\n          </time>\n        </span>\n        <span itemprop='position'>#2</span>\n      </div>\n      <div class='post' itemprop='articleBody'>\n        <p>Hi Modain! A warm welcome to the forum <img src=\"https://forum.parkinsons.org.uk/images/emoji/twitter/grinning.png?v=6\" title=\":grinning:\" class=\"emoji\" alt=\":grinning:\"></p>\n<p>I’m sure that others will chip in with any advice for you, but I just wanted to bring to your attention <a href=\"https://www.parkinsons.org.uk/information-and-support/holidays-and-travel\" rel=\"nofollow noopener\">this page</a> on our website that has some practical/logistical guidance with regards to holidays.</p>\n<p>Please do also lean on our helpline (contact info <a href=\"https://www.parkinsons.org.uk/information-and-support/helpline-and-local-advisers\" rel=\"nofollow noopener\">here</a>) if you wanted to have a chat about things.</p>\n<p>Best wishes<br>\nTom A, Moderation Team</p>\n      </div>\n      <meta itemprop='interactionCount' content='UserLikes:0'>\n      <meta itemprop='interactionCount' content='UserComments:0'>\n      <meta itemprop='headline' content='holidays'>\n      <hr>\n  </div>\n  <div itemscope itemtype='http://schema.org/DiscussionForumPosting'>\n      <div class='creator'>\n        <span>\n          <a href='/u/Siwan'><b itemprop='author'>Siwan</b></a>\n          \n          <time datetime='2019-05-29T22:10:41Z' itemprop='datePublished'>\n            2019-05-29 22:10:41 UTC\n          </time>\n        </span>\n        <span itemprop='position'>#3</span>\n      </div>\n      <div class='post' itemprop='articleBody'>\n        <p>Dear Modian<br>\nThe fact that you are asking the question - shows that you know you should go on holiday, see something different, do something different before you can’t any more.<br>\nI don’t know much, but i would suggest you look at some other charity websites which may provide more practical support in handling day to day stuff, help people go on holiday, etc… or e.g go on a group excusrsion e.g a coach holiday  - my mum enjoyed these and there was always someone willing to help her with the luggage, a tour guide for advice (where is the nearest chemist or nice tea shop), help (arranging a ground floor hotel room) and to take charge/care of you<br>\nGood luck  - go for it</p>\n      </div>\n      <meta itemprop='interactionCount' content='UserLikes:0'>\n      <meta itemprop='interactionCount' content='UserComments:0'>\n      <meta itemprop='headline' content='holidays'>\n      <hr>\n  </div>\n  <div itemscope itemtype='http://schema.org/DiscussionForumPosting'>\n      <div class='creator'>\n        <span>\n          <a href='/u/Martini'><b itemprop='author'>Martini</b></a>\n          \n          <time datetime='2019-05-29T22:18:56Z' itemprop='datePublished'>\n            2019-05-29 22:18:56 UTC\n          </time>\n        </span>\n        <span itemprop='position'>#4</span>\n      </div>\n      <div class='post' itemprop='articleBody'>\n        <p>You could perhaps buy a trunk, fill it with your holiday essentials, then send it by courier to the holiday location and confirm its arrival before you set off.</p>\n<p>Good luck.</p>\n      </div>\n      <meta itemprop='interactionCount' content='UserLikes:0'>\n      <meta itemprop='interactionCount' content='UserComments:0'>\n      <meta itemprop='headline' content='holidays'>\n      <hr>\n  </div>\n  <div itemscope itemtype='http://schema.org/DiscussionForumPosting'>\n      <div class='creator'>\n        <span>\n          <a href='/u/tiredcarer'><b itemprop='author'>tiredcarer</b></a>\n          \n          <time datetime='2019-05-30T19:34:49Z' itemprop='datePublished'>\n            2019-05-30 19:34:49 UTC\n          </time>\n        </span>\n        <span itemprop='position'>#5</span>\n      </div>\n      <div class='post' itemprop='articleBody'>\n        <p>Hi Modian,<br>\nDefinitely self catering: no prying eyes at a restaurant and you can eat when you need to, without waiting for a meal to take ages to arrive just when you need to eat with medication (if that’s the case). Go somewhere you can always come home easily from if you both agree it is too much to deal with. Choose somewhere uncomplicated: we stay in chalets or apartments where the grounds are nice so if it’s too difficult to go out, it’s nice on your doorstep. Write a list of stuff you’ll need, especially meds, and cross it off as you pack, and don;t take more than you’ll need in terms of clothes. Maybe travel with someone else who understands the situation, or swap houses with a friend – though both may not be possible, I know. Try not to worry about it; if it turns out to be a bit difficult, well, it’s only for a few days, and I would suggest a short break first as a trial run.<br>\nOnly you can decide whether it will be worth it, but clearly you feel you should try. Have a lovely time if you do.</p>\n      </div>\n      <meta itemprop='interactionCount' content='UserLikes:0'>\n      <meta itemprop='interactionCount' content='UserComments:0'>\n      <meta itemprop='headline' content='holidays'>\n      <hr>\n  </div>\n  <div itemscope itemtype='http://schema.org/DiscussionForumPosting'>\n      <div class='creator'>\n        <span>\n          <a href='/u/Flossie88'><b itemprop='author'>Flossie88</b></a>\n          \n          <time datetime='2019-06-01T14:44:21Z' itemprop='datePublished'>\n            2019-06-01 14:44:21 UTC\n          </time>\n        </span>\n        <span itemprop='position'>#6</span>\n      </div>\n      <div class='post' itemprop='articleBody'>\n        <p>Have you thought about a week at the European Parkinsons Therapy Centre in Boario terme  Italy. .My wife and I went 3 years ago and it was life changing.<br>\nI had one to one Neuroplasticity exercises every day and whilst my PD symptoms are mild I came away so positive and revitalised.<br>\nThere were talks on many subjects and my wife was able to join in on them.<br>\nThe hotel we stayed in was full board family run and really lovely we had a room with a huge balcony overlooking the mountains.The afternoons  were free and we went on a train rides and crossed on a boat to a beautiful island nearby.To see and meet other people with PD improve so much in just a week was humbling.<br>\nYou can get cheap flights to Bergamo and you can be picked up at the airport for a small charge. You don’t need a car as public transport ( especially the train) is not expensive.<br>\nYou dont need loads of luggage( we just took hand luggage.)<br>\nIt is a  big step but one I know you wouldboth come back from feeling stronger and dealing with PD with a very different mind set.<br>\nWe will definitely go again if/when my PD starts getting worse .<br>\nRegards Baz hester</p>\n      </div>\n      <meta itemprop='interactionCount' content='UserLikes:1'>\n      <meta itemprop='interactionCount' content='UserComments:0'>\n      <meta itemprop='headline' content='holidays'>\n      <hr>\n  </div>\n  <div itemscope itemtype='http://schema.org/DiscussionForumPosting'>\n      <div class='creator'>\n        <span>\n          <a href='/u/modian'><b itemprop='author'>modian</b></a>\n          \n          <time datetime='2019-06-02T10:04:17Z' itemprop='datePublished'>\n            2019-06-02 10:04:17 UTC\n          </time>\n        </span>\n        <span itemprop='position'>#7</span>\n      </div>\n      <div class='post' itemprop='articleBody'>\n        <p>just want to thank everyone who replied with suggestions.  All have been very helpful and thought provoking just got decide where and when now!</p>\n      </div>\n      <meta itemprop='interactionCount' content='UserLikes:0'>\n      <meta itemprop='interactionCount' content='UserComments:1'>\n      <meta itemprop='headline' content='holidays'>\n      <hr>\n  </div>\n  <div itemscope itemtype='http://schema.org/DiscussionForumPosting'>\n      <div class='creator'>\n        <span>\n          <a href='/u/Shawsy10'><b itemprop='author'>Shawsy10</b></a>\n          \n          <time datetime='2019-06-04T15:48:26Z' itemprop='datePublished'>\n            2019-06-04 15:48:26 UTC\n          </time>\n        </span>\n        <span itemprop='position'>#8</span>\n      </div>\n      <div class='post' itemprop='articleBody'>\n        <p>Another option might be a cruise, if from Southampton, your luggage magically disappears and arrives in your cabin, from the coach. You can choose whether to get off or not at each location, depending on how you’re both feeling. Some restaurants have waiter service, or you may be ok to help your hubby with the buffet. There are rails all around the ship to assist walking and lifts everywhere. And always someone with worse mobility issues than you!</p>\n      </div>\n      <meta itemprop='interactionCount' content='UserLikes:0'>\n      <meta itemprop='interactionCount' content='UserComments:0'>\n      <meta itemprop='headline' content='holidays'>\n      <hr>\n  </div>\n\n\n\n\n\n\n    </div>\n    <footer class=\"container\">\n      <nav class='crawler-nav' itemscope itemtype='http://schema.org/SiteNavigationElement'>\n        <a href='/'>Home</a>\n        <a href=\"/categories\">Categories</a>\n        <a href=\"/guidelines\">FAQ/Guidelines</a>\n        <a href=\"/tos\">Terms of Service</a>\n        <a href=\"/privacy\">Privacy Policy</a>\n      </nav>\n      <p class='powered-by-link'>Powered by <a href=\"https://www.discourse.org\">Discourse</a>, best viewed with JavaScript enabled</p>\n    </footer>\n    \n  </body>\n  \n</html>\n",
  "url": "https://forum.parkinsons.org.uk/t/holidays/19478"
}