{
  "contentId": "1333bee0-886a-11e9-8f96-97f71b5221d6",
  "html": "<!DOCTYPE html>\n<html lang=\"en\">\n  <head>\n    <meta charset=\"utf-8\">\n    <title>Vielight Neuro for Parkinsons! - Treatments and therapies - Parkinson&#39;s UK Forum</title>\n    <meta name=\"description\" content=\"Hello , \nhas anyone heard about the new treatment , by head set , by sending NIR - NEAR INFRA RED Beams OF Light Into parts of  The Brain, more importantly have the specialists got ideas about this…i  was listening into &amp;hellip;\">\n    <meta name=\"author\" content=\"\">\n<meta name=\"generator\" content=\"Discourse 2.2.5 - https://github.com/discourse/discourse version c294ff3609f988dcafb742e91606d60ca13b794d\">\n<link rel=\"icon\" type=\"image/png\" href=\"https://forum.parkinsons.org.uk/uploads/db7928/original/2X/3/311fc84f89f49f38601a2f16b295b6f03d3ce5dd.jpg\">\n<link rel=\"apple-touch-icon\" type=\"image/png\" href=\"https://forum.parkinsons.org.uk/uploads/db7928/original/2X/3/311fc84f89f49f38601a2f16b295b6f03d3ce5dd.jpg\">\n<meta name=\"theme-color\" content=\"#ffffff\">\n<meta name=\"viewport\" content=\"width=device-width, minimum-scale=1.0, maximum-scale=1.0, user-scalable=yes\">\n<link rel=\"canonical\" href=\"https://forum.parkinsons.org.uk/t/vielight-neuro-for-parkinsons/13969\" />\n<script type=\"application/ld+json\">{\"@context\":\"http://schema.org\",\"@type\":\"WebSite\",\"url\":\"https://forum.parkinsons.org.uk\",\"potentialAction\":{\"@type\":\"SearchAction\",\"target\":\"https://forum.parkinsons.org.uk/search?q={search_term_string}\",\"query-input\":\"required name=search_term_string\"}}</script>\n<link rel=\"search\" type=\"application/opensearchdescription+xml\" href=\"https://forum.parkinsons.org.uk/opensearch.xml\" title=\"Parkinson&#39;s UK Forum Search\">\n\n      <link href=\"/stylesheets/desktop_f99246ae801b083d3e4cca979d0dade8615b39ac.css?__ws=forum.parkinsons.org.uk\" media=\"all\" rel=\"stylesheet\" data-target=\"desktop\" data-theme-id=\"12\"/>\n      <link href=\"/stylesheets/desktop_theme_12_5d27531cf43f9df0c03a6a6ec3109dd05f9dfc49.css?__ws=forum.parkinsons.org.uk\" media=\"all\" rel=\"stylesheet\" data-target=\"desktop_theme\" data-theme-id=\"12\"/>\n    <link href=\"https://fonts.googleapis.com/css?family=Open+Sans\" rel=\"stylesheet\">\n\n    <meta id=\"data-ga-universal-analytics\" data-tracking-code=\"UA-4855628-1\" data-json=\"{&quot;cookieDomain&quot;:&quot;auto&quot;}\" data-auto-link-domains=\"\">\n\n<link rel='preload' href='/assets/google-universal-analytics-f35b4da49411e6f5559073523aab983da483976a3954c79c756f8579f6fbd6ef.js' as='script'/>\n<script src='/assets/google-universal-analytics-f35b4da49411e6f5559073523aab983da483976a3954c79c756f8579f6fbd6ef.js'></script>\n\n      <link rel=\"alternate\" type=\"application/rss+xml\" title=\"RSS feed of &#39;Vielight Neuro for Parkinsons!&#39;\" href=\"https://forum.parkinsons.org.uk/t/vielight-neuro-for-parkinsons/13969.rss\" />\n  <meta property=\"og:site_name\" content=\"Parkinson&#39;s UK Forum\" />\n<meta name=\"twitter:card\" content=\"summary\" />\n<meta name=\"twitter:image\" content=\"https://forum.parkinsons.org.uk/uploads/db7928/original/2X/3/311fc84f89f49f38601a2f16b295b6f03d3ce5dd.jpg\" />\n<meta property=\"og:image\" content=\"https://forum.parkinsons.org.uk/uploads/db7928/original/2X/3/311fc84f89f49f38601a2f16b295b6f03d3ce5dd.jpg\" />\n<meta property=\"og:url\" content=\"https://forum.parkinsons.org.uk/t/vielight-neuro-for-parkinsons/13969\" />\n<meta name=\"twitter:url\" content=\"https://forum.parkinsons.org.uk/t/vielight-neuro-for-parkinsons/13969\" />\n<meta property=\"og:title\" content=\"Vielight Neuro for Parkinsons!\" />\n<meta name=\"twitter:title\" content=\"Vielight Neuro for Parkinsons!\" />\n<meta property=\"og:description\" content=\"Hello ,  has anyone heard about the new treatment , by head set , by sending NIR - NEAR INFRA RED Beams OF Light Into parts of  The Brain, more importantly have the specialists got ideas about this…i  was listening into the video / audio blog a week ago and was very impressed at he findings of Dr lew lim, anyone seen this ??  has this given us hope ??  Hugh aka Welshbearuk\" />\n<meta name=\"twitter:description\" content=\"Hello ,  has anyone heard about the new treatment , by head set , by sending NIR - NEAR INFRA RED Beams OF Light Into parts of  The Brain, more importantly have the specialists got ideas about this…i  was listening into the video / audio blog a week ago and was very impressed at he findings of Dr lew lim, anyone seen this ??  has this given us hope ??  Hugh aka Welshbearuk\" />\n<meta name=\"twitter:label1\" value=\"Reading time\" />\n<meta name=\"twitter:data1\" value=\"4 mins \uD83D\uDD51\" />\n<meta name=\"twitter:label2\" value=\"Likes\" />\n<meta name=\"twitter:data2\" value=\"3 ❤\" />\n<meta property=\"article:published_time\" content=\"2018-06-10T06:57:55+00:00\" />\n<meta property=\"og:ignore_canonical\" content=\"true\" />\n\n      <link rel=\"next\" href=\"/t/vielight-neuro-for-parkinsons/13969?page=2\">\n\n\n    \n  </head>\n  <body class=\"crawler\">\n    <header role=\"banner\">\n    <div class=\"region region-header\">\n        <div class=\"region-header-wrapper\">\n            <div id=\"block-parkinsons-d8-branding\" class=\"block block-system block-system-branding-block\">\n                <a href=\"/\" title=\"Home\" rel=\"home\" class=\"site-logo\">\n                    <img src=\"https://forum.parkinsons.org.uk/uploads/db7928/original/2X/8/862bb7d172e7d127e7f3e147ec43594aa62ac945.png\" alt=\"Parkinson's UK. Change Attitudes. Find a cure. Join us.\">\n                </a>\n            </div>\n            <div id=\"block-helpline\" class=\"block block-block-content block-block-content871cd5af-b938-4947-9dc0-d5c211d08fe3 style-phone\">\n                <div class=\"field field--name-field-link field--type-link field--label-hidden field__item\"><a href=\"tel:+448088000303\">Helpline 0808 800 0303</a></div>\n            </div>\n            <div id=\"block-shop\" class=\"block block-block-content block-block-content6fba5ae5-7797-49cd-8367-f321d8111cd6 style-regular\">\n                <div class=\"field field--name-field-link field--type-link field--label-hidden field__item\"><a href=\"https://shop.parkinsons.org.uk\">Shop</a></div>\n            </div>\n        </div>\n    </div>\n</header>\n\n\n<script src=\"/theme-javascripts/b7e9763fcb584fc8265c56a9f557cd6d2e1e8ed8.js?__ws=forum.parkinsons.org.uk\"></script>\n    <header>\n      <a href=\"/\">\n          <img src=\"https://forum.parkinsons.org.uk/uploads/db7928/original/2X/8/862bb7d172e7d127e7f3e147ec43594aa62ac945.png\" alt=\"Parkinson&#39;s UK Forum\" id=\"site-logo\" style=\"max-width: 150px;\">\n      </a>\n    </header>\n    <div id=\"main-outlet\" class=\"wrap\">\n      <h1>\n  <a href=\"/t/vielight-neuro-for-parkinsons/13969\">Vielight Neuro for Parkinsons!</a>\n</h1>\n\n<div id='breadcrumbs'>\n    <div id=\"breadcrumb-0\" itemscope itemtype=\"http://data-vocabulary.org/Breadcrumb\"\n        itemref=\"breadcrumb-1\"\n      >\n      <a href=\"/c/about-parkinsons-and-health\" itemprop=\"url\">\n        <span itemprop=\"title\">About Parkinson&#39;s and health</span>\n      </a>\n    </div>\n    <div id=\"breadcrumb-1\" itemscope itemtype=\"http://data-vocabulary.org/Breadcrumb\"\n>\n      <a href=\"/c/about-parkinsons-and-health/treatments-and-therapies\" itemprop=\"url\">\n        <span itemprop=\"title\">Treatments and therapies</span>\n      </a>\n    </div>\n</div>\n\n\n\n\n\n<hr>\n\n\n  <div itemscope itemtype='http://schema.org/DiscussionForumPosting'>\n      <div class='creator'>\n        <span>\n          <a href='/u/welshbearuk'><b itemprop='author'>welshbearuk</b></a>\n          \n          <time datetime='2018-06-10T06:57:55Z' itemprop='datePublished'>\n            2018-06-10 06:57:55 UTC\n          </time>\n        </span>\n        <span itemprop='position'>#1</span>\n      </div>\n      <div class='post' itemprop='articleBody'>\n        <p>Hello ,<br>\nhas anyone heard about the new treatment , by head set , by sending NIR - NEAR INFRA RED Beams OF Light Into parts of  The Brain, more importantly have the specialists got ideas about this…i  was listening into the video / audio blog a week ago and was very impressed at he findings of Dr lew lim, anyone seen this ??</p>\n<p>has this given us hope ??<br>\nHugh aka Welshbearuk</p>\n      </div>\n      <meta itemprop='interactionCount' content='UserLikes:0'>\n      <meta itemprop='interactionCount' content='UserComments:0'>\n      <meta itemprop='headline' content='Vielight Neuro for Parkinsons!'>\n      <hr>\n  </div>\n  <div itemscope itemtype='http://schema.org/DiscussionForumPosting'>\n      <div class='creator'>\n        <span>\n          <a href='/u/Island_Mike'><b itemprop='author'>Island_Mike</b></a>\n          \n          <time datetime='2018-06-11T08:53:40Z' itemprop='datePublished'>\n            2018-06-11 08:53:40 UTC\n          </time>\n        </span>\n        <span itemprop='position'>#2</span>\n      </div>\n      <div class='post' itemprop='articleBody'>\n        <p>I’d be interested to know how they get light to pass through the skull. I’d better wear a hat going down to the shop today in case my brain gets sunburnt.</p>\n      </div>\n      <meta itemprop='interactionCount' content='UserLikes:0'>\n      <meta itemprop='interactionCount' content='UserComments:1'>\n      <meta itemprop='headline' content='Vielight Neuro for Parkinsons!'>\n      <hr>\n  </div>\n  <div itemscope itemtype='http://schema.org/DiscussionForumPosting'>\n      <div class='creator'>\n        <span>\n          <a href='/u/Reah'><b itemprop='author'>Reah</b></a>\n          \n          <time datetime='2018-06-11T16:07:20Z' itemprop='datePublished'>\n            2018-06-11 16:07:20 UTC\n          </time>\n        </span>\n        <span itemprop='position'>#3</span>\n      </div>\n      <div class='post' itemprop='articleBody'>\n        <p>Hi <a class=\"mention\" href=\"/u/welshbearuk\">@welshbearuk</a>,</p>\n<p>I have passed your query onto our research department for them shed more light on this. I will get back to you on this as soon as I can following their response.</p>\n<p>Best wishes,<br>\nReah</p>\n      </div>\n      <meta itemprop='interactionCount' content='UserLikes:0'>\n      <meta itemprop='interactionCount' content='UserComments:0'>\n      <meta itemprop='headline' content='Vielight Neuro for Parkinsons!'>\n      <hr>\n  </div>\n  <div itemscope itemtype='http://schema.org/DiscussionForumPosting'>\n      <div class='creator'>\n        <span>\n          <a href='/u/welshbearuk'><b itemprop='author'>welshbearuk</b></a>\n          \n          <time datetime='2018-06-12T04:22:42Z' itemprop='datePublished'>\n            2018-06-12 04:22:42 UTC\n          </time>\n        </span>\n        <span itemprop='position'>#4</span>\n      </div>\n      <div class='post' itemprop='articleBody'>\n        <p>Hi Reah &amp; Mike, i have 2 links to see and hear all about Vielight neuro, im not sure if the site will let me post them, ive had trouble but well ill try anyways, if not  u can get them by e-mail, i read and listened toa a few differant talkins about this headset and its cost of which is about £1400 pounds $1800 us, but if it works and does what it says on the tin i will be a very happy man…please please check out the links and read thoroughly because i was really impressed by both the head set and the DR LEW LIM im sure you will think that finaly theres a light a the end of the tunnel plus even better no surgery, no drilling like ive had in the past like 2inch holes drilled in my brain…<br>\nheres the links</p>\n<div class=\"lazyYT\" data-youtube-id=\"b1tK4oe9lmI\" data-youtube-title=\"Reversing Alzheimer's and Parkinson's With Near Infrared\" data-width=\"480\" data-height=\"270\" data-parameters=\"feature=oembed&amp;wmode=opaque\"></div>\n<div class=\"lazyYT\" data-youtube-id=\"jroi70LXpLI\" data-youtube-title=\"What is the Vielight Neuro?\" data-width=\"480\" data-height=\"270\" data-parameters=\"feature=oembed&amp;wmode=opaque\"></div>\n<aside class=\"onebox whitelistedgeneric\">\n  <header class=\"source\">\n      <img src=\"//forum.parkinsons.org.uk/uploads/db7928/original/2X/d/d999056bb9ebfd0e746ae698c965c6cb6d0bc8e2.jpg\" class=\"site-icon\" width=\"16\" height=\"16\">\n      <a href=\"https://vielight.com/neuro-alpha-gamma/\" target=\"_blank\" rel=\"nofollow noopener\">Vielight Inc</a>\n  </header>\n  <article class=\"onebox-body\">\n    <div class=\"aspect-image\" style=\"--aspect-ratio:363/146;\"><img src=\"//forum.parkinsons.org.uk/uploads/db7928/original/2X/b/b5de7db586546f538c126c2bb55e259329bcb073.png\" class=\"thumbnail\"></div>\n\n<h3><a href=\"https://vielight.com/neuro-alpha-gamma/\" target=\"_blank\" rel=\"nofollow noopener\">Neuro Alpha Gamma - Vielight Inc</a></h3>\n\n<p>THE FUTURE OF BRAIN PHOTOBIOMODULATION \nSay hello to two powerful, wearable devices at the forefront of brain photobiomodulation.\nThe Vielight Neuro Alpha and Vielight Neuro Gamma feature improved transcranial clusters over the previous Neuro design...</p>\n\n\n  </article>\n  <div class=\"onebox-metadata\">\n    \n    \n  </div>\n  <div style=\"clear: both\"></div>\n</aside>\n\n<p>this last  link below to hear the  interview on Parkinsons Recovery Radio with Dr. Lew Lim, inventor of this new photobiomodulation therapy…please listen !!!</p>\n<aside class=\"onebox whitelistedgeneric\">\n  <header class=\"source\">\n      <a href=\"https://www.blog.parkinsonsrecovery.com/vielight-photobiomodulation-gamma-device/\" target=\"_blank\" title=\"12:00AM - 24 April 2018\" rel=\"nofollow noopener\">About Parkinson's Disease – 24 Apr 18</a>\n  </header>\n  <article class=\"onebox-body\">\n    <img src=\"//forum.parkinsons.org.uk/uploads/db7928/original/2X/4/4cf3af441ac329d71cb516c6ac711b5ac069f3de.jpg\" class=\"thumbnail onebox-avatar\" width=\"150\" height=\"150\">\n\n<h3><a href=\"https://www.blog.parkinsonsrecovery.com/vielight-photobiomodulation-gamma-device/\" target=\"_blank\" rel=\"nofollow noopener\">Here is feedback about use of the Vielight photobiomodulation Gamma device from...</a></h3>\n\n<p>Natural Therapies for Parkinsons Disease</p>\n\n\n  </article>\n  <div class=\"onebox-metadata\">\n    \n    \n  </div>\n  <div style=\"clear: both\"></div>\n</aside>\n\n<pre><code>                                                             Hugh aka Welshbearuk\n                                            a parkinsonian of some 25 years or more</code></pre>\n      </div>\n      <meta itemprop='interactionCount' content='UserLikes:0'>\n      <meta itemprop='interactionCount' content='UserComments:0'>\n      <meta itemprop='headline' content='Vielight Neuro for Parkinsons!'>\n      <hr>\n  </div>\n  <div itemscope itemtype='http://schema.org/DiscussionForumPosting'>\n      <div class='creator'>\n        <span>\n          <a href='/u/welshbearuk'><b itemprop='author'>welshbearuk</b></a>\n          \n          <time datetime='2018-06-12T04:37:45Z' itemprop='datePublished'>\n            2018-06-12 04:37:45 UTC\n          </time>\n        </span>\n        <span itemprop='position'>#5</span>\n      </div>\n      <div class='post' itemprop='articleBody'>\n        <p>please let me know what you think</p>\n      </div>\n      <meta itemprop='interactionCount' content='UserLikes:0'>\n      <meta itemprop='interactionCount' content='UserComments:0'>\n      <meta itemprop='headline' content='Vielight Neuro for Parkinsons!'>\n      <hr>\n  </div>\n  <div itemscope itemtype='http://schema.org/DiscussionForumPosting'>\n      <div class='creator'>\n        <span>\n          <a href='/u/Jules47'><b itemprop='author'>Jules47</b></a>\n          \n          <time datetime='2018-06-13T05:12:00Z' itemprop='datePublished'>\n            2018-06-13 05:12:00 UTC\n          </time>\n        </span>\n        <span itemprop='position'>#6</span>\n      </div>\n      <div class='post' itemprop='articleBody'>\n        <p>Morning all</p>\n<p>Logged on to chat on first initial neg feeling when wake after horrible vivid dreams, which I could almost write a story on. Came here to see if anyone else experiences, then get side tracked to other discussions, which help bring me to real life. Thus ended or started here. After seeing the start of these two videois I must  admit this is too much for me! Is this Parkinsons? Or just a bit of brain dohh approach to more info that places me in a dohh situation. Dohh being more of hope with a little more insight into stuff of possible no hope! Not neg, just sometimes clear, simple language for our brains to digest, any time of day. Am I correct in thinking first video is saying, nice walk in the sunshine a.m or early p.m is good for us! Second video feels like I have this gadget on in my head in the night by way of odd dreams etc. Apologies techno jargon plus view turned my interest button off at sight etc. Easily done for me, not sure if same for others with PK? The interest button switches off a bit quick, however, thank you for info, all helps to see good efforts to help this horrid, isolating condition. Tapping into a lost part of our head can only be good for us. Agree with walk and sunlight! Big thumbs up even if 5 mins effort, 100% benefit\uD83D\uDC4D</p>\n      </div>\n      <meta itemprop='interactionCount' content='UserLikes:0'>\n      <meta itemprop='interactionCount' content='UserComments:0'>\n      <meta itemprop='headline' content='Vielight Neuro for Parkinsons!'>\n      <hr>\n  </div>\n  <div itemscope itemtype='http://schema.org/DiscussionForumPosting'>\n      <div class='creator'>\n        <span>\n          <a href='/u/welshbearuk'><b itemprop='author'>welshbearuk</b></a>\n          \n          <time datetime='2018-06-26T11:54:37Z' itemprop='datePublished'>\n            2018-06-26 11:54:37 UTC\n          </time>\n        </span>\n        <span itemprop='position'>#7</span>\n      </div>\n      <div class='post' itemprop='articleBody'>\n        <p>well  looks like nobody is interested in the find  by Dr.Lew Lin, at least he tryinghis expertise in many fields on a cure…rather than waste dollar after £££ on a old type of drug thats bean tried and tested like michael j. fox 490 billion dollars, what a damn waste, thought i would have had more response to this by parkinsonians, researchers, specialists etc etc guess thats why we will probably never ever find a cure, sadly !!</p>\n      </div>\n      <meta itemprop='interactionCount' content='UserLikes:0'>\n      <meta itemprop='interactionCount' content='UserComments:1'>\n      <meta itemprop='headline' content='Vielight Neuro for Parkinsons!'>\n      <hr>\n  </div>\n  <div itemscope itemtype='http://schema.org/DiscussionForumPosting'>\n      <div class='creator'>\n        <span>\n          <a href='/u/Roro'><b itemprop='author'>Roro</b></a>\n          \n          <time datetime='2018-06-26T16:31:22Z' itemprop='datePublished'>\n            2018-06-26 16:31:22 UTC\n          </time>\n        </span>\n        <span itemprop='position'>#8</span>\n      </div>\n      <div class='post' itemprop='articleBody'>\n        <p>I agree with <a class=\"mention\" href=\"/u/jules47\">@Jules47</a>, I’m happy to spend time in the sun! I feel that this contraption costs a very large amount of money for something that has no provable research to show it works. The seller says it was tested on five people and is still experimental. In addition they state it  <strong>may</strong> not not cause harm. It would maybe get more interest if they were wanting volunteers to test it so they could do full research rather than part with so much money.</p>\n      </div>\n      <meta itemprop='interactionCount' content='UserLikes:0'>\n      <meta itemprop='interactionCount' content='UserComments:0'>\n      <meta itemprop='headline' content='Vielight Neuro for Parkinsons!'>\n      <hr>\n  </div>\n  <div itemscope itemtype='http://schema.org/DiscussionForumPosting'>\n      <div class='creator'>\n        <span>\n          <a href='/u/Reah'><b itemprop='author'>Reah</b></a>\n          \n          <time datetime='2018-07-24T14:19:29Z' itemprop='datePublished'>\n            2018-07-24 14:19:29 UTC\n          </time>\n        </span>\n        <span itemprop='position'>#9</span>\n      </div>\n      <div class='post' itemprop='articleBody'>\n        <p>Hi <a class=\"mention\" href=\"/u/welshbearuk\">@welshbearuk</a>,</p>\n<p>First of all, my sincere apologies for my delayed response to your comment. Unfortunately, this thread slipped off my radar in the midst of me responding to other threads on the forum. Do forgive me - this wasn’t intentional at all.</p>\n<p>In response to the information that you shared, a number of studies have demonstrated that near infrared light therapy improves movement and may protect brain cells in various rodent models, and a primate model, of Parkinson’s.</p>\n<p>However, there is currently not enough research in people and people with Parkinson’s, for us to know if it could be an effective treatment. If you have any further questions, please feel free to contact our helpline on 0808 800 0303.</p>\n<p>Best wishes,<br>\nReah</p>\n      </div>\n      <meta itemprop='interactionCount' content='UserLikes:0'>\n      <meta itemprop='interactionCount' content='UserComments:0'>\n      <meta itemprop='headline' content='Vielight Neuro for Parkinsons!'>\n      <hr>\n  </div>\n  <div itemscope itemtype='http://schema.org/DiscussionForumPosting'>\n      <div class='creator'>\n        <span>\n          <a href='/u/welshbearuk'><b itemprop='author'>welshbearuk</b></a>\n          \n          <time datetime='2018-07-25T06:12:33Z' itemprop='datePublished'>\n            2018-07-25 06:12:33 UTC\n          </time>\n        </span>\n        <span itemprop='position'>#10</span>\n      </div>\n      <div class='post' itemprop='articleBody'>\n        <p>Thanks so much for your reply to my parkinsons info on Vielight Neuro, means alot to me that someone is taking interest in my internet prowling lol due to my parkinsons and lack of sleep loli seem to find all sorts parkinsons info and its not just ole crap either so i like to mport what i can to help ALL of us in hopfully one day e all would have kicked this Nightmare of ours Parkinsons. im so glad you replied Reah, you have truly made my day , to know at least someone is on the same map as me. the main part of this Vielight Neuro for me, im not sure if you or anyone else have listened to the link i posted with an audio blog of which the main scientist Dr. Lew Lim spoke on this 30 minute audio blog and the only person ive heard speaking with such knowledge was the late stephen hawkins  Dr Lew Lim has similar degrees and diplomas, he has basically done it all and is way up top of the league, which is what we need to hep us in our quest.Dr. Lew Lim is an engineer and a Doctor of Natural Medicine with additional diplomas in Medical Neuroscience and Business and Accountancy. He obtained his degrees and diplomas from the University of California at Berkeley, University of Sheffield, Duke University, Quantum University and The Chartered Institute of Management Accountants, he talked about the Vieligh in some length in this audio blog , i found it amazing to listen too, and i believe hes not just in it for the £ &amp; $ so if u havent i would like you and others to take a peek hes an amazing man,a man im sure we need…anyways ive talked enough please forgive me Reah lol…Thanks again you have made my day, thought i was talking to myself, hehe Again !!  <em>winks</em><br>\nWelshBearuk  aka  Hugh James a 25 year old parkinsonian</p>\n      </div>\n      <meta itemprop='interactionCount' content='UserLikes:0'>\n      <meta itemprop='interactionCount' content='UserComments:0'>\n      <meta itemprop='headline' content='Vielight Neuro for Parkinsons!'>\n      <hr>\n  </div>\n  <div itemscope itemtype='http://schema.org/DiscussionForumPosting'>\n      <div class='creator'>\n        <span>\n          <a href='/u/Reah'><b itemprop='author'>Reah</b></a>\n          \n          <time datetime='2018-07-27T15:52:55Z' itemprop='datePublished'>\n            2018-07-27 15:52:55 UTC\n          </time>\n        </span>\n        <span itemprop='position'>#11</span>\n      </div>\n      <div class='post' itemprop='articleBody'>\n        <p>Hi <a class=\"mention\" href=\"/u/welshbearuk\">@welshbearuk</a>,</p>\n<p>You’re more than welcome. I’m so glad that you appreciated my response, I really didn’t want you to think that you were being ignored so your response has also made my day - snap! <img src=\"https://forum.parkinsons.org.uk/images/emoji/twitter/grinning.png?v=5\" title=\":grinning:\" class=\"emoji\" alt=\":grinning:\"></p>\n<p>You’ve shared some really fascinating information which I’m sure our members will find interesting. I look forward to see you around on some more threads on the forum.</p>\n<p>Best wishes,<br>\nReah</p>\n      </div>\n      <meta itemprop='interactionCount' content='UserLikes:0'>\n      <meta itemprop='interactionCount' content='UserComments:0'>\n      <meta itemprop='headline' content='Vielight Neuro for Parkinsons!'>\n      <hr>\n  </div>\n  <div itemscope itemtype='http://schema.org/DiscussionForumPosting'>\n      <div class='creator'>\n        <span>\n          <a href='/u/Island_Mike'><b itemprop='author'>Island_Mike</b></a>\n          \n          <time datetime='2018-08-30T23:04:01Z' itemprop='datePublished'>\n            2018-08-30 23:04:01 UTC\n          </time>\n        </span>\n        <span itemprop='position'>#12</span>\n      </div>\n      <div class='post' itemprop='articleBody'>\n        <p>Apologies. For various reasons, I’ve been away from the forum.</p>\n<p>This system is complete and utter nonsense. The near infrared sauna is nothing more than an electric heater. The headset is a complete con. Photons of any description cannot possibly pass through the skull. They simply don’t have the energy. That’s basic physics. You can’t shine a torch through cardboard, so how can lower energy low infrared pass through bone?</p>\n<p>Sometimes I despair at the gullibility of folk. It’s understandable in a condition like PD that people will look for anything that will relieve symptoms or provide a cure, but these people should be strung up for leading people on to strip them of their hard earned money. It’s theft, pure and simple.</p>\n      </div>\n      <meta itemprop='interactionCount' content='UserLikes:1'>\n      <meta itemprop='interactionCount' content='UserComments:3'>\n      <meta itemprop='headline' content='Vielight Neuro for Parkinsons!'>\n      <hr>\n  </div>\n  <div itemscope itemtype='http://schema.org/DiscussionForumPosting'>\n      <div class='creator'>\n        <span>\n          <a href='/u/babswood'><b itemprop='author'>babswood</b></a>\n          \n          <time datetime='2018-08-31T14:39:24Z' itemprop='datePublished'>\n            2018-08-31 14:39:24 UTC\n          </time>\n        </span>\n        <span itemprop='position'>#13</span>\n      </div>\n      <div class='post' itemprop='articleBody'>\n        <p>I agree with you.</p>\n<p>Babs</p>\n      </div>\n      <meta itemprop='interactionCount' content='UserLikes:0'>\n      <meta itemprop='interactionCount' content='UserComments:0'>\n      <meta itemprop='headline' content='Vielight Neuro for Parkinsons!'>\n      <hr>\n  </div>\n  <div itemscope itemtype='http://schema.org/DiscussionForumPosting'>\n      <div class='creator'>\n        <span>\n          <a href='/u/goldengirl'><b itemprop='author'>goldengirl</b></a>\n          \n          <time datetime='2018-08-31T18:02:56Z' itemprop='datePublished'>\n            2018-08-31 18:02:56 UTC\n          </time>\n        </span>\n        <span itemprop='position'>#14</span>\n      </div>\n      <div class='post' itemprop='articleBody'>\n        <p>Hi welshbearuk<br>\nIt seems you are convinced that this is a reliable and effective device and worth the money.<br>\nI assume you are going ahead with buying and using it.<br>\nPlease let us know how you get on…I will be a nterested in the results.<br>\nGG</p>\n      </div>\n      <meta itemprop='interactionCount' content='UserLikes:0'>\n      <meta itemprop='interactionCount' content='UserComments:0'>\n      <meta itemprop='headline' content='Vielight Neuro for Parkinsons!'>\n      <hr>\n  </div>\n  <div itemscope itemtype='http://schema.org/DiscussionForumPosting'>\n      <div class='creator'>\n        <span>\n          <a href='/u/welshbearuk'><b itemprop='author'>welshbearuk</b></a>\n          \n          <time datetime='2018-10-12T20:43:25Z' itemprop='datePublished'>\n            2018-10-12 20:43:25 UTC\n          </time>\n        </span>\n        <span itemprop='position'>#15</span>\n      </div>\n      <div class='post' itemprop='articleBody'>\n        <p>hi goldengirl, im afraid if i had the money and funds , i would be the first to try out the  Vielight Neuro Head set , but im not, worse luck so maybe the u.s michael j fox company would buy a couple on trial, im sure michael j fox would be first in the que , after all the MJF Organisation blast away over 50 million a year on the testing  old useless drugs  which have proved over the years to be a dead end street, yet they persist to follow that route</p>\n<pre><code>                                                   Best  regards  welshbearuk  aka  Hugh</code></pre>\n      </div>\n      <meta itemprop='interactionCount' content='UserLikes:0'>\n      <meta itemprop='interactionCount' content='UserComments:1'>\n      <meta itemprop='headline' content='Vielight Neuro for Parkinsons!'>\n      <hr>\n  </div>\n  <div itemscope itemtype='http://schema.org/DiscussionForumPosting'>\n      <div class='creator'>\n        <span>\n          <a href='/u/Laurent'><b itemprop='author'>Laurent</b></a>\n          \n          <time datetime='2019-03-29T10:09:35Z' itemprop='datePublished'>\n            2019-03-29 10:09:35 UTC\n          </time>\n        </span>\n        <span itemprop='position'>#16</span>\n      </div>\n      <div class='post' itemprop='articleBody'>\n        <p>Yankee here. I’ve just been made aware of this therapy and we may very well throw the money at it to see if it helps. The nasal clip seems more likely to be absorbed than the cranial helmet - but there have been encouraging results in mice and primates and I can’t just chalk it up to a scam. Harvard and MIT have both taken it seriously enough to begin studies.<br>\nI will keep you posted, it will probably be a while … if there arent any results, at least everyone will know that.  I’m afraid that, if it helps us, many won’t believe it anyway, but I’ll still report it for those who are interested.</p>\n      </div>\n      <meta itemprop='interactionCount' content='UserLikes:0'>\n      <meta itemprop='interactionCount' content='UserComments:0'>\n      <meta itemprop='headline' content='Vielight Neuro for Parkinsons!'>\n      <hr>\n  </div>\n  <div itemscope itemtype='http://schema.org/DiscussionForumPosting'>\n      <div class='creator'>\n        <span>\n          <a href='/u/Laurent'><b itemprop='author'>Laurent</b></a>\n          \n          <time datetime='2019-03-29T10:09:55Z' itemprop='datePublished'>\n            2019-03-29 10:09:55 UTC\n          </time>\n        </span>\n        <span itemprop='position'>#17</span>\n      </div>\n      <div class='post' itemprop='articleBody'>\n        <p>Oops … here’s the article: <a href=\"https://www.sciencedirect.com/science/article/pii/S2214647416300381\" rel=\"nofollow noopener\">https://www.sciencedirect.com/science/article/pii/S2214647416300381</a></p>\n      </div>\n      <meta itemprop='interactionCount' content='UserLikes:0'>\n      <meta itemprop='interactionCount' content='UserComments:0'>\n      <meta itemprop='headline' content='Vielight Neuro for Parkinsons!'>\n      <hr>\n  </div>\n  <div itemscope itemtype='http://schema.org/DiscussionForumPosting'>\n      <div class='creator'>\n        <span>\n          <a href='/u/Laurent'><b itemprop='author'>Laurent</b></a>\n          \n          <time datetime='2019-03-29T10:09:58Z' itemprop='datePublished'>\n            2019-03-29 10:09:58 UTC\n          </time>\n        </span>\n        <span itemprop='position'>#18</span>\n      </div>\n      <div class='post' itemprop='articleBody'>\n        <p>This article seems to refute the assertion that skull penetration is completely impossble. I’m not saying we should blindly believe it, I’m just saying we shouldn’t didmiss it out of hand.</p>\n      </div>\n      <meta itemprop='interactionCount' content='UserLikes:0'>\n      <meta itemprop='interactionCount' content='UserComments:1'>\n      <meta itemprop='headline' content='Vielight Neuro for Parkinsons!'>\n      <hr>\n  </div>\n  <div itemscope itemtype='http://schema.org/DiscussionForumPosting'>\n      <div class='creator'>\n        <span>\n          <a href='/u/Cheng52'><b itemprop='author'>Cheng52</b></a>\n          \n          <time datetime='2019-03-31T18:58:32Z' itemprop='datePublished'>\n            2019-03-31 18:58:32 UTC\n          </time>\n        </span>\n        <span itemprop='position'>#19</span>\n      </div>\n      <div class='post' itemprop='articleBody'>\n        <p>I tried using this device but the immediate reaction was to make my tremor worse so I gave up after 3 days. It cost about £1200 but I got 80% of that returned with no issues as part of the satisfaction guarantee. I decided not to continue due to lack of trial data and concern at making things worse. It may be that although I followed the instructions I would have benefited from a more gentle initial use. It certainly had some effect - just not what I was looking for.</p>\n      </div>\n      <meta itemprop='interactionCount' content='UserLikes:1'>\n      <meta itemprop='interactionCount' content='UserComments:0'>\n      <meta itemprop='headline' content='Vielight Neuro for Parkinsons!'>\n      <hr>\n  </div>\n  <div itemscope itemtype='http://schema.org/DiscussionForumPosting'>\n      <div class='creator'>\n        <span>\n          <a href='/u/Laurent'><b itemprop='author'>Laurent</b></a>\n          \n          <time datetime='2019-04-06T17:44:04Z' itemprop='datePublished'>\n            2019-04-06 17:44:04 UTC\n          </time>\n        </span>\n        <span itemprop='position'>#20</span>\n      </div>\n      <div class='post' itemprop='articleBody'>\n        <p>We settled on the neuro gamma and the X-plus. It arrived yesterday and we did the gamma for the first time today - the X/plus is still charging.<br>\nThe instructions recommend 20 minutes every other day.<br>\nI’m sorry to hear about your negative experience - I’ve heard some people didn’t see any improvement, but yours is the first I’ve heard that it made symptoms worse! Glad they honored their return policy for you!!<br>\nI’ll post updates when I have any. It’ll probably be at least 6 weeks before we notica any change - if there is any.</p>\n      </div>\n      <meta itemprop='interactionCount' content='UserLikes:1'>\n      <meta itemprop='interactionCount' content='UserComments:0'>\n      <meta itemprop='headline' content='Vielight Neuro for Parkinsons!'>\n      <hr>\n  </div>\n\n  <div role='navigation' itemscope itemtype='http://schema.org/SiteNavigationElement'>\n      <span itemprop='name'><b><a rel=\"next\" itemprop=\"url\" href=\"/t/vielight-neuro-for-parkinsons/13969?page=2\">next page →</a></b></span>\n  </div>\n\n\n\n\n\n    </div>\n    <footer class=\"container\">\n      <nav class='crawler-nav' itemscope itemtype='http://schema.org/SiteNavigationElement'>\n        <a href='/'>Home</a>\n        <a href=\"/categories\">Categories</a>\n        <a href=\"/guidelines\">FAQ/Guidelines</a>\n        <a href=\"/tos\">Terms of Service</a>\n        <a href=\"/privacy\">Privacy Policy</a>\n      </nav>\n      <p class='powered-by-link'>Powered by <a href=\"https://www.discourse.org\">Discourse</a>, best viewed with JavaScript enabled</p>\n    </footer>\n    \n  </body>\n  \n</html>\n",
  "url": "https://forum.parkinsons.org.uk/t/vielight-neuro-for-parkinsons/13969"
}