{
  "contentId": "bdb43890-8865-11e9-8f96-97f71b5221d6",
  "html": "<!DOCTYPE html>\n<html lang=\"en\">\n  <head>\n    <meta charset=\"utf-8\">\n    <title>Airport assistance - Daily life - Parkinson&#39;s UK Forum</title>\n    <meta name=\"description\" content=\"In just over a weeks time I am flying from Bristol to Majorca by EasyJet and have booked airport assistance. Last time I found it quite challenging as I freeze in crowded places, at doorways, in queues etc and other peop&amp;hellip;\">\n    <meta name=\"author\" content=\"\">\n<meta name=\"generator\" content=\"Discourse 2.2.5 - https://github.com/discourse/discourse version c294ff3609f988dcafb742e91606d60ca13b794d\">\n<link rel=\"icon\" type=\"image/png\" href=\"https://forum.parkinsons.org.uk/uploads/db7928/original/2X/3/311fc84f89f49f38601a2f16b295b6f03d3ce5dd.jpg\">\n<link rel=\"apple-touch-icon\" type=\"image/png\" href=\"https://forum.parkinsons.org.uk/uploads/db7928/original/2X/3/311fc84f89f49f38601a2f16b295b6f03d3ce5dd.jpg\">\n<meta name=\"theme-color\" content=\"#ffffff\">\n<meta name=\"viewport\" content=\"width=device-width, minimum-scale=1.0, maximum-scale=1.0, user-scalable=yes\">\n<link rel=\"canonical\" href=\"https://forum.parkinsons.org.uk/t/airport-assistance/9000\" />\n<script type=\"application/ld+json\">{\"@context\":\"http://schema.org\",\"@type\":\"WebSite\",\"url\":\"https://forum.parkinsons.org.uk\",\"potentialAction\":{\"@type\":\"SearchAction\",\"target\":\"https://forum.parkinsons.org.uk/search?q={search_term_string}\",\"query-input\":\"required name=search_term_string\"}}</script>\n<link rel=\"search\" type=\"application/opensearchdescription+xml\" href=\"https://forum.parkinsons.org.uk/opensearch.xml\" title=\"Parkinson&#39;s UK Forum Search\">\n\n      <link href=\"/stylesheets/desktop_f99246ae801b083d3e4cca979d0dade8615b39ac.css?__ws=forum.parkinsons.org.uk\" media=\"all\" rel=\"stylesheet\" data-target=\"desktop\" data-theme-id=\"12\"/>\n      <link href=\"/stylesheets/desktop_theme_12_5d27531cf43f9df0c03a6a6ec3109dd05f9dfc49.css?__ws=forum.parkinsons.org.uk\" media=\"all\" rel=\"stylesheet\" data-target=\"desktop_theme\" data-theme-id=\"12\"/>\n    <link href=\"https://fonts.googleapis.com/css?family=Open+Sans\" rel=\"stylesheet\">\n\n    <meta id=\"data-ga-universal-analytics\" data-tracking-code=\"UA-4855628-1\" data-json=\"{&quot;cookieDomain&quot;:&quot;auto&quot;}\" data-auto-link-domains=\"\">\n\n<link rel='preload' href='/assets/google-universal-analytics-f35b4da49411e6f5559073523aab983da483976a3954c79c756f8579f6fbd6ef.js' as='script'/>\n<script src='/assets/google-universal-analytics-f35b4da49411e6f5559073523aab983da483976a3954c79c756f8579f6fbd6ef.js'></script>\n\n      <link rel=\"alternate\" type=\"application/rss+xml\" title=\"RSS feed of &#39;Airport assistance&#39;\" href=\"https://forum.parkinsons.org.uk/t/airport-assistance/9000.rss\" />\n  <meta property=\"og:site_name\" content=\"Parkinson&#39;s UK Forum\" />\n<meta name=\"twitter:card\" content=\"summary\" />\n<meta name=\"twitter:image\" content=\"https://forum.parkinsons.org.uk/uploads/db7928/original/2X/3/311fc84f89f49f38601a2f16b295b6f03d3ce5dd.jpg\" />\n<meta property=\"og:image\" content=\"https://forum.parkinsons.org.uk/uploads/db7928/original/2X/3/311fc84f89f49f38601a2f16b295b6f03d3ce5dd.jpg\" />\n<meta property=\"og:url\" content=\"https://forum.parkinsons.org.uk/t/airport-assistance/9000\" />\n<meta name=\"twitter:url\" content=\"https://forum.parkinsons.org.uk/t/airport-assistance/9000\" />\n<meta property=\"og:title\" content=\"Airport assistance\" />\n<meta name=\"twitter:title\" content=\"Airport assistance\" />\n<meta property=\"og:description\" content=\"In just over a weeks time I am flying from Bristol to Majorca by EasyJet and have booked airport assistance. Last time I found it quite challenging as I freeze in crowded places, at doorways, in queues etc and other people are not at their most understanding when stressed themselves by flying. Does anybody have experience of this service? How helpful is it? I am beginning to feel quite stressed already, ridiculous, I know, as I will be fine once I get there and can&#39;t wait to be cycling in the wa...\" />\n<meta name=\"twitter:description\" content=\"In just over a weeks time I am flying from Bristol to Majorca by EasyJet and have booked airport assistance. Last time I found it quite challenging as I freeze in crowded places, at doorways, in queues etc and other people are not at their most understanding when stressed themselves by flying. Does anybody have experience of this service? How helpful is it? I am beginning to feel quite stressed already, ridiculous, I know, as I will be fine once I get there and can&#39;t wait to be cycling in the wa...\" />\n<meta property=\"article:published_time\" content=\"2016-03-13T07:22:33+00:00\" />\n<meta property=\"og:ignore_canonical\" content=\"true\" />\n\n\n\n    \n  </head>\n  <body class=\"crawler\">\n    <header role=\"banner\">\n    <div class=\"region region-header\">\n        <div class=\"region-header-wrapper\">\n            <div id=\"block-parkinsons-d8-branding\" class=\"block block-system block-system-branding-block\">\n                <a href=\"/\" title=\"Home\" rel=\"home\" class=\"site-logo\">\n                    <img src=\"https://forum.parkinsons.org.uk/uploads/db7928/original/2X/8/862bb7d172e7d127e7f3e147ec43594aa62ac945.png\" alt=\"Parkinson's UK. Change Attitudes. Find a cure. Join us.\">\n                </a>\n            </div>\n            <div id=\"block-helpline\" class=\"block block-block-content block-block-content871cd5af-b938-4947-9dc0-d5c211d08fe3 style-phone\">\n                <div class=\"field field--name-field-link field--type-link field--label-hidden field__item\"><a href=\"tel:+448088000303\">Helpline 0808 800 0303</a></div>\n            </div>\n            <div id=\"block-shop\" class=\"block block-block-content block-block-content6fba5ae5-7797-49cd-8367-f321d8111cd6 style-regular\">\n                <div class=\"field field--name-field-link field--type-link field--label-hidden field__item\"><a href=\"https://shop.parkinsons.org.uk\">Shop</a></div>\n            </div>\n        </div>\n    </div>\n</header>\n\n\n<script src=\"/theme-javascripts/b7e9763fcb584fc8265c56a9f557cd6d2e1e8ed8.js?__ws=forum.parkinsons.org.uk\"></script>\n    <header>\n      <a href=\"/\">\n          <img src=\"https://forum.parkinsons.org.uk/uploads/db7928/original/2X/8/862bb7d172e7d127e7f3e147ec43594aa62ac945.png\" alt=\"Parkinson&#39;s UK Forum\" id=\"site-logo\" style=\"max-width: 150px;\">\n      </a>\n    </header>\n    <div id=\"main-outlet\" class=\"wrap\">\n      <h1>\n  <a href=\"/t/airport-assistance/9000\">Airport assistance</a>\n</h1>\n\n<div id='breadcrumbs'>\n    <div id=\"breadcrumb-0\" itemscope itemtype=\"http://data-vocabulary.org/Breadcrumb\"\n        itemref=\"breadcrumb-1\"\n      >\n      <a href=\"/c/living-with-parkinsons\" itemprop=\"url\">\n        <span itemprop=\"title\">Living with Parkinson&#39;s</span>\n      </a>\n    </div>\n    <div id=\"breadcrumb-1\" itemscope itemtype=\"http://data-vocabulary.org/Breadcrumb\"\n>\n      <a href=\"/c/living-with-parkinsons/daily-life\" itemprop=\"url\">\n        <span itemprop=\"title\">Daily life</span>\n      </a>\n    </div>\n</div>\n\n\n\n\n\n<hr>\n\n\n  <div itemscope itemtype='http://schema.org/DiscussionForumPosting'>\n      <div class='creator'>\n        <span>\n          <a href='/u/Supa'><b itemprop='author'>Supa</b></a>\n          \n          <time datetime='2016-03-13T07:22:33Z' itemprop='datePublished'>\n            2016-03-13 07:22:33 UTC\n          </time>\n        </span>\n        <span itemprop='position'>#1</span>\n      </div>\n      <div class='post' itemprop='articleBody'>\n        <p>In just over a weeks time I am flying from Bristol to Majorca by EasyJet and have booked airport assistance. Last time I found it quite challenging as I freeze in crowded places, at doorways, in queues etc and other people are not at their most understanding when stressed themselves by flying. Does anybody have experience of this service? How helpful is it? I am beginning to feel quite stressed already, ridiculous, I know, as I will be fine once I get there and can&#39;t wait to be cycling in the warm sunshine along familiar pine-scented lanes in sight of the sea. S</p>\n      </div>\n      <meta itemprop='interactionCount' content='UserLikes:0'>\n      <meta itemprop='interactionCount' content='UserComments:0'>\n      <meta itemprop='headline' content='Airport assistance'>\n      <hr>\n  </div>\n  <div itemscope itemtype='http://schema.org/DiscussionForumPosting'>\n      <div class='creator'>\n        <span>\n          <a href='/u/Twinks'><b itemprop='author'>Twinks</b></a>\n          \n          <time datetime='2016-03-13T11:16:16Z' itemprop='datePublished'>\n            2016-03-13 11:16:16 UTC\n          </time>\n        </span>\n        <span itemprop='position'>#2</span>\n      </div>\n      <div class='post' itemprop='articleBody'>\n        <p>Hi Supa,</p>\r\n<p>I got assistance when I flew to Canada and it was great. Had to arrive at the airport a bit earlier to report in, but you are taken to passport control in a buggy, (or wheelchair) and first on the plane. No queueing or standing for ages. Same at the other end. I was travelling with my sister and she accompanied me in the buggy etc.</p>\r\n<p>Go for it and have a lovely holiday! &nbsp; x</p>\n      </div>\n      <meta itemprop='interactionCount' content='UserLikes:0'>\n      <meta itemprop='interactionCount' content='UserComments:0'>\n      <meta itemprop='headline' content='Airport assistance'>\n      <hr>\n  </div>\n  <div itemscope itemtype='http://schema.org/DiscussionForumPosting'>\n      <div class='creator'>\n        <span>\n          <a href='/u/Cossy_60'><b itemprop='author'>Cossy_60</b></a>\n          \n          <time datetime='2016-03-13T14:47:47Z' itemprop='datePublished'>\n            2016-03-13 14:47:47 UTC\n          </time>\n        </span>\n        <span itemprop='position'>#3</span>\n      </div>\n      <div class='post' itemprop='articleBody'>\n        <p>Hi , I was recently on holiday in Spain and used airport assistance both ways ..it was perfect. No stress and very slick and efficient. Try it , you&#39;ll love it</p>\n      </div>\n      <meta itemprop='interactionCount' content='UserLikes:0'>\n      <meta itemprop='interactionCount' content='UserComments:0'>\n      <meta itemprop='headline' content='Airport assistance'>\n      <hr>\n  </div>\n  <div itemscope itemtype='http://schema.org/DiscussionForumPosting'>\n      <div class='creator'>\n        <span>\n          <a href='/u/Sadiebear'><b itemprop='author'>Sadiebear</b></a>\n          \n          <time datetime='2016-03-13T15:03:00Z' itemprop='datePublished'>\n            2016-03-13 15:03:00 UTC\n          </time>\n        </span>\n        <span itemprop='position'>#4</span>\n      </div>\n      <div class='post' itemprop='articleBody'>\n        <p>I would like to&nbsp;say that the Assistant Help at Stansted Airport are the best.</p>\r\n<p>Someone came to the front of the building to greet us and made it clear that she was there for the two of us.</p>\r\n<p>This lady then pushed us through booking in, security and passport control.</p>\r\n<p>She said that if we wanted, she would be with us until we had boarded the plane. &nbsp;We wanted breakfast and a little look around so she arranged to meet us at a certain point and time. &nbsp;</p>\r\n<p>We had the same service on our return. &nbsp;She took us to.our car and helped me get in and said goodbye.</p>\r\n<p>Lovely lady</p>\r\n<p>best wishes</p>\r\n<p>&nbsp;Casie</p>\n      </div>\n      <meta itemprop='interactionCount' content='UserLikes:0'>\n      <meta itemprop='interactionCount' content='UserComments:0'>\n      <meta itemprop='headline' content='Airport assistance'>\n      <hr>\n  </div>\n  <div itemscope itemtype='http://schema.org/DiscussionForumPosting'>\n      <div class='creator'>\n        <span>\n          <a href='/u/mrtoad'><b itemprop='author'>mrtoad</b></a>\n          \n          <time datetime='2016-03-13T18:31:00Z' itemprop='datePublished'>\n            2016-03-13 18:31:00 UTC\n          </time>\n        </span>\n        <span itemprop='position'>#5</span>\n      </div>\n      <div class='post' itemprop='articleBody'>\n        <p>Hi Supa</p>\r\n<p>I have used Airport assistance twice at Manchester&nbsp;flying to Dalaman, Turkey. The service at both ends was brilliant and I would happily use it again.</p>\r\n<p>Lucky you, it&#39;s ages since I&#39;ve&nbsp;been to Mallorca. have a lovely&nbsp;holiday!</p>\r\n<p>Regards mrtoad</p>\n      </div>\n      <meta itemprop='interactionCount' content='UserLikes:0'>\n      <meta itemprop='interactionCount' content='UserComments:0'>\n      <meta itemprop='headline' content='Airport assistance'>\n      <hr>\n  </div>\n  <div itemscope itemtype='http://schema.org/DiscussionForumPosting'>\n      <div class='creator'>\n        <span>\n          <a href='/u/Supa'><b itemprop='author'>Supa</b></a>\n          \n          <time datetime='2016-03-14T09:11:23Z' itemprop='datePublished'>\n            2016-03-14 09:11:23 UTC\n          </time>\n        </span>\n        <span itemprop='position'>#6</span>\n      </div>\n      <div class='post' itemprop='articleBody'>\n        <p>Thank you all for your positive replies, I feel so much better now, will start packing!</p>\r\n<p><br />\r\n\tMr Toad - have just looked at your blog, glad your DBS appointments are moving along at last. Best of luck on the 21st.</p>\r\n<p>S</p>\n      </div>\n      <meta itemprop='interactionCount' content='UserLikes:0'>\n      <meta itemprop='interactionCount' content='UserComments:0'>\n      <meta itemprop='headline' content='Airport assistance'>\n      <hr>\n  </div>\n  <div itemscope itemtype='http://schema.org/DiscussionForumPosting'>\n      <div class='creator'>\n        <span>\n          <a href='/u/mrtoad'><b itemprop='author'>mrtoad</b></a>\n          \n          <time datetime='2016-03-14T22:09:41Z' itemprop='datePublished'>\n            2016-03-14 22:09:41 UTC\n          </time>\n        </span>\n        <span itemprop='position'>#7</span>\n      </div>\n      <div class='post' itemprop='articleBody'>\n        <p>Thanks for your good wishes Supa. It&#39;s good to know somebody is reading my blog!</p>\r\n<p>Once again, have a lovely holiday, I&#39;m sure you deserve it.</p>\r\n<p>mrtoad</p>\n      </div>\n      <meta itemprop='interactionCount' content='UserLikes:0'>\n      <meta itemprop='interactionCount' content='UserComments:0'>\n      <meta itemprop='headline' content='Airport assistance'>\n      <hr>\n  </div>\n  <div itemscope itemtype='http://schema.org/DiscussionForumPosting'>\n      <div class='creator'>\n        <span>\n          <a href='/u/Mike_of_Broadway_NY'><b itemprop='author'>Mike_of_Broadway_NY</b></a>\n          \n          <time datetime='2016-03-15T03:31:57Z' itemprop='datePublished'>\n            2016-03-15 03:31:57 UTC\n          </time>\n        </span>\n        <span itemprop='position'>#8</span>\n      </div>\n      <div class='post' itemprop='articleBody'>\n        <p>Bon Voyage Supa,</p>\r\n<p>For the last 13 years I have relied on airport assistance for my wife who also has freezing problems and have had only the best care ,at one time an airline helper even knew how to walk backwards facing in front of my wife to walk her through the &nbsp;jet aircraft&nbsp;doorway &nbsp;as my hands were full carrying our luggage.</p>\r\n<p>We also use a wheelchair &amp;&nbsp;attendant&nbsp;to take us to the departing&nbsp; gate ,also in many airports here in the USA one can use a &quot;Unisex family toilet facility&quot; which allows any caregiver access to help their friend in need even with a wheelchair.</p>\r\n<p>&nbsp;</p>\r\n<p>&nbsp;</p>\r\n<p>&nbsp;</p>\n      </div>\n      <meta itemprop='interactionCount' content='UserLikes:0'>\n      <meta itemprop='interactionCount' content='UserComments:0'>\n      <meta itemprop='headline' content='Airport assistance'>\n      <hr>\n  </div>\n  <div itemscope itemtype='http://schema.org/DiscussionForumPosting'>\n      <div class='creator'>\n        <span>\n          <a href='/u/Sadiebear'><b itemprop='author'>Sadiebear</b></a>\n          \n          <time datetime='2016-08-17T14:43:08Z' itemprop='datePublished'>\n            2016-08-17 14:43:08 UTC\n          </time>\n        </span>\n        <span itemprop='position'>#9</span>\n      </div>\n      <div class='post' itemprop='articleBody'>\n        <p>LHello,</p>\r\n<p>Just posted in to let you know we used&nbsp;Stansted&nbsp;Airport again this year but no patch on last year. &nbsp;On our return, &nbsp;there was no wheelchair waiting. &nbsp;The man was expecting me to walk d<b>own a flight of stairs and climb into his people carrier. &nbsp;When we explained&nbsp;</b>this he asked us to walk up the gangplank and wait for him there as he had to go elsewhere for the wheelchair.&nbsp;</p>\r\n<p>This was a difficult walk for me as it was going uphill and there was no seating at the top so I had to stand for about ten minutes. &nbsp;When he did arrive, we had to ask him to slow down because I was getting a very bumpy ride and my husband couldn&#39;t keep up as he&#39;d had a replacement op earlier this year. &nbsp;He then passed me on to someone else, who passed me on to ŷet another member of their staff who just stood in the baggage hall while OH pulled our luggage on to a trolley!&nbsp;</p>\r\n<p>Will let them know what we thought about their service but can&#39;t imagine anything will be done.&nbsp;</p>\r\n<p>Best wishes</p>\r\n<p>Casie</p>\r\n<p>&nbsp;</p>\r\n<p>&nbsp;</p>\r\n<p>&nbsp;</p>\n      </div>\n      <meta itemprop='interactionCount' content='UserLikes:0'>\n      <meta itemprop='interactionCount' content='UserComments:0'>\n      <meta itemprop='headline' content='Airport assistance'>\n      <hr>\n  </div>\n  <div itemscope itemtype='http://schema.org/DiscussionForumPosting'>\n      <div class='creator'>\n        <span>\n          <a href='/u/Mike_of_Broadway_NY'><b itemprop='author'>Mike_of_Broadway_NY</b></a>\n          \n          <time datetime='2016-08-22T00:52:00Z' itemprop='datePublished'>\n            2016-08-22 00:52:00 UTC\n          </time>\n        </span>\n        <span itemprop='position'>#10</span>\n      </div>\n      <div class='post' itemprop='articleBody'>\n        <p>Sorry, Ms.Casey about your lack of care in that airport.</p>\r\n<p>I certainly would complain and as you previously stated getting good help at this facility perhaps they were just having a bad day. May things be better next travels!</p>\r\n<p>Mike</p>\n      </div>\n      <meta itemprop='interactionCount' content='UserLikes:0'>\n      <meta itemprop='interactionCount' content='UserComments:0'>\n      <meta itemprop='headline' content='Airport assistance'>\n      <hr>\n  </div>\n  <div itemscope itemtype='http://schema.org/DiscussionForumPosting'>\n      <div class='creator'>\n        <span>\n          <a href='/u/minkymoo'><b itemprop='author'>minkymoo</b></a>\n          \n          <time datetime='2016-09-22T18:26:06Z' itemprop='datePublished'>\n            2016-09-22 18:26:06 UTC\n          </time>\n        </span>\n        <span itemprop='position'>#11</span>\n      </div>\n      <div class='post' itemprop='articleBody'>\n        <p>Hi Supa&nbsp;- how did you get on? We&#39;re going to Majorca next year and have booked assistance for the first time, mainly because I know my hubby won&#39;t cope with the long walk from plane to baggage at Palma and will struggle queuing to board the plane. Hope you had a good holiday.</p>\r\n<p>&nbsp;</p>\r\n<p>Kind regards</p>\r\n<p>&nbsp;</p>\r\n<p>&nbsp;</p>\r\n<p>&nbsp;</p>\n      </div>\n      <meta itemprop='interactionCount' content='UserLikes:0'>\n      <meta itemprop='interactionCount' content='UserComments:1'>\n      <meta itemprop='headline' content='Airport assistance'>\n      <hr>\n  </div>\n  <div itemscope itemtype='http://schema.org/DiscussionForumPosting'>\n      <div class='creator'>\n        <span>\n          <a href='/u/Supa'><b itemprop='author'>Supa</b></a>\n          \n          <time datetime='2016-09-22T21:15:35Z' itemprop='datePublished'>\n            2016-09-22 21:15:35 UTC\n          </time>\n        </span>\n        <span itemprop='position'>#12</span>\n      </div>\n      <div class='post' itemprop='articleBody'>\n        <p>Hi Minkymoo</p>\r\n<p>it was brilliant. That is both the holiday and the assistance.</p>\r\n<p>Bristol airport was&nbsp;heaving as it was Easter hols, but was whizzed along in wheelchair past everybody! My partner just about managed to keep up. At Palma&nbsp;need to be a bit more assertive in airport, but help is there. May depend on time of year. Palma&nbsp;airport only part used at Easter time, its huge.&nbsp;</p>\r\n<p>When are you travelling and from which airport?</p>\r\n<p>S&nbsp;</p>\r\n<p>&nbsp;</p>\r\n<p>&nbsp;</p>\r\n<p>&nbsp;</p>\r\n<p>&nbsp;</p>\n      </div>\n      <meta itemprop='interactionCount' content='UserLikes:0'>\n      <meta itemprop='interactionCount' content='UserComments:1'>\n      <meta itemprop='headline' content='Airport assistance'>\n      <hr>\n  </div>\n  <div itemscope itemtype='http://schema.org/DiscussionForumPosting'>\n      <div class='creator'>\n        <span>\n          <a href='/u/minkymoo'><b itemprop='author'>minkymoo</b></a>\n          \n          <time datetime='2016-09-23T18:21:32Z' itemprop='datePublished'>\n            2016-09-23 18:21:32 UTC\n          </time>\n        </span>\n        <span itemprop='position'>#13</span>\n      </div>\n      <div class='post' itemprop='articleBody'>\n        <p>Hi supa glad you had a nice time - we&#39;re going from east mids to palma. staying at Cala d&#39;or which we&#39;ve been to a few times before.</p>\r\n<p>&nbsp;</p>\r\n<p>Kind regards</p>\r\n<p>&nbsp;</p>\r\n<p>Mm</p>\n      </div>\n      <meta itemprop='interactionCount' content='UserLikes:0'>\n      <meta itemprop='interactionCount' content='UserComments:0'>\n      <meta itemprop='headline' content='Airport assistance'>\n      <hr>\n  </div>\n  <div itemscope itemtype='http://schema.org/DiscussionForumPosting'>\n      <div class='creator'>\n        <span>\n          <a href='/u/dablahplus6'><b itemprop='author'>dablahplus6</b></a>\n          \n          <time datetime='2019-02-17T11:02:07Z' itemprop='datePublished'>\n            2019-02-17 11:02:07 UTC\n          </time>\n        </span>\n        <span itemprop='position'>#14</span>\n      </div>\n      <div class='post' itemprop='articleBody'>\n        <p>My husband has had Parkinson’s for 13 years. and we needed assistance, booked at travel agents, for London Gatwick, confirmed at checking desk British Airways for a flight to Antiqua, 2018. sent to 4 different places for assistance with small walking trolly, veery difficult. very distressing and confusing , we were then forgotten and had to ask again as our flight was boarding, assistance then came. one return journey , we were old they would come back for us as they had other people take and no room, nothing returned. Our trolley had been broken during flight back so we had to walk miles back to terminal as our taxi said they could not wait any longer.</p>\n      </div>\n      <meta itemprop='interactionCount' content='UserLikes:0'>\n      <meta itemprop='interactionCount' content='UserComments:0'>\n      <meta itemprop='headline' content='Airport assistance'>\n      <hr>\n  </div>\n  <div itemscope itemtype='http://schema.org/DiscussionForumPosting'>\n      <div class='creator'>\n        <span>\n          <a href='/u/Chocqueen11'><b itemprop='author'>Chocqueen11</b></a>\n          \n          <time datetime='2019-02-17T15:19:15Z' itemprop='datePublished'>\n            2019-02-17 15:19:15 UTC\n          </time>\n        </span>\n        <span itemprop='position'>#15</span>\n      </div>\n      <div class='post' itemprop='articleBody'>\n        <p>We have used assistance at Cardiff airport and it was fantastic. Wheelchair from check in, right through to boarding the plane, no hassle whatsoever.  Return journey from Lanzarote  where the assistance was fantastic too. On arriving back in Cardiff, wheelchair waiting for us, first off the plane, our luggage was collected for us and we were taken straight to our taxi.<br>\nHope you have a good experience</p>\n      </div>\n      <meta itemprop='interactionCount' content='UserLikes:0'>\n      <meta itemprop='interactionCount' content='UserComments:0'>\n      <meta itemprop='headline' content='Airport assistance'>\n      <hr>\n  </div>\n\n\n\n\n\n\n    </div>\n    <footer class=\"container\">\n      <nav class='crawler-nav' itemscope itemtype='http://schema.org/SiteNavigationElement'>\n        <a href='/'>Home</a>\n        <a href=\"/categories\">Categories</a>\n        <a href=\"/guidelines\">FAQ/Guidelines</a>\n        <a href=\"/tos\">Terms of Service</a>\n        <a href=\"/privacy\">Privacy Policy</a>\n      </nav>\n      <p class='powered-by-link'>Powered by <a href=\"https://www.discourse.org\">Discourse</a>, best viewed with JavaScript enabled</p>\n    </footer>\n    \n  </body>\n  \n</html>\n",
  "url": "https://forum.parkinsons.org.uk/t/airport-assistance/9000"
}