{
  "contentId": "e4948e50-886b-11e9-8f96-97f71b5221d6",
  "html": "<!DOCTYPE html>\n<html lang=\"en\">\n  <head>\n    <meta charset=\"utf-8\">\n    <title>Waiting to start medication - Newly diagnosed - Parkinson&#39;s UK Forum</title>\n    <meta name=\"description\" content=\"Hello All, \nI have been diagnosed with PD at 44 after a couple of MRIs and a DAT scan. It was obvious enough reviewing the CD I received with the DAT images even for a layman like myself. If memory doesn’t fail me the sy&amp;hellip;\">\n    <meta name=\"author\" content=\"\">\n<meta name=\"generator\" content=\"Discourse 2.2.5 - https://github.com/discourse/discourse version c294ff3609f988dcafb742e91606d60ca13b794d\">\n<link rel=\"icon\" type=\"image/png\" href=\"https://forum.parkinsons.org.uk/uploads/db7928/original/2X/3/311fc84f89f49f38601a2f16b295b6f03d3ce5dd.jpg\">\n<link rel=\"apple-touch-icon\" type=\"image/png\" href=\"https://forum.parkinsons.org.uk/uploads/db7928/original/2X/3/311fc84f89f49f38601a2f16b295b6f03d3ce5dd.jpg\">\n<meta name=\"theme-color\" content=\"#ffffff\">\n<meta name=\"viewport\" content=\"width=device-width, minimum-scale=1.0, maximum-scale=1.0, user-scalable=yes\">\n<link rel=\"canonical\" href=\"https://forum.parkinsons.org.uk/t/waiting-to-start-medication/15292\" />\n<script type=\"application/ld+json\">{\"@context\":\"http://schema.org\",\"@type\":\"WebSite\",\"url\":\"https://forum.parkinsons.org.uk\",\"potentialAction\":{\"@type\":\"SearchAction\",\"target\":\"https://forum.parkinsons.org.uk/search?q={search_term_string}\",\"query-input\":\"required name=search_term_string\"}}</script>\n<link rel=\"search\" type=\"application/opensearchdescription+xml\" href=\"https://forum.parkinsons.org.uk/opensearch.xml\" title=\"Parkinson&#39;s UK Forum Search\">\n\n      <link href=\"/stylesheets/desktop_f99246ae801b083d3e4cca979d0dade8615b39ac.css?__ws=forum.parkinsons.org.uk\" media=\"all\" rel=\"stylesheet\" data-target=\"desktop\" data-theme-id=\"12\"/>\n      <link href=\"/stylesheets/desktop_theme_12_5d27531cf43f9df0c03a6a6ec3109dd05f9dfc49.css?__ws=forum.parkinsons.org.uk\" media=\"all\" rel=\"stylesheet\" data-target=\"desktop_theme\" data-theme-id=\"12\"/>\n    <link href=\"https://fonts.googleapis.com/css?family=Open+Sans\" rel=\"stylesheet\">\n\n    <meta id=\"data-ga-universal-analytics\" data-tracking-code=\"UA-4855628-1\" data-json=\"{&quot;cookieDomain&quot;:&quot;auto&quot;}\" data-auto-link-domains=\"\">\n\n<link rel='preload' href='/assets/google-universal-analytics-f35b4da49411e6f5559073523aab983da483976a3954c79c756f8579f6fbd6ef.js' as='script'/>\n<script src='/assets/google-universal-analytics-f35b4da49411e6f5559073523aab983da483976a3954c79c756f8579f6fbd6ef.js'></script>\n\n      <link rel=\"alternate\" type=\"application/rss+xml\" title=\"RSS feed of &#39;Waiting to start medication&#39;\" href=\"https://forum.parkinsons.org.uk/t/waiting-to-start-medication/15292.rss\" />\n  <meta property=\"og:site_name\" content=\"Parkinson&#39;s UK Forum\" />\n<meta name=\"twitter:card\" content=\"summary\" />\n<meta name=\"twitter:image\" content=\"https://forum.parkinsons.org.uk/uploads/db7928/original/2X/3/311fc84f89f49f38601a2f16b295b6f03d3ce5dd.jpg\" />\n<meta property=\"og:image\" content=\"https://forum.parkinsons.org.uk/uploads/db7928/original/2X/3/311fc84f89f49f38601a2f16b295b6f03d3ce5dd.jpg\" />\n<meta property=\"og:url\" content=\"https://forum.parkinsons.org.uk/t/waiting-to-start-medication/15292\" />\n<meta name=\"twitter:url\" content=\"https://forum.parkinsons.org.uk/t/waiting-to-start-medication/15292\" />\n<meta property=\"og:title\" content=\"Waiting to start medication\" />\n<meta name=\"twitter:title\" content=\"Waiting to start medication\" />\n<meta property=\"og:description\" content=\"Hello All,  I have been diagnosed with PD at 44 after a couple of MRIs and a DAT scan. It was obvious enough reviewing the CD I received with the DAT images even for a layman like myself. If memory doesn’t fail me the symptoms started to creep in from around three years ago with pains and limited movement on the right shoulder and arm, leading to shuffling of the right leg, resting tremors when agitated, dizziness and tiredness.  After a long wait to see a neurologist, he gave an almost instant ...\" />\n<meta name=\"twitter:description\" content=\"Hello All,  I have been diagnosed with PD at 44 after a couple of MRIs and a DAT scan. It was obvious enough reviewing the CD I received with the DAT images even for a layman like myself. If memory doesn’t fail me the symptoms started to creep in from around three years ago with pains and limited movement on the right shoulder and arm, leading to shuffling of the right leg, resting tremors when agitated, dizziness and tiredness.  After a long wait to see a neurologist, he gave an almost instant ...\" />\n<meta property=\"article:published_time\" content=\"2018-08-20T21:47:40+00:00\" />\n<meta property=\"og:ignore_canonical\" content=\"true\" />\n\n\n\n    \n  </head>\n  <body class=\"crawler\">\n    <header role=\"banner\">\n    <div class=\"region region-header\">\n        <div class=\"region-header-wrapper\">\n            <div id=\"block-parkinsons-d8-branding\" class=\"block block-system block-system-branding-block\">\n                <a href=\"/\" title=\"Home\" rel=\"home\" class=\"site-logo\">\n                    <img src=\"https://forum.parkinsons.org.uk/uploads/db7928/original/2X/8/862bb7d172e7d127e7f3e147ec43594aa62ac945.png\" alt=\"Parkinson's UK. Change Attitudes. Find a cure. Join us.\">\n                </a>\n            </div>\n            <div id=\"block-helpline\" class=\"block block-block-content block-block-content871cd5af-b938-4947-9dc0-d5c211d08fe3 style-phone\">\n                <div class=\"field field--name-field-link field--type-link field--label-hidden field__item\"><a href=\"tel:+448088000303\">Helpline 0808 800 0303</a></div>\n            </div>\n            <div id=\"block-shop\" class=\"block block-block-content block-block-content6fba5ae5-7797-49cd-8367-f321d8111cd6 style-regular\">\n                <div class=\"field field--name-field-link field--type-link field--label-hidden field__item\"><a href=\"https://shop.parkinsons.org.uk\">Shop</a></div>\n            </div>\n        </div>\n    </div>\n</header>\n\n\n<script src=\"/theme-javascripts/b7e9763fcb584fc8265c56a9f557cd6d2e1e8ed8.js?__ws=forum.parkinsons.org.uk\"></script>\n    <header>\n      <a href=\"/\">\n          <img src=\"https://forum.parkinsons.org.uk/uploads/db7928/original/2X/8/862bb7d172e7d127e7f3e147ec43594aa62ac945.png\" alt=\"Parkinson&#39;s UK Forum\" id=\"site-logo\" style=\"max-width: 150px;\">\n      </a>\n    </header>\n    <div id=\"main-outlet\" class=\"wrap\">\n      <h1>\n  <a href=\"/t/waiting-to-start-medication/15292\">Waiting to start medication</a>\n</h1>\n\n<div id='breadcrumbs'>\n    <div id=\"breadcrumb-0\" itemscope itemtype=\"http://data-vocabulary.org/Breadcrumb\"\n        itemref=\"breadcrumb-1\"\n      >\n      <a href=\"/c/about-parkinsons-and-health\" itemprop=\"url\">\n        <span itemprop=\"title\">About Parkinson&#39;s and health</span>\n      </a>\n    </div>\n    <div id=\"breadcrumb-1\" itemscope itemtype=\"http://data-vocabulary.org/Breadcrumb\"\n>\n      <a href=\"/c/about-parkinsons-and-health/newly-diagnosed\" itemprop=\"url\">\n        <span itemprop=\"title\">Newly diagnosed</span>\n      </a>\n    </div>\n</div>\n\n\n\n\n\n<hr>\n\n\n  <div itemscope itemtype='http://schema.org/DiscussionForumPosting'>\n      <div class='creator'>\n        <span>\n          <a href='/u/Ozymandias'><b itemprop='author'>Ozymandias</b></a>\n          \n          <time datetime='2018-08-20T21:47:40Z' itemprop='datePublished'>\n            2018-08-20 21:47:40 UTC\n          </time>\n        </span>\n        <span itemprop='position'>#1</span>\n      </div>\n      <div class='post' itemprop='articleBody'>\n        <p>Hello All,</p>\n<p>I have been diagnosed with PD at 44 after a couple of MRIs and a DAT scan. It was obvious enough reviewing the CD I received with the DAT images even for a layman like myself. If memory doesn’t fail me the symptoms started to creep in from around three years ago with pains and limited movement on the right shoulder and arm, leading to shuffling of the right leg, resting tremors when agitated, dizziness and tiredness.</p>\n<p>After a long wait to see a neurologist, he gave an almost instant diagnosis of PD but would like to confirm after the scans.</p>\n<p>Me and my family cried all we had to cry and now we are accepting the reality of it. My wife and son have been extremely supportive and I feel very lucky for that.</p>\n<p>When I was a child we used to visit my great-grandparents in the country, my great-grandfather had PD and I was mortally afraid of him and his constant shaking, so that didn’t leave a great impression on a young me back in the 70s and 80s.</p>\n<p>My father used to tell us of an episode from his teenage days, when him and his cousins (planning to hang out with the local girls) stole a bottle of whiskey from his grandfather that his uncle used to bring over, which was at the time the only thing that would calm down his tremors. The whole plan went to the dogs when a less than brave cousin snitched my father and the others to his very prude mother and all hell broke loose. And the pretty fair ladies of the countryside were left waiting…</p>\n<p>A couple of weeks ago while visiting my parents, I broke the news of my diagnosis to them, and to my surprise my father confessed that he may also have PD as he has similar symptoms to mine, but has soldiered on with the disease for almost twenty years and never spoke to a doctor about it. Hopefully now that I have opened to them he will see a neurologist. I have also convinced them to have a DNA test with me to confirm if it’s only luck or there is a clear genetic link. In which case we will need to inform his brothers and my cousins, and I can’t stop thinking about what may be in store for my child.</p>\n<p>I feel hopeful the medication will improve my outlook, together with exercises and a better understanding of the disease.</p>\n<p>Thank you for listening to my ramblings.</p>\n      </div>\n      <meta itemprop='interactionCount' content='UserLikes:0'>\n      <meta itemprop='interactionCount' content='UserComments:0'>\n      <meta itemprop='headline' content='Waiting to start medication'>\n      <hr>\n  </div>\n  <div itemscope itemtype='http://schema.org/DiscussionForumPosting'>\n      <div class='creator'>\n        <span>\n          <a href='/u/T1'><b itemprop='author'>T1</b></a>\n          \n          <time datetime='2018-08-20T23:50:05Z' itemprop='datePublished'>\n            2018-08-20 23:50:05 UTC\n          </time>\n        </span>\n        <span itemprop='position'>#2</span>\n      </div>\n      <div class='post' itemprop='articleBody'>\n        <p>Hi Ozymandi<br>\nYou are not rambling my friend and you’ve come to the right place.<br>\nOn the forum you’ll get great advice and much more importantly the support and friendship to help you get through the trauma of diagnosis and beyond stay positive my friend and stay on the forum because it’s a journey we all have to go on and this is where the support is . It’s not all doom and gloom<br>\nthere’s plenty of humour too .<br>\nPlease take part in things like<br>\nWhat is your favourite song which is really a quiz just badly named but you’ll get the hang of it quite easily.<br>\nIt’s especially good for the long sleepless nights.<br>\nI’m so sorry you find yourself in this position and remember we don’t judge we just try our best to look after each other<br>\nTake care and plenty of meds<br>\nTommy <img src=\"https://forum.parkinsons.org.uk/images/emoji/twitter/pill.png?v=5\" title=\":pill:\" class=\"emoji\" alt=\":pill:\"><img src=\"https://forum.parkinsons.org.uk/images/emoji/twitter/pill.png?v=5\" title=\":pill:\" class=\"emoji\" alt=\":pill:\"><img src=\"https://forum.parkinsons.org.uk/images/emoji/twitter/pill.png?v=5\" title=\":pill:\" class=\"emoji\" alt=\":pill:\"></p>\n      </div>\n      <meta itemprop='interactionCount' content='UserLikes:0'>\n      <meta itemprop='interactionCount' content='UserComments:0'>\n      <meta itemprop='headline' content='Waiting to start medication'>\n      <hr>\n  </div>\n  <div itemscope itemtype='http://schema.org/DiscussionForumPosting'>\n      <div class='creator'>\n        <span>\n          <a href='/u/Koru'><b itemprop='author'>Koru</b></a>\n          \n          <time datetime='2018-08-25T13:25:48Z' itemprop='datePublished'>\n            2018-08-25 13:25:48 UTC\n          </time>\n        </span>\n        <span itemprop='position'>#3</span>\n      </div>\n      <div class='post' itemprop='articleBody'>\n        <p>Hello,</p>\n<p>Looking into the beginning of your posting it could have been me writing it; same age, same symptoms, same procedure. Incredible… Your advantage might be the previous experience in the family; take your time and try to build your own therapy and living/working scheme that suits you best… it’s your life, not your neurologist’s… wish you a lot of courage and luck!</p>\n<p>Koru</p>\n<p>„I have been diagnosed with PD at 44 after a couple of MRIs and a DAT scan. It was obvious enough reviewing the CD I received with the DAT images even for a layman like myself. If memory doesn’t fail me the symptoms started to creep in from around three years ago with pains and limited movement on the right shoulder and arm, leading to shuffling of the right leg, resting tremors when agitated, dizziness and tiredness.</p>\n<p>After a long wait to see a neurologist, he gave an almost instant diagnosis of PD but would like to confirm after the scans.“</p>\n      </div>\n      <meta itemprop='interactionCount' content='UserLikes:0'>\n      <meta itemprop='interactionCount' content='UserComments:0'>\n      <meta itemprop='headline' content='Waiting to start medication'>\n      <hr>\n  </div>\n\n\n\n\n\n\n    </div>\n    <footer class=\"container\">\n      <nav class='crawler-nav' itemscope itemtype='http://schema.org/SiteNavigationElement'>\n        <a href='/'>Home</a>\n        <a href=\"/categories\">Categories</a>\n        <a href=\"/guidelines\">FAQ/Guidelines</a>\n        <a href=\"/tos\">Terms of Service</a>\n        <a href=\"/privacy\">Privacy Policy</a>\n      </nav>\n      <p class='powered-by-link'>Powered by <a href=\"https://www.discourse.org\">Discourse</a>, best viewed with JavaScript enabled</p>\n    </footer>\n    \n  </body>\n  \n</html>\n",
  "url": "https://forum.parkinsons.org.uk/t/waiting-to-start-medication/15292"
}