{
  "contentId": "90f4af60-8865-11e9-8f96-97f71b5221d6",
  "html": "<!DOCTYPE html>\n<html lang=\"en\">\n  <head>\n    <meta charset=\"utf-8\">\n    <title>Anyone Deaf who uses sign language with Parkinson’s? - Carers, friends and family - Parkinson&#39;s UK Forum</title>\n    <meta name=\"description\" content=\"Hello, \nI’d like to enquire if there is anyone here from the deaf community with Parkinson’s? \nI’m looking for support for someone who uses sign language and who might be interested in using FaceTime and/or Skype session&amp;hellip;\">\n    <meta name=\"author\" content=\"\">\n<meta name=\"generator\" content=\"Discourse 2.2.5 - https://github.com/discourse/discourse version c294ff3609f988dcafb742e91606d60ca13b794d\">\n<link rel=\"icon\" type=\"image/png\" href=\"https://forum.parkinsons.org.uk/uploads/db7928/original/2X/3/311fc84f89f49f38601a2f16b295b6f03d3ce5dd.jpg\">\n<link rel=\"apple-touch-icon\" type=\"image/png\" href=\"https://forum.parkinsons.org.uk/uploads/db7928/original/2X/3/311fc84f89f49f38601a2f16b295b6f03d3ce5dd.jpg\">\n<meta name=\"theme-color\" content=\"#ffffff\">\n<meta name=\"viewport\" content=\"width=device-width, minimum-scale=1.0, maximum-scale=1.0, user-scalable=yes\">\n<link rel=\"canonical\" href=\"https://forum.parkinsons.org.uk/t/anyone-deaf-who-uses-sign-language-with-parkinson-s/18289\" />\n<script type=\"application/ld+json\">{\"@context\":\"http://schema.org\",\"@type\":\"WebSite\",\"url\":\"https://forum.parkinsons.org.uk\",\"potentialAction\":{\"@type\":\"SearchAction\",\"target\":\"https://forum.parkinsons.org.uk/search?q={search_term_string}\",\"query-input\":\"required name=search_term_string\"}}</script>\n<link rel=\"search\" type=\"application/opensearchdescription+xml\" href=\"https://forum.parkinsons.org.uk/opensearch.xml\" title=\"Parkinson&#39;s UK Forum Search\">\n\n      <link href=\"/stylesheets/desktop_f99246ae801b083d3e4cca979d0dade8615b39ac.css?__ws=forum.parkinsons.org.uk\" media=\"all\" rel=\"stylesheet\" data-target=\"desktop\" data-theme-id=\"12\"/>\n      <link href=\"/stylesheets/desktop_theme_12_5d27531cf43f9df0c03a6a6ec3109dd05f9dfc49.css?__ws=forum.parkinsons.org.uk\" media=\"all\" rel=\"stylesheet\" data-target=\"desktop_theme\" data-theme-id=\"12\"/>\n    <link href=\"https://fonts.googleapis.com/css?family=Open+Sans\" rel=\"stylesheet\">\n\n    <meta id=\"data-ga-universal-analytics\" data-tracking-code=\"UA-4855628-1\" data-json=\"{&quot;cookieDomain&quot;:&quot;auto&quot;}\" data-auto-link-domains=\"\">\n\n<link rel='preload' href='/assets/google-universal-analytics-f35b4da49411e6f5559073523aab983da483976a3954c79c756f8579f6fbd6ef.js' as='script'/>\n<script src='/assets/google-universal-analytics-f35b4da49411e6f5559073523aab983da483976a3954c79c756f8579f6fbd6ef.js'></script>\n\n      <link rel=\"alternate\" type=\"application/rss+xml\" title=\"RSS feed of &#39;Anyone Deaf who uses sign language with Parkinson’s?&#39;\" href=\"https://forum.parkinsons.org.uk/t/anyone-deaf-who-uses-sign-language-with-parkinson-s/18289.rss\" />\n  <meta property=\"og:site_name\" content=\"Parkinson&#39;s UK Forum\" />\n<meta name=\"twitter:card\" content=\"summary\" />\n<meta name=\"twitter:image\" content=\"https://forum.parkinsons.org.uk/uploads/db7928/original/2X/3/311fc84f89f49f38601a2f16b295b6f03d3ce5dd.jpg\" />\n<meta property=\"og:image\" content=\"https://forum.parkinsons.org.uk/uploads/db7928/original/2X/3/311fc84f89f49f38601a2f16b295b6f03d3ce5dd.jpg\" />\n<meta property=\"og:url\" content=\"https://forum.parkinsons.org.uk/t/anyone-deaf-who-uses-sign-language-with-parkinson-s/18289\" />\n<meta name=\"twitter:url\" content=\"https://forum.parkinsons.org.uk/t/anyone-deaf-who-uses-sign-language-with-parkinson-s/18289\" />\n<meta property=\"og:title\" content=\"Anyone Deaf who uses sign language with Parkinson’s?\" />\n<meta name=\"twitter:title\" content=\"Anyone Deaf who uses sign language with Parkinson’s?\" />\n<meta property=\"og:description\" content=\"Hello,  I’d like to enquire if there is anyone here from the deaf community with Parkinson’s?  I’m looking for support for someone who uses sign language and who might be interested in using FaceTime and/or Skype sessions for mutual support.  Many thanks in advance.  Roz.\" />\n<meta name=\"twitter:description\" content=\"Hello,  I’d like to enquire if there is anyone here from the deaf community with Parkinson’s?  I’m looking for support for someone who uses sign language and who might be interested in using FaceTime and/or Skype sessions for mutual support.  Many thanks in advance.  Roz.\" />\n<meta property=\"article:published_time\" content=\"2019-03-07T11:46:02+00:00\" />\n<meta property=\"og:ignore_canonical\" content=\"true\" />\n\n\n\n    \n  </head>\n  <body class=\"crawler\">\n    <header role=\"banner\">\n    <div class=\"region region-header\">\n        <div class=\"region-header-wrapper\">\n            <div id=\"block-parkinsons-d8-branding\" class=\"block block-system block-system-branding-block\">\n                <a href=\"/\" title=\"Home\" rel=\"home\" class=\"site-logo\">\n                    <img src=\"https://forum.parkinsons.org.uk/uploads/db7928/original/2X/8/862bb7d172e7d127e7f3e147ec43594aa62ac945.png\" alt=\"Parkinson's UK. Change Attitudes. Find a cure. Join us.\">\n                </a>\n            </div>\n            <div id=\"block-helpline\" class=\"block block-block-content block-block-content871cd5af-b938-4947-9dc0-d5c211d08fe3 style-phone\">\n                <div class=\"field field--name-field-link field--type-link field--label-hidden field__item\"><a href=\"tel:+448088000303\">Helpline 0808 800 0303</a></div>\n            </div>\n            <div id=\"block-shop\" class=\"block block-block-content block-block-content6fba5ae5-7797-49cd-8367-f321d8111cd6 style-regular\">\n                <div class=\"field field--name-field-link field--type-link field--label-hidden field__item\"><a href=\"https://shop.parkinsons.org.uk\">Shop</a></div>\n            </div>\n        </div>\n    </div>\n</header>\n\n\n<script src=\"/theme-javascripts/b7e9763fcb584fc8265c56a9f557cd6d2e1e8ed8.js?__ws=forum.parkinsons.org.uk\"></script>\n    <header>\n      <a href=\"/\">\n          <img src=\"https://forum.parkinsons.org.uk/uploads/db7928/original/2X/8/862bb7d172e7d127e7f3e147ec43594aa62ac945.png\" alt=\"Parkinson&#39;s UK Forum\" id=\"site-logo\" style=\"max-width: 150px;\">\n      </a>\n    </header>\n    <div id=\"main-outlet\" class=\"wrap\">\n      <h1>\n  <a href=\"/t/anyone-deaf-who-uses-sign-language-with-parkinson-s/18289\">Anyone Deaf who uses sign language with Parkinson’s?</a>\n</h1>\n\n<div id='breadcrumbs'>\n    <div id=\"breadcrumb-0\" itemscope itemtype=\"http://data-vocabulary.org/Breadcrumb\"\n        itemref=\"breadcrumb-1\"\n      >\n      <a href=\"/c/living-with-parkinsons\" itemprop=\"url\">\n        <span itemprop=\"title\">Living with Parkinson&#39;s</span>\n      </a>\n    </div>\n    <div id=\"breadcrumb-1\" itemscope itemtype=\"http://data-vocabulary.org/Breadcrumb\"\n>\n      <a href=\"/c/living-with-parkinsons/carers-friends-and-family\" itemprop=\"url\">\n        <span itemprop=\"title\">Carers, friends and family</span>\n      </a>\n    </div>\n</div>\n\n\n\n\n\n<hr>\n\n\n  <div itemscope itemtype='http://schema.org/DiscussionForumPosting'>\n      <div class='creator'>\n        <span>\n          <a href='/u/roz1'><b itemprop='author'>roz1</b></a>\n          \n          <time datetime='2019-03-07T11:46:02Z' itemprop='datePublished'>\n            2019-03-07 11:46:02 UTC\n          </time>\n        </span>\n        <span itemprop='position'>#1</span>\n      </div>\n      <div class='post' itemprop='articleBody'>\n        <p>Hello,</p>\n<p>I’d like to enquire if there is anyone here from the deaf community with Parkinson’s?</p>\n<p>I’m looking for support for someone who uses sign language and who might be interested in using FaceTime and/or Skype sessions for mutual support.</p>\n<p>Many thanks in advance.</p>\n<p>Roz.</p>\n      </div>\n      <meta itemprop='interactionCount' content='UserLikes:0'>\n      <meta itemprop='interactionCount' content='UserComments:0'>\n      <meta itemprop='headline' content='Anyone Deaf who uses sign language with Parkinson’s?'>\n      <hr>\n  </div>\n  <div itemscope itemtype='http://schema.org/DiscussionForumPosting'>\n      <div class='creator'>\n        <span>\n          <a href='/u/Moderators2'><b itemprop='author'>Moderators2</b></a>\n          \n          <time datetime='2019-03-07T23:16:04Z' itemprop='datePublished'>\n            2019-03-07 23:16:04 UTC\n          </time>\n        </span>\n        <span itemprop='position'>#2</span>\n      </div>\n      <div class='post' itemprop='articleBody'>\n        <p>Hi there Roz and a warm welcome to the forum!</p>\n<p>We’d recommend that you give your friendly helpline team a call who will be able to steer you in the right direction for support - all the info you’ll need can be found via <a href=\"https://www.parkinsons.org.uk/information-and-support/helpline-and-local-advisers\" rel=\"nofollow noopener\">this link</a> to contact them.</p>\n<p>Best Wishes<br>\nTom A, Moderation Team</p>\n      </div>\n      <meta itemprop='interactionCount' content='UserLikes:0'>\n      <meta itemprop='interactionCount' content='UserComments:0'>\n      <meta itemprop='headline' content='Anyone Deaf who uses sign language with Parkinson’s?'>\n      <hr>\n  </div>\n  <div itemscope itemtype='http://schema.org/DiscussionForumPosting'>\n      <div class='creator'>\n        <span>\n          <a href='/u/CB'><b itemprop='author'>CB</b></a>\n          \n          <time datetime='2019-04-02T21:36:24Z' itemprop='datePublished'>\n            2019-04-02 21:36:24 UTC\n          </time>\n        </span>\n        <span itemprop='position'>#3</span>\n      </div>\n      <div class='post' itemprop='articleBody'>\n        <p>Hi Roz, did you manage to find any help or support for yourself? I am looking for support for my dad who is profoundly deaf with PD. I’m not getting very far <img src=\"https://forum.parkinsons.org.uk/images/emoji/twitter/slightly_frowning_face.png?v=6\" title=\":slightly_frowning_face:\" class=\"emoji\" alt=\":slightly_frowning_face:\"><br>\nCb</p>\n      </div>\n      <meta itemprop='interactionCount' content='UserLikes:0'>\n      <meta itemprop='interactionCount' content='UserComments:1'>\n      <meta itemprop='headline' content='Anyone Deaf who uses sign language with Parkinson’s?'>\n      <hr>\n  </div>\n  <div itemscope itemtype='http://schema.org/DiscussionForumPosting'>\n      <div class='creator'>\n        <span>\n          <a href='/u/roz1'><b itemprop='author'>roz1</b></a>\n          \n          <time datetime='2019-04-10T13:48:26Z' itemprop='datePublished'>\n            2019-04-10 13:48:26 UTC\n          </time>\n        </span>\n        <span itemprop='position'>#4</span>\n      </div>\n      <div class='post' itemprop='articleBody'>\n        <p>Hi there,<br>\nThank your so much for your response.<br>\nI don’t know why but I didn’t receive any notifications that you had replied.<br>\nI would love to find some support for the lady I mentioned.<br>\nIs there a way I can private message you, I wonder?<br>\nRoz.</p>\n      </div>\n      <meta itemprop='interactionCount' content='UserLikes:0'>\n      <meta itemprop='interactionCount' content='UserComments:0'>\n      <meta itemprop='headline' content='Anyone Deaf who uses sign language with Parkinson’s?'>\n      <hr>\n  </div>\n\n\n\n\n\n\n    </div>\n    <footer class=\"container\">\n      <nav class='crawler-nav' itemscope itemtype='http://schema.org/SiteNavigationElement'>\n        <a href='/'>Home</a>\n        <a href=\"/categories\">Categories</a>\n        <a href=\"/guidelines\">FAQ/Guidelines</a>\n        <a href=\"/tos\">Terms of Service</a>\n        <a href=\"/privacy\">Privacy Policy</a>\n      </nav>\n      <p class='powered-by-link'>Powered by <a href=\"https://www.discourse.org\">Discourse</a>, best viewed with JavaScript enabled</p>\n    </footer>\n    \n  </body>\n  \n</html>\n",
  "url": "https://forum.parkinsons.org.uk/t/anyone-deaf-who-uses-sign-language-with-parkinson-s/18289"
}