{
  "contentId": "fe166090-8863-11e9-8f96-97f71b5221d6",
  "html": "<!DOCTYPE html>\n<html lang=\"en\">\n  <head>\n    <meta charset=\"utf-8\">\n    <title>Positive thinking? Feeling negative - Ways to take control - Parkinson&#39;s UK Forum</title>\n    <meta name=\"description\" content=\"This is fairly negative so it may be best left unread but it&amp;#39;s how I feel; nobody, however, wants to hear it  and this is the only place I can think of to say it so I&amp;#39;ll just apologise in advance. \r\nI hate having Parkins&amp;hellip;\">\n    <meta name=\"author\" content=\"\">\n<meta name=\"generator\" content=\"Discourse 2.2.5 - https://github.com/discourse/discourse version c294ff3609f988dcafb742e91606d60ca13b794d\">\n<link rel=\"icon\" type=\"image/png\" href=\"https://forum.parkinsons.org.uk/uploads/db7928/original/2X/3/311fc84f89f49f38601a2f16b295b6f03d3ce5dd.jpg\">\n<link rel=\"apple-touch-icon\" type=\"image/png\" href=\"https://forum.parkinsons.org.uk/uploads/db7928/original/2X/3/311fc84f89f49f38601a2f16b295b6f03d3ce5dd.jpg\">\n<meta name=\"theme-color\" content=\"#ffffff\">\n<meta name=\"viewport\" content=\"width=device-width, minimum-scale=1.0, maximum-scale=1.0, user-scalable=yes\">\n<link rel=\"canonical\" href=\"https://forum.parkinsons.org.uk/t/positive-thinking-feeling-negative/10067?page=2\" />\n<script type=\"application/ld+json\">{\"@context\":\"http://schema.org\",\"@type\":\"WebSite\",\"url\":\"https://forum.parkinsons.org.uk\",\"potentialAction\":{\"@type\":\"SearchAction\",\"target\":\"https://forum.parkinsons.org.uk/search?q={search_term_string}\",\"query-input\":\"required name=search_term_string\"}}</script>\n<link rel=\"search\" type=\"application/opensearchdescription+xml\" href=\"https://forum.parkinsons.org.uk/opensearch.xml\" title=\"Parkinson&#39;s UK Forum Search\">\n\n      <link href=\"/stylesheets/desktop_f99246ae801b083d3e4cca979d0dade8615b39ac.css?__ws=forum.parkinsons.org.uk\" media=\"all\" rel=\"stylesheet\" data-target=\"desktop\" data-theme-id=\"12\"/>\n      <link href=\"/stylesheets/desktop_theme_12_5d27531cf43f9df0c03a6a6ec3109dd05f9dfc49.css?__ws=forum.parkinsons.org.uk\" media=\"all\" rel=\"stylesheet\" data-target=\"desktop_theme\" data-theme-id=\"12\"/>\n    <link href=\"https://fonts.googleapis.com/css?family=Open+Sans\" rel=\"stylesheet\">\n\n    <meta id=\"data-ga-universal-analytics\" data-tracking-code=\"UA-4855628-1\" data-json=\"{&quot;cookieDomain&quot;:&quot;auto&quot;}\" data-auto-link-domains=\"\">\n\n<link rel='preload' href='/assets/google-universal-analytics-f35b4da49411e6f5559073523aab983da483976a3954c79c756f8579f6fbd6ef.js' as='script'/>\n<script src='/assets/google-universal-analytics-f35b4da49411e6f5559073523aab983da483976a3954c79c756f8579f6fbd6ef.js'></script>\n\n      <link rel=\"alternate\" type=\"application/rss+xml\" title=\"RSS feed of &#39;Positive thinking? Feeling negative&#39;\" href=\"https://forum.parkinsons.org.uk/t/positive-thinking-feeling-negative/10067.rss\" />\n  <meta property=\"og:site_name\" content=\"Parkinson&#39;s UK Forum\" />\n<meta name=\"twitter:card\" content=\"summary\" />\n<meta name=\"twitter:image\" content=\"https://forum.parkinsons.org.uk/uploads/db7928/original/2X/3/311fc84f89f49f38601a2f16b295b6f03d3ce5dd.jpg\" />\n<meta property=\"og:image\" content=\"https://forum.parkinsons.org.uk/uploads/db7928/original/2X/3/311fc84f89f49f38601a2f16b295b6f03d3ce5dd.jpg\" />\n<meta property=\"og:url\" content=\"https://forum.parkinsons.org.uk/t/positive-thinking-feeling-negative/10067?page=2\" />\n<meta name=\"twitter:url\" content=\"https://forum.parkinsons.org.uk/t/positive-thinking-feeling-negative/10067?page=2\" />\n<meta property=\"og:title\" content=\"Positive thinking? Feeling negative\" />\n<meta name=\"twitter:title\" content=\"Positive thinking? Feeling negative\" />\n<meta property=\"og:description\" content=\"Thank you for your kind words. \r  \" />\n<meta name=\"twitter:description\" content=\"Thank you for your kind words. \r  \" />\n<meta name=\"twitter:label1\" value=\"Reading time\" />\n<meta name=\"twitter:data1\" value=\"11 mins \uD83D\uDD51\" />\n<meta name=\"twitter:label2\" value=\"Likes\" />\n<meta name=\"twitter:data2\" value=\"17 ❤\" />\n<meta property=\"article:published_time\" content=\"2017-10-26T18:52:38+00:00\" />\n<meta property=\"og:ignore_canonical\" content=\"true\" />\n\n      <link rel=\"prev\" href=\"/t/positive-thinking-feeling-negative/10067\">\n\n\n    \n  </head>\n  <body class=\"crawler\">\n    <header role=\"banner\">\n    <div class=\"region region-header\">\n        <div class=\"region-header-wrapper\">\n            <div id=\"block-parkinsons-d8-branding\" class=\"block block-system block-system-branding-block\">\n                <a href=\"/\" title=\"Home\" rel=\"home\" class=\"site-logo\">\n                    <img src=\"https://forum.parkinsons.org.uk/uploads/db7928/original/2X/8/862bb7d172e7d127e7f3e147ec43594aa62ac945.png\" alt=\"Parkinson's UK. Change Attitudes. Find a cure. Join us.\">\n                </a>\n            </div>\n            <div id=\"block-helpline\" class=\"block block-block-content block-block-content871cd5af-b938-4947-9dc0-d5c211d08fe3 style-phone\">\n                <div class=\"field field--name-field-link field--type-link field--label-hidden field__item\"><a href=\"tel:+448088000303\">Helpline 0808 800 0303</a></div>\n            </div>\n            <div id=\"block-shop\" class=\"block block-block-content block-block-content6fba5ae5-7797-49cd-8367-f321d8111cd6 style-regular\">\n                <div class=\"field field--name-field-link field--type-link field--label-hidden field__item\"><a href=\"https://shop.parkinsons.org.uk\">Shop</a></div>\n            </div>\n        </div>\n    </div>\n</header>\n\n\n<script src=\"/theme-javascripts/b7e9763fcb584fc8265c56a9f557cd6d2e1e8ed8.js?__ws=forum.parkinsons.org.uk\"></script>\n    <header>\n      <a href=\"/\">\n          <img src=\"https://forum.parkinsons.org.uk/uploads/db7928/original/2X/8/862bb7d172e7d127e7f3e147ec43594aa62ac945.png\" alt=\"Parkinson&#39;s UK Forum\" id=\"site-logo\" style=\"max-width: 150px;\">\n      </a>\n    </header>\n    <div id=\"main-outlet\" class=\"wrap\">\n      <h1>\n  <a href=\"/t/positive-thinking-feeling-negative/10067\">Positive thinking? Feeling negative</a>\n</h1>\n\n<div id='breadcrumbs'>\n    <div id=\"breadcrumb-0\" itemscope itemtype=\"http://data-vocabulary.org/Breadcrumb\"\n        itemref=\"breadcrumb-1\"\n      >\n      <a href=\"/c/taking-control\" itemprop=\"url\">\n        <span itemprop=\"title\">Taking Control</span>\n      </a>\n    </div>\n    <div id=\"breadcrumb-1\" itemscope itemtype=\"http://data-vocabulary.org/Breadcrumb\"\n>\n      <a href=\"/c/taking-control/ways-to-take-control\" itemprop=\"url\">\n        <span itemprop=\"title\">Ways to take control</span>\n      </a>\n    </div>\n</div>\n\n\n\n\n\n<hr>\n\n\n  <div itemscope itemtype='http://schema.org/DiscussionForumPosting'>\n      <div class='creator'>\n        <span>\n          <a href='/u/farmers_wife'><b itemprop='author'>farmers_wife</b></a>\n          \n          <time datetime='2017-10-26T18:52:38Z' itemprop='datePublished'>\n            2017-10-26 18:52:38 UTC\n          </time>\n        </span>\n        <span itemprop='position'>#21</span>\n      </div>\n      <div class='post' itemprop='articleBody'>\n        <p>Thank you for your kind words.</p>\r\n<p>&nbsp;</p>\n      </div>\n      <meta itemprop='interactionCount' content='UserLikes:0'>\n      <meta itemprop='interactionCount' content='UserComments:0'>\n      <meta itemprop='headline' content='Positive thinking? Feeling negative'>\n      <hr>\n  </div>\n  <div itemscope itemtype='http://schema.org/DiscussionForumPosting'>\n      <div class='creator'>\n        <span>\n          <a href='/u/TeeHee'><b itemprop='author'>TeeHee</b></a>\n          \n          <time datetime='2017-10-26T19:28:32Z' itemprop='datePublished'>\n            2017-10-26 19:28:32 UTC\n          </time>\n        </span>\n        <span itemprop='position'>#22</span>\n      </div>\n      <div class='post' itemprop='articleBody'>\n        <p>Farmers wife,&nbsp;</p>\r\n<p>Sorry FW &nbsp;forgot to say this &nbsp; &nbsp;yes great when you can identify a problem and find a solution but I do realise we all have good and bad days . aware I.sounded a bit &#39;jolly hockey sticks&#39;!</p>\r\n<p>Positive Thinking goes hand in hand with a few outbursts of anger, fear, frustration and a good old moan. Nobody is superhuman.</p>\r\n<p>Keep posting &nbsp;</p>\r\n<p>&nbsp;</p>\r\n<p>&nbsp;</p>\r\n<p>&nbsp;</p>\n      </div>\n      <meta itemprop='interactionCount' content='UserLikes:0'>\n      <meta itemprop='interactionCount' content='UserComments:0'>\n      <meta itemprop='headline' content='Positive thinking? Feeling negative'>\n      <hr>\n  </div>\n  <div itemscope itemtype='http://schema.org/DiscussionForumPosting'>\n      <div class='creator'>\n        <span>\n          <a href='/u/Daffy'><b itemprop='author'>Daffy</b></a>\n          \n          <time datetime='2017-10-27T05:24:40Z' itemprop='datePublished'>\n            2017-10-27 05:24:40 UTC\n          </time>\n        </span>\n        <span itemprop='position'>#23</span>\n      </div>\n      <div class='post' itemprop='articleBody'>\n        <p>Hi Farmers wife, TeeHee</p>\r\n<p>Agreed this PD lark isn&#39;t at all easy. For a start there&#39;s no let up. It&#39;s a struggle to be positive sometimes and a good moan now and then is a bit of a relief valve for me too. But I certainly didn&#39;t think you were being all jolly hockey sticks TeeHee because you were speaking from experience. D</p>\n      </div>\n      <meta itemprop='interactionCount' content='UserLikes:1'>\n      <meta itemprop='interactionCount' content='UserComments:0'>\n      <meta itemprop='headline' content='Positive thinking? Feeling negative'>\n      <hr>\n  </div>\n  <div itemscope itemtype='http://schema.org/DiscussionForumPosting'>\n      <div class='creator'>\n        <span>\n          <a href='/u/PeterC'><b itemprop='author'>PeterC</b></a>\n          \n          <time datetime='2018-01-13T16:28:28Z' itemprop='datePublished'>\n            2018-01-13 16:28:28 UTC\n          </time>\n        </span>\n        <span itemprop='position'>#24</span>\n      </div>\n      <div class='post' itemprop='articleBody'>\n        <p>Here's some fortitude in a capsule:<br><aside class=\"onebox whitelistedgeneric\">\n  <header class=\"source\">\n    <a href=\"https://www.vitamindwiki.com/Battling+the+winter+blues+with+vitamin+D+%284000+IU%29+Dec+2015\" target=\"_blank\" rel=\"nofollow noopener\">vitamindwiki.com</a>\n  </header>\n  <article class=\"onebox-body\">\n    \n\n<h3><a href=\"https://www.vitamindwiki.com/Battling+the+winter+blues+with+vitamin+D+%284000+IU%29+Dec+2015\" target=\"_blank\" rel=\"nofollow noopener\">Battling the winter blues with vitamin D (4000 IU) Dec 2015 | Vitamin D Wiki</a></h3>\n\n<p>Vitamin D Wiki: Best vitamin D information</p>\n\n  </article>\n  <div class=\"onebox-metadata\">\n    \n    \n  </div>\n  <div style=\"clear: both\"></div>\n</aside>\n</p>\n\n<p>It help me avoid depressive moods.<br>But it will take few weeks after starting 4000 IU per day to have an effect.<br>D3 may well be of benefit in PD too. A lot of cell/molecular biology points to that.</p>\n\n<p>Peter</p>\n      </div>\n      <meta itemprop='interactionCount' content='UserLikes:1'>\n      <meta itemprop='interactionCount' content='UserComments:0'>\n      <meta itemprop='headline' content='Positive thinking? Feeling negative'>\n      <hr>\n  </div>\n  <div itemscope itemtype='http://schema.org/DiscussionForumPosting'>\n      <div class='creator'>\n        <span>\n          <a href='/u/Jackson'><b itemprop='author'>Jackson</b></a>\n          \n          <time datetime='2018-01-13T23:36:21Z' itemprop='datePublished'>\n            2018-01-13 23:36:21 UTC\n          </time>\n        </span>\n        <span itemprop='position'>#25</span>\n      </div>\n      <div class='post' itemprop='articleBody'>\n        <p>Hi<br>I frequently feel like an utter failure in terms of my management of PD. I can't live up to the ideal of facing the future with endless positivity and in spite of my best efforts, I continue to resent being told how to feel and even worse, being judged on my attitude and approach to PD. I am angry, if I'm honest, that the message, as I interpret it, is that if only I ate sensibly and smiled relentlessly I could live life to the full and therefore if I do not have a great life with PD, it is my own fault for not trying hard enough. And when I admit this, I feel even worse. But this is tonight and tomorrow is another day and it will all feel better and I'll feel bad for writing this... So apologies in advance :-S Jxx</p>\n      </div>\n      <meta itemprop='interactionCount' content='UserLikes:2'>\n      <meta itemprop='interactionCount' content='UserComments:0'>\n      <meta itemprop='headline' content='Positive thinking? Feeling negative'>\n      <hr>\n  </div>\n  <div itemscope itemtype='http://schema.org/DiscussionForumPosting'>\n      <div class='creator'>\n        <span>\n          <a href='/u/TeeHee'><b itemprop='author'>TeeHee</b></a>\n          \n          <time datetime='2018-01-14T00:40:37Z' itemprop='datePublished'>\n            2018-01-14 00:40:37 UTC\n          </time>\n        </span>\n        <span itemprop='position'>#26</span>\n      </div>\n      <div class='post' itemprop='articleBody'>\n        <p>Hi bad sheepy,<br>Long time no bleet....oh my  my pal (hope ewe don't mind the presumption or assumption we are pals but soft spot for some on here, like daffy aka hattie...well pd management , hell no such thing , ?   Well not on an everyday basis anyway..sometimes happy sometimes sad nobody can be the master/mistress of pd everyday , it is not possible.<br>Veneer, my dear thats what it is , I fluctuate so much my name should be Helter Skelter, romllp  roller !  Coaster, jnew I shoukd not have drunk a whole bottle of wine but feel ok, managed ok the prawn chow mein was fab and if I squint my eyes up, I look fab..</p>\n\n<p>D2   good for you gal and omega 3 etc but thats just people trying to assist share a tip not telling you, you are useless and should not graze on this earth.  you are honest and amusing from the posts you post,  good on you , but failure no way , since when has being the daily burst of sunshine been a positive, everyone needs a change, seasons of the year, etc  blah blah yep i get what u mean sometimes joing in with life makes u feel worse sometimes better.  I echo the bit with friends etc etc  it is difficult navigating a way through it all as its always changing....i changed dr or movement specialist for a number of reasons but the finalblow wss <br>Me  \"i like to mix my poisons \"<br>Dr \" <img src=\"//forum.parkinsons.org.uk/images/emoji/emoji_one/angry.png?v=3\" title=\":angry:\" class=\"emoji\" alt=\":angry:\">i dont like you saying that, it is a negative response to the help these drugs are providing\"<br>Mmm,  patronising and all the rest of it.</p>\n\n<p>Try not to be so hard on yourself sheepy as I am not sure how you can be bad or good at pd management, you just have good and bad times.   It not a fair comparison we can all be happy for the 10 mins we write a post but there are 23 hrs and 50 mins of that day left.</p>\n\n<p>I really wish i could say somethjng to cheer you up, make you even put a happy spell on you and send you into a cosy restful sleep because my days of a white witch are diminishing fast need more tongue in cheek books on the subject used to love to bury a stone to find true love, visit the nine ladies a stone monument at midnight.  But  Alas I am a failed sorry not so highly skilled as a WW as i'd like to have become,  more WI now.</p>\n\n<p>Keep bleeting, sheepy  we think you are Fab, you are brilliant in your honesty and I like yer, so get your coat sheared and get back out there, as you or ewe xxxxxxxx</p>\n      </div>\n      <meta itemprop='interactionCount' content='UserLikes:0'>\n      <meta itemprop='interactionCount' content='UserComments:0'>\n      <meta itemprop='headline' content='Positive thinking? Feeling negative'>\n      <hr>\n  </div>\n  <div itemscope itemtype='http://schema.org/DiscussionForumPosting'>\n      <div class='creator'>\n        <span>\n          <a href='/u/Jackson'><b itemprop='author'>Jackson</b></a>\n          \n          <time datetime='2018-01-14T18:18:49Z' itemprop='datePublished'>\n            2018-01-14 18:18:49 UTC\n          </time>\n        </span>\n        <span itemprop='position'>#27</span>\n      </div>\n      <div class='post' itemprop='articleBody'>\n        <p>Hi Tee Hee,<br>Yup, the mood swings are tricky for sure. I'm constantly trying to figure out if I'm being irrational and over sensitive or am justifiably upset (who knows - depends which version of me I ask  :-). <br> I've been practising restraint in respect of posting and sending my midnight witterings (emails, forums... you name it) but I clearly failed last night .. better, however, than sending them to my line managers and the HR dept (still, there's not really anything to hide because I've already emailed my thoughts to everybody).<br> ‎Anyway, your replies are always appreciated; I love the humanity and perception and wit - especially after wine! My sister isn't going to let any references to bleating go any time soon (I deserve it to be fair). <br>My new mission is to moan less and definitely not hit the send button until it's daylight (though I've already decided that this will be easier in June than January just in case I crash and burn)<br>I hope things are as ok as they can be. <br>Wine and chow mein - my stomach hurts at the thought; I had to admit defeat with the wine when I kept falling asleep at events .... cinema, theatre, pub - give me wine and I get slushy then sleep - truly great company :-/)<br>‎Take care. <br> ‎J x</p>\n      </div>\n      <meta itemprop='interactionCount' content='UserLikes:0'>\n      <meta itemprop='interactionCount' content='UserComments:0'>\n      <meta itemprop='headline' content='Positive thinking? Feeling negative'>\n      <hr>\n  </div>\n  <div itemscope itemtype='http://schema.org/DiscussionForumPosting'>\n      <div class='creator'>\n        <span>\n          <a href='/u/Ollyboo22'><b itemprop='author'>Ollyboo22</b></a>\n          \n          <time datetime='2018-02-03T11:01:57Z' itemprop='datePublished'>\n            2018-02-03 11:01:57 UTC\n          </time>\n        </span>\n        <span itemprop='position'>#28</span>\n      </div>\n      <div class='post' itemprop='articleBody'>\n        <p>Hi All, I’m currently at the starting of getting rid of being negative an negative thoughts that I’ve allowed to take over my life, which was never me…I’ve just come out of hospital which have been in for nearly 1 month, having Apo pump fitted…Here my first morning at home having not  had much sleep but it’s Saturday which means football ,an  in between  going spend my day chilling listening to good music an then maybe have few zzzzz anything that’s negative that comes my way I’m just going to sing it away…<br>\nDon’t worry be happy…</p>\n      </div>\n      <meta itemprop='interactionCount' content='UserLikes:0'>\n      <meta itemprop='interactionCount' content='UserComments:0'>\n      <meta itemprop='headline' content='Positive thinking? Feeling negative'>\n      <hr>\n  </div>\n  <div itemscope itemtype='http://schema.org/DiscussionForumPosting'>\n      <div class='creator'>\n        <span>\n          <a href='/u/Alman'><b itemprop='author'>Alman</b></a>\n          \n          <time datetime='2018-08-19T17:57:49Z' itemprop='datePublished'>\n            2018-08-19 17:57:49 UTC\n          </time>\n        </span>\n        <span itemprop='position'>#29</span>\n      </div>\n      <div class='post' itemprop='articleBody'>\n        <p>I honestly find it difficult to “think positively”. If only it was so simple.<br>\n<a href=\"https://www.popolis.it/wp-content/uploads/2018/05/Parkinsons-and-me.pdf\" rel=\"nofollow noopener\">This document</a> describes best my approach…I wrote it.<br>\nI realise this is an old post but you are so right to highlight the emotional side of Parkinson’s.<br>\nWe worked with Parkinson UK on a program called “First steps” (currently being rolled out nationally). The program is for newly diagnosed AND their families. It tries to prepare people for living with Parkinson’s.<br>\nTruth is only people with Parkinson’s can truely understand what it is like to live with Parkinson’s.<br>\nGod Bless</p>\n      </div>\n      <meta itemprop='interactionCount' content='UserLikes:0'>\n      <meta itemprop='interactionCount' content='UserComments:0'>\n      <meta itemprop='headline' content='Positive thinking? Feeling negative'>\n      <hr>\n  </div>\n  <div itemscope itemtype='http://schema.org/DiscussionForumPosting'>\n      <div class='creator'>\n        <span>\n          <a href='/u/Margs'><b itemprop='author'>Margs</b></a>\n          \n          <time datetime='2018-08-19T18:12:27Z' itemprop='datePublished'>\n            2018-08-19 18:12:27 UTC\n          </time>\n        </span>\n        <span itemprop='position'>#30</span>\n      </div>\n      <div class='post' itemprop='articleBody'>\n        <p>Thinking positively however hard it is will help you.  My mantra is always \" it’s not what life throws at you but how you deal with it that makes the difference\".</p>\n<p>I know it’s hard but it works.</p>\n      </div>\n      <meta itemprop='interactionCount' content='UserLikes:0'>\n      <meta itemprop='interactionCount' content='UserComments:0'>\n      <meta itemprop='headline' content='Positive thinking? Feeling negative'>\n      <hr>\n  </div>\n  <div itemscope itemtype='http://schema.org/DiscussionForumPosting'>\n      <div class='creator'>\n        <span>\n          <a href='/u/Jackson'><b itemprop='author'>Jackson</b></a>\n          \n          <time datetime='2018-08-20T05:35:06Z' itemprop='datePublished'>\n            2018-08-20 05:35:06 UTC\n          </time>\n        </span>\n        <span itemprop='position'>#31</span>\n      </div>\n      <div class='post' itemprop='articleBody'>\n        <p>Hi,<br>\nI agree, only people with Parkinson’s can understand it and know what living with it is like.<br>\nApathy, negativity and depression are, as you say, mighty opponents and I switch between ‘fighting the good fight’ and slumping on the sofa.<br>\nMy slumping moments are usually followed by sending a negative and critical - but truly heartfelt - email to somebody which I later regret (sorry PDUK but you are my safety net; sending them to my boss or local MP is the alternative and you can guess how that ends :-S).<br>\nI live on my own; it has always been my preference but it can provide additional challenges when you have PD, though I’m pretty sure living with others also presents challenges.<br>\nI can now acknowledge that I have PD but I’m not sure I’ll ever truly accept it. I’m definitely a rabbit in the headlights type; I’d love to be a fighter (they are so much more popular) but I’m not. We all have a different approach and I guess the concept of ‘fighting it’ has never really worked for me; the odds are fairly damning: it’s going to win.<br>\nI am, however, working on bumbling along with it trying not to leave a wake of destruction behind me; I’m working on living with it I guess. Thank you for posting the  article, it really does resonate. It’s  good to  gain an insight into how others with Parkinson’s make sense of it all and I truly agree that people without Parkinson’s have no idea of the size of the challenges presented by apathy and depression and medication side effects and mood swings and a decline in organisational skills and the constant battle to put the brakes on. Combine this with the challenges of everyday life and hormones and I have to admit that the inside of my head often feels like a Dali painting with the odd splash of Jackson Pollock thrown in for good measure.  And where is the research or advice for women related to all things hormonal? It’s a massive challenge and a yet it seems to be a total non subject when I look for information or advice!<br>\nWe  need so much more support with emotional needs, we can’t just self-help it all better. And both people with Parkinson’s and any family and friends that they may have who are impacted by it need to be honest and not always wear the ‘We’re facing adversity with stoicism’ mask that the media so loves - the good old Victorian concept of the deserving poor and infirm. In these days of austerity it is all too easy for families to become ‘carers’ for some of us (sometimes understandably resentful about providing unpaid healthcare)  and for those of us on our own to be perceived as society’s burdens, neither of which is an enviable position to be in.<br>\nAnd one last little rant, I think I’ve pressed the insert image button 10 times while trying to write this as it is perilously close to my on-screen keyboard microphone button for dictation. Could somebody please take on board how difficult using tech is when your hands have a life of their own. Technology is going to be the future so those of us with Parkinson’s and arthritis and multiple sclerosis and age (that one’s going to get pretty much everybody) and other conditions that I haven’t mentioned need a device that we can use before we can join in with the technological revolution.<br>\nAnyway, many thanks for the posts.<br>\nJx</p>\n      </div>\n      <meta itemprop='interactionCount' content='UserLikes:1'>\n      <meta itemprop='interactionCount' content='UserComments:0'>\n      <meta itemprop='headline' content='Positive thinking? Feeling negative'>\n      <hr>\n  </div>\n  <div itemscope itemtype='http://schema.org/DiscussionForumPosting'>\n      <div class='creator'>\n        <span>\n          <a href='/u/Jchilton'><b itemprop='author'>Jchilton</b></a>\n          \n          <time datetime='2018-09-12T20:00:05Z' itemprop='datePublished'>\n            2018-09-12 20:00:05 UTC\n          </time>\n        </span>\n        <span itemprop='position'>#32</span>\n      </div>\n      <div class='post' itemprop='articleBody'>\n        <p>I too suffer from Parkinson’s it it can be a very lonely journey as you do sometimes feel alone although I know people do care I sometimes have dreams that I am left stranded on my own and can’t find anyone anywhere Try to look at the positive side of life. I keep myself going ad much as I can even if it means having my nails done or having a new haircut. You are amazing. Don’t let Parkinson’s vet the better of you get the better of Parkinson’s and ignore people who dont understand that is their problem not yours . I wish you all the very best</p>\n      </div>\n      <meta itemprop='interactionCount' content='UserLikes:0'>\n      <meta itemprop='interactionCount' content='UserComments:0'>\n      <meta itemprop='headline' content='Positive thinking? Feeling negative'>\n      <hr>\n  </div>\n  <div itemscope itemtype='http://schema.org/DiscussionForumPosting'>\n      <div class='creator'>\n        <span>\n          <a href='/u/Cathyg'><b itemprop='author'>Cathyg</b></a>\n          \n          <time datetime='2019-05-28T22:38:33Z' itemprop='datePublished'>\n            2019-05-28 22:38:33 UTC\n          </time>\n        </span>\n        <span itemprop='position'>#33</span>\n      </div>\n      <div class='post' itemprop='articleBody'>\n        <p>Of course you hate it Jackson. Why wouldn’t you? It’s a hateful thing and not fair. Your life is not turning out as you expected and you don’t feel in control. You have every right to feel like this and to vent the feelings. And you have every right to tell your friends how you feel. If they know how you feel perhaps they can react better, or differently.<br>\nMy husband has Parkinsons and it’s not fair for me either. I hate how he’s gone quiet and slow. I came on this forum to read because he doesn’t want to talk about it.<br>\nI hope you did feel better in the morning, but you have every right to say how you feel.</p>\n      </div>\n      <meta itemprop='interactionCount' content='UserLikes:0'>\n      <meta itemprop='interactionCount' content='UserComments:0'>\n      <meta itemprop='headline' content='Positive thinking? Feeling negative'>\n      <hr>\n  </div>\n\n  <div role='navigation' itemscope itemtype='http://schema.org/SiteNavigationElement'>\n      <span itemprop='name'><a rel=\"prev\" itemprop=\"url\" href=\"/t/positive-thinking-feeling-negative/10067\">← previous page</a></span>\n  </div>\n\n\n\n\n\n    </div>\n    <footer class=\"container\">\n      <nav class='crawler-nav' itemscope itemtype='http://schema.org/SiteNavigationElement'>\n        <a href='/'>Home</a>\n        <a href=\"/categories\">Categories</a>\n        <a href=\"/guidelines\">FAQ/Guidelines</a>\n        <a href=\"/tos\">Terms of Service</a>\n        <a href=\"/privacy\">Privacy Policy</a>\n      </nav>\n      <p class='powered-by-link'>Powered by <a href=\"https://www.discourse.org\">Discourse</a>, best viewed with JavaScript enabled</p>\n    </footer>\n    \n  </body>\n  \n</html>\n",
  "url": "https://forum.parkinsons.org.uk/t/positive-thinking-feeling-negative/10067?page=2"
}