{
  "contentId": "6d295310-8865-11e9-8f96-97f71b5221d6",
  "html": "<!DOCTYPE html>\n<html lang=\"en\">\n  <head>\n    <meta charset=\"utf-8\">\n    <title>Things I would not have not known without PD (I am not Pollyanna but...) - Young Onset Parkinson&#39;s - Parkinson&#39;s UK Forum</title>\n    <meta name=\"description\" content=\"Work song - Hozier \nBoys workin’ on empty \nIs that the kind’a way to face the burning heat? \nI just think about my baby \nI’m so full of love I could barely eat \nThere’s nothing sweeter than my baby \nTaking the children t&amp;hellip;\">\n    <meta name=\"author\" content=\"\">\n<meta name=\"generator\" content=\"Discourse 2.2.5 - https://github.com/discourse/discourse version c294ff3609f988dcafb742e91606d60ca13b794d\">\n<link rel=\"icon\" type=\"image/png\" href=\"https://forum.parkinsons.org.uk/uploads/db7928/original/2X/3/311fc84f89f49f38601a2f16b295b6f03d3ce5dd.jpg\">\n<link rel=\"apple-touch-icon\" type=\"image/png\" href=\"https://forum.parkinsons.org.uk/uploads/db7928/original/2X/3/311fc84f89f49f38601a2f16b295b6f03d3ce5dd.jpg\">\n<meta name=\"theme-color\" content=\"#ffffff\">\n<meta name=\"viewport\" content=\"width=device-width, minimum-scale=1.0, maximum-scale=1.0, user-scalable=yes\">\n<link rel=\"canonical\" href=\"https://forum.parkinsons.org.uk/t/things-i-would-not-have-not-known-without-pd-i-am-not-pollyanna-but/17662\" />\n<script type=\"application/ld+json\">{\"@context\":\"http://schema.org\",\"@type\":\"WebSite\",\"url\":\"https://forum.parkinsons.org.uk\",\"potentialAction\":{\"@type\":\"SearchAction\",\"target\":\"https://forum.parkinsons.org.uk/search?q={search_term_string}\",\"query-input\":\"required name=search_term_string\"}}</script>\n<link rel=\"search\" type=\"application/opensearchdescription+xml\" href=\"https://forum.parkinsons.org.uk/opensearch.xml\" title=\"Parkinson&#39;s UK Forum Search\">\n\n      <link href=\"/stylesheets/desktop_f99246ae801b083d3e4cca979d0dade8615b39ac.css?__ws=forum.parkinsons.org.uk\" media=\"all\" rel=\"stylesheet\" data-target=\"desktop\" data-theme-id=\"12\"/>\n      <link href=\"/stylesheets/desktop_theme_12_5d27531cf43f9df0c03a6a6ec3109dd05f9dfc49.css?__ws=forum.parkinsons.org.uk\" media=\"all\" rel=\"stylesheet\" data-target=\"desktop_theme\" data-theme-id=\"12\"/>\n    <link href=\"https://fonts.googleapis.com/css?family=Open+Sans\" rel=\"stylesheet\">\n\n    <meta id=\"data-ga-universal-analytics\" data-tracking-code=\"UA-4855628-1\" data-json=\"{&quot;cookieDomain&quot;:&quot;auto&quot;}\" data-auto-link-domains=\"\">\n\n<link rel='preload' href='/assets/google-universal-analytics-f35b4da49411e6f5559073523aab983da483976a3954c79c756f8579f6fbd6ef.js' as='script'/>\n<script src='/assets/google-universal-analytics-f35b4da49411e6f5559073523aab983da483976a3954c79c756f8579f6fbd6ef.js'></script>\n\n      <link rel=\"alternate\" type=\"application/rss+xml\" title=\"RSS feed of &#39;Things I would not have not known without PD (I am not Pollyanna but...)&#39;\" href=\"https://forum.parkinsons.org.uk/t/things-i-would-not-have-not-known-without-pd-i-am-not-pollyanna-but/17662.rss\" />\n  <meta property=\"og:site_name\" content=\"Parkinson&#39;s UK Forum\" />\n<meta name=\"twitter:card\" content=\"summary\" />\n<meta name=\"twitter:image\" content=\"https://forum.parkinsons.org.uk/uploads/db7928/original/2X/3/311fc84f89f49f38601a2f16b295b6f03d3ce5dd.jpg\" />\n<meta property=\"og:image\" content=\"https://forum.parkinsons.org.uk/uploads/db7928/original/2X/3/311fc84f89f49f38601a2f16b295b6f03d3ce5dd.jpg\" />\n<meta property=\"og:url\" content=\"https://forum.parkinsons.org.uk/t/things-i-would-not-have-not-known-without-pd-i-am-not-pollyanna-but/17662\" />\n<meta name=\"twitter:url\" content=\"https://forum.parkinsons.org.uk/t/things-i-would-not-have-not-known-without-pd-i-am-not-pollyanna-but/17662\" />\n<meta property=\"og:title\" content=\"Things I would not have not known without PD (I am not Pollyanna but...)\" />\n<meta name=\"twitter:title\" content=\"Things I would not have not known without PD (I am not Pollyanna but...)\" />\n<meta property=\"og:description\" content=\"Work song - Hozier  Boys workin’ on empty  Is that the kind’a way to face the burning heat?  I just think about my baby  I’m so full of love I could barely eat  There’s nothing sweeter than my baby  Taking the children to school is enriching my life.  I love being around before and after school, I get them at their very brightest, scorching across the sky like a supernovae. Discussing the Today programme with two ten year old children and betting them they cannot crowbar the words sagacious and ...\" />\n<meta name=\"twitter:description\" content=\"Work song - Hozier  Boys workin’ on empty  Is that the kind’a way to face the burning heat?  I just think about my baby  I’m so full of love I could barely eat  There’s nothing sweeter than my baby  Taking the children to school is enriching my life.  I love being around before and after school, I get them at their very brightest, scorching across the sky like a supernovae. Discussing the Today programme with two ten year old children and betting them they cannot crowbar the words sagacious and ...\" />\n<meta property=\"article:published_time\" content=\"2019-01-24T21:02:55+00:00\" />\n<meta property=\"og:ignore_canonical\" content=\"true\" />\n\n\n\n    \n  </head>\n  <body class=\"crawler\">\n    <header role=\"banner\">\n    <div class=\"region region-header\">\n        <div class=\"region-header-wrapper\">\n            <div id=\"block-parkinsons-d8-branding\" class=\"block block-system block-system-branding-block\">\n                <a href=\"/\" title=\"Home\" rel=\"home\" class=\"site-logo\">\n                    <img src=\"https://forum.parkinsons.org.uk/uploads/db7928/original/2X/8/862bb7d172e7d127e7f3e147ec43594aa62ac945.png\" alt=\"Parkinson's UK. Change Attitudes. Find a cure. Join us.\">\n                </a>\n            </div>\n            <div id=\"block-helpline\" class=\"block block-block-content block-block-content871cd5af-b938-4947-9dc0-d5c211d08fe3 style-phone\">\n                <div class=\"field field--name-field-link field--type-link field--label-hidden field__item\"><a href=\"tel:+448088000303\">Helpline 0808 800 0303</a></div>\n            </div>\n            <div id=\"block-shop\" class=\"block block-block-content block-block-content6fba5ae5-7797-49cd-8367-f321d8111cd6 style-regular\">\n                <div class=\"field field--name-field-link field--type-link field--label-hidden field__item\"><a href=\"https://shop.parkinsons.org.uk\">Shop</a></div>\n            </div>\n        </div>\n    </div>\n</header>\n\n\n<script src=\"/theme-javascripts/b7e9763fcb584fc8265c56a9f557cd6d2e1e8ed8.js?__ws=forum.parkinsons.org.uk\"></script>\n    <header>\n      <a href=\"/\">\n          <img src=\"https://forum.parkinsons.org.uk/uploads/db7928/original/2X/8/862bb7d172e7d127e7f3e147ec43594aa62ac945.png\" alt=\"Parkinson&#39;s UK Forum\" id=\"site-logo\" style=\"max-width: 150px;\">\n      </a>\n    </header>\n    <div id=\"main-outlet\" class=\"wrap\">\n      <h1>\n  <a href=\"/t/things-i-would-not-have-not-known-without-pd-i-am-not-pollyanna-but/17662\">Things I would not have not known without PD (I am not Pollyanna but...)</a>\n</h1>\n\n<div id='breadcrumbs'>\n    <div id=\"breadcrumb-0\" itemscope itemtype=\"http://data-vocabulary.org/Breadcrumb\"\n        itemref=\"breadcrumb-1\"\n      >\n      <a href=\"/c/living-with-parkinsons\" itemprop=\"url\">\n        <span itemprop=\"title\">Living with Parkinson&#39;s</span>\n      </a>\n    </div>\n    <div id=\"breadcrumb-1\" itemscope itemtype=\"http://data-vocabulary.org/Breadcrumb\"\n>\n      <a href=\"/c/living-with-parkinsons/young-onset-parkinsons\" itemprop=\"url\">\n        <span itemprop=\"title\">Young Onset Parkinson&#39;s</span>\n      </a>\n    </div>\n</div>\n\n\n\n\n\n<hr>\n\n\n  <div itemscope itemtype='http://schema.org/DiscussionForumPosting'>\n      <div class='creator'>\n        <span>\n          <a href='/u/mick130'><b itemprop='author'>mick130</b></a>\n          \n          <time datetime='2019-01-24T21:02:55Z' itemprop='datePublished'>\n            2019-01-24 21:02:55 UTC\n          </time>\n        </span>\n        <span itemprop='position'>#1</span>\n      </div>\n      <div class='post' itemprop='articleBody'>\n        <p>Work song - Hozier</p>\n<p>Boys workin’ on empty<br>\nIs that the kind’a way to face the burning heat?<br>\nI just think about my baby<br>\nI’m so full of love I could barely eat<br>\nThere’s nothing sweeter than my baby</p>\n<p>Taking the children to school is enriching my life.</p>\n<p>I love being around before and after school, I get them at their very brightest, scorching across the sky like a supernovae. Discussing the Today programme with two ten year old children and betting them they cannot crowbar the words sagacious and denouement into the work they are doing today on non-chronological reports, it does not get any better than this folks.</p>\n<p>Melvin Bragg is alive and a polymath.</p>\n<p>In our time on Radio 4. Who knew, the seventy nine year old Bragg was on the wireless discussing in great depth topics as diverse as Beckett and German mathematicians of the nineteenth century. This morning’s broadcast about Emmy Noether was a fascinating listen. The man is incredible and has an inexorable intellect, as well as a fine head of hair.</p>\n<p>Woman’s hour is militant.</p>\n<p>Pretty much unlistenable if you have testicles (I know that is the point). The amount of content they can get from the menopause and HRT is staggering, unashamedly niche and right on, put your hands together for Jenny &amp; Jane. Today’s programme included the hash tag - <span class=\"hashtag\">#pelvicfloorexercises</span>. The programme asked:</p>\n<p>“Can pelvic floor exercises help the 1 in 3 women (and 1 in 9 men) who suffer with stress urinary incontinence?”</p>\n<p>I don’t bloody know. But I must get a DAB radio in the car.</p>\n<p>Yoga is exhausting.</p>\n<p>I have played professional basketball briefly, cycled the London to Brighton at night, competed in rugby matches on a Saturday afternoon followed by Sunday league football the following morning, but Yoga is physically the match for any of these, which is great. Here is the problem: I have always been good at sport, captain of everything, county this, regional that, but I get my behind kicked by women with blue hair, children older than I and who know what pelvic floor exercises are. I am essentially in the bottom group, I would be the last one to be picked if yoga lessons started by picking teams, thankfully for my ego they don’t. On a related note, who knew the gym was so busy during the day. These people should be at work.</p>\n<p>Money isn’t everything.</p>\n<p>This statement is self explanatory, if it has to be explained to you, you won’t get it. Sorry.</p>\n<p>Laundry does not do itself.</p>\n<p>I am now the departmental chief of the laundry. It is a never ending job, I have no idea how my wife combined this alongside the full time job she has as a primary school teacher. I can just about manage it whilst not currently being required at work. I have now come to see the tumble dryer ‘Creda’ (my wife resents my time with Creda and says she is profligate) and the washing machine which I have rather tersely named ‘Bish Bash Bosch’ as new friends who I spend the early part of my days with, rather than go to Costa with the Mater Intelligentsia from the school gate, I am not ready to be the male equivalent of a yummy mummy quite yet. (Delicious Dad, Foxy Father…)</p>\n<p>The post does not come everyday.</p>\n<p>Surely a sign of the apocalypse, or is that Brexit. It’s probably Jacob Rees Mogg’s fault, if not it should be.</p>\n<p>I am beginning to enjoy this enforced layoff, as Hozier said sort of  “I’m so full of love…There’s nothing sweeter than taking my babies to school.” I unfortunately gave my career too much of time for the last ten years or so, the fates have now contrived to give me some head space and the most precious commodity of all…time. I intend to use it wisely.</p>\n<p>Michael</p>\n<p><a href=\"https://wordpress.com/post/grumpyteacherwithpd.wordpress.com/13\" class=\"onebox\" target=\"_blank\" rel=\"nofollow noopener\">https://wordpress.com/post/grumpyteacherwithpd.wordpress.com/13</a></p>\n      </div>\n      <meta itemprop='interactionCount' content='UserLikes:0'>\n      <meta itemprop='interactionCount' content='UserComments:0'>\n      <meta itemprop='headline' content='Things I would not have not known without PD (I am not Pollyanna but...)'>\n      <hr>\n  </div>\n\n\n\n\n\n\n    </div>\n    <footer class=\"container\">\n      <nav class='crawler-nav' itemscope itemtype='http://schema.org/SiteNavigationElement'>\n        <a href='/'>Home</a>\n        <a href=\"/categories\">Categories</a>\n        <a href=\"/guidelines\">FAQ/Guidelines</a>\n        <a href=\"/tos\">Terms of Service</a>\n        <a href=\"/privacy\">Privacy Policy</a>\n      </nav>\n      <p class='powered-by-link'>Powered by <a href=\"https://www.discourse.org\">Discourse</a>, best viewed with JavaScript enabled</p>\n    </footer>\n    \n  </body>\n  \n</html>\n",
  "url": "https://forum.parkinsons.org.uk/t/things-i-would-not-have-not-known-without-pd-i-am-not-pollyanna-but/17662"
}