{
  "contentId": "1b6cf8d0-886d-11e9-8f96-97f71b5221d6",
  "html": "<!DOCTYPE html>\n<html lang=\"en\">\n  <head>\n    <meta charset=\"utf-8\">\n    <title>Intimate solutions - Carers, friends and family - Parkinson&#39;s UK Forum</title>\n    <meta name=\"description\" content=\"Don’t know what to do. Each day presents a new challenge and this one leaves me baffled. Please help me. My 52 year old husband is still coming to terms with his 9 month old diagnosis. Noticed recently that his tremors s&amp;hellip;\">\n    <meta name=\"author\" content=\"\">\n<meta name=\"generator\" content=\"Discourse 2.2.5 - https://github.com/discourse/discourse version c294ff3609f988dcafb742e91606d60ca13b794d\">\n<link rel=\"icon\" type=\"image/png\" href=\"https://forum.parkinsons.org.uk/uploads/db7928/original/2X/3/311fc84f89f49f38601a2f16b295b6f03d3ce5dd.jpg\">\n<link rel=\"apple-touch-icon\" type=\"image/png\" href=\"https://forum.parkinsons.org.uk/uploads/db7928/original/2X/3/311fc84f89f49f38601a2f16b295b6f03d3ce5dd.jpg\">\n<meta name=\"theme-color\" content=\"#ffffff\">\n<meta name=\"viewport\" content=\"width=device-width, minimum-scale=1.0, maximum-scale=1.0, user-scalable=yes\">\n<link rel=\"canonical\" href=\"https://forum.parkinsons.org.uk/t/intimate-solutions/14667\" />\n<script type=\"application/ld+json\">{\"@context\":\"http://schema.org\",\"@type\":\"WebSite\",\"url\":\"https://forum.parkinsons.org.uk\",\"potentialAction\":{\"@type\":\"SearchAction\",\"target\":\"https://forum.parkinsons.org.uk/search?q={search_term_string}\",\"query-input\":\"required name=search_term_string\"}}</script>\n<link rel=\"search\" type=\"application/opensearchdescription+xml\" href=\"https://forum.parkinsons.org.uk/opensearch.xml\" title=\"Parkinson&#39;s UK Forum Search\">\n\n      <link href=\"/stylesheets/desktop_f99246ae801b083d3e4cca979d0dade8615b39ac.css?__ws=forum.parkinsons.org.uk\" media=\"all\" rel=\"stylesheet\" data-target=\"desktop\" data-theme-id=\"12\"/>\n      <link href=\"/stylesheets/desktop_theme_12_5d27531cf43f9df0c03a6a6ec3109dd05f9dfc49.css?__ws=forum.parkinsons.org.uk\" media=\"all\" rel=\"stylesheet\" data-target=\"desktop_theme\" data-theme-id=\"12\"/>\n    <link href=\"https://fonts.googleapis.com/css?family=Open+Sans\" rel=\"stylesheet\">\n\n    <meta id=\"data-ga-universal-analytics\" data-tracking-code=\"UA-4855628-1\" data-json=\"{&quot;cookieDomain&quot;:&quot;auto&quot;}\" data-auto-link-domains=\"\">\n\n<link rel='preload' href='/assets/google-universal-analytics-f35b4da49411e6f5559073523aab983da483976a3954c79c756f8579f6fbd6ef.js' as='script'/>\n<script src='/assets/google-universal-analytics-f35b4da49411e6f5559073523aab983da483976a3954c79c756f8579f6fbd6ef.js'></script>\n\n      <link rel=\"alternate\" type=\"application/rss+xml\" title=\"RSS feed of &#39;Intimate solutions&#39;\" href=\"https://forum.parkinsons.org.uk/t/intimate-solutions/14667.rss\" />\n  <meta property=\"og:site_name\" content=\"Parkinson&#39;s UK Forum\" />\n<meta name=\"twitter:card\" content=\"summary\" />\n<meta name=\"twitter:image\" content=\"https://forum.parkinsons.org.uk/uploads/db7928/original/2X/3/311fc84f89f49f38601a2f16b295b6f03d3ce5dd.jpg\" />\n<meta property=\"og:image\" content=\"https://forum.parkinsons.org.uk/uploads/db7928/original/2X/3/311fc84f89f49f38601a2f16b295b6f03d3ce5dd.jpg\" />\n<meta property=\"og:url\" content=\"https://forum.parkinsons.org.uk/t/intimate-solutions/14667\" />\n<meta name=\"twitter:url\" content=\"https://forum.parkinsons.org.uk/t/intimate-solutions/14667\" />\n<meta property=\"og:title\" content=\"Intimate solutions\" />\n<meta name=\"twitter:title\" content=\"Intimate solutions\" />\n<meta property=\"og:description\" content=\"Don’t know what to do. Each day presents a new challenge and this one leaves me baffled. Please help me. My 52 year old husband is still coming to terms with his 9 month old diagnosis. Noticed recently that his tremors seem to intensify after sex so much so that it frightens me. Normally his tremors are in his hand but after sex, his hand and legs tremor vigorously. At one point I thought I needed to call an ambulance… was concerned about how I was going to explain what he was doing before the t...\" />\n<meta name=\"twitter:description\" content=\"Don’t know what to do. Each day presents a new challenge and this one leaves me baffled. Please help me. My 52 year old husband is still coming to terms with his 9 month old diagnosis. Noticed recently that his tremors seem to intensify after sex so much so that it frightens me. Normally his tremors are in his hand but after sex, his hand and legs tremor vigorously. At one point I thought I needed to call an ambulance… was concerned about how I was going to explain what he was doing before the t...\" />\n<meta property=\"article:published_time\" content=\"2018-07-18T16:35:52+00:00\" />\n<meta property=\"og:ignore_canonical\" content=\"true\" />\n\n\n\n    \n  </head>\n  <body class=\"crawler\">\n    <header role=\"banner\">\n    <div class=\"region region-header\">\n        <div class=\"region-header-wrapper\">\n            <div id=\"block-parkinsons-d8-branding\" class=\"block block-system block-system-branding-block\">\n                <a href=\"/\" title=\"Home\" rel=\"home\" class=\"site-logo\">\n                    <img src=\"https://forum.parkinsons.org.uk/uploads/db7928/original/2X/8/862bb7d172e7d127e7f3e147ec43594aa62ac945.png\" alt=\"Parkinson's UK. Change Attitudes. Find a cure. Join us.\">\n                </a>\n            </div>\n            <div id=\"block-helpline\" class=\"block block-block-content block-block-content871cd5af-b938-4947-9dc0-d5c211d08fe3 style-phone\">\n                <div class=\"field field--name-field-link field--type-link field--label-hidden field__item\"><a href=\"tel:+448088000303\">Helpline 0808 800 0303</a></div>\n            </div>\n            <div id=\"block-shop\" class=\"block block-block-content block-block-content6fba5ae5-7797-49cd-8367-f321d8111cd6 style-regular\">\n                <div class=\"field field--name-field-link field--type-link field--label-hidden field__item\"><a href=\"https://shop.parkinsons.org.uk\">Shop</a></div>\n            </div>\n        </div>\n    </div>\n</header>\n\n\n<script src=\"/theme-javascripts/b7e9763fcb584fc8265c56a9f557cd6d2e1e8ed8.js?__ws=forum.parkinsons.org.uk\"></script>\n    <header>\n      <a href=\"/\">\n          <img src=\"https://forum.parkinsons.org.uk/uploads/db7928/original/2X/8/862bb7d172e7d127e7f3e147ec43594aa62ac945.png\" alt=\"Parkinson&#39;s UK Forum\" id=\"site-logo\" style=\"max-width: 150px;\">\n      </a>\n    </header>\n    <div id=\"main-outlet\" class=\"wrap\">\n      <h1>\n  <a href=\"/t/intimate-solutions/14667\">Intimate solutions</a>\n</h1>\n\n<div id='breadcrumbs'>\n    <div id=\"breadcrumb-0\" itemscope itemtype=\"http://data-vocabulary.org/Breadcrumb\"\n        itemref=\"breadcrumb-1\"\n      >\n      <a href=\"/c/living-with-parkinsons\" itemprop=\"url\">\n        <span itemprop=\"title\">Living with Parkinson&#39;s</span>\n      </a>\n    </div>\n    <div id=\"breadcrumb-1\" itemscope itemtype=\"http://data-vocabulary.org/Breadcrumb\"\n>\n      <a href=\"/c/living-with-parkinsons/carers-friends-and-family\" itemprop=\"url\">\n        <span itemprop=\"title\">Carers, friends and family</span>\n      </a>\n    </div>\n</div>\n\n\n\n\n\n<hr>\n\n\n  <div itemscope itemtype='http://schema.org/DiscussionForumPosting'>\n      <div class='creator'>\n        <span>\n          <a href='/u/Ladybird52'><b itemprop='author'>Ladybird52</b></a>\n          \n          <time datetime='2018-07-18T16:35:52Z' itemprop='datePublished'>\n            2018-07-18 16:35:52 UTC\n          </time>\n        </span>\n        <span itemprop='position'>#1</span>\n      </div>\n      <div class='post' itemprop='articleBody'>\n        <p>Don’t know what to do. Each day presents a new challenge and this one leaves me baffled. Please help me. My 52 year old husband is still coming to terms with his 9 month old diagnosis. Noticed recently that his tremors seem to intensify after sex so much so that it frightens me. Normally his tremors are in his hand but after sex, his hand and legs tremor vigorously. At one point I thought I needed to call an ambulance… was concerned about how I was going to explain what he was doing before the tremors started <img src=\"https://forum.parkinsons.org.uk/images/emoji/twitter/blush.png?v=5\" title=\":blush:\" class=\"emoji\" alt=\":blush:\"> Is this the new normal or can we still experience the joys of sex? <img src=\"https://forum.parkinsons.org.uk/images/emoji/twitter/thinking.png?v=5\" title=\":thinking:\" class=\"emoji\" alt=\":thinking:\"></p>\n      </div>\n      <meta itemprop='interactionCount' content='UserLikes:0'>\n      <meta itemprop='interactionCount' content='UserComments:0'>\n      <meta itemprop='headline' content='Intimate solutions'>\n      <hr>\n  </div>\n  <div itemscope itemtype='http://schema.org/DiscussionForumPosting'>\n      <div class='creator'>\n        <span>\n          <a href='/u/Moderators2'><b itemprop='author'>Moderators2</b></a>\n          \n          <time datetime='2018-07-18T23:03:43Z' itemprop='datePublished'>\n            2018-07-18 23:03:43 UTC\n          </time>\n        </span>\n        <span itemprop='position'>#2</span>\n      </div>\n      <div class='post' itemprop='articleBody'>\n        <p>Hi there Ladybird52,</p>\n<p>We fully appreciate this is a bit of a sensitive/awkward topic to approach - we have an area on the website dedicated to Sex and Parkinson’s which you can <a href=\"https://www.parkinsons.org.uk/information-and-support/sex-and-parkinsons\">view here</a>. Hopefully that’ll give you a bit of insight!</p>\n<p>Thereafter - if problems persist, then it’s best to speak to your GP, specialist or Parkinson’s nurse.</p>\n<p>Best Wishes<br>\nTom A, Parkinson’s UK</p>\n      </div>\n      <meta itemprop='interactionCount' content='UserLikes:0'>\n      <meta itemprop='interactionCount' content='UserComments:0'>\n      <meta itemprop='headline' content='Intimate solutions'>\n      <hr>\n  </div>\n\n\n\n\n\n\n    </div>\n    <footer class=\"container\">\n      <nav class='crawler-nav' itemscope itemtype='http://schema.org/SiteNavigationElement'>\n        <a href='/'>Home</a>\n        <a href=\"/categories\">Categories</a>\n        <a href=\"/guidelines\">FAQ/Guidelines</a>\n        <a href=\"/tos\">Terms of Service</a>\n        <a href=\"/privacy\">Privacy Policy</a>\n      </nav>\n      <p class='powered-by-link'>Powered by <a href=\"https://www.discourse.org\">Discourse</a>, best viewed with JavaScript enabled</p>\n    </footer>\n    \n  </body>\n  \n</html>\n",
  "url": "https://forum.parkinsons.org.uk/t/intimate-solutions/14667"
}