{
  "contentId": "c3793070-8863-11e9-8f96-97f71b5221d6",
  "html": "<!DOCTYPE html>\n<html lang=\"en\">\n  <head>\n    <meta charset=\"utf-8\">\n    <title>Droopy/Dry Eye - anyone the same? - Daily life - Parkinson&#39;s UK Forum</title>\n    <meta name=\"description\" content=\"Morning everyone..  Usually not too bad with tolerating stuff... stiffness/slowness is the norm - but anyone experienced problems with droopy eyelid and/or this dry eye syndrome?  Must confess getting me down a bit as &amp;quot;i&amp;hellip;\">\n    <meta name=\"author\" content=\"\">\n<meta name=\"generator\" content=\"Discourse 2.2.5 - https://github.com/discourse/discourse version c294ff3609f988dcafb742e91606d60ca13b794d\">\n<link rel=\"icon\" type=\"image/png\" href=\"https://forum.parkinsons.org.uk/uploads/db7928/original/2X/3/311fc84f89f49f38601a2f16b295b6f03d3ce5dd.jpg\">\n<link rel=\"apple-touch-icon\" type=\"image/png\" href=\"https://forum.parkinsons.org.uk/uploads/db7928/original/2X/3/311fc84f89f49f38601a2f16b295b6f03d3ce5dd.jpg\">\n<meta name=\"theme-color\" content=\"#ffffff\">\n<meta name=\"viewport\" content=\"width=device-width, minimum-scale=1.0, maximum-scale=1.0, user-scalable=yes\">\n<link rel=\"canonical\" href=\"https://forum.parkinsons.org.uk/t/droopy-dry-eye-anyone-the-same/5090\" />\n<script type=\"application/ld+json\">{\"@context\":\"http://schema.org\",\"@type\":\"WebSite\",\"url\":\"https://forum.parkinsons.org.uk\",\"potentialAction\":{\"@type\":\"SearchAction\",\"target\":\"https://forum.parkinsons.org.uk/search?q={search_term_string}\",\"query-input\":\"required name=search_term_string\"}}</script>\n<link rel=\"search\" type=\"application/opensearchdescription+xml\" href=\"https://forum.parkinsons.org.uk/opensearch.xml\" title=\"Parkinson&#39;s UK Forum Search\">\n\n      <link href=\"/stylesheets/desktop_f99246ae801b083d3e4cca979d0dade8615b39ac.css?__ws=forum.parkinsons.org.uk\" media=\"all\" rel=\"stylesheet\" data-target=\"desktop\" data-theme-id=\"12\"/>\n      <link href=\"/stylesheets/desktop_theme_12_5d27531cf43f9df0c03a6a6ec3109dd05f9dfc49.css?__ws=forum.parkinsons.org.uk\" media=\"all\" rel=\"stylesheet\" data-target=\"desktop_theme\" data-theme-id=\"12\"/>\n    <link href=\"https://fonts.googleapis.com/css?family=Open+Sans\" rel=\"stylesheet\">\n\n    <meta id=\"data-ga-universal-analytics\" data-tracking-code=\"UA-4855628-1\" data-json=\"{&quot;cookieDomain&quot;:&quot;auto&quot;}\" data-auto-link-domains=\"\">\n\n<link rel='preload' href='/assets/google-universal-analytics-f35b4da49411e6f5559073523aab983da483976a3954c79c756f8579f6fbd6ef.js' as='script'/>\n<script src='/assets/google-universal-analytics-f35b4da49411e6f5559073523aab983da483976a3954c79c756f8579f6fbd6ef.js'></script>\n\n      <link rel=\"alternate\" type=\"application/rss+xml\" title=\"RSS feed of &#39;Droopy/Dry Eye - anyone the same?&#39;\" href=\"https://forum.parkinsons.org.uk/t/droopy-dry-eye-anyone-the-same/5090.rss\" />\n  <meta property=\"og:site_name\" content=\"Parkinson&#39;s UK Forum\" />\n<meta name=\"twitter:card\" content=\"summary\" />\n<meta name=\"twitter:image\" content=\"https://forum.parkinsons.org.uk/uploads/db7928/original/2X/3/311fc84f89f49f38601a2f16b295b6f03d3ce5dd.jpg\" />\n<meta property=\"og:image\" content=\"https://forum.parkinsons.org.uk/uploads/db7928/original/2X/3/311fc84f89f49f38601a2f16b295b6f03d3ce5dd.jpg\" />\n<meta property=\"og:url\" content=\"https://forum.parkinsons.org.uk/t/droopy-dry-eye-anyone-the-same/5090\" />\n<meta name=\"twitter:url\" content=\"https://forum.parkinsons.org.uk/t/droopy-dry-eye-anyone-the-same/5090\" />\n<meta property=\"og:title\" content=\"Droopy/Dry Eye - anyone the same?\" />\n<meta name=\"twitter:title\" content=\"Droopy/Dry Eye - anyone the same?\" />\n<meta property=\"og:description\" content=\"Morning everyone..  Usually not too bad with tolerating stuff... stiffness/slowness is the norm - but anyone experienced problems with droopy eyelid and/or this dry eye syndrome?  Must confess getting me down a bit as &quot;is there all the time&quot;... Optician says  &#39;yes... that&#39;s what I think it is&#39;... GP, lovely  bloke, but naturally not a neuro expert, says tell Consultant when you next see him.... have heard it can be caused by the medication (been on dopamine agonist 18 months now)....but, expect ...\" />\n<meta name=\"twitter:description\" content=\"Morning everyone..  Usually not too bad with tolerating stuff... stiffness/slowness is the norm - but anyone experienced problems with droopy eyelid and/or this dry eye syndrome?  Must confess getting me down a bit as &quot;is there all the time&quot;... Optician says  &#39;yes... that&#39;s what I think it is&#39;... GP, lovely  bloke, but naturally not a neuro expert, says tell Consultant when you next see him.... have heard it can be caused by the medication (been on dopamine agonist 18 months now)....but, expect ...\" />\n<meta property=\"article:published_time\" content=\"2012-07-18T10:10:47+00:00\" />\n<meta property=\"og:ignore_canonical\" content=\"true\" />\n\n\n\n    \n  </head>\n  <body class=\"crawler\">\n    <header role=\"banner\">\n    <div class=\"region region-header\">\n        <div class=\"region-header-wrapper\">\n            <div id=\"block-parkinsons-d8-branding\" class=\"block block-system block-system-branding-block\">\n                <a href=\"/\" title=\"Home\" rel=\"home\" class=\"site-logo\">\n                    <img src=\"https://forum.parkinsons.org.uk/uploads/db7928/original/2X/8/862bb7d172e7d127e7f3e147ec43594aa62ac945.png\" alt=\"Parkinson's UK. Change Attitudes. Find a cure. Join us.\">\n                </a>\n            </div>\n            <div id=\"block-helpline\" class=\"block block-block-content block-block-content871cd5af-b938-4947-9dc0-d5c211d08fe3 style-phone\">\n                <div class=\"field field--name-field-link field--type-link field--label-hidden field__item\"><a href=\"tel:+448088000303\">Helpline 0808 800 0303</a></div>\n            </div>\n            <div id=\"block-shop\" class=\"block block-block-content block-block-content6fba5ae5-7797-49cd-8367-f321d8111cd6 style-regular\">\n                <div class=\"field field--name-field-link field--type-link field--label-hidden field__item\"><a href=\"https://shop.parkinsons.org.uk\">Shop</a></div>\n            </div>\n        </div>\n    </div>\n</header>\n\n\n<script src=\"/theme-javascripts/b7e9763fcb584fc8265c56a9f557cd6d2e1e8ed8.js?__ws=forum.parkinsons.org.uk\"></script>\n    <header>\n      <a href=\"/\">\n          <img src=\"https://forum.parkinsons.org.uk/uploads/db7928/original/2X/8/862bb7d172e7d127e7f3e147ec43594aa62ac945.png\" alt=\"Parkinson&#39;s UK Forum\" id=\"site-logo\" style=\"max-width: 150px;\">\n      </a>\n    </header>\n    <div id=\"main-outlet\" class=\"wrap\">\n      <h1>\n  <a href=\"/t/droopy-dry-eye-anyone-the-same/5090\">Droopy/Dry Eye - anyone the same?</a>\n</h1>\n\n<div id='breadcrumbs'>\n    <div id=\"breadcrumb-0\" itemscope itemtype=\"http://data-vocabulary.org/Breadcrumb\"\n        itemref=\"breadcrumb-1\"\n      >\n      <a href=\"/c/living-with-parkinsons\" itemprop=\"url\">\n        <span itemprop=\"title\">Living with Parkinson&#39;s</span>\n      </a>\n    </div>\n    <div id=\"breadcrumb-1\" itemscope itemtype=\"http://data-vocabulary.org/Breadcrumb\"\n>\n      <a href=\"/c/living-with-parkinsons/daily-life\" itemprop=\"url\">\n        <span itemprop=\"title\">Daily life</span>\n      </a>\n    </div>\n</div>\n\n\n\n\n\n<hr>\n\n\n  <div itemscope itemtype='http://schema.org/DiscussionForumPosting'>\n      <div class='creator'>\n        <span>\n          <a href='/u/Bursardavid'><b itemprop='author'>Bursardavid</b></a>\n          \n          <time datetime='2012-07-18T10:10:47Z' itemprop='datePublished'>\n            2012-07-18 10:10:47 UTC\n          </time>\n        </span>\n        <span itemprop='position'>#1</span>\n      </div>\n      <div class='post' itemprop='articleBody'>\n        Morning everyone..<br><br>Usually not too bad with tolerating stuff... stiffness/slowness is the norm - but anyone experienced problems with droopy eyelid and/or this dry eye syndrome?<br><br>Must confess getting me down a bit as \"is there all the time\"... Optician says <br>'yes... that's what I think it is'... GP, lovely  bloke, but naturally not a neuro expert, says tell Consultant when you next see him.... have heard it can be caused by the medication (been on dopamine agonist 18 months now)....but, expect you know,it gets so wearing... eyelid droops and if tired almost closes.. eyes feeling scratchy, red and burning... and a bit weepy... and then of course your mind plays tricks on what it could be... what could happen.. sure you know the feeling!!<br><br>Don't usually do this, but would appreciate anyone sharing, please...<br><br>Best wishes to you all... Bursardavid\n      </div>\n      <meta itemprop='interactionCount' content='UserLikes:0'>\n      <meta itemprop='interactionCount' content='UserComments:0'>\n      <meta itemprop='headline' content='Droopy/Dry Eye - anyone the same?'>\n      <hr>\n  </div>\n  <div itemscope itemtype='http://schema.org/DiscussionForumPosting'>\n      <div class='creator'>\n        <span>\n          <a href='/u/turnip'><b itemprop='author'>turnip</b></a>\n          \n          <time datetime='2012-07-18T10:36:42Z' itemprop='datePublished'>\n            2012-07-18 10:36:42 UTC\n          </time>\n        </span>\n        <span itemprop='position'>#2</span>\n      </div>\n      <div class='post' itemprop='articleBody'>\n        hi bursardavid<br>this site looks useful<br><a href=\"http://www.allaboutvision.com/conditions/blepharitis.htm\" target=\"_blank\">http://www.allaboutvision.com/conditions/blepharitis.htm</a><br>the suggestion to take some flaxseed oil sounds worth a go.<br>it is a listed side effect of ropinerole.<br>good luck\n      </div>\n      <meta itemprop='interactionCount' content='UserLikes:0'>\n      <meta itemprop='interactionCount' content='UserComments:0'>\n      <meta itemprop='headline' content='Droopy/Dry Eye - anyone the same?'>\n      <hr>\n  </div>\n  <div itemscope itemtype='http://schema.org/DiscussionForumPosting'>\n      <div class='creator'>\n        <span>\n          <a href='/u/Bursardavid'><b itemprop='author'>Bursardavid</b></a>\n          \n          <time datetime='2012-07-18T16:28:04Z' itemprop='datePublished'>\n            2012-07-18 16:28:04 UTC\n          </time>\n        </span>\n        <span itemprop='position'>#3</span>\n      </div>\n      <div class='post' itemprop='articleBody'>\n        Hi Turnip...<br><br>You've been a good mate to me in the past... and thank you for doing<br>it again... Would have sent a \"me to you\" reply but think it would be <br>good for others to see (a) that I've looked at your suggestion and <br>found I 'ticked all the boxes!' (so got a good idea of what we're dealing<br>with)... and (b) it just goes to illustrate the sort of support we can be to<br>one another (and therefore no need to sit and fret - come onto the Forum <br>and there will always be somebody out there to help)..<br><br>Thank you again, mate!.. bursardavid..\n      </div>\n      <meta itemprop='interactionCount' content='UserLikes:0'>\n      <meta itemprop='interactionCount' content='UserComments:0'>\n      <meta itemprop='headline' content='Droopy/Dry Eye - anyone the same?'>\n      <hr>\n  </div>\n  <div itemscope itemtype='http://schema.org/DiscussionForumPosting'>\n      <div class='creator'>\n        <span>\n          <a href='/u/Johnnie'><b itemprop='author'>Johnnie</b></a>\n          \n          <time datetime='2012-07-18T18:01:22Z' itemprop='datePublished'>\n            2012-07-18 18:01:22 UTC\n          </time>\n        </span>\n        <span itemprop='position'>#4</span>\n      </div>\n      <div class='post' itemprop='articleBody'>\n        My husband use to have a lot of trouble with dry /sticky eye and running . Still does but mainly running these days at the same time as a drooly mouth . Its particularly bad at themoment .<br><br>I foundthat making sure to cleanse the eyes /eyelashes with baby oil and baby wash in warm water helps but keep doing it and in the first place a few times a day . Do the same with the eyebrows and keep them trimmed that is if you are a man .lol  Our gp told us to use Head and shoulders shampoo as well it helps with the dry oily skin on the face ears and head , I ignored it in the first place thinking it would be too strong , my husbands skin is quite fragile and blisters easily , but onece I did use it it worked .\n      </div>\n      <meta itemprop='interactionCount' content='UserLikes:0'>\n      <meta itemprop='interactionCount' content='UserComments:0'>\n      <meta itemprop='headline' content='Droopy/Dry Eye - anyone the same?'>\n      <hr>\n  </div>\n  <div itemscope itemtype='http://schema.org/DiscussionForumPosting'>\n      <div class='creator'>\n        <span>\n          <a href='/u/Visionvalue'><b itemprop='author'>Visionvalue</b></a>\n          \n          <time datetime='2012-07-18T21:55:32Z' itemprop='datePublished'>\n            2012-07-18 21:55:32 UTC\n          </time>\n        </span>\n        <span itemprop='position'>#5</span>\n      </div>\n      <div class='post' itemprop='articleBody'>\n        I can relate to dry eye. Very irritating especially if you accidentely rub it when it is itching. To alleviate this I use GEL TEARS or SIMPLE EYE OINTMENT to substitute the tear drops that aren't there. This was recommended by the eye hospital specialist. I put it in my eye at night and next day is fine.\n      </div>\n      <meta itemprop='interactionCount' content='UserLikes:0'>\n      <meta itemprop='interactionCount' content='UserComments:0'>\n      <meta itemprop='headline' content='Droopy/Dry Eye - anyone the same?'>\n      <hr>\n  </div>\n  <div itemscope itemtype='http://schema.org/DiscussionForumPosting'>\n      <div class='creator'>\n        <span>\n          <a href='/u/Johnnie'><b itemprop='author'>Johnnie</b></a>\n          \n          <time datetime='2012-07-18T22:30:21Z' itemprop='datePublished'>\n            2012-07-18 22:30:21 UTC\n          </time>\n        </span>\n        <span itemprop='position'>#6</span>\n      </div>\n      <div class='post' itemprop='articleBody'>\n        I can really reccommend the eye cleansing . It made a big difference . you mentioned  the scratching vison value , it possibly because the eyelash becomes scurfy  once I started doing it my husband had eyelashes and didnt know he had them lol . they looked longer and separated .   Never thought to do it for myself lol  will have a go and let you know because my eyelashes are not very long atall ..<br>His lashes would sometime turn inwards as well I thought it was a family thing his mothers did and had a small op on them .   On reflection I believe she might have had parkinsons and her skin was always troublesome\n      </div>\n      <meta itemprop='interactionCount' content='UserLikes:0'>\n      <meta itemprop='interactionCount' content='UserComments:0'>\n      <meta itemprop='headline' content='Droopy/Dry Eye - anyone the same?'>\n      <hr>\n  </div>\n  <div itemscope itemtype='http://schema.org/DiscussionForumPosting'>\n      <div class='creator'>\n        <span>\n          <a href='/u/Bursardavid'><b itemprop='author'>Bursardavid</b></a>\n          \n          <time datetime='2012-07-19T00:47:52Z' itemprop='datePublished'>\n            2012-07-19 00:47:52 UTC\n          </time>\n        </span>\n        <span itemprop='position'>#7</span>\n      </div>\n      <div class='post' itemprop='articleBody'>\n        Hi Johnnie & Visionvalue..<br><br>Looks like we all belong to the 'night owl'club!<br><br>...but really, just wanted to say a real \"thank you\" both for taking the time\n      </div>\n      <meta itemprop='interactionCount' content='UserLikes:0'>\n      <meta itemprop='interactionCount' content='UserComments:0'>\n      <meta itemprop='headline' content='Droopy/Dry Eye - anyone the same?'>\n      <hr>\n  </div>\n  <div itemscope itemtype='http://schema.org/DiscussionForumPosting'>\n      <div class='creator'>\n        <span>\n          <a href='/u/Bursardavid'><b itemprop='author'>Bursardavid</b></a>\n          \n          <time datetime='2012-07-19T01:10:25Z' itemprop='datePublished'>\n            2012-07-19 01:10:25 UTC\n          </time>\n        </span>\n        <span itemprop='position'>#8</span>\n      </div>\n      <div class='post' itemprop='articleBody'>\n        Oops!... Pushed the wrong key!! .... It happens, doesn't it - just be grateful I'm not in charges of the four minute warning!!<br><br>But simply,again, thank you... Your messages, like Turnips, we're caring and encouraging ...  and although initially I'd almost got<br>to the \"panic\" stage,' .. I'm much more content  now. <br><br>Thanks again....bursardavid\n      </div>\n      <meta itemprop='interactionCount' content='UserLikes:0'>\n      <meta itemprop='interactionCount' content='UserComments:0'>\n      <meta itemprop='headline' content='Droopy/Dry Eye - anyone the same?'>\n      <hr>\n  </div>\n  <div itemscope itemtype='http://schema.org/DiscussionForumPosting'>\n      <div class='creator'>\n        <span>\n          <a href='/u/polly'><b itemprop='author'>polly</b></a>\n          \n          <time datetime='2012-07-19T04:11:35Z' itemprop='datePublished'>\n            2012-07-19 04:11:35 UTC\n          </time>\n        </span>\n        <span itemprop='position'>#9</span>\n      </div>\n      <div class='post' itemprop='articleBody'>\n        This applies to me as well and I am grateful for the information.  I had started bathing them and putting on compresses.  GP does not want to prescribe anything strong.  I wear contact lenses which I am not putting in so regularily now as they make it worse.\n      </div>\n      <meta itemprop='interactionCount' content='UserLikes:0'>\n      <meta itemprop='interactionCount' content='UserComments:0'>\n      <meta itemprop='headline' content='Droopy/Dry Eye - anyone the same?'>\n      <hr>\n  </div>\n  <div itemscope itemtype='http://schema.org/DiscussionForumPosting'>\n      <div class='creator'>\n        <span>\n          <a href='/u/Vivian'><b itemprop='author'>Vivian</b></a>\n          \n          <time datetime='2012-07-19T14:43:54Z' itemprop='datePublished'>\n            2012-07-19 14:43:54 UTC\n          </time>\n        </span>\n        <span itemprop='position'>#10</span>\n      </div>\n      <div class='post' itemprop='articleBody'>\n        Hi everyone,<br><br>  Just wanted to say how lovely it is to see so many of you helping each other out, that is what I call the Parky family working at it's best.<br> best wishes<br>vivian\n      </div>\n      <meta itemprop='interactionCount' content='UserLikes:0'>\n      <meta itemprop='interactionCount' content='UserComments:0'>\n      <meta itemprop='headline' content='Droopy/Dry Eye - anyone the same?'>\n      <hr>\n  </div>\n  <div itemscope itemtype='http://schema.org/DiscussionForumPosting'>\n      <div class='creator'>\n        <span>\n          <a href='/u/Johnnie'><b itemprop='author'>Johnnie</b></a>\n          \n          <time datetime='2012-07-19T21:07:29Z' itemprop='datePublished'>\n            2012-07-19 21:07:29 UTC\n          </time>\n        </span>\n        <span itemprop='position'>#11</span>\n      </div>\n      <div class='post' itemprop='articleBody'>\n        Here here Vivian . It's what happens in a family  who care...  Or at least it should do.. <br><br>I think inmost cases when you are first diagnosed with this dreadful illness you are left to your own devises , knowing very little and alone . Then you meet all these other lovely people .\n      </div>\n      <meta itemprop='interactionCount' content='UserLikes:0'>\n      <meta itemprop='interactionCount' content='UserComments:0'>\n      <meta itemprop='headline' content='Droopy/Dry Eye - anyone the same?'>\n      <hr>\n  </div>\n  <div itemscope itemtype='http://schema.org/DiscussionForumPosting'>\n      <div class='creator'>\n        <span>\n          <a href='/u/Bevroc'><b itemprop='author'>Bevroc</b></a>\n          \n          <time datetime='2019-05-23T21:36:51Z' itemprop='datePublished'>\n            2019-05-23 21:36:51 UTC\n          </time>\n        </span>\n        <span itemprop='position'>#12</span>\n      </div>\n      <div class='post' itemprop='articleBody'>\n        <p>I have had PD now for 11years.quite a few years ago(can’t remember how many) I noticed on my Parkinson’s side of the body that side of my face had dropped.it looked as if I had a stroke. My GP did tests couldn’t find a reason and said perhaps it might be due to PD ask the consultant. He said no it wasn’t PD. So I was stuck in no mans land.the droop in my eye got so bad it was all but closed and found it difficult to read. About a year ago my consultant referred me to the eye hospital. They reduced both my eyelids, it looked fine for a short time and now my eyebrow has started to drop over my eye. I don’t know where I go from here. I use optive eye drops many times in the day for the dryness but I do worry what’s going to happen next.</p>\n      </div>\n      <meta itemprop='interactionCount' content='UserLikes:0'>\n      <meta itemprop='interactionCount' content='UserComments:0'>\n      <meta itemprop='headline' content='Droopy/Dry Eye - anyone the same?'>\n      <hr>\n  </div>\n\n\n\n\n\n\n    </div>\n    <footer class=\"container\">\n      <nav class='crawler-nav' itemscope itemtype='http://schema.org/SiteNavigationElement'>\n        <a href='/'>Home</a>\n        <a href=\"/categories\">Categories</a>\n        <a href=\"/guidelines\">FAQ/Guidelines</a>\n        <a href=\"/tos\">Terms of Service</a>\n        <a href=\"/privacy\">Privacy Policy</a>\n      </nav>\n      <p class='powered-by-link'>Powered by <a href=\"https://www.discourse.org\">Discourse</a>, best viewed with JavaScript enabled</p>\n    </footer>\n    \n  </body>\n  \n</html>\n",
  "url": "https://forum.parkinsons.org.uk/t/droopy-dry-eye-anyone-the-same/5090"
}