{
  "contentId": "ba2d7840-8864-11e9-8f96-97f71b5221d6",
  "html": "<!DOCTYPE html>\n<html lang=\"en\">\n  <head>\n    <meta charset=\"utf-8\">\n    <title>How to delete account - Get help using the forum - Parkinson&#39;s UK Forum</title>\n    <meta name=\"description\" content=\"Somehow my user name has ended up as my real name.  I want to either change it for privacy reasons, or delete my account, and all entries bearing my name.  How do I do that?\">\n    <meta name=\"author\" content=\"\">\n<meta name=\"generator\" content=\"Discourse 2.2.5 - https://github.com/discourse/discourse version c294ff3609f988dcafb742e91606d60ca13b794d\">\n<link rel=\"icon\" type=\"image/png\" href=\"https://forum.parkinsons.org.uk/uploads/db7928/original/2X/3/311fc84f89f49f38601a2f16b295b6f03d3ce5dd.jpg\">\n<link rel=\"apple-touch-icon\" type=\"image/png\" href=\"https://forum.parkinsons.org.uk/uploads/db7928/original/2X/3/311fc84f89f49f38601a2f16b295b6f03d3ce5dd.jpg\">\n<meta name=\"theme-color\" content=\"#ffffff\">\n<meta name=\"viewport\" content=\"width=device-width, minimum-scale=1.0, maximum-scale=1.0, user-scalable=yes\">\n<link rel=\"canonical\" href=\"https://forum.parkinsons.org.uk/t/how-to-delete-account/13541\" />\n<script type=\"application/ld+json\">{\"@context\":\"http://schema.org\",\"@type\":\"WebSite\",\"url\":\"https://forum.parkinsons.org.uk\",\"potentialAction\":{\"@type\":\"SearchAction\",\"target\":\"https://forum.parkinsons.org.uk/search?q={search_term_string}\",\"query-input\":\"required name=search_term_string\"}}</script>\n<link rel=\"search\" type=\"application/opensearchdescription+xml\" href=\"https://forum.parkinsons.org.uk/opensearch.xml\" title=\"Parkinson&#39;s UK Forum Search\">\n\n      <link href=\"/stylesheets/desktop_f99246ae801b083d3e4cca979d0dade8615b39ac.css?__ws=forum.parkinsons.org.uk\" media=\"all\" rel=\"stylesheet\" data-target=\"desktop\" data-theme-id=\"12\"/>\n      <link href=\"/stylesheets/desktop_theme_12_5d27531cf43f9df0c03a6a6ec3109dd05f9dfc49.css?__ws=forum.parkinsons.org.uk\" media=\"all\" rel=\"stylesheet\" data-target=\"desktop_theme\" data-theme-id=\"12\"/>\n    <link href=\"https://fonts.googleapis.com/css?family=Open+Sans\" rel=\"stylesheet\">\n\n    <meta id=\"data-ga-universal-analytics\" data-tracking-code=\"UA-4855628-1\" data-json=\"{&quot;cookieDomain&quot;:&quot;auto&quot;}\" data-auto-link-domains=\"\">\n\n<link rel='preload' href='/assets/google-universal-analytics-f35b4da49411e6f5559073523aab983da483976a3954c79c756f8579f6fbd6ef.js' as='script'/>\n<script src='/assets/google-universal-analytics-f35b4da49411e6f5559073523aab983da483976a3954c79c756f8579f6fbd6ef.js'></script>\n\n      <link rel=\"alternate\" type=\"application/rss+xml\" title=\"RSS feed of &#39;How to delete account&#39;\" href=\"https://forum.parkinsons.org.uk/t/how-to-delete-account/13541.rss\" />\n  <meta property=\"og:site_name\" content=\"Parkinson&#39;s UK Forum\" />\n<meta name=\"twitter:card\" content=\"summary\" />\n<meta name=\"twitter:image\" content=\"https://forum.parkinsons.org.uk/uploads/db7928/original/2X/3/311fc84f89f49f38601a2f16b295b6f03d3ce5dd.jpg\" />\n<meta property=\"og:image\" content=\"https://forum.parkinsons.org.uk/uploads/db7928/original/2X/3/311fc84f89f49f38601a2f16b295b6f03d3ce5dd.jpg\" />\n<meta property=\"og:url\" content=\"https://forum.parkinsons.org.uk/t/how-to-delete-account/13541\" />\n<meta name=\"twitter:url\" content=\"https://forum.parkinsons.org.uk/t/how-to-delete-account/13541\" />\n<meta property=\"og:title\" content=\"How to delete account\" />\n<meta name=\"twitter:title\" content=\"How to delete account\" />\n<meta property=\"og:description\" content=\"Somehow my user name has ended up as my real name.  I want to either change it for privacy reasons, or delete my account, and all entries bearing my name.  How do I do that?\" />\n<meta name=\"twitter:description\" content=\"Somehow my user name has ended up as my real name.  I want to either change it for privacy reasons, or delete my account, and all entries bearing my name.  How do I do that?\" />\n<meta property=\"article:published_time\" content=\"2018-05-16T19:21:56+00:00\" />\n<meta property=\"og:ignore_canonical\" content=\"true\" />\n\n\n\n    \n  </head>\n  <body class=\"crawler\">\n    <header role=\"banner\">\n    <div class=\"region region-header\">\n        <div class=\"region-header-wrapper\">\n            <div id=\"block-parkinsons-d8-branding\" class=\"block block-system block-system-branding-block\">\n                <a href=\"/\" title=\"Home\" rel=\"home\" class=\"site-logo\">\n                    <img src=\"https://forum.parkinsons.org.uk/uploads/db7928/original/2X/8/862bb7d172e7d127e7f3e147ec43594aa62ac945.png\" alt=\"Parkinson's UK. Change Attitudes. Find a cure. Join us.\">\n                </a>\n            </div>\n            <div id=\"block-helpline\" class=\"block block-block-content block-block-content871cd5af-b938-4947-9dc0-d5c211d08fe3 style-phone\">\n                <div class=\"field field--name-field-link field--type-link field--label-hidden field__item\"><a href=\"tel:+448088000303\">Helpline 0808 800 0303</a></div>\n            </div>\n            <div id=\"block-shop\" class=\"block block-block-content block-block-content6fba5ae5-7797-49cd-8367-f321d8111cd6 style-regular\">\n                <div class=\"field field--name-field-link field--type-link field--label-hidden field__item\"><a href=\"https://shop.parkinsons.org.uk\">Shop</a></div>\n            </div>\n        </div>\n    </div>\n</header>\n\n\n<script src=\"/theme-javascripts/b7e9763fcb584fc8265c56a9f557cd6d2e1e8ed8.js?__ws=forum.parkinsons.org.uk\"></script>\n    <header>\n      <a href=\"/\">\n          <img src=\"https://forum.parkinsons.org.uk/uploads/db7928/original/2X/8/862bb7d172e7d127e7f3e147ec43594aa62ac945.png\" alt=\"Parkinson&#39;s UK Forum\" id=\"site-logo\" style=\"max-width: 150px;\">\n      </a>\n    </header>\n    <div id=\"main-outlet\" class=\"wrap\">\n      <h1>\n  <a href=\"/t/how-to-delete-account/13541\">How to delete account</a>\n</h1>\n\n<div id='breadcrumbs'>\n    <div id=\"breadcrumb-0\" itemscope itemtype=\"http://data-vocabulary.org/Breadcrumb\"\n        itemref=\"breadcrumb-1\"\n      >\n      <a href=\"/c/about-the-forum\" itemprop=\"url\">\n        <span itemprop=\"title\">About the forum</span>\n      </a>\n    </div>\n    <div id=\"breadcrumb-1\" itemscope itemtype=\"http://data-vocabulary.org/Breadcrumb\"\n>\n      <a href=\"/c/about-the-forum/get-help-using-the-forum\" itemprop=\"url\">\n        <span itemprop=\"title\">Get help using the forum</span>\n      </a>\n    </div>\n</div>\n\n\n\n\n\n<hr>\n\n\n  <div itemscope itemtype='http://schema.org/DiscussionForumPosting'>\n      <div class='creator'>\n        <span>\n          <a href='/u/Jane_L'><b itemprop='author'>Jane_L</b></a>\n          \n          <time datetime='2018-05-16T19:21:56Z' itemprop='datePublished'>\n            2018-05-16 19:21:56 UTC\n          </time>\n        </span>\n        <span itemprop='position'>#1</span>\n      </div>\n      <div class='post' itemprop='articleBody'>\n        <p>Somehow my user name has ended up as my real name.  I want to either change it for privacy reasons, or delete my account, and all entries bearing my name.  How do I do that?</p>\n      </div>\n      <meta itemprop='interactionCount' content='UserLikes:0'>\n      <meta itemprop='interactionCount' content='UserComments:0'>\n      <meta itemprop='headline' content='How to delete account'>\n      <hr>\n  </div>\n  <div itemscope itemtype='http://schema.org/DiscussionForumPosting'>\n      <div class='creator'>\n        <span>\n          <a href='/u/Moderators2'><b itemprop='author'>Moderators2</b></a>\n          \n          <time datetime='2018-05-16T22:59:56Z' itemprop='datePublished'>\n            2018-05-16 22:59:56 UTC\n          </time>\n        </span>\n        <span itemprop='position'>#2</span>\n      </div>\n      <div class='post' itemprop='articleBody'>\n        <p>Hi Jane,</p>\n<p>For privacy reasons, I have changed your username to Jane_L, but if you want to change it to something else you can do so following these steps:<br>\n1 - Click on the circle at the top-right of the screen containing your avatar picture or a default blank circle which is highlighted in the green square below. That will bring out a pop up menu below where you can see the icons opposite your username. Click the preferences icon highlighted in the green circle below:</p>\n<p><div class=\"lightbox-wrapper\"><a class=\"lightbox\" href=\"//forum.parkinsons.org.uk/uploads/db7928/original/2X/0/0b70f65b875c63d0818664a16584177beabf0f2f.jpg\" data-download-href=\"//forum.parkinsons.org.uk/uploads/db7928/0b70f65b875c63d0818664a16584177beabf0f2f\" title=\"Select avatar and preferences icon.jpg\"><img src=\"//forum.parkinsons.org.uk/uploads/db7928/optimized/2X/0/0b70f65b875c63d0818664a16584177beabf0f2f_1_690x85.jpg\" alt=\"Select avatar and preferences icon\" width=\"690\" height=\"85\"><div class=\"meta\">\n<span class=\"filename\">Select avatar and preferences icon.jpg</span><span class=\"informations\">1125x140 21.4 KB</span><span class=\"expand\"></span>\n</div></a></div></p>\n<p>2 - You will now see your username and the pencil icon highlighted with the green circle in the image below. Clicking on this icon will allow you to change your username:</p>\n<p><div class=\"lightbox-wrapper\"><a class=\"lightbox\" href=\"//forum.parkinsons.org.uk/uploads/db7928/original/2X/0/0d83c67f80df8a6dd8027f8a3bb1ad247ffa5ef5.jpg\" data-download-href=\"//forum.parkinsons.org.uk/uploads/db7928/0d83c67f80df8a6dd8027f8a3bb1ad247ffa5ef5\" title=\"Edit username icon.jpg\"><img src=\"//forum.parkinsons.org.uk/uploads/db7928/optimized/2X/0/0d83c67f80df8a6dd8027f8a3bb1ad247ffa5ef5_1_690x255.jpg\" alt=\"Edit username icon\" width=\"690\" height=\"255\"><div class=\"meta\">\n<span class=\"filename\">Edit username icon.jpg</span><span class=\"informations\">799x296 26.3 KB</span><span class=\"expand\"></span>\n</div></a></div></p>\n<p>3 - You can now type the username you would like to use in the text box marked with the green arrow and click the <strong>change</strong> button to save your new chosen username.</p>\n<p><div class=\"lightbox-wrapper\"><a class=\"lightbox\" href=\"//forum.parkinsons.org.uk/uploads/db7928/original/2X/e/e8fbd29cc1c39d78051a63ff64652a200eafc47b.jpg\" data-download-href=\"//forum.parkinsons.org.uk/uploads/db7928/e8fbd29cc1c39d78051a63ff64652a200eafc47b\" title=\"Change username screen.jpg\"><img src=\"//forum.parkinsons.org.uk/uploads/db7928/optimized/2X/e/e8fbd29cc1c39d78051a63ff64652a200eafc47b_1_690x252.jpg\" alt=\"Change username screen\" width=\"690\" height=\"252\"><div class=\"meta\">\n<span class=\"filename\">Change username screen.jpg</span><span class=\"informations\">790x289 29 KB</span><span class=\"expand\"></span>\n</div></a></div></p>\n<p>I hope that helps, but if you have any issues or you don’t see a pencil icon next to your username when you get to step 2, just let us know which username you would like to use and we will be more than happy to make the change for you.</p>\n<p>Best wishes,<br>\nMara (Moderation Team)</p>\n      </div>\n      <meta itemprop='interactionCount' content='UserLikes:0'>\n      <meta itemprop='interactionCount' content='UserComments:0'>\n      <meta itemprop='headline' content='How to delete account'>\n      <hr>\n  </div>\n\n\n\n\n\n\n    </div>\n    <footer class=\"container\">\n      <nav class='crawler-nav' itemscope itemtype='http://schema.org/SiteNavigationElement'>\n        <a href='/'>Home</a>\n        <a href=\"/categories\">Categories</a>\n        <a href=\"/guidelines\">FAQ/Guidelines</a>\n        <a href=\"/tos\">Terms of Service</a>\n        <a href=\"/privacy\">Privacy Policy</a>\n      </nav>\n      <p class='powered-by-link'>Powered by <a href=\"https://www.discourse.org\">Discourse</a>, best viewed with JavaScript enabled</p>\n    </footer>\n    \n  </body>\n  \n</html>\n",
  "url": "https://forum.parkinsons.org.uk/t/how-to-delete-account/13541"
}