{
  "contentId": "dd28f630-674e-11e9-8b11-2bb10ea1bee3",
  "html": "<!DOCTYPE html>\n\t<!--[if IE 8]>\n\t\t<html xmlns=\"http://www.w3.org/1999/xhtml\" class=\"ie8\" lang=\"fr-FR\">\n\t<![endif]-->\n\t<!--[if !(IE 8) ]><!-->\n\t\t<html xmlns=\"http://www.w3.org/1999/xhtml\" lang=\"fr-FR\">\n\t<!--<![endif]-->\n\t<head>\n\t<meta http-equiv=\"Content-Type\" content=\"text/html; charset=UTF-8\" />\n\t<title>Franceparkinsonforum &lsaquo; Formulaire d&rsquo;inscription</title>\n\t<link rel='dns-prefetch' href='//s.w.org' />\n<script>if (document.location.protocol != \"https:\") {document.location = document.URL.replace(/^http:/i, \"https:\");}</script><link rel='stylesheet' href='https://forum.franceparkinson.fr/wp-admin/load-styles.php?c=0&amp;dir=ltr&amp;load%5B%5D=dashicons,buttons,forms,l10n,login&amp;ver=4.6.1' type='text/css' media='all' />\n<style type=\"text/css\">*{-webkit-transition:all linear .2s;-moz-transition:all linear .2s;transition:all linear .2s;tap-highlight-color: transparent;  -o-tap-highlight-color: transparent;  -moz-tap-highlight-color: transparent;  -webkit-tap-highlight-color: transparent;}textarea:focus, input[type=\"text\"]:focus, input[type=\"password\"]:focus{border-color: #7CB5D8;-webkit-box-shadow:0px 0px 3px #90C4E4 inset;box-shadow:0px 0px 3px #90C4E4 inset;-moz-box-shadow:0px 0px 3px #90C4E4 inset;}body.login{display:table;width:100%;}.login #nav a, .login #backtoblog a {}#login {padding-top: 30px;}.login form{box-shadow: 0 0 0 1px rgba(0,0,0,0.05), 0 1px 5px rgba(0,0,0,0.08), 0 0 0 8px rgba(0, 0, 0, 0.02), 0 0 10px rgba(0, 0, 0, 0.05);-moz-box-shadow: 0 0 0 1px rgba(0,0,0,0.05), 0 1px 5px rgba(0,0,0,0.08), 0 0 0 8px rgba(0, 0, 0, 0.02), 0 0 10px rgba(0, 0, 0, 0.05);-webkit-box-shadow: 0 0 0 1px rgba(0,0,0,0.05), 0 1px 5px rgba(0,0,0,0.08), 0 0 0 8px rgba(0, 0, 0, 0.02), 0 0 10px rgba(0, 0, 0, 0.05);border-color:#FFF;z-index:5;position:relative !important;opacity: .95;}.login #nav, .login #backtoblog{text-shadow:none}.login form .input, .login input[type=\"text\"] {margin-top: 5px;margin-right: 6px;margin-bottom: 13px;}h1 a { background-image:url(http://www.franceparkinson.fr/wp-content/themes/twentysixteen-child/img/Logo/logofranceparkinson.png) !important;background-size: contain !important;background-position:center center !important;height:100px !important; width:auto !important; }        </style>        <meta name='robots' content='noindex,follow' />\n\t</head>\n\t<body class=\"login login-action-register wp-core-ui  locale-fr-fr\">\n\t\t<div id=\"login\">\n\t\t<h1><a href=\"https://fr.wordpress.org/\" title=\"Propulsé par WordPress\" tabindex=\"-1\">Franceparkinsonforum</a></h1>\n\t<p class=\"message register\">S&rsquo;inscrire sur ce site</p>\n<form name=\"registerform\" id=\"registerform\" action=\"https://forum.franceparkinson.fr/wp-login.php?action=register\" method=\"post\" novalidate=\"novalidate\">\n\t<p>\n\t\t<label for=\"user_login\">Identifiant<br />\n\t\t<input type=\"text\" name=\"user_login\" id=\"user_login\" class=\"input\" value=\"\" size=\"20\" /></label>\n\t</p>\n\t<p>\n\t\t<label for=\"user_email\">Adresse de messagerie<br />\n\t\t<input type=\"email\" name=\"user_email\" id=\"user_email\" class=\"input\" value=\"\" size=\"25\" /></label>\n\t</p>\n\t\t<p id=\"reg_passmail\">La confirmation d’inscription vous sera envoyée par e-mail.</p>\n\t<br class=\"clear\" />\n\t<input type=\"hidden\" name=\"redirect_to\" value=\"\" />\n\t<p class=\"submit\"><input type=\"submit\" name=\"wp-submit\" id=\"wp-submit\" class=\"button button-primary button-large\" value=\"Inscription\" /></p>\n</form>\n\n<p id=\"nav\">\n<a href=\"https://forum.franceparkinson.fr/wp-login.php\">Connexion</a> |\n<a href=\"https://forum.franceparkinson.fr/wp-login.php?action=lostpassword\">Mot de passe oublié&nbsp;?</a>\n</p>\n\n\t<p id=\"backtoblog\"><a href=\"https://forum.franceparkinson.fr/\">&larr; Retour vers Franceparkinsonforum</a></p>\n\t\n\t</div>\n\n\t\t<script type=\"text/javascript\">\n\ttry{document.getElementById('user_login').focus();}catch(e){}\n\tif(typeof wpOnload=='function')wpOnload();\n\t</script>\n\t\n\t\t<div class=\"clear\"></div>\n\t</body>\n\t</html>\n\t",
  "url": "https://forum.franceparkinson.fr/wp-login.php?action=register"
}