{
  "contentId": "c10f8370-8863-11e9-8f96-97f71b5221d6",
  "html": "<!DOCTYPE html>\n<html lang=\"en\">\n  <head>\n    <meta charset=\"utf-8\">\n    <title>Struggling - Carers, friends and family - Parkinson&#39;s UK Forum</title>\n    <meta name=\"description\" content=\"I’m a Parkinson’s carer, who, selfish though it may sound, as I’m not suffering myself from this terrible disease, just feels at their wits’ end watching a disintegration before my very eyes.  I’m convinced there needs t&amp;hellip;\">\n    <meta name=\"author\" content=\"\">\n<meta name=\"generator\" content=\"Discourse 2.2.5 - https://github.com/discourse/discourse version c294ff3609f988dcafb742e91606d60ca13b794d\">\n<link rel=\"icon\" type=\"image/png\" href=\"https://forum.parkinsons.org.uk/uploads/db7928/original/2X/3/311fc84f89f49f38601a2f16b295b6f03d3ce5dd.jpg\">\n<link rel=\"apple-touch-icon\" type=\"image/png\" href=\"https://forum.parkinsons.org.uk/uploads/db7928/original/2X/3/311fc84f89f49f38601a2f16b295b6f03d3ce5dd.jpg\">\n<meta name=\"theme-color\" content=\"#ffffff\">\n<meta name=\"viewport\" content=\"width=device-width, minimum-scale=1.0, maximum-scale=1.0, user-scalable=yes\">\n<link rel=\"canonical\" href=\"https://forum.parkinsons.org.uk/t/struggling/17167?page=2\" />\n<script type=\"application/ld+json\">{\"@context\":\"http://schema.org\",\"@type\":\"WebSite\",\"url\":\"https://forum.parkinsons.org.uk\",\"potentialAction\":{\"@type\":\"SearchAction\",\"target\":\"https://forum.parkinsons.org.uk/search?q={search_term_string}\",\"query-input\":\"required name=search_term_string\"}}</script>\n<link rel=\"search\" type=\"application/opensearchdescription+xml\" href=\"https://forum.parkinsons.org.uk/opensearch.xml\" title=\"Parkinson&#39;s UK Forum Search\">\n\n      <link href=\"/stylesheets/desktop_f99246ae801b083d3e4cca979d0dade8615b39ac.css?__ws=forum.parkinsons.org.uk\" media=\"all\" rel=\"stylesheet\" data-target=\"desktop\" data-theme-id=\"12\"/>\n      <link href=\"/stylesheets/desktop_theme_12_5d27531cf43f9df0c03a6a6ec3109dd05f9dfc49.css?__ws=forum.parkinsons.org.uk\" media=\"all\" rel=\"stylesheet\" data-target=\"desktop_theme\" data-theme-id=\"12\"/>\n    <link href=\"https://fonts.googleapis.com/css?family=Open+Sans\" rel=\"stylesheet\">\n\n    <meta id=\"data-ga-universal-analytics\" data-tracking-code=\"UA-4855628-1\" data-json=\"{&quot;cookieDomain&quot;:&quot;auto&quot;}\" data-auto-link-domains=\"\">\n\n<link rel='preload' href='/assets/google-universal-analytics-f35b4da49411e6f5559073523aab983da483976a3954c79c756f8579f6fbd6ef.js' as='script'/>\n<script src='/assets/google-universal-analytics-f35b4da49411e6f5559073523aab983da483976a3954c79c756f8579f6fbd6ef.js'></script>\n\n      <link rel=\"alternate\" type=\"application/rss+xml\" title=\"RSS feed of &#39;Struggling&#39;\" href=\"https://forum.parkinsons.org.uk/t/struggling/17167.rss\" />\n  <meta property=\"og:site_name\" content=\"Parkinson&#39;s UK Forum\" />\n<meta name=\"twitter:card\" content=\"summary\" />\n<meta name=\"twitter:image\" content=\"https://forum.parkinsons.org.uk/uploads/db7928/original/2X/3/311fc84f89f49f38601a2f16b295b6f03d3ce5dd.jpg\" />\n<meta property=\"og:image\" content=\"https://forum.parkinsons.org.uk/uploads/db7928/original/2X/3/311fc84f89f49f38601a2f16b295b6f03d3ce5dd.jpg\" />\n<meta property=\"og:url\" content=\"https://forum.parkinsons.org.uk/t/struggling/17167?page=2\" />\n<meta name=\"twitter:url\" content=\"https://forum.parkinsons.org.uk/t/struggling/17167?page=2\" />\n<meta property=\"og:title\" content=\"Struggling\" />\n<meta name=\"twitter:title\" content=\"Struggling\" />\n<meta property=\"og:description\" content=\"Hey, I knew a fair bit of that but I learnt a lot, too, so that was very informative - cheers for that, Paul.  I recognise your tip about keeping hydration going - she does that one as well!\" />\n<meta name=\"twitter:description\" content=\"Hey, I knew a fair bit of that but I learnt a lot, too, so that was very informative - cheers for that, Paul.  I recognise your tip about keeping hydration going - she does that one as well!\" />\n<meta name=\"twitter:label1\" value=\"Reading time\" />\n<meta name=\"twitter:data1\" value=\"11 mins \uD83D\uDD51\" />\n<meta name=\"twitter:label2\" value=\"Likes\" />\n<meta name=\"twitter:data2\" value=\"20 ❤\" />\n<meta property=\"article:published_time\" content=\"2018-12-26T00:52:24+00:00\" />\n<meta property=\"og:ignore_canonical\" content=\"true\" />\n\n      <link rel=\"prev\" href=\"/t/struggling/17167\">\n      <link rel=\"next\" href=\"/t/struggling/17167?page=3\">\n\n\n    \n  </head>\n  <body class=\"crawler\">\n    <header role=\"banner\">\n    <div class=\"region region-header\">\n        <div class=\"region-header-wrapper\">\n            <div id=\"block-parkinsons-d8-branding\" class=\"block block-system block-system-branding-block\">\n                <a href=\"/\" title=\"Home\" rel=\"home\" class=\"site-logo\">\n                    <img src=\"https://forum.parkinsons.org.uk/uploads/db7928/original/2X/8/862bb7d172e7d127e7f3e147ec43594aa62ac945.png\" alt=\"Parkinson's UK. Change Attitudes. Find a cure. Join us.\">\n                </a>\n            </div>\n            <div id=\"block-helpline\" class=\"block block-block-content block-block-content871cd5af-b938-4947-9dc0-d5c211d08fe3 style-phone\">\n                <div class=\"field field--name-field-link field--type-link field--label-hidden field__item\"><a href=\"tel:+448088000303\">Helpline 0808 800 0303</a></div>\n            </div>\n            <div id=\"block-shop\" class=\"block block-block-content block-block-content6fba5ae5-7797-49cd-8367-f321d8111cd6 style-regular\">\n                <div class=\"field field--name-field-link field--type-link field--label-hidden field__item\"><a href=\"https://shop.parkinsons.org.uk\">Shop</a></div>\n            </div>\n        </div>\n    </div>\n</header>\n\n\n<script src=\"/theme-javascripts/b7e9763fcb584fc8265c56a9f557cd6d2e1e8ed8.js?__ws=forum.parkinsons.org.uk\"></script>\n    <header>\n      <a href=\"/\">\n          <img src=\"https://forum.parkinsons.org.uk/uploads/db7928/original/2X/8/862bb7d172e7d127e7f3e147ec43594aa62ac945.png\" alt=\"Parkinson&#39;s UK Forum\" id=\"site-logo\" style=\"max-width: 150px;\">\n      </a>\n    </header>\n    <div id=\"main-outlet\" class=\"wrap\">\n      <h1>\n  <a href=\"/t/struggling/17167\">Struggling</a>\n</h1>\n\n<div id='breadcrumbs'>\n    <div id=\"breadcrumb-0\" itemscope itemtype=\"http://data-vocabulary.org/Breadcrumb\"\n        itemref=\"breadcrumb-1\"\n      >\n      <a href=\"/c/living-with-parkinsons\" itemprop=\"url\">\n        <span itemprop=\"title\">Living with Parkinson&#39;s</span>\n      </a>\n    </div>\n    <div id=\"breadcrumb-1\" itemscope itemtype=\"http://data-vocabulary.org/Breadcrumb\"\n>\n      <a href=\"/c/living-with-parkinsons/carers-friends-and-family\" itemprop=\"url\">\n        <span itemprop=\"title\">Carers, friends and family</span>\n      </a>\n    </div>\n</div>\n\n\n\n\n\n<hr>\n\n\n  <div itemscope itemtype='http://schema.org/DiscussionForumPosting'>\n      <div class='creator'>\n        <span>\n          <a href='/u/lrpjons'><b itemprop='author'>lrpjons</b></a>\n          \n          <time datetime='2018-12-26T00:52:24Z' itemprop='datePublished'>\n            2018-12-26 00:52:24 UTC\n          </time>\n        </span>\n        <span itemprop='position'>#21</span>\n      </div>\n      <div class='post' itemprop='articleBody'>\n        <p>Hey, I knew a fair bit of that but I learnt a lot, too, so that was very informative - cheers for that, Paul.  I recognise your tip about keeping hydration going - she does that one as well!</p>\n      </div>\n      <meta itemprop='interactionCount' content='UserLikes:0'>\n      <meta itemprop='interactionCount' content='UserComments:0'>\n      <meta itemprop='headline' content='Struggling'>\n      <hr>\n  </div>\n  <div itemscope itemtype='http://schema.org/DiscussionForumPosting'>\n      <div class='creator'>\n        <span>\n          <a href='/u/Jan43'><b itemprop='author'>Jan43</b></a>\n          \n          <time datetime='2018-12-27T12:51:08Z' itemprop='datePublished'>\n            2018-12-27 12:51:08 UTC\n          </time>\n        </span>\n        <span itemprop='position'>#22</span>\n      </div>\n      <div class='post' itemprop='articleBody'>\n        <p>Yes, it’s really tough and you are right to ‘vent’ on sites like this which are wonderful.  People are so kind and empathetic.  My husband was in the same position as your partner for at least four years getting worse and worse and then, lo and behold, one doctor we saw realised that, although related to Parkinsons, B actually has PSP (Progressive Supra-Nuclear Palsy - see the PSPA website for more information).  Whilst it’s done nothing having this diagnosis, I at least understand more now what B is going through and have hooks on which to hang the things that are happening to him - just a very small lifeline.  There is no treatment and no cure for PSP sadly, although lots of on-going research but there are fora like this one, to communicate with others and learn as much as possible.  I have found that knowledge (however small) helps me to understand my husband’s condition better.  It might be worth asking about PSP when you see the consultant as, clearly, the medication for PD has done nothing for your loved one and this was the sure sign for B that it was something different from PD.  Yes, I know no-one has ever heard of it and, apparently, there are only about 4,000 diagnosed cases in the UK but people who know about PSP suggest that there are more than double that in undiagnosed cases. And do keep fighting - this is what we all seem to have to do, given that the NHS is so strapped for cash these days and immediate, recognisable medical situations always seem to take priority.  Keep brave and acknowledge that we can only all do our best, whether it feels good enough or not!  J</p>\n      </div>\n      <meta itemprop='interactionCount' content='UserLikes:1'>\n      <meta itemprop='interactionCount' content='UserComments:1'>\n      <meta itemprop='headline' content='Struggling'>\n      <hr>\n  </div>\n  <div itemscope itemtype='http://schema.org/DiscussionForumPosting'>\n      <div class='creator'>\n        <span>\n          <a href='/u/lrpjons'><b itemprop='author'>lrpjons</b></a>\n          \n          <time datetime='2018-12-28T14:30:03Z' itemprop='datePublished'>\n            2018-12-28 14:30:03 UTC\n          </time>\n        </span>\n        <span itemprop='position'>#23</span>\n      </div>\n      <div class='post' itemprop='articleBody'>\n        <p>Hi, Thanks for getting in touch.  That’s useful to know.  I could scream and shout trying to get an appointment (as soon as, preferably) and still I don’t think it could get anywhere with some of these gits who seem to have no empathy or sympathy with your plight.  From what I can see, her Parkinson’s is deteriorating and deteriorating rapidly, starting to impact and impinge in a massive way.  It’s not meant to decline quickly, but that doesn’t mean it can’t as it’s different for everybody, of course.  But I’m not the clinician and can’t prescribe meds, insist on therapies etc. so until any of this happens, and there’s a direction on whether this is all Parkinson’s or something else, what’s there to do apart from worry and feel tortured every blighted second?  (That’s how I feel deep down, regardless of how I try to calm myself and focus on doing what’s right etc…) Total nightmare.</p>\n      </div>\n      <meta itemprop='interactionCount' content='UserLikes:0'>\n      <meta itemprop='interactionCount' content='UserComments:0'>\n      <meta itemprop='headline' content='Struggling'>\n      <hr>\n  </div>\n  <div itemscope itemtype='http://schema.org/DiscussionForumPosting'>\n      <div class='creator'>\n        <span>\n          <a href='/u/marilyncookspain'><b itemprop='author'>marilyncookspain</b></a>\n          \n          <time datetime='2018-12-28T23:22:43Z' itemprop='datePublished'>\n            2018-12-28 23:22:43 UTC\n          </time>\n        </span>\n        <span itemprop='position'>#24</span>\n      </div>\n      <div class='post' itemprop='articleBody'>\n        <p>Hi. I live in Cornwall. My husband has PD but I suffer just as much if not more. Appointments are like hens teeth. Feel that we are just a number &amp; it’s a “take one more or drop back less” without even seeing him! Really? How can you medicate without seeing someone? Baffles me &amp; I feel frustrated &amp; angry. We just have to get on with it &amp; that ain’t easy. Rant over but I bet I’m not the only one that feels this way.</p>\n      </div>\n      <meta itemprop='interactionCount' content='UserLikes:0'>\n      <meta itemprop='interactionCount' content='UserComments:1'>\n      <meta itemprop='headline' content='Struggling'>\n      <hr>\n  </div>\n  <div itemscope itemtype='http://schema.org/DiscussionForumPosting'>\n      <div class='creator'>\n        <span>\n          <a href='/u/lrpjons'><b itemprop='author'>lrpjons</b></a>\n          \n          <time datetime='2018-12-29T15:33:38Z' itemprop='datePublished'>\n            2018-12-29 15:33:38 UTC\n          </time>\n        </span>\n        <span itemprop='position'>#25</span>\n      </div>\n      <div class='post' itemprop='articleBody'>\n        <p>Hi, I can only empathise and sympathise.  But I feel your pain and it’s what we’re enduring, too.  And medicating like that for someone with an incurable condition…words fail me.</p>\n      </div>\n      <meta itemprop='interactionCount' content='UserLikes:0'>\n      <meta itemprop='interactionCount' content='UserComments:0'>\n      <meta itemprop='headline' content='Struggling'>\n      <hr>\n  </div>\n  <div itemscope itemtype='http://schema.org/DiscussionForumPosting'>\n      <div class='creator'>\n        <span>\n          <a href='/u/juju'><b itemprop='author'>juju</b></a>\n          \n          <time datetime='2018-12-31T20:02:03Z' itemprop='datePublished'>\n            2018-12-31 20:02:03 UTC\n          </time>\n        </span>\n        <span itemprop='position'>#26</span>\n      </div>\n      <div class='post' itemprop='articleBody'>\n        <p>Hi I too have spent the last 3 months trying to get a review.  Only thing they could offer was a telephone  call in 3 weeks with the pd.nurse.  I have on average 2 hours sleep a night sometimes zero sleep.  My meds wear off and for 8 hours a day I m plunged into despair and suicidal thoughts. All in addition to the rigidity etc.  I have had no choice but to increase meds myself with my go supplying the extra after listening to me.  empathy compasion? I see none of it from the pd specialists.  Hope you are luckier than me.</p>\n      </div>\n      <meta itemprop='interactionCount' content='UserLikes:0'>\n      <meta itemprop='interactionCount' content='UserComments:2'>\n      <meta itemprop='headline' content='Struggling'>\n      <hr>\n  </div>\n  <div itemscope itemtype='http://schema.org/DiscussionForumPosting'>\n      <div class='creator'>\n        <span>\n          <a href='/u/Moderators2'><b itemprop='author'>Moderators2</b></a>\n          \n          <time datetime='2018-12-31T22:45:50Z' itemprop='datePublished'>\n            2018-12-31 22:45:50 UTC\n          </time>\n        </span>\n        <span itemprop='position'>#27</span>\n      </div>\n      <div class='post' itemprop='articleBody'>\n        <p>Hi juju,</p>\n<p>This does sound like a very difficult situation to be in and we’re sorry to hear you are going through this.<br>\nIf you are in need of urgent support you can contact your out of hours GP services, NHS emergency services on 111 and the Samaritans on 116 123.<br>\nYou can find information and support for sleep problems on our website <a href=\"https://www.parkinsons.org.uk/information-and-support/sleep\">here</a>. Please also feel free to call our helpline advisers on 0808 800 0303. Normal service will return on Wednesday 2nd January.<br>\nWe hope this helps.</p>\n<p>Best wishes,<br>\nEdwina<br>\nModeration Team</p>\n      </div>\n      <meta itemprop='interactionCount' content='UserLikes:0'>\n      <meta itemprop='interactionCount' content='UserComments:0'>\n      <meta itemprop='headline' content='Struggling'>\n      <hr>\n  </div>\n  <div itemscope itemtype='http://schema.org/DiscussionForumPosting'>\n      <div class='creator'>\n        <span>\n          <a href='/u/Tether'><b itemprop='author'>Tether</b></a>\n          \n          <time datetime='2019-01-01T12:03:56Z' itemprop='datePublished'>\n            2019-01-01 12:03:56 UTC\n          </time>\n        </span>\n        <span itemprop='position'>#28</span>\n      </div>\n      <div class='post' itemprop='articleBody'>\n        <p>You deserve all the respect in the world,  I was caring for my dad till about 9 months ago and I felt I couldn’t do no more. I was the only care giver to my dad, there was another sister but she decided it’s not for her. I got support from a local wellbeing service who sent a lady round to give practical and financial advice ie benefits. This give me a grant each year to get respite I think it was a budget grant of £250 from the local county council which I could use for a break or get home help. You are an amazing person by the sound of it, my dad is in a nursing home now where I have the energy back but it’s took a long period of 8 months to get it there.</p>\n      </div>\n      <meta itemprop='interactionCount' content='UserLikes:1'>\n      <meta itemprop='interactionCount' content='UserComments:2'>\n      <meta itemprop='headline' content='Struggling'>\n      <hr>\n  </div>\n  <div itemscope itemtype='http://schema.org/DiscussionForumPosting'>\n      <div class='creator'>\n        <span>\n          <a href='/u/T1'><b itemprop='author'>T1</b></a>\n          \n          <time datetime='2019-01-01T12:43:28Z' itemprop='datePublished'>\n            2019-01-01 12:43:28 UTC\n          </time>\n        </span>\n        <span itemprop='position'>#29</span>\n      </div>\n      <div class='post' itemprop='articleBody'>\n        <p>Hi Tether<br>\nYou too are an amazing human being as what you have achieved is incaluable .<br>\nYou stayed the distance my friend and probably don’t think about getting any respect but you have mine.</p>\n<p>Isn’t it always the way that the ones that do jack.<br>\nEnd up getting the pat’s on the back.<br>\nSuch is life eh?<br>\nHuge respect and make the most of your regained energy .<br>\nYou most certainly deserve it.<br>\nTommy <img src=\"https://forum.parkinsons.org.uk/images/emoji/twitter/pill.png?v=6\" title=\":pill:\" class=\"emoji\" alt=\":pill:\"><img src=\"https://forum.parkinsons.org.uk/images/emoji/twitter/pill.png?v=6\" title=\":pill:\" class=\"emoji\" alt=\":pill:\"><img src=\"https://forum.parkinsons.org.uk/images/emoji/twitter/pill.png?v=6\" title=\":pill:\" class=\"emoji\" alt=\":pill:\"></p>\n      </div>\n      <meta itemprop='interactionCount' content='UserLikes:1'>\n      <meta itemprop='interactionCount' content='UserComments:0'>\n      <meta itemprop='headline' content='Struggling'>\n      <hr>\n  </div>\n  <div itemscope itemtype='http://schema.org/DiscussionForumPosting'>\n      <div class='creator'>\n        <span>\n          <a href='/u/Tether'><b itemprop='author'>Tether</b></a>\n          \n          <time datetime='2019-01-01T13:37:13Z' itemprop='datePublished'>\n            2019-01-01 13:37:13 UTC\n          </time>\n        </span>\n        <span itemprop='position'>#30</span>\n      </div>\n      <div class='post' itemprop='articleBody'>\n        <p>Forums like these give people a connection with others in let’s call It the same boat. In life we never realise what is the next chapter,  i have had my episodes in life in hospital stays. Something takes over but if you can give someone who needs advice or just a lift it’s got to be worth it.</p>\n      </div>\n      <meta itemprop='interactionCount' content='UserLikes:1'>\n      <meta itemprop='interactionCount' content='UserComments:1'>\n      <meta itemprop='headline' content='Struggling'>\n      <hr>\n  </div>\n  <div itemscope itemtype='http://schema.org/DiscussionForumPosting'>\n      <div class='creator'>\n        <span>\n          <a href='/u/lrpjons'><b itemprop='author'>lrpjons</b></a>\n          \n          <time datetime='2019-01-04T00:22:57Z' itemprop='datePublished'>\n            2019-01-04 00:22:57 UTC\n          </time>\n        </span>\n        <span itemprop='position'>#31</span>\n      </div>\n      <div class='post' itemprop='articleBody'>\n        <p>So sorry to hear of your plight.  I can only imagine what that minimal sleep does to compound the issues for you.  I think I’m on the verge of an accident with what meagre amount I get regularly, but it doesn’t compare to that.  And offering a telephone appointment - how can a diagnosis for anything be made without a face-to-face assessment - after struggling for along must almost feel like rubbing salt in the wound.</p>\n      </div>\n      <meta itemprop='interactionCount' content='UserLikes:0'>\n      <meta itemprop='interactionCount' content='UserComments:0'>\n      <meta itemprop='headline' content='Struggling'>\n      <hr>\n  </div>\n  <div itemscope itemtype='http://schema.org/DiscussionForumPosting'>\n      <div class='creator'>\n        <span>\n          <a href='/u/lrpjons'><b itemprop='author'>lrpjons</b></a>\n          \n          <time datetime='2019-01-04T00:28:00Z' itemprop='datePublished'>\n            2019-01-04 00:28:00 UTC\n          </time>\n        </span>\n        <span itemprop='position'>#32</span>\n      </div>\n      <div class='post' itemprop='articleBody'>\n        <p>I don’t want to sound presumptuous or anything but it must have drained you of all energy and broken your heart and spirit just to get to that point of, well, no-return, if I can say, with you Dad. I just seem to learn new ways all the time of how debilitating this darn thing can be, for sufferers and carers.  Horrible.</p>\n      </div>\n      <meta itemprop='interactionCount' content='UserLikes:0'>\n      <meta itemprop='interactionCount' content='UserComments:0'>\n      <meta itemprop='headline' content='Struggling'>\n      <hr>\n  </div>\n  <div itemscope itemtype='http://schema.org/DiscussionForumPosting'>\n      <div class='creator'>\n        <span>\n          <a href='/u/lrpjons'><b itemprop='author'>lrpjons</b></a>\n          \n          <time datetime='2019-01-04T00:29:21Z' itemprop='datePublished'>\n            2019-01-04 00:29:21 UTC\n          </time>\n        </span>\n        <span itemprop='position'>#33</span>\n      </div>\n      <div class='post' itemprop='articleBody'>\n        <p>Yeah, when they’re in a place you’ve been, feeling lost and down that helps.  And thank you for doing that with me.</p>\n      </div>\n      <meta itemprop='interactionCount' content='UserLikes:0'>\n      <meta itemprop='interactionCount' content='UserComments:0'>\n      <meta itemprop='headline' content='Struggling'>\n      <hr>\n  </div>\n  <div itemscope itemtype='http://schema.org/DiscussionForumPosting'>\n      <div class='creator'>\n        <span>\n          <a href='/u/Marie11'><b itemprop='author'>Marie11</b></a>\n          \n          <time datetime='2019-02-19T22:12:46Z' itemprop='datePublished'>\n            2019-02-19 22:12:46 UTC\n          </time>\n        </span>\n        <span itemprop='position'>#34</span>\n      </div>\n      <div class='post' itemprop='articleBody'>\n        <p>Hi anyone my father is suffering with pd he does not sleep at night me and especially  my mother are sleep deprived he is on medication to try and help him sleep but to no avil has anybody any ideas</p>\n      </div>\n      <meta itemprop='interactionCount' content='UserLikes:0'>\n      <meta itemprop='interactionCount' content='UserComments:0'>\n      <meta itemprop='headline' content='Struggling'>\n      <hr>\n  </div>\n  <div itemscope itemtype='http://schema.org/DiscussionForumPosting'>\n      <div class='creator'>\n        <span>\n          <a href='/u/Reah'><b itemprop='author'>Reah</b></a>\n          \n          <time datetime='2019-02-20T15:41:23Z' itemprop='datePublished'>\n            2019-02-20 15:41:23 UTC\n          </time>\n        </span>\n        <span itemprop='position'>#35</span>\n      </div>\n      <div class='post' itemprop='articleBody'>\n        <p>Hi <a class=\"mention\" href=\"/u/marie11\">@Marie11</a>,</p>\n<p>A warm welcome to the forum.</p>\n<p>Unfortunately, sleep and night problems are common problems in Parkinson’s. They can affect people at any stage of the condition which explains why your dad has been experiencing this problem. However, there are treatments and medication available to him that can help with this.</p>\n<p>We have information on this including tips for sleeping better with Parkinson’s and tips for carers too on our website here - <a href=\"https://www.parkinsons.org.uk/information-and-support/sleep\" rel=\"nofollow noopener\">https://www.parkinsons.org.uk/information-and-support/sleep</a>.</p>\n<p>If you need additional support on this, please feel free to give our confidential helpline a call on 0808 800 0303 from Monday-Friday: 9am-7pm, Saturday: 10am-2pm, or you can email <a href=\"/cdn-cgi/l/email-protection#85ede0e9e9eac5f5e4f7eeecebf6eaebf6abeaf7e2abf0ee\"><span class=\"__cf_email__\" data-cfemail=\"bdd5d8d1d1d2fdcddccfd6d4d3ced2d3ce93d2cfda93c8d6\">[email&#160;protected]</span></a>.</p>\n<p>I hope this helps.</p>\n<p>Best wishes,<br>\nReah<br>\nForum Community Manager</p>\n      </div>\n      <meta itemprop='interactionCount' content='UserLikes:0'>\n      <meta itemprop='interactionCount' content='UserComments:0'>\n      <meta itemprop='headline' content='Struggling'>\n      <hr>\n  </div>\n  <div itemscope itemtype='http://schema.org/DiscussionForumPosting'>\n      <div class='creator'>\n        <span>\n          <a href='/u/Justthisguy'><b itemprop='author'>Justthisguy</b></a>\n          \n          <time datetime='2019-02-20T15:54:50Z' itemprop='datePublished'>\n            2019-02-20 15:54:50 UTC\n          </time>\n        </span>\n        <span itemprop='position'>#36</span>\n      </div>\n      <div class='post' itemprop='articleBody'>\n        <p>I find breathing exercises (The Buteyko Method ) helps. I get up and use a spreadsheet to record my performance - all the while using a fan to cool myself    <a href=\"https://www.google.com/search?q=The+Buteyko+Method&amp;rlz=1C1DSGP_enGB648GB649&amp;oq=The+Buteyko+Method&amp;aqs=chrome..69i57j69i64&amp;sourceid=chrome&amp;ie=UTF-8\" rel=\"nofollow noopener\">https://www.google.com/search?q=The+Buteyko+Method&amp;rlz=1C1DSGP_enGB648GB649&amp;oq=The+Buteyko+Method&amp;aqs=chrome..69i57j69i64&amp;sourceid=chrome&amp;ie=UTF-8</a></p>\n      </div>\n      <meta itemprop='interactionCount' content='UserLikes:0'>\n      <meta itemprop='interactionCount' content='UserComments:0'>\n      <meta itemprop='headline' content='Struggling'>\n      <hr>\n  </div>\n  <div itemscope itemtype='http://schema.org/DiscussionForumPosting'>\n      <div class='creator'>\n        <span>\n          <a href='/u/lrpjons'><b itemprop='author'>lrpjons</b></a>\n          \n          <time datetime='2019-02-28T21:38:52Z' itemprop='datePublished'>\n            2019-02-28 21:38:52 UTC\n          </time>\n        </span>\n        <span itemprop='position'>#37</span>\n      </div>\n      <div class='post' itemprop='articleBody'>\n        <p>Crikey, does anyone else on here feel really, really tired the more levodopa they take during the day?  My other half’s terrible for it. From the early evening she can barely keep her eyes open, but is just really drowsy and groggy, eyes shut and lethargic without actually falling asleep.  It’s causing some squabbles, bad i know but it just limits what we can do as she’s really drowsy without sleeping. And it gets worse when there’s a virus or infection of course and that can make the Parky worse.</p>\n<p>But is this normal and do any of you guys have this or something similar?</p>\n      </div>\n      <meta itemprop='interactionCount' content='UserLikes:0'>\n      <meta itemprop='interactionCount' content='UserComments:1'>\n      <meta itemprop='headline' content='Struggling'>\n      <hr>\n  </div>\n  <div itemscope itemtype='http://schema.org/DiscussionForumPosting'>\n      <div class='creator'>\n        <span>\n          <a href='/u/Justthisguy'><b itemprop='author'>Justthisguy</b></a>\n          \n          <time datetime='2019-03-06T23:31:10Z' itemprop='datePublished'>\n            2019-03-06 23:31:10 UTC\n          </time>\n        </span>\n        <span itemprop='position'>#38</span>\n      </div>\n      <div class='post' itemprop='articleBody'>\n        <p>Yes I take levodopa and I get drowsy. I was warned by a nurse that when I get drowsy I should not ‘fight it’. Therefore I take a nap ASAP.</p>\n      </div>\n      <meta itemprop='interactionCount' content='UserLikes:1'>\n      <meta itemprop='interactionCount' content='UserComments:0'>\n      <meta itemprop='headline' content='Struggling'>\n      <hr>\n  </div>\n  <div itemscope itemtype='http://schema.org/DiscussionForumPosting'>\n      <div class='creator'>\n        <span>\n          <a href='/u/ann1'><b itemprop='author'>ann1</b></a>\n          \n          <time datetime='2019-03-14T09:37:43Z' itemprop='datePublished'>\n            2019-03-14 09:37:43 UTC\n          </time>\n        </span>\n        <span itemprop='position'>#39</span>\n      </div>\n      <div class='post' itemprop='articleBody'>\n        <p>everyone seems to feel for the Parkinson’s sufferer  i feel so selfish my husband s newly diagnosed and all i can can think is my life is over wished i could be more positive</p>\n      </div>\n      <meta itemprop='interactionCount' content='UserLikes:1'>\n      <meta itemprop='interactionCount' content='UserComments:2'>\n      <meta itemprop='headline' content='Struggling'>\n      <hr>\n  </div>\n  <div itemscope itemtype='http://schema.org/DiscussionForumPosting'>\n      <div class='creator'>\n        <span>\n          <a href='/u/T1'><b itemprop='author'>T1</b></a>\n          \n          <time datetime='2019-03-14T10:41:15Z' itemprop='datePublished'>\n            2019-03-14 10:41:15 UTC\n          </time>\n        </span>\n        <span itemprop='position'>#40</span>\n      </div>\n      <div class='post' itemprop='articleBody'>\n        <p>Hi ann1<br>\nFirstly you are most definitely not selfish.<br>\nYou are just as much s victim of this horrible condition.<br>\nHowever the helpline is there for you as well as your husband.</p>\n<p>You have already made a good start by being open on this forum and I’m sure many people in your position Will be in touch.</p>\n<p>Nothing is over until it’s over<br>\nAnd I assure you it’s not all doom and gloom .</p>\n<p>With good advice you will learn to cope so talk to your husband’s pd nurse and your own GP to get the help that YOU need .<br>\nAnd very soon you will be able to play with the hand that fate has dealt you both.</p>\n<p>NEVER feel guilty about any thoughts or actions you take and live your Life the way you can feel comfortable<br>\nThat’s not selfish it’s just what we all deserve.<br>\nI wish you both a content conclusion</p>\n<p>Tommy <img src=\"https://forum.parkinsons.org.uk/images/emoji/twitter/pill.png?v=6\" title=\":pill:\" class=\"emoji\" alt=\":pill:\"><img src=\"https://forum.parkinsons.org.uk/images/emoji/twitter/pill.png?v=6\" title=\":pill:\" class=\"emoji\" alt=\":pill:\"><img src=\"https://forum.parkinsons.org.uk/images/emoji/twitter/pill.png?v=6\" title=\":pill:\" class=\"emoji\" alt=\":pill:\"></p>\n      </div>\n      <meta itemprop='interactionCount' content='UserLikes:0'>\n      <meta itemprop='interactionCount' content='UserComments:1'>\n      <meta itemprop='headline' content='Struggling'>\n      <hr>\n  </div>\n\n  <div role='navigation' itemscope itemtype='http://schema.org/SiteNavigationElement'>\n      <span itemprop='name'><a rel=\"prev\" itemprop=\"url\" href=\"/t/struggling/17167\">← previous page</a></span>\n      <span itemprop='name'><b><a rel=\"next\" itemprop=\"url\" href=\"/t/struggling/17167?page=3\">next page →</a></b></span>\n  </div>\n\n\n\n\n\n    </div>\n    <footer class=\"container\">\n      <nav class='crawler-nav' itemscope itemtype='http://schema.org/SiteNavigationElement'>\n        <a href='/'>Home</a>\n        <a href=\"/categories\">Categories</a>\n        <a href=\"/guidelines\">FAQ/Guidelines</a>\n        <a href=\"/tos\">Terms of Service</a>\n        <a href=\"/privacy\">Privacy Policy</a>\n      </nav>\n      <p class='powered-by-link'>Powered by <a href=\"https://www.discourse.org\">Discourse</a>, best viewed with JavaScript enabled</p>\n    </footer>\n    \n  <script data-cfasync=\"false\" src=\"/cdn-cgi/scripts/5c5dd728/cloudflare-static/email-decode.min.js\"></script></body>\n  \n</html>\n",
  "url": "https://forum.parkinsons.org.uk/t/struggling/17167?page=2"
}