{
  "contentId": "c8f73dd0-886d-11e9-8f96-97f71b5221d6",
  "html": "<!DOCTYPE html>\n<html lang=\"en\">\n  <head>\n    <meta charset=\"utf-8\">\n    <title>Mark M &amp; PD - Introductions and personal stories - Parkinson&#39;s UK Forum</title>\n    <meta name=\"description\" content=\"Hi there, I have not long left hospital after a 3 week stay and a DAT scan has shown an abnormality in the left side of my brain, together with this and current symptoms my consultant has started a Parkinson’s treatment.&amp;hellip;\">\n    <meta name=\"author\" content=\"\">\n<meta name=\"generator\" content=\"Discourse 2.2.5 - https://github.com/discourse/discourse version c294ff3609f988dcafb742e91606d60ca13b794d\">\n<link rel=\"icon\" type=\"image/png\" href=\"https://forum.parkinsons.org.uk/uploads/db7928/original/2X/3/311fc84f89f49f38601a2f16b295b6f03d3ce5dd.jpg\">\n<link rel=\"apple-touch-icon\" type=\"image/png\" href=\"https://forum.parkinsons.org.uk/uploads/db7928/original/2X/3/311fc84f89f49f38601a2f16b295b6f03d3ce5dd.jpg\">\n<meta name=\"theme-color\" content=\"#ffffff\">\n<meta name=\"viewport\" content=\"width=device-width, minimum-scale=1.0, maximum-scale=1.0, user-scalable=yes\">\n<link rel=\"canonical\" href=\"https://forum.parkinsons.org.uk/t/mark-m-pd/17342\" />\n<script type=\"application/ld+json\">{\"@context\":\"http://schema.org\",\"@type\":\"WebSite\",\"url\":\"https://forum.parkinsons.org.uk\",\"potentialAction\":{\"@type\":\"SearchAction\",\"target\":\"https://forum.parkinsons.org.uk/search?q={search_term_string}\",\"query-input\":\"required name=search_term_string\"}}</script>\n<link rel=\"search\" type=\"application/opensearchdescription+xml\" href=\"https://forum.parkinsons.org.uk/opensearch.xml\" title=\"Parkinson&#39;s UK Forum Search\">\n\n      <link href=\"/stylesheets/desktop_f99246ae801b083d3e4cca979d0dade8615b39ac.css?__ws=forum.parkinsons.org.uk\" media=\"all\" rel=\"stylesheet\" data-target=\"desktop\" data-theme-id=\"12\"/>\n      <link href=\"/stylesheets/desktop_theme_12_5d27531cf43f9df0c03a6a6ec3109dd05f9dfc49.css?__ws=forum.parkinsons.org.uk\" media=\"all\" rel=\"stylesheet\" data-target=\"desktop_theme\" data-theme-id=\"12\"/>\n    <link href=\"https://fonts.googleapis.com/css?family=Open+Sans\" rel=\"stylesheet\">\n\n    <meta id=\"data-ga-universal-analytics\" data-tracking-code=\"UA-4855628-1\" data-json=\"{&quot;cookieDomain&quot;:&quot;auto&quot;}\" data-auto-link-domains=\"\">\n\n<link rel='preload' href='/assets/google-universal-analytics-f35b4da49411e6f5559073523aab983da483976a3954c79c756f8579f6fbd6ef.js' as='script'/>\n<script src='/assets/google-universal-analytics-f35b4da49411e6f5559073523aab983da483976a3954c79c756f8579f6fbd6ef.js'></script>\n\n      <link rel=\"alternate\" type=\"application/rss+xml\" title=\"RSS feed of &#39;Mark M &amp; PD&#39;\" href=\"https://forum.parkinsons.org.uk/t/mark-m-pd/17342.rss\" />\n  <meta property=\"og:site_name\" content=\"Parkinson&#39;s UK Forum\" />\n<meta name=\"twitter:card\" content=\"summary\" />\n<meta name=\"twitter:image\" content=\"https://forum.parkinsons.org.uk/uploads/db7928/original/2X/3/311fc84f89f49f38601a2f16b295b6f03d3ce5dd.jpg\" />\n<meta property=\"og:image\" content=\"https://forum.parkinsons.org.uk/uploads/db7928/original/2X/3/311fc84f89f49f38601a2f16b295b6f03d3ce5dd.jpg\" />\n<meta property=\"og:url\" content=\"https://forum.parkinsons.org.uk/t/mark-m-pd/17342\" />\n<meta name=\"twitter:url\" content=\"https://forum.parkinsons.org.uk/t/mark-m-pd/17342\" />\n<meta property=\"og:title\" content=\"Mark M &amp; PD\" />\n<meta name=\"twitter:title\" content=\"Mark M &amp; PD\" />\n<meta property=\"og:description\" content=\"Hi there, I have not long left hospital after a 3 week stay and a DAT scan has shown an abnormality in the left side of my brain, together with this and current symptoms my consultant has started a Parkinson’s treatment. I am also dealing with peripheral neuropathy which is likely to be caused by sarcoidosis in my left lung. A bit of a diagnosis out of the blue!. I am 46 years old and a bit frightened of what the future brings.  I have started an anti sickness drug today for 2 days then start on...\" />\n<meta name=\"twitter:description\" content=\"Hi there, I have not long left hospital after a 3 week stay and a DAT scan has shown an abnormality in the left side of my brain, together with this and current symptoms my consultant has started a Parkinson’s treatment. I am also dealing with peripheral neuropathy which is likely to be caused by sarcoidosis in my left lung. A bit of a diagnosis out of the blue!. I am 46 years old and a bit frightened of what the future brings.  I have started an anti sickness drug today for 2 days then start on...\" />\n<meta name=\"twitter:label1\" value=\"Reading time\" />\n<meta name=\"twitter:data1\" value=\"3 mins \uD83D\uDD51\" />\n<meta name=\"twitter:label2\" value=\"Likes\" />\n<meta name=\"twitter:data2\" value=\"7 ❤\" />\n<meta property=\"article:published_time\" content=\"2019-01-04T15:10:55+00:00\" />\n<meta property=\"og:ignore_canonical\" content=\"true\" />\n\n\n\n    \n  </head>\n  <body class=\"crawler\">\n    <header role=\"banner\">\n    <div class=\"region region-header\">\n        <div class=\"region-header-wrapper\">\n            <div id=\"block-parkinsons-d8-branding\" class=\"block block-system block-system-branding-block\">\n                <a href=\"/\" title=\"Home\" rel=\"home\" class=\"site-logo\">\n                    <img src=\"https://forum.parkinsons.org.uk/uploads/db7928/original/2X/8/862bb7d172e7d127e7f3e147ec43594aa62ac945.png\" alt=\"Parkinson's UK. Change Attitudes. Find a cure. Join us.\">\n                </a>\n            </div>\n            <div id=\"block-helpline\" class=\"block block-block-content block-block-content871cd5af-b938-4947-9dc0-d5c211d08fe3 style-phone\">\n                <div class=\"field field--name-field-link field--type-link field--label-hidden field__item\"><a href=\"tel:+448088000303\">Helpline 0808 800 0303</a></div>\n            </div>\n            <div id=\"block-shop\" class=\"block block-block-content block-block-content6fba5ae5-7797-49cd-8367-f321d8111cd6 style-regular\">\n                <div class=\"field field--name-field-link field--type-link field--label-hidden field__item\"><a href=\"https://shop.parkinsons.org.uk\">Shop</a></div>\n            </div>\n        </div>\n    </div>\n</header>\n\n\n<script src=\"/theme-javascripts/b7e9763fcb584fc8265c56a9f557cd6d2e1e8ed8.js?__ws=forum.parkinsons.org.uk\"></script>\n    <header>\n      <a href=\"/\">\n          <img src=\"https://forum.parkinsons.org.uk/uploads/db7928/original/2X/8/862bb7d172e7d127e7f3e147ec43594aa62ac945.png\" alt=\"Parkinson&#39;s UK Forum\" id=\"site-logo\" style=\"max-width: 150px;\">\n      </a>\n    </header>\n    <div id=\"main-outlet\" class=\"wrap\">\n      <h1>\n  <a href=\"/t/mark-m-pd/17342\">Mark M &amp; PD</a>\n</h1>\n\n<div id='breadcrumbs'>\n    <div id=\"breadcrumb-0\" itemscope itemtype=\"http://data-vocabulary.org/Breadcrumb\"\n        itemref=\"breadcrumb-1\"\n      >\n      <a href=\"/c/about-me\" itemprop=\"url\">\n        <span itemprop=\"title\">About me</span>\n      </a>\n    </div>\n    <div id=\"breadcrumb-1\" itemscope itemtype=\"http://data-vocabulary.org/Breadcrumb\"\n>\n      <a href=\"/c/about-me/introductions-and-personal-stories\" itemprop=\"url\">\n        <span itemprop=\"title\">Introductions and personal stories</span>\n      </a>\n    </div>\n</div>\n\n\n\n\n\n<hr>\n\n\n  <div itemscope itemtype='http://schema.org/DiscussionForumPosting'>\n      <div class='creator'>\n        <span>\n          <a href='/u/Mark'><b itemprop='author'>Mark</b></a>\n          \n          <time datetime='2019-01-04T15:10:55Z' itemprop='datePublished'>\n            2019-01-04 15:10:55 UTC\n          </time>\n        </span>\n        <span itemprop='position'>#1</span>\n      </div>\n      <div class='post' itemprop='articleBody'>\n        <p>Hi there, I have not long left hospital after a 3 week stay and a DAT scan has shown an abnormality in the left side of my brain, together with this and current symptoms my consultant has started a Parkinson’s treatment. I am also dealing with peripheral neuropathy which is likely to be caused by sarcoidosis in my left lung. A bit of a diagnosis out of the blue!. I am 46 years old and a bit frightened of what the future brings.<br>\nI have started an anti sickness drug today for 2 days then start on Siminet thereafter building up to 6 pills a day.<br>\nAny advice would be greatly appreciated.<br>\nThanks Mark</p>\n      </div>\n      <meta itemprop='interactionCount' content='UserLikes:0'>\n      <meta itemprop='interactionCount' content='UserComments:0'>\n      <meta itemprop='headline' content='Mark M &amp; PD'>\n      <hr>\n  </div>\n  <div itemscope itemtype='http://schema.org/DiscussionForumPosting'>\n      <div class='creator'>\n        <span>\n          <a href='/u/Tot'><b itemprop='author'>Tot</b></a>\n          \n          <time datetime='2019-01-04T19:57:12Z' itemprop='datePublished'>\n            2019-01-04 19:57:12 UTC\n          </time>\n        </span>\n        <span itemprop='position'>#2</span>\n      </div>\n      <div class='post' itemprop='articleBody'>\n        <p>Hello there, you will very quickly learn that PD is a very individual condition but there is an awful lot of common ground too and the forum is an excellent place for information and advice on all manner of things as well as unconditional support - which is a very long winded way of saying you are neither alone nor on your own.  If I might throw in my tuppence worth, even with the anti nausea drugs, I still felt pretty rubbish for the first couple of weeks but the body does adjust surprisingly quickly. You won’t necessarily feel as I did, but if you do take heart it does pass.  As to the future, if you can I would suggest that is not the most pressing concern just now.  You need to give yourself some time to get used to your diagnosis  your changed  routines etc and to seek the information you need just now to cope with your immediate reactions.  You will find, as we all do in our own way, a means of living with it that can be every bit as fulfilling as went before, it will just be different.  I can’t deny it is not challenging at times but if you can have a positive attitude at least most of the time, it really does help. Don’t try to do everything at once, slow and steady is the key as you become ready to ask more questions or whatever and be in a position to manage the answers.  I’m waffling but hope you can get the gist of what I am trying to say. Do let us know how you are getting on</p>\n      </div>\n      <meta itemprop='interactionCount' content='UserLikes:1'>\n      <meta itemprop='interactionCount' content='UserComments:1'>\n      <meta itemprop='headline' content='Mark M &amp; PD'>\n      <hr>\n  </div>\n  <div itemscope itemtype='http://schema.org/DiscussionForumPosting'>\n      <div class='creator'>\n        <span>\n          <a href='/u/Mark'><b itemprop='author'>Mark</b></a>\n          \n          <time datetime='2019-01-04T23:31:03Z' itemprop='datePublished'>\n            2019-01-04 23:31:03 UTC\n          </time>\n        </span>\n        <span itemprop='position'>#3</span>\n      </div>\n      <div class='post' itemprop='articleBody'>\n        <p>Thanks so much for responding to me as I wasn’t really sure what I was doing. I am really worried that the seminet won’t help me enough to return to almost normal and I can’t continue my normal job. Tbh I am really worried about the affects on my wife and family and our home etc.<br>\nSorry a bit of a panic just now.<br>\nThanks<br>\nMark</p>\n      </div>\n      <meta itemprop='interactionCount' content='UserLikes:0'>\n      <meta itemprop='interactionCount' content='UserComments:0'>\n      <meta itemprop='headline' content='Mark M &amp; PD'>\n      <hr>\n  </div>\n  <div itemscope itemtype='http://schema.org/DiscussionForumPosting'>\n      <div class='creator'>\n        <span>\n          <a href='/u/Tot'><b itemprop='author'>Tot</b></a>\n          \n          <time datetime='2019-01-05T00:21:39Z' itemprop='datePublished'>\n            2019-01-05 00:21:39 UTC\n          </time>\n        </span>\n        <span itemprop='position'>#4</span>\n      </div>\n      <div class='post' itemprop='articleBody'>\n        <p>For what it’s worth it seems to me you are having a perfectly normal reaction and it has clearly knocked you for six.  In fact there are no right or wrong ways to react to these sorts of things, so the first thing to say is that what you are feeling now is normal for you. So you are not going mad or anything like that and the bottom line is you are worried and scared as far as I can tell (and don’t be afraid to say I am way off the mark because there is a lot of reading between the lines here) about two things.<br>\nFirst your job.  As you write about returning to ‘almost normal’  and continuing your ‘normal job’ it would seem to follow that you have been having some issues, even if you haven’t discussed it with anyone at work.  If I might suggest I think it worth getting some info so you know where you stand this is a good starting point</p>\n<p><a href=\"https://www.parkinsons.org.uk/information-and-support/work-and-parkinsons\" class=\"onebox\" target=\"_blank\" rel=\"nofollow noopener\">https://www.parkinsons.org.uk/information-and-support/work-and-parkinsons</a></p>\n<p>You will need to decide when and what to say.  Personally I decided to be upfront from the beginning which worked for me, there was no second guessing and I could get the help and support I needed. It might not be right for you as with everything there is no right or wrong way only your way but always best if made as an informed decision, for that you need information.<br>\nAs for your personal life, I can’t tell you it won’t change things because it will but what don’t assume it will all be awful.  Truth is at the moment neither you nor your wife nor anyone else can say what the impact will be.  What I will say is I believe you have to go one step at a time, especially in these early stages and keep the lines of communication open as best you can.  I know you will probably find this hard to believe but you will find a way to live with PD  we all do.  Not always easy, often a challenge and not a path any of us would have chosen but neither is it all bad, you can have a life worth living and you will find laughing can often equal the crying.  It is early days for you, don’t let your mind run riot,  take each day as it comes and you will slowly find your way.  It may not feel like it now but you will find your way.  You may also want to speak to the Helpline, I haven’t used it myself but it would be a neutral but informed option to help get yourself a bit clearer on the way forward for you. . The Parkinson’s UK helpline  <strong>0808 800</strong>0303<br>\nIt is 9 years since my diagnosis, still here and with a life worth living, so take heart, take a deep breath and go with the flow, get what info you need now, ask questions and go at your pace.  You can and will start to find your way once the initial dust has settled a bit,  Hope this helps a bit, wish I could do more.</p>\n      </div>\n      <meta itemprop='interactionCount' content='UserLikes:3'>\n      <meta itemprop='interactionCount' content='UserComments:1'>\n      <meta itemprop='headline' content='Mark M &amp; PD'>\n      <hr>\n  </div>\n  <div itemscope itemtype='http://schema.org/DiscussionForumPosting'>\n      <div class='creator'>\n        <span>\n          <a href='/u/Mark'><b itemprop='author'>Mark</b></a>\n          \n          <time datetime='2019-01-05T09:39:20Z' itemprop='datePublished'>\n            2019-01-05 09:39:20 UTC\n          </time>\n        </span>\n        <span itemprop='position'>#5</span>\n      </div>\n      <div class='post' itemprop='articleBody'>\n        <p>Thank you very much for your reply. I will take your advice on board. I am very lucky to have an extremely understanding wife and a strong network of friends to help me out. Instead of racing ahead into the future I’ll step back and look at things how they are today and deal with the current condition. One step at a time. Thanks again . Mark. Take care!</p>\n      </div>\n      <meta itemprop='interactionCount' content='UserLikes:1'>\n      <meta itemprop='interactionCount' content='UserComments:0'>\n      <meta itemprop='headline' content='Mark M &amp; PD'>\n      <hr>\n  </div>\n  <div itemscope itemtype='http://schema.org/DiscussionForumPosting'>\n      <div class='creator'>\n        <span>\n          <a href='/u/Tot'><b itemprop='author'>Tot</b></a>\n          \n          <time datetime='2019-01-05T17:18:52Z' itemprop='datePublished'>\n            2019-01-05 17:18:52 UTC\n          </time>\n        </span>\n        <span itemprop='position'>#6</span>\n      </div>\n      <div class='post' itemprop='articleBody'>\n        <p>You are most welcome but don’t be thinking it’s a one way street, it’s  nice to feel useful and if it has helped even just a little that’s a bonus.</p>\n      </div>\n      <meta itemprop='interactionCount' content='UserLikes:0'>\n      <meta itemprop='interactionCount' content='UserComments:1'>\n      <meta itemprop='headline' content='Mark M &amp; PD'>\n      <hr>\n  </div>\n  <div itemscope itemtype='http://schema.org/DiscussionForumPosting'>\n      <div class='creator'>\n        <span>\n          <a href='/u/Mark'><b itemprop='author'>Mark</b></a>\n          \n          <time datetime='2019-02-07T22:53:43Z' itemprop='datePublished'>\n            2019-02-07 22:53:43 UTC\n          </time>\n        </span>\n        <span itemprop='position'>#7</span>\n      </div>\n      <div class='post' itemprop='articleBody'>\n        <p>Hiya,<br>\nI am now back working albeit a struggle. I missed 2 doses of Simminet. I felt terrible and really set back with tremors and tiredness stiffness etc, Is it likely that only the omission of 2 doses can make me feel this poorly?<br>\nMark</p>\n      </div>\n      <meta itemprop='interactionCount' content='UserLikes:0'>\n      <meta itemprop='interactionCount' content='UserComments:1'>\n      <meta itemprop='headline' content='Mark M &amp; PD'>\n      <hr>\n  </div>\n  <div itemscope itemtype='http://schema.org/DiscussionForumPosting'>\n      <div class='creator'>\n        <span>\n          <a href='/u/WORRIEDWIFE'><b itemprop='author'>WORRIEDWIFE</b></a>\n          \n          <time datetime='2019-02-08T12:04:31Z' itemprop='datePublished'>\n            2019-02-08 12:04:31 UTC\n          </time>\n        </span>\n        <span itemprop='position'>#8</span>\n      </div>\n      <div class='post' itemprop='articleBody'>\n        <p>Hey Mark<br>\nI’ve just been reading this thread and wanted to add a couple of comments myself.  I’m not sure how useful they’ll be but I really feel the need to mention them to you.<br>\nMy hubby was diagnosed in Feb '18.  It’ll be one year this Sunday.<br>\nIt was a big shock and we found it difficult to cope with.<br>\nI did lots of research and found him a Specialist Neuro Personal Trainer and this has made a HUGE difference in terms of Strength, Balance, Posture, Co-ordination and Mood   He is now stronger and fitter than he’s been in years.  I can’t praise this Personal Trainer enough.  He understands the condition from a professional perspective but also from a personal perspective (he also has PD).  Lots of banter between them both in the sessions have been as beneficial as the exercise.<br>\nThe other point I’d like to raise is that talking can be extremely helpful in coming to terms with it and my biggest regret is that we didn’t get talking therapy sooner.  I’m not suggesting that everyone will need it but I would definitely consider it (and even possibly for your wife).</p>\n      </div>\n      <meta itemprop='interactionCount' content='UserLikes:0'>\n      <meta itemprop='interactionCount' content='UserComments:1'>\n      <meta itemprop='headline' content='Mark M &amp; PD'>\n      <hr>\n  </div>\n  <div itemscope itemtype='http://schema.org/DiscussionForumPosting'>\n      <div class='creator'>\n        <span>\n          <a href='/u/Mark'><b itemprop='author'>Mark</b></a>\n          \n          <time datetime='2019-02-09T00:46:10Z' itemprop='datePublished'>\n            2019-02-09 00:46:10 UTC\n          </time>\n        </span>\n        <span itemprop='position'>#9</span>\n      </div>\n      <div class='post' itemprop='articleBody'>\n        <p>Hi there and thanks for your reply.<br>\nI feel really positive through the strength given through my wife , family and great friends, I feel I am very lucky to have these guys,<br>\nHave decided to sell the house and move to a smaller cheaper home and also take a lower pressure carreeer to try and take pressure off ourselves on a monthly basis.<br>\nThis together with the ongoing support is indeed a bright future for me and my family.<br>\nSymptoms a struggle but family values a great medication<br>\nMark</p>\n      </div>\n      <meta itemprop='interactionCount' content='UserLikes:1'>\n      <meta itemprop='interactionCount' content='UserComments:1'>\n      <meta itemprop='headline' content='Mark M &amp; PD'>\n      <hr>\n  </div>\n  <div itemscope itemtype='http://schema.org/DiscussionForumPosting'>\n      <div class='creator'>\n        <span>\n          <a href='/u/Tot'><b itemprop='author'>Tot</b></a>\n          \n          <time datetime='2019-02-09T07:45:54Z' itemprop='datePublished'>\n            2019-02-09 07:45:54 UTC\n          </time>\n        </span>\n        <span itemprop='position'>#10</span>\n      </div>\n      <div class='post' itemprop='articleBody'>\n        <p>Hello, thought I’d  throw my tuppence worth in again. First saw your posts re meds.  I think it is always worth checking out any issues with medication with either your consultant, specialist nurse (if you have one) or GP - personally I would go to the specialist. if possible.  Meds are good by and large but are a balancing act and even different brands may impact differently it could be that the timing and/or missed dose made you feel so rough.  In the early days when getting used to taking meds (pre PD my medicine cabinet consisted of little more than plasters and unopened pack of paracetemol) I quickly found that I had a bit of leeway with timing for eg so it is important that you understand their impact, use etc.   You will become expert at knowing what works for you, meds are changing sands and you become very aware but in the early days it is not always easy to know.<br>\nSecond was good to read your recent post, sounding more positive and in control having made some tough decisions with your wife which was such a worry for you.  It won’t always be easy but I reckon you will do ok.  My best wishes to you and your family…</p>\n      </div>\n      <meta itemprop='interactionCount' content='UserLikes:1'>\n      <meta itemprop='interactionCount' content='UserComments:1'>\n      <meta itemprop='headline' content='Mark M &amp; PD'>\n      <hr>\n  </div>\n  <div itemscope itemtype='http://schema.org/DiscussionForumPosting'>\n      <div class='creator'>\n        <span>\n          <a href='/u/Mark'><b itemprop='author'>Mark</b></a>\n          \n          <time datetime='2019-02-10T01:53:26Z' itemprop='datePublished'>\n            2019-02-10 01:53:26 UTC\n          </time>\n        </span>\n        <span itemprop='position'>#11</span>\n      </div>\n      <div class='post' itemprop='articleBody'>\n        <p>Thanks for your response, I am due back at the specialist and consultant soon so see what their thots are.<br>\nTimes are hard but family and friends are strong<br>\nMark</p>\n      </div>\n      <meta itemprop='interactionCount' content='UserLikes:0'>\n      <meta itemprop='interactionCount' content='UserComments:0'>\n      <meta itemprop='headline' content='Mark M &amp; PD'>\n      <hr>\n  </div>\n  <div itemscope itemtype='http://schema.org/DiscussionForumPosting'>\n      <div class='creator'>\n        <span>\n          <a href='/u/Mark'><b itemprop='author'>Mark</b></a>\n          \n          <time datetime='2019-02-15T23:01:37Z' itemprop='datePublished'>\n            2019-02-15 23:01:37 UTC\n          </time>\n        </span>\n        <span itemprop='position'>#12</span>\n      </div>\n      <div class='post' itemprop='articleBody'>\n        <p>Hi there, just wondering is it normal to have good almost normal days then terrible old man days where legs struggle to move? . I’m 45 with young onset pd and not sure how I should feel or what to expect? Tremble inside most of the time with nervy left arm but not sure if this is the medication or just normal symptoms?<br>\nMark</p>\n      </div>\n      <meta itemprop='interactionCount' content='UserLikes:0'>\n      <meta itemprop='interactionCount' content='UserComments:0'>\n      <meta itemprop='headline' content='Mark M &amp; PD'>\n      <hr>\n  </div>\n  <div itemscope itemtype='http://schema.org/DiscussionForumPosting'>\n      <div class='creator'>\n        <span>\n          <a href='/u/Reah'><b itemprop='author'>Reah</b></a>\n          \n          <time datetime='2019-02-19T13:21:13Z' itemprop='datePublished'>\n            2019-02-19 13:21:13 UTC\n          </time>\n        </span>\n        <span itemprop='position'>#13</span>\n      </div>\n      <div class='post' itemprop='articleBody'>\n        <p>Hi <a class=\"mention\" href=\"/u/mark\">@Mark</a>,</p>\n<p>I’m not sure if you’re aware, but we have a ‘Young onset Parkinson’s’ category which you can find here - <a href=\"https://forum.parkinsons.org.uk/c/living-with-parkinsons/young-onset-parkinsons\">https://forum.parkinsons.org.uk/c/living-with-parkinsons/young-onset-parkinsons</a>. I see you haven’t received a response to your latest comment as yet so you may find it helpful to post here instead as you’re asking for other people’s experience.</p>\n<p>If you’d like to speak to someone about this, then please give our helpline service a call on 0808 800 0303.</p>\n<p>Best wishes,<br>\nReah</p>\n      </div>\n      <meta itemprop='interactionCount' content='UserLikes:0'>\n      <meta itemprop='interactionCount' content='UserComments:0'>\n      <meta itemprop='headline' content='Mark M &amp; PD'>\n      <hr>\n  </div>\n\n\n\n\n\n\n    </div>\n    <footer class=\"container\">\n      <nav class='crawler-nav' itemscope itemtype='http://schema.org/SiteNavigationElement'>\n        <a href='/'>Home</a>\n        <a href=\"/categories\">Categories</a>\n        <a href=\"/guidelines\">FAQ/Guidelines</a>\n        <a href=\"/tos\">Terms of Service</a>\n        <a href=\"/privacy\">Privacy Policy</a>\n      </nav>\n      <p class='powered-by-link'>Powered by <a href=\"https://www.discourse.org\">Discourse</a>, best viewed with JavaScript enabled</p>\n    </footer>\n    \n  </body>\n  \n</html>\n",
  "url": "https://forum.parkinsons.org.uk/t/mark-m-pd/17342"
}