{
  "contentId": "d1eb4070-8869-11e9-8f96-97f71b5221d6",
  "html": "<!DOCTYPE html>\n<html lang=\"en\">\n  <head>\n    <meta charset=\"utf-8\">\n    <title>Is the forum being used more or less since it was &#39;improved&#39; - Our forum is changing - Parkinson&#39;s UK Forum</title>\n    <meta name=\"description\" content=\"Hi, \nI still find the new, improved forum utterly frustrating and increasingly don’t bother to access it. Is it just me or is it being used less since it was upgraded? \nI also find the whole site confusing. I can’t searc&amp;hellip;\">\n    <meta name=\"author\" content=\"\">\n<meta name=\"generator\" content=\"Discourse 2.2.5 - https://github.com/discourse/discourse version c294ff3609f988dcafb742e91606d60ca13b794d\">\n<link rel=\"icon\" type=\"image/png\" href=\"https://forum.parkinsons.org.uk/uploads/db7928/original/2X/3/311fc84f89f49f38601a2f16b295b6f03d3ce5dd.jpg\">\n<link rel=\"apple-touch-icon\" type=\"image/png\" href=\"https://forum.parkinsons.org.uk/uploads/db7928/original/2X/3/311fc84f89f49f38601a2f16b295b6f03d3ce5dd.jpg\">\n<meta name=\"theme-color\" content=\"#ffffff\">\n<meta name=\"viewport\" content=\"width=device-width, minimum-scale=1.0, maximum-scale=1.0, user-scalable=yes\">\n<link rel=\"canonical\" href=\"https://forum.parkinsons.org.uk/t/is-the-forum-being-used-more-or-less-since-it-was-improved/15427\" />\n<script type=\"application/ld+json\">{\"@context\":\"http://schema.org\",\"@type\":\"WebSite\",\"url\":\"https://forum.parkinsons.org.uk\",\"potentialAction\":{\"@type\":\"SearchAction\",\"target\":\"https://forum.parkinsons.org.uk/search?q={search_term_string}\",\"query-input\":\"required name=search_term_string\"}}</script>\n<link rel=\"search\" type=\"application/opensearchdescription+xml\" href=\"https://forum.parkinsons.org.uk/opensearch.xml\" title=\"Parkinson&#39;s UK Forum Search\">\n\n      <link href=\"/stylesheets/desktop_f99246ae801b083d3e4cca979d0dade8615b39ac.css?__ws=forum.parkinsons.org.uk\" media=\"all\" rel=\"stylesheet\" data-target=\"desktop\" data-theme-id=\"12\"/>\n      <link href=\"/stylesheets/desktop_theme_12_5d27531cf43f9df0c03a6a6ec3109dd05f9dfc49.css?__ws=forum.parkinsons.org.uk\" media=\"all\" rel=\"stylesheet\" data-target=\"desktop_theme\" data-theme-id=\"12\"/>\n    <link href=\"https://fonts.googleapis.com/css?family=Open+Sans\" rel=\"stylesheet\">\n\n    <meta id=\"data-ga-universal-analytics\" data-tracking-code=\"UA-4855628-1\" data-json=\"{&quot;cookieDomain&quot;:&quot;auto&quot;}\" data-auto-link-domains=\"\">\n\n<link rel='preload' href='/assets/google-universal-analytics-f35b4da49411e6f5559073523aab983da483976a3954c79c756f8579f6fbd6ef.js' as='script'/>\n<script src='/assets/google-universal-analytics-f35b4da49411e6f5559073523aab983da483976a3954c79c756f8579f6fbd6ef.js'></script>\n\n      <link rel=\"alternate\" type=\"application/rss+xml\" title=\"RSS feed of &#39;Is the forum being used more or less since it was &#39;improved&#39;&#39;\" href=\"https://forum.parkinsons.org.uk/t/is-the-forum-being-used-more-or-less-since-it-was-improved/15427.rss\" />\n  <meta property=\"og:site_name\" content=\"Parkinson&#39;s UK Forum\" />\n<meta name=\"twitter:card\" content=\"summary\" />\n<meta name=\"twitter:image\" content=\"https://forum.parkinsons.org.uk/user_avatar/forum.parkinsons.org.uk/reah/200/1665_2.png\" />\n<meta property=\"og:image\" content=\"https://forum.parkinsons.org.uk/user_avatar/forum.parkinsons.org.uk/reah/200/1665_2.png\" />\n<meta property=\"og:url\" content=\"https://forum.parkinsons.org.uk/t/is-the-forum-being-used-more-or-less-since-it-was-improved/15427/10\" />\n<meta name=\"twitter:url\" content=\"https://forum.parkinsons.org.uk/t/is-the-forum-being-used-more-or-less-since-it-was-improved/15427/10\" />\n<meta property=\"og:title\" content=\"Is the forum being used more or less since it was &#39;improved&#39;\" />\n<meta name=\"twitter:title\" content=\"Is the forum being used more or less since it was &#39;improved&#39;\" />\n<meta property=\"og:description\" content=\"Hi Jackson,  Thanks for your feedback on the forum. I appreciate that you and a few of our other members are still finding it hard to use the forum which is why we created a few short tutorials to help some of you out on this. How to use the forum - Tutorial videos!  @Wildrover is right about the changes to the forum, we changed the forum software to improve security, accessibility and design. The software for the Parkinson’s UK website had to be updated, therefore, the changes to the forum were...\" />\n<meta name=\"twitter:description\" content=\"Hi Jackson,  Thanks for your feedback on the forum. I appreciate that you and a few of our other members are still finding it hard to use the forum which is why we created a few short tutorials to help some of you out on this. How to use the forum - Tutorial videos!  @Wildrover is right about the changes to the forum, we changed the forum software to improve security, accessibility and design. The software for the Parkinson’s UK website had to be updated, therefore, the changes to the forum were...\" />\n<meta property=\"article:published_time\" content=\"2018-08-29T15:39:19+00:00\" />\n<meta property=\"og:ignore_canonical\" content=\"true\" />\n\n      <link rel=\"next\" href=\"/t/is-the-forum-being-used-more-or-less-since-it-was-improved/15427?page=2\">\n\n\n    \n  </head>\n  <body class=\"crawler\">\n    <header role=\"banner\">\n    <div class=\"region region-header\">\n        <div class=\"region-header-wrapper\">\n            <div id=\"block-parkinsons-d8-branding\" class=\"block block-system block-system-branding-block\">\n                <a href=\"/\" title=\"Home\" rel=\"home\" class=\"site-logo\">\n                    <img src=\"https://forum.parkinsons.org.uk/uploads/db7928/original/2X/8/862bb7d172e7d127e7f3e147ec43594aa62ac945.png\" alt=\"Parkinson's UK. Change Attitudes. Find a cure. Join us.\">\n                </a>\n            </div>\n            <div id=\"block-helpline\" class=\"block block-block-content block-block-content871cd5af-b938-4947-9dc0-d5c211d08fe3 style-phone\">\n                <div class=\"field field--name-field-link field--type-link field--label-hidden field__item\"><a href=\"tel:+448088000303\">Helpline 0808 800 0303</a></div>\n            </div>\n            <div id=\"block-shop\" class=\"block block-block-content block-block-content6fba5ae5-7797-49cd-8367-f321d8111cd6 style-regular\">\n                <div class=\"field field--name-field-link field--type-link field--label-hidden field__item\"><a href=\"https://shop.parkinsons.org.uk\">Shop</a></div>\n            </div>\n        </div>\n    </div>\n</header>\n\n\n<script src=\"/theme-javascripts/b7e9763fcb584fc8265c56a9f557cd6d2e1e8ed8.js?__ws=forum.parkinsons.org.uk\"></script>\n    <header>\n      <a href=\"/\">\n          <img src=\"https://forum.parkinsons.org.uk/uploads/db7928/original/2X/8/862bb7d172e7d127e7f3e147ec43594aa62ac945.png\" alt=\"Parkinson&#39;s UK Forum\" id=\"site-logo\" style=\"max-width: 150px;\">\n      </a>\n    </header>\n    <div id=\"main-outlet\" class=\"wrap\">\n      <h1>\n  <a href=\"/t/is-the-forum-being-used-more-or-less-since-it-was-improved/15427\">Is the forum being used more or less since it was &#39;improved&#39;</a>\n</h1>\n\n<div id='breadcrumbs'>\n    <div id=\"breadcrumb-0\" itemscope itemtype=\"http://data-vocabulary.org/Breadcrumb\"\n        itemref=\"breadcrumb-1\"\n      >\n      <a href=\"/c/about-the-forum\" itemprop=\"url\">\n        <span itemprop=\"title\">About the forum</span>\n      </a>\n    </div>\n    <div id=\"breadcrumb-1\" itemscope itemtype=\"http://data-vocabulary.org/Breadcrumb\"\n>\n      <a href=\"/c/about-the-forum/our-forum-is-changing\" itemprop=\"url\">\n        <span itemprop=\"title\">Our forum is changing</span>\n      </a>\n    </div>\n</div>\n\n\n\n\n\n<hr>\n\n\n  <div itemscope itemtype='http://schema.org/DiscussionForumPosting'>\n      <div class='creator'>\n        <span>\n          <a href='/u/Hubby'><b itemprop='author'>Hubby</b></a>\n          \n          <time datetime='2018-08-29T03:54:14Z' itemprop='datePublished'>\n            2018-08-29 03:54:14 UTC\n          </time>\n        </span>\n        <span itemprop='position'>#5</span>\n      </div>\n      <div class='post' itemprop='articleBody'>\n        <p>I’m not particularly \" Tech savvy\", but I do seem to waste a lot of time looking for what I want to find.<br>\nIt won’t stop me using it though because it is such a brilliant place and I feel like I may need it for the future.<br>\nHubby</p>\n      </div>\n      <meta itemprop='interactionCount' content='UserLikes:2'>\n      <meta itemprop='interactionCount' content='UserComments:0'>\n      <meta itemprop='headline' content='Is the forum being used more or less since it was &#39;improved&#39;'>\n      <hr>\n  </div>\n  <div itemscope itemtype='http://schema.org/DiscussionForumPosting'>\n      <div class='creator'>\n        <span>\n          <a href='/u/goldengirl'><b itemprop='author'>goldengirl</b></a>\n          \n          <time datetime='2018-08-29T09:14:49Z' itemprop='datePublished'>\n            2018-08-29 09:14:49 UTC\n          </time>\n        </span>\n        <span itemprop='position'>#6</span>\n      </div>\n      <div class='post' itemprop='articleBody'>\n        <p>I have just about given up on it.<br>\nWhat other site requires users to sit through endless tutorials to master it?<br>\nI miss the support and friendship I found on the old forum.<br>\nWhat hurts the most is being lectured by young, fit, tech-savvy people who don’t understand the problems of older, tired, often disabled users and carers.<br>\nIf any site should be simple to use it is one for Parkinsons…and it used to be.</p>\n      </div>\n      <meta itemprop='interactionCount' content='UserLikes:4'>\n      <meta itemprop='interactionCount' content='UserComments:0'>\n      <meta itemprop='headline' content='Is the forum being used more or less since it was &#39;improved&#39;'>\n      <hr>\n  </div>\n  <div itemscope itemtype='http://schema.org/DiscussionForumPosting'>\n      <div class='creator'>\n        <span>\n          <a href='/u/Daffy'><b itemprop='author'>Daffy</b></a>\n          \n          <time datetime='2018-08-29T11:45:18Z' itemprop='datePublished'>\n            2018-08-29 11:45:18 UTC\n          </time>\n        </span>\n        <span itemprop='position'>#7</span>\n      </div>\n      <div class='post' itemprop='articleBody'>\n        <p>It would definitely help if the site was easier to use. It’s a shame it’s so complicated because those of us with PD,or close to someone with PD have enough issues to deal with anyway. I do genuinely feel that if the site had been like this when I first joined I would have given up altogether - and that would have been a real shame as I have gained a  lot of support and information from talking with others with PD. I’d hate to think of vulnerable feeling newcomers in need of similar  friendship and support missing out on something that at heart good; and so needed. Daffy</p>\n      </div>\n      <meta itemprop='interactionCount' content='UserLikes:2'>\n      <meta itemprop='interactionCount' content='UserComments:1'>\n      <meta itemprop='headline' content='Is the forum being used more or less since it was &#39;improved&#39;'>\n      <hr>\n  </div>\n  <div itemscope itemtype='http://schema.org/DiscussionForumPosting'>\n      <div class='creator'>\n        <span>\n          <a href='/u/Babesbrown'><b itemprop='author'>Babesbrown</b></a>\n          \n          <time datetime='2018-08-29T12:55:42Z' itemprop='datePublished'>\n            2018-08-29 12:55:42 UTC\n          </time>\n        </span>\n        <span itemprop='position'>#8</span>\n      </div>\n      <div class='post' itemprop='articleBody'>\n        <p>Must say I look but hardly ever post now…find it all confusing. …</p>\n      </div>\n      <meta itemprop='interactionCount' content='UserLikes:1'>\n      <meta itemprop='interactionCount' content='UserComments:0'>\n      <meta itemprop='headline' content='Is the forum being used more or less since it was &#39;improved&#39;'>\n      <hr>\n  </div>\n  <div itemscope itemtype='http://schema.org/DiscussionForumPosting'>\n      <div class='creator'>\n        <span>\n          <a href='/u/Wildrover'><b itemprop='author'>Wildrover</b></a>\n          \n          <time datetime='2018-08-29T14:33:24Z' itemprop='datePublished'>\n            2018-08-29 14:33:24 UTC\n          </time>\n        </span>\n        <span itemprop='position'>#9</span>\n      </div>\n      <div class='post' itemprop='articleBody'>\n        <p>After having worked as a solution architect in the IT Industry I would like to play devils advocat here. IT is a very dynamic industry and I am sure there were very good reasons for the upgrade (change), probably things like security, hardware/software compatability and supportability of the whole system. I also know that alot of very hardwork would have gone into the upgrade by the project team at considerable cost. I also suspect that some comments on here will be extremley hurtful to those that probably worked around the clock to implement the change. The bottom line is like it or loathe it, this is here to stay and we all have to work together to make this invaluable resource work.  Not sure what the answer is but as a starting point the IT management of Parkinsons UK need to provide more assistance for those that need it. Rather than firing out lengthy work instructions, what about a weekly conference call were people can ask questions and be shown via a screen share how to do things. There is to much negativity on this subject so some leadership needs to be shown. Hope this isn’t taken badly but I can see both points of view with this</p>\n      </div>\n      <meta itemprop='interactionCount' content='UserLikes:0'>\n      <meta itemprop='interactionCount' content='UserComments:1'>\n      <meta itemprop='headline' content='Is the forum being used more or less since it was &#39;improved&#39;'>\n      <hr>\n  </div>\n  <div itemscope itemtype='http://schema.org/DiscussionForumPosting'>\n      <div class='creator'>\n        <span>\n          <a href='/u/Reah'><b itemprop='author'>Reah</b></a>\n          \n          <time datetime='2018-08-29T15:39:19Z' itemprop='datePublished'>\n            2018-08-29 15:39:19 UTC\n          </time>\n        </span>\n        <span itemprop='position'>#10</span>\n      </div>\n      <div class='post' itemprop='articleBody'>\n        <p>Hi Jackson,</p>\n<p>Thanks for your feedback on the forum. I appreciate that you and a few of our other members are still finding it hard to use the forum which is why we created a few short tutorials to help some of you out on this. <a href=\"https://forum.parkinsons.org.uk/t/how-to-use-the-forum-tutorial-videos/14908\">How to use the forum - Tutorial videos!</a></p>\n<p><a class=\"mention\" href=\"/u/wildrover\">@Wildrover</a> is right about the changes to the forum, we changed the forum software to improve security, accessibility and design. The software for the Parkinson’s UK website had to be updated, therefore, the changes to the forum were unavoidable. Regarding the membership programme, as we are still in the planning phases of this, we are communicating a lot of this information via our local groups, however, you can find information on the programme here - <a href=\"https://parkinsonsmembership.commonplace.is/\">https://parkinsonsmembership.commonplace.is/</a> ]</p>\n<p>If you’re referring to the self- management course, I believe we’ve spoken about this before -  were you able to enrol in an online course? I know this wasn’t ideal for you, but it still might be worth exploring if you haven’t done so already.</p>\n<p>I have made a note of the comments on this thread and will feed it back to my team to explore more ways in which we can make the forum more user friendly.</p>\n<p>Best wishes,<br>\nReah</p>\n      </div>\n      <meta itemprop='interactionCount' content='UserLikes:0'>\n      <meta itemprop='interactionCount' content='UserComments:1'>\n      <meta itemprop='headline' content='Is the forum being used more or less since it was &#39;improved&#39;'>\n      <hr>\n  </div>\n  <div itemscope itemtype='http://schema.org/DiscussionForumPosting'>\n      <div class='creator'>\n        <span>\n          <a href='/u/Jackson'><b itemprop='author'>Jackson</b></a>\n          \n          <time datetime='2018-08-29T16:52:31Z' itemprop='datePublished'>\n            2018-08-29 16:52:31 UTC\n          </time>\n        </span>\n        <span itemprop='position'>#11</span>\n      </div>\n      <div class='post' itemprop='articleBody'>\n        <p>Hi Reah,<br>\nI do re-read my comments and cringe occasionally as I am aware that I  am stuck in a negative spiral - I need to take my doom goblin tendencies in hand - and it is not my intention to criticise people working on the forum and trying to support those of using it, but accepting that change is inevitable, I still don’t understand the selection of this particular forum host in the first place. I can’t find any accessibility options and the design is less user-friendly than the previous forum. Anyway, it is what we have and it is a valuable resource but it is really sad to read posts saying that people feel that they have lost access to something that was very valuable to them, and it really isn’t as vibrant and lively as it was. Is there any way of changing the layout so that the topics and posts are easier to see and access and is there any way to reduce the clutter on the screen? I just touch everything on a bad day and I lose the will.<br>\nI understand that there have been attempts to support people in using the forum by providing video tutorials and I appreciate the effort but the point is that more than a few of us, I suspect,  will give up at the thought of having to access a video tutorial in order to access the forum. Accessing video tutorials is a whole new challenge that I just don’t need at the end  of a  day struggling with all things tech at work - and my symptoms are really quite manageable at the moment. Is there any way of making this forum more suitable for all of its users bearing in mind the demographic of people who have Parkinson’s? If digital is the way forward, and it seems that it is going to be, then resources have to be fit for purpose which primarily means that they must suit all user’s needs.  I think that in this instance this would  be an uncluttered and intuitive layout requiring as few interactions with the keyboard or screen as possible in order to access the desired information.<br>\nI didn’t join an online self management course, the online aspect doesn’t make any sense to me but there isn’t actually one targeted at my area anyway. I know I have mentioned this before but when I look at what I am supposed to be doing in order to be more positive and more in control then self management courses keep coming up so I keep looking into it (and unfortunately I then get back on my soapbox :-S ).<br>\nThank you for getting back to me and genuine thanks for the work you put in in order to support those of us who are prone to whinging a little :-S ok, whinging quite a lot in my case. I will try harder.<br>\nThanks again<br>\nJ</p>\n      </div>\n      <meta itemprop='interactionCount' content='UserLikes:3'>\n      <meta itemprop='interactionCount' content='UserComments:0'>\n      <meta itemprop='headline' content='Is the forum being used more or less since it was &#39;improved&#39;'>\n      <hr>\n  </div>\n  <div itemscope itemtype='http://schema.org/DiscussionForumPosting'>\n      <div class='creator'>\n        <span>\n          <a href='/u/Tot'><b itemprop='author'>Tot</b></a>\n          \n          <time datetime='2018-08-29T17:01:09Z' itemprop='datePublished'>\n            2018-08-29 17:01:09 UTC\n          </time>\n        </span>\n        <span itemprop='position'>#12</span>\n      </div>\n      <div class='post' itemprop='articleBody'>\n        <p>I understand what you are saying and don’t particularly disagree with much of your comment and I also know many people dislike change but, whilst I don’t have your expansive IT skills, I am used to working out how to do things on computers.  I am new to the forum and have not found it easy or especially intuitive but am able to do what I need, although I doubt I am doing so in the most efficient way.  My concern is that whilst I am happy and willing to give it a go, those less comfortable with technology, or maybe newly diagnosed and trying to find someone to talk to, or who perhaps doesn’t have the strength to stick at it while trying to work it out etc., may well be put off.  Security and all the stuff you mentioned is important but surely the forum has to be user friendly (if I might use that awful phrase) to the lowest common denominator so all can use it easily otherwise it’s reason for being is in my opinion compromised.</p>\n      </div>\n      <meta itemprop='interactionCount' content='UserLikes:1'>\n      <meta itemprop='interactionCount' content='UserComments:2'>\n      <meta itemprop='headline' content='Is the forum being used more or less since it was &#39;improved&#39;'>\n      <hr>\n  </div>\n  <div itemscope itemtype='http://schema.org/DiscussionForumPosting'>\n      <div class='creator'>\n        <span>\n          <a href='/u/gus'><b itemprop='author'>gus</b></a>\n          \n          <time datetime='2018-08-29T17:08:33Z' itemprop='datePublished'>\n            2018-08-29 17:08:33 UTC\n          </time>\n        </span>\n        <span itemprop='position'>#13</span>\n      </div>\n      <div class='post' itemprop='articleBody'>\n        <p>I don’t use this site as much as the old one.The old saying if it’s working ok don’t try to fix it ,I myself have lost a lot of the old users these users had a great deal of knowledge. I think we should put it to the vote to bring old site back</p>\n      </div>\n      <meta itemprop='interactionCount' content='UserLikes:1'>\n      <meta itemprop='interactionCount' content='UserComments:0'>\n      <meta itemprop='headline' content='Is the forum being used more or less since it was &#39;improved&#39;'>\n      <hr>\n  </div>\n  <div itemscope itemtype='http://schema.org/DiscussionForumPosting'>\n      <div class='creator'>\n        <span>\n          <a href='/u/Wildrover'><b itemprop='author'>Wildrover</b></a>\n          \n          <time datetime='2018-08-29T17:11:17Z' itemprop='datePublished'>\n            2018-08-29 17:11:17 UTC\n          </time>\n        </span>\n        <span itemprop='position'>#14</span>\n      </div>\n      <div class='post' itemprop='articleBody'>\n        <p>Dont disagree one bit, i am pretty sure if the project was to be started again, more engagement would have been made with the users and their input taken on board. Like i said i dont know the answers. We are were we are and somehow it needs to work.</p>\n      </div>\n      <meta itemprop='interactionCount' content='UserLikes:1'>\n      <meta itemprop='interactionCount' content='UserComments:0'>\n      <meta itemprop='headline' content='Is the forum being used more or less since it was &#39;improved&#39;'>\n      <hr>\n  </div>\n  <div itemscope itemtype='http://schema.org/DiscussionForumPosting'>\n      <div class='creator'>\n        <span>\n          <a href='/u/Wildrover'><b itemprop='author'>Wildrover</b></a>\n          \n          <time datetime='2018-08-29T17:25:11Z' itemprop='datePublished'>\n            2018-08-29 17:25:11 UTC\n          </time>\n        </span>\n        <span itemprop='position'>#15</span>\n      </div>\n      <div class='post' itemprop='articleBody'>\n        <p>Just to add most IT projects have their problems but especially difficult given the user base on this one. With all the negativity surrounding this i expect there is quite a large lessons learned document. In my opinion its what happens next that counts.</p>\n      </div>\n      <meta itemprop='interactionCount' content='UserLikes:1'>\n      <meta itemprop='interactionCount' content='UserComments:0'>\n      <meta itemprop='headline' content='Is the forum being used more or less since it was &#39;improved&#39;'>\n      <hr>\n  </div>\n  <div itemscope itemtype='http://schema.org/DiscussionForumPosting'>\n      <div class='creator'>\n        <span>\n          <a href='/u/Tot'><b itemprop='author'>Tot</b></a>\n          \n          <time datetime='2018-08-29T18:33:30Z' itemprop='datePublished'>\n            2018-08-29 18:33:30 UTC\n          </time>\n        </span>\n        <span itemprop='position'>#16</span>\n      </div>\n      <div class='post' itemprop='articleBody'>\n        <p>And I have no disagreement with that!</p>\n      </div>\n      <meta itemprop='interactionCount' content='UserLikes:1'>\n      <meta itemprop='interactionCount' content='UserComments:0'>\n      <meta itemprop='headline' content='Is the forum being used more or less since it was &#39;improved&#39;'>\n      <hr>\n  </div>\n  <div itemscope itemtype='http://schema.org/DiscussionForumPosting'>\n      <div class='creator'>\n        <span>\n          <a href='/u/Mountainair'><b itemprop='author'>Mountainair</b></a>\n          \n          <time datetime='2018-08-29T22:26:17Z' itemprop='datePublished'>\n            2018-08-29 22:26:17 UTC\n          </time>\n        </span>\n        <span itemprop='position'>#17</span>\n      </div>\n      <div class='post' itemprop='articleBody'>\n        <p><a class=\"mention\" href=\"/u/wildrover\">@Wildrover</a> you’ve hit the nail on the head, big mistake. If there was little or no user engagement, no surprise it is not user friendly. As someone who works with IT every day, alongside IT professionals but is not an IT professional, the forum strikes me as a forum designed by techies for techies. The main Parkinson’s UK site is excellent and looks good, easy to use, all credit to the developers. The forum unfortunately seems to be an afterthought.</p>\n<p>And yes, what happens next is the important bit.</p>\n      </div>\n      <meta itemprop='interactionCount' content='UserLikes:2'>\n      <meta itemprop='interactionCount' content='UserComments:0'>\n      <meta itemprop='headline' content='Is the forum being used more or less since it was &#39;improved&#39;'>\n      <hr>\n  </div>\n  <div itemscope itemtype='http://schema.org/DiscussionForumPosting'>\n      <div class='creator'>\n        <span>\n          <a href='/u/Reah'><b itemprop='author'>Reah</b></a>\n          \n          <time datetime='2018-08-30T09:56:54Z' itemprop='datePublished'>\n            2018-08-30 09:56:54 UTC\n          </time>\n        </span>\n        <span itemprop='position'>#18</span>\n      </div>\n      <div class='post' itemprop='articleBody'>\n        <p>Hi all,</p>\n<p>Thank you for your comments and feedback on the forum. Although we used the help of our members to test the new forum during the planning process of the upgrade and the feedback was really positive, I do however, take your thoughts on board and will feed it back to our digital team so we can look into this further.</p>\n<p>Please feel free to share your thoughts on the forum with our feedback team as well at <a href=\"/cdn-cgi/l/email-protection#07616262636566646c477766756c6e69746869742968756029726c\"><span class=\"__cf_email__\" data-cfemail=\"680e0d0d0c0a090b032818091a0301061b07061b46071a0f461d03\">[email&#160;protected]</span></a></p>\n<p>Best wishes,<br>\nReah</p>\n      </div>\n      <meta itemprop='interactionCount' content='UserLikes:0'>\n      <meta itemprop='interactionCount' content='UserComments:2'>\n      <meta itemprop='headline' content='Is the forum being used more or less since it was &#39;improved&#39;'>\n      <hr>\n  </div>\n  <div itemscope itemtype='http://schema.org/DiscussionForumPosting'>\n      <div class='creator'>\n        <span>\n          <a href='/u/timkford'><b itemprop='author'>timkford</b></a>\n          \n          <time datetime='2018-09-02T19:19:56Z' itemprop='datePublished'>\n            2018-09-02 19:19:56 UTC\n          </time>\n        </span>\n        <span itemprop='position'>#19</span>\n      </div>\n      <div class='post' itemprop='articleBody'>\n        <p>Now I get a weekly email, I do sign onto the site a lot more.</p>\n<p>So MORE for me.</p>\n      </div>\n      <meta itemprop='interactionCount' content='UserLikes:1'>\n      <meta itemprop='interactionCount' content='UserComments:0'>\n      <meta itemprop='headline' content='Is the forum being used more or less since it was &#39;improved&#39;'>\n      <hr>\n  </div>\n  <div itemscope itemtype='http://schema.org/DiscussionForumPosting'>\n      <div class='creator'>\n        <span>\n          <a href='/u/JonJoe'><b itemprop='author'>JonJoe</b></a>\n          \n          <time datetime='2018-09-06T18:40:44Z' itemprop='datePublished'>\n            2018-09-06 18:40:44 UTC\n          </time>\n        </span>\n        <span itemprop='position'>#20</span>\n      </div>\n      <div class='post' itemprop='articleBody'>\n        <p>Someone mentioned things are difficult to find. I agree, I view the forum on an iPhone and in my opinion there needs to be more white space between the different forum categories. Also, if you are logged out its difucult to find the forum again, the “Forum” link word to the forum needs to be more prominent.</p>\n<p>I’m in my forties and have basic web design skills, I work with computers, databases and spreadsheets all day, even I find it a little difficult to navigate. I don’t think it needs major work, just a redesign of the main forum categories page to make the different categories easier to see.</p>\n      </div>\n      <meta itemprop='interactionCount' content='UserLikes:1'>\n      <meta itemprop='interactionCount' content='UserComments:1'>\n      <meta itemprop='headline' content='Is the forum being used more or less since it was &#39;improved&#39;'>\n      <hr>\n  </div>\n  <div itemscope itemtype='http://schema.org/DiscussionForumPosting'>\n      <div class='creator'>\n        <span>\n          <a href='/u/gus'><b itemprop='author'>gus</b></a>\n          \n          <time datetime='2018-09-10T18:16:39Z' itemprop='datePublished'>\n            2018-09-10 18:16:39 UTC\n          </time>\n        </span>\n        <span itemprop='position'>#21</span>\n      </div>\n      <div class='post' itemprop='articleBody'>\n        <p>I thought people with Parkinson’s have trouble getting stressed and anxiety and find it hard to use there hands and this new site is all that one big headache sorry</p>\n      </div>\n      <meta itemprop='interactionCount' content='UserLikes:1'>\n      <meta itemprop='interactionCount' content='UserComments:1'>\n      <meta itemprop='headline' content='Is the forum being used more or less since it was &#39;improved&#39;'>\n      <hr>\n  </div>\n  <div itemscope itemtype='http://schema.org/DiscussionForumPosting'>\n      <div class='creator'>\n        <span>\n          <a href='/u/goldengirl'><b itemprop='author'>goldengirl</b></a>\n          \n          <time datetime='2018-09-13T18:16:53Z' itemprop='datePublished'>\n            2018-09-13 18:16:53 UTC\n          </time>\n        </span>\n        <span itemprop='position'>#22</span>\n      </div>\n      <div class='post' itemprop='articleBody'>\n        <p>On one of my rare visits to the new forum…I see a request for members to make a video of themselves and send it in.<br>\nOne question…have the admins of this site ever met someone with Parkinson’s?<br>\nMake a video?<br>\nMany are struggling to use a mobile to make a phone call!<br>\nHow far removed from the reality of PWP’s lives can this organisation get?<br>\nI’m sure some techies will carry out the task and work out how to send it in…but how many others will feel excluded and sad that they can’t even take part in activities on a forum meant to be for them?<br>\nGG</p>\n      </div>\n      <meta itemprop='interactionCount' content='UserLikes:2'>\n      <meta itemprop='interactionCount' content='UserComments:1'>\n      <meta itemprop='headline' content='Is the forum being used more or less since it was &#39;improved&#39;'>\n      <hr>\n  </div>\n  <div itemscope itemtype='http://schema.org/DiscussionForumPosting'>\n      <div class='creator'>\n        <span>\n          <a href='/u/gus'><b itemprop='author'>gus</b></a>\n          \n          <time datetime='2018-09-13T18:52:03Z' itemprop='datePublished'>\n            2018-09-13 18:52:03 UTC\n          </time>\n        </span>\n        <span itemprop='position'>#23</span>\n      </div>\n      <div class='post' itemprop='articleBody'>\n        <p>I do think this site is very hard to negotiate, without asking to film ,but I think what would be a real eye opener for everyone else with and without pd .If pduk get together with people who have gone through dbs they make a 1yr 3yr  and 5yr video by professionals of everything and all the different stages of the real meaning! ON and Off .Pduk could work with the hospitals who have the video footage. If interested I will give my permission and I think other people dbs would agree. It shows dyskinesia, gait,stiffness, tremors and dystonia .</p>\n      </div>\n      <meta itemprop='interactionCount' content='UserLikes:0'>\n      <meta itemprop='interactionCount' content='UserComments:1'>\n      <meta itemprop='headline' content='Is the forum being used more or less since it was &#39;improved&#39;'>\n      <hr>\n  </div>\n  <div itemscope itemtype='http://schema.org/DiscussionForumPosting'>\n      <div class='creator'>\n        <span>\n          <a href='/u/Jackson'><b itemprop='author'>Jackson</b></a>\n          \n          <time datetime='2018-09-13T23:02:27Z' itemprop='datePublished'>\n            2018-09-13 23:02:27 UTC\n          </time>\n        </span>\n        <span itemprop='position'>#24</span>\n      </div>\n      <div class='post' itemprop='articleBody'>\n        <p>Hi,<br>\nI like tech and can see that it has the potential to offer real benefits to people with a range of health conditions but I personally feel that it’s being  seen primarily as a cost cutting vehicle which means that many of the tech strategies and solutions being implemented are merely going to serve to leave me sitting accessing help and company via a computer or smartphone that my hands  are frequently at  war with -  though I will be very cost efficient because  I won’t be able to access any of the online resources designed to help me self-manage. The  'digital revolution ’ could be really exciting when you consider the developments out there but instead the whole concept just fills me with  dread and something close to  despair.<br>\nDexterity issues are hardly uncommon amongst those of us  with Parkinson’s, and I know we’re all different but I suspect there’s more than a few people out there who, like me, could almost start World War 3 with a smartphone (and my symptoms are still manageable :-S).<br>\nI think I’m beginning to sound like a broken record but if we are to be able to access the digital world, I personally feel that funding should be aimed at developing devices that people with poor dexterity and potential speech issues can actually use in the first instance.<br>\nAnd I am sure that there  are things in development that would offer genuine access; maybe it all comes down to money - who knows. :-(. Jx</p>\n      </div>\n      <meta itemprop='interactionCount' content='UserLikes:1'>\n      <meta itemprop='interactionCount' content='UserComments:0'>\n      <meta itemprop='headline' content='Is the forum being used more or less since it was &#39;improved&#39;'>\n      <hr>\n  </div>\n\n  <div role='navigation' itemscope itemtype='http://schema.org/SiteNavigationElement'>\n      <span itemprop='name'><b><a rel=\"next\" itemprop=\"url\" href=\"/t/is-the-forum-being-used-more-or-less-since-it-was-improved/15427?page=2\">next page →</a></b></span>\n  </div>\n\n\n\n\n\n    </div>\n    <footer class=\"container\">\n      <nav class='crawler-nav' itemscope itemtype='http://schema.org/SiteNavigationElement'>\n        <a href='/'>Home</a>\n        <a href=\"/categories\">Categories</a>\n        <a href=\"/guidelines\">FAQ/Guidelines</a>\n        <a href=\"/tos\">Terms of Service</a>\n        <a href=\"/privacy\">Privacy Policy</a>\n      </nav>\n      <p class='powered-by-link'>Powered by <a href=\"https://www.discourse.org\">Discourse</a>, best viewed with JavaScript enabled</p>\n    </footer>\n    \n  <script data-cfasync=\"false\" src=\"/cdn-cgi/scripts/5c5dd728/cloudflare-static/email-decode.min.js\"></script></body>\n  \n</html>\n",
  "url": "https://forum.parkinsons.org.uk/t/is-the-forum-being-used-more-or-less-since-it-was-improved/15427"
}