{
  "contentId": "3ec23ef0-8866-11e9-8f96-97f71b5221d6",
  "html": "<!DOCTYPE html>\n<html lang=\"en\">\n  <head>\n    <meta charset=\"utf-8\">\n    <title>Prosavin - Research discussion - Parkinson&#39;s UK Forum</title>\n    <meta name=\"description\" content=\"I, like many others, was thrilled to see and hear news of the extremely promising trial results of prosavin gene therapy carried out in Paris and Cambridge 12 months ago. I was stunned to hear from the research leader at&amp;hellip;\">\n    <meta name=\"author\" content=\"\">\n<meta name=\"generator\" content=\"Discourse 2.2.5 - https://github.com/discourse/discourse version c294ff3609f988dcafb742e91606d60ca13b794d\">\n<link rel=\"icon\" type=\"image/png\" href=\"https://forum.parkinsons.org.uk/uploads/db7928/original/2X/3/311fc84f89f49f38601a2f16b295b6f03d3ce5dd.jpg\">\n<link rel=\"apple-touch-icon\" type=\"image/png\" href=\"https://forum.parkinsons.org.uk/uploads/db7928/original/2X/3/311fc84f89f49f38601a2f16b295b6f03d3ce5dd.jpg\">\n<meta name=\"theme-color\" content=\"#ffffff\">\n<meta name=\"viewport\" content=\"width=device-width, minimum-scale=1.0, maximum-scale=1.0, user-scalable=yes\">\n<link rel=\"canonical\" href=\"https://forum.parkinsons.org.uk/t/prosavin/5222?page=2\" />\n<script type=\"application/ld+json\">{\"@context\":\"http://schema.org\",\"@type\":\"WebSite\",\"url\":\"https://forum.parkinsons.org.uk\",\"potentialAction\":{\"@type\":\"SearchAction\",\"target\":\"https://forum.parkinsons.org.uk/search?q={search_term_string}\",\"query-input\":\"required name=search_term_string\"}}</script>\n<link rel=\"search\" type=\"application/opensearchdescription+xml\" href=\"https://forum.parkinsons.org.uk/opensearch.xml\" title=\"Parkinson&#39;s UK Forum Search\">\n\n      <link href=\"/stylesheets/desktop_f99246ae801b083d3e4cca979d0dade8615b39ac.css?__ws=forum.parkinsons.org.uk\" media=\"all\" rel=\"stylesheet\" data-target=\"desktop\" data-theme-id=\"12\"/>\n      <link href=\"/stylesheets/desktop_theme_12_5d27531cf43f9df0c03a6a6ec3109dd05f9dfc49.css?__ws=forum.parkinsons.org.uk\" media=\"all\" rel=\"stylesheet\" data-target=\"desktop_theme\" data-theme-id=\"12\"/>\n    <link href=\"https://fonts.googleapis.com/css?family=Open+Sans\" rel=\"stylesheet\">\n\n    <meta id=\"data-ga-universal-analytics\" data-tracking-code=\"UA-4855628-1\" data-json=\"{&quot;cookieDomain&quot;:&quot;auto&quot;}\" data-auto-link-domains=\"\">\n\n<link rel='preload' href='/assets/google-universal-analytics-f35b4da49411e6f5559073523aab983da483976a3954c79c756f8579f6fbd6ef.js' as='script'/>\n<script src='/assets/google-universal-analytics-f35b4da49411e6f5559073523aab983da483976a3954c79c756f8579f6fbd6ef.js'></script>\n\n      <link rel=\"alternate\" type=\"application/rss+xml\" title=\"RSS feed of &#39;Prosavin&#39;\" href=\"https://forum.parkinsons.org.uk/t/prosavin/5222.rss\" />\n  <meta property=\"og:site_name\" content=\"Parkinson&#39;s UK Forum\" />\n<meta name=\"twitter:card\" content=\"summary\" />\n<meta name=\"twitter:image\" content=\"https://forum.parkinsons.org.uk/uploads/db7928/original/2X/3/311fc84f89f49f38601a2f16b295b6f03d3ce5dd.jpg\" />\n<meta property=\"og:image\" content=\"https://forum.parkinsons.org.uk/uploads/db7928/original/2X/3/311fc84f89f49f38601a2f16b295b6f03d3ce5dd.jpg\" />\n<meta property=\"og:url\" content=\"https://forum.parkinsons.org.uk/t/prosavin/5222?page=2\" />\n<meta name=\"twitter:url\" content=\"https://forum.parkinsons.org.uk/t/prosavin/5222?page=2\" />\n<meta property=\"og:title\" content=\"Prosavin\" />\n<meta name=\"twitter:title\" content=\"Prosavin\" />\n<meta property=\"og:description\" content=\"I read the article with bated breath as  I have put much faith in the gene therapy as a future treatment. \r I was surprised that it just appears to be a sour grapes interpretation of the Lancet report written by a less successful competitor in the field of gene therapy. \r  The clinical trial results report a significant improvement in motor function in all 15 patients and no significant side effects. The patients treated continue to improve and the next stage of trials will look at higher doses ...\" />\n<meta name=\"twitter:description\" content=\"I read the article with bated breath as  I have put much faith in the gene therapy as a future treatment. \r I was surprised that it just appears to be a sour grapes interpretation of the Lancet report written by a less successful competitor in the field of gene therapy. \r  The clinical trial results report a significant improvement in motor function in all 15 patients and no significant side effects. The patients treated continue to improve and the next stage of trials will look at higher doses ...\" />\n<meta property=\"article:published_time\" content=\"2014-01-31T11:14:23+00:00\" />\n<meta property=\"og:ignore_canonical\" content=\"true\" />\n\n      <link rel=\"prev\" href=\"/t/prosavin/5222\">\n\n\n    \n  </head>\n  <body class=\"crawler\">\n    <header role=\"banner\">\n    <div class=\"region region-header\">\n        <div class=\"region-header-wrapper\">\n            <div id=\"block-parkinsons-d8-branding\" class=\"block block-system block-system-branding-block\">\n                <a href=\"/\" title=\"Home\" rel=\"home\" class=\"site-logo\">\n                    <img src=\"https://forum.parkinsons.org.uk/uploads/db7928/original/2X/8/862bb7d172e7d127e7f3e147ec43594aa62ac945.png\" alt=\"Parkinson's UK. Change Attitudes. Find a cure. Join us.\">\n                </a>\n            </div>\n            <div id=\"block-helpline\" class=\"block block-block-content block-block-content871cd5af-b938-4947-9dc0-d5c211d08fe3 style-phone\">\n                <div class=\"field field--name-field-link field--type-link field--label-hidden field__item\"><a href=\"tel:+448088000303\">Helpline 0808 800 0303</a></div>\n            </div>\n            <div id=\"block-shop\" class=\"block block-block-content block-block-content6fba5ae5-7797-49cd-8367-f321d8111cd6 style-regular\">\n                <div class=\"field field--name-field-link field--type-link field--label-hidden field__item\"><a href=\"https://shop.parkinsons.org.uk\">Shop</a></div>\n            </div>\n        </div>\n    </div>\n</header>\n\n\n<script src=\"/theme-javascripts/b7e9763fcb584fc8265c56a9f557cd6d2e1e8ed8.js?__ws=forum.parkinsons.org.uk\"></script>\n    <header>\n      <a href=\"/\">\n          <img src=\"https://forum.parkinsons.org.uk/uploads/db7928/original/2X/8/862bb7d172e7d127e7f3e147ec43594aa62ac945.png\" alt=\"Parkinson&#39;s UK Forum\" id=\"site-logo\" style=\"max-width: 150px;\">\n      </a>\n    </header>\n    <div id=\"main-outlet\" class=\"wrap\">\n      <h1>\n  <a href=\"/t/prosavin/5222\">Prosavin</a>\n</h1>\n\n<div id='breadcrumbs'>\n    <div id=\"breadcrumb-0\" itemscope itemtype=\"http://data-vocabulary.org/Breadcrumb\"\n        itemref=\"breadcrumb-1\"\n      >\n      <a href=\"/c/research\" itemprop=\"url\">\n        <span itemprop=\"title\">Research</span>\n      </a>\n    </div>\n    <div id=\"breadcrumb-1\" itemscope itemtype=\"http://data-vocabulary.org/Breadcrumb\"\n>\n      <a href=\"/c/research/research-discussion\" itemprop=\"url\">\n        <span itemprop=\"title\">Research discussion</span>\n      </a>\n    </div>\n</div>\n\n\n\n\n\n<hr>\n\n\n  <div itemscope itemtype='http://schema.org/DiscussionForumPosting'>\n      <div class='creator'>\n        <span>\n          <a href='/u/goldengirl'><b itemprop='author'>goldengirl</b></a>\n          \n          <time datetime='2014-01-31T11:14:23Z' itemprop='datePublished'>\n            2014-01-31 11:14:23 UTC\n          </time>\n        </span>\n        <span itemprop='position'>#21</span>\n      </div>\n      <div class='post' itemprop='articleBody'>\n        <p>I read the article with bated breath as &nbsp;I have put much faith in the gene therapy as a future treatment.</p>\r\n<p>I was surprised that it just appears to be a sour grapes interpretation of the Lancet report written by a less successful competitor in the field of gene therapy.</p>\r\n<p>&nbsp;The clinical trial results report a significant improvement in motor function in all 15 patients and no significant side effects. The patients treated continue to improve and the next stage of trials will look at higher doses and improvements in delivery.</p>\r\n<p>I was unable to find reports of the many previous gene therapy trials of a similar nature referred to by the writer.</p>\r\n<p>I continue to have great faith in Dr Roger Barker, a man of talent and integrity who has worked with PUK&nbsp;on many occasions.</p>\r\n<p>Don&#39;t give up hope because of one &nbsp;critical article from a biased individual!</p>\r\n<p>GG</p>\n      </div>\n      <meta itemprop='interactionCount' content='UserLikes:0'>\n      <meta itemprop='interactionCount' content='UserComments:0'>\n      <meta itemprop='headline' content='Prosavin'>\n      <hr>\n  </div>\n  <div itemscope itemtype='http://schema.org/DiscussionForumPosting'>\n      <div class='creator'>\n        <span>\n          <a href='/u/goldengirl'><b itemprop='author'>goldengirl</b></a>\n          \n          <time datetime='2014-01-31T16:25:46Z' itemprop='datePublished'>\n            2014-01-31 16:25:46 UTC\n          </time>\n        </span>\n        <span itemprop='position'>#22</span>\n      </div>\n      <div class='post' itemprop='articleBody'>\n        <p>oxfordbiomedicaoxfordbiomedica</p>\r\n<p>&nbsp;</p>\r\n<p>For&nbsp;anyone who didn&#39;t read it, this is the info on which the criticisms were made.</p>\r\n<p>I personally find it most encouraging.</p>\n      </div>\n      <meta itemprop='interactionCount' content='UserLikes:0'>\n      <meta itemprop='interactionCount' content='UserComments:0'>\n      <meta itemprop='headline' content='Prosavin'>\n      <hr>\n  </div>\n  <div itemscope itemtype='http://schema.org/DiscussionForumPosting'>\n      <div class='creator'>\n        <span>\n          <a href='/u/gus'><b itemprop='author'>gus</b></a>\n          \n          <time datetime='2014-01-31T20:46:57Z' itemprop='datePublished'>\n            2014-01-31 20:46:57 UTC\n          </time>\n        </span>\n        <span itemprop='position'>#23</span>\n      </div>\n      <div class='post' itemprop='articleBody'>\n        <p>interesting stem cell research. click on research top of page.latest news</p>\n      </div>\n      <meta itemprop='interactionCount' content='UserLikes:0'>\n      <meta itemprop='interactionCount' content='UserComments:0'>\n      <meta itemprop='headline' content='Prosavin'>\n      <hr>\n  </div>\n  <div itemscope itemtype='http://schema.org/DiscussionForumPosting'>\n      <div class='creator'>\n        <span>\n          <a href='/u/goldengirl'><b itemprop='author'>goldengirl</b></a>\n          \n          <time datetime='2016-12-19T18:11:00Z' itemprop='datePublished'>\n            2016-12-19 18:11:00 UTC\n          </time>\n        </span>\n        <span itemprop='position'>#24</span>\n      </div>\n      <div class='post' itemprop='articleBody'>\n        <p>There has been no further information for nearly 3 years despite an assurance that the next stage of clinical trials of Prosavin gene therapy would begin in 2014.</p>\r\n<p>I still fear that the vested interests of the drug companies are at work in influencing funding to delay the success of a one-off treatment that has so much promise.</p>\r\n<p>Has Research any information about the long delay in progress in clinical trials?</p>\r\n<p>GG</p>\n      </div>\n      <meta itemprop='interactionCount' content='UserLikes:0'>\n      <meta itemprop='interactionCount' content='UserComments:0'>\n      <meta itemprop='headline' content='Prosavin'>\n      <hr>\n  </div>\n  <div itemscope itemtype='http://schema.org/DiscussionForumPosting'>\n      <div class='creator'>\n        <span>\n          <a href='/u/goldengirl'><b itemprop='author'>goldengirl</b></a>\n          \n          <time datetime='2018-03-15T21:13:13Z' itemprop='datePublished'>\n            2018-03-15 21:13:13 UTC\n          </time>\n        </span>\n        <span itemprop='position'>#25</span>\n      </div>\n      <div class='post' itemprop='articleBody'>\n        <p>2 years have gone by…any update from Research?<br>\nGG</p>\n      </div>\n      <meta itemprop='interactionCount' content='UserLikes:0'>\n      <meta itemprop='interactionCount' content='UserComments:0'>\n      <meta itemprop='headline' content='Prosavin'>\n      <hr>\n  </div>\n  <div itemscope itemtype='http://schema.org/DiscussionForumPosting'>\n      <div class='creator'>\n        <span>\n          <a href='/u/Reah'><b itemprop='author'>Reah</b></a>\n          \n          <time datetime='2018-03-16T17:55:47Z' itemprop='datePublished'>\n            2018-03-16 17:55:47 UTC\n          </time>\n        </span>\n        <span itemprop='position'>#26</span>\n      </div>\n      <div class='post' itemprop='articleBody'>\n        <p>Hi <a class=\"mention\" href=\"/u/goldengirl\">@goldengirl</a>,</p>\n<p>I have passed your query onto our research team and will update you as soon as I have more information.</p>\n<p>Thanks in advance for  your patience.</p>\n<p>Best wishes,<br>\nReah</p>\n      </div>\n      <meta itemprop='interactionCount' content='UserLikes:0'>\n      <meta itemprop='interactionCount' content='UserComments:0'>\n      <meta itemprop='headline' content='Prosavin'>\n      <hr>\n  </div>\n  <div itemscope itemtype='http://schema.org/DiscussionForumPosting'>\n      <div class='creator'>\n        <span>\n          <a href='/u/Reah'><b itemprop='author'>Reah</b></a>\n          \n          <time datetime='2018-03-20T17:12:13Z' itemprop='datePublished'>\n            2018-03-20 17:12:13 UTC\n          </time>\n        </span>\n        <span itemprop='position'>#27</span>\n      </div>\n      <div class='post' itemprop='articleBody'>\n        <p>Hi <a class=\"mention\" href=\"/u/goldengirl\">@goldengirl</a>,</p>\n<p>Just an update on my previous post regarding your query.</p>\n<p>In the clinical trial of ProSavin, it was found to be safe and well tolerated. They found no serious adverse effects, and improvements in the motor issues associated with Parkinson’s were found.</p>\n<p>Oxford Biomedica decided to move ahead with OXB-102, which is more potent than ProSavin. According to Oxford Biomedica, OXB-102 has been developed to increase the likelihood of success in later stages of development. The company are currently in the preparation phase for a phase I/II study of OXB-102 in Parkinson’s – I think they are waiting for regulatory approval.</p>\n<p>As far as we know that trial is supposed to begin this year (2018).</p>\n<p>I hope you find this information useful.</p>\n<p>Best wishes,<br>\nReah</p>\n      </div>\n      <meta itemprop='interactionCount' content='UserLikes:0'>\n      <meta itemprop='interactionCount' content='UserComments:0'>\n      <meta itemprop='headline' content='Prosavin'>\n      <hr>\n  </div>\n\n  <div role='navigation' itemscope itemtype='http://schema.org/SiteNavigationElement'>\n      <span itemprop='name'><a rel=\"prev\" itemprop=\"url\" href=\"/t/prosavin/5222\">← previous page</a></span>\n  </div>\n\n\n\n\n\n    </div>\n    <footer class=\"container\">\n      <nav class='crawler-nav' itemscope itemtype='http://schema.org/SiteNavigationElement'>\n        <a href='/'>Home</a>\n        <a href=\"/categories\">Categories</a>\n        <a href=\"/guidelines\">FAQ/Guidelines</a>\n        <a href=\"/tos\">Terms of Service</a>\n        <a href=\"/privacy\">Privacy Policy</a>\n      </nav>\n      <p class='powered-by-link'>Powered by <a href=\"https://www.discourse.org\">Discourse</a>, best viewed with JavaScript enabled</p>\n    </footer>\n    \n  </body>\n  \n</html>\n",
  "url": "https://forum.parkinsons.org.uk/t/prosavin/5222?page=2"
}