{
  "contentId": "cbde1f30-886f-11e9-8f96-97f71b5221d6",
  "html": "<!DOCTYPE html>\n<html lang=\"en\">\n  <head>\n    <meta charset=\"utf-8\">\n    <title>Levodopa Equivalent Dose Calculator - Treatments and therapies - Parkinson&#39;s UK Forum</title>\n    <meta name=\"description\" content=\"Many of us take a complicated mixture of different types of Parkinson&amp;#39;s drugs, with different doses, at different times. The concept of LED (levodopa equivalent dose) gives a rough way to compare two medication regimes. &amp;hellip;\">\n    <meta name=\"author\" content=\"\">\n<meta name=\"generator\" content=\"Discourse 2.2.5 - https://github.com/discourse/discourse version c294ff3609f988dcafb742e91606d60ca13b794d\">\n<link rel=\"icon\" type=\"image/png\" href=\"https://forum.parkinsons.org.uk/uploads/db7928/original/2X/3/311fc84f89f49f38601a2f16b295b6f03d3ce5dd.jpg\">\n<link rel=\"apple-touch-icon\" type=\"image/png\" href=\"https://forum.parkinsons.org.uk/uploads/db7928/original/2X/3/311fc84f89f49f38601a2f16b295b6f03d3ce5dd.jpg\">\n<meta name=\"theme-color\" content=\"#ffffff\">\n<meta name=\"viewport\" content=\"width=device-width, minimum-scale=1.0, maximum-scale=1.0, user-scalable=yes\">\n<link rel=\"canonical\" href=\"https://forum.parkinsons.org.uk/t/levodopa-equivalent-dose-calculator/8742\" />\n<script type=\"application/ld+json\">{\"@context\":\"http://schema.org\",\"@type\":\"WebSite\",\"url\":\"https://forum.parkinsons.org.uk\",\"potentialAction\":{\"@type\":\"SearchAction\",\"target\":\"https://forum.parkinsons.org.uk/search?q={search_term_string}\",\"query-input\":\"required name=search_term_string\"}}</script>\n<link rel=\"search\" type=\"application/opensearchdescription+xml\" href=\"https://forum.parkinsons.org.uk/opensearch.xml\" title=\"Parkinson&#39;s UK Forum Search\">\n\n      <link href=\"/stylesheets/desktop_f99246ae801b083d3e4cca979d0dade8615b39ac.css?__ws=forum.parkinsons.org.uk\" media=\"all\" rel=\"stylesheet\" data-target=\"desktop\" data-theme-id=\"12\"/>\n      <link href=\"/stylesheets/desktop_theme_12_5d27531cf43f9df0c03a6a6ec3109dd05f9dfc49.css?__ws=forum.parkinsons.org.uk\" media=\"all\" rel=\"stylesheet\" data-target=\"desktop_theme\" data-theme-id=\"12\"/>\n    <link href=\"https://fonts.googleapis.com/css?family=Open+Sans\" rel=\"stylesheet\">\n\n    <meta id=\"data-ga-universal-analytics\" data-tracking-code=\"UA-4855628-1\" data-json=\"{&quot;cookieDomain&quot;:&quot;auto&quot;}\" data-auto-link-domains=\"\">\n\n<link rel='preload' href='/assets/google-universal-analytics-f35b4da49411e6f5559073523aab983da483976a3954c79c756f8579f6fbd6ef.js' as='script'/>\n<script src='/assets/google-universal-analytics-f35b4da49411e6f5559073523aab983da483976a3954c79c756f8579f6fbd6ef.js'></script>\n\n      <link rel=\"alternate\" type=\"application/rss+xml\" title=\"RSS feed of &#39;Levodopa Equivalent Dose Calculator&#39;\" href=\"https://forum.parkinsons.org.uk/t/levodopa-equivalent-dose-calculator/8742.rss\" />\n  <meta property=\"og:site_name\" content=\"Parkinson&#39;s UK Forum\" />\n<meta name=\"twitter:card\" content=\"summary\" />\n<meta name=\"twitter:image\" content=\"https://forum.parkinsons.org.uk/uploads/db7928/original/2X/3/311fc84f89f49f38601a2f16b295b6f03d3ce5dd.jpg\" />\n<meta property=\"og:image\" content=\"https://forum.parkinsons.org.uk/uploads/db7928/original/2X/3/311fc84f89f49f38601a2f16b295b6f03d3ce5dd.jpg\" />\n<meta property=\"og:url\" content=\"https://forum.parkinsons.org.uk/t/levodopa-equivalent-dose-calculator/8742\" />\n<meta name=\"twitter:url\" content=\"https://forum.parkinsons.org.uk/t/levodopa-equivalent-dose-calculator/8742\" />\n<meta property=\"og:title\" content=\"Levodopa Equivalent Dose Calculator\" />\n<meta name=\"twitter:title\" content=\"Levodopa Equivalent Dose Calculator\" />\n<meta property=\"og:description\" content=\"Many of us take a complicated mixture of different types of Parkinson&#39;s drugs, with different doses, at different times. The concept of LED (levodopa equivalent dose) gives a rough way to compare two medication regimes. For instance, 8mg of ropinirole has, very roughly, about the same effect as 160mg of levodopa (taken with carbidopa). \r I&#39;ve been through the literature and found out the conversion factors for many Parkinson&#39;s drugs and written a small app to do the calculations: finding the LED...\" />\n<meta name=\"twitter:description\" content=\"Many of us take a complicated mixture of different types of Parkinson&#39;s drugs, with different doses, at different times. The concept of LED (levodopa equivalent dose) gives a rough way to compare two medication regimes. For instance, 8mg of ropinirole has, very roughly, about the same effect as 160mg of levodopa (taken with carbidopa). \r I&#39;ve been through the literature and found out the conversion factors for many Parkinson&#39;s drugs and written a small app to do the calculations: finding the LED...\" />\n<meta property=\"article:published_time\" content=\"2015-12-02T15:27:49+00:00\" />\n<meta property=\"og:ignore_canonical\" content=\"true\" />\n\n\n\n    \n  </head>\n  <body class=\"crawler\">\n    <header role=\"banner\">\n    <div class=\"region region-header\">\n        <div class=\"region-header-wrapper\">\n            <div id=\"block-parkinsons-d8-branding\" class=\"block block-system block-system-branding-block\">\n                <a href=\"/\" title=\"Home\" rel=\"home\" class=\"site-logo\">\n                    <img src=\"https://forum.parkinsons.org.uk/uploads/db7928/original/2X/8/862bb7d172e7d127e7f3e147ec43594aa62ac945.png\" alt=\"Parkinson's UK. Change Attitudes. Find a cure. Join us.\">\n                </a>\n            </div>\n            <div id=\"block-helpline\" class=\"block block-block-content block-block-content871cd5af-b938-4947-9dc0-d5c211d08fe3 style-phone\">\n                <div class=\"field field--name-field-link field--type-link field--label-hidden field__item\"><a href=\"tel:+448088000303\">Helpline 0808 800 0303</a></div>\n            </div>\n            <div id=\"block-shop\" class=\"block block-block-content block-block-content6fba5ae5-7797-49cd-8367-f321d8111cd6 style-regular\">\n                <div class=\"field field--name-field-link field--type-link field--label-hidden field__item\"><a href=\"https://shop.parkinsons.org.uk\">Shop</a></div>\n            </div>\n        </div>\n    </div>\n</header>\n\n\n<script src=\"/theme-javascripts/b7e9763fcb584fc8265c56a9f557cd6d2e1e8ed8.js?__ws=forum.parkinsons.org.uk\"></script>\n    <header>\n      <a href=\"/\">\n          <img src=\"https://forum.parkinsons.org.uk/uploads/db7928/original/2X/8/862bb7d172e7d127e7f3e147ec43594aa62ac945.png\" alt=\"Parkinson&#39;s UK Forum\" id=\"site-logo\" style=\"max-width: 150px;\">\n      </a>\n    </header>\n    <div id=\"main-outlet\" class=\"wrap\">\n      <h1>\n  <a href=\"/t/levodopa-equivalent-dose-calculator/8742\">Levodopa Equivalent Dose Calculator</a>\n</h1>\n\n<div id='breadcrumbs'>\n    <div id=\"breadcrumb-0\" itemscope itemtype=\"http://data-vocabulary.org/Breadcrumb\"\n        itemref=\"breadcrumb-1\"\n      >\n      <a href=\"/c/about-parkinsons-and-health\" itemprop=\"url\">\n        <span itemprop=\"title\">About Parkinson&#39;s and health</span>\n      </a>\n    </div>\n    <div id=\"breadcrumb-1\" itemscope itemtype=\"http://data-vocabulary.org/Breadcrumb\"\n>\n      <a href=\"/c/about-parkinsons-and-health/treatments-and-therapies\" itemprop=\"url\">\n        <span itemprop=\"title\">Treatments and therapies</span>\n      </a>\n    </div>\n</div>\n\n\n\n\n\n<hr>\n\n\n  <div itemscope itemtype='http://schema.org/DiscussionForumPosting'>\n      <div class='creator'>\n        <span>\n          <a href='/u/johnt'><b itemprop='author'>johnt</b></a>\n          \n          <time datetime='2015-12-02T15:27:49Z' itemprop='datePublished'>\n            2015-12-02 15:27:49 UTC\n          </time>\n        </span>\n        <span itemprop='position'>#1</span>\n      </div>\n      <div class='post' itemprop='articleBody'>\n        <p>Many of us take a complicated mixture of different types of Parkinson&#39;s drugs, with different doses, at different times. The concept of LED (levodopa equivalent dose) gives a rough way to compare two medication regimes. For instance, 8mg of ropinirole has, very roughly, about the same effect as 160mg of levodopa (taken with carbidopa).</p>\r\n<p>I&#39;ve been through the literature and found out the conversion factors for many Parkinson&#39;s drugs and written a small app to&nbsp;do the calculations: finding the LED for each dose and adding them together to find the LEDD (levodopa equivalent daily dose). This can be run directly from my web site at:</p>\r\n<p><a href=\"http://www.parkinsonsmeasurement.org/toolBox/levodopaEquivalentDose.htm\" target=\"_blank\">http://www.parkinsonsmeasurement.org/toolBox/levodopaEquivalentDose.htm</a></p>\r\n<p>I repeat LED is a rough measure: the conversion factors are estimates, differences between people are not&nbsp;considered,&nbsp;side effects are not included, and the time profile of the drugs is not considered. But, it does give a starting point&nbsp;to discussions of your medication regime.</p>\r\n<p>John</p>\n      </div>\n      <meta itemprop='interactionCount' content='UserLikes:0'>\n      <meta itemprop='interactionCount' content='UserComments:0'>\n      <meta itemprop='headline' content='Levodopa Equivalent Dose Calculator'>\n      <hr>\n  </div>\n  <div itemscope itemtype='http://schema.org/DiscussionForumPosting'>\n      <div class='creator'>\n        <span>\n          <a href='/u/budgies'><b itemprop='author'>budgies</b></a>\n          \n          <time datetime='2015-12-02T16:25:33Z' itemprop='datePublished'>\n            2015-12-02 16:25:33 UTC\n          </time>\n        </span>\n        <span itemprop='position'>#2</span>\n      </div>\n      <div class='post' itemprop='articleBody'>\n        <p>Sinemet isn&#39;t on the chart John - is this just Levadopa?</p>\r\n<p>&nbsp;</p>\n      </div>\n      <meta itemprop='interactionCount' content='UserLikes:0'>\n      <meta itemprop='interactionCount' content='UserComments:0'>\n      <meta itemprop='headline' content='Levodopa Equivalent Dose Calculator'>\n      <hr>\n  </div>\n  <div itemscope itemtype='http://schema.org/DiscussionForumPosting'>\n      <div class='creator'>\n        <span>\n          <a href='/u/johnt'><b itemprop='author'>johnt</b></a>\n          \n          <time datetime='2015-12-02T17:55:58Z' itemprop='datePublished'>\n            2015-12-02 17:55:58 UTC\n          </time>\n        </span>\n        <span itemprop='position'>#3</span>\n      </div>\n      <div class='post' itemprop='articleBody'>\n        <p>Budgies, thanks for your question</p>\r\n<p>Sinemet is the brand name of levodopa with carbidopa. I&#39;ve added Sinemet to the drop down list.</p>\r\n<p>Nowadays, levodopa usually comes with something like carbidopa or benserazide&nbsp;in order to&nbsp;increase&nbsp;its bio-availability.</p>\r\n<p>The situation is confused because in the LED literature, and both casual conversation and even sometimes in&nbsp;scientific&nbsp;papers,&nbsp;levodopa is mentioned in isolation, when what is meant is levodopa taken with carbidopa. Rather than LED it should really be LTWCED (levodopa taken with carbidopa equivalent dose)!&nbsp;I&#39;ve kept to this convention: in the program levodopa means levodopa with carbidopa.&nbsp;</p>\r\n<p>John</p>\n      </div>\n      <meta itemprop='interactionCount' content='UserLikes:0'>\n      <meta itemprop='interactionCount' content='UserComments:0'>\n      <meta itemprop='headline' content='Levodopa Equivalent Dose Calculator'>\n      <hr>\n  </div>\n  <div itemscope itemtype='http://schema.org/DiscussionForumPosting'>\n      <div class='creator'>\n        <span>\n          <a href='/u/budgies'><b itemprop='author'>budgies</b></a>\n          \n          <time datetime='2015-12-03T19:02:12Z' itemprop='datePublished'>\n            2015-12-03 19:02:12 UTC\n          </time>\n        </span>\n        <span itemprop='position'>#4</span>\n      </div>\n      <div class='post' itemprop='articleBody'>\n        <p>Thanks for your reply John.</p>\r\n<p>I&#39;m still a bit confused about what figures to enter for my husband&#39;s intake, so would be grateful for your help.&nbsp;&nbsp; His medication is as follows:&nbsp;&nbsp; 5 x Madopar 25/100 daily, 1 x Requip XL 8mg and 3 x Sinemet CR 50/200.</p>\r\n<p>Would you mind working out for me how much he takes daily, when you get time?</p>\r\n<p>Thanks very much.</p>\r\n<p>Viv</p>\n      </div>\n      <meta itemprop='interactionCount' content='UserLikes:0'>\n      <meta itemprop='interactionCount' content='UserComments:0'>\n      <meta itemprop='headline' content='Levodopa Equivalent Dose Calculator'>\n      <hr>\n  </div>\n  <div itemscope itemtype='http://schema.org/DiscussionForumPosting'>\n      <div class='creator'>\n        <span>\n          <a href='/u/johnt'><b itemprop='author'>johnt</b></a>\n          \n          <time datetime='2015-12-04T01:47:51Z' itemprop='datePublished'>\n            2015-12-04 01:47:51 UTC\n          </time>\n        </span>\n        <span itemprop='position'>#5</span>\n      </div>\n      <div class='post' itemprop='articleBody'>\n        <p>No problem.&nbsp; For the Sinemet CR you could input levodopa CR, but I&#39;ve added Sinemet CR to the program. The calculation is as follows.</p>\r\n<p>The doses are:</p>\r\n<p>Madopar 5x100mg, CF=1, LED=500mg</p>\r\n<p>Requip XL 8mg, CF=20, LED=160mg</p>\r\n<p>Sinemet CR, 3x200, CF=0.75 LED=450mg</p>\r\n<p>Total, LEDD = 1110mg</p>\r\n<p>John</p>\n      </div>\n      <meta itemprop='interactionCount' content='UserLikes:0'>\n      <meta itemprop='interactionCount' content='UserComments:0'>\n      <meta itemprop='headline' content='Levodopa Equivalent Dose Calculator'>\n      <hr>\n  </div>\n  <div itemscope itemtype='http://schema.org/DiscussionForumPosting'>\n      <div class='creator'>\n        <span>\n          <a href='/u/budgies'><b itemprop='author'>budgies</b></a>\n          \n          <time datetime='2015-12-04T10:09:25Z' itemprop='datePublished'>\n            2015-12-04 10:09:25 UTC\n          </time>\n        </span>\n        <span itemprop='position'>#6</span>\n      </div>\n      <div class='post' itemprop='articleBody'>\n        <p>Thanks very much for doing that John.</p>\r\n<p>I appreciate what you say about the many different factors involved with an individual, but, in general, does this sound like a particularly high dose to you?</p>\r\n<p>Thanks again for your help with this.</p>\r\n<p>Viv</p>\n      </div>\n      <meta itemprop='interactionCount' content='UserLikes:0'>\n      <meta itemprop='interactionCount' content='UserComments:0'>\n      <meta itemprop='headline' content='Levodopa Equivalent Dose Calculator'>\n      <hr>\n  </div>\n  <div itemscope itemtype='http://schema.org/DiscussionForumPosting'>\n      <div class='creator'>\n        <span>\n          <a href='/u/johnt'><b itemprop='author'>johnt</b></a>\n          \n          <time datetime='2015-12-04T17:44:13Z' itemprop='datePublished'>\n            2015-12-04 17:44:13 UTC\n          </time>\n        </span>\n        <span itemprop='position'>#7</span>\n      </div>\n      <div class='post' itemprop='articleBody'>\n        <p>You ask whether your husband&#39;s LEDD of 1110mg is high. Certainly, it is higher than the mean for the whole Parkinson&#39;s population, including those just diagnosed. That is not the same as saying that it is higher than it should be. Neither, without knowing more, &nbsp;would I describe it as unusually high.</p>\r\n<p>There are many factors to consider, these include:</p>\r\n<p>-the time since diagnosis;</p>\r\n<p>-the time since first symptoms;</p>\r\n<p>-the progression of the disease;</p>\r\n<p>-the size of the patient;</p>\r\n<p>-although there is no consensus on this, some people may choose to go undermedicated in the hope that it delays complications arising from the medications - however,some people argue that undermedicating speeds progression;</p>\r\n<p>-regional differences, the mean preoperative LEDD before DBS is 808.5mg in Europe and 1074-1409mg in North America (Lee et al. &quot;Daily dose of doperminergic medications in Parkinson&#39;s disease ... &quot;, Neurology Asia, 2010.)</p>\r\n<p>Rather than start with the LEDD, I think we should all begin by asking the question: Are we doing well? Only if we are doing badly should we and our doctors look at the LEDD to help inform us on how to improve the situation.</p>\r\n<p>John</p>\r\n<p>&nbsp;</p>\n      </div>\n      <meta itemprop='interactionCount' content='UserLikes:0'>\n      <meta itemprop='interactionCount' content='UserComments:0'>\n      <meta itemprop='headline' content='Levodopa Equivalent Dose Calculator'>\n      <hr>\n  </div>\n  <div itemscope itemtype='http://schema.org/DiscussionForumPosting'>\n      <div class='creator'>\n        <span>\n          <a href='/u/budgies'><b itemprop='author'>budgies</b></a>\n          \n          <time datetime='2015-12-04T18:18:46Z' itemprop='datePublished'>\n            2015-12-04 18:18:46 UTC\n          </time>\n        </span>\n        <span itemprop='position'>#8</span>\n      </div>\n      <div class='post' itemprop='articleBody'>\n        <p>Thanks for your reply John.</p>\r\n<p>My husband is seven years in from diagnosis, six years on medication, and is still pretty active, walking two miles daily and using the exercise bike daily for 15 minutes.</p>\r\n<p>Clearly the LEDD situation is a very complex matter, with many factors needing to be taken into account.&nbsp;&nbsp; I guess the bottom line is that we just have to trust our physician.</p>\r\n<p>Viv</p>\n      </div>\n      <meta itemprop='interactionCount' content='UserLikes:0'>\n      <meta itemprop='interactionCount' content='UserComments:1'>\n      <meta itemprop='headline' content='Levodopa Equivalent Dose Calculator'>\n      <hr>\n  </div>\n  <div itemscope itemtype='http://schema.org/DiscussionForumPosting'>\n      <div class='creator'>\n        <span>\n          <a href='/u/johnt'><b itemprop='author'>johnt</b></a>\n          \n          <time datetime='2015-12-04T23:41:20Z' itemprop='datePublished'>\n            2015-12-04 23:41:20 UTC\n          </time>\n        </span>\n        <span itemprop='position'>#9</span>\n      </div>\n      <div class='post' itemprop='articleBody'>\n        <p>Viv,</p>\r\n<p>You write that &quot;the bottom line is that we just have to trust our physician&quot;. For some illnesses, such as heart attack, this is true. But, as I see it, PD is different: its slow progression means that you have 10 - 20 years to get up to speed in understanding the disease. This means that you can work with medical staff to get the best treatment for you. Doctors are only human, they sometimes make mistakes. They see us for, perhaps, 30 minutes, twice a year; we see ourselves 24/7. We need to co-manage our treatment.</p>\r\n<p>John</p>\n      </div>\n      <meta itemprop='interactionCount' content='UserLikes:0'>\n      <meta itemprop='interactionCount' content='UserComments:0'>\n      <meta itemprop='headline' content='Levodopa Equivalent Dose Calculator'>\n      <hr>\n  </div>\n  <div itemscope itemtype='http://schema.org/DiscussionForumPosting'>\n      <div class='creator'>\n        <span>\n          <a href='/u/budgies'><b itemprop='author'>budgies</b></a>\n          \n          <time datetime='2015-12-05T11:15:11Z' itemprop='datePublished'>\n            2015-12-05 11:15:11 UTC\n          </time>\n        </span>\n        <span itemprop='position'>#10</span>\n      </div>\n      <div class='post' itemprop='articleBody'>\n        <p>Hi John,</p>\r\n<p>Yes, I take your point on consultants/medication in the overall, general sense.&nbsp;&nbsp;&nbsp; What I referred to about trusting the physician&nbsp; was simply in connection with our latest consultation, where I expressed concern about my husband&#39;s current level of Levodopa. &nbsp;&nbsp; The consultant reassured us that, after taking everything into consideration, John&#39;s current Levodopa intake was not necessarily above average, and was in fact &quot;in keeping&quot; for someone with &quot;mid-stage&quot; Parkinson&#39;s.</p>\r\n<p>I was more upset with the term &quot;mid-stage&quot;, for some illogical reason, as I felt that 7 years from diagnosis (six on meds) wasn&#39;t that long, although I know the general line when diagnosed is usually that the first five years go quite well, the second five years reasonably well (if you&#39;re lucky) and thereafter is in the lap of the gods.</p>\r\n<p>I guess we just have to hope like mad that the &quot;mid-stage&quot; lasts as long as possible.</p>\r\n<p>Viv</p>\r\n<p>&nbsp;</p>\n      </div>\n      <meta itemprop='interactionCount' content='UserLikes:0'>\n      <meta itemprop='interactionCount' content='UserComments:0'>\n      <meta itemprop='headline' content='Levodopa Equivalent Dose Calculator'>\n      <hr>\n  </div>\n  <div itemscope itemtype='http://schema.org/DiscussionForumPosting'>\n      <div class='creator'>\n        <span>\n          <a href='/u/JofKL'><b itemprop='author'>JofKL</b></a>\n          \n          <time datetime='2015-12-10T21:20:08Z' itemprop='datePublished'>\n            2015-12-10 21:20:08 UTC\n          </time>\n        </span>\n        <span itemprop='position'>#11</span>\n      </div>\n      <div class='post' itemprop='articleBody'>\n        <p>Was diagnosed 3 years ago, been on rupinerole8mg for 1 year and azilect. Tremor is getting worse, otherwise doing well. Just been put on madopar. &nbsp;First outing with levodopa and rather apprehensive. Any advice &nbsp;gratefully received&nbsp;</p>\n      </div>\n      <meta itemprop='interactionCount' content='UserLikes:0'>\n      <meta itemprop='interactionCount' content='UserComments:0'>\n      <meta itemprop='headline' content='Levodopa Equivalent Dose Calculator'>\n      <hr>\n  </div>\n  <div itemscope itemtype='http://schema.org/DiscussionForumPosting'>\n      <div class='creator'>\n        <span>\n          <a href='/u/johnt'><b itemprop='author'>johnt</b></a>\n          \n          <time datetime='2015-12-10T22:59:52Z' itemprop='datePublished'>\n            2015-12-10 22:59:52 UTC\n          </time>\n        </span>\n        <span itemprop='position'>#12</span>\n      </div>\n      <div class='post' itemprop='articleBody'>\n        <p>I&#39;m not a doctor, so make of this what you will. It seems to me that your drug regime is typical for someone 3 years post diagnosis. &nbsp;Once you are over the nausea stage, I would try to take my meds at least 1 hour away from eating. This is because protein in the diet reduces the amount of levodopa that reaches the brain..</p>\r\n<p>John</p>\n      </div>\n      <meta itemprop='interactionCount' content='UserLikes:0'>\n      <meta itemprop='interactionCount' content='UserComments:0'>\n      <meta itemprop='headline' content='Levodopa Equivalent Dose Calculator'>\n      <hr>\n  </div>\n  <div itemscope itemtype='http://schema.org/DiscussionForumPosting'>\n      <div class='creator'>\n        <span>\n          <a href='/u/Kate'><b itemprop='author'>Kate</b></a>\n          \n          <time datetime='2015-12-14T09:59:21Z' itemprop='datePublished'>\n            2015-12-14 09:59:21 UTC\n          </time>\n        </span>\n        <span itemprop='position'>#13</span>\n      </div>\n      <div class='post' itemprop='articleBody'>\n        <p>JofKL</p>\r\n<p>Why apprehensive? Levodopa&nbsp;is generally very well tolerated, better than a dopamine agonist like ropinerole. and more effective, no need to fear it. Do not increase it too soon, it is still the best drug for PD.</p>\r\n<p>budgies,</p>\r\n<p>funny how certain comments from the consultant can really bother you. Obviously it means little to the neurologist. Mine said, &quot; well, what are you complaining about, you&#39;ve had it for more than 16 years. 50% of patients are dead after that length of time!&quot; The complaining was about the difficulties of managing the (to me) sudden speed of progression of the disease &nbsp;I am experiencing this year.&nbsp;</p>\r\n<p>johnt</p>\r\n<p>A consultant seeing you 30 minutes twice a year, you&#39;re extremely lucky if you get that! It is a &nbsp;ten minute slot we get, so just imagine some patients walk very slowly, when called in and speak with difficulty. How much information can be exchanged/discussed in so short a time,! &nbsp;I get the impression that, when the going gets tough and the complications of the disease, combined with the side effects of the drugs really start to impact and accumulate and major problems are cropping up all over the place, most of the consultants have very little experience (and success) in how to treat it. You and/or your carer are left to get on with it, cope as well as you can and try any of their suggestions, but in essence you&#39;re on your own. Parkinson&#39;s Disease in the more advanced stages should be treated by a multi-disciplinary team. &nbsp;Really good treatment would be too expensive, not only because of the newer drugs(duodopa)&nbsp;and procedures (DBS), but clearly also in manpower hours .</p>\n      </div>\n      <meta itemprop='interactionCount' content='UserLikes:0'>\n      <meta itemprop='interactionCount' content='UserComments:0'>\n      <meta itemprop='headline' content='Levodopa Equivalent Dose Calculator'>\n      <hr>\n  </div>\n  <div itemscope itemtype='http://schema.org/DiscussionForumPosting'>\n      <div class='creator'>\n        <span>\n          <a href='/u/jentay'><b itemprop='author'>jentay</b></a>\n          \n          <time datetime='2016-03-07T17:46:32Z' itemprop='datePublished'>\n            2016-03-07 17:46:32 UTC\n          </time>\n        </span>\n        <span itemprop='position'>#14</span>\n      </div>\n      <div class='post' itemprop='articleBody'>\n        <p>Hi, I read this forum often but don&#39;t usually comment, I was alarmed after reading abut the LEED&nbsp;.</p>\r\n<p>My husband diagnosed 2012 takes&nbsp;Madapor&nbsp;CR 100 &nbsp;x 4 a day, Stalevo 125 x 5 a day, Reqip Xl 8mg&nbsp; once a day, and recently the neuro added RasigI line 1mg once a day</p>\r\n<p>Since adding&nbsp;the Rasigiline&nbsp;he falls asleep throughout&nbsp;the day abd complans of light headedness.</p>\r\n<p>His movement is the worst&nbsp;of his problems at the moment, but now I am concerned that he is either over&nbsp;medicated &nbsp;or much further down the road of this awful PD. &nbsp;Any advise wold be really aappreciated, &nbsp;we too have trusted the&nbsp;neurologist.&nbsp;</p>\r\n<p>&nbsp;</p>\r\n<p>&nbsp;</p>\r\n<p>&nbsp;</p>\r\n<p>&nbsp;</p>\r\n<p>&nbsp;</p>\r\n<p>&nbsp;</p>\r\n<p>&nbsp;</p>\r\n<p>&nbsp;</p>\r\n<p>&nbsp;</p>\r\n<p>&nbsp;</p>\n      </div>\n      <meta itemprop='interactionCount' content='UserLikes:0'>\n      <meta itemprop='interactionCount' content='UserComments:1'>\n      <meta itemprop='headline' content='Levodopa Equivalent Dose Calculator'>\n      <hr>\n  </div>\n  <div itemscope itemtype='http://schema.org/DiscussionForumPosting'>\n      <div class='creator'>\n        <span>\n          <a href='/u/Moderators2'><b itemprop='author'>Moderators2</b></a>\n          \n          <time datetime='2016-03-07T22:47:03Z' itemprop='datePublished'>\n            2016-03-07 22:47:03 UTC\n          </time>\n        </span>\n        <span itemprop='position'>#15</span>\n      </div>\n      <div class='post' itemprop='articleBody'>\n        <p>Hi jentay,</p>\r\n<p>Please feel free to give us a ring on 0808 800 0303 (Monday-Friday: 9am-7pm, Saturday: 10am-2pm) if you&#39;d like to talk to our trained advisers (including specialist Parkinson&#39;s nurses) about your husband&#39;s symptoms and medication.</p>\r\n<p><span style=\"line-height: 1.4;\">Our advisers can provide information and advice about all aspects of living with Parkinson&#39;s, such as medical issues, including symptoms and treatments.</span></p>\r\n<p>Best wishes,</p>\r\n<p><span style=\"line-height: 1.4;\">Ilona (Moderation Team).</span></p>\n      </div>\n      <meta itemprop='interactionCount' content='UserLikes:0'>\n      <meta itemprop='interactionCount' content='UserComments:0'>\n      <meta itemprop='headline' content='Levodopa Equivalent Dose Calculator'>\n      <hr>\n  </div>\n  <div itemscope itemtype='http://schema.org/DiscussionForumPosting'>\n      <div class='creator'>\n        <span>\n          <a href='/u/Supa'><b itemprop='author'>Supa</b></a>\n          \n          <time datetime='2016-03-08T09:01:57Z' itemprop='datePublished'>\n            2016-03-08 09:01:57 UTC\n          </time>\n        </span>\n        <span itemprop='position'>#16</span>\n      </div>\n      <div class='post' itemprop='articleBody'>\n        <p>Hi J</p>\r\n<p>I too take Madopar and Entacapone, 5 x 100/25 per day, and Madopar CR 100 last thing.and another Madopar 50/12,5 at about 4am. Diagnosed 2014.</p>\r\n<p>I am surprised that your OH takes CR during the day- usually only prescribed for nighttime.</p>\r\n<p>My consultant added Rasagiline (Azilect) In December hoping to help my movement, the worst of my symptoms, but about 3 weeks ago I stopped taking this because it was increasingly making me feel very sleepy during the day and slightly nauseous&nbsp; and wobbly. Back to normal now! It didn&#39;t&nbsp; help my mobility significantly so no loss there.</p>\r\n<p>Best wishes</p>\r\n<p>S</p>\n      </div>\n      <meta itemprop='interactionCount' content='UserLikes:0'>\n      <meta itemprop='interactionCount' content='UserComments:0'>\n      <meta itemprop='headline' content='Levodopa Equivalent Dose Calculator'>\n      <hr>\n  </div>\n  <div itemscope itemtype='http://schema.org/DiscussionForumPosting'>\n      <div class='creator'>\n        <span>\n          <a href='/u/budgies'><b itemprop='author'>budgies</b></a>\n          \n          <time datetime='2016-03-11T09:23:59Z' itemprop='datePublished'>\n            2016-03-11 09:23:59 UTC\n          </time>\n        </span>\n        <span itemprop='position'>#17</span>\n      </div>\n      <div class='post' itemprop='articleBody'>\n        <p>Has anyone got a partner on rivastigmine? My husband&#39;s consultant has suggested this for his currently mild memory loss. Needless to say I&#39;m distraught at the thought he might be heading towards dementia. Any words of comfort out there please?</p>\n      </div>\n      <meta itemprop='interactionCount' content='UserLikes:0'>\n      <meta itemprop='interactionCount' content='UserComments:0'>\n      <meta itemprop='headline' content='Levodopa Equivalent Dose Calculator'>\n      <hr>\n  </div>\n  <div itemscope itemtype='http://schema.org/DiscussionForumPosting'>\n      <div class='creator'>\n        <span>\n          <a href='/u/ELISA'><b itemprop='author'>ELISA</b></a>\n          \n          <time datetime='2019-03-14T17:00:18Z' itemprop='datePublished'>\n            2019-03-14 17:00:18 UTC\n          </time>\n        </span>\n        <span itemprop='position'>#18</span>\n      </div>\n      <div class='post' itemprop='articleBody'>\n        <p>Hello everybody, I’de like to have a piece of information regarding Safinamide. I’m looking everywhere around Pub Med and the internet to find a conversion factor in order to calculate the total LED of a subject that takes Sinemet (600mg/die) and Safinamide (50mg/die). Has anyone a clue about this? Thanks a lot in advance!</p>\n<p>Cheers,</p>\n<p>Elisa</p>\n      </div>\n      <meta itemprop='interactionCount' content='UserLikes:0'>\n      <meta itemprop='interactionCount' content='UserComments:0'>\n      <meta itemprop='headline' content='Levodopa Equivalent Dose Calculator'>\n      <hr>\n  </div>\n  <div itemscope itemtype='http://schema.org/DiscussionForumPosting'>\n      <div class='creator'>\n        <span>\n          <a href='/u/johnt'><b itemprop='author'>johnt</b></a>\n          \n          <time datetime='2019-03-18T00:12:41Z' itemprop='datePublished'>\n            2019-03-18 00:12:41 UTC\n          </time>\n        </span>\n        <span itemprop='position'>#19</span>\n      </div>\n      <div class='post' itemprop='articleBody'>\n        <p>I, too, have been unsuccessful in finding the scaling factor for safinamide.</p>\n<p>NICE [1] report on safinamide states:</p>\n<p>“A range of adjuvant treatments are available for people with Parkinson’s disease who are experiencing motor fluctuations on levodopa alone, including other MAO-B inhibitors (rasagiline and selegiline).”</p>\n<p>\" … safinamide has not been compared with other active treatments in a head-to-head trial, so no information is available on how its efficacy and safety compares with other treatments, particularly other MAO-B inhibitors. The EPAR states that indirect comparisons of data on safinamide with historical data on other treatments, such as rasagiline … were considered favourably\".</p>\n<p>“Safinamide differs from other MAO-B inhibitors in its mode of action, as it also has additional activity at non-MAO-B targets. However, the EPAR concluded that at therapeutic concentrations, inhibition of brain MAO-B was the most likely mechanism responsible for the observed increase in on time.”</p>\n<p>Once you have disabled all the MAO-B, increasing the dose of an inhibitor has no further effect. For rasagiline this threshold is approximately 1mg, giving a benefit equivalent to a dose of 100mg levodopa.</p>\n<p>But, and this is a very crude estimate, if pushed I would suggest that both a 50mg and 100mg dose of safinimide would have the same LED estimate as 1mg rasagiline. From this it follows that you map both 50mg and 100mg of safinamide to 100mg Sinemet (L/C).</p>\n<p>So, to answer your question:<br>\n600mg Sinemet plus 50mg safinamide has an estimated LEDD of 700mg</p>\n<p>The LED measure is based on the pharmacodynamics of the drug concerned (what the drug does to the body). If you are interested in the pharmacokinetics of safinamide (what the body does to the drug), you need to take into account both the absorption of safinamide and its effectiveness at inhibiting MAO-B. Again a rough approximation is to assume that because the half-life of safinamide (23 hours [2], compared with approximately 90 minutes for levodopa) is so long its efficacy is constant throughout the analysis.</p>\n<p>My apps don’t include safinamide, because of this lack of data. To use my apps [3], the basic LED calculator, and [4], the graph drawing program of LED changes through the day, the work-around is to just enter 1mg rasagiline instead.</p>\n<p>References:</p>\n<p>[1] NICE advice on safinamide, Feb 2017<br>\n<a href=\"https://www.nice.org.uk/advice/es6/chapter/Estimated-impact-for-the-NHS\" class=\"onebox\" target=\"_blank\" rel=\"nofollow noopener\">https://www.nice.org.uk/advice/es6/chapter/Estimated-impact-for-the-NHS</a></p>\n<p>[2] <a href=\"https://www.ncbi.nlm.nih.gov/pmc/articles/PMC6152599/\" rel=\"nofollow noopener\">https://www.ncbi.nlm.nih.gov/pmc/articles/PMC6152599/</a></p>\n<p>[3] Levodopa Equivalent Dose Calculator<br>\n<a href=\"https://www.parkinsonsmeasurement.org/toolBox/levodopaEquivalentDose.htm\" class=\"onebox\" target=\"_blank\" rel=\"nofollow noopener\">https://www.parkinsonsmeasurement.org/toolBox/levodopaEquivalentDose.htm</a></p>\n<p>[4] Levodopa Equivalent Minute to Minute Plasma Graphing Tool<br>\n<a href=\"https://www.parkinsonsmeasurement.org/toolBox/pharmacokinetics.htm\" class=\"onebox\" target=\"_blank\" rel=\"nofollow noopener\">https://www.parkinsonsmeasurement.org/toolBox/pharmacokinetics.htm</a></p>\n<p>John</p>\n      </div>\n      <meta itemprop='interactionCount' content='UserLikes:0'>\n      <meta itemprop='interactionCount' content='UserComments:0'>\n      <meta itemprop='headline' content='Levodopa Equivalent Dose Calculator'>\n      <hr>\n  </div>\n\n\n\n\n\n\n    </div>\n    <footer class=\"container\">\n      <nav class='crawler-nav' itemscope itemtype='http://schema.org/SiteNavigationElement'>\n        <a href='/'>Home</a>\n        <a href=\"/categories\">Categories</a>\n        <a href=\"/guidelines\">FAQ/Guidelines</a>\n        <a href=\"/tos\">Terms of Service</a>\n        <a href=\"/privacy\">Privacy Policy</a>\n      </nav>\n      <p class='powered-by-link'>Powered by <a href=\"https://www.discourse.org\">Discourse</a>, best viewed with JavaScript enabled</p>\n    </footer>\n    \n  </body>\n  \n</html>\n",
  "url": "https://forum.parkinsons.org.uk/t/levodopa-equivalent-dose-calculator/8742"
}