{
  "contentId": "f46b66d0-8863-11e9-8f96-97f71b5221d6",
  "html": "<!DOCTYPE html>\n<html lang=\"en\">\n  <head>\n    <meta charset=\"utf-8\">\n    <title>PD and a Hard Choice - Ways to take control - Parkinson&#39;s UK Forum</title>\n    <meta name=\"description\" content=\"I find myself 57, and with the PD has come a really difficult situation..My PD has taken a huge toll on my life my family and everyone around me. And as the symptoms have increased in the last 3 yrs.. meds control them w&amp;hellip;\">\n    <meta name=\"author\" content=\"\">\n<meta name=\"generator\" content=\"Discourse 2.2.5 - https://github.com/discourse/discourse version c294ff3609f988dcafb742e91606d60ca13b794d\">\n<link rel=\"icon\" type=\"image/png\" href=\"https://forum.parkinsons.org.uk/uploads/db7928/original/2X/3/311fc84f89f49f38601a2f16b295b6f03d3ce5dd.jpg\">\n<link rel=\"apple-touch-icon\" type=\"image/png\" href=\"https://forum.parkinsons.org.uk/uploads/db7928/original/2X/3/311fc84f89f49f38601a2f16b295b6f03d3ce5dd.jpg\">\n<meta name=\"theme-color\" content=\"#ffffff\">\n<meta name=\"viewport\" content=\"width=device-width, minimum-scale=1.0, maximum-scale=1.0, user-scalable=yes\">\n<link rel=\"canonical\" href=\"https://forum.parkinsons.org.uk/t/pd-and-a-hard-choice/9621\" />\n<script type=\"application/ld+json\">{\"@context\":\"http://schema.org\",\"@type\":\"WebSite\",\"url\":\"https://forum.parkinsons.org.uk\",\"potentialAction\":{\"@type\":\"SearchAction\",\"target\":\"https://forum.parkinsons.org.uk/search?q={search_term_string}\",\"query-input\":\"required name=search_term_string\"}}</script>\n<link rel=\"search\" type=\"application/opensearchdescription+xml\" href=\"https://forum.parkinsons.org.uk/opensearch.xml\" title=\"Parkinson&#39;s UK Forum Search\">\n\n      <link href=\"/stylesheets/desktop_f99246ae801b083d3e4cca979d0dade8615b39ac.css?__ws=forum.parkinsons.org.uk\" media=\"all\" rel=\"stylesheet\" data-target=\"desktop\" data-theme-id=\"12\"/>\n      <link href=\"/stylesheets/desktop_theme_12_5d27531cf43f9df0c03a6a6ec3109dd05f9dfc49.css?__ws=forum.parkinsons.org.uk\" media=\"all\" rel=\"stylesheet\" data-target=\"desktop_theme\" data-theme-id=\"12\"/>\n    <link href=\"https://fonts.googleapis.com/css?family=Open+Sans\" rel=\"stylesheet\">\n\n    <meta id=\"data-ga-universal-analytics\" data-tracking-code=\"UA-4855628-1\" data-json=\"{&quot;cookieDomain&quot;:&quot;auto&quot;}\" data-auto-link-domains=\"\">\n\n<link rel='preload' href='/assets/google-universal-analytics-f35b4da49411e6f5559073523aab983da483976a3954c79c756f8579f6fbd6ef.js' as='script'/>\n<script src='/assets/google-universal-analytics-f35b4da49411e6f5559073523aab983da483976a3954c79c756f8579f6fbd6ef.js'></script>\n\n      <link rel=\"alternate\" type=\"application/rss+xml\" title=\"RSS feed of &#39;PD and a Hard Choice&#39;\" href=\"https://forum.parkinsons.org.uk/t/pd-and-a-hard-choice/9621.rss\" />\n  <meta property=\"og:site_name\" content=\"Parkinson&#39;s UK Forum\" />\n<meta name=\"twitter:card\" content=\"summary\" />\n<meta name=\"twitter:image\" content=\"https://forum.parkinsons.org.uk/uploads/db7928/original/2X/3/311fc84f89f49f38601a2f16b295b6f03d3ce5dd.jpg\" />\n<meta property=\"og:image\" content=\"https://forum.parkinsons.org.uk/uploads/db7928/original/2X/3/311fc84f89f49f38601a2f16b295b6f03d3ce5dd.jpg\" />\n<meta property=\"og:url\" content=\"https://forum.parkinsons.org.uk/t/pd-and-a-hard-choice/9621\" />\n<meta name=\"twitter:url\" content=\"https://forum.parkinsons.org.uk/t/pd-and-a-hard-choice/9621\" />\n<meta property=\"og:title\" content=\"PD and a Hard Choice\" />\n<meta name=\"twitter:title\" content=\"PD and a Hard Choice\" />\n<meta property=\"og:description\" content=\"I find myself 57, and with the PD has come a really difficult situation..My PD has taken a huge toll on my life my family and everyone around me. And as the symptoms have increased in the last 3 yrs.. meds control them well enough for now...except when i am in stressful situations and then i literally go to pieces. I have been married to the same person 35 yrs and  she has issues with depression and verbal and physical outbursts directled at me and other adult family members..Worse is counseling...\" />\n<meta name=\"twitter:description\" content=\"I find myself 57, and with the PD has come a really difficult situation..My PD has taken a huge toll on my life my family and everyone around me. And as the symptoms have increased in the last 3 yrs.. meds control them well enough for now...except when i am in stressful situations and then i literally go to pieces. I have been married to the same person 35 yrs and  she has issues with depression and verbal and physical outbursts directled at me and other adult family members..Worse is counseling...\" />\n<meta property=\"article:published_time\" content=\"2016-12-21T03:17:26+00:00\" />\n<meta property=\"og:ignore_canonical\" content=\"true\" />\n\n\n\n    \n  </head>\n  <body class=\"crawler\">\n    <header role=\"banner\">\n    <div class=\"region region-header\">\n        <div class=\"region-header-wrapper\">\n            <div id=\"block-parkinsons-d8-branding\" class=\"block block-system block-system-branding-block\">\n                <a href=\"/\" title=\"Home\" rel=\"home\" class=\"site-logo\">\n                    <img src=\"https://forum.parkinsons.org.uk/uploads/db7928/original/2X/8/862bb7d172e7d127e7f3e147ec43594aa62ac945.png\" alt=\"Parkinson's UK. Change Attitudes. Find a cure. Join us.\">\n                </a>\n            </div>\n            <div id=\"block-helpline\" class=\"block block-block-content block-block-content871cd5af-b938-4947-9dc0-d5c211d08fe3 style-phone\">\n                <div class=\"field field--name-field-link field--type-link field--label-hidden field__item\"><a href=\"tel:+448088000303\">Helpline 0808 800 0303</a></div>\n            </div>\n            <div id=\"block-shop\" class=\"block block-block-content block-block-content6fba5ae5-7797-49cd-8367-f321d8111cd6 style-regular\">\n                <div class=\"field field--name-field-link field--type-link field--label-hidden field__item\"><a href=\"https://shop.parkinsons.org.uk\">Shop</a></div>\n            </div>\n        </div>\n    </div>\n</header>\n\n\n<script src=\"/theme-javascripts/b7e9763fcb584fc8265c56a9f557cd6d2e1e8ed8.js?__ws=forum.parkinsons.org.uk\"></script>\n    <header>\n      <a href=\"/\">\n          <img src=\"https://forum.parkinsons.org.uk/uploads/db7928/original/2X/8/862bb7d172e7d127e7f3e147ec43594aa62ac945.png\" alt=\"Parkinson&#39;s UK Forum\" id=\"site-logo\" style=\"max-width: 150px;\">\n      </a>\n    </header>\n    <div id=\"main-outlet\" class=\"wrap\">\n      <h1>\n  <a href=\"/t/pd-and-a-hard-choice/9621\">PD and a Hard Choice</a>\n</h1>\n\n<div id='breadcrumbs'>\n    <div id=\"breadcrumb-0\" itemscope itemtype=\"http://data-vocabulary.org/Breadcrumb\"\n        itemref=\"breadcrumb-1\"\n      >\n      <a href=\"/c/taking-control\" itemprop=\"url\">\n        <span itemprop=\"title\">Taking Control</span>\n      </a>\n    </div>\n    <div id=\"breadcrumb-1\" itemscope itemtype=\"http://data-vocabulary.org/Breadcrumb\"\n>\n      <a href=\"/c/taking-control/ways-to-take-control\" itemprop=\"url\">\n        <span itemprop=\"title\">Ways to take control</span>\n      </a>\n    </div>\n</div>\n\n\n\n\n\n<hr>\n\n\n  <div itemscope itemtype='http://schema.org/DiscussionForumPosting'>\n      <div class='creator'>\n        <span>\n          <a href='/u/Primo'><b itemprop='author'>Primo</b></a>\n          \n          <time datetime='2016-12-21T03:17:26Z' itemprop='datePublished'>\n            2016-12-21 03:17:26 UTC\n          </time>\n        </span>\n        <span itemprop='position'>#1</span>\n      </div>\n      <div class='post' itemprop='articleBody'>\n        <p>I find myself 57, and with the PD has come a really difficult situation..My PD has taken a huge toll on my life my family and everyone around me. And as the symptoms have increased in the last 3 yrs..&nbsp;meds control them well enough for now...except when i am in stressful situations and then i literally go to pieces. I have been married to the same person 35 yrs and &nbsp;she has issues with depression and verbal and physical outbursts directled at&nbsp;me and other adult family members..Worse is counseling and therapy hasnt helped control or avoid&nbsp;any of it ....Question to forum? Given your progressive PD, in similar circumstance if you believed as well as others&nbsp;that your health was being impacted..would you/could you/should you... leave the situation to be in a more compassionate environment and with a person more compassionate and&nbsp;understanding&nbsp;regarding PD and your general health&nbsp;and welfare..? Or stay and start to circle the drain...</p>\r\n<p>I left much out...to avoid over-sharing, and&nbsp;I feel&nbsp;so guilty and quite sad ,even afraid asking for advice..im miserable.. &nbsp;need a lifeline....i know it...and found one...SO NOW WHAT?</p>\r\n<p>PS...no not new or&nbsp;impulsive behavior..knew 5 yrs ago before the PD and before meds..should have faced it then and not now...Help Forum-ers</p>\n      </div>\n      <meta itemprop='interactionCount' content='UserLikes:0'>\n      <meta itemprop='interactionCount' content='UserComments:0'>\n      <meta itemprop='headline' content='PD and a Hard Choice'>\n      <hr>\n  </div>\n  <div itemscope itemtype='http://schema.org/DiscussionForumPosting'>\n      <div class='creator'>\n        <span>\n          <a href='/u/DivineR'><b itemprop='author'>DivineR</b></a>\n          \n          <time datetime='2016-12-21T13:13:24Z' itemprop='datePublished'>\n            2016-12-21 13:13:24 UTC\n          </time>\n        </span>\n        <span itemprop='position'>#2</span>\n      </div>\n      <div class='post' itemprop='articleBody'>\n        I feel for you and your situation.  I have no great answer for you but don't factor in the PD in your decision.  What would you do if you hadn't got PD. It sounds like your health is not the issue. If you feel you've done everything you can to help your partner and can leave without guilt. Well maybe your mind is made up.\r\n\r\nDivineR\n      </div>\n      <meta itemprop='interactionCount' content='UserLikes:0'>\n      <meta itemprop='interactionCount' content='UserComments:1'>\n      <meta itemprop='headline' content='PD and a Hard Choice'>\n      <hr>\n  </div>\n  <div itemscope itemtype='http://schema.org/DiscussionForumPosting'>\n      <div class='creator'>\n        <span>\n          <a href='/u/Primo'><b itemprop='author'>Primo</b></a>\n          \n          <time datetime='2016-12-21T21:06:38Z' itemprop='datePublished'>\n            2016-12-21 21:06:38 UTC\n          </time>\n        </span>\n        <span itemprop='position'>#3</span>\n      </div>\n      <div class='post' itemprop='articleBody'>\n        <p>Thanks mate, Appreciate you response and that you did so without calling me a total nit...i am swimming in de-nile&nbsp;and going under but in some form think my survival instinct is over ridding my sense of commitment and loyalty and my panic is rooted in my inability to control the course of my PD or effect a change in behavior. It appears we are both doing battle seperately..but not as one unified team. I&#39;ve always been there in the past but i think that is called an enabler..or am i just co-dependant...Not sure i need to know...</p>\n      </div>\n      <meta itemprop='interactionCount' content='UserLikes:0'>\n      <meta itemprop='interactionCount' content='UserComments:0'>\n      <meta itemprop='headline' content='PD and a Hard Choice'>\n      <hr>\n  </div>\n  <div itemscope itemtype='http://schema.org/DiscussionForumPosting'>\n      <div class='creator'>\n        <span>\n          <a href='/u/DivineR'><b itemprop='author'>DivineR</b></a>\n          \n          <time datetime='2016-12-21T22:46:46Z' itemprop='datePublished'>\n            2016-12-21 22:46:46 UTC\n          </time>\n        </span>\n        <span itemprop='position'>#4</span>\n      </div>\n      <div class='post' itemprop='articleBody'>\n        Maybe you have to separate yourself from the situation for a while to clear your thoughts.  Who knows you could find that there's still something to fight for. Good luck. I guess you're the only one to make any decisions as  then you have no one else to blame. Sometimes you have to go through alot of confusion to get to the clarity.\r\n\r\nDivineR\n      </div>\n      <meta itemprop='interactionCount' content='UserLikes:0'>\n      <meta itemprop='interactionCount' content='UserComments:0'>\n      <meta itemprop='headline' content='PD and a Hard Choice'>\n      <hr>\n  </div>\n\n\n\n\n\n\n    </div>\n    <footer class=\"container\">\n      <nav class='crawler-nav' itemscope itemtype='http://schema.org/SiteNavigationElement'>\n        <a href='/'>Home</a>\n        <a href=\"/categories\">Categories</a>\n        <a href=\"/guidelines\">FAQ/Guidelines</a>\n        <a href=\"/tos\">Terms of Service</a>\n        <a href=\"/privacy\">Privacy Policy</a>\n      </nav>\n      <p class='powered-by-link'>Powered by <a href=\"https://www.discourse.org\">Discourse</a>, best viewed with JavaScript enabled</p>\n    </footer>\n    \n  </body>\n  \n</html>\n",
  "url": "https://forum.parkinsons.org.uk/t/pd-and-a-hard-choice/9621"
}