{
  "contentId": "272c9a60-8870-11e9-8f96-97f71b5221d6",
  "html": "<!DOCTYPE html>\n<html lang=\"en\">\n  <head>\n    <meta charset=\"utf-8\">\n    <title>Dopamine Dysregulation Syndrome - Impulsive and compulsive behaviour - Parkinson&#39;s UK Forum</title>\n    <meta name=\"description\" content=\"Dopamine Dysregulation Syndrome is a side effect caused by the daily use of Miropexin So serious are its side effects that it has led to the breakdown of marriages. I have just found out that U have it, my marriage ended&amp;hellip;\">\n    <meta name=\"author\" content=\"\">\n<meta name=\"generator\" content=\"Discourse 2.2.5 - https://github.com/discourse/discourse version c294ff3609f988dcafb742e91606d60ca13b794d\">\n<link rel=\"icon\" type=\"image/png\" href=\"https://forum.parkinsons.org.uk/uploads/db7928/original/2X/3/311fc84f89f49f38601a2f16b295b6f03d3ce5dd.jpg\">\n<link rel=\"apple-touch-icon\" type=\"image/png\" href=\"https://forum.parkinsons.org.uk/uploads/db7928/original/2X/3/311fc84f89f49f38601a2f16b295b6f03d3ce5dd.jpg\">\n<meta name=\"theme-color\" content=\"#ffffff\">\n<meta name=\"viewport\" content=\"width=device-width, minimum-scale=1.0, maximum-scale=1.0, user-scalable=yes\">\n<link rel=\"canonical\" href=\"https://forum.parkinsons.org.uk/t/dopamine-dysregulation-syndrome/1048?page=6\" />\n<script type=\"application/ld+json\">{\"@context\":\"http://schema.org\",\"@type\":\"WebSite\",\"url\":\"https://forum.parkinsons.org.uk\",\"potentialAction\":{\"@type\":\"SearchAction\",\"target\":\"https://forum.parkinsons.org.uk/search?q={search_term_string}\",\"query-input\":\"required name=search_term_string\"}}</script>\n<link rel=\"search\" type=\"application/opensearchdescription+xml\" href=\"https://forum.parkinsons.org.uk/opensearch.xml\" title=\"Parkinson&#39;s UK Forum Search\">\n\n      <link href=\"/stylesheets/desktop_f99246ae801b083d3e4cca979d0dade8615b39ac.css?__ws=forum.parkinsons.org.uk\" media=\"all\" rel=\"stylesheet\" data-target=\"desktop\" data-theme-id=\"12\"/>\n      <link href=\"/stylesheets/desktop_theme_12_5d27531cf43f9df0c03a6a6ec3109dd05f9dfc49.css?__ws=forum.parkinsons.org.uk\" media=\"all\" rel=\"stylesheet\" data-target=\"desktop_theme\" data-theme-id=\"12\"/>\n    <link href=\"https://fonts.googleapis.com/css?family=Open+Sans\" rel=\"stylesheet\">\n\n    <meta id=\"data-ga-universal-analytics\" data-tracking-code=\"UA-4855628-1\" data-json=\"{&quot;cookieDomain&quot;:&quot;auto&quot;}\" data-auto-link-domains=\"\">\n\n<link rel='preload' href='/assets/google-universal-analytics-f35b4da49411e6f5559073523aab983da483976a3954c79c756f8579f6fbd6ef.js' as='script'/>\n<script src='/assets/google-universal-analytics-f35b4da49411e6f5559073523aab983da483976a3954c79c756f8579f6fbd6ef.js'></script>\n\n      <link rel=\"alternate\" type=\"application/rss+xml\" title=\"RSS feed of &#39;Dopamine Dysregulation Syndrome&#39;\" href=\"https://forum.parkinsons.org.uk/t/dopamine-dysregulation-syndrome/1048.rss\" />\n  <meta property=\"og:site_name\" content=\"Parkinson&#39;s UK Forum\" />\n<meta name=\"twitter:card\" content=\"summary\" />\n<meta name=\"twitter:image\" content=\"https://forum.parkinsons.org.uk/uploads/db7928/original/2X/3/311fc84f89f49f38601a2f16b295b6f03d3ce5dd.jpg\" />\n<meta property=\"og:image\" content=\"https://forum.parkinsons.org.uk/uploads/db7928/original/2X/3/311fc84f89f49f38601a2f16b295b6f03d3ce5dd.jpg\" />\n<meta property=\"og:url\" content=\"https://forum.parkinsons.org.uk/t/dopamine-dysregulation-syndrome/1048?page=6\" />\n<meta name=\"twitter:url\" content=\"https://forum.parkinsons.org.uk/t/dopamine-dysregulation-syndrome/1048?page=6\" />\n<meta property=\"og:title\" content=\"Dopamine Dysregulation Syndrome\" />\n<meta name=\"twitter:title\" content=\"Dopamine Dysregulation Syndrome\" />\n<meta property=\"og:description\" content=\"Thanks for your support olive, I am so sorry to hear of your husband and families problems related to DA&#39;s. I have been dx for 12 years now and back then nobody was even informed about the possible side effects of compulsive or obsessional behaviors, so we just took the meds for years. It has destroyed lives over the years and obviously still is, which indicates that for some reason the messages are still not very effective.   The only way that we can combat this is on mass, if anybody wishes to...\" />\n<meta name=\"twitter:description\" content=\"Thanks for your support olive, I am so sorry to hear of your husband and families problems related to DA&#39;s. I have been dx for 12 years now and back then nobody was even informed about the possible side effects of compulsive or obsessional behaviors, so we just took the meds for years. It has destroyed lives over the years and obviously still is, which indicates that for some reason the messages are still not very effective.   The only way that we can combat this is on mass, if anybody wishes to...\" />\n<meta property=\"article:published_time\" content=\"2013-01-28T14:42:05+00:00\" />\n<meta property=\"og:ignore_canonical\" content=\"true\" />\n\n      <link rel=\"prev\" href=\"/t/dopamine-dysregulation-syndrome/1048?page=5\">\n      <link rel=\"next\" href=\"/t/dopamine-dysregulation-syndrome/1048?page=7\">\n\n\n    \n  </head>\n  <body class=\"crawler\">\n    <header role=\"banner\">\n    <div class=\"region region-header\">\n        <div class=\"region-header-wrapper\">\n            <div id=\"block-parkinsons-d8-branding\" class=\"block block-system block-system-branding-block\">\n                <a href=\"/\" title=\"Home\" rel=\"home\" class=\"site-logo\">\n                    <img src=\"https://forum.parkinsons.org.uk/uploads/db7928/original/2X/8/862bb7d172e7d127e7f3e147ec43594aa62ac945.png\" alt=\"Parkinson's UK. Change Attitudes. Find a cure. Join us.\">\n                </a>\n            </div>\n            <div id=\"block-helpline\" class=\"block block-block-content block-block-content871cd5af-b938-4947-9dc0-d5c211d08fe3 style-phone\">\n                <div class=\"field field--name-field-link field--type-link field--label-hidden field__item\"><a href=\"tel:+448088000303\">Helpline 0808 800 0303</a></div>\n            </div>\n            <div id=\"block-shop\" class=\"block block-block-content block-block-content6fba5ae5-7797-49cd-8367-f321d8111cd6 style-regular\">\n                <div class=\"field field--name-field-link field--type-link field--label-hidden field__item\"><a href=\"https://shop.parkinsons.org.uk\">Shop</a></div>\n            </div>\n        </div>\n    </div>\n</header>\n\n\n<script src=\"/theme-javascripts/b7e9763fcb584fc8265c56a9f557cd6d2e1e8ed8.js?__ws=forum.parkinsons.org.uk\"></script>\n    <header>\n      <a href=\"/\">\n          <img src=\"https://forum.parkinsons.org.uk/uploads/db7928/original/2X/8/862bb7d172e7d127e7f3e147ec43594aa62ac945.png\" alt=\"Parkinson&#39;s UK Forum\" id=\"site-logo\" style=\"max-width: 150px;\">\n      </a>\n    </header>\n    <div id=\"main-outlet\" class=\"wrap\">\n      <h1>\n  <a href=\"/t/dopamine-dysregulation-syndrome/1048\">Dopamine Dysregulation Syndrome</a>\n</h1>\n\n<div id='breadcrumbs'>\n    <div id=\"breadcrumb-0\" itemscope itemtype=\"http://data-vocabulary.org/Breadcrumb\"\n        itemref=\"breadcrumb-1\"\n      >\n      <a href=\"/c/about-parkinsons-and-health\" itemprop=\"url\">\n        <span itemprop=\"title\">About Parkinson&#39;s and health</span>\n      </a>\n    </div>\n    <div id=\"breadcrumb-1\" itemscope itemtype=\"http://data-vocabulary.org/Breadcrumb\"\n>\n      <a href=\"/c/about-parkinsons-and-health/impulsive-and-compulsive-behaviour\" itemprop=\"url\">\n        <span itemprop=\"title\">Impulsive and compulsive behaviour</span>\n      </a>\n    </div>\n</div>\n\n\n\n\n\n<hr>\n\n\n  <div itemscope itemtype='http://schema.org/DiscussionForumPosting'>\n      <div class='creator'>\n        <span>\n          <a href='/u/glenchass'><b itemprop='author'>glenchass</b></a>\n          \n          <time datetime='2013-01-28T14:42:05Z' itemprop='datePublished'>\n            2013-01-28 14:42:05 UTC\n          </time>\n        </span>\n        <span itemprop='position'>#101</span>\n      </div>\n      <div class='post' itemprop='articleBody'>\n        Thanks for your support olive, I am so sorry to hear of your husband and families problems related to DA's. I have been dx for 12 years now and back then nobody was even informed about the possible side effects of compulsive or obsessional behaviors, so we just took the meds for years. It has destroyed lives over the years and obviously still is, which indicates that for some reason the messages are still not very effective. <br><br>The only way that we can combat this is on mass, if anybody wishes to contact me by e mail please feel free to do so.<br><br>regards<br>glenchass\n      </div>\n      <meta itemprop='interactionCount' content='UserLikes:0'>\n      <meta itemprop='interactionCount' content='UserComments:0'>\n      <meta itemprop='headline' content='Dopamine Dysregulation Syndrome'>\n      <hr>\n  </div>\n  <div itemscope itemtype='http://schema.org/DiscussionForumPosting'>\n      <div class='creator'>\n        <span>\n          <a href='/u/goldengirl'><b itemprop='author'>goldengirl</b></a>\n          \n          <time datetime='2013-01-29T09:42:07Z' itemprop='datePublished'>\n            2013-01-29 09:42:07 UTC\n          </time>\n        </span>\n        <span itemprop='position'>#102</span>\n      </div>\n      <div class='post' itemprop='articleBody'>\n        Leyther's suggestions are very useful.<br>I would like a response from those working for PDUK<br>eg Suma and Blueeyes, whose remit is to ensure all health workers are fully aware of the problem, and dealing with the drug companies.<br>The ICD unit has been operating for some time now and little progress seems to be made.<br>I am still waiting for a legal response explaining how we launch a class action.<br>GG\n      </div>\n      <meta itemprop='interactionCount' content='UserLikes:0'>\n      <meta itemprop='interactionCount' content='UserComments:0'>\n      <meta itemprop='headline' content='Dopamine Dysregulation Syndrome'>\n      <hr>\n  </div>\n  <div itemscope itemtype='http://schema.org/DiscussionForumPosting'>\n      <div class='creator'>\n        <span>\n          <a href='/u/magic909'><b itemprop='author'>magic909</b></a>\n          \n          <time datetime='2013-01-29T17:22:49Z' itemprop='datePublished'>\n            2013-01-29 17:22:49 UTC\n          </time>\n        </span>\n        <span itemprop='position'>#103</span>\n      </div>\n      <div class='post' itemprop='articleBody'>\n        while i suffer from the side effects of the requip medication im on i was a gambler already so cant blame it all on the drug  . but what has got worse is impulsive gambling which has had severe efffects on my  state of mind as well as my wallet  but im getting help now with the gambling from gamblers  anon but is it worthwhile looking to sue the biggies as i call them  I DONT KNOW ??\n      </div>\n      <meta itemprop='interactionCount' content='UserLikes:0'>\n      <meta itemprop='interactionCount' content='UserComments:0'>\n      <meta itemprop='headline' content='Dopamine Dysregulation Syndrome'>\n      <hr>\n  </div>\n  <div itemscope itemtype='http://schema.org/DiscussionForumPosting'>\n      <div class='creator'>\n        <span>\n          <a href='/u/deleted.user'><b itemprop='author'>deleted.user</b></a>\n          \n          <time datetime='2013-01-29T17:41:30Z' itemprop='datePublished'>\n            2013-01-29 17:41:30 UTC\n          </time>\n        </span>\n        <span itemprop='position'>#104</span>\n      </div>\n      <div class='post' itemprop='articleBody'>\n        Hi all,<br><br>I've made a posting in the 'Where we are at and where we are going at Parkinson's UK' discussion as an update to the whole group.<br><br>Suma\n      </div>\n      <meta itemprop='interactionCount' content='UserLikes:0'>\n      <meta itemprop='interactionCount' content='UserComments:0'>\n      <meta itemprop='headline' content='Dopamine Dysregulation Syndrome'>\n      <hr>\n  </div>\n  <div itemscope itemtype='http://schema.org/DiscussionForumPosting'>\n      <div class='creator'>\n        <span>\n          <a href='/u/goldengirl'><b itemprop='author'>goldengirl</b></a>\n          \n          <time datetime='2013-01-31T08:10:33Z' itemprop='datePublished'>\n            2013-01-31 08:10:33 UTC\n          </time>\n        </span>\n        <span itemprop='position'>#105</span>\n      </div>\n      <div class='post' itemprop='articleBody'>\n        Thank you Suma,<br> It is good to read that we may soon have some legal advice about our situation.<br>Can you tell us how far you have got in dealing with the drug companies and their response to our plight?<br>It is clear many consultants are still denying these devastating side effects. How much progress is being made in getting the facts across?<br>GG\n      </div>\n      <meta itemprop='interactionCount' content='UserLikes:0'>\n      <meta itemprop='interactionCount' content='UserComments:0'>\n      <meta itemprop='headline' content='Dopamine Dysregulation Syndrome'>\n      <hr>\n  </div>\n  <div itemscope itemtype='http://schema.org/DiscussionForumPosting'>\n      <div class='creator'>\n        <span>\n          <a href='/u/Draward'><b itemprop='author'>Draward</b></a>\n          \n          <time datetime='2013-02-03T14:52:28Z' itemprop='datePublished'>\n            2013-02-03 14:52:28 UTC\n          </time>\n        </span>\n        <span itemprop='position'>#106</span>\n      </div>\n      <div class='post' itemprop='articleBody'>\n        All drugs have side effects, and of course someone should be informed of them before taking them.<br>I do not believe in the Maxim that you should \"walk in someone else's shoes\" in order to have an opinion, I doubt that many researchers have PD either.<br>I think what it boils down to is that we are the \"guinea pig\" generations for this condition. Hopefully a cure, probably genetic, will be found before our grandchildren begin to suffer. Mistakes, misinformation and just sheer in-competence by professionals will happen, if you get compensation good luck to you, I just hope it doesn't come from money that could be used for research.\n      </div>\n      <meta itemprop='interactionCount' content='UserLikes:0'>\n      <meta itemprop='interactionCount' content='UserComments:0'>\n      <meta itemprop='headline' content='Dopamine Dysregulation Syndrome'>\n      <hr>\n  </div>\n  <div itemscope itemtype='http://schema.org/DiscussionForumPosting'>\n      <div class='creator'>\n        <span>\n          <a href='/u/Eileenpatricia'><b itemprop='author'>Eileenpatricia</b></a>\n          \n          <time datetime='2013-02-03T20:44:48Z' itemprop='datePublished'>\n            2013-02-03 20:44:48 UTC\n          </time>\n        </span>\n        <span itemprop='position'>#107</span>\n      </div>\n      <div class='post' itemprop='articleBody'>\n        I have no particular  personal axe to grind but I am dismayed the attitude of people who worry in case a small percentage of Big Pharma's profits or even the funds of Parkinsons UK might be spent on helping people get <strong>redress</strong> i.e. be helped turn the clock back tto some extent at least financially.  Nothing can compensate for the psychological and emotional damage and its a pity that the word compensation has to be used in this context. As you imply, those who have turned out to be guinea pigs are part of the ongoing process of discovery about PD.  As such they have contributed to the fact that I, with my family history alcoholic (and much else besides) father and ocd mother, have been able to resist d.a.'s in the last four years.  Now that the problem is recognised, thanks to patient power, and in spite of the drug companies I feel much happier that I might have to include d.a.'s some time knowing that there is acknowledgement of the problem.  That must be worth a bob or two?  In fact,  knowing that they might be called to account for side effects might have caused the drug companies to spend more in researching the drugs and less effort down-playing the side effects.\n      </div>\n      <meta itemprop='interactionCount' content='UserLikes:0'>\n      <meta itemprop='interactionCount' content='UserComments:0'>\n      <meta itemprop='headline' content='Dopamine Dysregulation Syndrome'>\n      <hr>\n  </div>\n  <div itemscope itemtype='http://schema.org/DiscussionForumPosting'>\n      <div class='creator'>\n        <span>\n          <a href='/u/Eileenpatricia'><b itemprop='author'>Eileenpatricia</b></a>\n          \n          <time datetime='2013-02-03T20:46:31Z' itemprop='datePublished'>\n            2013-02-03 20:46:31 UTC\n          </time>\n        </span>\n        <span itemprop='position'>#108</span>\n      </div>\n      <div class='post' itemprop='articleBody'>\n        I have no particular  personal axe to grind but I am dismayed the attitude of people who worry in case a small percentage of Big Pharma's profits or even the funds of Parkinsons UK might be spent on helping people get <strong>redress</strong> i.e. be helped turn the clock back tto some extent at least financially.  Nothing can compensate for the psychological and emotional damage and its a pity that the word compensation has to be used in this context. As you imply, those who have turned out to be guinea pigs are part of the ongoing process of discovery about PD.  As such they have contributed to the fact that I, with my family history alcoholic (and much else besides) father and ocd mother, have been able to resist d.a.'s in the last four years.  Now that the problem is recognised, thanks to patient power, and in spite of the drug companies I feel much happier that I might have to include d.a.'s some time knowing that there is acknowledgement of the problem.  That must be worth a bob or two?  In fact,  knowing that they might be called to account for side effects might have caused the drug companies to spend more in researching the drugs and less effort down-playing the side\n      </div>\n      <meta itemprop='interactionCount' content='UserLikes:0'>\n      <meta itemprop='interactionCount' content='UserComments:0'>\n      <meta itemprop='headline' content='Dopamine Dysregulation Syndrome'>\n      <hr>\n  </div>\n  <div itemscope itemtype='http://schema.org/DiscussionForumPosting'>\n      <div class='creator'>\n        <span>\n          <a href='/u/Hikoi'><b itemprop='author'>Hikoi</b></a>\n          \n          <time datetime='2013-02-05T02:00:22Z' itemprop='datePublished'>\n            2013-02-05 02:00:22 UTC\n          </time>\n        </span>\n        <span itemprop='position'>#109</span>\n      </div>\n      <div class='post' itemprop='articleBody'>\n        Re \"I do not seek revenge. I needed the consultant who had prescribed ever-increasing amounts of RequipXL (36 mg for the last 3 years) to admit he had been wrong\"<br><br>Goldengirl,<br> if it is for the consultant to hear and acknowledge the effects of his prescribing would PALS be of any use?  I hope that isnt niaive.  I have had positive experiences with them on a much smaller matter.  I know this is only part of the issue but feeling acknowledged is so important.\n      </div>\n      <meta itemprop='interactionCount' content='UserLikes:0'>\n      <meta itemprop='interactionCount' content='UserComments:0'>\n      <meta itemprop='headline' content='Dopamine Dysregulation Syndrome'>\n      <hr>\n  </div>\n  <div itemscope itemtype='http://schema.org/DiscussionForumPosting'>\n      <div class='creator'>\n        <span>\n          <a href='/u/Leyther'><b itemprop='author'>Leyther</b></a>\n          \n          <time datetime='2013-02-05T14:07:29Z' itemprop='datePublished'>\n            2013-02-05 14:07:29 UTC\n          </time>\n        </span>\n        <span itemprop='position'>#110</span>\n      </div>\n      <div class='post' itemprop='articleBody'>\n        Any company that produces a product for public consumption will have a risk management strategy. This will take into account the potential for that product to cause harm to consumers due to circumstances that only come to light after the product enters the market.<br><br>The company will make a judgement as to the potential extent of the problem and allocate a cost to it. They will then either pay an insurer to underwrite the sum or  they will make some allowance in the selling price. Either way they will cover at least some if not all costs.<br><br>That is sound business management and from what I have read is the usual case in the  Pharmaceutical industry.<br><br>If the company does not adopt a risk strategy and they are found liable, the monies to pay those patients affected will come out of their profits.<br><br>Either way a company will dig its heels before it pays out, that is obvious.<br><br>My situation is similar to that of Golden Girl in that I was prescribed Mirapexin in excess of the manufacturers stated maximum dose for 5 years, the last two I was taking 8.4 mg of Mirapexin (max stated dose 3.18mg)<br><br>However, I did not question the high dose with my neurologist because I trusted his judgement implicitly. Also the leaflet with the drug stated that I could take in excess of the maximum dose at the discretion to  of my neurologist, or words to that effect.<br><br>I can only speak from personal experience, I cannot say for sure it was the high dosage that caused my behavioural problems, evidence from other PWP's that I know of indicate that some PWP are susceptible to doses far less than maximum whilst others report no problems on a maximum dose.<br><br>The manufacturer's acceptance that behavioural side effects due as a direct result of the drug they manufactured is not in question. Initially the leaflets with my Mirapexin mentioned hypersexuality and gambling problems.<br><br>However, this was evidently not adequate as the warnings on the leaflets increased  and eventually I was asked if my behaviour had changed by my neurologist. Furthermore, because the of the insidious nature of the drugs side effects, by the time this was asked of me I was too far down the line. I was addicted to the behaviour and only the fact that I was in danger of losing my job led me to voice my problems.<br><br>I have no doubt that if I had been financially stable enough to not have to work I would still be on the same high dose.          <br><br>For the future that means that ALL neurologists need adequate screening programmes for the newly diagnosed and training to recognise the behaviour of those having problems.<br><br>Those of us that have been affected already may need an aftercare program.<br><br>If these systems are put in place and are both mandatory and consistent the problem of those who require help / compensation can be ring fenced.<br><br>These are the PWP who suffered loss, due to a lack of information and monitoring now accepted as a requirement to administer the drugs.<br><br>These people need to make themselves known and their loss assessed and valued.<br><br>You then have the basis of a claim for compensation.<br><br>How do we do it?<br><br>Not easy for PWP's for a variety of reasons. We need help from somewhere.<br><br>It's either going to be lawyers who will inevitably push the value of the claims up.  This creates an entrenched position by the drug companies.<br><br>Some have felt the PUK should get involved as the nearest thing to a recognised body for PWP in the UK.<br><br>If they at least undertook to help with the assessment and valuation stage, the drug companies would know a settlement figure.<br><br>I personally believe we have to be realistic in our personal expectations of a claim sum.<br><br>The drug companies also need to recognise that these drugs will still be available after any settlement. They will still be profitable.<br><br>This is a huge issue for all PWP and has been for years. <br><br>Help from the PUK would be of great advantage in addressing it.<br><br>Leyther\n      </div>\n      <meta itemprop='interactionCount' content='UserLikes:0'>\n      <meta itemprop='interactionCount' content='UserComments:0'>\n      <meta itemprop='headline' content='Dopamine Dysregulation Syndrome'>\n      <hr>\n  </div>\n  <div itemscope itemtype='http://schema.org/DiscussionForumPosting'>\n      <div class='creator'>\n        <span>\n          <a href='/u/goldengirl'><b itemprop='author'>goldengirl</b></a>\n          \n          <time datetime='2013-02-05T17:09:32Z' itemprop='datePublished'>\n            2013-02-05 17:09:32 UTC\n          </time>\n        </span>\n        <span itemprop='position'>#111</span>\n      </div>\n      <div class='post' itemprop='articleBody'>\n        Thank you Hikoi for caring.<br>PALS can't help because we always paid to see the consultant and they can't intervene in the private sector.<br>Since we transferred to the NHS  we have so much better care.<br>We were never told of the existence of the Parkinson's nurse!<br>Leyther, you write eloquently.<br>I do hope PDUK respond.<br>And Suma and Blue-eyes, I am still waiting...<br>GG<br>X\n      </div>\n      <meta itemprop='interactionCount' content='UserLikes:0'>\n      <meta itemprop='interactionCount' content='UserComments:0'>\n      <meta itemprop='headline' content='Dopamine Dysregulation Syndrome'>\n      <hr>\n  </div>\n  <div itemscope itemtype='http://schema.org/DiscussionForumPosting'>\n      <div class='creator'>\n        <span>\n          <a href='/u/glenchass'><b itemprop='author'>glenchass</b></a>\n          \n          <time datetime='2013-02-05T17:17:17Z' itemprop='datePublished'>\n            2013-02-05 17:17:17 UTC\n          </time>\n        </span>\n        <span itemprop='position'>#112</span>\n      </div>\n      <div class='post' itemprop='articleBody'>\n        Well said Leyther. When I was prescribed Requip there were no warnings at all about  any possibility of OCD at all and I certainly received no warnings from my neuro. In fact my husband brought his concerns about my behavior to our neurologist and he took me off the meds without telling us why! I only found out why a couple of years later when I saw something about it and put two and two together,at that time I was on 30mg of Requip. I changed neuro's and was told by my new neuro that she would never prescribe more than 24mgs, talk about being in the hands of your doctor!!<br><br>We trust these people to know what they are doing and when it all goes wrong we are  left to get on with it.<br><br>I, like Golden Girl and Leyther believe that Parkinsons UK have a responsibility to help us even if that is only by being given appropriate advise regarding how we can address this issue with the pharmaceutics.<br><br>Glenchass\n      </div>\n      <meta itemprop='interactionCount' content='UserLikes:0'>\n      <meta itemprop='interactionCount' content='UserComments:0'>\n      <meta itemprop='headline' content='Dopamine Dysregulation Syndrome'>\n      <hr>\n  </div>\n  <div itemscope itemtype='http://schema.org/DiscussionForumPosting'>\n      <div class='creator'>\n        <span>\n          <a href='/u/Hikoi'><b itemprop='author'>Hikoi</b></a>\n          \n          <time datetime='2013-02-06T09:10:47Z' itemprop='datePublished'>\n            2013-02-06 09:10:47 UTC\n          </time>\n        </span>\n        <span itemprop='position'>#113</span>\n      </div>\n      <div class='post' itemprop='articleBody'>\n        I was again confronted with the enormity of this problem globally when I talking to a Scandinavian friend who has lost her  life savings and now has sold her home to survive (she isn't entitled to benefits at present.). <br><br>The problem is international.  I know the concern here is local and that is appropriate but I think we can still learn from others experience.  Have links have been made with people overseas about their efforts to get compensation?  Have their charities  been involved and in what way?    Although laws are different the drug company concerned is the same.  <br><br>There are some good ideas here on what needs to be done and some ideas on the next step, deciding how to tackle this. I am new to the discussion so i don't know what has been done so far, whether a meeting has been called,  if anyone is collecting background information etc.\n      </div>\n      <meta itemprop='interactionCount' content='UserLikes:0'>\n      <meta itemprop='interactionCount' content='UserComments:0'>\n      <meta itemprop='headline' content='Dopamine Dysregulation Syndrome'>\n      <hr>\n  </div>\n  <div itemscope itemtype='http://schema.org/DiscussionForumPosting'>\n      <div class='creator'>\n        <span>\n          <a href='/u/Leyther'><b itemprop='author'>Leyther</b></a>\n          \n          <time datetime='2013-02-08T11:30:57Z' itemprop='datePublished'>\n            2013-02-08 11:30:57 UTC\n          </time>\n        </span>\n        <span itemprop='position'>#114</span>\n      </div>\n      <div class='post' itemprop='articleBody'>\n        Hikoi<br><br>Thanks for your concern and I hope others follow suit.<br><br><br>My Scandinavian friends tell me that the connection between behaviour and DA's goes largely unrecognised over there and is treated in a flippant manner.<br><br>All<br><br>My opinion, regarding the UK only:<br><br>Our dilemma is we have drugs that are useful to all PWP but that have the potential to cause behavioural problems in anyone who takes them.  Those behavioural problems are influenced by the individuals circumstance and may have grave consequences or may not even impact on their lives at all<br><br>If you have PD there is a strong chance you will encounter Dopamine Agonist's. <br>The majority of people are now informed about the risks and the need for constant monitoring of their behaviour.<br><br>There are a group of PWP who were not made aware of the way in which these drugs affect behaviour at the time when they first took them. They were not directly informed by the person or persons who administered the drug. Due to the nature of the behaviour caused by the drugs subsequent warnings were not effective. <br><br>Not everyone in that group of people will have had significant problems warranting compensation of any great magnitude. I can't be number specific because I don't know how many PWP are involved.<br><br>So we are talking about:<br><br>The PWP who took DA's and had behavioural problems as a result of the side effects of these drugs. <br><br>These problems were significant enough in their lives to cause them loss that required financial recompense.<br><br>The side effects in question may or may not have been known at the time. They may have been included on the leaflet with the drugs. However, a PWP is in no position to understand the terminology and to take heed. <br><br>Subsequent actions by the medical profession have shown the answer to be in the screening, informing and monitoring of the patient taking the drug.<br><br>Things I would highlight.<br><br>The symptomatic nature of the behaviour is relevant only in valuing the damages. The amount of money gambled or the distress caused by a patients sexual inclinations.  They are not the cause of the problem they are a symptom.<br><br>The essence of the issue is that; at the time the drugs were prescribed there were no procedures in place to inform or monitor the patient at all and that future attempts to do so were inadequate; the patient was therefore unprotected from the potential behavioural problems.<br><br>The facts that behaviour such as gambling, hypersexuality etc were known side effects and that procedures were eventually implemented ie your consultant started asking about your behaviour at clinic show the extent of the problem.<br><br>Questions to think about:<br><br>Why did not receive a letter from my neurologist / GP explaining the problem and that I was at risk with contacts helplines etc?<br><br>Who is ultimately responsible for my care as a patient?<br><br>Neurologist? GP? The MHRA (who license the drug)? The Department of Health?<br><br>Ultimately it may be the pharmaceutical company, however, seeking redress against them is beset by difficulty. They are very powerful and have clever lawyers. Those who have succeeded, like in the recent French case, have had to reveal their private lives to the world. So only the very brave succeed.<br><br>I have no contract with the drug company.  I am a patient in the care of the NHS and that care has been inadequate. Maybe it's time we looked at the responsible bodies in the UK and let them take it up with the manufacturers of the drug as necessary.<br><br>Leyther\n      </div>\n      <meta itemprop='interactionCount' content='UserLikes:0'>\n      <meta itemprop='interactionCount' content='UserComments:0'>\n      <meta itemprop='headline' content='Dopamine Dysregulation Syndrome'>\n      <hr>\n  </div>\n  <div itemscope itemtype='http://schema.org/DiscussionForumPosting'>\n      <div class='creator'>\n        <span>\n          <a href='/u/goldengirl'><b itemprop='author'>goldengirl</b></a>\n          \n          <time datetime='2013-02-08T18:45:39Z' itemprop='datePublished'>\n            2013-02-08 18:45:39 UTC\n          </time>\n        </span>\n        <span itemprop='position'>#115</span>\n      </div>\n      <div class='post' itemprop='articleBody'>\n        Well laid out ,Leyther<br>Yet again we circle back to the need for co-ordination.<br>We need PDUK to liaise with Pharmaceutical companies involved,<br>NHS, government bodies, consultants etc, alongside legal advice , to find a way forward.<br>I keep repeating that we are not looking for PDUK to compensate us but to speak up on our behalf.<br>We read and re-read statements from the Impulsive and Compulsive behaviour unit of PDUK, and Blue-eyes, attached to them to work as a victim for victims.<br>Can we have an up-to-date response about their contacts and progress with these groups and their willingness or not to represent us and co-ordinate action,including acquiring a full list of victims (? via newspaper adverts).<br>There are so many of us feelinf abandoned and suffering.<br>GG\n      </div>\n      <meta itemprop='interactionCount' content='UserLikes:0'>\n      <meta itemprop='interactionCount' content='UserComments:0'>\n      <meta itemprop='headline' content='Dopamine Dysregulation Syndrome'>\n      <hr>\n  </div>\n  <div itemscope itemtype='http://schema.org/DiscussionForumPosting'>\n      <div class='creator'>\n        <span>\n          <a href='/u/Draward'><b itemprop='author'>Draward</b></a>\n          \n          <time datetime='2013-02-12T09:50:22Z' itemprop='datePublished'>\n            2013-02-12 09:50:22 UTC\n          </time>\n        </span>\n        <span itemprop='position'>#116</span>\n      </div>\n      <div class='post' itemprop='articleBody'>\n        Perhaps we, the sufferers, should start a working party or Quango,having read the posts, I am sure there are enough people to make a very effective one. It appears that many of us are not impressed by the \"experts\". They need advice and help from the real experts, in order to proceed more efficiently.<br><br>It may have already been tried, I don't know, but if not is it worth trying? <br>or am I in cloud cuckoo land here?\n      </div>\n      <meta itemprop='interactionCount' content='UserLikes:0'>\n      <meta itemprop='interactionCount' content='UserComments:0'>\n      <meta itemprop='headline' content='Dopamine Dysregulation Syndrome'>\n      <hr>\n  </div>\n  <div itemscope itemtype='http://schema.org/DiscussionForumPosting'>\n      <div class='creator'>\n        <span>\n          <a href='/u/deleted.user'><b itemprop='author'>deleted.user</b></a>\n          \n          <time datetime='2013-02-12T14:38:57Z' itemprop='datePublished'>\n            2013-02-12 14:38:57 UTC\n          </time>\n        </span>\n        <span itemprop='position'>#117</span>\n      </div>\n      <div class='post' itemprop='articleBody'>\n        Hi all,<br><br>I’ve been in and out of the office recently and so not really in a position to add to the debate until now.  I think Leyther eloquently describes the complexity of the issues that comes with this topic.  Fundamentally what we know is that there are certain medications that bring tremendous benefit to the majority of people who use them, but for some, they lead to impulsive and compulsive behaviour.  This may manifest as a spectrum of behaviours but for some, these lead to shattering consequences on both the person and those around them.  All of this needs to be taken into consideration as it influences looking at way forwards.<br><br>What seems to be coming across in the posts is the question of responsibilities.  What we at Parkinson’s UK are working towards is minimising the risk of impulsive and compulsive behaviour occurring and where it does occur, to minimise the impact of the consequences.  The former will only happen through changes in clinical practice – it is now recognised that impulsive and compulsive behaviour is a potential risk, but we cannot guarantee that this is consistently part of the assessment process every person undergoes prior starting medication.  Therefore we are focussing on educating all prescribing consultants to accept the incidence of impulsive and compulsive behaviour and on establishing evaluation against known risk factors prior to medication being administered as standard clinical practice.  This is in addition to raising awareness of impulsive and compulsive behaviour with a range of professional groups as they may be able to monitor and pick up on changes as well as being in a position to offer support should the behaviour occur (I’m thinking particularly groups like psychologists here).<br><br>In terms of minimising the impact where it does occur, I’ve mentioned previously about developing support for those around the person experiencing impulsive and compulsive behaviour (just on a slight tangent here, if you are a carer of someone who has had impulsive and compulsive behaviour, you may be interested in a post made last week on the Research forum requesting volunteers for a new research study on carers’ experiences being run by Dr Eamonn McKeown – the link is <a href=\"https://bit.ly/Wi0Vd4\" target=\"_blank\">http://bit.ly/Wi0Vd4</a>).  We are also educating other organisations who offer support for issues such as gambling addictions so that they are fully understanding of this phenomenon and thus able to offer the most appropriate support.<br><br>So things are happening which will make a difference in the future.  However, and not surprisingly, many are dealing with the impacts of what has gone on before and want this to be acknowledged and addressed in some way.  From other posts I’ve made, you will know that engaging legal organisations even for a Q&A session to answer your questions about legal recourse has been difficult – whilst it currently looking like an organisation might be able to do this, it would then lead to thoughts of next steps and, coming back to Leyther’s point, who is responsible for what you have experienced in each of your individual cases. This is crucial as the basis for whatever collective action we as a charitable organisation can legitimately take will lie in what the commonalities there are between your experiences.<br><br>I appreciate the honest postings you are all making and I will continue to update you where I can of areas of progress with this multifaceted issue.<br><br>Suma\n      </div>\n      <meta itemprop='interactionCount' content='UserLikes:0'>\n      <meta itemprop='interactionCount' content='UserComments:0'>\n      <meta itemprop='headline' content='Dopamine Dysregulation Syndrome'>\n      <hr>\n  </div>\n  <div itemscope itemtype='http://schema.org/DiscussionForumPosting'>\n      <div class='creator'>\n        <span>\n          <a href='/u/goldengirl'><b itemprop='author'>goldengirl</b></a>\n          \n          <time datetime='2013-02-13T10:02:39Z' itemprop='datePublished'>\n            2013-02-13 10:02:39 UTC\n          </time>\n        </span>\n        <span itemprop='position'>#118</span>\n      </div>\n      <div class='post' itemprop='articleBody'>\n        Thank you Suma.<br>it is encouraging that the educative role of PDUK is going well and that the search for a legal ally continues.<br>I would still like to know what approaches have been made to the drug companies. After all, they are providing a drug that severely damages about 1 in 4 patients.<br>please can you let us know what their response is to this challenge ?<br>Keep up the good work!<br>GG\n      </div>\n      <meta itemprop='interactionCount' content='UserLikes:0'>\n      <meta itemprop='interactionCount' content='UserComments:0'>\n      <meta itemprop='headline' content='Dopamine Dysregulation Syndrome'>\n      <hr>\n  </div>\n  <div itemscope itemtype='http://schema.org/DiscussionForumPosting'>\n      <div class='creator'>\n        <span>\n          <a href='/u/spam95'><b itemprop='author'>spam95</b></a>\n          \n          <time datetime='2013-02-13T18:22:13Z' itemprop='datePublished'>\n            2013-02-13 18:22:13 UTC\n          </time>\n        </span>\n        <span itemprop='position'>#119</span>\n      </div>\n      <div class='post' itemprop='articleBody'>\n        @Goldengirl<br><br>I have skirted around this subject time and time again but maybe it is time for some straight talking.<br><br>[u]A Legal Claim for Compensation[/u]<br><br>The fact that no one wants to pick up this very hot potato is because there is no confidence that the outcome will be positive. The arguments against an action succeeding are<br><br>a/ Is it without question that these drugs CAUSE these problems? You have to PROVE it, not just come up with anecdotal evidence. You will say Y, the manufactures N.<br><br>b/ If they do CAUSE the problems, are the warnings given at prescription time enough to protect the manufacturers from being taken to court? It is without question that these drugs do good to some. You will say N, the manufacturers Y.<br><br>c/ Is the use of DAs recommended by the NICE authorities? Y<br><br>d/ Do individual Neurologist want to HELP their patients and staay on the right side of the law and ethics? You N, them Y.<br><br>e/ Do you think that it might be possible that there is at least one person amongst the group affected who is using this action to cover up their own misbehaviour? You will say N, who people you are suing will say Y.<br><br>f/ Should P UK pay for this. You will say Y, I say N, but it's not my choice. I'm just a poor man with PD suffering in silence.<br><br>And there's more....<br><br>So, I say this. Stop asking P UK to do this for you until you can come up with a winnable legal case. Because you think it isn't fair doesn't make it so.<br><br>I do not want any time or money spent by PUK on the compensation case until the chances of winning the case are good. I want them to spend their charitably-given funds on research and education. At the moment all I see is anecdotes and stories<br><br>I have nothing to gain from this, except that one day, before I die, PUK and it's researchers come up with a cure for this horrible disease that is ruining MY life.<br><br>I despair!\n      </div>\n      <meta itemprop='interactionCount' content='UserLikes:0'>\n      <meta itemprop='interactionCount' content='UserComments:0'>\n      <meta itemprop='headline' content='Dopamine Dysregulation Syndrome'>\n      <hr>\n  </div>\n  <div itemscope itemtype='http://schema.org/DiscussionForumPosting'>\n      <div class='creator'>\n        <span>\n          <a href='/u/goldengirl'><b itemprop='author'>goldengirl</b></a>\n          \n          <time datetime='2013-02-13T19:40:13Z' itemprop='datePublished'>\n            2013-02-13 19:40:13 UTC\n          </time>\n        </span>\n        <span itemprop='position'>#120</span>\n      </div>\n      <div class='post' itemprop='articleBody'>\n        I understand  Spam that this is not a problem that affects you.<br>We provide the proof again and again by posting links to reputable research showing that the drug causes these compulsions.<br>Many court cases have been fought and won in America, Canada,France etc and compensation awarded.<br>The UK stands almost alone in refusing to face up to the bullying drug companies.You are free to ask PDUK to work in a way that helps you. Surely you can allow those with drug-ruined lives to ask for help also?<br>The fact that they have a unit set up to tackle this very problem shows that they accept the damage is caused by the DAs. Read the papers put out by this group.<br>We have to agree to differ in the way we view this situation, those of us embroiled in it and those lucky enough to have only the effects of Parkinson's to deal with.<br>GG\n      </div>\n      <meta itemprop='interactionCount' content='UserLikes:0'>\n      <meta itemprop='interactionCount' content='UserComments:0'>\n      <meta itemprop='headline' content='Dopamine Dysregulation Syndrome'>\n      <hr>\n  </div>\n\n  <div role='navigation' itemscope itemtype='http://schema.org/SiteNavigationElement'>\n      <span itemprop='name'><a rel=\"prev\" itemprop=\"url\" href=\"/t/dopamine-dysregulation-syndrome/1048?page=5\">← previous page</a></span>\n      <span itemprop='name'><b><a rel=\"next\" itemprop=\"url\" href=\"/t/dopamine-dysregulation-syndrome/1048?page=7\">next page →</a></b></span>\n  </div>\n\n\n\n\n\n    </div>\n    <footer class=\"container\">\n      <nav class='crawler-nav' itemscope itemtype='http://schema.org/SiteNavigationElement'>\n        <a href='/'>Home</a>\n        <a href=\"/categories\">Categories</a>\n        <a href=\"/guidelines\">FAQ/Guidelines</a>\n        <a href=\"/tos\">Terms of Service</a>\n        <a href=\"/privacy\">Privacy Policy</a>\n      </nav>\n      <p class='powered-by-link'>Powered by <a href=\"https://www.discourse.org\">Discourse</a>, best viewed with JavaScript enabled</p>\n    </footer>\n    \n  </body>\n  \n</html>\n",
  "url": "https://forum.parkinsons.org.uk/t/dopamine-dysregulation-syndrome/1048?page=6"
}