{
  "contentId": "a1d6e6f0-8869-11e9-8f96-97f71b5221d6",
  "html": "<!DOCTYPE html>\n<html lang=\"en\">\n  <head>\n    <meta charset=\"utf-8\">\n    <title>Cycling with PD - About the community - Parkinson&#39;s UK Forum</title>\n    <meta name=\"description\" content=\"\">\n    <meta name=\"author\" content=\"\">\n<meta name=\"generator\" content=\"Discourse 2.2.5 - https://github.com/discourse/discourse version c294ff3609f988dcafb742e91606d60ca13b794d\">\n<link rel=\"icon\" type=\"image/png\" href=\"https://forum.parkinsons.org.uk/uploads/db7928/original/2X/3/311fc84f89f49f38601a2f16b295b6f03d3ce5dd.jpg\">\n<link rel=\"apple-touch-icon\" type=\"image/png\" href=\"https://forum.parkinsons.org.uk/uploads/db7928/original/2X/3/311fc84f89f49f38601a2f16b295b6f03d3ce5dd.jpg\">\n<meta name=\"theme-color\" content=\"#ffffff\">\n<meta name=\"viewport\" content=\"width=device-width, minimum-scale=1.0, maximum-scale=1.0, user-scalable=yes\">\n<link rel=\"canonical\" href=\"https://forum.parkinsons.org.uk/t/cycling-with-pd/9875\" />\n<script type=\"application/ld+json\">{\"@context\":\"http://schema.org\",\"@type\":\"WebSite\",\"url\":\"https://forum.parkinsons.org.uk\",\"potentialAction\":{\"@type\":\"SearchAction\",\"target\":\"https://forum.parkinsons.org.uk/search?q={search_term_string}\",\"query-input\":\"required name=search_term_string\"}}</script>\n<link rel=\"search\" type=\"application/opensearchdescription+xml\" href=\"https://forum.parkinsons.org.uk/opensearch.xml\" title=\"Parkinson&#39;s UK Forum Search\">\n\n      <link href=\"/stylesheets/desktop_f99246ae801b083d3e4cca979d0dade8615b39ac.css?__ws=forum.parkinsons.org.uk\" media=\"all\" rel=\"stylesheet\" data-target=\"desktop\" data-theme-id=\"12\"/>\n      <link href=\"/stylesheets/desktop_theme_12_5d27531cf43f9df0c03a6a6ec3109dd05f9dfc49.css?__ws=forum.parkinsons.org.uk\" media=\"all\" rel=\"stylesheet\" data-target=\"desktop_theme\" data-theme-id=\"12\"/>\n    <link href=\"https://fonts.googleapis.com/css?family=Open+Sans\" rel=\"stylesheet\">\n\n    <meta id=\"data-ga-universal-analytics\" data-tracking-code=\"UA-4855628-1\" data-json=\"{&quot;cookieDomain&quot;:&quot;auto&quot;}\" data-auto-link-domains=\"\">\n\n<link rel='preload' href='/assets/google-universal-analytics-f35b4da49411e6f5559073523aab983da483976a3954c79c756f8579f6fbd6ef.js' as='script'/>\n<script src='/assets/google-universal-analytics-f35b4da49411e6f5559073523aab983da483976a3954c79c756f8579f6fbd6ef.js'></script>\n\n      <link rel=\"alternate\" type=\"application/rss+xml\" title=\"RSS feed of &#39;Cycling with PD&#39;\" href=\"https://forum.parkinsons.org.uk/t/cycling-with-pd/9875.rss\" />\n  <meta property=\"og:site_name\" content=\"Parkinson&#39;s UK Forum\" />\n<meta name=\"twitter:card\" content=\"summary\" />\n<meta name=\"twitter:image\" content=\"https://forum.parkinsons.org.uk/uploads/db7928/original/2X/3/311fc84f89f49f38601a2f16b295b6f03d3ce5dd.jpg\" />\n<meta property=\"og:image\" content=\"https://forum.parkinsons.org.uk/uploads/db7928/original/2X/3/311fc84f89f49f38601a2f16b295b6f03d3ce5dd.jpg\" />\n<meta property=\"og:url\" content=\"https://forum.parkinsons.org.uk/t/cycling-with-pd/9875\" />\n<meta name=\"twitter:url\" content=\"https://forum.parkinsons.org.uk/t/cycling-with-pd/9875\" />\n<meta property=\"og:title\" content=\"Cycling with PD\" />\n<meta name=\"twitter:title\" content=\"Cycling with PD\" />\n<meta property=\"article:published_time\" content=\"2017-04-23T12:56:07+00:00\" />\n<meta property=\"og:ignore_canonical\" content=\"true\" />\n\n\n\n    \n  </head>\n  <body class=\"crawler\">\n    <header role=\"banner\">\n    <div class=\"region region-header\">\n        <div class=\"region-header-wrapper\">\n            <div id=\"block-parkinsons-d8-branding\" class=\"block block-system block-system-branding-block\">\n                <a href=\"/\" title=\"Home\" rel=\"home\" class=\"site-logo\">\n                    <img src=\"https://forum.parkinsons.org.uk/uploads/db7928/original/2X/8/862bb7d172e7d127e7f3e147ec43594aa62ac945.png\" alt=\"Parkinson's UK. Change Attitudes. Find a cure. Join us.\">\n                </a>\n            </div>\n            <div id=\"block-helpline\" class=\"block block-block-content block-block-content871cd5af-b938-4947-9dc0-d5c211d08fe3 style-phone\">\n                <div class=\"field field--name-field-link field--type-link field--label-hidden field__item\"><a href=\"tel:+448088000303\">Helpline 0808 800 0303</a></div>\n            </div>\n            <div id=\"block-shop\" class=\"block block-block-content block-block-content6fba5ae5-7797-49cd-8367-f321d8111cd6 style-regular\">\n                <div class=\"field field--name-field-link field--type-link field--label-hidden field__item\"><a href=\"https://shop.parkinsons.org.uk\">Shop</a></div>\n            </div>\n        </div>\n    </div>\n</header>\n\n\n<script src=\"/theme-javascripts/b7e9763fcb584fc8265c56a9f557cd6d2e1e8ed8.js?__ws=forum.parkinsons.org.uk\"></script>\n    <header>\n      <a href=\"/\">\n          <img src=\"https://forum.parkinsons.org.uk/uploads/db7928/original/2X/8/862bb7d172e7d127e7f3e147ec43594aa62ac945.png\" alt=\"Parkinson&#39;s UK Forum\" id=\"site-logo\" style=\"max-width: 150px;\">\n      </a>\n    </header>\n    <div id=\"main-outlet\" class=\"wrap\">\n      <h1>\n  <a href=\"/t/cycling-with-pd/9875\">Cycling with PD</a>\n</h1>\n\n<div id='breadcrumbs'>\n    <div id=\"breadcrumb-0\" itemscope itemtype=\"http://data-vocabulary.org/Breadcrumb\"\n        itemref=\"breadcrumb-1\"\n      >\n      <a href=\"/c/get-involved\" itemprop=\"url\">\n        <span itemprop=\"title\">Get involved</span>\n      </a>\n    </div>\n    <div id=\"breadcrumb-1\" itemscope itemtype=\"http://data-vocabulary.org/Breadcrumb\"\n>\n      <a href=\"/c/get-involved/about-the-community\" itemprop=\"url\">\n        <span itemprop=\"title\">About the community</span>\n      </a>\n    </div>\n</div>\n\n\n\n\n\n<hr>\n\n\n  <div itemscope itemtype='http://schema.org/DiscussionForumPosting'>\n      <div class='creator'>\n        <span>\n          <a href='/u/Het'><b itemprop='author'>Het</b></a>\n          \n          <time datetime='2017-04-23T12:56:07Z' itemprop='datePublished'>\n            2017-04-23 12:56:07 UTC\n          </time>\n        </span>\n        <span itemprop='position'>#1</span>\n      </div>\n      <div class='post' itemprop='articleBody'>\n        \n      </div>\n      <meta itemprop='interactionCount' content='UserLikes:0'>\n      <meta itemprop='interactionCount' content='UserComments:0'>\n      <meta itemprop='headline' content='Cycling with PD'>\n      <hr>\n  </div>\n  <div itemscope itemtype='http://schema.org/DiscussionForumPosting'>\n      <div class='creator'>\n        <span>\n          <a href='/u/Het'><b itemprop='author'>Het</b></a>\n          \n          <time datetime='2017-04-23T13:18:44Z' itemprop='datePublished'>\n            2017-04-23 13:18:44 UTC\n          </time>\n        </span>\n        <span itemprop='position'>#2</span>\n      </div>\n      <div class='post' itemprop='articleBody'>\n        <p>Hello to all of the Parkinsons community</p>\r\n<p>I have been watching the London Marathon today, I have always loved the inspirational stories and great examples of courage of many of the runners.</p>\r\n<p>I found myself today feeling very emotional and reflecting on my own life and where I am today.&nbsp;</p>\r\n<p>I wa diagnosed 3 years ago this month!&nbsp; As we all are on our own personal journey, we are individuals but we have this in common.&nbsp; I thought I had accepted my illness, but at times it has brought me to real distress and a loss of the sparkle and vivacious spirit that makes me who I am.</p>\r\n<p>I love to dance and that has always made me feel alive, I dont dance regularly, and when I last went out i found it challenging but was able to get lost in the sheer enjoyment and passion that I have.&nbsp; There were moments to feeling a little sad as I found my balance and stamina had changed.</p>\r\n<p>In addition to my dancing, I really want to get cycling.&nbsp; I do love to ride a bike, but have never really done very much of that since my youth, except a short period a few years ago when living in Sussex and i clocked up a few miles in a single week.&nbsp;</p>\r\n<p>I am here in Dorset, and I am looking for anyone who has Parkinsons Disease or who cycles regularly and is happy to become a mentor for me.&nbsp; I haven&#39;t got my bicycle and need to buy a second-hand bike.</p>\r\n<p>I am fortunate to be living on the cliff top near Bournemouth and that gives me access to the wonderful promenade which gives cyclists several miles of path, only unavailable during July and August in the day time.&nbsp;</p>\r\n<p>I have been through a tough few years since my diagnosis and they are not even related to coping with PD.&nbsp; The London Marathon and its personal stories have moved me and I recognise so many with great burdens.&nbsp; I know I want to take control of my life and learn to manage what I can.</p>\r\n<p>The last week I have been having pain in my left leg on walking, at the moment my PD nurse feels it isn&#39;t related to PD and so my GP is looking into things.&nbsp; I have felt distressed, I am not ready to give up on life and wish to be of help/inspiration to others.&nbsp; I know I have much to give.</p>\r\n<p>I have to get my game together, I do not work currently and have flexibility as to making plans for cycling with others.&nbsp; I make friends easily, so no concerns there.</p>\r\n<p>Please please, get in touch with me if you can help or give me encouragement.</p>\r\n<p>Hugs and love to all my PD friends/community out there!</p>\n      </div>\n      <meta itemprop='interactionCount' content='UserLikes:0'>\n      <meta itemprop='interactionCount' content='UserComments:0'>\n      <meta itemprop='headline' content='Cycling with PD'>\n      <hr>\n  </div>\n  <div itemscope itemtype='http://schema.org/DiscussionForumPosting'>\n      <div class='creator'>\n        <span>\n          <a href='/u/Ian_shearer1'><b itemprop='author'>Ian_shearer1</b></a>\n          \n          <time datetime='2017-04-23T18:25:00Z' itemprop='datePublished'>\n            2017-04-23 18:25:00 UTC\n          </time>\n        </span>\n        <span itemprop='position'>#3</span>\n      </div>\n      <div class='post' itemprop='articleBody'>\n        <p>Aye aye lets be clear I live in Scotland so we will never cycle together but it&#39;s great cycling feels amazing &nbsp;. &nbsp;The main thing is enjoy it and go your own pace and when you need a rest just stop and recover and the more your out on the bike the shorter your recovery time will get . Good luck enjoy stay in toutch tooraloo Ian&nbsp;</p>\n      </div>\n      <meta itemprop='interactionCount' content='UserLikes:0'>\n      <meta itemprop='interactionCount' content='UserComments:1'>\n      <meta itemprop='headline' content='Cycling with PD'>\n      <hr>\n  </div>\n  <div itemscope itemtype='http://schema.org/DiscussionForumPosting'>\n      <div class='creator'>\n        <span>\n          <a href='/u/Supa'><b itemprop='author'>Supa</b></a>\n          \n          <time datetime='2017-04-23T20:10:54Z' itemprop='datePublished'>\n            2017-04-23 20:10:54 UTC\n          </time>\n        </span>\n        <span itemprop='position'>#4</span>\n      </div>\n      <div class='post' itemprop='articleBody'>\n        <p>Hi</p>\r\n<p>Can only echo what Ian has said.</p>\r\n<p>I am in Somerset, but still too far away from&nbsp;Bournemouth.</p>\r\n<p>My walking leaves a lot&nbsp;to be desired, but I can cycle and feel relatively normal!</p>\r\n<p>Enjoy the fine weather and longer days.</p>\r\n<p>S</p>\n      </div>\n      <meta itemprop='interactionCount' content='UserLikes:0'>\n      <meta itemprop='interactionCount' content='UserComments:1'>\n      <meta itemprop='headline' content='Cycling with PD'>\n      <hr>\n  </div>\n  <div itemscope itemtype='http://schema.org/DiscussionForumPosting'>\n      <div class='creator'>\n        <span>\n          <a href='/u/Ian_shearer1'><b itemprop='author'>Ian_shearer1</b></a>\n          \n          <time datetime='2017-04-23T22:19:37Z' itemprop='datePublished'>\n            2017-04-23 22:19:37 UTC\n          </time>\n        </span>\n        <span itemprop='position'>#5</span>\n      </div>\n      <div class='post' itemprop='articleBody'>\n        <p>Sorry to but in but how&#39;s edd&nbsp;supa&nbsp;, not heard from you in a while good to hear your cycling keep it up we got something that works tooraloo ma wee sunflower&nbsp;</p>\r\n<p>Ian&nbsp;</p>\n      </div>\n      <meta itemprop='interactionCount' content='UserLikes:0'>\n      <meta itemprop='interactionCount' content='UserComments:0'>\n      <meta itemprop='headline' content='Cycling with PD'>\n      <hr>\n  </div>\n  <div itemscope itemtype='http://schema.org/DiscussionForumPosting'>\n      <div class='creator'>\n        <span>\n          <a href='/u/Supa'><b itemprop='author'>Supa</b></a>\n          \n          <time datetime='2017-04-24T12:41:55Z' itemprop='datePublished'>\n            2017-04-24 12:41:55 UTC\n          </time>\n        </span>\n        <span itemprop='position'>#6</span>\n      </div>\n      <div class='post' itemprop='articleBody'>\n        <p>Hi Ian</p>\r\n<p>Ed is fine, enjoying spring sunshine, and longer days so he gets two walks some times. He is enjoying, or enduring,&nbsp; the company of my daughters Border Terrier, Lucy, for a couple of weeks. Trouble is, she wakes up very early and lets us all know!</p>\r\n<p>Yes, cycling is good, although the next day I can&#39;t walk anywhere. Seems it uses up every bit of Dopamine and takes a day to build up again.</p>\r\n<p>But, essential for my sanity!</p>\r\n<p>Has the York fandango been yet, can&#39;t remember what date it was set for .</p>\r\n<p>S</p>\n      </div>\n      <meta itemprop='interactionCount' content='UserLikes:0'>\n      <meta itemprop='interactionCount' content='UserComments:0'>\n      <meta itemprop='headline' content='Cycling with PD'>\n      <hr>\n  </div>\n  <div itemscope itemtype='http://schema.org/DiscussionForumPosting'>\n      <div class='creator'>\n        <span>\n          <a href='/u/Het'><b itemprop='author'>Het</b></a>\n          \n          <time datetime='2017-04-24T19:37:33Z' itemprop='datePublished'>\n            2017-04-24 19:37:33 UTC\n          </time>\n        </span>\n        <span itemprop='position'>#7</span>\n      </div>\n      <div class='post' itemprop='articleBody'>\n        <p>Thank you Ian, for taking the time to reply, I hope to get my bike next month.&nbsp; I have a cousin in Scotland, he lives in Edinburgh.</p>\n      </div>\n      <meta itemprop='interactionCount' content='UserLikes:0'>\n      <meta itemprop='interactionCount' content='UserComments:0'>\n      <meta itemprop='headline' content='Cycling with PD'>\n      <hr>\n  </div>\n  <div itemscope itemtype='http://schema.org/DiscussionForumPosting'>\n      <div class='creator'>\n        <span>\n          <a href='/u/Het'><b itemprop='author'>Het</b></a>\n          \n          <time datetime='2017-04-24T19:39:19Z' itemprop='datePublished'>\n            2017-04-24 19:39:19 UTC\n          </time>\n        </span>\n        <span itemprop='position'>#8</span>\n      </div>\n      <div class='post' itemprop='articleBody'>\n        <p>Thank you Supa, I havent been on the bike for a few years, but hope to get it next month, in time for the good weather!</p>\n      </div>\n      <meta itemprop='interactionCount' content='UserLikes:0'>\n      <meta itemprop='interactionCount' content='UserComments:0'>\n      <meta itemprop='headline' content='Cycling with PD'>\n      <hr>\n  </div>\n  <div itemscope itemtype='http://schema.org/DiscussionForumPosting'>\n      <div class='creator'>\n        <span>\n          <a href='/u/Dick_Dastardly'><b itemprop='author'>Dick_Dastardly</b></a>\n          \n          <time datetime='2017-04-25T03:16:15Z' itemprop='datePublished'>\n            2017-04-25 03:16:15 UTC\n          </time>\n        </span>\n        <span itemprop='position'>#9</span>\n      </div>\n      <div class='post' itemprop='articleBody'>\n        <p>Good morning. Well as you watched the London Marathon. &nbsp;I was running​ in the Longhorn run at Thorsbury​ on Sunday​ afternoon.</p>\r\n<p>&nbsp; &nbsp; &nbsp;I am not safe &nbsp;to ride on the road​ (I wobble too much) but enjoy​ &nbsp;riding in country parks. &nbsp;Good luck . &nbsp; Mike​</p>\n      </div>\n      <meta itemprop='interactionCount' content='UserLikes:0'>\n      <meta itemprop='interactionCount' content='UserComments:0'>\n      <meta itemprop='headline' content='Cycling with PD'>\n      <hr>\n  </div>\n  <div itemscope itemtype='http://schema.org/DiscussionForumPosting'>\n      <div class='creator'>\n        <span>\n          <a href='/u/Mummabear'><b itemprop='author'>Mummabear</b></a>\n          \n          <time datetime='2017-06-12T17:54:54Z' itemprop='datePublished'>\n            2017-06-12 17:54:54 UTC\n          </time>\n        </span>\n        <span itemprop='position'>#10</span>\n      </div>\n      <div class='post' itemprop='articleBody'>\n        <p>Hello Het, I&#39;m a carer, my husband was diagnosed a year ago! Speaking for myself, our new lives are certainly throwing us those challenges we&#39;ve been hearing about. Bill wouldn&#39;t be able to ride a bike because he&#39;d be too wobbly! But he&#39;s fine in the car! I can&#39;t ride a bike because I&#39;ve got no balance on one. I even cling on for dear life on an exercise bike!!!!! My point is, if you feel safe and have had a couple of practise runs where you can topple onto grass, wear the correct protection, a helmet is surely a given. Your promenade sounds great, do buy that bike and go for it!</p>\r\n<p>sending you good vibes, lots of confidence and safe wishes</p>\n      </div>\n      <meta itemprop='interactionCount' content='UserLikes:0'>\n      <meta itemprop='interactionCount' content='UserComments:0'>\n      <meta itemprop='headline' content='Cycling with PD'>\n      <hr>\n  </div>\n  <div itemscope itemtype='http://schema.org/DiscussionForumPosting'>\n      <div class='creator'>\n        <span>\n          <a href='/u/Mummabear'><b itemprop='author'>Mummabear</b></a>\n          \n          <time datetime='2017-06-12T18:09:33Z' itemprop='datePublished'>\n            2017-06-12 18:09:33 UTC\n          </time>\n        </span>\n        <span itemprop='position'>#11</span>\n      </div>\n      <div class='post' itemprop='articleBody'>\n        <p>Hello Supa, it&#39;s interesting to hear you say - you&#39;d use up all your dopamine and need the next day to build it up again - is that how PD works?&nbsp;</p>\r\n<p>I&#39;m a carer&nbsp;for my husband, diagnosed a year ago. We understand that he doesn&#39;t &quot;make&quot; dopamine any more so he&#39;s on meds to give him some. I haven&#39;t heard it put&nbsp;like that before. He can only see his neurologist once in NINE MONTHS, so he&#39;s due to see him in August, there&#39;s never enough time to remember all the responses we get from him. I do write our questions down now, but don&#39;t always remember all the answers. He does have a PD Nurse but he doesn&#39;t want me to keep bothering her!</p>\r\n<p>Is that what someone with PD does - use up their &quot;allowance&quot; of dopamine? I&#39;d be really interested to hear anyone&#39;s response.&nbsp;</p>\r\n<p>I&#39;ve only just joined the Parkinson&#39;s Forum and have posted in the Carer&#39;s Forum, but nobody responded! Which has made me feel even more isolated. My husband isn&#39;t interested in joining in any sort of group, but I need to.</p>\r\n<p>thanks for reading this x</p>\n      </div>\n      <meta itemprop='interactionCount' content='UserLikes:0'>\n      <meta itemprop='interactionCount' content='UserComments:0'>\n      <meta itemprop='headline' content='Cycling with PD'>\n      <hr>\n  </div>\n  <div itemscope itemtype='http://schema.org/DiscussionForumPosting'>\n      <div class='creator'>\n        <span>\n          <a href='/u/cruisecontroller'><b itemprop='author'>cruisecontroller</b></a>\n          \n          <time datetime='2017-07-27T19:35:48Z' itemprop='datePublished'>\n            2017-07-27 19:35:48 UTC\n          </time>\n        </span>\n        <span itemprop='position'>#12</span>\n      </div>\n      <div class='post' itemprop='articleBody'>\n        <p>Mummabear, hasn&#39;t your Neurologist suggested Deep Brain Stimulation ? &nbsp;Perhaps you should mention this to him at the next appointment. &nbsp;PD Nurses are there to help you so why shouldn&#39;t you ask questions of them. &nbsp;I have never heard of a Dopamine Allowance or building it up naturally, it is my understanding that if your brain isn&#39;t producing sufficient dopamine that you would be recommended for DBS.</p>\n      </div>\n      <meta itemprop='interactionCount' content='UserLikes:0'>\n      <meta itemprop='interactionCount' content='UserComments:0'>\n      <meta itemprop='headline' content='Cycling with PD'>\n      <hr>\n  </div>\n  <div itemscope itemtype='http://schema.org/DiscussionForumPosting'>\n      <div class='creator'>\n        <span>\n          <a href='/u/Ian_shearer1'><b itemprop='author'>Ian_shearer1</b></a>\n          \n          <time datetime='2017-07-27T20:24:33Z' itemprop='datePublished'>\n            2017-07-27 20:24:33 UTC\n          </time>\n        </span>\n        <span itemprop='position'>#13</span>\n      </div>\n      <div class='post' itemprop='articleBody'>\n        <p>Aye hello mama bear&nbsp;</p>\r\n<p>sorry I haven&#39;t posted sooner , I don&#39;t know nothing I am not a dr or a neuro but I can say it does feel as if I do build up sometimes like if I sleep ( switch off) when I wake up walking is a little better for a short time a very short ltime but if you push on ( do to much ) nothing works the best way is to try and do everything in slow motion . Slow and smoothly , this is just me please understand we are all different with PD I don&#39;t think there is two people the same . Please don&#39;t listen to some of what you read on here as what&#39;s poison to one can help another and we are NOT doctors . We are in the hands of our neuro and we can tell what we feel . But we can&#39;t tell them their job . &nbsp;Good luck mama bear all the best Ian&nbsp;</p>\n      </div>\n      <meta itemprop='interactionCount' content='UserLikes:0'>\n      <meta itemprop='interactionCount' content='UserComments:0'>\n      <meta itemprop='headline' content='Cycling with PD'>\n      <hr>\n  </div>\n  <div itemscope itemtype='http://schema.org/DiscussionForumPosting'>\n      <div class='creator'>\n        <span>\n          <a href='/u/TeeHee'><b itemprop='author'>TeeHee</b></a>\n          \n          <time datetime='2017-07-27T22:45:20Z' itemprop='datePublished'>\n            2017-07-27 22:45:20 UTC\n          </time>\n        </span>\n        <span itemprop='position'>#14</span>\n      </div>\n      <div class='post' itemprop='articleBody'>\n        <p>Hi Het,&nbsp;</p>\r\n<p>Just wondering if you have seen a physio therapist who has an understanding of Parkinsons. &nbsp;I do not know how fit you are and bearing in mind any exercise&nbsp;is better than none , check first if cycling the right activity for you.</p>\r\n<p>I am no expert but now in my ninth year of Parkyland struggle at times to get up out of the chair, and am like a beached whale marooned in the bath.</p>\r\n<p>My physio told me not to do any cycling as in the same position as sat down on the settee. &nbsp;Forgive me did not understand all the technical stuff on muscle groups, position of spine etc &nbsp;but just know swimming and yoga best for my mobility issues. &nbsp;</p>\r\n<p>It might be worth checking but we are all different. &nbsp;There is a&nbsp;Parkinsons uk excercise&nbsp;dvd&nbsp;that is good. &nbsp;Socially joining a club to swim, cycle or do yoga etc should lift your spirits, and I wish you well, without nagging just check whats best for your individual needs. &nbsp;I wish I had seen a physio sooner. x</p>\n      </div>\n      <meta itemprop='interactionCount' content='UserLikes:0'>\n      <meta itemprop='interactionCount' content='UserComments:0'>\n      <meta itemprop='headline' content='Cycling with PD'>\n      <hr>\n  </div>\n\n\n\n\n\n\n    </div>\n    <footer class=\"container\">\n      <nav class='crawler-nav' itemscope itemtype='http://schema.org/SiteNavigationElement'>\n        <a href='/'>Home</a>\n        <a href=\"/categories\">Categories</a>\n        <a href=\"/guidelines\">FAQ/Guidelines</a>\n        <a href=\"/tos\">Terms of Service</a>\n        <a href=\"/privacy\">Privacy Policy</a>\n      </nav>\n      <p class='powered-by-link'>Powered by <a href=\"https://www.discourse.org\">Discourse</a>, best viewed with JavaScript enabled</p>\n    </footer>\n    \n  </body>\n  \n</html>\n",
  "url": "https://forum.parkinsons.org.uk/t/cycling-with-pd/9875"
}