{
  "contentId": "7bb9f980-8869-11e9-8f96-97f71b5221d6",
  "html": "<!DOCTYPE html>\n<html lang=\"en\">\n  <head>\n    <meta charset=\"utf-8\">\n    <title>Hello, I’m Molly - Introductions and personal stories - Parkinson&#39;s UK Forum</title>\n    <meta name=\"description\" content=\"I’m new to the forum and hope I can just pop in and out if that’s alright. \nMy husband has severe Parkinsons and has gone down hill badly in the last year.   He can’t walk unaided and is suffering badly with Bradykenisia&amp;hellip;\">\n    <meta name=\"author\" content=\"\">\n<meta name=\"generator\" content=\"Discourse 2.2.5 - https://github.com/discourse/discourse version c294ff3609f988dcafb742e91606d60ca13b794d\">\n<link rel=\"icon\" type=\"image/png\" href=\"https://forum.parkinsons.org.uk/uploads/db7928/original/2X/3/311fc84f89f49f38601a2f16b295b6f03d3ce5dd.jpg\">\n<link rel=\"apple-touch-icon\" type=\"image/png\" href=\"https://forum.parkinsons.org.uk/uploads/db7928/original/2X/3/311fc84f89f49f38601a2f16b295b6f03d3ce5dd.jpg\">\n<meta name=\"theme-color\" content=\"#ffffff\">\n<meta name=\"viewport\" content=\"width=device-width, minimum-scale=1.0, maximum-scale=1.0, user-scalable=yes\">\n<link rel=\"canonical\" href=\"https://forum.parkinsons.org.uk/t/hello-i-m-molly/18850\" />\n<script type=\"application/ld+json\">{\"@context\":\"http://schema.org\",\"@type\":\"WebSite\",\"url\":\"https://forum.parkinsons.org.uk\",\"potentialAction\":{\"@type\":\"SearchAction\",\"target\":\"https://forum.parkinsons.org.uk/search?q={search_term_string}\",\"query-input\":\"required name=search_term_string\"}}</script>\n<link rel=\"search\" type=\"application/opensearchdescription+xml\" href=\"https://forum.parkinsons.org.uk/opensearch.xml\" title=\"Parkinson&#39;s UK Forum Search\">\n\n      <link href=\"/stylesheets/desktop_f99246ae801b083d3e4cca979d0dade8615b39ac.css?__ws=forum.parkinsons.org.uk\" media=\"all\" rel=\"stylesheet\" data-target=\"desktop\" data-theme-id=\"12\"/>\n      <link href=\"/stylesheets/desktop_theme_12_5d27531cf43f9df0c03a6a6ec3109dd05f9dfc49.css?__ws=forum.parkinsons.org.uk\" media=\"all\" rel=\"stylesheet\" data-target=\"desktop_theme\" data-theme-id=\"12\"/>\n    <link href=\"https://fonts.googleapis.com/css?family=Open+Sans\" rel=\"stylesheet\">\n\n    <meta id=\"data-ga-universal-analytics\" data-tracking-code=\"UA-4855628-1\" data-json=\"{&quot;cookieDomain&quot;:&quot;auto&quot;}\" data-auto-link-domains=\"\">\n\n<link rel='preload' href='/assets/google-universal-analytics-f35b4da49411e6f5559073523aab983da483976a3954c79c756f8579f6fbd6ef.js' as='script'/>\n<script src='/assets/google-universal-analytics-f35b4da49411e6f5559073523aab983da483976a3954c79c756f8579f6fbd6ef.js'></script>\n\n      <link rel=\"alternate\" type=\"application/rss+xml\" title=\"RSS feed of &#39;Hello, I’m Molly&#39;\" href=\"https://forum.parkinsons.org.uk/t/hello-i-m-molly/18850.rss\" />\n  <meta property=\"og:site_name\" content=\"Parkinson&#39;s UK Forum\" />\n<meta name=\"twitter:card\" content=\"summary\" />\n<meta name=\"twitter:image\" content=\"https://forum.parkinsons.org.uk/uploads/db7928/original/2X/3/311fc84f89f49f38601a2f16b295b6f03d3ce5dd.jpg\" />\n<meta property=\"og:image\" content=\"https://forum.parkinsons.org.uk/uploads/db7928/original/2X/3/311fc84f89f49f38601a2f16b295b6f03d3ce5dd.jpg\" />\n<meta property=\"og:url\" content=\"https://forum.parkinsons.org.uk/t/hello-i-m-molly/18850\" />\n<meta name=\"twitter:url\" content=\"https://forum.parkinsons.org.uk/t/hello-i-m-molly/18850\" />\n<meta property=\"og:title\" content=\"Hello, I’m Molly\" />\n<meta name=\"twitter:title\" content=\"Hello, I’m Molly\" />\n<meta property=\"og:description\" content=\"I’m new to the forum and hope I can just pop in and out if that’s alright.  My husband has severe Parkinsons and has gone down hill badly in the last year.   He can’t walk unaided and is suffering badly with Bradykenisia .  It can take ages to get him to bed.  I really just want to talk to someone who understands now and again.  I feel very isolated even though I have family nearby.   All they see is my husband sitting in a chair, nice and clean, well fed and smiling.  They don’t know and we don...\" />\n<meta name=\"twitter:description\" content=\"I’m new to the forum and hope I can just pop in and out if that’s alright.  My husband has severe Parkinsons and has gone down hill badly in the last year.   He can’t walk unaided and is suffering badly with Bradykenisia .  It can take ages to get him to bed.  I really just want to talk to someone who understands now and again.  I feel very isolated even though I have family nearby.   All they see is my husband sitting in a chair, nice and clean, well fed and smiling.  They don’t know and we don...\" />\n<meta name=\"twitter:label1\" value=\"Reading time\" />\n<meta name=\"twitter:data1\" value=\"2 mins \uD83D\uDD51\" />\n<meta name=\"twitter:label2\" value=\"Likes\" />\n<meta name=\"twitter:data2\" value=\"6 ❤\" />\n<meta property=\"article:published_time\" content=\"2019-04-14T11:19:04+00:00\" />\n<meta property=\"og:ignore_canonical\" content=\"true\" />\n\n\n\n    \n  </head>\n  <body class=\"crawler\">\n    <header role=\"banner\">\n    <div class=\"region region-header\">\n        <div class=\"region-header-wrapper\">\n            <div id=\"block-parkinsons-d8-branding\" class=\"block block-system block-system-branding-block\">\n                <a href=\"/\" title=\"Home\" rel=\"home\" class=\"site-logo\">\n                    <img src=\"https://forum.parkinsons.org.uk/uploads/db7928/original/2X/8/862bb7d172e7d127e7f3e147ec43594aa62ac945.png\" alt=\"Parkinson's UK. Change Attitudes. Find a cure. Join us.\">\n                </a>\n            </div>\n            <div id=\"block-helpline\" class=\"block block-block-content block-block-content871cd5af-b938-4947-9dc0-d5c211d08fe3 style-phone\">\n                <div class=\"field field--name-field-link field--type-link field--label-hidden field__item\"><a href=\"tel:+448088000303\">Helpline 0808 800 0303</a></div>\n            </div>\n            <div id=\"block-shop\" class=\"block block-block-content block-block-content6fba5ae5-7797-49cd-8367-f321d8111cd6 style-regular\">\n                <div class=\"field field--name-field-link field--type-link field--label-hidden field__item\"><a href=\"https://shop.parkinsons.org.uk\">Shop</a></div>\n            </div>\n        </div>\n    </div>\n</header>\n\n\n<script src=\"/theme-javascripts/b7e9763fcb584fc8265c56a9f557cd6d2e1e8ed8.js?__ws=forum.parkinsons.org.uk\"></script>\n    <header>\n      <a href=\"/\">\n          <img src=\"https://forum.parkinsons.org.uk/uploads/db7928/original/2X/8/862bb7d172e7d127e7f3e147ec43594aa62ac945.png\" alt=\"Parkinson&#39;s UK Forum\" id=\"site-logo\" style=\"max-width: 150px;\">\n      </a>\n    </header>\n    <div id=\"main-outlet\" class=\"wrap\">\n      <h1>\n  <a href=\"/t/hello-i-m-molly/18850\">Hello, I’m Molly</a>\n</h1>\n\n<div id='breadcrumbs'>\n    <div id=\"breadcrumb-0\" itemscope itemtype=\"http://data-vocabulary.org/Breadcrumb\"\n        itemref=\"breadcrumb-1\"\n      >\n      <a href=\"/c/about-me\" itemprop=\"url\">\n        <span itemprop=\"title\">About me</span>\n      </a>\n    </div>\n    <div id=\"breadcrumb-1\" itemscope itemtype=\"http://data-vocabulary.org/Breadcrumb\"\n>\n      <a href=\"/c/about-me/introductions-and-personal-stories\" itemprop=\"url\">\n        <span itemprop=\"title\">Introductions and personal stories</span>\n      </a>\n    </div>\n</div>\n\n\n\n\n\n<hr>\n\n\n  <div itemscope itemtype='http://schema.org/DiscussionForumPosting'>\n      <div class='creator'>\n        <span>\n          <a href='/u/Molly3'><b itemprop='author'>Molly3</b></a>\n          \n          <time datetime='2019-04-14T11:19:04Z' itemprop='datePublished'>\n            2019-04-14 11:19:04 UTC\n          </time>\n        </span>\n        <span itemprop='position'>#1</span>\n      </div>\n      <div class='post' itemprop='articleBody'>\n        <p>I’m new to the forum and hope I can just pop in and out if that’s alright.<br>\nMy husband has severe Parkinsons and has gone down hill badly in the last year.   He can’t walk unaided and is suffering badly with Bradykenisia .  It can take ages to get him to bed.<br>\nI really just want to talk to someone who understands now and again.  I feel very isolated even though I have family nearby.   All they see is my husband sitting in a chair, nice and clean, well fed and smiling.  They don’t know and we don’t want them to know the half of it.   They have their own lives to lead.   Thank you for listening. <img src=\"https://forum.parkinsons.org.uk/images/emoji/twitter/slight_smile.png?v=6\" title=\":slight_smile:\" class=\"emoji\" alt=\":slight_smile:\"></p>\n      </div>\n      <meta itemprop='interactionCount' content='UserLikes:0'>\n      <meta itemprop='interactionCount' content='UserComments:0'>\n      <meta itemprop='headline' content='Hello, I’m Molly'>\n      <hr>\n  </div>\n  <div itemscope itemtype='http://schema.org/DiscussionForumPosting'>\n      <div class='creator'>\n        <span>\n          <a href='/u/peter_corcoran'><b itemprop='author'>peter_corcoran</b></a>\n          \n          <time datetime='2019-04-14T12:35:27Z' itemprop='datePublished'>\n            2019-04-14 12:35:27 UTC\n          </time>\n        </span>\n        <span itemprop='position'>#2</span>\n      </div>\n      <div class='post' itemprop='articleBody'>\n        <p>Hi Molly welcome I totally understand where you are coming from but having been through exactly the same scenario only with a parent I would urge you to try and include family and or close friends as you will almost certainly at some point hit the wall you have to take care of yourself or you will end up in a big hole you made a good start by joining the forum you can find me on insomnia thread and contact me any time you want to if I can help I will gladly I now have pd myself<br>\nPete</p>\n      </div>\n      <meta itemprop='interactionCount' content='UserLikes:1'>\n      <meta itemprop='interactionCount' content='UserComments:1'>\n      <meta itemprop='headline' content='Hello, I’m Molly'>\n      <hr>\n  </div>\n  <div itemscope itemtype='http://schema.org/DiscussionForumPosting'>\n      <div class='creator'>\n        <span>\n          <a href='/u/Justthisguy'><b itemprop='author'>Justthisguy</b></a>\n          \n          <time datetime='2019-04-14T14:09:36Z' itemprop='datePublished'>\n            2019-04-14 14:09:36 UTC\n          </time>\n        </span>\n        <span itemprop='position'>#3</span>\n      </div>\n      <div class='post' itemprop='articleBody'>\n        <p>Hello Molly<br>\nWelcome to the forum - and sorry to hear what you are going through. As someone who has mild PD and cares for someone who has MND, members of my family often drop in or even stay for few days - and will help when they call and are available to chat to. Sometimes I go to Cares UK forum as it can be nice to post a query there. I found it helpful to have a meeting with a local advisor from <a href=\"http://parkinsons.org\" rel=\"nofollow noopener\">parkinsons.org</a> - I often go out for walks and can meet people for a chat on the way round. Even with all that I can sometimes feel isolated - I hope you manage to get out now and then. Best of luck to you</p>\n      </div>\n      <meta itemprop='interactionCount' content='UserLikes:0'>\n      <meta itemprop='interactionCount' content='UserComments:1'>\n      <meta itemprop='headline' content='Hello, I’m Molly'>\n      <hr>\n  </div>\n  <div itemscope itemtype='http://schema.org/DiscussionForumPosting'>\n      <div class='creator'>\n        <span>\n          <a href='/u/Molly3'><b itemprop='author'>Molly3</b></a>\n          \n          <time datetime='2019-04-14T14:21:51Z' itemprop='datePublished'>\n            2019-04-14 14:21:51 UTC\n          </time>\n        </span>\n        <span itemprop='position'>#4</span>\n      </div>\n      <div class='post' itemprop='articleBody'>\n        <p>Thank you Peter.</p>\n<p>I will try and make the effort.  I couldn’t reply straight away as a Grandaughter popped in for a coffee.</p>\n<p>I will be in touch again.</p>\n      </div>\n      <meta itemprop='interactionCount' content='UserLikes:0'>\n      <meta itemprop='interactionCount' content='UserComments:2'>\n      <meta itemprop='headline' content='Hello, I’m Molly'>\n      <hr>\n  </div>\n  <div itemscope itemtype='http://schema.org/DiscussionForumPosting'>\n      <div class='creator'>\n        <span>\n          <a href='/u/Molly3'><b itemprop='author'>Molly3</b></a>\n          \n          <time datetime='2019-04-14T14:24:46Z' itemprop='datePublished'>\n            2019-04-14 14:24:46 UTC\n          </time>\n        </span>\n        <span itemprop='position'>#5</span>\n      </div>\n      <div class='post' itemprop='articleBody'>\n        <p>Thank you Justthisguy.</p>\n<p>I think that you have spurred me on to accept a little help in the future.</p>\n<p>Thank you for replying.</p>\n      </div>\n      <meta itemprop='interactionCount' content='UserLikes:1'>\n      <meta itemprop='interactionCount' content='UserComments:2'>\n      <meta itemprop='headline' content='Hello, I’m Molly'>\n      <hr>\n  </div>\n  <div itemscope itemtype='http://schema.org/DiscussionForumPosting'>\n      <div class='creator'>\n        <span>\n          <a href='/u/peter_corcoran'><b itemprop='author'>peter_corcoran</b></a>\n          \n          <time datetime='2019-04-14T14:35:55Z' itemprop='datePublished'>\n            2019-04-14 14:35:55 UTC\n          </time>\n        </span>\n        <span itemprop='position'>#6</span>\n      </div>\n      <div class='post' itemprop='articleBody'>\n        <p>Any time Molly  we all need help some times<br>\nPete</p>\n      </div>\n      <meta itemprop='interactionCount' content='UserLikes:0'>\n      <meta itemprop='interactionCount' content='UserComments:0'>\n      <meta itemprop='headline' content='Hello, I’m Molly'>\n      <hr>\n  </div>\n  <div itemscope itemtype='http://schema.org/DiscussionForumPosting'>\n      <div class='creator'>\n        <span>\n          <a href='/u/Tot'><b itemprop='author'>Tot</b></a>\n          \n          <time datetime='2019-04-14T17:29:39Z' itemprop='datePublished'>\n            2019-04-14 17:29:39 UTC\n          </time>\n        </span>\n        <span itemprop='position'>#7</span>\n      </div>\n      <div class='post' itemprop='articleBody'>\n        <p>Hello Molly, just wanted to echo what the others have said.  It most certainly is ok to dip in and out of the forum, it’s never closed and you will always find a willing ear.  Like the others I understand why you keep so much to yourself but please do take care of yourself and remember you can change your mind and let others in. I wouldn’t be surprised if they didn’t suspect something was up, even if you are not saying anything and your husband is presenting well.  It is hard to hide all the non verbal cues when you know someone, maybe they don’t like to ask.  I am not assuming anything here you understand, just offering a view and if you get enough support by coming to the forum now and again that’s fine.  The question of when, if and how to tell family and friends is one we all have to wrestle with and there is no black and white answers to that, only what feels right for you and your husband. It is true you don’t know how people will react but if that is stopping you, ask yourself why.  Strikes me you are using a lot of energy in keeping up appearances when it need not be like that.  Please be assured I am not being critical of your decision for you and husband to manage, it is your choice and if that works for you then it’s  the right thing to do, just be equally sure  of your reasons and know there are other ways to manage the circumstances in which you find yourselves.   Whatever you decide,  use the forum whenever you need.  You are most certainly not on your own.  With best wishes to you both.</p>\n      </div>\n      <meta itemprop='interactionCount' content='UserLikes:1'>\n      <meta itemprop='interactionCount' content='UserComments:0'>\n      <meta itemprop='headline' content='Hello, I’m Molly'>\n      <hr>\n  </div>\n  <div itemscope itemtype='http://schema.org/DiscussionForumPosting'>\n      <div class='creator'>\n        <span>\n          <a href='/u/peter_corcoran'><b itemprop='author'>peter_corcoran</b></a>\n          \n          <time datetime='2019-04-14T19:41:52Z' itemprop='datePublished'>\n            2019-04-14 19:41:52 UTC\n          </time>\n        </span>\n        <span itemprop='position'>#8</span>\n      </div>\n      <div class='post' itemprop='articleBody'>\n        <p>Hi Molly just to introduce myself I, m 9 member of my family with pd my late father, and his late brother and sister both had pd so I have seen Parkinson’s in it, s many forms and all I can say is in the end we gave in and asked for help it’s not an easy decision to make but you really can’t afford to run yourself into the ground please talk it over  and at least think about it I, m here if you want to chat<br>\nPete</p>\n      </div>\n      <meta itemprop='interactionCount' content='UserLikes:0'>\n      <meta itemprop='interactionCount' content='UserComments:0'>\n      <meta itemprop='headline' content='Hello, I’m Molly'>\n      <hr>\n  </div>\n  <div itemscope itemtype='http://schema.org/DiscussionForumPosting'>\n      <div class='creator'>\n        <span>\n          <a href='/u/autumnlady'><b itemprop='author'>autumnlady</b></a>\n          \n          <time datetime='2019-04-17T12:51:44Z' itemprop='datePublished'>\n            2019-04-17 12:51:44 UTC\n          </time>\n        </span>\n        <span itemprop='position'>#9</span>\n      </div>\n      <div class='post' itemprop='articleBody'>\n        <p>Hi Molly I do so understand. My husband dx around 10 years ago. He is declining quite badly and because of past problems due to dopamine agonists (no longer on them), his family (he is my 2nd husband) have nothing to do with him. So the task of caring is 100 per cent at my feet, although my family have been much more understanding and fully support me.</p>\n<p>Although he is not quite at level of your husband he is definitely failing and its hard to watch him struggle on really bad days like today. I hope we can offer each other moral support over the difficulties this wretched illness causes.</p>\n      </div>\n      <meta itemprop='interactionCount' content='UserLikes:1'>\n      <meta itemprop='interactionCount' content='UserComments:0'>\n      <meta itemprop='headline' content='Hello, I’m Molly'>\n      <hr>\n  </div>\n  <div itemscope itemtype='http://schema.org/DiscussionForumPosting'>\n      <div class='creator'>\n        <span>\n          <a href='/u/T1'><b itemprop='author'>T1</b></a>\n          \n          <time datetime='2019-04-17T19:03:31Z' itemprop='datePublished'>\n            2019-04-17 19:03:31 UTC\n          </time>\n        </span>\n        <span itemprop='position'>#10</span>\n      </div>\n      <div class='post' itemprop='articleBody'>\n        <p>Hi Molly.<br>\nJust thought I’d say hello &amp; welcome to the forum.<br>\nI’ve read the whole thread and can’t think of anything to add to the good people who have already replied.<br>\nExcept to say that on here we look after each other as best we can.<br>\nI wish you peace of mind and hope you find the kind of help that you require going forward.<br>\nTommy <img src=\"https://forum.parkinsons.org.uk/images/emoji/twitter/pill.png?v=6\" title=\":pill:\" class=\"emoji\" alt=\":pill:\"><img src=\"https://forum.parkinsons.org.uk/images/emoji/twitter/pill.png?v=6\" title=\":pill:\" class=\"emoji\" alt=\":pill:\"><img src=\"https://forum.parkinsons.org.uk/images/emoji/twitter/pill.png?v=6\" title=\":pill:\" class=\"emoji\" alt=\":pill:\"></p>\n      </div>\n      <meta itemprop='interactionCount' content='UserLikes:2'>\n      <meta itemprop='interactionCount' content='UserComments:0'>\n      <meta itemprop='headline' content='Hello, I’m Molly'>\n      <hr>\n  </div>\n  <div itemscope itemtype='http://schema.org/DiscussionForumPosting'>\n      <div class='creator'>\n        <span>\n          <a href='/u/Bribaba'><b itemprop='author'>Bribaba</b></a>\n          \n          <time datetime='2019-04-18T20:22:14Z' itemprop='datePublished'>\n            2019-04-18 20:22:14 UTC\n          </time>\n        </span>\n        <span itemprop='position'>#11</span>\n      </div>\n      <div class='post' itemprop='articleBody'>\n        <p>Hi,  it might be useful to say what area you live in. I’d be happy to pop in if you think that may help.<br>\nBrian</p>\n      </div>\n      <meta itemprop='interactionCount' content='UserLikes:0'>\n      <meta itemprop='interactionCount' content='UserComments:0'>\n      <meta itemprop='headline' content='Hello, I’m Molly'>\n      <hr>\n  </div>\n  <div itemscope itemtype='http://schema.org/DiscussionForumPosting'>\n      <div class='creator'>\n        <span>\n          <a href='/u/Vanessa_Bryson'><b itemprop='author'>Vanessa_Bryson</b></a>\n          \n          <time datetime='2019-04-20T11:51:43Z' itemprop='datePublished'>\n            2019-04-20 11:51:43 UTC\n          </time>\n        </span>\n        <span itemprop='position'>#12</span>\n      </div>\n      <div class='post' itemprop='articleBody'>\n        <p>Hi Molly,<br>\nI’m Vanessa. I care for my husband with advanced PD and Lewy Body dementia<br>\n.</p>\n<p>Have you got any free or paid help at all yet? Or help and advice from a charity like Carers Support, who are marvellous. They can refer you to various free expert advisors. And to charities who provide respite care.</p>\n<p>I wonder if you are able to leave your husband at all to get out and have a coffee with friends.<br>\nI understand you want to protect the family. I began that way with my  husband’s daughters. And then felt they deserved to know. It didn’t make them more attentive! But I keep a daily diary and sometimes share parts of that with them by email to keep them in the picture about their dad. They appreciate that.</p>\n<p>Only you know what is best for you. And while your husband has the right to make that decision, he will want to consider you and the family. Would they be more hurt by not being told?</p>\n<p>Whatever you decide, please try to have a few hours to yourself, either in or out of the house, each week on a regular basis. Don’t wait till you hit a wall. You matter too. Without you, your husband could not manage alone.</p>\n<p>Something you may not have thought of, because I didn’t, is that it’s a good idea to surround yourself with sufficient professional visiting support to have evidence you are able and competent to be your husband’s main carer. District nurse for example, or charity employees such as Care Navigators.</p>\n<p>Take care and good luck.</p>\n      </div>\n      <meta itemprop='interactionCount' content='UserLikes:0'>\n      <meta itemprop='interactionCount' content='UserComments:0'>\n      <meta itemprop='headline' content='Hello, I’m Molly'>\n      <hr>\n  </div>\n\n\n\n\n\n\n    </div>\n    <footer class=\"container\">\n      <nav class='crawler-nav' itemscope itemtype='http://schema.org/SiteNavigationElement'>\n        <a href='/'>Home</a>\n        <a href=\"/categories\">Categories</a>\n        <a href=\"/guidelines\">FAQ/Guidelines</a>\n        <a href=\"/tos\">Terms of Service</a>\n        <a href=\"/privacy\">Privacy Policy</a>\n      </nav>\n      <p class='powered-by-link'>Powered by <a href=\"https://www.discourse.org\">Discourse</a>, best viewed with JavaScript enabled</p>\n    </footer>\n    \n  </body>\n  \n</html>\n",
  "url": "https://forum.parkinsons.org.uk/t/hello-i-m-molly/18850"
}