{
  "contentId": "ba5c4c40-886b-11e9-8f96-97f71b5221d6",
  "html": "<!DOCTYPE html>\n<html lang=\"en\">\n  <head>\n    <meta charset=\"utf-8\">\n    <title>Despair - Impulsive and compulsive behaviour - Parkinson&#39;s UK Forum</title>\n    <meta name=\"description\" content=\"My husband tried to commit suicide yesterday. \r\nHe is in hospital recovering. \r\nAll the counselling and  help provided over the last 4 years cannot undo the terrible damage caused by the DAs and the effect on our marriag&amp;hellip;\">\n    <meta name=\"author\" content=\"\">\n<meta name=\"generator\" content=\"Discourse 2.2.5 - https://github.com/discourse/discourse version c294ff3609f988dcafb742e91606d60ca13b794d\">\n<link rel=\"icon\" type=\"image/png\" href=\"https://forum.parkinsons.org.uk/uploads/db7928/original/2X/3/311fc84f89f49f38601a2f16b295b6f03d3ce5dd.jpg\">\n<link rel=\"apple-touch-icon\" type=\"image/png\" href=\"https://forum.parkinsons.org.uk/uploads/db7928/original/2X/3/311fc84f89f49f38601a2f16b295b6f03d3ce5dd.jpg\">\n<meta name=\"theme-color\" content=\"#ffffff\">\n<meta name=\"viewport\" content=\"width=device-width, minimum-scale=1.0, maximum-scale=1.0, user-scalable=yes\">\n<link rel=\"canonical\" href=\"https://forum.parkinsons.org.uk/t/despair/7745?page=2\" />\n<script type=\"application/ld+json\">{\"@context\":\"http://schema.org\",\"@type\":\"WebSite\",\"url\":\"https://forum.parkinsons.org.uk\",\"potentialAction\":{\"@type\":\"SearchAction\",\"target\":\"https://forum.parkinsons.org.uk/search?q={search_term_string}\",\"query-input\":\"required name=search_term_string\"}}</script>\n<link rel=\"search\" type=\"application/opensearchdescription+xml\" href=\"https://forum.parkinsons.org.uk/opensearch.xml\" title=\"Parkinson&#39;s UK Forum Search\">\n\n      <link href=\"/stylesheets/desktop_f99246ae801b083d3e4cca979d0dade8615b39ac.css?__ws=forum.parkinsons.org.uk\" media=\"all\" rel=\"stylesheet\" data-target=\"desktop\" data-theme-id=\"12\"/>\n      <link href=\"/stylesheets/desktop_theme_12_5d27531cf43f9df0c03a6a6ec3109dd05f9dfc49.css?__ws=forum.parkinsons.org.uk\" media=\"all\" rel=\"stylesheet\" data-target=\"desktop_theme\" data-theme-id=\"12\"/>\n    <link href=\"https://fonts.googleapis.com/css?family=Open+Sans\" rel=\"stylesheet\">\n\n    <meta id=\"data-ga-universal-analytics\" data-tracking-code=\"UA-4855628-1\" data-json=\"{&quot;cookieDomain&quot;:&quot;auto&quot;}\" data-auto-link-domains=\"\">\n\n<link rel='preload' href='/assets/google-universal-analytics-f35b4da49411e6f5559073523aab983da483976a3954c79c756f8579f6fbd6ef.js' as='script'/>\n<script src='/assets/google-universal-analytics-f35b4da49411e6f5559073523aab983da483976a3954c79c756f8579f6fbd6ef.js'></script>\n\n      <link rel=\"alternate\" type=\"application/rss+xml\" title=\"RSS feed of &#39;Despair&#39;\" href=\"https://forum.parkinsons.org.uk/t/despair/7745.rss\" />\n  <meta property=\"og:site_name\" content=\"Parkinson&#39;s UK Forum\" />\n<meta name=\"twitter:card\" content=\"summary\" />\n<meta name=\"twitter:image\" content=\"https://forum.parkinsons.org.uk/uploads/db7928/original/2X/3/311fc84f89f49f38601a2f16b295b6f03d3ce5dd.jpg\" />\n<meta property=\"og:image\" content=\"https://forum.parkinsons.org.uk/uploads/db7928/original/2X/3/311fc84f89f49f38601a2f16b295b6f03d3ce5dd.jpg\" />\n<meta property=\"og:url\" content=\"https://forum.parkinsons.org.uk/t/despair/7745?page=2\" />\n<meta name=\"twitter:url\" content=\"https://forum.parkinsons.org.uk/t/despair/7745?page=2\" />\n<meta property=\"og:title\" content=\"Despair\" />\n<meta name=\"twitter:title\" content=\"Despair\" />\n<meta property=\"og:description\" content=\"all the best to both of you hope he gets the right balance soon.gus\" />\n<meta name=\"twitter:description\" content=\"all the best to both of you hope he gets the right balance soon.gus\" />\n<meta property=\"article:published_time\" content=\"2014-09-24T16:27:08+00:00\" />\n<meta property=\"og:ignore_canonical\" content=\"true\" />\n\n      <link rel=\"prev\" href=\"/t/despair/7745\">\n      <link rel=\"next\" href=\"/t/despair/7745?page=3\">\n\n\n    \n  </head>\n  <body class=\"crawler\">\n    <header role=\"banner\">\n    <div class=\"region region-header\">\n        <div class=\"region-header-wrapper\">\n            <div id=\"block-parkinsons-d8-branding\" class=\"block block-system block-system-branding-block\">\n                <a href=\"/\" title=\"Home\" rel=\"home\" class=\"site-logo\">\n                    <img src=\"https://forum.parkinsons.org.uk/uploads/db7928/original/2X/8/862bb7d172e7d127e7f3e147ec43594aa62ac945.png\" alt=\"Parkinson's UK. Change Attitudes. Find a cure. Join us.\">\n                </a>\n            </div>\n            <div id=\"block-helpline\" class=\"block block-block-content block-block-content871cd5af-b938-4947-9dc0-d5c211d08fe3 style-phone\">\n                <div class=\"field field--name-field-link field--type-link field--label-hidden field__item\"><a href=\"tel:+448088000303\">Helpline 0808 800 0303</a></div>\n            </div>\n            <div id=\"block-shop\" class=\"block block-block-content block-block-content6fba5ae5-7797-49cd-8367-f321d8111cd6 style-regular\">\n                <div class=\"field field--name-field-link field--type-link field--label-hidden field__item\"><a href=\"https://shop.parkinsons.org.uk\">Shop</a></div>\n            </div>\n        </div>\n    </div>\n</header>\n\n\n<script src=\"/theme-javascripts/b7e9763fcb584fc8265c56a9f557cd6d2e1e8ed8.js?__ws=forum.parkinsons.org.uk\"></script>\n    <header>\n      <a href=\"/\">\n          <img src=\"https://forum.parkinsons.org.uk/uploads/db7928/original/2X/8/862bb7d172e7d127e7f3e147ec43594aa62ac945.png\" alt=\"Parkinson&#39;s UK Forum\" id=\"site-logo\" style=\"max-width: 150px;\">\n      </a>\n    </header>\n    <div id=\"main-outlet\" class=\"wrap\">\n      <h1>\n  <a href=\"/t/despair/7745\">Despair</a>\n</h1>\n\n<div id='breadcrumbs'>\n    <div id=\"breadcrumb-0\" itemscope itemtype=\"http://data-vocabulary.org/Breadcrumb\"\n        itemref=\"breadcrumb-1\"\n      >\n      <a href=\"/c/about-parkinsons-and-health\" itemprop=\"url\">\n        <span itemprop=\"title\">About Parkinson&#39;s and health</span>\n      </a>\n    </div>\n    <div id=\"breadcrumb-1\" itemscope itemtype=\"http://data-vocabulary.org/Breadcrumb\"\n>\n      <a href=\"/c/about-parkinsons-and-health/impulsive-and-compulsive-behaviour\" itemprop=\"url\">\n        <span itemprop=\"title\">Impulsive and compulsive behaviour</span>\n      </a>\n    </div>\n</div>\n\n\n\n\n\n<hr>\n\n\n  <div itemscope itemtype='http://schema.org/DiscussionForumPosting'>\n      <div class='creator'>\n        <span>\n          <a href='/u/gus'><b itemprop='author'>gus</b></a>\n          \n          <time datetime='2014-09-24T16:27:08Z' itemprop='datePublished'>\n            2014-09-24 16:27:08 UTC\n          </time>\n        </span>\n        <span itemprop='position'>#21</span>\n      </div>\n      <div class='post' itemprop='articleBody'>\n        <p>all the best to both of you hope he gets the right balance soon.gus</p>\n      </div>\n      <meta itemprop='interactionCount' content='UserLikes:0'>\n      <meta itemprop='interactionCount' content='UserComments:0'>\n      <meta itemprop='headline' content='Despair'>\n      <hr>\n  </div>\n  <div itemscope itemtype='http://schema.org/DiscussionForumPosting'>\n      <div class='creator'>\n        <span>\n          <a href='/u/goldengirl'><b itemprop='author'>goldengirl</b></a>\n          \n          <time datetime='2014-09-24T17:41:10Z' itemprop='datePublished'>\n            2014-09-24 17:41:10 UTC\n          </time>\n        </span>\n        <span itemprop='position'>#22</span>\n      </div>\n      <div class='post' itemprop='articleBody'>\n        <p>Thanks, Gus.</p>\r\n<p>The kind words comfort me, as always.</p>\r\n<p>If anyone else suffers depression and takes Azilect ( Rasagilene) the detailed search by the &nbsp;hospital pharmacist has unearthed Mirtazipine&nbsp;as a safe anti-depressant to take with it without risking the seratonin syndrome.</p>\r\n<p>The only other is Agomelatine which is difficult as you have to apply for a license to prescribe it.</p>\r\n<p>Thank goodness our chemist refused to fill the prescription for Sertraline as it would have been very dangerous to mix the two.</p>\r\n<p>At last, a lifeline!</p>\r\n<p>Despair receding!</p>\r\n<p>Love</p>\r\n<p>GG</p>\n      </div>\n      <meta itemprop='interactionCount' content='UserLikes:0'>\n      <meta itemprop='interactionCount' content='UserComments:0'>\n      <meta itemprop='headline' content='Despair'>\n      <hr>\n  </div>\n  <div itemscope itemtype='http://schema.org/DiscussionForumPosting'>\n      <div class='creator'>\n        <span>\n          <a href='/u/gus'><b itemprop='author'>gus</b></a>\n          \n          <time datetime='2014-09-24T20:50:06Z' itemprop='datePublished'>\n            2014-09-24 20:50:06 UTC\n          </time>\n        </span>\n        <span itemprop='position'>#23</span>\n      </div>\n      <div class='post' itemprop='articleBody'>\n        <p>i take that you feel a little better it sounds&nbsp;it,good news</p>\n      </div>\n      <meta itemprop='interactionCount' content='UserLikes:0'>\n      <meta itemprop='interactionCount' content='UserComments:0'>\n      <meta itemprop='headline' content='Despair'>\n      <hr>\n  </div>\n  <div itemscope itemtype='http://schema.org/DiscussionForumPosting'>\n      <div class='creator'>\n        <span>\n          <a href='/u/fedexlike'><b itemprop='author'>fedexlike</b></a>\n          \n          <time datetime='2014-09-26T11:24:52Z' itemprop='datePublished'>\n            2014-09-26 11:24:52 UTC\n          </time>\n        </span>\n        <span itemprop='position'>#24</span>\n      </div>\n      <div class='post' itemprop='articleBody'>\n        <p><img alt=\"cool\" height=\"23\" src=\"http://www.parkinsons.org.uk/sites/all/libraries/ckeditor/plugins/smiley/images/cool.gif\" title=\"cool\" width=\"23\" />&nbsp;Its sunny in Northumberland</p>\r\n<p>&nbsp;&nbsp;&nbsp;&nbsp;&nbsp;&nbsp;&nbsp;&nbsp;&nbsp;&nbsp;&nbsp;&nbsp;&nbsp;&nbsp;&nbsp;&nbsp;&nbsp; Hello my Friend</p>\r\n<p>&nbsp;&nbsp;&nbsp;&nbsp;&nbsp;&nbsp;&nbsp;&nbsp;&nbsp;&nbsp;&nbsp;&nbsp;&nbsp;&nbsp;&nbsp;&nbsp;&nbsp;&nbsp;&nbsp;&nbsp; There have been many times I can tell you when I have stood on the Tyne Bridge, my mind a battlefield I was estimating how long the fall would take before I hit the quayside , I was not going to jump into the river as I did not fancy drowning, so&nbsp; I estimated 3 or 4 seconds airborn then oblivion and so many times I almost&nbsp; did it, I considered jumping in front of a HST but having a interest in the rail system I knew the shock that the driver has to endure, poison, no didnt fancy that , and so on and on, this went on before&nbsp; PD diagnosis which was in 99, years before&nbsp;.&nbsp;&nbsp;&nbsp; Then after I was told that I was in the clutches of one of&nbsp; the most horrible of diseases known to man,&nbsp;, &nbsp;you would think that would be it for old Fed and I would return to Tynesides&nbsp; Iconic Bridge and do my birdman of tyne impression, but no in fact far from it ,I was given Madopar&nbsp; and Cabergoline and within a week I was feeling much better the depression had lifted and as the&nbsp; drugs began to work I saw things in a new light, mind you I had to cut the cabergoline as it was turning me into a sex maniac, so that went to&nbsp; be replaced with , ohI&nbsp; cant remember sorry, it will&nbsp; come back, sorry GG,&nbsp; but Iwas feeling so much bettr and as known that low dopamine levels can cause depression I was killing two rats with one stick, or words to that effect, also I have the most amazing team behind me at NTGH&nbsp; who have helped me so much, not&nbsp; to mention a really efficent&nbsp; community health care team all of who I cannot praise enough , in other words GG these folks saved me, oh I still go off on&nbsp; downers but nothing like the creeping cold blackness that would&nbsp; haunt me for months, completely crippling me I am much stronger mentaly if not physicaly, and I am now equipped to deal with what lies ahead , I know anyone reading my posts may be of the opinion that I am slightly unhinged, well if you do I am glad as it is one of the best&nbsp; ways of dealing with our mutual enemy BLACKHEART and it works for me, I really do enjoy being very silly, even my Lady was helpless and totally&nbsp; consumed in mirth at my impression of clint eastwood impression geordie style&nbsp; and I QUOTE,, &quot; how&nbsp; yee lot, yi bedda&nbsp; say ya sorry ti mee donkey, or yah al deed infower secuns&quot;</p>\r\n<p>&nbsp;&nbsp;&nbsp;&nbsp;&nbsp;&nbsp; see what I mean, in fact its given me a idea, but I will post it elsewhere.</p>\r\n<p>&nbsp;So GG its been a long and winding road, and I know I am very lucky I consider all the great professionals mentioned here as personal friends without them I would not be here then by no means leased, no thats not a spelling mistake sometimes she does nightshift a the sewage treament plant,, no&nbsp; no she doesnt I just made that up.&nbsp;&nbsp;&nbsp;&nbsp;&nbsp;&nbsp;&nbsp;&nbsp;&nbsp;&nbsp;&nbsp;&nbsp;&nbsp;&nbsp;&nbsp;&nbsp;&nbsp;&nbsp;&nbsp;&nbsp;&nbsp;&nbsp;&nbsp;&nbsp;&nbsp;&nbsp;&nbsp;&nbsp;&nbsp;&nbsp; Take many care GG&nbsp; AND&nbsp; ALL YOUSE</p>\r\n<p>&nbsp;&nbsp;&nbsp;&nbsp;&nbsp;&nbsp;&nbsp;&nbsp;&nbsp;&nbsp;&nbsp;&nbsp;&nbsp;&nbsp;&nbsp;&nbsp;&nbsp;&nbsp;&nbsp;&nbsp;&nbsp;&nbsp;&nbsp;&nbsp;&nbsp;&nbsp;&nbsp;&nbsp;&nbsp;&nbsp;</p>\n      </div>\n      <meta itemprop='interactionCount' content='UserLikes:0'>\n      <meta itemprop='interactionCount' content='UserComments:0'>\n      <meta itemprop='headline' content='Despair'>\n      <hr>\n  </div>\n  <div itemscope itemtype='http://schema.org/DiscussionForumPosting'>\n      <div class='creator'>\n        <span>\n          <a href='/u/Eileenpatricia'><b itemprop='author'>Eileenpatricia</b></a>\n          \n          <time datetime='2014-09-26T21:21:32Z' itemprop='datePublished'>\n            2014-09-26 21:21:32 UTC\n          </time>\n        </span>\n        <span itemprop='position'>#25</span>\n      </div>\n      <div class='post' itemprop='articleBody'>\n        <p>Hi GG,</p>\r\n<p>I have only &nbsp;just seen your&nbsp; original post on 19th September..&nbsp; So sorry that your husband is still suffering so much &nbsp;&nbsp;mentally from the damage&nbsp;caused.&nbsp; by d.a.&#39;s..&nbsp;&nbsp;&nbsp;&nbsp; &nbsp;&nbsp;&nbsp;&nbsp;&nbsp;&nbsp;&nbsp; &nbsp;&nbsp;&nbsp;&nbsp;&nbsp;&nbsp;&nbsp;&nbsp;&nbsp;&nbsp;&nbsp;</p>\r\n<p>&quot;Never heard of impulse control disorder with pwp&#39;s&quot;&nbsp; Amazing - its even on the patient leaflet in the Sinemet packets now.&nbsp; By now you will have seen your Parkinson&#39;s nurse&nbsp;&nbsp;so I hope this as helped you with the hospital medics.&nbsp;&nbsp; &nbsp;Cannot add to what has already been said&nbsp; but would like to &nbsp;wish you all the best.</p>\n      </div>\n      <meta itemprop='interactionCount' content='UserLikes:0'>\n      <meta itemprop='interactionCount' content='UserComments:0'>\n      <meta itemprop='headline' content='Despair'>\n      <hr>\n  </div>\n  <div itemscope itemtype='http://schema.org/DiscussionForumPosting'>\n      <div class='creator'>\n        <span>\n          <a href='/u/goldengirl'><b itemprop='author'>goldengirl</b></a>\n          \n          <time datetime='2014-09-27T08:32:00Z' itemprop='datePublished'>\n            2014-09-27 08:32:00 UTC\n          </time>\n        </span>\n        <span itemprop='position'>#26</span>\n      </div>\n      <div class='post' itemprop='articleBody'>\n        <p>Thank you, Fed and Eileenpatricia.<span style=\"line-height: 1.4;\">&nbsp;</span></p>\r\n<p><span style=\"line-height: 1.4;\">Friends on the forum keep me going. Thank you too to Ezinda for her kind email.</span></p>\r\n<p><span style=\"line-height: 1.4;\">Our Parkinson&#39;s nurse was a great help and spoke to the staff about the importance of his Sinemet routine, and gave other useful advice.</span></p>\r\n<p><span style=\"line-height: 1.4;\">She offered to run a training session for staff....much needed!</span></p>\r\n<p><span style=\"line-height: 1.4;\">Things continue to improve very slowly....my husband is taking a very low dose of Mirtazipine&nbsp;and it will be slowly increased to a therapeutic dose.</span></p>\r\n<p><span style=\"line-height: 1.4;\">He is being monitored for side effects and is becoming a little brighter in his mood.</span></p>\r\n<p><span style=\"line-height: 1.4;\">Sinemet is appearing more regularly but still not every 2 hours.</span></p>\r\n<p><span style=\"line-height: 1.4;\">Life goes on but the celebrations for our Golden Wedding next weekend may have to be cancelled.</span></p>\r\n<p><span style=\"line-height: 1.4;\">Fingers crossed it will go ahead.</span></p>\r\n<p><span style=\"line-height: 1.4;\">Love</span></p>\r\n<p><span style=\"line-height: 1.4;\">GG</span></p>\n      </div>\n      <meta itemprop='interactionCount' content='UserLikes:0'>\n      <meta itemprop='interactionCount' content='UserComments:0'>\n      <meta itemprop='headline' content='Despair'>\n      <hr>\n  </div>\n  <div itemscope itemtype='http://schema.org/DiscussionForumPosting'>\n      <div class='creator'>\n        <span>\n          <a href='/u/Eck'><b itemprop='author'>Eck</b></a>\n          \n          <time datetime='2014-10-05T11:42:53Z' itemprop='datePublished'>\n            2014-10-05 11:42:53 UTC\n          </time>\n        </span>\n        <span itemprop='position'>#27</span>\n      </div>\n      <div class='post' itemprop='articleBody'>\n        <p>GG and spouse, you have done immeasurable good by highlighting our plight into catastrophic obsessive/ impulsive behaviour disorder than most.&nbsp;</p>\r\n<p>(Even the new name makes it less offensive an injustice)</p>\r\n<p>My best wishes to you both.</p>\r\n<p>you can now highlight the injustices within the nhs.&nbsp;</p>\n      </div>\n      <meta itemprop='interactionCount' content='UserLikes:0'>\n      <meta itemprop='interactionCount' content='UserComments:0'>\n      <meta itemprop='headline' content='Despair'>\n      <hr>\n  </div>\n  <div itemscope itemtype='http://schema.org/DiscussionForumPosting'>\n      <div class='creator'>\n        <span>\n          <a href='/u/goldengirl'><b itemprop='author'>goldengirl</b></a>\n          \n          <time datetime='2014-10-05T15:43:42Z' itemprop='datePublished'>\n            2014-10-05 15:43:42 UTC\n          </time>\n        </span>\n        <span itemprop='position'>#28</span>\n      </div>\n      <div class='post' itemprop='articleBody'>\n        <p>Thank you Eck for your good wishes. So many forum members are kind and comforting.</p>\r\n<p>Our 2 wonderful children arranged an afternoon tea in The Dales for us and invited family and close friends.</p>\r\n<p>It was a lovely surprise and my husband was allowed out of hospital for weekend leave.</p>\r\n<p>Although there were some tears, it was a very happy time.</p>\r\n<p>When I collected him from the ward, he hadn&#39;t had his 2 hourly Sinemet for 5 hours.We waited an hour for his medication to be packed.</p>\r\n<p>I took him back today and met a Sister for the first time who said she was preparing a care plan which she told me should have been done on arrival 2 weeks ago.</p>\r\n<p>An enormous part of his problem is that although it almost destroyed his life and that of his family, he longs for the euphoria and thrills of the DA years, the risks and excitement of his secret life.</p>\r\n<p>He took one Requip XL pill a day and never even thought about having Parkinson&#39;s as he pursued his compulsive hypersexuality adventures , covering everything in a web of deceit until our savings were gone and all his betrayal was revealed.</p>\r\n<p>Life in the real world I for him is grey and frightening.Trust is gone and the loving closeness we shared for so many years is too.</p>\r\n<p>We fight to &nbsp;keep our marriage alive but so much has been destroyed.</p>\r\n<p>At least medical staff have prescribed a reasonably safe anti-depressant and things may improve.</p>\r\n<p>But we have served our purpose in enriching the shareholders of GlaxoSmithKline.</p>\r\n<p>Love</p>\r\n<p>GG</p>\n      </div>\n      <meta itemprop='interactionCount' content='UserLikes:0'>\n      <meta itemprop='interactionCount' content='UserComments:0'>\n      <meta itemprop='headline' content='Despair'>\n      <hr>\n  </div>\n  <div itemscope itemtype='http://schema.org/DiscussionForumPosting'>\n      <div class='creator'>\n        <span>\n          <a href='/u/goldengirl'><b itemprop='author'>goldengirl</b></a>\n          \n          <time datetime='2014-10-05T16:01:19Z' itemprop='datePublished'>\n            2014-10-05 16:01:19 UTC\n          </time>\n        </span>\n        <span itemprop='position'>#29</span>\n      </div>\n      <div class='post' itemprop='articleBody'>\n        <p>I have chosen a new picture to accompany my posts.</p>\r\n<p>Enlarged, it sums up my view of the current NHS situation.</p>\r\n<p>As a technophobe, and an incompetent too, I am not sure if it has worked!</p>\r\n<p>GG</p>\n      </div>\n      <meta itemprop='interactionCount' content='UserLikes:0'>\n      <meta itemprop='interactionCount' content='UserComments:0'>\n      <meta itemprop='headline' content='Despair'>\n      <hr>\n  </div>\n  <div itemscope itemtype='http://schema.org/DiscussionForumPosting'>\n      <div class='creator'>\n        <span>\n          <a href='/u/goldengirl'><b itemprop='author'>goldengirl</b></a>\n          \n          <time datetime='2014-10-05T16:02:16Z' itemprop='datePublished'>\n            2014-10-05 16:02:16 UTC\n          </time>\n        </span>\n        <span itemprop='position'>#30</span>\n      </div>\n      <div class='post' itemprop='articleBody'>\n        <p>No, it&#39;s still an orang utang.</p>\r\n<p>Will try later!</p>\r\n<p>x</p>\n      </div>\n      <meta itemprop='interactionCount' content='UserLikes:0'>\n      <meta itemprop='interactionCount' content='UserComments:0'>\n      <meta itemprop='headline' content='Despair'>\n      <hr>\n  </div>\n  <div itemscope itemtype='http://schema.org/DiscussionForumPosting'>\n      <div class='creator'>\n        <span>\n          <a href='/u/Vivian'><b itemprop='author'>Vivian</b></a>\n          \n          <time datetime='2014-10-20T11:43:46Z' itemprop='datePublished'>\n            2014-10-20 11:43:46 UTC\n          </time>\n        </span>\n        <span itemprop='position'>#31</span>\n      </div>\n      <div class='post' itemprop='articleBody'>\n        <p>&nbsp;</p>\r\n<p>Dear Golden Girl,</p>\r\n<p>I am so sorry that you have been having such a dreadful time, as you may remember my husband tried to get himself killed last year by getting out of his nursing home and lying down in the road , a very busy one with a blind corner, all this when he was having one to one care! Thankfully a lady driver saw him in her lights and stopped the traffic and called the police and paramedic&#39;s so he was unijured and was allowed to stay in the home with no addmission into hospital.</p>\r\n<p>You &nbsp;I and our husbands have been through many years of PD and the medication as well as the changes to our whole lives, and it does not get any easier.</p>\r\n<p>When my husband was in a mental health hospital six years ago due to the drugs causing paraniod or delusional idea&#39;s he was treated appallingly being left naked on the cold wet room floor, pressing a bell that didn&#39;t work or was switched off, not having his drugs on time and No water in his room because that is not allowed, and generally nurses being cruel it was the worst time ever in fact my husband son and I prayed around the bed together because we though he would die.</p>\r\n<p>I made a formal complaint to the health authority fully backed by our PD Consultant and PD nurse and got &nbsp;nowhere, it was a complete waste of time, I did also ring Steve Ford to say how bad it was and he told me that they were going to address the care of PWP&#39;s in mental hospitals that very next year, now I don&#39;t know what has been done but care for people with PD is still a huge battle and it frustrats me that after forty years of struggle we are still in this position. This is one of the reasons I don&#39;t come on here very often as it just makes me angry and really sad to see so little progress.</p>\r\n<p>We all need a cure but you have to improve lives of people who are struggling for some kind of day to day life and help families to stay together with much more support on the ground.</p>\r\n<p>We were part of the Yappers group many years ago and all you younger ones need to keep banging the drum as it is your care and your future please keep fighting, I know how hard it is but we have to have better care and understanding everywhere.</p>\r\n<p>After our four year battle of trying to get better care and unstanding at my husband&#39;s nursing home it is at last getting so much better I feel a great weight has been lifted, but I still wish he could be at home with me where I can help to look after him and we can spend the rest of the time together instead of him being an hour away and me with my case at the ready to drive off at anytime.</p>\r\n<p>Golden Girl you have all my love and prayers with you both and I know only too well the hurt you have felt and are still feeling please look after yourself as well.</p>\r\n<p>love vivian</p>\r\n<p>&nbsp;</p>\n      </div>\n      <meta itemprop='interactionCount' content='UserLikes:0'>\n      <meta itemprop='interactionCount' content='UserComments:0'>\n      <meta itemprop='headline' content='Despair'>\n      <hr>\n  </div>\n  <div itemscope itemtype='http://schema.org/DiscussionForumPosting'>\n      <div class='creator'>\n        <span>\n          <a href='/u/goldengirl'><b itemprop='author'>goldengirl</b></a>\n          \n          <time datetime='2014-10-20T12:06:29Z' itemprop='datePublished'>\n            2014-10-20 12:06:29 UTC\n          </time>\n        </span>\n        <span itemprop='position'>#32</span>\n      </div>\n      <div class='post' itemprop='articleBody'>\n        <p>Thank you so much, Vivian.</p>\r\n<p>I know that you understand because you have been in the same dark place.</p>\r\n<p>My husband is home now and life is beginning to return to some semblance of normality.</p>\r\n<p>His time in hospital was just a chaotic, disorganised period of muddle and lack of real care.</p>\r\n<p>At his discharge meeting, the psychiatrist in charge of his care, who chatted to him for a total of 5 minutes, sent his apologies ,along with the community support nurse who was meant to lead the meeting!</p>\r\n<p>The best support now is from Age UK who will provide a volunteer for 12 weeks to try and encourage my husband to socialise more.</p>\r\n<p>He will take him out for a couple of hours a week and this will at least give me a break.</p>\r\n<p>I feel so let down by the NHS and tired of struggling.</p>\r\n<p>I do hope that you and your husband get better care now and find some happiness.</p>\r\n<p>Love</p>\r\n<p>GG</p>\r\n<p>&nbsp;</p>\r\n<p>&nbsp;</p>\n      </div>\n      <meta itemprop='interactionCount' content='UserLikes:0'>\n      <meta itemprop='interactionCount' content='UserComments:1'>\n      <meta itemprop='headline' content='Despair'>\n      <hr>\n  </div>\n  <div itemscope itemtype='http://schema.org/DiscussionForumPosting'>\n      <div class='creator'>\n        <span>\n          <a href='/u/Vivian'><b itemprop='author'>Vivian</b></a>\n          \n          <time datetime='2014-10-20T14:02:23Z' itemprop='datePublished'>\n            2014-10-20 14:02:23 UTC\n          </time>\n        </span>\n        <span itemprop='position'>#33</span>\n      </div>\n      <div class='post' itemprop='articleBody'>\n        <p>Dear Golden Girl,</p>\r\n<p>&nbsp;</p>\r\n<p>I am so glad that you have your husband home now but as you say you feel let down by the NHS and this constant struggle really does wear you down, it saps all your energy what little we have left after all this time.</p>\r\n<p>It has taken me 4 years to feel less tired and clearer in my head since my husband went into care, I expected it to take about two years as several of my friends who have been through the same had warned me it would take that long but I think it has taken longer because of the continual struggle to get the nurses and carer&#39;s to understand parkinsons.</p>\r\n<p>I am with you the struggle just becomes too much and the fact that our opions fall on deaf ears all the way through doesn&#39;t help, we have to hope that the younger ones coming behind will have better luck.</p>\r\n<p>All my love</p>\r\n<p>vivian</p>\n      </div>\n      <meta itemprop='interactionCount' content='UserLikes:0'>\n      <meta itemprop='interactionCount' content='UserComments:0'>\n      <meta itemprop='headline' content='Despair'>\n      <hr>\n  </div>\n  <div itemscope itemtype='http://schema.org/DiscussionForumPosting'>\n      <div class='creator'>\n        <span>\n          <a href='/u/fedexlike'><b itemprop='author'>fedexlike</b></a>\n          \n          <time datetime='2014-10-21T10:21:44Z' itemprop='datePublished'>\n            2014-10-21 10:21:44 UTC\n          </time>\n        </span>\n        <span itemprop='position'>#34</span>\n      </div>\n      <div class='post' itemprop='articleBody'>\n        <p>&nbsp;</p>\r\n<p>&nbsp; Good morning Golden Girl. I was greatly saddened by your troubles, it feels like the word is against you and you have nowhere to turn to for help, well I was in the same situation in 2010 ,on the point of Hospitalisation and consumed by depression, and in a very bad place, suicide became a possible fix, but I always thought about the pain I would cause my family, I avoided Hospital as a dirct result of my team at NTGH, when I explained my horrifying depressive mindset, and my&nbsp; suicidal thoughts my Nurse Consultant who if I may say has been a first class mentor and expert professional in every aspect of my treatment,&nbsp; I was seen by a Psychiatrist&nbsp; the same day, and from the following week I was visited at home by two community health care workers both were very helpful and instrumental in my on going recovery I was already taking MERTAZAPINE and I did not want any more drugs in my system, this was agreed so as I said, week after week my two rescuers visited me, accompanied me on my PD visits and even took me on visits to the coast, only2miles away, art galleries and places of interest to me, gradually buiding my confidence&nbsp; and self esteem&nbsp; which parky had robbed me of&nbsp; as the weeks passed&nbsp; I became stronger and much more capable, until the day I had to inform them that I was ok and their work with me had given me my lifeback, also I was visited by and visited NTGH to Dr A Mc,,,,,,r&nbsp; a Psycologist and his help and advice consolidated&nbsp; the whole team looking after me, its only now looking back over my time with&nbsp; these , well for once I am lost for words GG, they saved me. So I know things are not good&nbsp; for you now but go through every possible channel, seek out every source of help, you and your dear Husband&nbsp; deserve nothing less Golden Girl, be strong Lady, you can do it,and&nbsp; keep in touch with all your friends here, even the smallest problem, an be shared, and a problem shared is a problem,,,er,,,,I&nbsp; cant remember,,squared, flared,mared, nope cant recall how it goes but if its true and you share it with all your friends on PDF,it will completely dissapear, sorry GG Im trying to lift your spirits, I am going to a meeting now, all members have pd or their carers, oh and&nbsp; yesterday I did one of my talks to the new interns at NTGH I really enjoy it all those very pretty young ladies hanging on my every word,, its a tough job GG but someone has to do it.</p>\r\n<p>&nbsp;&nbsp;&nbsp;&nbsp;&nbsp;&nbsp;&nbsp;&nbsp;&nbsp;&nbsp;&nbsp;&nbsp;&nbsp;&nbsp;&nbsp;&nbsp;&nbsp;&nbsp;&nbsp;&nbsp;&nbsp;&nbsp;&nbsp;&nbsp;&nbsp;&nbsp;&nbsp;&nbsp;&nbsp;&nbsp;&nbsp; I wish you well Lady&nbsp;&nbsp;&nbsp; The Very Kindest Regards</p>\r\n<p>&nbsp;&nbsp;&nbsp;&nbsp;&nbsp;&nbsp;&nbsp;&nbsp;&nbsp;&nbsp;&nbsp;&nbsp;&nbsp;&nbsp;&nbsp;&nbsp;&nbsp;&nbsp;&nbsp;&nbsp;&nbsp;&nbsp;&nbsp;&nbsp;&nbsp;&nbsp;&nbsp;&nbsp;&nbsp;&nbsp;&nbsp;&nbsp;&nbsp;&nbsp;&nbsp;&nbsp;&nbsp;&nbsp;&nbsp;&nbsp;&nbsp;&nbsp;&nbsp;&nbsp;&nbsp;&nbsp;&nbsp;&nbsp;&nbsp;&nbsp;&nbsp;&nbsp;&nbsp;&nbsp;&nbsp;&nbsp;&nbsp;&nbsp;&nbsp;&nbsp;&nbsp;&nbsp;&nbsp; FED<img alt=\"cool\" height=\"20\" src=\"http://www.parkinsons.org.uk/sites/all/libraries/ckeditor/plugins/smiley/images/shades_smile.gif\" title=\"cool\" width=\"20\" /></p>\r\n<p>&nbsp;</p>\n      </div>\n      <meta itemprop='interactionCount' content='UserLikes:0'>\n      <meta itemprop='interactionCount' content='UserComments:0'>\n      <meta itemprop='headline' content='Despair'>\n      <hr>\n  </div>\n  <div itemscope itemtype='http://schema.org/DiscussionForumPosting'>\n      <div class='creator'>\n        <span>\n          <a href='/u/goldengirl'><b itemprop='author'>goldengirl</b></a>\n          \n          <time datetime='2014-10-21T14:50:46Z' itemprop='datePublished'>\n            2014-10-21 14:50:46 UTC\n          </time>\n        </span>\n        <span itemprop='position'>#35</span>\n      </div>\n      <div class='post' itemprop='articleBody'>\n        <p>Oh lovely Fed</p>\r\n<p>Your kind words do comfort me.</p>\r\n<p>I know you are right and that there are people out there who will help us and we must just keep exploring every avenue.</p>\r\n<p>We have been promised a volunteer by Age UK who will help my husband as you were helped, in going out and regaining his confidence. We are going on holiday for 2 weeks and then hope something turns up to help him begin to socialise more.</p>\r\n<p>Little bits of normality keep appearing and my husband seems to be slowly responding to the Mirtazipine.</p>\r\n<p>We are very lucky to have 2 great children and 5 grandchildren who are there for us but even then the world seems a lonely place sometimes.</p>\r\n<p>It is wonderful that The Forum is here with so many kind and caring friends.</p>\r\n<p>Love</p>\r\n<p>GG</p>\n      </div>\n      <meta itemprop='interactionCount' content='UserLikes:0'>\n      <meta itemprop='interactionCount' content='UserComments:0'>\n      <meta itemprop='headline' content='Despair'>\n      <hr>\n  </div>\n  <div itemscope itemtype='http://schema.org/DiscussionForumPosting'>\n      <div class='creator'>\n        <span>\n          <a href='/u/fedexlike'><b itemprop='author'>fedexlike</b></a>\n          \n          <time datetime='2014-10-21T20:34:58Z' itemprop='datePublished'>\n            2014-10-21 20:34:58 UTC\n          </time>\n        </span>\n        <span itemprop='position'>#36</span>\n      </div>\n      <div class='post' itemprop='articleBody'>\n        <p><img alt=\"cool\" height=\"20\" src=\"http://www.parkinsons.org.uk/sites/all/libraries/ckeditor/plugins/smiley/images/shades_smile.gif\" title=\"cool\" width=\"20\" /></p>\r\n<p>&nbsp; Hello Golden Girl,&nbsp;&nbsp; Keep pushing and asking and generaly being a pain, and soon you will have a result, on my 60th birthday I was in NTGH with a very&nbsp;&nbsp; x10 water infection, I was having to dive to&nbsp;&nbsp;the loo&nbsp; every10 mins and I asked for my drugs earlier as I was shutting down , they refused so I couldnt move and when it was loo time , well thats all water under the , well er,,, bed really, I explained what had occured to my senior pd specialist and all was changed by 1 A4 sized sheet of paper on which were the instructions on how they must alter their routine for pd patients, they did and it worked, it was simple yet effective GG, there is a old saying my gran used to say, when they allowed her home that is,&nbsp; ALST GROB YAH CHICKEN BY T NECK FORE ITS LIKELYITLL&nbsp; PECK,&nbsp; (YOU ),&nbsp; ???????&nbsp; YES I could never understand her either.</p>\r\n<p>&nbsp;&nbsp;&nbsp;&nbsp;&nbsp;&nbsp;&nbsp;&nbsp;&nbsp;&nbsp;&nbsp;&nbsp;&nbsp;&nbsp;&nbsp;&nbsp;&nbsp;&nbsp;&nbsp;&nbsp;&nbsp;&nbsp;&nbsp;&nbsp;&nbsp;&nbsp;&nbsp;&nbsp;&nbsp;&nbsp;&nbsp;&nbsp;&nbsp;&nbsp;&nbsp;&nbsp; Kindest Regards&nbsp;&nbsp;&nbsp;&nbsp;&nbsp;&nbsp;&nbsp;&nbsp;&nbsp;&nbsp;&nbsp;&nbsp; FED<img alt=\"wink\" height=\"20\" src=\"http://www.parkinsons.org.uk/sites/all/libraries/ckeditor/plugins/smiley/images/wink_smile.gif\" title=\"wink\" width=\"20\" /></p>\n      </div>\n      <meta itemprop='interactionCount' content='UserLikes:0'>\n      <meta itemprop='interactionCount' content='UserComments:0'>\n      <meta itemprop='headline' content='Despair'>\n      <hr>\n  </div>\n  <div itemscope itemtype='http://schema.org/DiscussionForumPosting'>\n      <div class='creator'>\n        <span>\n          <a href='/u/fedexlike'><b itemprop='author'>fedexlike</b></a>\n          \n          <time datetime='2014-10-22T09:41:06Z' itemprop='datePublished'>\n            2014-10-22 09:41:06 UTC\n          </time>\n        </span>\n        <span itemprop='position'>#37</span>\n      </div>\n      <div class='post' itemprop='articleBody'>\n        <p><img alt=\"cool\" height=\"20\" src=\"http://www.parkinsons.org.uk/sites/all/libraries/ckeditor/plugins/smiley/images/shades_smile.gif\" title=\"cool\" width=\"20\" /><img alt=\"heart\" height=\"20\" src=\"http://www.parkinsons.org.uk/sites/all/libraries/ckeditor/plugins/smiley/images/heart.gif\" title=\"heart\" width=\"20\" /><img alt=\"smiley\" height=\"20\" src=\"http://www.parkinsons.org.uk/sites/all/libraries/ckeditor/plugins/smiley/images/regular_smile.gif\" title=\"smiley\" width=\"20\" /><img alt=\"kiss\" height=\"20\" src=\"http://www.parkinsons.org.uk/sites/all/libraries/ckeditor/plugins/smiley/images/kiss.gif\" title=\"kiss\" width=\"20\" /><img alt=\"smiley\" height=\"20\" src=\"http://www.parkinsons.org.uk/sites/all/libraries/ckeditor/plugins/smiley/images/regular_smile.gif\" title=\"smiley\" width=\"20\" /></p>\r\n<p>&nbsp;&nbsp;&nbsp;&nbsp;&nbsp;&nbsp;&nbsp;&nbsp;&nbsp;&nbsp;&nbsp;&nbsp;&nbsp;&nbsp;&nbsp;&nbsp;&nbsp;&nbsp;&nbsp;&nbsp;&nbsp;&nbsp;&nbsp;&nbsp;&nbsp;&nbsp; Hello GG, my smileys are me, doing my Stevie Woner or even Wonder impression&nbsp;my Ladies&nbsp;heart, the same big heart that cares for me so well,&nbsp; this is my wife&nbsp;&nbsp;she is very grumpy&nbsp; this&nbsp; morning but&nbsp; as you&nbsp; know first hand how grumpy humans with&nbsp; PD can&nbsp; be i dont blame her, especially when&nbsp; she appologises and gives me one of those lovely kisses thst makes me feel like im plugged into the National Grid after&nbsp; 31yrs she can still do that, I am 64 and my lady is&nbsp; 69, but dont mention it, I think I got away with it this time but I have to be cautious as she never exceeds 50-55 yrs, strange that eh she and puzzling, she commandeers the bathroom 3 to 33 times aweek and some weird and wonderful sounds can be heard one of the highlights of the week is her masseur, HE, YES THATS RIGHT HE is very skilled, he arrives at 11 am on thursdays, and really gives her the works, he gave me a one&nbsp; &quot;A MASSAGE&quot; 1 MONTH AGO and he is good, but age 23 very very very handsome ( the young swine) and when he starts on my beloved she&nbsp; immediately starts moaning and quietly and constantly&nbsp; is uttering&nbsp; the word yes,, ooooh yes&nbsp; ooh just there yes please, now I am&nbsp; quite sure that Connor would love to give her one every&nbsp; day GG,,( A MASSAGE) and of course I&nbsp; am jealous, my lovely wife I KNOW will not betray me, we have had difficuties over the last 2 yrs but we are through&nbsp; them now and I&nbsp; TRUST HER implicitly, It was foolish of me to&nbsp; think otherwise, but when&nbsp; I&nbsp; hear her responding to Connors touch, well as I said I BECOME EXTREMELY&nbsp; JEALOUS VERY DANGEROUSLY JEALOUS, and when he completes the pleasurring of my wife for which he charges &pound;40 BY THE WAY,and leaves I&nbsp; have asked my dear wife if&nbsp; she could tone down the enthusiasm a teeny&nbsp; weeny bit, she&nbsp; just laughs, and tells me off for listening, but&nbsp; I WOULD HEAR HEAR her 4 miles away however as it was&nbsp; me who arranged&nbsp; this for her she refused&nbsp; at first , but after Connor persuaded her to try a 15minute quickie, she was hooked, so its my own stupid fault, however, there are benefits, she was in pain&nbsp; every day, she has OstioArthritus, sorry if thats wrong spelling, that pain has gone, she had a bad fall about 3 months ago and was in pain from her left shoulder to her left foot, and this youngster has made it leave her, so I will have to curtail my jealousy&nbsp; GG, FOR MY LADY, oh&nbsp; also you should know he only gives her a massage, there is no sexual contact, though he is a outragious flirt and&nbsp; I have no doubt he will go further if aske to do so,, lucky young bu????? person, oh how I wish I could turn back time toour first date, and our first kiss,, well we will leave it there GG, JUST THOUGHT I WOULD inform&nbsp; you and everyone else that if you treat yourself or your wife/partner to this truly relaxing therapy It can work wonders least it has done for my wife and I</p>\r\n<p>&nbsp;&nbsp;&nbsp;&nbsp;&nbsp;&nbsp;&nbsp;&nbsp;&nbsp;&nbsp;&nbsp;&nbsp;&nbsp;&nbsp;&nbsp;&nbsp;&nbsp;&nbsp;&nbsp;&nbsp;&nbsp;&nbsp;&nbsp;&nbsp;&nbsp;&nbsp;&nbsp; Kindest Regards Golden Girl&nbsp; be strong&nbsp;&nbsp;&nbsp; FED</p>\n      </div>\n      <meta itemprop='interactionCount' content='UserLikes:0'>\n      <meta itemprop='interactionCount' content='UserComments:0'>\n      <meta itemprop='headline' content='Despair'>\n      <hr>\n  </div>\n  <div itemscope itemtype='http://schema.org/DiscussionForumPosting'>\n      <div class='creator'>\n        <span>\n          <a href='/u/Vivian'><b itemprop='author'>Vivian</b></a>\n          \n          <time datetime='2014-10-22T12:03:04Z' itemprop='datePublished'>\n            2014-10-22 12:03:04 UTC\n          </time>\n        </span>\n        <span itemprop='position'>#38</span>\n      </div>\n      <div class='post' itemprop='articleBody'>\n        <p>&nbsp;</p>\r\n<p>Hello Fed,</p>\r\n<p>&nbsp;</p>\r\n<p>You always make me smile with your posts and I have to agree with you a good massage makes a lot of difference to how you feel. When my husband was at home we both said we would treat ourselves once a week to a relaxing massage, since he went into the &nbsp;nursing home I have kept it up for myself and he has a shoulder and hand massage at the home. I have tried other therapies and lucky for me my therapist does most of them so now and again I have a facial or another relaxing one, I have to say I am lucky that mine only charges &pound;20 and she even cuts my toe nails now for an extra &pound;10 how lucky is that.</p>\r\n<p>&nbsp;</p>\r\n<p>It is so lovely for GG to have the support of the forum and I was really pleased to hear you had good support from your local NHS how I wish it was the same everywhere services seem to be so different depending where you live these days. Please do appreciate all the days you have together as life on your own or separately is no fun, I and am so glad you have come through a sticky patch stronger.</p>\r\n<p>I hope you have a lovely time on holiday Golden Girl and best wishes to you both</p>\r\n<p>vivian</p>\r\n<p>&nbsp;</p>\n      </div>\n      <meta itemprop='interactionCount' content='UserLikes:0'>\n      <meta itemprop='interactionCount' content='UserComments:0'>\n      <meta itemprop='headline' content='Despair'>\n      <hr>\n  </div>\n  <div itemscope itemtype='http://schema.org/DiscussionForumPosting'>\n      <div class='creator'>\n        <span>\n          <a href='/u/aberwells'><b itemprop='author'>aberwells</b></a>\n          \n          <time datetime='2014-10-22T12:35:22Z' itemprop='datePublished'>\n            2014-10-22 12:35:22 UTC\n          </time>\n        </span>\n        <span itemprop='position'>#39</span>\n      </div>\n      <div class='post' itemprop='articleBody'>\n        <p>So sorry and saddened to read about how the nhs has let you down.</p>\r\n<p>I have been amazed by the care I have received from nhs in Tower Hamlets (and we read so many negative stories about TH and our awful Mayor). &nbsp;On discharge from hospital I had home visits from a wondeful OT, superb physios, lovely carer in the early stages of discharge, psychologist to help with the depression, mood swings and gross anxiety. And my GP is excellent. &nbsp;Have also used the phone to talk to PUK nurses.</p>\r\n<p>wishing you a restful holiday Golden Girl.</p>\n      </div>\n      <meta itemprop='interactionCount' content='UserLikes:0'>\n      <meta itemprop='interactionCount' content='UserComments:0'>\n      <meta itemprop='headline' content='Despair'>\n      <hr>\n  </div>\n  <div itemscope itemtype='http://schema.org/DiscussionForumPosting'>\n      <div class='creator'>\n        <span>\n          <a href='/u/fedexlike'><b itemprop='author'>fedexlike</b></a>\n          \n          <time datetime='2014-10-23T09:52:24Z' itemprop='datePublished'>\n            2014-10-23 09:52:24 UTC\n          </time>\n        </span>\n        <span itemprop='position'>#40</span>\n      </div>\n      <div class='post' itemprop='articleBody'>\n        <p><img alt=\"angel\" height=\"20\" src=\"http://www.parkinsons.org.uk/sites/all/libraries/ckeditor/plugins/smiley/images/angel_smile.gif\" title=\"angel\" width=\"20\" /></p>\r\n<p>&nbsp;&nbsp;&nbsp;&nbsp;&nbsp;&nbsp;&nbsp;&nbsp;&nbsp; My wife has been very busy over the last 1.1/2,hrs, she is wearing some very , well lets just say items that show off her figure, also she looks good wearing&nbsp; new make up I thought for a minute that I was in for a treat, but no I asked if she was going out somewhere but no its Massage Day, young Connor is due, ah no he is here I thought it was strange for beloved to behave in this way, he will be here for 1hr so I am going to put my headphones on and listen to the music of Thomas Newman, maily because I love his music but also its perfect for blocking the&nbsp; racket my wife makes at the hands of that good looking 6ft 2&nbsp; fit swine,&quot; he is a nice guy&quot; Im just very jealous ,I know he will not overstep the guidelines of decency and he als is highly recommended, he is a phizzzzio for our local football team, plus he is happily married, and anyway if he was to try it on with my Lady , well if you cross a very angry T REX with the ALIEN, that would be his fate as she will not allow any&nbsp; hankypanky, that used to be a childrens tv programme when I used to watch, also the wooden tops Bill and Ben, sounds like the Condems, they are the finest example of woodentops I have ever seen&nbsp; .</p>\r\n<p>&nbsp;&nbsp;&nbsp;&nbsp;&nbsp;&nbsp;&nbsp;&nbsp;&nbsp;&nbsp;&nbsp;&nbsp;&nbsp;&nbsp;&nbsp;&nbsp;&nbsp;&nbsp;&nbsp;&nbsp;&nbsp;&nbsp;&nbsp;&nbsp;&nbsp;&nbsp;&nbsp;&nbsp;&nbsp;&nbsp;&nbsp; Bye youseall&nbsp;&nbsp;&nbsp;&nbsp;&nbsp;&nbsp;&nbsp;&nbsp;&nbsp;&nbsp;&nbsp;&nbsp; FED</p>\r\n<p>&nbsp;</p>\r\n<p>&nbsp;</p>\n      </div>\n      <meta itemprop='interactionCount' content='UserLikes:0'>\n      <meta itemprop='interactionCount' content='UserComments:0'>\n      <meta itemprop='headline' content='Despair'>\n      <hr>\n  </div>\n\n  <div role='navigation' itemscope itemtype='http://schema.org/SiteNavigationElement'>\n      <span itemprop='name'><a rel=\"prev\" itemprop=\"url\" href=\"/t/despair/7745\">← previous page</a></span>\n      <span itemprop='name'><b><a rel=\"next\" itemprop=\"url\" href=\"/t/despair/7745?page=3\">next page →</a></b></span>\n  </div>\n\n\n\n\n\n    </div>\n    <footer class=\"container\">\n      <nav class='crawler-nav' itemscope itemtype='http://schema.org/SiteNavigationElement'>\n        <a href='/'>Home</a>\n        <a href=\"/categories\">Categories</a>\n        <a href=\"/guidelines\">FAQ/Guidelines</a>\n        <a href=\"/tos\">Terms of Service</a>\n        <a href=\"/privacy\">Privacy Policy</a>\n      </nav>\n      <p class='powered-by-link'>Powered by <a href=\"https://www.discourse.org\">Discourse</a>, best viewed with JavaScript enabled</p>\n    </footer>\n    \n  </body>\n  \n</html>\n",
  "url": "https://forum.parkinsons.org.uk/t/despair/7745?page=2"
}