{
  "contentId": "7aba51e0-886b-11e9-8f96-97f71b5221d6",
  "html": "<!DOCTYPE html>\n<html lang=\"en\">\n  <head>\n    <meta charset=\"utf-8\">\n    <title>Parkinson’s and private healthcare  - Treatments and therapies - Parkinson&#39;s UK Forum</title>\n    <meta name=\"description\" content=\"Hello, \nJust wondering if anyone is willing to share their experience of private healthcare in relation to Parkinson’s? \nI’ve worked for the NHS as a nurse for the last 37 years and am reluctant to consider alternative o&amp;hellip;\">\n    <meta name=\"author\" content=\"\">\n<meta name=\"generator\" content=\"Discourse 2.2.5 - https://github.com/discourse/discourse version c294ff3609f988dcafb742e91606d60ca13b794d\">\n<link rel=\"icon\" type=\"image/png\" href=\"https://forum.parkinsons.org.uk/uploads/db7928/original/2X/3/311fc84f89f49f38601a2f16b295b6f03d3ce5dd.jpg\">\n<link rel=\"apple-touch-icon\" type=\"image/png\" href=\"https://forum.parkinsons.org.uk/uploads/db7928/original/2X/3/311fc84f89f49f38601a2f16b295b6f03d3ce5dd.jpg\">\n<meta name=\"theme-color\" content=\"#ffffff\">\n<meta name=\"viewport\" content=\"width=device-width, minimum-scale=1.0, maximum-scale=1.0, user-scalable=yes\">\n<link rel=\"canonical\" href=\"https://forum.parkinsons.org.uk/t/parkinson-s-and-private-healthcare/17978\" />\n<script type=\"application/ld+json\">{\"@context\":\"http://schema.org\",\"@type\":\"WebSite\",\"url\":\"https://forum.parkinsons.org.uk\",\"potentialAction\":{\"@type\":\"SearchAction\",\"target\":\"https://forum.parkinsons.org.uk/search?q={search_term_string}\",\"query-input\":\"required name=search_term_string\"}}</script>\n<link rel=\"search\" type=\"application/opensearchdescription+xml\" href=\"https://forum.parkinsons.org.uk/opensearch.xml\" title=\"Parkinson&#39;s UK Forum Search\">\n\n      <link href=\"/stylesheets/desktop_f99246ae801b083d3e4cca979d0dade8615b39ac.css?__ws=forum.parkinsons.org.uk\" media=\"all\" rel=\"stylesheet\" data-target=\"desktop\" data-theme-id=\"12\"/>\n      <link href=\"/stylesheets/desktop_theme_12_5d27531cf43f9df0c03a6a6ec3109dd05f9dfc49.css?__ws=forum.parkinsons.org.uk\" media=\"all\" rel=\"stylesheet\" data-target=\"desktop_theme\" data-theme-id=\"12\"/>\n    <link href=\"https://fonts.googleapis.com/css?family=Open+Sans\" rel=\"stylesheet\">\n\n    <meta id=\"data-ga-universal-analytics\" data-tracking-code=\"UA-4855628-1\" data-json=\"{&quot;cookieDomain&quot;:&quot;auto&quot;}\" data-auto-link-domains=\"\">\n\n<link rel='preload' href='/assets/google-universal-analytics-f35b4da49411e6f5559073523aab983da483976a3954c79c756f8579f6fbd6ef.js' as='script'/>\n<script src='/assets/google-universal-analytics-f35b4da49411e6f5559073523aab983da483976a3954c79c756f8579f6fbd6ef.js'></script>\n\n      <link rel=\"alternate\" type=\"application/rss+xml\" title=\"RSS feed of &#39;Parkinson’s and private healthcare &#39;\" href=\"https://forum.parkinsons.org.uk/t/parkinson-s-and-private-healthcare/17978.rss\" />\n  <meta property=\"og:site_name\" content=\"Parkinson&#39;s UK Forum\" />\n<meta name=\"twitter:card\" content=\"summary\" />\n<meta name=\"twitter:image\" content=\"https://forum.parkinsons.org.uk/uploads/db7928/original/2X/3/311fc84f89f49f38601a2f16b295b6f03d3ce5dd.jpg\" />\n<meta property=\"og:image\" content=\"https://forum.parkinsons.org.uk/uploads/db7928/original/2X/3/311fc84f89f49f38601a2f16b295b6f03d3ce5dd.jpg\" />\n<meta property=\"og:url\" content=\"https://forum.parkinsons.org.uk/t/parkinson-s-and-private-healthcare/17978\" />\n<meta name=\"twitter:url\" content=\"https://forum.parkinsons.org.uk/t/parkinson-s-and-private-healthcare/17978\" />\n<meta property=\"og:title\" content=\"Parkinson’s and private healthcare \" />\n<meta name=\"twitter:title\" content=\"Parkinson’s and private healthcare \" />\n<meta property=\"og:description\" content=\"Hello,  Just wondering if anyone is willing to share their experience of private healthcare in relation to Parkinson’s?  I’ve worked for the NHS as a nurse for the last 37 years and am reluctant to consider alternative options however, since being diagnosed nearly five years ago and as my condition has worsened I have felt increasingly frustrated with my treatment under the NHS (poor outpatients timings, being overlooked/non return of phone calls, lack of responsiveness). I understand the strain...\" />\n<meta name=\"twitter:description\" content=\"Hello,  Just wondering if anyone is willing to share their experience of private healthcare in relation to Parkinson’s?  I’ve worked for the NHS as a nurse for the last 37 years and am reluctant to consider alternative options however, since being diagnosed nearly five years ago and as my condition has worsened I have felt increasingly frustrated with my treatment under the NHS (poor outpatients timings, being overlooked/non return of phone calls, lack of responsiveness). I understand the strain...\" />\n<meta name=\"twitter:label1\" value=\"Reading time\" />\n<meta name=\"twitter:data1\" value=\"3 mins \uD83D\uDD51\" />\n<meta name=\"twitter:label2\" value=\"Likes\" />\n<meta name=\"twitter:data2\" value=\"4 ❤\" />\n<meta property=\"article:published_time\" content=\"2019-02-12T14:41:18+00:00\" />\n<meta property=\"og:ignore_canonical\" content=\"true\" />\n\n\n\n    \n  </head>\n  <body class=\"crawler\">\n    <header role=\"banner\">\n    <div class=\"region region-header\">\n        <div class=\"region-header-wrapper\">\n            <div id=\"block-parkinsons-d8-branding\" class=\"block block-system block-system-branding-block\">\n                <a href=\"/\" title=\"Home\" rel=\"home\" class=\"site-logo\">\n                    <img src=\"https://forum.parkinsons.org.uk/uploads/db7928/original/2X/8/862bb7d172e7d127e7f3e147ec43594aa62ac945.png\" alt=\"Parkinson's UK. Change Attitudes. Find a cure. Join us.\">\n                </a>\n            </div>\n            <div id=\"block-helpline\" class=\"block block-block-content block-block-content871cd5af-b938-4947-9dc0-d5c211d08fe3 style-phone\">\n                <div class=\"field field--name-field-link field--type-link field--label-hidden field__item\"><a href=\"tel:+448088000303\">Helpline 0808 800 0303</a></div>\n            </div>\n            <div id=\"block-shop\" class=\"block block-block-content block-block-content6fba5ae5-7797-49cd-8367-f321d8111cd6 style-regular\">\n                <div class=\"field field--name-field-link field--type-link field--label-hidden field__item\"><a href=\"https://shop.parkinsons.org.uk\">Shop</a></div>\n            </div>\n        </div>\n    </div>\n</header>\n\n\n<script src=\"/theme-javascripts/b7e9763fcb584fc8265c56a9f557cd6d2e1e8ed8.js?__ws=forum.parkinsons.org.uk\"></script>\n    <header>\n      <a href=\"/\">\n          <img src=\"https://forum.parkinsons.org.uk/uploads/db7928/original/2X/8/862bb7d172e7d127e7f3e147ec43594aa62ac945.png\" alt=\"Parkinson&#39;s UK Forum\" id=\"site-logo\" style=\"max-width: 150px;\">\n      </a>\n    </header>\n    <div id=\"main-outlet\" class=\"wrap\">\n      <h1>\n  <a href=\"/t/parkinson-s-and-private-healthcare/17978\">Parkinson’s and private healthcare </a>\n</h1>\n\n<div id='breadcrumbs'>\n    <div id=\"breadcrumb-0\" itemscope itemtype=\"http://data-vocabulary.org/Breadcrumb\"\n        itemref=\"breadcrumb-1\"\n      >\n      <a href=\"/c/about-parkinsons-and-health\" itemprop=\"url\">\n        <span itemprop=\"title\">About Parkinson&#39;s and health</span>\n      </a>\n    </div>\n    <div id=\"breadcrumb-1\" itemscope itemtype=\"http://data-vocabulary.org/Breadcrumb\"\n>\n      <a href=\"/c/about-parkinsons-and-health/treatments-and-therapies\" itemprop=\"url\">\n        <span itemprop=\"title\">Treatments and therapies</span>\n      </a>\n    </div>\n</div>\n\n\n\n\n\n<hr>\n\n\n  <div itemscope itemtype='http://schema.org/DiscussionForumPosting'>\n      <div class='creator'>\n        <span>\n          <a href='/u/Jo-I'><b itemprop='author'>Jo-I</b></a>\n          \n          <time datetime='2019-02-12T14:41:18Z' itemprop='datePublished'>\n            2019-02-12 14:41:18 UTC\n          </time>\n        </span>\n        <span itemprop='position'>#1</span>\n      </div>\n      <div class='post' itemprop='articleBody'>\n        <p>Hello,</p>\n<p>Just wondering if anyone is willing to share their experience of private healthcare in relation to Parkinson’s?</p>\n<p>I’ve worked for the NHS as a nurse for the last 37 years and am reluctant to consider alternative options however, since being diagnosed nearly five years ago and as my condition has worsened I have felt increasingly frustrated with my treatment under the NHS (poor outpatients timings, being overlooked/non return of phone calls, lack of responsiveness). I understand the strain on the NHS from first hand experience but am at a point where I feel compelled to look into alternative options.</p>\n<p>Does private healthcare offer any benefits to Parkinson’s patients specifically (other than a comfier bed and shorter wait time!)? I’m interested to hear any and all thoughts on this.</p>\n<p>Many thanks.</p>\n      </div>\n      <meta itemprop='interactionCount' content='UserLikes:0'>\n      <meta itemprop='interactionCount' content='UserComments:0'>\n      <meta itemprop='headline' content='Parkinson’s and private healthcare '>\n      <hr>\n  </div>\n  <div itemscope itemtype='http://schema.org/DiscussionForumPosting'>\n      <div class='creator'>\n        <span>\n          <a href='/u/Omahatom'><b itemprop='author'>Omahatom</b></a>\n          \n          <time datetime='2019-02-13T12:16:31Z' itemprop='datePublished'>\n            2019-02-13 12:16:31 UTC\n          </time>\n        </span>\n        <span itemprop='position'>#2</span>\n      </div>\n      <div class='post' itemprop='articleBody'>\n        <p>I live in the USA.  The country that tells us that everyone should pay for health care.  To be honest the non paying customers get the same treatment as the payers here. It is the law.  My wife is a RN for over 40 years. She has always said she sees no difference.<br>\nIf you have the same laws in the UK. I think your feelings would be universal Insurance or not.<br>\nThe fact is people are living longer.  The average age of the population is probably getting older.   One of the factors in getting Parkinson’s is older age. And there is  a country I might know of that has cut regulations on polluting the air! (probably toxins effect parkinson’s)<br>\nThe truth I believe Ins. or not the wheel that makes the most noise gets the most oil.<br>\nBut the noise through my wife I have learned is that clarity of the major problems. Not bringing up every little thing that only overloads the time slot.  Showing the health care people you are complying to the tee what is prescribed.  Builds a patient /doctor bond that gets faster treatment time.<br>\nAs you can see for the most part the laws in place slow down the system.  The sluffers that don’t exercise, take their medicine on time, and have a low tollerance to just normal life experience. Clog the system for all.  Just my opinion. Tom</p>\n      </div>\n      <meta itemprop='interactionCount' content='UserLikes:1'>\n      <meta itemprop='interactionCount' content='UserComments:0'>\n      <meta itemprop='headline' content='Parkinson’s and private healthcare '>\n      <hr>\n  </div>\n  <div itemscope itemtype='http://schema.org/DiscussionForumPosting'>\n      <div class='creator'>\n        <span>\n          <a href='/u/JF'><b itemprop='author'>JF</b></a>\n          \n          <time datetime='2019-02-13T22:05:03Z' itemprop='datePublished'>\n            2019-02-13 22:05:03 UTC\n          </time>\n        </span>\n        <span itemprop='position'>#3</span>\n      </div>\n      <div class='post' itemprop='articleBody'>\n        <p>My view is that private healthcare (in the UK) is like flying business class: nice check-in, no waiting in long queues, but the destination is the same whether you travel in the front or the back of the plane and you pay an awful lot for a better seat…</p>\n<p>I started off privately, paid £300 for my first prescription, and concluded there was medically no difference in my treatment, so switched to the NHS.</p>\n<p>But there is a better service. And a free cup of tea in the waiting room…</p>\n<p>Hope that helps a little!</p>\n      </div>\n      <meta itemprop='interactionCount' content='UserLikes:1'>\n      <meta itemprop='interactionCount' content='UserComments:0'>\n      <meta itemprop='headline' content='Parkinson’s and private healthcare '>\n      <hr>\n  </div>\n  <div itemscope itemtype='http://schema.org/DiscussionForumPosting'>\n      <div class='creator'>\n        <span>\n          <a href='/u/Jo-I'><b itemprop='author'>Jo-I</b></a>\n          \n          <time datetime='2019-02-14T11:21:33Z' itemprop='datePublished'>\n            2019-02-14 11:21:33 UTC\n          </time>\n        </span>\n        <span itemprop='position'>#4</span>\n      </div>\n      <div class='post' itemprop='articleBody'>\n        <p>Thanks JF, that’s a good way of explaining it! I thought that might be the case.</p>\n      </div>\n      <meta itemprop='interactionCount' content='UserLikes:0'>\n      <meta itemprop='interactionCount' content='UserComments:1'>\n      <meta itemprop='headline' content='Parkinson’s and private healthcare '>\n      <hr>\n  </div>\n  <div itemscope itemtype='http://schema.org/DiscussionForumPosting'>\n      <div class='creator'>\n        <span>\n          <a href='/u/Mountainair'><b itemprop='author'>Mountainair</b></a>\n          \n          <time datetime='2019-02-15T19:35:53Z' itemprop='datePublished'>\n            2019-02-15 19:35:53 UTC\n          </time>\n        </span>\n        <span itemprop='position'>#5</span>\n      </div>\n      <div class='post' itemprop='articleBody'>\n        <p>I think it depends very much on what you need. We saw a movement disorders specialist privately for a second opinion after a very poor experience with a non-specialist neurologist at our local hospital. As an ex-nurse myself, I couldn’t believe quite how unpleasant and out of date this person was. The new consultant saw my husband privately a couple of times, made the PD diagnosis and then transferred him under his team at his NHS hospital. The NHS team are great - and the consultant equally good in his private and NHS clinics - but FU appointments often delayed by a couple of months because of NHS pressure.</p>\n<p>We are still undecided about what to do longer term, as there is more time to talk and what feels like more personal care with private appointments, it’s not just about the coffee! Everything seems so pressured in the NHS these days, in secondary &amp; primary care, but as my husband inevitably gets worse it may be easier to access other services from within the NHS system &amp; we do not have unlimited funds.</p>\n      </div>\n      <meta itemprop='interactionCount' content='UserLikes:1'>\n      <meta itemprop='interactionCount' content='UserComments:0'>\n      <meta itemprop='headline' content='Parkinson’s and private healthcare '>\n      <hr>\n  </div>\n  <div itemscope itemtype='http://schema.org/DiscussionForumPosting'>\n      <div class='creator'>\n        <span>\n          <a href='/u/Jo-I'><b itemprop='author'>Jo-I</b></a>\n          \n          <time datetime='2019-02-16T15:56:20Z' itemprop='datePublished'>\n            2019-02-16 15:56:20 UTC\n          </time>\n        </span>\n        <span itemprop='position'>#6</span>\n      </div>\n      <div class='post' itemprop='articleBody'>\n        <p>Thanks, Mountainair,it’s the care inbetween appointments we find lacking, if you start new meds and they don’t go to plan? Have tried to contactthe consultant through his secretary with no joy. GP, unable to help, had to wait until next consultant appointment!,</p>\n      </div>\n      <meta itemprop='interactionCount' content='UserLikes:0'>\n      <meta itemprop='interactionCount' content='UserComments:1'>\n      <meta itemprop='headline' content='Parkinson’s and private healthcare '>\n      <hr>\n  </div>\n  <div itemscope itemtype='http://schema.org/DiscussionForumPosting'>\n      <div class='creator'>\n        <span>\n          <a href='/u/Bettyblue'><b itemprop='author'>Bettyblue</b></a>\n          \n          <time datetime='2019-02-16T20:20:01Z' itemprop='datePublished'>\n            2019-02-16 20:20:01 UTC\n          </time>\n        </span>\n        <span itemprop='position'>#7</span>\n      </div>\n      <div class='post' itemprop='articleBody'>\n        <p>Private health care will be expensive and other that shorter waiting times for your appointment the treatment offered will be the same. Also unless you had private medical insurance prior to diagnoses insurance will not cover cost now.</p>\n      </div>\n      <meta itemprop='interactionCount' content='UserLikes:0'>\n      <meta itemprop='interactionCount' content='UserComments:2'>\n      <meta itemprop='headline' content='Parkinson’s and private healthcare '>\n      <hr>\n  </div>\n  <div itemscope itemtype='http://schema.org/DiscussionForumPosting'>\n      <div class='creator'>\n        <span>\n          <a href='/u/Omahatom'><b itemprop='author'>Omahatom</b></a>\n          \n          <time datetime='2019-02-17T13:10:11Z' itemprop='datePublished'>\n            2019-02-17 13:10:11 UTC\n          </time>\n        </span>\n        <span itemprop='position'>#8</span>\n      </div>\n      <div class='post' itemprop='articleBody'>\n        <p>The UK has been our model in the USA in allot of ways. Pre existing conditions NOT COVERED.  Money first.  Bettyblue thanks for your post. Seems like we are all in the same boat.  Trying to remove the water before it sinks.  The world would be in a better place if we all worked together to fix the holes in the boat.</p>\n      </div>\n      <meta itemprop='interactionCount' content='UserLikes:0'>\n      <meta itemprop='interactionCount' content='UserComments:0'>\n      <meta itemprop='headline' content='Parkinson’s and private healthcare '>\n      <hr>\n  </div>\n  <div itemscope itemtype='http://schema.org/DiscussionForumPosting'>\n      <div class='creator'>\n        <span>\n          <a href='/u/Mountainair'><b itemprop='author'>Mountainair</b></a>\n          \n          <time datetime='2019-02-17T16:22:45Z' itemprop='datePublished'>\n            2019-02-17 16:22:45 UTC\n          </time>\n        </span>\n        <span itemprop='position'>#9</span>\n      </div>\n      <div class='post' itemprop='articleBody'>\n        <p>My feeling is that GPs are sometimes a weak link too &amp; it really depends on how knowledgeable and proactive the GP is. We have one excellent GP in the practice who is interested in “elderly”(!) care although she works part-time and we generally have to wait 4 weeks before getting an appointment. She seems to know a lot about PD in general and the associated problems &amp; is the GP who made the neurology referral 18 months ago. My husband now has problems with blood pressure control and as his consultant appointment has been postponed for a couple of months, she has initiated investigations herself and is writing to the consultant for his advice.</p>\n<p>This is in marked contrast to last summer when my husband was seen by a different GP in an emergency and long story short ended up being referred for opinions to three different hospital specialists because the GP didn’t know what to do - both unnecessary had we seen a more knowledgeable GP.  But then again, the GP in question had specialised in paediatrics!</p>\n      </div>\n      <meta itemprop='interactionCount' content='UserLikes:0'>\n      <meta itemprop='interactionCount' content='UserComments:1'>\n      <meta itemprop='headline' content='Parkinson’s and private healthcare '>\n      <hr>\n  </div>\n  <div itemscope itemtype='http://schema.org/DiscussionForumPosting'>\n      <div class='creator'>\n        <span>\n          <a href='/u/Jo-I'><b itemprop='author'>Jo-I</b></a>\n          \n          <time datetime='2019-02-17T19:59:56Z' itemprop='datePublished'>\n            2019-02-17 19:59:56 UTC\n          </time>\n        </span>\n        <span itemprop='position'>#10</span>\n      </div>\n      <div class='post' itemprop='articleBody'>\n        <p>Thanks Bettyblue and Omahatum, it’s interesting to hear you have the same problems in the USA.</p>\n      </div>\n      <meta itemprop='interactionCount' content='UserLikes:0'>\n      <meta itemprop='interactionCount' content='UserComments:0'>\n      <meta itemprop='headline' content='Parkinson’s and private healthcare '>\n      <hr>\n  </div>\n  <div itemscope itemtype='http://schema.org/DiscussionForumPosting'>\n      <div class='creator'>\n        <span>\n          <a href='/u/Rubyduby'><b itemprop='author'>Rubyduby</b></a>\n          \n          <time datetime='2019-02-17T20:42:07Z' itemprop='datePublished'>\n            2019-02-17 20:42:07 UTC\n          </time>\n        </span>\n        <span itemprop='position'>#11</span>\n      </div>\n      <div class='post' itemprop='articleBody'>\n        <p>I have experience of both nhs and private consultations. We have private cover through my husbands work and I used that at the urging of my gp when I didn’t seem to be getting anywhere with a diagnosis. My gp was great. I wasn’t that impressed by the private care (one consultant asked my husband to google something on his smartphone). There was no real follow up after tests or appointments but I think it was useful to exclude certain possibilities. The private health insurance company were very sticky over funding a neuro-psychologist appointment saying it was disqualified because it was a psychiatric problem even though the referral clearly stated it was part of a neurological investigation.</p>\n<p>Once I was diagnosed with PD the private health insurance said they would cover no more care or consultations as it’s a chronic condition.<br>\nHowever nhs has been great now I am diagnosed with access to physio, occupational health, Parkinson’s nurse, speech and language and neuro-psychologist. There is a wait for appointments but they do happen and are useful.  I also now have an excellent consultant. I appreciate it’s a bit of a post code lottery but no one will turn round and ask how you will pay with the nhs.</p>\n      </div>\n      <meta itemprop='interactionCount' content='UserLikes:0'>\n      <meta itemprop='interactionCount' content='UserComments:1'>\n      <meta itemprop='headline' content='Parkinson’s and private healthcare '>\n      <hr>\n  </div>\n  <div itemscope itemtype='http://schema.org/DiscussionForumPosting'>\n      <div class='creator'>\n        <span>\n          <a href='/u/Jo-I'><b itemprop='author'>Jo-I</b></a>\n          \n          <time datetime='2019-02-17T20:57:01Z' itemprop='datePublished'>\n            2019-02-17 20:57:01 UTC\n          </time>\n        </span>\n        <span itemprop='position'>#12</span>\n      </div>\n      <div class='post' itemprop='articleBody'>\n        <p>At least the GPS were concerned and tried to help!<br>\nI don’t suppose you get many children with Parkinson’s!</p>\n      </div>\n      <meta itemprop='interactionCount' content='UserLikes:1'>\n      <meta itemprop='interactionCount' content='UserComments:0'>\n      <meta itemprop='headline' content='Parkinson’s and private healthcare '>\n      <hr>\n  </div>\n  <div itemscope itemtype='http://schema.org/DiscussionForumPosting'>\n      <div class='creator'>\n        <span>\n          <a href='/u/Jo-I'><b itemprop='author'>Jo-I</b></a>\n          \n          <time datetime='2019-02-17T21:17:56Z' itemprop='datePublished'>\n            2019-02-17 21:17:56 UTC\n          </time>\n        </span>\n        <span itemprop='position'>#13</span>\n      </div>\n      <div class='post' itemprop='articleBody'>\n        <p>I’m glad you are well supported Rubyduby,and you feel you are receiving good care. I am a great believer in the NHS (having worked in it for 35 years) I just feel everyone is expected to spread themselves so thinly. What help do you get.from the. Neuro-psychologist?</p>\n      </div>\n      <meta itemprop='interactionCount' content='UserLikes:0'>\n      <meta itemprop='interactionCount' content='UserComments:1'>\n      <meta itemprop='headline' content='Parkinson’s and private healthcare '>\n      <hr>\n  </div>\n  <div itemscope itemtype='http://schema.org/DiscussionForumPosting'>\n      <div class='creator'>\n        <span>\n          <a href='/u/Rubyduby'><b itemprop='author'>Rubyduby</b></a>\n          \n          <time datetime='2019-02-17T22:18:03Z' itemprop='datePublished'>\n            2019-02-17 22:18:03 UTC\n          </time>\n        </span>\n        <span itemprop='position'>#14</span>\n      </div>\n      <div class='post' itemprop='articleBody'>\n        <p><a class=\"mention\" href=\"/u/jo-i\">@Jo-I</a>. The neuropsychology consultation is about a concern over some cognitive decline.  Although it has been a long wait for an nhs appointment the testing has been much more thorough than with the private dr.</p>\n      </div>\n      <meta itemprop='interactionCount' content='UserLikes:0'>\n      <meta itemprop='interactionCount' content='UserComments:1'>\n      <meta itemprop='headline' content='Parkinson’s and private healthcare '>\n      <hr>\n  </div>\n  <div itemscope itemtype='http://schema.org/DiscussionForumPosting'>\n      <div class='creator'>\n        <span>\n          <a href='/u/elegant_fowl'><b itemprop='author'>elegant_fowl</b></a>\n          \n          <time datetime='2019-02-18T00:20:57Z' itemprop='datePublished'>\n            2019-02-18 00:20:57 UTC\n          </time>\n        </span>\n        <span itemprop='position'>#15</span>\n      </div>\n      <div class='post' itemprop='articleBody'>\n        <p>Like Rubyduby I have experience of both private and NHS care over several years.<br>\nThe private care was great when I was first diagnosed - I got a series of tests done very swiftly and that minimised the anxious waiting time before getting the result. As JF says, the destination was the same as it would have been with the NHS (some of the tests were even done in NHS facilities) but in my case I got there quicker.</p>\n<p>In the years that followed I had a mix of private and NHS care for various reasons. My private neurologist was not actually a Parkinson’s specialist but by seeing one person for a few years he got to know me personally.</p>\n<p>In the NHS I was seen by a multi skilled team with a powerful combination of Physios, Speech Therapists, Neurologists, Pharmacists and Parkinson’s Nurse Specialist. The people changed from time to time but they were all Parkinson’s specialists. The NHS also gave me access to participation in research studies which has been very valuable to me.</p>\n<p>Perhaps I have been lucky in my choice of NHS settings but in the long run the NHS care has been the better option. I’m pretty certain I’d have been better going straight to NHS after diagnosis.</p>\n<p>I hope that helps</p>\n<p>Elegant Fowl</p>\n      </div>\n      <meta itemprop='interactionCount' content='UserLikes:0'>\n      <meta itemprop='interactionCount' content='UserComments:1'>\n      <meta itemprop='headline' content='Parkinson’s and private healthcare '>\n      <hr>\n  </div>\n  <div itemscope itemtype='http://schema.org/DiscussionForumPosting'>\n      <div class='creator'>\n        <span>\n          <a href='/u/Jo-I'><b itemprop='author'>Jo-I</b></a>\n          \n          <time datetime='2019-02-18T06:52:16Z' itemprop='datePublished'>\n            2019-02-18 06:52:16 UTC\n          </time>\n        </span>\n        <span itemprop='position'>#16</span>\n      </div>\n      <div class='post' itemprop='articleBody'>\n        <p>Thanks Rubyduby.</p>\n      </div>\n      <meta itemprop='interactionCount' content='UserLikes:0'>\n      <meta itemprop='interactionCount' content='UserComments:0'>\n      <meta itemprop='headline' content='Parkinson’s and private healthcare '>\n      <hr>\n  </div>\n  <div itemscope itemtype='http://schema.org/DiscussionForumPosting'>\n      <div class='creator'>\n        <span>\n          <a href='/u/Jo-I'><b itemprop='author'>Jo-I</b></a>\n          \n          <time datetime='2019-02-18T06:56:20Z' itemprop='datePublished'>\n            2019-02-18 06:56:20 UTC\n          </time>\n        </span>\n        <span itemprop='position'>#17</span>\n      </div>\n      <div class='post' itemprop='articleBody'>\n        <p>Thanks Elegant owl, this is probably the conclusion I have come to.</p>\n      </div>\n      <meta itemprop='interactionCount' content='UserLikes:0'>\n      <meta itemprop='interactionCount' content='UserComments:0'>\n      <meta itemprop='headline' content='Parkinson’s and private healthcare '>\n      <hr>\n  </div>\n  <div itemscope itemtype='http://schema.org/DiscussionForumPosting'>\n      <div class='creator'>\n        <span>\n          <a href='/u/Jane_L'><b itemprop='author'>Jane_L</b></a>\n          \n          <time datetime='2019-03-30T09:28:43Z' itemprop='datePublished'>\n            2019-03-30 09:28:43 UTC\n          </time>\n        </span>\n        <span itemprop='position'>#18</span>\n      </div>\n      <div class='post' itemprop='articleBody'>\n        <p>I went to a private consultant two years ago in order to speed up diagnosis and also because I was not impressed by the NHS consultant I had seen.  I stayed with the same private consultant, at my nearest Nuffield Hospital until recently when I switched back to NHS care.</p>\n<p>The main advantage of seeing a private consultant was the speed with which I could get an appointment, but now that I’ve been diagnosed a couple of years that is less important, since my NHS consultant will see me on a regular six monthly basis.</p>\n<p>The quality of the consultant was the other issue for me.  I’ve got over that problem by switching hospitals.  The neurology department of the  NHS hospital I’m attending now is prestigious, whereas my local hospital didn’t even have a neurology department, just visiting neurologists from another hospital running a weekly clinic, which meant no guarantee of continuity of care.</p>\n<p>Seeing a private consultant does not bar you from seeing the NHS Parkinson’s nurse in your area, or being referred to the neurological physiotherapy service and I have used both.  Unfortunately, the NHS Parkinson’s Nurse for my area took fifteen months to give me an appointment and does not always respond to phone calls, so I’ve often found the Parkinson’s UK advice line more useful.</p>\n<p>The cost of private care is affordable if all you want is to see a consultant.  I paid £160 a time.  I got NHS prescriptions.  I’d already had an MRI scan on the NHS before I went private, but at around £350, I could also have afforded to pay.  However, I doubt whether I could afford the more expensive procedures such as DBS.</p>\n<p>For me, in the long term, being a squeaky wheel for NHS care is probably paying off better than paying for private treatment.</p>\n      </div>\n      <meta itemprop='interactionCount' content='UserLikes:0'>\n      <meta itemprop='interactionCount' content='UserComments:0'>\n      <meta itemprop='headline' content='Parkinson’s and private healthcare '>\n      <hr>\n  </div>\n\n\n\n\n\n\n    </div>\n    <footer class=\"container\">\n      <nav class='crawler-nav' itemscope itemtype='http://schema.org/SiteNavigationElement'>\n        <a href='/'>Home</a>\n        <a href=\"/categories\">Categories</a>\n        <a href=\"/guidelines\">FAQ/Guidelines</a>\n        <a href=\"/tos\">Terms of Service</a>\n        <a href=\"/privacy\">Privacy Policy</a>\n      </nav>\n      <p class='powered-by-link'>Powered by <a href=\"https://www.discourse.org\">Discourse</a>, best viewed with JavaScript enabled</p>\n    </footer>\n    \n  </body>\n  \n</html>\n",
  "url": "https://forum.parkinsons.org.uk/t/parkinson-s-and-private-healthcare/17978"
}