{
  "contentId": "b07051e0-886b-11e9-8f96-97f71b5221d6",
  "html": "<!DOCTYPE html>\n<html lang=\"en\">\n  <head>\n    <meta charset=\"utf-8\">\n    <title>How to redirect the energy - Impulsive and compulsive behaviour - Parkinson&#39;s UK Forum</title>\n    <meta name=\"description\" content=\"Hello \r\nAwhile ago i read about a fellow Parky woman who found peace by using her compulsive energy for the good.Instead of primal urges,gambling,she became very active in Parkinson advocacy. \r\nI personably know the drug&amp;hellip;\">\n    <meta name=\"author\" content=\"\">\n<meta name=\"generator\" content=\"Discourse 2.2.5 - https://github.com/discourse/discourse version c294ff3609f988dcafb742e91606d60ca13b794d\">\n<link rel=\"icon\" type=\"image/png\" href=\"https://forum.parkinsons.org.uk/uploads/db7928/original/2X/3/311fc84f89f49f38601a2f16b295b6f03d3ce5dd.jpg\">\n<link rel=\"apple-touch-icon\" type=\"image/png\" href=\"https://forum.parkinsons.org.uk/uploads/db7928/original/2X/3/311fc84f89f49f38601a2f16b295b6f03d3ce5dd.jpg\">\n<meta name=\"theme-color\" content=\"#ffffff\">\n<meta name=\"viewport\" content=\"width=device-width, minimum-scale=1.0, maximum-scale=1.0, user-scalable=yes\">\n<link rel=\"canonical\" href=\"https://forum.parkinsons.org.uk/t/how-to-redirect-the-energy/9473\" />\n<script type=\"application/ld+json\">{\"@context\":\"http://schema.org\",\"@type\":\"WebSite\",\"url\":\"https://forum.parkinsons.org.uk\",\"potentialAction\":{\"@type\":\"SearchAction\",\"target\":\"https://forum.parkinsons.org.uk/search?q={search_term_string}\",\"query-input\":\"required name=search_term_string\"}}</script>\n<link rel=\"search\" type=\"application/opensearchdescription+xml\" href=\"https://forum.parkinsons.org.uk/opensearch.xml\" title=\"Parkinson&#39;s UK Forum Search\">\n\n      <link href=\"/stylesheets/desktop_f99246ae801b083d3e4cca979d0dade8615b39ac.css?__ws=forum.parkinsons.org.uk\" media=\"all\" rel=\"stylesheet\" data-target=\"desktop\" data-theme-id=\"12\"/>\n      <link href=\"/stylesheets/desktop_theme_12_5d27531cf43f9df0c03a6a6ec3109dd05f9dfc49.css?__ws=forum.parkinsons.org.uk\" media=\"all\" rel=\"stylesheet\" data-target=\"desktop_theme\" data-theme-id=\"12\"/>\n    <link href=\"https://fonts.googleapis.com/css?family=Open+Sans\" rel=\"stylesheet\">\n\n    <meta id=\"data-ga-universal-analytics\" data-tracking-code=\"UA-4855628-1\" data-json=\"{&quot;cookieDomain&quot;:&quot;auto&quot;}\" data-auto-link-domains=\"\">\n\n<link rel='preload' href='/assets/google-universal-analytics-f35b4da49411e6f5559073523aab983da483976a3954c79c756f8579f6fbd6ef.js' as='script'/>\n<script src='/assets/google-universal-analytics-f35b4da49411e6f5559073523aab983da483976a3954c79c756f8579f6fbd6ef.js'></script>\n\n      <link rel=\"alternate\" type=\"application/rss+xml\" title=\"RSS feed of &#39;How to redirect the energy&#39;\" href=\"https://forum.parkinsons.org.uk/t/how-to-redirect-the-energy/9473.rss\" />\n  <meta property=\"og:site_name\" content=\"Parkinson&#39;s UK Forum\" />\n<meta name=\"twitter:card\" content=\"summary\" />\n<meta name=\"twitter:image\" content=\"https://forum.parkinsons.org.uk/uploads/db7928/original/2X/3/311fc84f89f49f38601a2f16b295b6f03d3ce5dd.jpg\" />\n<meta property=\"og:image\" content=\"https://forum.parkinsons.org.uk/uploads/db7928/original/2X/3/311fc84f89f49f38601a2f16b295b6f03d3ce5dd.jpg\" />\n<meta property=\"og:url\" content=\"https://forum.parkinsons.org.uk/t/how-to-redirect-the-energy/9473\" />\n<meta name=\"twitter:url\" content=\"https://forum.parkinsons.org.uk/t/how-to-redirect-the-energy/9473\" />\n<meta property=\"og:title\" content=\"How to redirect the energy\" />\n<meta name=\"twitter:title\" content=\"How to redirect the energy\" />\n<meta property=\"og:description\" content=\"Hello \r Awhile ago i read about a fellow Parky woman who found peace by using her compulsive energy for the good.Instead of primal urges,gambling,she became very active in Parkinson advocacy. \r I personably know the drugs even sinemet can bring on strong urges.What i do is get involved in our political system help bringing good change for our fellow citizens.I also volunteer with veterans who suffer from nervous conditions.My nervous problems are now very average and I am at peace with myself. \r...\" />\n<meta name=\"twitter:description\" content=\"Hello \r Awhile ago i read about a fellow Parky woman who found peace by using her compulsive energy for the good.Instead of primal urges,gambling,she became very active in Parkinson advocacy. \r I personably know the drugs even sinemet can bring on strong urges.What i do is get involved in our political system help bringing good change for our fellow citizens.I also volunteer with veterans who suffer from nervous conditions.My nervous problems are now very average and I am at peace with myself. \r...\" />\n<meta property=\"article:published_time\" content=\"2016-10-09T13:49:48+00:00\" />\n<meta property=\"og:ignore_canonical\" content=\"true\" />\n\n\n\n    \n  </head>\n  <body class=\"crawler\">\n    <header role=\"banner\">\n    <div class=\"region region-header\">\n        <div class=\"region-header-wrapper\">\n            <div id=\"block-parkinsons-d8-branding\" class=\"block block-system block-system-branding-block\">\n                <a href=\"/\" title=\"Home\" rel=\"home\" class=\"site-logo\">\n                    <img src=\"https://forum.parkinsons.org.uk/uploads/db7928/original/2X/8/862bb7d172e7d127e7f3e147ec43594aa62ac945.png\" alt=\"Parkinson's UK. Change Attitudes. Find a cure. Join us.\">\n                </a>\n            </div>\n            <div id=\"block-helpline\" class=\"block block-block-content block-block-content871cd5af-b938-4947-9dc0-d5c211d08fe3 style-phone\">\n                <div class=\"field field--name-field-link field--type-link field--label-hidden field__item\"><a href=\"tel:+448088000303\">Helpline 0808 800 0303</a></div>\n            </div>\n            <div id=\"block-shop\" class=\"block block-block-content block-block-content6fba5ae5-7797-49cd-8367-f321d8111cd6 style-regular\">\n                <div class=\"field field--name-field-link field--type-link field--label-hidden field__item\"><a href=\"https://shop.parkinsons.org.uk\">Shop</a></div>\n            </div>\n        </div>\n    </div>\n</header>\n\n\n<script src=\"/theme-javascripts/b7e9763fcb584fc8265c56a9f557cd6d2e1e8ed8.js?__ws=forum.parkinsons.org.uk\"></script>\n    <header>\n      <a href=\"/\">\n          <img src=\"https://forum.parkinsons.org.uk/uploads/db7928/original/2X/8/862bb7d172e7d127e7f3e147ec43594aa62ac945.png\" alt=\"Parkinson&#39;s UK Forum\" id=\"site-logo\" style=\"max-width: 150px;\">\n      </a>\n    </header>\n    <div id=\"main-outlet\" class=\"wrap\">\n      <h1>\n  <a href=\"/t/how-to-redirect-the-energy/9473\">How to redirect the energy</a>\n</h1>\n\n<div id='breadcrumbs'>\n    <div id=\"breadcrumb-0\" itemscope itemtype=\"http://data-vocabulary.org/Breadcrumb\"\n        itemref=\"breadcrumb-1\"\n      >\n      <a href=\"/c/about-parkinsons-and-health\" itemprop=\"url\">\n        <span itemprop=\"title\">About Parkinson&#39;s and health</span>\n      </a>\n    </div>\n    <div id=\"breadcrumb-1\" itemscope itemtype=\"http://data-vocabulary.org/Breadcrumb\"\n>\n      <a href=\"/c/about-parkinsons-and-health/impulsive-and-compulsive-behaviour\" itemprop=\"url\">\n        <span itemprop=\"title\">Impulsive and compulsive behaviour</span>\n      </a>\n    </div>\n</div>\n\n\n\n\n\n<hr>\n\n\n  <div itemscope itemtype='http://schema.org/DiscussionForumPosting'>\n      <div class='creator'>\n        <span>\n          <a href='/u/john947'><b itemprop='author'>john947</b></a>\n          \n          <time datetime='2016-10-09T13:49:48Z' itemprop='datePublished'>\n            2016-10-09 13:49:48 UTC\n          </time>\n        </span>\n        <span itemprop='position'>#1</span>\n      </div>\n      <div class='post' itemprop='articleBody'>\n        <p>Hello</p>\r\n<p>Awhile ago i read about a fellow Parky woman who found peace by using her compulsive energy for the good.Instead of primal urges,gambling,she became very active in Parkinson advocacy.</p>\r\n<p>I personably know the drugs even sinemet&nbsp;can bring on strong urges.What i do is get involved in our political system help bringing good change for our fellow citizens.I also volunteer with veterans who suffer from nervous conditions.My nervous problems are now very average and I am at peace with myself.</p>\r\n<p>I live my life under the shadow of Dr.Low and his teachings.</p>\r\n<p>One of my favouriteAll things in life that take effort and will &nbsp;are the best for us&quot;keeping a marriage,a job,friendship,steadys us .On the other hand comfort is fleeting and requires little effort or will thus no long term benefit.&nbsp;</p>\r\n<p>Having PD is a challenge indeed but one thing drug or no drug we can be masters of our thinking.Often i wake with the swirl of insecure thoughts of worry ,anger and fear ,but now i can turn away and with the thought I can command my thoughts sends those thoughts away with a inner smile,lol and at last resort a little c/L lol</p>\r\n<p>It can be done.</p>\r\n<p>best</p>\r\n<p>john</p>\n      </div>\n      <meta itemprop='interactionCount' content='UserLikes:0'>\n      <meta itemprop='interactionCount' content='UserComments:0'>\n      <meta itemprop='headline' content='How to redirect the energy'>\n      <hr>\n  </div>\n\n\n\n\n\n\n    </div>\n    <footer class=\"container\">\n      <nav class='crawler-nav' itemscope itemtype='http://schema.org/SiteNavigationElement'>\n        <a href='/'>Home</a>\n        <a href=\"/categories\">Categories</a>\n        <a href=\"/guidelines\">FAQ/Guidelines</a>\n        <a href=\"/tos\">Terms of Service</a>\n        <a href=\"/privacy\">Privacy Policy</a>\n      </nav>\n      <p class='powered-by-link'>Powered by <a href=\"https://www.discourse.org\">Discourse</a>, best viewed with JavaScript enabled</p>\n    </footer>\n    \n  </body>\n  \n</html>\n",
  "url": "https://forum.parkinsons.org.uk/t/how-to-redirect-the-energy/9473"
}