{
  "contentId": "fa54cf40-8864-11e9-8f96-97f71b5221d6",
  "html": "<!DOCTYPE html>\n<html lang=\"en\">\n  <head>\n    <meta charset=\"utf-8\">\n    <title>Is it anxiety or akathisia? - Symptoms - Parkinson&#39;s UK Forum</title>\n    <meta name=\"description\" content=\"Work out your own timeline. Did you experience the symptoms before taking drugs or only after starting them? \nhttps://www.racgp.org.au/afp/2017/may/beyond-anxiety-and-agitation-a-clinical-approach-to-akathisia/ \nBeyond a&amp;hellip;\">\n    <meta name=\"author\" content=\"\">\n<meta name=\"generator\" content=\"Discourse 2.2.5 - https://github.com/discourse/discourse version c294ff3609f988dcafb742e91606d60ca13b794d\">\n<link rel=\"icon\" type=\"image/png\" href=\"https://forum.parkinsons.org.uk/uploads/db7928/original/2X/3/311fc84f89f49f38601a2f16b295b6f03d3ce5dd.jpg\">\n<link rel=\"apple-touch-icon\" type=\"image/png\" href=\"https://forum.parkinsons.org.uk/uploads/db7928/original/2X/3/311fc84f89f49f38601a2f16b295b6f03d3ce5dd.jpg\">\n<meta name=\"theme-color\" content=\"#ffffff\">\n<meta name=\"viewport\" content=\"width=device-width, minimum-scale=1.0, maximum-scale=1.0, user-scalable=yes\">\n<link rel=\"canonical\" href=\"https://forum.parkinsons.org.uk/t/is-it-anxiety-or-akathisia/19391\" />\n<script type=\"application/ld+json\">{\"@context\":\"http://schema.org\",\"@type\":\"WebSite\",\"url\":\"https://forum.parkinsons.org.uk\",\"potentialAction\":{\"@type\":\"SearchAction\",\"target\":\"https://forum.parkinsons.org.uk/search?q={search_term_string}\",\"query-input\":\"required name=search_term_string\"}}</script>\n<link rel=\"search\" type=\"application/opensearchdescription+xml\" href=\"https://forum.parkinsons.org.uk/opensearch.xml\" title=\"Parkinson&#39;s UK Forum Search\">\n\n      <link href=\"/stylesheets/desktop_f99246ae801b083d3e4cca979d0dade8615b39ac.css?__ws=forum.parkinsons.org.uk\" media=\"all\" rel=\"stylesheet\" data-target=\"desktop\" data-theme-id=\"12\"/>\n      <link href=\"/stylesheets/desktop_theme_12_5d27531cf43f9df0c03a6a6ec3109dd05f9dfc49.css?__ws=forum.parkinsons.org.uk\" media=\"all\" rel=\"stylesheet\" data-target=\"desktop_theme\" data-theme-id=\"12\"/>\n    <link href=\"https://fonts.googleapis.com/css?family=Open+Sans\" rel=\"stylesheet\">\n\n    <meta id=\"data-ga-universal-analytics\" data-tracking-code=\"UA-4855628-1\" data-json=\"{&quot;cookieDomain&quot;:&quot;auto&quot;}\" data-auto-link-domains=\"\">\n\n<link rel='preload' href='/assets/google-universal-analytics-f35b4da49411e6f5559073523aab983da483976a3954c79c756f8579f6fbd6ef.js' as='script'/>\n<script src='/assets/google-universal-analytics-f35b4da49411e6f5559073523aab983da483976a3954c79c756f8579f6fbd6ef.js'></script>\n\n      <link rel=\"alternate\" type=\"application/rss+xml\" title=\"RSS feed of &#39;Is it anxiety or akathisia?&#39;\" href=\"https://forum.parkinsons.org.uk/t/is-it-anxiety-or-akathisia/19391.rss\" />\n  <meta property=\"og:site_name\" content=\"Parkinson&#39;s UK Forum\" />\n<meta name=\"twitter:card\" content=\"summary\" />\n<meta name=\"twitter:image\" content=\"https://forum.parkinsons.org.uk/uploads/db7928/original/2X/3/311fc84f89f49f38601a2f16b295b6f03d3ce5dd.jpg\" />\n<meta property=\"og:image\" content=\"https://forum.parkinsons.org.uk/uploads/db7928/original/2X/3/311fc84f89f49f38601a2f16b295b6f03d3ce5dd.jpg\" />\n<meta property=\"og:url\" content=\"https://forum.parkinsons.org.uk/t/is-it-anxiety-or-akathisia/19391\" />\n<meta name=\"twitter:url\" content=\"https://forum.parkinsons.org.uk/t/is-it-anxiety-or-akathisia/19391\" />\n<meta property=\"og:title\" content=\"Is it anxiety or akathisia?\" />\n<meta name=\"twitter:title\" content=\"Is it anxiety or akathisia?\" />\n<meta property=\"og:description\" content=\"Work out your own timeline. Did you experience the symptoms before taking drugs or only after starting them?  https://www.racgp.org.au/afp/2017/may/beyond-anxiety-and-agitation-a-clinical-approach-to-akathisia/  Beyond anxiety and agitation: A clinical approach to akathisia R.O.Tachere , M.Modirrousta Australian Family Physician Vol.46, No.5, 2017 P. 296-298  When patients suddenly become restless and are unable to sit or stand still, especially in general medical settings, anxiety is often the ...\" />\n<meta name=\"twitter:description\" content=\"Work out your own timeline. Did you experience the symptoms before taking drugs or only after starting them?  https://www.racgp.org.au/afp/2017/may/beyond-anxiety-and-agitation-a-clinical-approach-to-akathisia/  Beyond anxiety and agitation: A clinical approach to akathisia R.O.Tachere , M.Modirrousta Australian Family Physician Vol.46, No.5, 2017 P. 296-298  When patients suddenly become restless and are unable to sit or stand still, especially in general medical settings, anxiety is often the ...\" />\n<meta property=\"article:published_time\" content=\"2019-05-22T16:24:38+00:00\" />\n<meta property=\"og:ignore_canonical\" content=\"true\" />\n\n\n\n    \n  </head>\n  <body class=\"crawler\">\n    <header role=\"banner\">\n    <div class=\"region region-header\">\n        <div class=\"region-header-wrapper\">\n            <div id=\"block-parkinsons-d8-branding\" class=\"block block-system block-system-branding-block\">\n                <a href=\"/\" title=\"Home\" rel=\"home\" class=\"site-logo\">\n                    <img src=\"https://forum.parkinsons.org.uk/uploads/db7928/original/2X/8/862bb7d172e7d127e7f3e147ec43594aa62ac945.png\" alt=\"Parkinson's UK. Change Attitudes. Find a cure. Join us.\">\n                </a>\n            </div>\n            <div id=\"block-helpline\" class=\"block block-block-content block-block-content871cd5af-b938-4947-9dc0-d5c211d08fe3 style-phone\">\n                <div class=\"field field--name-field-link field--type-link field--label-hidden field__item\"><a href=\"tel:+448088000303\">Helpline 0808 800 0303</a></div>\n            </div>\n            <div id=\"block-shop\" class=\"block block-block-content block-block-content6fba5ae5-7797-49cd-8367-f321d8111cd6 style-regular\">\n                <div class=\"field field--name-field-link field--type-link field--label-hidden field__item\"><a href=\"https://shop.parkinsons.org.uk\">Shop</a></div>\n            </div>\n        </div>\n    </div>\n</header>\n\n\n<script src=\"/theme-javascripts/b7e9763fcb584fc8265c56a9f557cd6d2e1e8ed8.js?__ws=forum.parkinsons.org.uk\"></script>\n    <header>\n      <a href=\"/\">\n          <img src=\"https://forum.parkinsons.org.uk/uploads/db7928/original/2X/8/862bb7d172e7d127e7f3e147ec43594aa62ac945.png\" alt=\"Parkinson&#39;s UK Forum\" id=\"site-logo\" style=\"max-width: 150px;\">\n      </a>\n    </header>\n    <div id=\"main-outlet\" class=\"wrap\">\n      <h1>\n  <a href=\"/t/is-it-anxiety-or-akathisia/19391\">Is it anxiety or akathisia?</a>\n</h1>\n\n<div id='breadcrumbs'>\n    <div id=\"breadcrumb-0\" itemscope itemtype=\"http://data-vocabulary.org/Breadcrumb\"\n        itemref=\"breadcrumb-1\"\n      >\n      <a href=\"/c/about-parkinsons-and-health\" itemprop=\"url\">\n        <span itemprop=\"title\">About Parkinson&#39;s and health</span>\n      </a>\n    </div>\n    <div id=\"breadcrumb-1\" itemscope itemtype=\"http://data-vocabulary.org/Breadcrumb\"\n>\n      <a href=\"/c/about-parkinsons-and-health/symptoms\" itemprop=\"url\">\n        <span itemprop=\"title\">Symptoms</span>\n      </a>\n    </div>\n</div>\n\n\n\n\n\n<hr>\n\n\n  <div itemscope itemtype='http://schema.org/DiscussionForumPosting'>\n      <div class='creator'>\n        <span>\n          <a href='/u/Appletree'><b itemprop='author'>Appletree</b></a>\n          \n          <time datetime='2019-05-22T16:24:38Z' itemprop='datePublished'>\n            2019-05-22 16:24:38 UTC\n          </time>\n        </span>\n        <span itemprop='position'>#1</span>\n      </div>\n      <div class='post' itemprop='articleBody'>\n        <p>Work out your own timeline. Did you experience the symptoms before taking drugs or only after starting them?</p>\n<p><a href=\"https://www.racgp.org.au/afp/2017/may/beyond-anxiety-and-agitation-a-clinical-approach-to-akathisia/\" class=\"onebox\" target=\"_blank\" rel=\"nofollow noopener\">https://www.racgp.org.au/afp/2017/may/beyond-anxiety-and-agitation-a-clinical-approach-to-akathisia/</a></p>\n<p>Beyond anxiety and agitation: A clinical approach to akathisia R.O.Tachere , M.Modirrousta Australian Family Physician <a href=\"http://www.racgp.org.au/afp/2017/may/\" rel=\"nofollow noopener\">Vol.46, No.5, 2017</a> P. 296-298</p>\n<p>When patients suddenly become restless and are unable to sit or stand still, especially in general medical settings, anxiety is often the topmost differential on every clinician’s mind. However, the possibility of the very subjectively distressing condition called ‘akathisia’ should always be considered.</p>\n<p><a href=\"https://www.ajgponline.org/article/S1064-7481(17)30111-2/fulltext\" class=\"onebox\" target=\"_blank\" rel=\"nofollow noopener\">https://www.ajgponline.org/article/S1064-7481(17)30111-2/fulltext</a></p>\n<p>Akathisia or Anxiety: What is the Difference? [P.Serrano](file://localhost/javascript/void(0)%3B), [P. Musunuri](file://localhost/javascript/void(0)%3B), <a href=\"https://www.ajgponline.org/issue/S1064-7481(17)X0002-X\" rel=\"nofollow noopener\"> <strong>March 2017</strong> </a> Vol.25, Issue 3, Supplement, Pages S82–S83 American Journal of Geriatric Psychiatry</p>\n<p>Akathisia is a medication-induced movement disorder often described by patients as restlessness or an inability to stay still. It is often interpreted as anxiety and insomnia. If the symptoms are severe enough, the agitation that it causes may be treated with neuroleptic medication that can worsen the condition if it hasn’t been properly identified.</p>\n<p><a href=\"http://www.bmj.com/cgi/content/full/324/7352/1506\" class=\"onebox\" target=\"_blank\" rel=\"nofollow noopener\">http://www.bmj.com/cgi/content/full/324/7352/1506</a></p>\n<p><strong>Akathisia: overlooked at a cost</strong> <strong>H.Akagi, T. M. Kumar</strong> <strong>,</strong> <em>BMJ</em> 2002;324:1506-1507 ( 22 June )</p>\n<p>Patients often find it difficult to explain the inner restlessness or mental unease, and the condition may easily be interpreted as acute anxiety or depression. Therefore diagnosis relies on a high index of suspicion on the part of the clinician. Thus when patients present with acute symptoms of agitation and restlessness, their medication should first be checked for a recent introduction or increase in the dose of drugs associated with akathisia.</p>\n<p>There may be a history of previous similar episodes, as in all our cases, which will help in the diagnosis.</p>\n<p><a href=\"https://www.medicines.org.uk/emc/medicine/1709\" class=\"onebox\" target=\"_blank\" rel=\"nofollow noopener\">https://www.medicines.org.uk/emc/medicine/1709</a></p>\n<p>Madopar Package leaflet: Information for the patient. last revised 10/3/16  Roche Products Limited</p>\n<p><strong>Undesirable effects include:</strong> Depression, Agitation, Anxiety, Insomnia, Dyskinesia (choreiform and athetotic), Restless legs syndrome</p>\n<p><strong>Movement disorders associated with the serotonin selective reuptake inhibitors</strong> . Leo RJ.J Clin Psychiatry. 1996 Oct;57(10):449-54.</p>\n<p>Among the 71 cases of SSRI-induced EPS reported in the literature, the most common side effect was akathisia (45.1%), followed by dystonia (28.2%), parkinsonism (14.1%), and tardive dyskinesia-like states (11.3%). Among patients with Parkinson’s disease treated with SSRIs, there were 16 cases of worsening parkinsonism. Patients who developed dystonia, parkinsonism, or tardive dyskinesia were older on average than patients with akathisia; 67.6% of affected patients were females. Fluoxetine [Prozac], the most commonly prescribed SSRI to date, was implicated in 53 (74.6%) of cases of SSRI-induced EPS. Several reports (57.7%) were confounded by the concomitant use of other medications that can contribute to the development of EPS.</p>\n<p><strong>Nonmotor fluctuations in Parkinson’s disease: frequent and disabling.</strong> <a href=\"https://www.ncbi.nlm.nih.gov/pubmed/?term=Witjas%20T%5BAuthor%5D&amp;cauthor=true&amp;cauthor_uid=12177375\" rel=\"nofollow noopener\">Witjas T</a>, <a href=\"https://www.ncbi.nlm.nih.gov/pubmed/?term=Kaphan%20E%5BAuthor%5D&amp;cauthor=true&amp;cauthor_uid=12177375\" rel=\"nofollow noopener\">Kaphan E</a>, <a href=\"https://www.ncbi.nlm.nih.gov/pubmed/?term=Azulay%20JP%5BAuthor%5D&amp;cauthor=true&amp;cauthor_uid=12177375\" rel=\"nofollow noopener\">Azulay JP</a>, <a href=\"https://www.ncbi.nlm.nih.gov/pubmed/?term=Blin%20O%5BAuthor%5D&amp;cauthor=true&amp;cauthor_uid=12177375\" rel=\"nofollow noopener\">Blin O</a>, <a href=\"https://www.ncbi.nlm.nih.gov/pubmed/?term=Ceccaldi%20M%5BAuthor%5D&amp;cauthor=true&amp;cauthor_uid=12177375\" rel=\"nofollow noopener\">Ceccaldi M</a>, <a href=\"https://www.ncbi.nlm.nih.gov/pubmed/?term=Pouget%20J%5BAuthor%5D&amp;cauthor=true&amp;cauthor_uid=12177375\" rel=\"nofollow noopener\">Pouget J</a>, <a href=\"https://www.ncbi.nlm.nih.gov/pubmed/?term=Poncet%20M%5BAuthor%5D&amp;cauthor=true&amp;cauthor_uid=12177375\" rel=\"nofollow noopener\">Poncet M</a>, <a href=\"https://www.ncbi.nlm.nih.gov/pubmed/?term=Ch%C3%A9rif%20AA%5BAuthor%5D&amp;cauthor=true&amp;cauthor_uid=12177375\" rel=\"nofollow noopener\">Chérif AA</a>. <a href=\"https://www.ncbi.nlm.nih.gov/pubmed/12177375\" rel=\"nofollow noopener\">Neurology.</a> 2002 Aug 13;59(3):408-13.</p>\n<p>All patients [50] had had at least one type of NMF, most of which were associated with the \"off\" state.</p>\n<p>Anxiety (66%), drenching sweats (64%), slowness of thinking (58%), fatigue (56%), and akathisia (54%) were the most frequent NMF.</p>\n<p><strong>Restless Legs Syndrome</strong> K. R.Chaudhuri, D. Rye &amp; L.Ferini-Strambi OUP 2009</p>\n<p>Chapter 5 Differential diagnosis of restless leg syndrome K.R.Chaudhuri, D.Rye, and S Muzerengi</p>\n<p>Akathisia is a drug-induced adverse effect and therefore it is treated by gradually decreasing the dose of the offending agent and thus restoring dopaminergic function…Furthermore akathisia can be precipitated by dopaminergic drugs such as levodopa in dopamine deficiency disorders such as Parkinson’s disease.</p>\n<p><strong>Movement Disorders in Clinical Practice</strong> K Ray Chaudhuri, William Ondo Springer 2010</p>\n<p>Other movement disorders W.G.Ondo</p>\n<p>Drug-induced movement disorders remain a common and under-recognized problem. Blockade of the dopaminergic system results in multiple syndromes… These syndromes are often referred to as extrapyramidal side effects (EPSE) and include tardive dyskinesia, acute dystonic reactions, akathisia, drug-induced parkinsonism and neuroleptic malignant syndrome. Serotonin syndrome and drug-induced tremor are also briefly discussed.</p>\n      </div>\n      <meta itemprop='interactionCount' content='UserLikes:0'>\n      <meta itemprop='interactionCount' content='UserComments:0'>\n      <meta itemprop='headline' content='Is it anxiety or akathisia?'>\n      <hr>\n  </div>\n  <div itemscope itemtype='http://schema.org/DiscussionForumPosting'>\n      <div class='creator'>\n        <span>\n          <a href='/u/Appletree'><b itemprop='author'>Appletree</b></a>\n          \n          <time datetime='2019-05-23T05:55:16Z' itemprop='datePublished'>\n            2019-05-23 05:55:16 UTC\n          </time>\n        </span>\n        <span itemprop='position'>#2</span>\n      </div>\n      <div class='post' itemprop='articleBody'>\n        <p>link for full text of akagi article:</p>\n<p><a href=\"https://www.bmj.com/content/324/7352/1506.full\" class=\"onebox\" target=\"_blank\" rel=\"nofollow noopener\">https://www.bmj.com/content/324/7352/1506.full</a></p>\n<p><strong>Akathisia: overlooked at a cost</strong>   <strong>H.Akagi, T. M. Kumar</strong>   <strong>,</strong>   <em>BMJ</em>  2002;324:1506-1507 ( 22 June )</p>\n      </div>\n      <meta itemprop='interactionCount' content='UserLikes:0'>\n      <meta itemprop='interactionCount' content='UserComments:0'>\n      <meta itemprop='headline' content='Is it anxiety or akathisia?'>\n      <hr>\n  </div>\n\n\n\n\n\n\n    </div>\n    <footer class=\"container\">\n      <nav class='crawler-nav' itemscope itemtype='http://schema.org/SiteNavigationElement'>\n        <a href='/'>Home</a>\n        <a href=\"/categories\">Categories</a>\n        <a href=\"/guidelines\">FAQ/Guidelines</a>\n        <a href=\"/tos\">Terms of Service</a>\n        <a href=\"/privacy\">Privacy Policy</a>\n      </nav>\n      <p class='powered-by-link'>Powered by <a href=\"https://www.discourse.org\">Discourse</a>, best viewed with JavaScript enabled</p>\n    </footer>\n    \n  </body>\n  \n</html>\n",
  "url": "https://forum.parkinsons.org.uk/t/is-it-anxiety-or-akathisia/19391"
}