{
  "contentId": "58c63fe0-8866-11e9-8f96-97f71b5221d6",
  "html": "<!DOCTYPE html>\n<html lang=\"en\">\n  <head>\n    <meta charset=\"utf-8\">\n    <title>The end of life experience for people with Parkinson&#39;s disease - Research opportunities - Parkinson&#39;s UK Forum</title>\n    <meta name=\"description\" content=\"Hello, my name is Claire Morris and I am a research doctor working in Northumbria, based with the Parkinson’s team at Northumbria Healthcare NHS Foundation Trust. \r\n\t \r\n\tI am carrying out a research study to try to find &amp;hellip;\">\n    <meta name=\"author\" content=\"\">\n<meta name=\"generator\" content=\"Discourse 2.2.5 - https://github.com/discourse/discourse version c294ff3609f988dcafb742e91606d60ca13b794d\">\n<link rel=\"icon\" type=\"image/png\" href=\"https://forum.parkinsons.org.uk/uploads/db7928/original/2X/3/311fc84f89f49f38601a2f16b295b6f03d3ce5dd.jpg\">\n<link rel=\"apple-touch-icon\" type=\"image/png\" href=\"https://forum.parkinsons.org.uk/uploads/db7928/original/2X/3/311fc84f89f49f38601a2f16b295b6f03d3ce5dd.jpg\">\n<meta name=\"theme-color\" content=\"#ffffff\">\n<meta name=\"viewport\" content=\"width=device-width, minimum-scale=1.0, maximum-scale=1.0, user-scalable=yes\">\n<link rel=\"canonical\" href=\"https://forum.parkinsons.org.uk/t/the-end-of-life-experience-for-people-with-parkinsons-disease/8402\" />\n<script type=\"application/ld+json\">{\"@context\":\"http://schema.org\",\"@type\":\"WebSite\",\"url\":\"https://forum.parkinsons.org.uk\",\"potentialAction\":{\"@type\":\"SearchAction\",\"target\":\"https://forum.parkinsons.org.uk/search?q={search_term_string}\",\"query-input\":\"required name=search_term_string\"}}</script>\n<link rel=\"search\" type=\"application/opensearchdescription+xml\" href=\"https://forum.parkinsons.org.uk/opensearch.xml\" title=\"Parkinson&#39;s UK Forum Search\">\n\n      <link href=\"/stylesheets/desktop_f99246ae801b083d3e4cca979d0dade8615b39ac.css?__ws=forum.parkinsons.org.uk\" media=\"all\" rel=\"stylesheet\" data-target=\"desktop\" data-theme-id=\"12\"/>\n      <link href=\"/stylesheets/desktop_theme_12_5d27531cf43f9df0c03a6a6ec3109dd05f9dfc49.css?__ws=forum.parkinsons.org.uk\" media=\"all\" rel=\"stylesheet\" data-target=\"desktop_theme\" data-theme-id=\"12\"/>\n    <link href=\"https://fonts.googleapis.com/css?family=Open+Sans\" rel=\"stylesheet\">\n\n    <meta id=\"data-ga-universal-analytics\" data-tracking-code=\"UA-4855628-1\" data-json=\"{&quot;cookieDomain&quot;:&quot;auto&quot;}\" data-auto-link-domains=\"\">\n\n<link rel='preload' href='/assets/google-universal-analytics-f35b4da49411e6f5559073523aab983da483976a3954c79c756f8579f6fbd6ef.js' as='script'/>\n<script src='/assets/google-universal-analytics-f35b4da49411e6f5559073523aab983da483976a3954c79c756f8579f6fbd6ef.js'></script>\n\n      <link rel=\"alternate\" type=\"application/rss+xml\" title=\"RSS feed of &#39;The end of life experience for people with Parkinson&#39;s disease&#39;\" href=\"https://forum.parkinsons.org.uk/t/the-end-of-life-experience-for-people-with-parkinsons-disease/8402.rss\" />\n  <meta property=\"og:site_name\" content=\"Parkinson&#39;s UK Forum\" />\n<meta name=\"twitter:card\" content=\"summary\" />\n<meta name=\"twitter:image\" content=\"https://forum.parkinsons.org.uk/uploads/db7928/original/2X/3/311fc84f89f49f38601a2f16b295b6f03d3ce5dd.jpg\" />\n<meta property=\"og:image\" content=\"https://forum.parkinsons.org.uk/uploads/db7928/original/2X/3/311fc84f89f49f38601a2f16b295b6f03d3ce5dd.jpg\" />\n<meta property=\"og:url\" content=\"https://forum.parkinsons.org.uk/t/the-end-of-life-experience-for-people-with-parkinsons-disease/8402\" />\n<meta name=\"twitter:url\" content=\"https://forum.parkinsons.org.uk/t/the-end-of-life-experience-for-people-with-parkinsons-disease/8402\" />\n<meta property=\"og:title\" content=\"The end of life experience for people with Parkinson&#39;s disease\" />\n<meta name=\"twitter:title\" content=\"The end of life experience for people with Parkinson&#39;s disease\" />\n<meta property=\"og:description\" content=\"Hello, my name is Claire Morris and I am a research doctor working in Northumbria, based with the Parkinson’s team at Northumbria Healthcare NHS Foundation Trust. \r \t \r \tI am carrying out a research study to try to find ways of improving the end of life experience for people with Parkinson’s. \r \t \r \tTo do this I am hoping to gather the views of carers or relatives who have lost a loved one who had Parkinson’s and I have developed a private internet forum with Newcastle University where views can...\" />\n<meta name=\"twitter:description\" content=\"Hello, my name is Claire Morris and I am a research doctor working in Northumbria, based with the Parkinson’s team at Northumbria Healthcare NHS Foundation Trust. \r \t \r \tI am carrying out a research study to try to find ways of improving the end of life experience for people with Parkinson’s. \r \t \r \tTo do this I am hoping to gather the views of carers or relatives who have lost a loved one who had Parkinson’s and I have developed a private internet forum with Newcastle University where views can...\" />\n<meta property=\"article:published_time\" content=\"2015-07-06T08:47:38+00:00\" />\n<meta property=\"og:ignore_canonical\" content=\"true\" />\n\n\n\n    \n  </head>\n  <body class=\"crawler\">\n    <header role=\"banner\">\n    <div class=\"region region-header\">\n        <div class=\"region-header-wrapper\">\n            <div id=\"block-parkinsons-d8-branding\" class=\"block block-system block-system-branding-block\">\n                <a href=\"/\" title=\"Home\" rel=\"home\" class=\"site-logo\">\n                    <img src=\"https://forum.parkinsons.org.uk/uploads/db7928/original/2X/8/862bb7d172e7d127e7f3e147ec43594aa62ac945.png\" alt=\"Parkinson's UK. Change Attitudes. Find a cure. Join us.\">\n                </a>\n            </div>\n            <div id=\"block-helpline\" class=\"block block-block-content block-block-content871cd5af-b938-4947-9dc0-d5c211d08fe3 style-phone\">\n                <div class=\"field field--name-field-link field--type-link field--label-hidden field__item\"><a href=\"tel:+448088000303\">Helpline 0808 800 0303</a></div>\n            </div>\n            <div id=\"block-shop\" class=\"block block-block-content block-block-content6fba5ae5-7797-49cd-8367-f321d8111cd6 style-regular\">\n                <div class=\"field field--name-field-link field--type-link field--label-hidden field__item\"><a href=\"https://shop.parkinsons.org.uk\">Shop</a></div>\n            </div>\n        </div>\n    </div>\n</header>\n\n\n<script src=\"/theme-javascripts/b7e9763fcb584fc8265c56a9f557cd6d2e1e8ed8.js?__ws=forum.parkinsons.org.uk\"></script>\n    <header>\n      <a href=\"/\">\n          <img src=\"https://forum.parkinsons.org.uk/uploads/db7928/original/2X/8/862bb7d172e7d127e7f3e147ec43594aa62ac945.png\" alt=\"Parkinson&#39;s UK Forum\" id=\"site-logo\" style=\"max-width: 150px;\">\n      </a>\n    </header>\n    <div id=\"main-outlet\" class=\"wrap\">\n      <h1>\n  <a href=\"/t/the-end-of-life-experience-for-people-with-parkinsons-disease/8402\">The end of life experience for people with Parkinson&#39;s disease</a>\n</h1>\n\n<div id='breadcrumbs'>\n    <div id=\"breadcrumb-0\" itemscope itemtype=\"http://data-vocabulary.org/Breadcrumb\"\n        itemref=\"breadcrumb-1\"\n      >\n      <a href=\"/c/research\" itemprop=\"url\">\n        <span itemprop=\"title\">Research</span>\n      </a>\n    </div>\n    <div id=\"breadcrumb-1\" itemscope itemtype=\"http://data-vocabulary.org/Breadcrumb\"\n>\n      <a href=\"/c/research/research-opportunities\" itemprop=\"url\">\n        <span itemprop=\"title\">Research opportunities</span>\n      </a>\n    </div>\n</div>\n\n\n\n\n\n<hr>\n\n\n  <div itemscope itemtype='http://schema.org/DiscussionForumPosting'>\n      <div class='creator'>\n        <span>\n          <a href='/u/Claire_Morris'><b itemprop='author'>Claire_Morris</b></a>\n          \n          <time datetime='2015-07-06T08:47:38Z' itemprop='datePublished'>\n            2015-07-06 08:47:38 UTC\n          </time>\n        </span>\n        <span itemprop='position'>#1</span>\n      </div>\n      <div class='post' itemprop='articleBody'>\n        <p>Hello, my name is Claire Morris and I am a research doctor working in Northumbria, based with the Parkinson&rsquo;s team at Northumbria Healthcare NHS Foundation Trust.<br />\r\n\t<br />\r\n\tI am carrying out a research study to try to find ways of improving the end of life experience for people with Parkinson&rsquo;s.<br />\r\n\t<br />\r\n\tTo do this I am hoping to gather the views of carers or relatives who have lost a loved one who had Parkinson&rsquo;s and I have developed a private internet forum with Newcastle University where views can be shared and discussed. I understand if you have lost someone close to you this might be a very difficult time for you, but if you do think you could help with this research project, either now or in the future it would be gratefully appreciated. If you are interested in taking part please have a look at the forum and share your experiences of caring for a loved one with Parkinson&rsquo;s at the end stages of life.&nbsp; The forum will be open for around six to nine months and you can contribute as much, or as little as you would like to the discussion.<br />\r\n\tYou can access the forum via this link&nbsp; <a href=\"http://openlab.ncl.ac.uk/publicweb/pdforum/\" target=\"_blank\">http://openlab.ncl.ac.uk/publicweb/pdforum/</a><br />\r\n\t<br />\r\n\tIf you click to register, further information about the project will be provided. No personal details will be taken unless you have read the description and have consented to join the forum; all that is required to join is an e-mail address. You are under no obligation to take part. If you know anyone else who might be able to help please do direct them to the forum link.<br />\r\n\t<br />\r\n\tIf you have any questions about this research project, please e-mail me on <a href=\"/cdn-cgi/l/email-protection#c5a6eba0eba8aab7b7acb6f685aba6a9eba4a6ebb0ae\" target=\"_blank\"><span class=\"__cf_email__\" data-cfemail=\"64074a014a090b16160d1757240a07084a05074a110f\">[email&#160;protected]</span></a> or alternatively you can contact me by telephone on 07745302325</p>\n      </div>\n      <meta itemprop='interactionCount' content='UserLikes:0'>\n      <meta itemprop='interactionCount' content='UserComments:0'>\n      <meta itemprop='headline' content='The end of life experience for people with Parkinson&#39;s disease'>\n      <hr>\n  </div>\n  <div itemscope itemtype='http://schema.org/DiscussionForumPosting'>\n      <div class='creator'>\n        <span>\n          <a href='/u/Keld'><b itemprop='author'>Keld</b></a>\n          \n          <time datetime='2015-07-07T16:27:27Z' itemprop='datePublished'>\n            2015-07-07 16:27:27 UTC\n          </time>\n        </span>\n        <span itemprop='position'>#2</span>\n      </div>\n      <div class='post' itemprop='articleBody'>\n        <p>I just joined this forum and noted your name alongside mine! My mother died August 2013 and I supported her closely through end-stage PD. I will definitely support your research! I have been involved in other end-of-life research into PD and also with Marie Curie end of life so have hopefully lots to contribute that will be helpful to you.</p>\n      </div>\n      <meta itemprop='interactionCount' content='UserLikes:0'>\n      <meta itemprop='interactionCount' content='UserComments:1'>\n      <meta itemprop='headline' content='The end of life experience for people with Parkinson&#39;s disease'>\n      <hr>\n  </div>\n  <div itemscope itemtype='http://schema.org/DiscussionForumPosting'>\n      <div class='creator'>\n        <span>\n          <a href='/u/Claire_Morris'><b itemprop='author'>Claire_Morris</b></a>\n          \n          <time datetime='2015-07-07T16:53:28Z' itemprop='datePublished'>\n            2015-07-07 16:53:28 UTC\n          </time>\n        </span>\n        <span itemprop='position'>#3</span>\n      </div>\n      <div class='post' itemprop='articleBody'>\n        <p>Hi&nbsp;Keld,</p>\r\n<p>Thank you so much for your response. I look forward to hearing your views.</p>\r\n<p>Claire</p>\n      </div>\n      <meta itemprop='interactionCount' content='UserLikes:0'>\n      <meta itemprop='interactionCount' content='UserComments:0'>\n      <meta itemprop='headline' content='The end of life experience for people with Parkinson&#39;s disease'>\n      <hr>\n  </div>\n  <div itemscope itemtype='http://schema.org/DiscussionForumPosting'>\n      <div class='creator'>\n        <span>\n          <a href='/u/Keld'><b itemprop='author'>Keld</b></a>\n          \n          <time datetime='2015-07-07T19:09:08Z' itemprop='datePublished'>\n            2015-07-07 19:09:08 UTC\n          </time>\n        </span>\n        <span itemprop='position'>#4</span>\n      </div>\n      <div class='post' itemprop='articleBody'>\n        <p>posted a response on your forum</p>\n      </div>\n      <meta itemprop='interactionCount' content='UserLikes:0'>\n      <meta itemprop='interactionCount' content='UserComments:0'>\n      <meta itemprop='headline' content='The end of life experience for people with Parkinson&#39;s disease'>\n      <hr>\n  </div>\n  <div itemscope itemtype='http://schema.org/DiscussionForumPosting'>\n      <div class='creator'>\n        <span>\n          <a href='/u/Keld'><b itemprop='author'>Keld</b></a>\n          \n          <time datetime='2015-07-24T15:04:27Z' itemprop='datePublished'>\n            2015-07-24 15:04:27 UTC\n          </time>\n        </span>\n        <span itemprop='position'>#5</span>\n      </div>\n      <div class='post' itemprop='articleBody'>\n        <p>I know this is a difficult topic but one that is important. I supported my mother and talking with her about what she wanted and helping her make plans enabled her to feel less worried about what would happen and that she&nbsp;would always have her voice - through me when necessary. I had the reassurance that I knew what she wanted. Hard to do but made things better and easier to cope with. So far I am the only person who had joined this dialogue with Claire the researcher...so she is not getting a very broad response base!&nbsp;The quality of the end of life experience for those with Parkinson&#39;s and their carers is important and is often not as it should be.</p>\n      </div>\n      <meta itemprop='interactionCount' content='UserLikes:0'>\n      <meta itemprop='interactionCount' content='UserComments:0'>\n      <meta itemprop='headline' content='The end of life experience for people with Parkinson&#39;s disease'>\n      <hr>\n  </div>\n  <div itemscope itemtype='http://schema.org/DiscussionForumPosting'>\n      <div class='creator'>\n        <span>\n          <a href='/u/goldengirl'><b itemprop='author'>goldengirl</b></a>\n          \n          <time datetime='2015-07-24T15:16:16Z' itemprop='datePublished'>\n            2015-07-24 15:16:16 UTC\n          </time>\n        </span>\n        <span itemprop='position'>#6</span>\n      </div>\n      <div class='post' itemprop='articleBody'>\n        <p>Perhaps the problem is that many carers stop looking at the forum when their loved one dies and so don&#39;t see the plea for responses.</p>\r\n<p>GG</p>\n      </div>\n      <meta itemprop='interactionCount' content='UserLikes:0'>\n      <meta itemprop='interactionCount' content='UserComments:0'>\n      <meta itemprop='headline' content='The end of life experience for people with Parkinson&#39;s disease'>\n      <hr>\n  </div>\n  <div itemscope itemtype='http://schema.org/DiscussionForumPosting'>\n      <div class='creator'>\n        <span>\n          <a href='/u/Claire_Morris'><b itemprop='author'>Claire_Morris</b></a>\n          \n          <time datetime='2015-07-24T15:23:52Z' itemprop='datePublished'>\n            2015-07-24 15:23:52 UTC\n          </time>\n        </span>\n        <span itemprop='position'>#7</span>\n      </div>\n      <div class='post' itemprop='articleBody'>\n        <p>Thanks for your comment goldengirl, I think that could well be the reason too. Parkinson&#39;s UK are looking into other ways they might be able to get the message to former carers as well, so hopefully over time other people can share their experiences too. This should help build a picture of what makes for good and bad experiences and allow us to see ways things could be improved.&nbsp;</p>\n      </div>\n      <meta itemprop='interactionCount' content='UserLikes:0'>\n      <meta itemprop='interactionCount' content='UserComments:0'>\n      <meta itemprop='headline' content='The end of life experience for people with Parkinson&#39;s disease'>\n      <hr>\n  </div>\n  <div itemscope itemtype='http://schema.org/DiscussionForumPosting'>\n      <div class='creator'>\n        <span>\n          <a href='/u/Keld'><b itemprop='author'>Keld</b></a>\n          \n          <time datetime='2015-07-26T15:14:27Z' itemprop='datePublished'>\n            2015-07-26 15:14:27 UTC\n          </time>\n        </span>\n        <span itemprop='position'>#8</span>\n      </div>\n      <div class='post' itemprop='articleBody'>\n        <p>I agree to some extent, I joined the forum when I joined the Research Support Network, as all RSN members are encouraged to do.</p>\r\n<p>So hopefully others in my position will find your posting Claire through the research section of the forum&nbsp;and feel able to contribute to your valuable research.</p>\r\n<p>K</p>\n      </div>\n      <meta itemprop='interactionCount' content='UserLikes:0'>\n      <meta itemprop='interactionCount' content='UserComments:0'>\n      <meta itemprop='headline' content='The end of life experience for people with Parkinson&#39;s disease'>\n      <hr>\n  </div>\n\n\n\n\n\n\n    </div>\n    <footer class=\"container\">\n      <nav class='crawler-nav' itemscope itemtype='http://schema.org/SiteNavigationElement'>\n        <a href='/'>Home</a>\n        <a href=\"/categories\">Categories</a>\n        <a href=\"/guidelines\">FAQ/Guidelines</a>\n        <a href=\"/tos\">Terms of Service</a>\n        <a href=\"/privacy\">Privacy Policy</a>\n      </nav>\n      <p class='powered-by-link'>Powered by <a href=\"https://www.discourse.org\">Discourse</a>, best viewed with JavaScript enabled</p>\n    </footer>\n    \n  <script data-cfasync=\"false\" src=\"/cdn-cgi/scripts/5c5dd728/cloudflare-static/email-decode.min.js\"></script></body>\n  \n</html>\n",
  "url": "https://forum.parkinsons.org.uk/t/the-end-of-life-experience-for-people-with-parkinsons-disease/8402"
}