{
  "contentId": "afab7b40-886b-11e9-8f96-97f71b5221d6",
  "html": "<!DOCTYPE html>\n<html lang=\"en\">\n  <head>\n    <meta charset=\"utf-8\">\n    <title>Despair - Impulsive and compulsive behaviour - Parkinson&#39;s UK Forum</title>\n    <meta name=\"description\" content=\"My husband tried to commit suicide yesterday. \r\nHe is in hospital recovering. \r\nAll the counselling and  help provided over the last 4 years cannot undo the terrible damage caused by the DAs and the effect on our marriag&amp;hellip;\">\n    <meta name=\"author\" content=\"\">\n<meta name=\"generator\" content=\"Discourse 2.2.5 - https://github.com/discourse/discourse version c294ff3609f988dcafb742e91606d60ca13b794d\">\n<link rel=\"icon\" type=\"image/png\" href=\"https://forum.parkinsons.org.uk/uploads/db7928/original/2X/3/311fc84f89f49f38601a2f16b295b6f03d3ce5dd.jpg\">\n<link rel=\"apple-touch-icon\" type=\"image/png\" href=\"https://forum.parkinsons.org.uk/uploads/db7928/original/2X/3/311fc84f89f49f38601a2f16b295b6f03d3ce5dd.jpg\">\n<meta name=\"theme-color\" content=\"#ffffff\">\n<meta name=\"viewport\" content=\"width=device-width, minimum-scale=1.0, maximum-scale=1.0, user-scalable=yes\">\n<link rel=\"canonical\" href=\"https://forum.parkinsons.org.uk/t/despair/7745?page=4\" />\n<script type=\"application/ld+json\">{\"@context\":\"http://schema.org\",\"@type\":\"WebSite\",\"url\":\"https://forum.parkinsons.org.uk\",\"potentialAction\":{\"@type\":\"SearchAction\",\"target\":\"https://forum.parkinsons.org.uk/search?q={search_term_string}\",\"query-input\":\"required name=search_term_string\"}}</script>\n<link rel=\"search\" type=\"application/opensearchdescription+xml\" href=\"https://forum.parkinsons.org.uk/opensearch.xml\" title=\"Parkinson&#39;s UK Forum Search\">\n\n      <link href=\"/stylesheets/desktop_f99246ae801b083d3e4cca979d0dade8615b39ac.css?__ws=forum.parkinsons.org.uk\" media=\"all\" rel=\"stylesheet\" data-target=\"desktop\" data-theme-id=\"12\"/>\n      <link href=\"/stylesheets/desktop_theme_12_5d27531cf43f9df0c03a6a6ec3109dd05f9dfc49.css?__ws=forum.parkinsons.org.uk\" media=\"all\" rel=\"stylesheet\" data-target=\"desktop_theme\" data-theme-id=\"12\"/>\n    <link href=\"https://fonts.googleapis.com/css?family=Open+Sans\" rel=\"stylesheet\">\n\n    <meta id=\"data-ga-universal-analytics\" data-tracking-code=\"UA-4855628-1\" data-json=\"{&quot;cookieDomain&quot;:&quot;auto&quot;}\" data-auto-link-domains=\"\">\n\n<link rel='preload' href='/assets/google-universal-analytics-f35b4da49411e6f5559073523aab983da483976a3954c79c756f8579f6fbd6ef.js' as='script'/>\n<script src='/assets/google-universal-analytics-f35b4da49411e6f5559073523aab983da483976a3954c79c756f8579f6fbd6ef.js'></script>\n\n      <link rel=\"alternate\" type=\"application/rss+xml\" title=\"RSS feed of &#39;Despair&#39;\" href=\"https://forum.parkinsons.org.uk/t/despair/7745.rss\" />\n  <meta property=\"og:site_name\" content=\"Parkinson&#39;s UK Forum\" />\n<meta name=\"twitter:card\" content=\"summary\" />\n<meta name=\"twitter:image\" content=\"https://forum.parkinsons.org.uk/uploads/db7928/original/2X/3/311fc84f89f49f38601a2f16b295b6f03d3ce5dd.jpg\" />\n<meta property=\"og:image\" content=\"https://forum.parkinsons.org.uk/uploads/db7928/original/2X/3/311fc84f89f49f38601a2f16b295b6f03d3ce5dd.jpg\" />\n<meta property=\"og:url\" content=\"https://forum.parkinsons.org.uk/t/despair/7745?page=4\" />\n<meta name=\"twitter:url\" content=\"https://forum.parkinsons.org.uk/t/despair/7745?page=4\" />\n<meta property=\"og:title\" content=\"Despair\" />\n<meta name=\"twitter:title\" content=\"Despair\" />\n<meta property=\"og:description\" content=\"Happy birthday golden girl xx\" />\n<meta name=\"twitter:description\" content=\"Happy birthday golden girl xx\" />\n<meta property=\"article:published_time\" content=\"2015-02-19T20:11:12+00:00\" />\n<meta property=\"og:ignore_canonical\" content=\"true\" />\n\n      <link rel=\"prev\" href=\"/t/despair/7745?page=3\">\n      <link rel=\"next\" href=\"/t/despair/7745?page=5\">\n\n\n    \n  </head>\n  <body class=\"crawler\">\n    <header role=\"banner\">\n    <div class=\"region region-header\">\n        <div class=\"region-header-wrapper\">\n            <div id=\"block-parkinsons-d8-branding\" class=\"block block-system block-system-branding-block\">\n                <a href=\"/\" title=\"Home\" rel=\"home\" class=\"site-logo\">\n                    <img src=\"https://forum.parkinsons.org.uk/uploads/db7928/original/2X/8/862bb7d172e7d127e7f3e147ec43594aa62ac945.png\" alt=\"Parkinson's UK. Change Attitudes. Find a cure. Join us.\">\n                </a>\n            </div>\n            <div id=\"block-helpline\" class=\"block block-block-content block-block-content871cd5af-b938-4947-9dc0-d5c211d08fe3 style-phone\">\n                <div class=\"field field--name-field-link field--type-link field--label-hidden field__item\"><a href=\"tel:+448088000303\">Helpline 0808 800 0303</a></div>\n            </div>\n            <div id=\"block-shop\" class=\"block block-block-content block-block-content6fba5ae5-7797-49cd-8367-f321d8111cd6 style-regular\">\n                <div class=\"field field--name-field-link field--type-link field--label-hidden field__item\"><a href=\"https://shop.parkinsons.org.uk\">Shop</a></div>\n            </div>\n        </div>\n    </div>\n</header>\n\n\n<script src=\"/theme-javascripts/b7e9763fcb584fc8265c56a9f557cd6d2e1e8ed8.js?__ws=forum.parkinsons.org.uk\"></script>\n    <header>\n      <a href=\"/\">\n          <img src=\"https://forum.parkinsons.org.uk/uploads/db7928/original/2X/8/862bb7d172e7d127e7f3e147ec43594aa62ac945.png\" alt=\"Parkinson&#39;s UK Forum\" id=\"site-logo\" style=\"max-width: 150px;\">\n      </a>\n    </header>\n    <div id=\"main-outlet\" class=\"wrap\">\n      <h1>\n  <a href=\"/t/despair/7745\">Despair</a>\n</h1>\n\n<div id='breadcrumbs'>\n    <div id=\"breadcrumb-0\" itemscope itemtype=\"http://data-vocabulary.org/Breadcrumb\"\n        itemref=\"breadcrumb-1\"\n      >\n      <a href=\"/c/about-parkinsons-and-health\" itemprop=\"url\">\n        <span itemprop=\"title\">About Parkinson&#39;s and health</span>\n      </a>\n    </div>\n    <div id=\"breadcrumb-1\" itemscope itemtype=\"http://data-vocabulary.org/Breadcrumb\"\n>\n      <a href=\"/c/about-parkinsons-and-health/impulsive-and-compulsive-behaviour\" itemprop=\"url\">\n        <span itemprop=\"title\">Impulsive and compulsive behaviour</span>\n      </a>\n    </div>\n</div>\n\n\n\n\n\n<hr>\n\n\n  <div itemscope itemtype='http://schema.org/DiscussionForumPosting'>\n      <div class='creator'>\n        <span>\n          <a href='/u/Bettyblue'><b itemprop='author'>Bettyblue</b></a>\n          \n          <time datetime='2015-02-19T20:11:12Z' itemprop='datePublished'>\n            2015-02-19 20:11:12 UTC\n          </time>\n        </span>\n        <span itemprop='position'>#61</span>\n      </div>\n      <div class='post' itemprop='articleBody'>\n        <p>Happy birthday golden girl xx</p>\n      </div>\n      <meta itemprop='interactionCount' content='UserLikes:0'>\n      <meta itemprop='interactionCount' content='UserComments:0'>\n      <meta itemprop='headline' content='Despair'>\n      <hr>\n  </div>\n  <div itemscope itemtype='http://schema.org/DiscussionForumPosting'>\n      <div class='creator'>\n        <span>\n          <a href='/u/hatknitter'><b itemprop='author'>hatknitter</b></a>\n          \n          <time datetime='2015-02-20T18:34:09Z' itemprop='datePublished'>\n            2015-02-20 18:34:09 UTC\n          </time>\n        </span>\n        <span itemprop='position'>#62</span>\n      </div>\n      <div class='post' itemprop='articleBody'>\n        <p>I know this is a day late GG but happy birthday.&nbsp; You are my twin as I also have my birthday on Feb 19th&nbsp; but I was 73 this year.&nbsp; I don`t feel anything like that age and hope I shall be saying that for many years to come.</p>\r\n<p>Hope you had a good day.</p>\r\n<p>Hattie</p>\n      </div>\n      <meta itemprop='interactionCount' content='UserLikes:0'>\n      <meta itemprop='interactionCount' content='UserComments:0'>\n      <meta itemprop='headline' content='Despair'>\n      <hr>\n  </div>\n  <div itemscope itemtype='http://schema.org/DiscussionForumPosting'>\n      <div class='creator'>\n        <span>\n          <a href='/u/goldengirl'><b itemprop='author'>goldengirl</b></a>\n          \n          <time datetime='2015-02-20T20:14:50Z' itemprop='datePublished'>\n            2015-02-20 20:14:50 UTC\n          </time>\n        </span>\n        <span itemprop='position'>#63</span>\n      </div>\n      <div class='post' itemprop='articleBody'>\n        <p>Thank you Gus, Bettyblue and Hattie!</p>\r\n<p>I do hope you had a lovely day too, Hattie&nbsp; my twin, and that we all have a good year, hopefully with better drugs and hope for the future.</p>\r\n<p>Love</p>\r\n<p>GG</p>\n      </div>\n      <meta itemprop='interactionCount' content='UserLikes:0'>\n      <meta itemprop='interactionCount' content='UserComments:0'>\n      <meta itemprop='headline' content='Despair'>\n      <hr>\n  </div>\n  <div itemscope itemtype='http://schema.org/DiscussionForumPosting'>\n      <div class='creator'>\n        <span>\n          <a href='/u/Billywhizz'><b itemprop='author'>Billywhizz</b></a>\n          \n          <time datetime='2015-02-20T22:12:01Z' itemprop='datePublished'>\n            2015-02-20 22:12:01 UTC\n          </time>\n        </span>\n        <span itemprop='position'>#64</span>\n      </div>\n      <div class='post' itemprop='articleBody'>\n        <p>&nbsp; &nbsp;HAPPY TO YOU HATTIE&nbsp;&nbsp;</p>\r\n<p>&nbsp; &nbsp; &nbsp; &nbsp; &nbsp; &nbsp; &nbsp; &nbsp; &nbsp; &nbsp; &nbsp; &nbsp; &nbsp; &nbsp; &nbsp; &nbsp; &nbsp; &nbsp;Billywhizz</p>\r\n<p>&nbsp;</p>\n      </div>\n      <meta itemprop='interactionCount' content='UserLikes:0'>\n      <meta itemprop='interactionCount' content='UserComments:0'>\n      <meta itemprop='headline' content='Despair'>\n      <hr>\n  </div>\n  <div itemscope itemtype='http://schema.org/DiscussionForumPosting'>\n      <div class='creator'>\n        <span>\n          <a href='/u/Vivian'><b itemprop='author'>Vivian</b></a>\n          \n          <time datetime='2015-02-21T10:44:08Z' itemprop='datePublished'>\n            2015-02-21 10:44:08 UTC\n          </time>\n        </span>\n        <span itemprop='position'>#65</span>\n      </div>\n      <div class='post' itemprop='articleBody'>\n        <p>&nbsp;HI and best belated wishes to you both,</p>\r\n<p>Well after typing away for sometime I suddenly lots everything, drives me mad. I too am 70 this year but I must say the body is worn out, it could be that I have been in constant pain since I did my back in, way back in 1976 and although had a spinal fusion I have had to use a wheelchair since. I keep going by having a hoist in the car to get the wheelchair in and out and swim twice a week when I can, hasn&#39;t stopped me putting on weight no matter how hard I try to keep it off, I have ended up just the same shape as my mum who ate everything she liked, I wishes I had enjoyed all the cakes and choc&#39;s&nbsp;instead of being good!! My friends are always surprised when I tell them my age which is something I suppose and I do like show&#39;s like &quot;That&#39;ll be the Day&quot; when I can get a wheelchair space which is a struggle with so few available, but if you like 60&#39; music and acting like a teenager again they gift you a real lift. I do agree with everything you say Golden Girl we were never told about the drugs either but my husband is on hourly tablets and has been for several years now as that is the only way his body seems to work and he gets fed up, he takes them from 6 am through to 10pm.</p>\r\n<p>Most of you will know about low blood pressure with PD but as you progress I would advise you to be extra careful as my husband&#39;s BP drops to 70/40 sometimes and just lately it has had several times in a matter of minutes, of course you have to get them on the bed or somewhere where you can get the head down and legs up, it only lasts a short time and people don&#39;t pass out but our consultant calls them a &quot;Grey out&#39;s&quot; and they can hear you but can&#39;t talk back to you, their eyes are open and you can easily miss it but I usually can tell when I lift his arm it&#39;s floppy. You don&#39;t need to rush off to hospital and be put on a drip as one Doctor wanted to do but you do need to keep a close check as it can lead to a cardiac arrest. Please all don&#39;t go into a panic I just think it&#39;s better to be aware than frightened and not know what to do. Our son is moving to be nearer work so will be just over an hour away from me and my husband is an hour in the other direction so that will be something to get used to but I have told him he must get on with his life. I hope you all have a good week. Best wishes Vivian</p>\n      </div>\n      <meta itemprop='interactionCount' content='UserLikes:0'>\n      <meta itemprop='interactionCount' content='UserComments:0'>\n      <meta itemprop='headline' content='Despair'>\n      <hr>\n  </div>\n  <div itemscope itemtype='http://schema.org/DiscussionForumPosting'>\n      <div class='creator'>\n        <span>\n          <a href='/u/Vivian'><b itemprop='author'>Vivian</b></a>\n          \n          <time datetime='2015-02-21T10:48:44Z' itemprop='datePublished'>\n            2015-02-21 10:48:44 UTC\n          </time>\n        </span>\n        <span itemprop='position'>#66</span>\n      </div>\n      <div class='post' itemprop='articleBody'>\n        <p>Sorry Folks it look like I shall have to edit my posts, I am just afraid to hit a key in case i lose the lot again, I should get some coaching on using the computer</p>\n      </div>\n      <meta itemprop='interactionCount' content='UserLikes:0'>\n      <meta itemprop='interactionCount' content='UserComments:0'>\n      <meta itemprop='headline' content='Despair'>\n      <hr>\n  </div>\n  <div itemscope itemtype='http://schema.org/DiscussionForumPosting'>\n      <div class='creator'>\n        <span>\n          <a href='/u/deleted.user'><b itemprop='author'>deleted.user</b></a>\n          \n          <time datetime='2015-02-26T17:29:00Z' itemprop='datePublished'>\n            2015-02-26 17:29:00 UTC\n          </time>\n        </span>\n        <span itemprop='position'>#67</span>\n      </div>\n      <div class='post' itemprop='articleBody'>\n        <p>Hi goldengirl,</p>\r\n<p>Firstly, we hope you had a good birthday.</p>\r\n<p>We’re sorry you feel that action was not taken promptly enough though as you know, the issues involved in a case like this are complex.&nbsp; And there are further issues around mounting a group litigation order (class actions do not exist in the UK). For those of you interested in the legal situation, we held a <a href=\"https://www.parkinsons.org.uk/content/qa-law-and-impulsive-and-compulsive-behaviour\">Q&amp;A session</a> on the law and impulsive and compulsive behaviour in November 2013 that helps to explain the issues.<br>\r\n\t<br>\r\n\tBest wishes,<br>\r\n\tSuma, Professional Engagement and Education Manager</p>\n      </div>\n      <meta itemprop='interactionCount' content='UserLikes:0'>\n      <meta itemprop='interactionCount' content='UserComments:0'>\n      <meta itemprop='headline' content='Despair'>\n      <hr>\n  </div>\n  <div itemscope itemtype='http://schema.org/DiscussionForumPosting'>\n      <div class='creator'>\n        <span>\n          <a href='/u/goldengirl'><b itemprop='author'>goldengirl</b></a>\n          \n          <time datetime='2015-02-26T19:52:01Z' itemprop='datePublished'>\n            2015-02-26 19:52:01 UTC\n          </time>\n        </span>\n        <span itemprop='position'>#68</span>\n      </div>\n      <div class='post' itemprop='articleBody'>\n        <p>There was plenty of information available to health professionals and on the Internet years before the Q and A session &nbsp;2013, Suma,</p>\r\n<p>In 2010 The Mayo Clinic published research showing that about 1 in 3 patients on a therapeutic dose of Dopamine Agonists suffered new&nbsp;OCDs mainly gambling and hypersexuality.</p>\r\n<p>1 in 3 men under 50 suffered these catastrophic OCDs.</p>\r\n<p>The link between DAs&nbsp;and OCDs was &nbsp;there for interested parties to find for many years prior to this major report. .PDUK should have been aware and alerting patients to the dangers.</p>\r\n<p>After GSK were forced to add warnings to their leaflets in 2006 PDUK&nbsp;made no effort to warn patients and it was years before growing stories&nbsp;of ruined lives on the Forum &nbsp;and contact with the Helpline &nbsp;forced them to begin a campaign highlighting the catastrophe.</p>\r\n<p>The &nbsp;Q and A session in 2013 was a complete waste of time....too late for&nbsp;legal to be taken whatever the patient&#39;s situation.</p>\r\n<p>Legal action has to be started within 3 years of finding out the cause of the damage.</p>\r\n<p>If you took the meds after the warnings appeared in 2006 &nbsp;then you were deemed to have known about and accepted the risk.</p>\r\n<p>So, no possible action by 2013. This is what the Q and A session concluded.</p>\r\n<p>There may not be a lawsuit termed a class action in the UK but firms can and do act on behalf of a group of people. PDUK could have been proactive &nbsp;post the 2006 warning, in liaising with the damaged patients and a legal firm such as Leigh Day without being involved in any expense...just time.</p>\r\n<p>In our ignorance, we saw a neurologist privately in 2000 and after diagnosis saw him only. We did not know a Parkinsons Nurse existed. We joined PDUK in 2000 and received the magazine. We did not realise the Forum existed and until 2010 used the computer very little. Most people of our age were slow in becoming computer savvy.</p>\r\n<p>Our only knowledge of Parkinsons came from these sources and neither ever mentioned DAs&nbsp;and OCDs. . Pre 2010.We struggled to understand what was happening as our world was destroyed by these drugs.. Our whole life crumbling in 2010 led us to the Parkinsons Nurse and from her the knowledge about DAs and OCDs.</p>\r\n<p>I cannot be alone in feeling utterly let down by PDUK and left to assume that drug company funding prevented any boat-rocking until it was too late to take action which would harm the profits of the greedy companies for whom money is more important than morality.</p>\r\n<p>&nbsp;Yes , Suma, I did have a happy birthday surrounded by &nbsp;good &nbsp;friends and a loving family.</p>\r\n<p>But they cannot undo the horrors of the past, or restore our lost savings, or our ruined marriage.</p>\r\n<p>PDUK could have played a role in preventing the destruction, for us and many others, but failed to do so?</p>\r\n<p>GG</p>\r\n<p>&nbsp;</p>\r\n<p>&nbsp;</p>\r\n<p>&nbsp;</p>\r\n<p>&nbsp;</p>\r\n<p>&nbsp;</p>\n      </div>\n      <meta itemprop='interactionCount' content='UserLikes:0'>\n      <meta itemprop='interactionCount' content='UserComments:0'>\n      <meta itemprop='headline' content='Despair'>\n      <hr>\n  </div>\n  <div itemscope itemtype='http://schema.org/DiscussionForumPosting'>\n      <div class='creator'>\n        <span>\n          <a href='/u/goldengirl'><b itemprop='author'>goldengirl</b></a>\n          \n          <time datetime='2015-02-26T20:22:35Z' itemprop='datePublished'>\n            2015-02-26 20:22:35 UTC\n          </time>\n        </span>\n        <span itemprop='position'>#69</span>\n      </div>\n      <div class='post' itemprop='articleBody'>\n        <p>To illustrate my post below,</p>\r\n<p><a href=\"https://www.theguardian.com/society/2014/dec/09/pfizer-offers-settlement-over-parkinsons-drug-alleged-to-have-caused-addictions\" target=\"_blank\">http://www.theguardian.com/society/2014/dec/09/pfizer-offers-settlement-over-parkinsons-drug-alleged-to-have-caused-addictions</a></p>\r\n<p>For example, did PDUK&nbsp;notice this going on in 2008 and discuss whether or not to highlight it in the magazine to alert DA users?</p>\r\n<p>Did they research whether DAs in general were creating massive problems for patients in the UK? Because by this time, they were!</p>\r\n<p>If not, what were they doing? Surely part of their brief is to keep abreast of PD&nbsp;drug problems and keep patients safe?</p>\r\n<p>Why did it take 5 more years before they held a Q and A session on the Forum, by which time no legal action was possible?</p>\r\n<p>GG</p>\n      </div>\n      <meta itemprop='interactionCount' content='UserLikes:0'>\n      <meta itemprop='interactionCount' content='UserComments:0'>\n      <meta itemprop='headline' content='Despair'>\n      <hr>\n  </div>\n  <div itemscope itemtype='http://schema.org/DiscussionForumPosting'>\n      <div class='creator'>\n        <span>\n          <a href='/u/deleted.user'><b itemprop='author'>deleted.user</b></a>\n          \n          <time datetime='2015-02-27T11:03:58Z' itemprop='datePublished'>\n            2015-02-27 11:03:58 UTC\n          </time>\n        </span>\n        <span itemprop='position'>#70</span>\n      </div>\n      <div class='post' itemprop='articleBody'>\n        <p>Hi goldengirl,</p>\r\n<p>I can see that you feel very frustrated at what actions were taken.&nbsp; I started at&nbsp;Parkinson's UK in 2012 and so it is very difficult for me personally to comment on what happened beforehand.&nbsp; However I can tell you that it did take some time to find any solicitors to agree to take part in a Q&amp;A session hence why this only took place in late 2013.</p>\r\n<p>I will try to find out more about the other points you've raised - please bear with me as this might take some time.</p>\r\n<p>Suma</p>\r\n<p>&nbsp;</p>\n      </div>\n      <meta itemprop='interactionCount' content='UserLikes:0'>\n      <meta itemprop='interactionCount' content='UserComments:0'>\n      <meta itemprop='headline' content='Despair'>\n      <hr>\n  </div>\n  <div itemscope itemtype='http://schema.org/DiscussionForumPosting'>\n      <div class='creator'>\n        <span>\n          <a href='/u/goldengirl'><b itemprop='author'>goldengirl</b></a>\n          \n          <time datetime='2015-02-27T15:58:54Z' itemprop='datePublished'>\n            2015-02-27 15:58:54 UTC\n          </time>\n        </span>\n        <span itemprop='position'>#71</span>\n      </div>\n      <div class='post' itemprop='articleBody'>\n        <p>Hi Suma,</p>\r\n<p>Thank you for replying and offering to look at PDUK&#39;s&nbsp; past actions.</p>\r\n<p>I know you were not in post during the years PDUK&nbsp;failed to publicise the growing Da/OCD&nbsp;situation.</p>\r\n<p>Could I just correct my long post....Mayo Clinic figures in 2010 were 1 in 2 of men under under 50 suffer catastrophic impulse control disorders when taking a therapeutic dose of DAs.</p>\r\n<p>Hardly a small problem!</p>\r\n<p>I look forward to a more complete reply in time..GG</p>\n      </div>\n      <meta itemprop='interactionCount' content='UserLikes:0'>\n      <meta itemprop='interactionCount' content='UserComments:0'>\n      <meta itemprop='headline' content='Despair'>\n      <hr>\n  </div>\n  <div itemscope itemtype='http://schema.org/DiscussionForumPosting'>\n      <div class='creator'>\n        <span>\n          <a href='/u/deleted.user'><b itemprop='author'>deleted.user</b></a>\n          \n          <time datetime='2015-03-09T15:35:29Z' itemprop='datePublished'>\n            2015-03-09 15:35:29 UTC\n          </time>\n        </span>\n        <span itemprop='position'>#72</span>\n      </div>\n      <div class='post' itemprop='articleBody'>\n        <p>Dear goldengirl,</p>\r\n<p>Thank you for your patience whilst I’ve been talking to colleagues.&nbsp; As you might appreciate, there are not many staff members who were around ten years ago but I hope I have managed to unearth as much organisational knowledge as possible.&nbsp; I’m going to try and convey what has been found as comprehensively as possible with explanations of some things you no doubt already know about, however I hope this response will help those who might not be as knowledgeable as you.&nbsp;</p>\r\n<p>It seems that some links between gambling and Parkinson’s were highlighted in The Parkinson magazine in 2005.&nbsp; However at that time, there was a bit of confusion within wider clinical knowledge as to whether side-effects such as this were due to people taking more than is required to manage their symptoms (also known as dopamine dysregulation syndrome) or whether they occurred at normal therapeutic doses.&nbsp; Before we can do any widescale awareness raising activity, we need to ensure we are in possession of as much factual information as possible and it seems that at that time, it was not there.&nbsp; So we could only deal with cases on an individual basis as people approached us for support.&nbsp; However the evidence base for this started to grow more robustly from 2007/8&nbsp; and consequently in 2008 we became in a position to start talking about this more widely, including being involved in programmes such as Newsnight and This Morning (both of which equated to unprecedented media coverage for us back then) and another more comprehensive article in The Parkinson.&nbsp; Since then, this has become a priority for the charity and there has been an enormous increase in our activity on impulsive and compulsive behaviours from funding research projects, creating a specific area on the forum and producing information resources for both people affected by Parkinson’s and professionals (including the monitoring form).</p>\r\n<p>So it appears that as the available knowledge and understanding was not where we needed it to be, we were limited as to what we could proactively do.&nbsp; I don’t mean for this to sound like an excuse, but it doesn’t seem that we had the capacity to do anything more than we did then.&nbsp; We have definitely grown as an organisation and I would like to think that when issues come up, such as the problems accessing Amandatine last year, we are now in a position to raise awareness more widely and more effectively.&nbsp;</p>\r\n<p>I appreciate that all of this may be cold comfort to those of you whose lives have been so damaged by impulsive and compulsive behaviour.&nbsp; I hope you feel that the work that we have undertaken in recent years has been in the right direction and has made a difference.&nbsp; Through the newly formed Excellence Network, we will continue to raise awareness with clinicians as to their responsibilities in providing treatment that won’t devastate the lives of their patients and those around them so that what happened to you and your husband doesn’t happen to others.&nbsp;</p>\r\n<p>Kind regards,</p>\r\n<p>Suma</p>\n      </div>\n      <meta itemprop='interactionCount' content='UserLikes:0'>\n      <meta itemprop='interactionCount' content='UserComments:0'>\n      <meta itemprop='headline' content='Despair'>\n      <hr>\n  </div>\n  <div itemscope itemtype='http://schema.org/DiscussionForumPosting'>\n      <div class='creator'>\n        <span>\n          <a href='/u/goldengirl'><b itemprop='author'>goldengirl</b></a>\n          \n          <time datetime='2015-03-10T11:19:12Z' itemprop='datePublished'>\n            2015-03-10 11:19:12 UTC\n          </time>\n        </span>\n        <span itemprop='position'>#73</span>\n      </div>\n      <div class='post' itemprop='articleBody'>\n        <p>Thank you Suma for taking the time to look at the response of PDUK to the DA/OCD situation.</p>\r\n<p>I &nbsp;hope that in the future PDUK will respond more effectively to PWP&nbsp;who are suffering mentally or physically because of lack of support , information or advocacy,&nbsp; rather than handwringing&nbsp;and offering platitudes.</p>\r\n<p>I do, however, feel that the communication has improved a great deal over the last few years and staff, including you, Suma, have listened and responded &nbsp;in a much more positive manner.</p>\r\n<p>I look forward to seeing how the Anti-depressant and Azilect problem is resolved.</p>\r\n<p>With thanks for your efforts to involve and support us.</p>\r\n<p>GG</p>\n      </div>\n      <meta itemprop='interactionCount' content='UserLikes:0'>\n      <meta itemprop='interactionCount' content='UserComments:0'>\n      <meta itemprop='headline' content='Despair'>\n      <hr>\n  </div>\n  <div itemscope itemtype='http://schema.org/DiscussionForumPosting'>\n      <div class='creator'>\n        <span>\n          <a href='/u/goldengirl'><b itemprop='author'>goldengirl</b></a>\n          \n          <time datetime='2015-03-10T19:58:33Z' itemprop='datePublished'>\n            2015-03-10 19:58:33 UTC\n          </time>\n        </span>\n        <span itemprop='position'>#74</span>\n      </div>\n      <div class='post' itemprop='articleBody'>\n        <p>I wonder what happened to all the PWP who posted so often on the forum sharing their experiences, often life-destroying, of DAs/OCDs.</p>\r\n<p>Most of them eventually stopped posting, presumably in response to the lack of involvement of PDUK and the bullying of those who doubted their plight was as a result of the DAs and felt they were responsible for the demented.&nbsp;behaviour.These doubters felt that discussion of these devastating side effects might mean their own access to these drugs would be restricted.</p>\r\n<p>Where are you all now, the wonderful people who educated ,supported and cared for me when I was in such distress?</p>\r\n<p>Glenchass, Company Pleasant, Blueeyes...and many others.</p>\r\n<p>I remain in touch with Ray of Sunshine&#39;s family as he battles ever-worsening health .</p>\r\n<p>I wish that the forum had offered them the support they gave me and that they could post now and find a better-informed and compassionate welcome.</p>\r\n<p>GG</p>\n      </div>\n      <meta itemprop='interactionCount' content='UserLikes:0'>\n      <meta itemprop='interactionCount' content='UserComments:0'>\n      <meta itemprop='headline' content='Despair'>\n      <hr>\n  </div>\n  <div itemscope itemtype='http://schema.org/DiscussionForumPosting'>\n      <div class='creator'>\n        <span>\n          <a href='/u/libra_lady'><b itemprop='author'>libra_lady</b></a>\n          \n          <time datetime='2015-03-12T19:10:48Z' itemprop='datePublished'>\n            2015-03-12 19:10:48 UTC\n          </time>\n        </span>\n        <span itemprop='position'>#75</span>\n      </div>\n      <div class='post' itemprop='articleBody'>\n        <p>Hello Goldengirl.&nbsp;</p>\r\n<p>I was one of the people who posted when my husband was having terrible obsessive compulsive behaviour due to Mirapexin.&nbsp; The forum was a help to me - just by helping me realise I was not in this awful situation alone and that I wasn&#39;t going mad.&nbsp; I seem to remember that we had quite similar experiences with both of our husbands and that we emailed each other privately at the time.&nbsp;</p>\r\n<p>I would like to say that things have improved for us but that would not be the truth.&nbsp; Obviously the behaviours stopped once the DA&#39;s were stopped (although the coming off period was dreadful) but our marriage has not recovered.&nbsp; Let&#39;s just say we are still together.&nbsp; I care for him and he lets me care for him.&nbsp; It is very sad but all the things that happened have ruined our lives.</p>\r\n<p>One good thing is that there are hardly any people on the forum now with the problems that we had - if anything the professionals are overly cautious about the DA&#39;s and side effects.&nbsp; If only we had been warned - how different our lives might have been.</p>\r\n<p>I remember that Ray of Sunshine was in the process of writing a book about his experiences but I know that he was struggling with his health at the same time.&nbsp; What a shame that it never got published and made people aware of the awful side effects of these medications and the damage that they did to so many people and their families.&nbsp; Having said that, there will always be people who don&#39;t believe but that is up to them.&nbsp; Why would anyone want to make up the awful time we went through?&nbsp; I would give anything for it not to have happened and to be able to forget it all.</p>\r\n<p>Thank you for keeping the subject going - it would be too easy for it to be just swept under the carpet and pretend it never happened.&nbsp; For people like you and I, and many others, it was a living nightmare.</p>\r\n<p>Best wishes to you and your husband.</p>\r\n<p>LL x</p>\r\n<p>&nbsp;</p>\r\n<p>&nbsp;</p>\r\n<p>&nbsp;</p>\n      </div>\n      <meta itemprop='interactionCount' content='UserLikes:0'>\n      <meta itemprop='interactionCount' content='UserComments:0'>\n      <meta itemprop='headline' content='Despair'>\n      <hr>\n  </div>\n  <div itemscope itemtype='http://schema.org/DiscussionForumPosting'>\n      <div class='creator'>\n        <span>\n          <a href='/u/goldengirl'><b itemprop='author'>goldengirl</b></a>\n          \n          <time datetime='2015-03-12T19:45:32Z' itemprop='datePublished'>\n            2015-03-12 19:45:32 UTC\n          </time>\n        </span>\n        <span itemprop='position'>#76</span>\n      </div>\n      <div class='post' itemprop='articleBody'>\n        <p>How lovely to hear from you, Libra Lady!</p>\r\n<p>You were a great comfort to me in letting me know I was not alone in the nightmare.</p>\r\n<p>Our life is much like yours.</p>\r\n<p>We manage to live together with all the terrible memories gnawing away at the efforts to find trust again.</p>\r\n<p>We still stumble across medical staff who are oblivious to the DA/OCD&nbsp;situation and occasionally a new victim appears on the forum.</p>\r\n<p>There will never be anyone admitting they played a part in damaging so many lives and saying they&nbsp;are sorry.</p>\r\n<p>But just maybe, after all the Hillsborough families have finally been absolved of causing the dreadful situation.Maybe the drug companies will admit their guilt one day.</p>\r\n<p>Love to you and your husband.</p>\r\n<p>GG</p>\r\n<p>&nbsp;</p>\n      </div>\n      <meta itemprop='interactionCount' content='UserLikes:0'>\n      <meta itemprop='interactionCount' content='UserComments:0'>\n      <meta itemprop='headline' content='Despair'>\n      <hr>\n  </div>\n  <div itemscope itemtype='http://schema.org/DiscussionForumPosting'>\n      <div class='creator'>\n        <span>\n          <a href='/u/goldengirl'><b itemprop='author'>goldengirl</b></a>\n          \n          <time datetime='2015-03-16T17:09:25Z' itemprop='datePublished'>\n            2015-03-16 17:09:25 UTC\n          </time>\n        </span>\n        <span itemprop='position'>#77</span>\n      </div>\n      <div class='post' itemprop='articleBody'>\n        <p>I was just looking back on posts from 2011 when pressure from victims was forcing PDUK to respond to the desperation of PWP.</p>\r\n<p>This is a 2011 post and I wonder how much progress was made in each if the areas?</p>\r\n<p>Posts from Blue-eyes faded away, we never heard of contact with the drug companies, a Q and A session &nbsp;in 2014 about the legal situation merely confirmed that no legal action was possible in the UK as time had run out.</p>\r\n<p>We still find professionals in the PD field unaware of the DA/OCD&nbsp;devastation and some patients are still not being warned and monitored.</p>\r\n<p>Have the leaflets in DAs been altered to change the statistic to 1 in 4 of patients on a therapeutic dose will suffer these side effects, or is it still 1 in a 1000 as it was in 2010 when I last saw a packet?</p>\r\n<p>Is anyone ever going to apologise and take responsibility for our ruined lives?</p>\r\n<p>GG</p>\r\n<p>hi glenchass and Ray,<br />\r\n\tI can reassure you the recruitment of a Campaign Officer is most definitely happening. I spent last Thursday and Friday at PUK&#39;s offices doing just that. I am very involved in the selection process to find a suitable candidate, along with getting the role up and running within PUK. The selection process is almost complete and i should be able to give everyone a full update next week.<br />\r\n\tAlso there is a second ICD/OCD steering group meeting being held this Friday in London. I shall be presenting my proposals at this meeting as to what the campaign needs to focus on! In essence the plan is to focus of 3 key objectives,<br />\r\n\t1) Greater awareness of OCD side effects amongst all health professionals who prescribe PD medication and in particular DA&#39;s.<br />\r\n\t2) Bring the pharmaceutical companies to the table and getting them to start playing ball so to speak! For example, i want them to pay for any new training or educational materials we may require, and to update there info leaflets and websites with relevant and up to date info regarding OCD side effects. Will this be a big challenge, you bet it will! However i spent 30 years of my working life negotiating with some of the biggest manufactures in the world, so i got a few things up my sleeve when it comes to knowing which levers to pull.<br />\r\n\t3) Create a NEW dedicated support unit at PUK to give expert advise to people affected by this issue and provide ongoing help and support for those coping with the aftermath of OCD side effects. I shall go in to more detail on this over the coming weeks.<br />\r\n\tMust sign off now need to take my meds, hopefully this reassures you both.<br />\r\n\tregards<br />\r\n\tbluey</p>\n      </div>\n      <meta itemprop='interactionCount' content='UserLikes:0'>\n      <meta itemprop='interactionCount' content='UserComments:0'>\n      <meta itemprop='headline' content='Despair'>\n      <hr>\n  </div>\n  <div itemscope itemtype='http://schema.org/DiscussionForumPosting'>\n      <div class='creator'>\n        <span>\n          <a href='/u/Bettyblue'><b itemprop='author'>Bettyblue</b></a>\n          \n          <time datetime='2015-03-16T21:30:29Z' itemprop='datePublished'>\n            2015-03-16 21:30:29 UTC\n          </time>\n        </span>\n        <span itemprop='position'>#78</span>\n      </div>\n      <div class='post' itemprop='articleBody'>\n        <p>Is pramipexol one of these drugs?</p>\r\n<p>&nbsp;</p>\r\n<p>BB</p>\n      </div>\n      <meta itemprop='interactionCount' content='UserLikes:0'>\n      <meta itemprop='interactionCount' content='UserComments:0'>\n      <meta itemprop='headline' content='Despair'>\n      <hr>\n  </div>\n  <div itemscope itemtype='http://schema.org/DiscussionForumPosting'>\n      <div class='creator'>\n        <span>\n          <a href='/u/goldengirl'><b itemprop='author'>goldengirl</b></a>\n          \n          <time datetime='2015-03-16T21:46:03Z' itemprop='datePublished'>\n            2015-03-16 21:46:03 UTC\n          </time>\n        </span>\n        <span itemprop='position'>#79</span>\n      </div>\n      <div class='post' itemprop='articleBody'>\n        <p>Yes, Betty.</p>\r\n<p>It is a dopamine Agonist&nbsp;as far as I know.</p>\r\n<p>If you are taking it, you need to be are of the dangers and make sure someone you trust watches out for signs of compulsive behaviour.</p>\r\n<p>The victim remains unaware that their behaviour is abnormal and lies to cover up.</p>\r\n<p>Part of the thrill is getting away with it , be it sexual behaviour, gambling, shopping, Internet use....etc.</p>\r\n<p>Take care.</p>\r\n<p>Love</p>\r\n<p>Gzg</p>\n      </div>\n      <meta itemprop='interactionCount' content='UserLikes:0'>\n      <meta itemprop='interactionCount' content='UserComments:0'>\n      <meta itemprop='headline' content='Despair'>\n      <hr>\n  </div>\n  <div itemscope itemtype='http://schema.org/DiscussionForumPosting'>\n      <div class='creator'>\n        <span>\n          <a href='/u/gus'><b itemprop='author'>gus</b></a>\n          \n          <time datetime='2015-03-16T22:45:41Z' itemprop='datePublished'>\n            2015-03-16 22:45:41 UTC\n          </time>\n        </span>\n        <span itemprop='position'>#80</span>\n      </div>\n      <div class='post' itemprop='articleBody'>\n        <p>yeah pramipexol was a bad one for me gg ,online virtal gambling in the early hours of the morning where the pd drugs would not let me sleep i was on the web ,only reason came to light is they had a big thing 8yrs ago on pd drugs compulsive behaviour was in nero consultants rm with my wife &amp; he asked my wife any unusual behaviour my wife replied just bought 50&quot; tv then it all came out 20.000 g later !</p>\n      </div>\n      <meta itemprop='interactionCount' content='UserLikes:0'>\n      <meta itemprop='interactionCount' content='UserComments:0'>\n      <meta itemprop='headline' content='Despair'>\n      <hr>\n  </div>\n\n  <div role='navigation' itemscope itemtype='http://schema.org/SiteNavigationElement'>\n      <span itemprop='name'><a rel=\"prev\" itemprop=\"url\" href=\"/t/despair/7745?page=3\">← previous page</a></span>\n      <span itemprop='name'><b><a rel=\"next\" itemprop=\"url\" href=\"/t/despair/7745?page=5\">next page →</a></b></span>\n  </div>\n\n\n\n\n\n    </div>\n    <footer class=\"container\">\n      <nav class='crawler-nav' itemscope itemtype='http://schema.org/SiteNavigationElement'>\n        <a href='/'>Home</a>\n        <a href=\"/categories\">Categories</a>\n        <a href=\"/guidelines\">FAQ/Guidelines</a>\n        <a href=\"/tos\">Terms of Service</a>\n        <a href=\"/privacy\">Privacy Policy</a>\n      </nav>\n      <p class='powered-by-link'>Powered by <a href=\"https://www.discourse.org\">Discourse</a>, best viewed with JavaScript enabled</p>\n    </footer>\n    \n  </body>\n  \n</html>\n",
  "url": "https://forum.parkinsons.org.uk/t/despair/7745?page=4"
}