{
  "contentId": "f0bfa670-886f-11e9-8f96-97f71b5221d6",
  "html": "<!DOCTYPE html>\n<html lang=\"en\">\n  <head>\n    <meta charset=\"utf-8\">\n    <title>Does anyone have experience of Lasting Power of Attorney or an Advance Decision? - Treatments and therapies - Parkinson&#39;s UK Forum</title>\n    <meta name=\"description\" content=\"I need to investigate the above and wondered if anyone had any experience of setting up a Lasting Power of Attorney or an Advance Decision. Interested to know what it involves to set it up and anything I should consider. &amp;hellip;\">\n    <meta name=\"author\" content=\"\">\n<meta name=\"generator\" content=\"Discourse 2.2.5 - https://github.com/discourse/discourse version c294ff3609f988dcafb742e91606d60ca13b794d\">\n<link rel=\"icon\" type=\"image/png\" href=\"https://forum.parkinsons.org.uk/uploads/db7928/original/2X/3/311fc84f89f49f38601a2f16b295b6f03d3ce5dd.jpg\">\n<link rel=\"apple-touch-icon\" type=\"image/png\" href=\"https://forum.parkinsons.org.uk/uploads/db7928/original/2X/3/311fc84f89f49f38601a2f16b295b6f03d3ce5dd.jpg\">\n<meta name=\"theme-color\" content=\"#ffffff\">\n<meta name=\"viewport\" content=\"width=device-width, minimum-scale=1.0, maximum-scale=1.0, user-scalable=yes\">\n<link rel=\"canonical\" href=\"https://forum.parkinsons.org.uk/t/does-anyone-have-experience-of-lasting-power-of-attorney-or-an-advance-decision/17592?page=2\" />\n<script type=\"application/ld+json\">{\"@context\":\"http://schema.org\",\"@type\":\"WebSite\",\"url\":\"https://forum.parkinsons.org.uk\",\"potentialAction\":{\"@type\":\"SearchAction\",\"target\":\"https://forum.parkinsons.org.uk/search?q={search_term_string}\",\"query-input\":\"required name=search_term_string\"}}</script>\n<link rel=\"search\" type=\"application/opensearchdescription+xml\" href=\"https://forum.parkinsons.org.uk/opensearch.xml\" title=\"Parkinson&#39;s UK Forum Search\">\n\n      <link href=\"/stylesheets/desktop_f99246ae801b083d3e4cca979d0dade8615b39ac.css?__ws=forum.parkinsons.org.uk\" media=\"all\" rel=\"stylesheet\" data-target=\"desktop\" data-theme-id=\"12\"/>\n      <link href=\"/stylesheets/desktop_theme_12_5d27531cf43f9df0c03a6a6ec3109dd05f9dfc49.css?__ws=forum.parkinsons.org.uk\" media=\"all\" rel=\"stylesheet\" data-target=\"desktop_theme\" data-theme-id=\"12\"/>\n    <link href=\"https://fonts.googleapis.com/css?family=Open+Sans\" rel=\"stylesheet\">\n\n    <meta id=\"data-ga-universal-analytics\" data-tracking-code=\"UA-4855628-1\" data-json=\"{&quot;cookieDomain&quot;:&quot;auto&quot;}\" data-auto-link-domains=\"\">\n\n<link rel='preload' href='/assets/google-universal-analytics-f35b4da49411e6f5559073523aab983da483976a3954c79c756f8579f6fbd6ef.js' as='script'/>\n<script src='/assets/google-universal-analytics-f35b4da49411e6f5559073523aab983da483976a3954c79c756f8579f6fbd6ef.js'></script>\n\n      <link rel=\"alternate\" type=\"application/rss+xml\" title=\"RSS feed of &#39;Does anyone have experience of Lasting Power of Attorney or an Advance Decision?&#39;\" href=\"https://forum.parkinsons.org.uk/t/does-anyone-have-experience-of-lasting-power-of-attorney-or-an-advance-decision/17592.rss\" />\n  <meta property=\"og:site_name\" content=\"Parkinson&#39;s UK Forum\" />\n<meta name=\"twitter:card\" content=\"summary\" />\n<meta name=\"twitter:image\" content=\"https://forum.parkinsons.org.uk/uploads/db7928/original/2X/3/311fc84f89f49f38601a2f16b295b6f03d3ce5dd.jpg\" />\n<meta property=\"og:image\" content=\"https://forum.parkinsons.org.uk/uploads/db7928/original/2X/3/311fc84f89f49f38601a2f16b295b6f03d3ce5dd.jpg\" />\n<meta property=\"og:url\" content=\"https://forum.parkinsons.org.uk/t/does-anyone-have-experience-of-lasting-power-of-attorney-or-an-advance-decision/17592?page=2\" />\n<meta name=\"twitter:url\" content=\"https://forum.parkinsons.org.uk/t/does-anyone-have-experience-of-lasting-power-of-attorney-or-an-advance-decision/17592?page=2\" />\n<meta property=\"og:title\" content=\"Does anyone have experience of Lasting Power of Attorney or an Advance Decision?\" />\n<meta name=\"twitter:title\" content=\"Does anyone have experience of Lasting Power of Attorney or an Advance Decision?\" />\n<meta property=\"og:description\" content=\"I suffer with Parkinson’s do my wife and I decided to look into Power of Attorney, as we weren’t sure how I may end up, and one thing that spurred us on was not wanting to lose our house to cover the cost of providing residential care to the local council.  We contacted a local solicitor that specialises in this type of legal process it cost around £15000, but we considered it money well spent to protect our assets, it was very straight forward as well.  Would recommend doing it, but shop around ...\" />\n<meta name=\"twitter:description\" content=\"I suffer with Parkinson’s do my wife and I decided to look into Power of Attorney, as we weren’t sure how I may end up, and one thing that spurred us on was not wanting to lose our house to cover the cost of providing residential care to the local council.  We contacted a local solicitor that specialises in this type of legal process it cost around £15000, but we considered it money well spent to protect our assets, it was very straight forward as well.  Would recommend doing it, but shop around ...\" />\n<meta name=\"twitter:label1\" value=\"Reading time\" />\n<meta name=\"twitter:data1\" value=\"4 mins \uD83D\uDD51\" />\n<meta name=\"twitter:label2\" value=\"Likes\" />\n<meta name=\"twitter:data2\" value=\"4 ❤\" />\n<meta property=\"article:published_time\" content=\"2019-02-12T22:36:53+00:00\" />\n<meta property=\"og:ignore_canonical\" content=\"true\" />\n\n      <link rel=\"prev\" href=\"/t/does-anyone-have-experience-of-lasting-power-of-attorney-or-an-advance-decision/17592\">\n\n\n    \n  </head>\n  <body class=\"crawler\">\n    <header role=\"banner\">\n    <div class=\"region region-header\">\n        <div class=\"region-header-wrapper\">\n            <div id=\"block-parkinsons-d8-branding\" class=\"block block-system block-system-branding-block\">\n                <a href=\"/\" title=\"Home\" rel=\"home\" class=\"site-logo\">\n                    <img src=\"https://forum.parkinsons.org.uk/uploads/db7928/original/2X/8/862bb7d172e7d127e7f3e147ec43594aa62ac945.png\" alt=\"Parkinson's UK. Change Attitudes. Find a cure. Join us.\">\n                </a>\n            </div>\n            <div id=\"block-helpline\" class=\"block block-block-content block-block-content871cd5af-b938-4947-9dc0-d5c211d08fe3 style-phone\">\n                <div class=\"field field--name-field-link field--type-link field--label-hidden field__item\"><a href=\"tel:+448088000303\">Helpline 0808 800 0303</a></div>\n            </div>\n            <div id=\"block-shop\" class=\"block block-block-content block-block-content6fba5ae5-7797-49cd-8367-f321d8111cd6 style-regular\">\n                <div class=\"field field--name-field-link field--type-link field--label-hidden field__item\"><a href=\"https://shop.parkinsons.org.uk\">Shop</a></div>\n            </div>\n        </div>\n    </div>\n</header>\n\n\n<script src=\"/theme-javascripts/b7e9763fcb584fc8265c56a9f557cd6d2e1e8ed8.js?__ws=forum.parkinsons.org.uk\"></script>\n    <header>\n      <a href=\"/\">\n          <img src=\"https://forum.parkinsons.org.uk/uploads/db7928/original/2X/8/862bb7d172e7d127e7f3e147ec43594aa62ac945.png\" alt=\"Parkinson&#39;s UK Forum\" id=\"site-logo\" style=\"max-width: 150px;\">\n      </a>\n    </header>\n    <div id=\"main-outlet\" class=\"wrap\">\n      <h1>\n  <a href=\"/t/does-anyone-have-experience-of-lasting-power-of-attorney-or-an-advance-decision/17592\">Does anyone have experience of Lasting Power of Attorney or an Advance Decision?</a>\n</h1>\n\n<div id='breadcrumbs'>\n    <div id=\"breadcrumb-0\" itemscope itemtype=\"http://data-vocabulary.org/Breadcrumb\"\n        itemref=\"breadcrumb-1\"\n      >\n      <a href=\"/c/about-parkinsons-and-health\" itemprop=\"url\">\n        <span itemprop=\"title\">About Parkinson&#39;s and health</span>\n      </a>\n    </div>\n    <div id=\"breadcrumb-1\" itemscope itemtype=\"http://data-vocabulary.org/Breadcrumb\"\n>\n      <a href=\"/c/about-parkinsons-and-health/treatments-and-therapies\" itemprop=\"url\">\n        <span itemprop=\"title\">Treatments and therapies</span>\n      </a>\n    </div>\n</div>\n\n\n\n\n\n<hr>\n\n\n  <div itemscope itemtype='http://schema.org/DiscussionForumPosting'>\n      <div class='creator'>\n        <span>\n          <a href='/u/Matthew26'><b itemprop='author'>Matthew26</b></a>\n          \n          <time datetime='2019-02-12T22:36:53Z' itemprop='datePublished'>\n            2019-02-12 22:36:53 UTC\n          </time>\n        </span>\n        <span itemprop='position'>#21</span>\n      </div>\n      <div class='post' itemprop='articleBody'>\n        <p>I suffer with Parkinson’s do my wife and I decided to look into Power of Attorney, as we weren’t sure how I may end up, and one thing that spurred us on was not wanting to lose our house to cover the cost of providing residential care to the local council.<br>\nWe contacted a local solicitor that specialises in this type of legal process it cost around £15000, but we considered it money well spent to protect our assets, it was very straight forward as well.<br>\nWould recommend doing it, but shop around</p>\n      </div>\n      <meta itemprop='interactionCount' content='UserLikes:0'>\n      <meta itemprop='interactionCount' content='UserComments:1'>\n      <meta itemprop='headline' content='Does anyone have experience of Lasting Power of Attorney or an Advance Decision?'>\n      <hr>\n  </div>\n  <div itemscope itemtype='http://schema.org/DiscussionForumPosting'>\n      <div class='creator'>\n        <span>\n          <a href='/u/Mountainair'><b itemprop='author'>Mountainair</b></a>\n          \n          <time datetime='2019-02-15T19:13:24Z' itemprop='datePublished'>\n            2019-02-15 19:13:24 UTC\n          </time>\n        </span>\n        <span itemprop='position'>#22</span>\n      </div>\n      <div class='post' itemprop='articleBody'>\n        <p>Was it really £15000 or is that a 0 too many by mistake? If it was that much, that is extortionate &amp; I would ask them to justify the fees and/or complain to the Solicitors Regulation Body. Many solicitors do it for considerably less than £1000. <a href=\"https://www.courtofprotectionlawyers.co.uk/lasting-powers-of-attorney/\" rel=\"nofollow noopener\">https://www.courtofprotectionlawyers.co.uk/lasting-powers-of-attorney/</a></p>\n      </div>\n      <meta itemprop='interactionCount' content='UserLikes:0'>\n      <meta itemprop='interactionCount' content='UserComments:0'>\n      <meta itemprop='headline' content='Does anyone have experience of Lasting Power of Attorney or an Advance Decision?'>\n      <hr>\n  </div>\n  <div itemscope itemtype='http://schema.org/DiscussionForumPosting'>\n      <div class='creator'>\n        <span>\n          <a href='/u/HavanaS'><b itemprop='author'>HavanaS</b></a>\n          \n          <time datetime='2019-02-15T20:37:04Z' itemprop='datePublished'>\n            2019-02-15 20:37:04 UTC\n          </time>\n        </span>\n        <span itemprop='position'>#23</span>\n      </div>\n      <div class='post' itemprop='articleBody'>\n        <p>Thank you. I know if would be a good thing to do. Thank you for taking the time to write so eloquently. Partly, I just have no idea on what kind of thing you can include in an Advance decision when you have Parkinsons and what kind of options you still have to choose from, in different scenarios.</p>\n      </div>\n      <meta itemprop='interactionCount' content='UserLikes:0'>\n      <meta itemprop='interactionCount' content='UserComments:1'>\n      <meta itemprop='headline' content='Does anyone have experience of Lasting Power of Attorney or an Advance Decision?'>\n      <hr>\n  </div>\n  <div itemscope itemtype='http://schema.org/DiscussionForumPosting'>\n      <div class='creator'>\n        <span>\n          <a href='/u/vik'><b itemprop='author'>vik</b></a>\n          \n          <time datetime='2019-02-16T10:59:46Z' itemprop='datePublished'>\n            2019-02-16 10:59:46 UTC\n          </time>\n        </span>\n        <span itemprop='position'>#24</span>\n      </div>\n      <div class='post' itemprop='articleBody'>\n        <p>AgeUK or ageCYMRU in my case are a wonderful organisation and have provided us with so much advice. I didn’t even realise my father could get support or that there was online advice for POA. You don’t know what you don’t know!</p>\n      </div>\n      <meta itemprop='interactionCount' content='UserLikes:0'>\n      <meta itemprop='interactionCount' content='UserComments:0'>\n      <meta itemprop='headline' content='Does anyone have experience of Lasting Power of Attorney or an Advance Decision?'>\n      <hr>\n  </div>\n  <div itemscope itemtype='http://schema.org/DiscussionForumPosting'>\n      <div class='creator'>\n        <span>\n          <a href='/u/Keld'><b itemprop='author'>Keld</b></a>\n          \n          <time datetime='2019-02-17T17:15:53Z' itemprop='datePublished'>\n            2019-02-17 17:15:53 UTC\n          </time>\n        </span>\n        <span itemprop='position'>#25</span>\n      </div>\n      <div class='post' itemprop='articleBody'>\n        <p>If you go to the website ‘Compassion in dying’ you can download a form and some notes to help you understand how it all works…Very helpful.<br>\nIf you would like any more help form someone who has done this, I am happy to share my experiences…I think it is a really valuable document to have, and in my volunteer work for PUK that I now do, I always bring up the value of this document and that health professionals should be asking if they exist and supporting family members to support their relative with PD using the words in the Advance Decision.<br>\nI found it so helpful, knowing that some of the difficult decisions I was making were me voicing what my mother could not say for herself - but had shared with me when she could.</p>\n<p>Difficult to write but such a support. I think my Mum felt at peace once it was written as some of her worries had been talked about and she knew she had a way to share her thoughts as PD progressed.</p>\n      </div>\n      <meta itemprop='interactionCount' content='UserLikes:0'>\n      <meta itemprop='interactionCount' content='UserComments:0'>\n      <meta itemprop='headline' content='Does anyone have experience of Lasting Power of Attorney or an Advance Decision?'>\n      <hr>\n  </div>\n  <div itemscope itemtype='http://schema.org/DiscussionForumPosting'>\n      <div class='creator'>\n        <span>\n          <a href='/u/HavanaS'><b itemprop='author'>HavanaS</b></a>\n          \n          <time datetime='2019-02-17T17:46:38Z' itemprop='datePublished'>\n            2019-02-17 17:46:38 UTC\n          </time>\n        </span>\n        <span itemprop='position'>#26</span>\n      </div>\n      <div class='post' itemprop='articleBody'>\n        <p>Brilliant. Thank you. That is really helpful. I will look it up. I really appreciate it. Everything you have said makes sense. I am sure my mum would feel the same. I know I would.</p>\n      </div>\n      <meta itemprop='interactionCount' content='UserLikes:1'>\n      <meta itemprop='interactionCount' content='UserComments:0'>\n      <meta itemprop='headline' content='Does anyone have experience of Lasting Power of Attorney or an Advance Decision?'>\n      <hr>\n  </div>\n\n  <div role='navigation' itemscope itemtype='http://schema.org/SiteNavigationElement'>\n      <span itemprop='name'><a rel=\"prev\" itemprop=\"url\" href=\"/t/does-anyone-have-experience-of-lasting-power-of-attorney-or-an-advance-decision/17592\">← previous page</a></span>\n  </div>\n\n\n\n\n\n    </div>\n    <footer class=\"container\">\n      <nav class='crawler-nav' itemscope itemtype='http://schema.org/SiteNavigationElement'>\n        <a href='/'>Home</a>\n        <a href=\"/categories\">Categories</a>\n        <a href=\"/guidelines\">FAQ/Guidelines</a>\n        <a href=\"/tos\">Terms of Service</a>\n        <a href=\"/privacy\">Privacy Policy</a>\n      </nav>\n      <p class='powered-by-link'>Powered by <a href=\"https://www.discourse.org\">Discourse</a>, best viewed with JavaScript enabled</p>\n    </footer>\n    \n  </body>\n  \n</html>\n",
  "url": "https://forum.parkinsons.org.uk/t/does-anyone-have-experience-of-lasting-power-of-attorney-or-an-advance-decision/17592?page=2"
}