{
  "contentId": "61464a00-886d-11e9-8f96-97f71b5221d6",
  "html": "<!DOCTYPE html>\n<html lang=\"en\">\n  <head>\n    <meta charset=\"utf-8\">\n    <title>Cumbria ? Anyone there? - Introductions and personal stories - Parkinson&#39;s UK Forum</title>\n    <meta name=\"description\" content=\"Hi everyone , its been a while since ive been on here… i need your help. \nI cant help feeling that i am one of only 3 people iknow of who were duagnosed under 50yrs old ! It feels this way. I have tried to find others bu&amp;hellip;\">\n    <meta name=\"author\" content=\"\">\n<meta name=\"generator\" content=\"Discourse 2.2.5 - https://github.com/discourse/discourse version c294ff3609f988dcafb742e91606d60ca13b794d\">\n<link rel=\"icon\" type=\"image/png\" href=\"https://forum.parkinsons.org.uk/uploads/db7928/original/2X/3/311fc84f89f49f38601a2f16b295b6f03d3ce5dd.jpg\">\n<link rel=\"apple-touch-icon\" type=\"image/png\" href=\"https://forum.parkinsons.org.uk/uploads/db7928/original/2X/3/311fc84f89f49f38601a2f16b295b6f03d3ce5dd.jpg\">\n<meta name=\"theme-color\" content=\"#ffffff\">\n<meta name=\"viewport\" content=\"width=device-width, minimum-scale=1.0, maximum-scale=1.0, user-scalable=yes\">\n<link rel=\"canonical\" href=\"https://forum.parkinsons.org.uk/t/cumbria-anyone-there/18065\" />\n<script type=\"application/ld+json\">{\"@context\":\"http://schema.org\",\"@type\":\"WebSite\",\"url\":\"https://forum.parkinsons.org.uk\",\"potentialAction\":{\"@type\":\"SearchAction\",\"target\":\"https://forum.parkinsons.org.uk/search?q={search_term_string}\",\"query-input\":\"required name=search_term_string\"}}</script>\n<link rel=\"search\" type=\"application/opensearchdescription+xml\" href=\"https://forum.parkinsons.org.uk/opensearch.xml\" title=\"Parkinson&#39;s UK Forum Search\">\n\n      <link href=\"/stylesheets/desktop_f99246ae801b083d3e4cca979d0dade8615b39ac.css?__ws=forum.parkinsons.org.uk\" media=\"all\" rel=\"stylesheet\" data-target=\"desktop\" data-theme-id=\"12\"/>\n      <link href=\"/stylesheets/desktop_theme_12_5d27531cf43f9df0c03a6a6ec3109dd05f9dfc49.css?__ws=forum.parkinsons.org.uk\" media=\"all\" rel=\"stylesheet\" data-target=\"desktop_theme\" data-theme-id=\"12\"/>\n    <link href=\"https://fonts.googleapis.com/css?family=Open+Sans\" rel=\"stylesheet\">\n\n    <meta id=\"data-ga-universal-analytics\" data-tracking-code=\"UA-4855628-1\" data-json=\"{&quot;cookieDomain&quot;:&quot;auto&quot;}\" data-auto-link-domains=\"\">\n\n<link rel='preload' href='/assets/google-universal-analytics-f35b4da49411e6f5559073523aab983da483976a3954c79c756f8579f6fbd6ef.js' as='script'/>\n<script src='/assets/google-universal-analytics-f35b4da49411e6f5559073523aab983da483976a3954c79c756f8579f6fbd6ef.js'></script>\n\n      <link rel=\"alternate\" type=\"application/rss+xml\" title=\"RSS feed of &#39;Cumbria ? Anyone there?&#39;\" href=\"https://forum.parkinsons.org.uk/t/cumbria-anyone-there/18065.rss\" />\n  <meta property=\"og:site_name\" content=\"Parkinson&#39;s UK Forum\" />\n<meta name=\"twitter:card\" content=\"summary\" />\n<meta name=\"twitter:image\" content=\"https://forum.parkinsons.org.uk/uploads/db7928/original/2X/3/311fc84f89f49f38601a2f16b295b6f03d3ce5dd.jpg\" />\n<meta property=\"og:image\" content=\"https://forum.parkinsons.org.uk/uploads/db7928/original/2X/3/311fc84f89f49f38601a2f16b295b6f03d3ce5dd.jpg\" />\n<meta property=\"og:url\" content=\"https://forum.parkinsons.org.uk/t/cumbria-anyone-there/18065\" />\n<meta name=\"twitter:url\" content=\"https://forum.parkinsons.org.uk/t/cumbria-anyone-there/18065\" />\n<meta property=\"og:title\" content=\"Cumbria ? Anyone there?\" />\n<meta name=\"twitter:title\" content=\"Cumbria ? Anyone there?\" />\n<meta property=\"og:description\" content=\"Hi everyone , its been a while since ive been on here… i need your help.  I cant help feeling that i am one of only 3 people iknow of who were duagnosed under 50yrs old ! It feels this way. I have tried to find others but theyre not replying.  I dont go to my local griup any more - its full of &quot;older&quot;people !! I have nothing in common with them ! Please contact me if a) you live in Cumbria b)you have , or are affected by ,Parkinsons c) you are sick of being treated by “elderly care specialists” ...\" />\n<meta name=\"twitter:description\" content=\"Hi everyone , its been a while since ive been on here… i need your help.  I cant help feeling that i am one of only 3 people iknow of who were duagnosed under 50yrs old ! It feels this way. I have tried to find others but theyre not replying.  I dont go to my local griup any more - its full of &quot;older&quot;people !! I have nothing in common with them ! Please contact me if a) you live in Cumbria b)you have , or are affected by ,Parkinsons c) you are sick of being treated by “elderly care specialists” ...\" />\n<meta property=\"article:published_time\" content=\"2019-02-19T09:49:00+00:00\" />\n<meta property=\"og:ignore_canonical\" content=\"true\" />\n\n\n\n    \n  </head>\n  <body class=\"crawler\">\n    <header role=\"banner\">\n    <div class=\"region region-header\">\n        <div class=\"region-header-wrapper\">\n            <div id=\"block-parkinsons-d8-branding\" class=\"block block-system block-system-branding-block\">\n                <a href=\"/\" title=\"Home\" rel=\"home\" class=\"site-logo\">\n                    <img src=\"https://forum.parkinsons.org.uk/uploads/db7928/original/2X/8/862bb7d172e7d127e7f3e147ec43594aa62ac945.png\" alt=\"Parkinson's UK. Change Attitudes. Find a cure. Join us.\">\n                </a>\n            </div>\n            <div id=\"block-helpline\" class=\"block block-block-content block-block-content871cd5af-b938-4947-9dc0-d5c211d08fe3 style-phone\">\n                <div class=\"field field--name-field-link field--type-link field--label-hidden field__item\"><a href=\"tel:+448088000303\">Helpline 0808 800 0303</a></div>\n            </div>\n            <div id=\"block-shop\" class=\"block block-block-content block-block-content6fba5ae5-7797-49cd-8367-f321d8111cd6 style-regular\">\n                <div class=\"field field--name-field-link field--type-link field--label-hidden field__item\"><a href=\"https://shop.parkinsons.org.uk\">Shop</a></div>\n            </div>\n        </div>\n    </div>\n</header>\n\n\n<script src=\"/theme-javascripts/b7e9763fcb584fc8265c56a9f557cd6d2e1e8ed8.js?__ws=forum.parkinsons.org.uk\"></script>\n    <header>\n      <a href=\"/\">\n          <img src=\"https://forum.parkinsons.org.uk/uploads/db7928/original/2X/8/862bb7d172e7d127e7f3e147ec43594aa62ac945.png\" alt=\"Parkinson&#39;s UK Forum\" id=\"site-logo\" style=\"max-width: 150px;\">\n      </a>\n    </header>\n    <div id=\"main-outlet\" class=\"wrap\">\n      <h1>\n  <a href=\"/t/cumbria-anyone-there/18065\">Cumbria ? Anyone there?</a>\n</h1>\n\n<div id='breadcrumbs'>\n    <div id=\"breadcrumb-0\" itemscope itemtype=\"http://data-vocabulary.org/Breadcrumb\"\n        itemref=\"breadcrumb-1\"\n      >\n      <a href=\"/c/about-me\" itemprop=\"url\">\n        <span itemprop=\"title\">About me</span>\n      </a>\n    </div>\n    <div id=\"breadcrumb-1\" itemscope itemtype=\"http://data-vocabulary.org/Breadcrumb\"\n>\n      <a href=\"/c/about-me/introductions-and-personal-stories\" itemprop=\"url\">\n        <span itemprop=\"title\">Introductions and personal stories</span>\n      </a>\n    </div>\n</div>\n\n\n\n\n\n<hr>\n\n\n  <div itemscope itemtype='http://schema.org/DiscussionForumPosting'>\n      <div class='creator'>\n        <span>\n          <a href='/u/dwl2412'><b itemprop='author'>dwl2412</b></a>\n          \n          <time datetime='2019-02-19T09:49:00Z' itemprop='datePublished'>\n            2019-02-19 09:49:00 UTC\n          </time>\n        </span>\n        <span itemprop='position'>#1</span>\n      </div>\n      <div class='post' itemprop='articleBody'>\n        <p>Hi everyone , its been a while since ive been on here… i need your help.<br>\nI cant help feeling that i am one of only 3 people iknow of who were duagnosed under 50yrs old ! It feels this way. I have tried to find others but theyre not replying.<br>\nI dont go to my local griup any more - its full of \"older\"people !! I have nothing in common with them ! Please contact me if a) you live in Cumbria b)you have , or are affected by ,Parkinsons c) you are sick of being treated by “elderly care specialists” when you clearly are far from elderly and d) you just want to be treated as a normal person …<br>\nThere must be someone else out there !!</p>\n      </div>\n      <meta itemprop='interactionCount' content='UserLikes:0'>\n      <meta itemprop='interactionCount' content='UserComments:0'>\n      <meta itemprop='headline' content='Cumbria ? Anyone there?'>\n      <hr>\n  </div>\n  <div itemscope itemtype='http://schema.org/DiscussionForumPosting'>\n      <div class='creator'>\n        <span>\n          <a href='/u/Gerrard'><b itemprop='author'>Gerrard</b></a>\n          \n          <time datetime='2019-02-21T15:51:16Z' itemprop='datePublished'>\n            2019-02-21 15:51:16 UTC\n          </time>\n        </span>\n        <span itemprop='position'>#2</span>\n      </div>\n      <div class='post' itemprop='articleBody'>\n        <p>Hi dw12412,<br>\nI read your posting with interest but did not respond sooner as I do not fulfil all of your criteria. However, seeing today that you have had no response I thought I would throw my hat in so that you would know your posting has been noted by someone. I do meet some of your wishes.  I also live in Cumbria. I too have Parkinsons - have done since 2011, I am also a normal person. Regretably I do not meet your third criteria as I am not far from elderly having reached my 80’s. Despite that, I can assure you I used to be young. Just to prove it and remind myself I have been looking through some old photographs. One in particular stands out as I am in shorts, standing on the top of Loughrigg Fell. I used to run on the Fells and did so until I was in my mid 60’s. How I used to love those days when I thought of myself as one of the fittest men around. I had to give up running when I developed a Hip Problem. Little did I imagine then that I would also finish up with Parkinsons Disease. But to be fair, Parkinsons hasn’t treated me too badly, at least not as yet!<br>\nApart from Tremors and Shaking I haven suffered from any of the other problems about which I read on this Forum.  I am slowing down now and walk with a stick but I put that down to my age,  Just recently my sleeping has become disruptive. I put that down to increased medication. I have also decided to give up driving after being involved in an accident in the Yorkshire Dales. I do miss the car as I am also carer for my wife who has suffered from M.S. for 25 years,  We both have our own Mobility Scooter and are frequently seen driving though town together,   Well that’s my story dw12412, at least part of it.  I just wanted to assure you that there is someone else out here.   If you are treated in Furness General Hospital and you happen to see an elderly chap leaning on  a stick and shaking whilst waiting impatiently for his appointment - it may be me.<br>\nBest Wishes, Gerrard</p>\n      </div>\n      <meta itemprop='interactionCount' content='UserLikes:0'>\n      <meta itemprop='interactionCount' content='UserComments:0'>\n      <meta itemprop='headline' content='Cumbria ? Anyone there?'>\n      <hr>\n  </div>\n  <div itemscope itemtype='http://schema.org/DiscussionForumPosting'>\n      <div class='creator'>\n        <span>\n          <a href='/u/dwl2412'><b itemprop='author'>dwl2412</b></a>\n          \n          <time datetime='2019-02-21T16:13:36Z' itemprop='datePublished'>\n            2019-02-21 16:13:36 UTC\n          </time>\n        </span>\n        <span itemprop='position'>#3</span>\n      </div>\n      <div class='post' itemprop='articleBody'>\n        <p>Thanks Gerrard, I’m actually glad someone has responded. I was diagnosed in 2005 - when I was only 39yrs old. I only hope that by the time I reach your age I have such a positive view on life.<br>\nI live in Carlisle so don’t get much chance to visit Furness Hospital - I have to go to Cockermouth (and sometimes the Cumberland Infirmary)…<br>\nIf you want to stay in touch send me a message on here?</p>\n      </div>\n      <meta itemprop='interactionCount' content='UserLikes:0'>\n      <meta itemprop='interactionCount' content='UserComments:1'>\n      <meta itemprop='headline' content='Cumbria ? Anyone there?'>\n      <hr>\n  </div>\n  <div itemscope itemtype='http://schema.org/DiscussionForumPosting'>\n      <div class='creator'>\n        <span>\n          <a href='/u/Gerrard'><b itemprop='author'>Gerrard</b></a>\n          \n          <time datetime='2019-02-22T13:36:10Z' itemprop='datePublished'>\n            2019-02-22 13:36:10 UTC\n          </time>\n        </span>\n        <span itemprop='position'>#4</span>\n      </div>\n      <div class='post' itemprop='articleBody'>\n        <p>Hi again dw12412,<br>\nI am disappointed for you that you haven’t had more response. I have often wondered myself if there is anyone from Cumbria contributing to this Forum but it doesn’t appear to be so. You were certainly very young to be diagnosed with Parkinsons at 39. The good news is that - so I understand - the disease progresses much slower for those who are diagnosed when young. I had diagnosed myself at the age of 77 before seeing the G.P. Both an older brother and sister, now deceased had P.D. so when I started having tremors down my left side, coupled with constipation, I knew exactly what it was. My G.P. was initially sceptical as the symptoms weren’t apparent at that stage. However I insisted on seeing the Neurologist who confirmed the diagnosis within minutes after observing me walk across the room. I am at a loss to understand what he could see in my walk as I thought it was still perfectly normal at that time.  Like yourself, I did initially attend the local group meeting but soon gave it up as I gained nothing from it. My symptoms were not then restricting me and, for someone who was quite fit, I found the exercises we were asked to perform undemanding.  Well, I hope my response may alert some “Youngsters” to reply to you. Take Care, Gerrard</p>\n      </div>\n      <meta itemprop='interactionCount' content='UserLikes:0'>\n      <meta itemprop='interactionCount' content='UserComments:0'>\n      <meta itemprop='headline' content='Cumbria ? Anyone there?'>\n      <hr>\n  </div>\n  <div itemscope itemtype='http://schema.org/DiscussionForumPosting'>\n      <div class='creator'>\n        <span>\n          <a href='/u/GentechE1'><b itemprop='author'>GentechE1</b></a>\n          \n          <time datetime='2019-02-24T11:43:09Z' itemprop='datePublished'>\n            2019-02-24 11:43:09 UTC\n          </time>\n        </span>\n        <span itemprop='position'>#5</span>\n      </div>\n      <div class='post' itemprop='articleBody'>\n        <p>Hi wife was dx 2008 aged 46, Penrith group as like the Carlisle group full of older people. Some of them more interested in getting their hands on the “Chips and Sarnies. Tried getting a Parkinson’s cafe going in Penrith, Appleby and Shap with zero take up. But in Keswick the Cafe is very popular.</p>\n<p>As an organisation Parkinson’s UK seam to have given up on young onset. Went to a converance in Stattford Apon Avon in 2011 which was very good. But since then they seam to have had a change of direction and you here nothing of young onset anymore</p>\n      </div>\n      <meta itemprop='interactionCount' content='UserLikes:0'>\n      <meta itemprop='interactionCount' content='UserComments:1'>\n      <meta itemprop='headline' content='Cumbria ? Anyone there?'>\n      <hr>\n  </div>\n  <div itemscope itemtype='http://schema.org/DiscussionForumPosting'>\n      <div class='creator'>\n        <span>\n          <a href='/u/dwl2412'><b itemprop='author'>dwl2412</b></a>\n          \n          <time datetime='2019-02-24T15:59:23Z' itemprop='datePublished'>\n            2019-02-24 15:59:23 UTC\n          </time>\n        </span>\n        <span itemprop='position'>#6</span>\n      </div>\n      <div class='post' itemprop='articleBody'>\n        <p>I think we know each other Gentech.<br>\nI was Chair of the Carlisle Branch but resigned this month at the AGM because I felt that they didn’t really want me as a Chair due to me being approx 15-20yrs younger than the rest of them.<br>\nI’m on the Local Development Team with another couple of younger Parkinsons people from West and a lady from Eden.<br>\nIf you’re interested we could have yet another go at setting up a young onset group?</p>\n      </div>\n      <meta itemprop='interactionCount' content='UserLikes:0'>\n      <meta itemprop='interactionCount' content='UserComments:0'>\n      <meta itemprop='headline' content='Cumbria ? Anyone there?'>\n      <hr>\n  </div>\n\n\n\n\n\n\n    </div>\n    <footer class=\"container\">\n      <nav class='crawler-nav' itemscope itemtype='http://schema.org/SiteNavigationElement'>\n        <a href='/'>Home</a>\n        <a href=\"/categories\">Categories</a>\n        <a href=\"/guidelines\">FAQ/Guidelines</a>\n        <a href=\"/tos\">Terms of Service</a>\n        <a href=\"/privacy\">Privacy Policy</a>\n      </nav>\n      <p class='powered-by-link'>Powered by <a href=\"https://www.discourse.org\">Discourse</a>, best viewed with JavaScript enabled</p>\n    </footer>\n    \n  </body>\n  \n</html>\n",
  "url": "https://forum.parkinsons.org.uk/t/cumbria-anyone-there/18065"
}