{
  "contentId": "b1901360-8863-11e9-8f96-97f71b5221d6",
  "html": "<!DOCTYPE html>\n<html lang=\"en\">\n  <head>\n    <meta charset=\"utf-8\">\n    <title>Screaming doesn&#39;t help - Carers, friends and family - Parkinson&#39;s UK Forum</title>\n    <meta name=\"description\" content=\"Today it’s 6 years since I came to care for my mother with PD. I’ve learnt a lot about myself and even more about how to help mother … but for a 24/7 carer who’s there for ME? \nI’ve been screaming for ages … don’t mentio&amp;hellip;\">\n    <meta name=\"author\" content=\"\">\n<meta name=\"generator\" content=\"Discourse 2.2.5 - https://github.com/discourse/discourse version c294ff3609f988dcafb742e91606d60ca13b794d\">\n<link rel=\"icon\" type=\"image/png\" href=\"https://forum.parkinsons.org.uk/uploads/db7928/original/2X/3/311fc84f89f49f38601a2f16b295b6f03d3ce5dd.jpg\">\n<link rel=\"apple-touch-icon\" type=\"image/png\" href=\"https://forum.parkinsons.org.uk/uploads/db7928/original/2X/3/311fc84f89f49f38601a2f16b295b6f03d3ce5dd.jpg\">\n<meta name=\"theme-color\" content=\"#ffffff\">\n<meta name=\"viewport\" content=\"width=device-width, minimum-scale=1.0, maximum-scale=1.0, user-scalable=yes\">\n<link rel=\"canonical\" href=\"https://forum.parkinsons.org.uk/t/screaming-doesnt-help/18575\" />\n<script type=\"application/ld+json\">{\"@context\":\"http://schema.org\",\"@type\":\"WebSite\",\"url\":\"https://forum.parkinsons.org.uk\",\"potentialAction\":{\"@type\":\"SearchAction\",\"target\":\"https://forum.parkinsons.org.uk/search?q={search_term_string}\",\"query-input\":\"required name=search_term_string\"}}</script>\n<link rel=\"search\" type=\"application/opensearchdescription+xml\" href=\"https://forum.parkinsons.org.uk/opensearch.xml\" title=\"Parkinson&#39;s UK Forum Search\">\n\n      <link href=\"/stylesheets/desktop_f99246ae801b083d3e4cca979d0dade8615b39ac.css?__ws=forum.parkinsons.org.uk\" media=\"all\" rel=\"stylesheet\" data-target=\"desktop\" data-theme-id=\"12\"/>\n      <link href=\"/stylesheets/desktop_theme_12_5d27531cf43f9df0c03a6a6ec3109dd05f9dfc49.css?__ws=forum.parkinsons.org.uk\" media=\"all\" rel=\"stylesheet\" data-target=\"desktop_theme\" data-theme-id=\"12\"/>\n    <link href=\"https://fonts.googleapis.com/css?family=Open+Sans\" rel=\"stylesheet\">\n\n    <meta id=\"data-ga-universal-analytics\" data-tracking-code=\"UA-4855628-1\" data-json=\"{&quot;cookieDomain&quot;:&quot;auto&quot;}\" data-auto-link-domains=\"\">\n\n<link rel='preload' href='/assets/google-universal-analytics-f35b4da49411e6f5559073523aab983da483976a3954c79c756f8579f6fbd6ef.js' as='script'/>\n<script src='/assets/google-universal-analytics-f35b4da49411e6f5559073523aab983da483976a3954c79c756f8579f6fbd6ef.js'></script>\n\n      <link rel=\"alternate\" type=\"application/rss+xml\" title=\"RSS feed of &#39;Screaming doesn&#39;t help&#39;\" href=\"https://forum.parkinsons.org.uk/t/screaming-doesnt-help/18575.rss\" />\n  <meta property=\"og:site_name\" content=\"Parkinson&#39;s UK Forum\" />\n<meta name=\"twitter:card\" content=\"summary\" />\n<meta name=\"twitter:image\" content=\"https://forum.parkinsons.org.uk/uploads/db7928/original/2X/3/311fc84f89f49f38601a2f16b295b6f03d3ce5dd.jpg\" />\n<meta property=\"og:image\" content=\"https://forum.parkinsons.org.uk/uploads/db7928/original/2X/3/311fc84f89f49f38601a2f16b295b6f03d3ce5dd.jpg\" />\n<meta property=\"og:url\" content=\"https://forum.parkinsons.org.uk/t/screaming-doesnt-help/18575\" />\n<meta name=\"twitter:url\" content=\"https://forum.parkinsons.org.uk/t/screaming-doesnt-help/18575\" />\n<meta property=\"og:title\" content=\"Screaming doesn&#39;t help\" />\n<meta name=\"twitter:title\" content=\"Screaming doesn&#39;t help\" />\n<meta property=\"og:description\" content=\"Today it’s 6 years since I came to care for my mother with PD. I’ve learnt a lot about myself and even more about how to help mother … but for a 24/7 carer who’s there for ME?  I’ve been screaming for ages … don’t mention family or friends - they ‘get busy’ soon as they think we might need them!  Anyone got any good ideas? I’m so lonely I feel like I’m the only one on the planet right now.  Mum has had PD for over 30 years now. Dad was main carer until he died in 2017 and I took over from 2012, ...\" />\n<meta name=\"twitter:description\" content=\"Today it’s 6 years since I came to care for my mother with PD. I’ve learnt a lot about myself and even more about how to help mother … but for a 24/7 carer who’s there for ME?  I’ve been screaming for ages … don’t mention family or friends - they ‘get busy’ soon as they think we might need them!  Anyone got any good ideas? I’m so lonely I feel like I’m the only one on the planet right now.  Mum has had PD for over 30 years now. Dad was main carer until he died in 2017 and I took over from 2012, ...\" />\n<meta property=\"article:published_time\" content=\"2019-03-26T12:59:56+00:00\" />\n<meta property=\"og:ignore_canonical\" content=\"true\" />\n\n\n\n    \n  </head>\n  <body class=\"crawler\">\n    <header role=\"banner\">\n    <div class=\"region region-header\">\n        <div class=\"region-header-wrapper\">\n            <div id=\"block-parkinsons-d8-branding\" class=\"block block-system block-system-branding-block\">\n                <a href=\"/\" title=\"Home\" rel=\"home\" class=\"site-logo\">\n                    <img src=\"https://forum.parkinsons.org.uk/uploads/db7928/original/2X/8/862bb7d172e7d127e7f3e147ec43594aa62ac945.png\" alt=\"Parkinson's UK. Change Attitudes. Find a cure. Join us.\">\n                </a>\n            </div>\n            <div id=\"block-helpline\" class=\"block block-block-content block-block-content871cd5af-b938-4947-9dc0-d5c211d08fe3 style-phone\">\n                <div class=\"field field--name-field-link field--type-link field--label-hidden field__item\"><a href=\"tel:+448088000303\">Helpline 0808 800 0303</a></div>\n            </div>\n            <div id=\"block-shop\" class=\"block block-block-content block-block-content6fba5ae5-7797-49cd-8367-f321d8111cd6 style-regular\">\n                <div class=\"field field--name-field-link field--type-link field--label-hidden field__item\"><a href=\"https://shop.parkinsons.org.uk\">Shop</a></div>\n            </div>\n        </div>\n    </div>\n</header>\n\n\n<script src=\"/theme-javascripts/b7e9763fcb584fc8265c56a9f557cd6d2e1e8ed8.js?__ws=forum.parkinsons.org.uk\"></script>\n    <header>\n      <a href=\"/\">\n          <img src=\"https://forum.parkinsons.org.uk/uploads/db7928/original/2X/8/862bb7d172e7d127e7f3e147ec43594aa62ac945.png\" alt=\"Parkinson&#39;s UK Forum\" id=\"site-logo\" style=\"max-width: 150px;\">\n      </a>\n    </header>\n    <div id=\"main-outlet\" class=\"wrap\">\n      <h1>\n  <a href=\"/t/screaming-doesnt-help/18575\">Screaming doesn&#39;t help</a>\n</h1>\n\n<div id='breadcrumbs'>\n    <div id=\"breadcrumb-0\" itemscope itemtype=\"http://data-vocabulary.org/Breadcrumb\"\n        itemref=\"breadcrumb-1\"\n      >\n      <a href=\"/c/living-with-parkinsons\" itemprop=\"url\">\n        <span itemprop=\"title\">Living with Parkinson&#39;s</span>\n      </a>\n    </div>\n    <div id=\"breadcrumb-1\" itemscope itemtype=\"http://data-vocabulary.org/Breadcrumb\"\n>\n      <a href=\"/c/living-with-parkinsons/carers-friends-and-family\" itemprop=\"url\">\n        <span itemprop=\"title\">Carers, friends and family</span>\n      </a>\n    </div>\n</div>\n\n\n\n\n\n<hr>\n\n\n  <div itemscope itemtype='http://schema.org/DiscussionForumPosting'>\n      <div class='creator'>\n        <span>\n          <a href='/u/dee'><b itemprop='author'>dee</b></a>\n          \n          <time datetime='2019-03-26T12:59:56Z' itemprop='datePublished'>\n            2019-03-26 12:59:56 UTC\n          </time>\n        </span>\n        <span itemprop='position'>#1</span>\n      </div>\n      <div class='post' itemprop='articleBody'>\n        <p>Today it’s 6 years since I came to care for my mother with PD. I’ve learnt a lot about myself and even more about how to help mother … but for a 24/7 carer who’s there for ME?</p>\n<p>I’ve been screaming for ages … don’t mention family or friends - they ‘get busy’ soon as they think we might need them!</p>\n<p>Anyone got any good ideas? I’m so lonely I feel like I’m the only one on the planet right now.</p>\n<p>Mum has had PD for over 30 years now. Dad was main carer until he died in 2017 and I took over from 2012, overlapping and caring for them both for a time. Gradually I found God, became very patient and learnt many things about myself … took up hobbies I’d long ‘let go’ … but as a retired person I figured I owed myself that much at least.</p>\n<p>Not so. I’m housebound too. We have everything delivered. I don’t like moaning and groaning but is anyone as lonely? What do you do?</p>\n<p>I feel like talking to others is an impudence because why should I inflict them with my problems … but sometimes I can feel my head really hurting with my screaming … but it’s soundless …</p>\n      </div>\n      <meta itemprop='interactionCount' content='UserLikes:0'>\n      <meta itemprop='interactionCount' content='UserComments:0'>\n      <meta itemprop='headline' content='Screaming doesn&#39;t help'>\n      <hr>\n  </div>\n  <div itemscope itemtype='http://schema.org/DiscussionForumPosting'>\n      <div class='creator'>\n        <span>\n          <a href='/u/Jules47'><b itemprop='author'>Jules47</b></a>\n          \n          <time datetime='2019-03-26T14:15:10Z' itemprop='datePublished'>\n            2019-03-26 14:15:10 UTC\n          </time>\n        </span>\n        <span itemprop='position'>#2</span>\n      </div>\n      <div class='post' itemprop='articleBody'>\n        <p>Hello, I have made contact with social services, they may help. The help line here has a lot of advice too.</p>\n      </div>\n      <meta itemprop='interactionCount' content='UserLikes:0'>\n      <meta itemprop='interactionCount' content='UserComments:0'>\n      <meta itemprop='headline' content='Screaming doesn&#39;t help'>\n      <hr>\n  </div>\n  <div itemscope itemtype='http://schema.org/DiscussionForumPosting'>\n      <div class='creator'>\n        <span>\n          <a href='/u/Reah'><b itemprop='author'>Reah</b></a>\n          \n          <time datetime='2019-03-26T18:11:32Z' itemprop='datePublished'>\n            2019-03-26 18:11:32 UTC\n          </time>\n        </span>\n        <span itemprop='position'>#3</span>\n      </div>\n      <div class='post' itemprop='articleBody'>\n        <p>Hi <a class=\"mention\" href=\"/u/dee\">@dee</a>,</p>\n<p>I’m so sorry you feel this way, it can’t be easy being the sole carer for your mum and although you’re doing an admirable job, it’s okay to admit that you need support. <a class=\"mention\" href=\"/u/jules47\">@Jules47</a> is right, I think you should get in touch with social services so they can explore the different types of help available to you  and your mum.</p>\n<p>We understand that caring for someone with Parkinson’s can be challenging, however, you are not alone and it may help to connect with other carers via a local group, our Facebook page or you can speak our Parkinson’s local adviser. We have more information on these options via our website here - <a href=\"https://www.parkinsons.org.uk/information-and-support/looking-after-yourself-when-youre-carer\" rel=\"nofollow noopener\">https://www.parkinsons.org.uk/information-and-support/looking-after-yourself-when-youre-carer</a>.</p>\n<p>Of course our helpline is always here if you need someone to speak to, please give us a call on 0808 800 0303.</p>\n<p>Best wishes,<br>\nReah</p>\n      </div>\n      <meta itemprop='interactionCount' content='UserLikes:0'>\n      <meta itemprop='interactionCount' content='UserComments:1'>\n      <meta itemprop='headline' content='Screaming doesn&#39;t help'>\n      <hr>\n  </div>\n  <div itemscope itemtype='http://schema.org/DiscussionForumPosting'>\n      <div class='creator'>\n        <span>\n          <a href='/u/dee'><b itemprop='author'>dee</b></a>\n          \n          <time datetime='2019-03-26T19:33:38Z' itemprop='datePublished'>\n            2019-03-26 19:33:38 UTC\n          </time>\n        </span>\n        <span itemprop='position'>#4</span>\n      </div>\n      <div class='post' itemprop='articleBody'>\n        <p>Thank you Reah.<br>\nI’ve tried most things…but social services is out for the time being as mother becomes insecure and her neuro problems increase so much that I don’t have the heart to push her. She becomes quite ill with the worry and challenges me even more by bringing up deeply insecure emotional stuff which we’d both rather forget now.<br>\nI also ring up occasionally etc. but how many times can the same person keep on to others who have their own problems and lives with challenges to meet?<br>\nIt goes up and down … of course it does.<br>\nAnd tomorrow I’m going to try the link you posted. Thanks for that.<br>\nX</p>\n      </div>\n      <meta itemprop='interactionCount' content='UserLikes:0'>\n      <meta itemprop='interactionCount' content='UserComments:0'>\n      <meta itemprop='headline' content='Screaming doesn&#39;t help'>\n      <hr>\n  </div>\n  <div itemscope itemtype='http://schema.org/DiscussionForumPosting'>\n      <div class='creator'>\n        <span>\n          <a href='/u/Reah'><b itemprop='author'>Reah</b></a>\n          \n          <time datetime='2019-03-27T11:17:27Z' itemprop='datePublished'>\n            2019-03-27 11:17:27 UTC\n          </time>\n        </span>\n        <span itemprop='position'>#5</span>\n      </div>\n      <div class='post' itemprop='articleBody'>\n        <p>Hi <a class=\"mention\" href=\"/u/dee\">@dee</a>,</p>\n<p>It’s a real shame that your mum feels that way towards social services as there could be options available to benefit you both, but I also understand you not wanting to push her on her decision.</p>\n<p>However, your emotional well-being is still important and shouldn’t be overlooked so as well as my suggest above, you may also want to consider counselling to speak to a trained therapist about what you’re going through. More information on all types of counselling and therapists is available from the <a href=\"https://www.bacp.co.uk/\" rel=\"nofollow noopener\">British Association Changes and Psychotherapy</a>.</p>\n<p>Lastly, you can call our helpline as many times as you need, we’re always happy to provide people like yourself with the support you need.</p>\n<p>Do take care.</p>\n<p>Best wishes,<br>\nReah</p>\n      </div>\n      <meta itemprop='interactionCount' content='UserLikes:0'>\n      <meta itemprop='interactionCount' content='UserComments:0'>\n      <meta itemprop='headline' content='Screaming doesn&#39;t help'>\n      <hr>\n  </div>\n  <div itemscope itemtype='http://schema.org/DiscussionForumPosting'>\n      <div class='creator'>\n        <span>\n          <a href='/u/TheFallen'><b itemprop='author'>TheFallen</b></a>\n          \n          <time datetime='2019-03-30T04:41:36Z' itemprop='datePublished'>\n            2019-03-30 04:41:36 UTC\n          </time>\n        </span>\n        <span itemprop='position'>#6</span>\n      </div>\n      <div class='post' itemprop='articleBody'>\n        <p>Its a crying shame how we the people can get into this position above when the money exists for everybody to have more options. I saw this inequality as an RN before my diagnosis of PD. Im still pretty good ten years on, I drive, shop, go to the gym, do boxing, maintain the house, chill, socialize, do the web and thats where one can find out so much. Screaming does help, I find, but when you see how corrupted our system is its a cold determination that settles in rather than hot passion. Its awful to say this but the only way to deal with our predestined mortality and our dysfunctional world is a bigger picture view. Faith even. Im not religious however. Im talking about a deep deep acceptance.</p>\n      </div>\n      <meta itemprop='interactionCount' content='UserLikes:0'>\n      <meta itemprop='interactionCount' content='UserComments:1'>\n      <meta itemprop='headline' content='Screaming doesn&#39;t help'>\n      <hr>\n  </div>\n  <div itemscope itemtype='http://schema.org/DiscussionForumPosting'>\n      <div class='creator'>\n        <span>\n          <a href='/u/dee'><b itemprop='author'>dee</b></a>\n          \n          <time datetime='2019-03-30T09:51:16Z' itemprop='datePublished'>\n            2019-03-30 09:51:16 UTC\n          </time>\n        </span>\n        <span itemprop='position'>#7</span>\n      </div>\n      <div class='post' itemprop='articleBody'>\n        <p>There is constant ‘‘movement’’ with PD patients. The disease puts pressure on us all and occasionally so much pressure that it’s easy to crumple up in a heap and cry - or scream as in my case.<br>\nThe frustration is almost unbearable sometimes. However, I AM a believer. And it is my faith and belief that has brought me this far. On those occasions when I’ve been pulled through the thorny hedge by my poor mother’s PD symptoms (there seem to be so many these days) I must have prayed until I was hoarse … and then some.<br>\nJust last night I slept, but how much good did it do me? I must have continued my prayers in my sleep because unlike most other mornings when I wake after a fitful night, today I seemed more ‘‘awake’’, more ‘‘aware’’, and definitely more love flowed through me towards my mother.<br>\nI was able to define, again, that she was greatly loved (she feels insecure about that). That I was going through the whole time with her … however long that takes. And to urge her to think more about understanding her situation, symptoms, and coming to terms with them rather than trying to do things ‘‘like she did in her younger days’’.<br>\nHer understanding of herself will go a long way to help me, her daughter and carer, because then she won’t be so full of her inabilities and more full up with ways that she can continue to be the matriarch and much loved mum/grandmum to her family, who still need her very much, emotionally.</p>\n      </div>\n      <meta itemprop='interactionCount' content='UserLikes:0'>\n      <meta itemprop='interactionCount' content='UserComments:2'>\n      <meta itemprop='headline' content='Screaming doesn&#39;t help'>\n      <hr>\n  </div>\n  <div itemscope itemtype='http://schema.org/DiscussionForumPosting'>\n      <div class='creator'>\n        <span>\n          <a href='/u/dinky'><b itemprop='author'>dinky</b></a>\n          \n          <time datetime='2019-04-01T20:17:45Z' itemprop='datePublished'>\n            2019-04-01 20:17:45 UTC\n          </time>\n        </span>\n        <span itemprop='position'>#8</span>\n      </div>\n      <div class='post' itemprop='articleBody'>\n        <p>Interesting to read your journey ‘at the end of yourself’. I too have a deep and practical faith, despite which, I needed 5 years of anti depressants as support after my husband’s diagnosis with PD. Do consider talking to the medics about how you feel. It does not mean your faith is not valid. It means you love your Mum.  Your anxiety, soul pain and grief over the changes - which of course go on and on over each step-down in her ability, are hard to process and the mind, spirit and body all react accordingly. Stress and anxiety and grief all create changes which can need some chemical support sometimes. My God is gracious, loving, and the Holy Spirit strengthens, yet on a practical level I have learned that when calling on Him for everything I need, this may include use of daily relaxation techniques, organising treats for myself (a Swedish massage for relaxation once a month), mindfulness moments, and a touch of counselling now and then, are things that I need. Look up The Association of Christian Counsellors.  Having counselling  does not mean you are not strong, or that you are a failure - indeed, it means you ARE strong, with great insight, and a dynamic approach to sorting things out- giving yourself what you need so you can care for your lovely Mum.</p>\n      </div>\n      <meta itemprop='interactionCount' content='UserLikes:0'>\n      <meta itemprop='interactionCount' content='UserComments:1'>\n      <meta itemprop='headline' content='Screaming doesn&#39;t help'>\n      <hr>\n  </div>\n  <div itemscope itemtype='http://schema.org/DiscussionForumPosting'>\n      <div class='creator'>\n        <span>\n          <a href='/u/dee'><b itemprop='author'>dee</b></a>\n          \n          <time datetime='2019-04-02T10:03:06Z' itemprop='datePublished'>\n            2019-04-02 10:03:06 UTC\n          </time>\n        </span>\n        <span itemprop='position'>#9</span>\n      </div>\n      <div class='post' itemprop='articleBody'>\n        <p>Thank you dinky. I’m away to get some stuff organised for myself.<br>\nYour insightful ‘letter’ to me is full of love, hope and who our God is.<br>\nThank you so very much for your help.</p>\n<p>X</p>\n      </div>\n      <meta itemprop='interactionCount' content='UserLikes:0'>\n      <meta itemprop='interactionCount' content='UserComments:1'>\n      <meta itemprop='headline' content='Screaming doesn&#39;t help'>\n      <hr>\n  </div>\n  <div itemscope itemtype='http://schema.org/DiscussionForumPosting'>\n      <div class='creator'>\n        <span>\n          <a href='/u/Tot'><b itemprop='author'>Tot</b></a>\n          \n          <time datetime='2019-04-03T10:33:21Z' itemprop='datePublished'>\n            2019-04-03 10:33:21 UTC\n          </time>\n        </span>\n        <span itemprop='position'>#10</span>\n      </div>\n      <div class='post' itemprop='articleBody'>\n        <p>I hesitate to suggest this as it is so easy to misunderstand, but if you really do feel alone and there is  no-one to talk to you might want to try calling The Samaritans.  You do not have to be suicidal to contact them, which many think, they are there for anyone in need.  They listen, they do not judge and they are there 24/7.  Times can be hardest evenings, nights, weekends and high days and holidays when most voluntary and statutory services  are not available - the very times that emphasise your loneliness. The Samaritans can fill that void.  It might be something to keep in mind, an extra pressure relieving valve if you like or even an avenue to explore just to see if they could offer something that may help.  I make this suggestion simply as another option which may help, nothing more.  Whether or not you explore this further or disregard it is entirely  up to you.  I wish you well.</p>\n      </div>\n      <meta itemprop='interactionCount' content='UserLikes:0'>\n      <meta itemprop='interactionCount' content='UserComments:1'>\n      <meta itemprop='headline' content='Screaming doesn&#39;t help'>\n      <hr>\n  </div>\n  <div itemscope itemtype='http://schema.org/DiscussionForumPosting'>\n      <div class='creator'>\n        <span>\n          <a href='/u/dee'><b itemprop='author'>dee</b></a>\n          \n          <time datetime='2019-04-03T12:42:38Z' itemprop='datePublished'>\n            2019-04-03 12:42:38 UTC\n          </time>\n        </span>\n        <span itemprop='position'>#11</span>\n      </div>\n      <div class='post' itemprop='articleBody'>\n        <p>Thank you Tot. Yes, I know of these people but have never tried them. Perhaps next time I’m feeling desperate for company and help I’ll do so.<br>\nIt has come to the time when things might change for me … my poor dear mother might not last much longer … and I’m ever aware of that side of life too …<br>\nI’ll bear this in mind. I’ll also remember The Samaritans after mother has gone in case I can maybe help someone else one day.<br>\nI’m grateful to you for your suggestion and for writing.<br>\nGod bless.<br>\nX</p>\n      </div>\n      <meta itemprop='interactionCount' content='UserLikes:0'>\n      <meta itemprop='interactionCount' content='UserComments:2'>\n      <meta itemprop='headline' content='Screaming doesn&#39;t help'>\n      <hr>\n  </div>\n  <div itemscope itemtype='http://schema.org/DiscussionForumPosting'>\n      <div class='creator'>\n        <span>\n          <a href='/u/Tot'><b itemprop='author'>Tot</b></a>\n          \n          <time datetime='2019-04-03T15:18:27Z' itemprop='datePublished'>\n            2019-04-03 15:18:27 UTC\n          </time>\n        </span>\n        <span itemprop='position'>#12</span>\n      </div>\n      <div class='post' itemprop='articleBody'>\n        <p>I was saddened to hear your news of your mother but also glad you have this time, knowing her final journey is not far away. It is a special time and however hard or easy it may. be I hope ultimately that you can be at peace knowing you have done your best by her because clearly you have. I have no doubt somewhere deep inside your mother knows that.<br>\nIf I may take something of a liberty here coming in late as it were - some time ago I wrote a poem. for a close friend whose husband was in the final stages of cancer.  It struck as chord with her.  Your circumstances are different but I would like to post it for you, not to suggest I am a great poet but because it was written with honesty  and came from my heart to my good friend.  I don’t know you and I don’t want to force it on you but for some reason I can’t explain I would like to give you an opportunity to see it if you wish.  I thought I would post it in the creative corner that way you can read it if and when you wish or not read it at all.  I will send a note so you know it’s up, then it is up to you.  You will be in my thoughts, my best wishes  to you both</p>\n      </div>\n      <meta itemprop='interactionCount' content='UserLikes:0'>\n      <meta itemprop='interactionCount' content='UserComments:0'>\n      <meta itemprop='headline' content='Screaming doesn&#39;t help'>\n      <hr>\n  </div>\n  <div itemscope itemtype='http://schema.org/DiscussionForumPosting'>\n      <div class='creator'>\n        <span>\n          <a href='/u/Tot'><b itemprop='author'>Tot</b></a>\n          \n          <time datetime='2019-04-03T15:36:08Z' itemprop='datePublished'>\n            2019-04-03 15:36:08 UTC\n          </time>\n        </span>\n        <span itemprop='position'>#13</span>\n      </div>\n      <div class='post' itemprop='articleBody'>\n        <p>Dee the poem is. up.  It is called The Hardest of Timex.</p>\n      </div>\n      <meta itemprop='interactionCount' content='UserLikes:0'>\n      <meta itemprop='interactionCount' content='UserComments:1'>\n      <meta itemprop='headline' content='Screaming doesn&#39;t help'>\n      <hr>\n  </div>\n  <div itemscope itemtype='http://schema.org/DiscussionForumPosting'>\n      <div class='creator'>\n        <span>\n          <a href='/u/dee'><b itemprop='author'>dee</b></a>\n          \n          <time datetime='2019-04-04T10:35:20Z' itemprop='datePublished'>\n            2019-04-04 10:35:20 UTC\n          </time>\n        </span>\n        <span itemprop='position'>#14</span>\n      </div>\n      <div class='post' itemprop='articleBody'>\n        <p>Thank you dear Tot. I found the poem and I have enlarged it and moved it onto my board so that I can read it often. It says all that I anticipate will be forthcoming and offers me hope too…<br>\nYes, after all the difficulties will come the peace of release for Mum but for me ‘I’ll feel the colours bright again one day’.<br>\nThank you so much for the poem. Its absolutely lovely and very comforting.<br>\nIt also made me realise how caring and kind you are…and I thank you for sharing this with me.<br>\nXX</p>\n      </div>\n      <meta itemprop='interactionCount' content='UserLikes:0'>\n      <meta itemprop='interactionCount' content='UserComments:1'>\n      <meta itemprop='headline' content='Screaming doesn&#39;t help'>\n      <hr>\n  </div>\n  <div itemscope itemtype='http://schema.org/DiscussionForumPosting'>\n      <div class='creator'>\n        <span>\n          <a href='/u/klb'><b itemprop='author'>klb</b></a>\n          \n          <time datetime='2019-04-04T10:52:26Z' itemprop='datePublished'>\n            2019-04-04 10:52:26 UTC\n          </time>\n        </span>\n        <span itemprop='position'>#15</span>\n      </div>\n      <div class='post' itemprop='articleBody'>\n        <p>I’m a 24/7 carer for a friend who has a wonderful and caring family but they are genuinely very busy and not local. My friend and I both share a deep and comforting faith and have a wonderful church family around us. But the loneliness and feeling of isolation is never far away.<br>\nI realise this isn’t very comforting, but I just wanted you to know that although you feel very alone and restricted, this time will pass.  I find friends don’t always understand and their suggestions put me under pressure as my friend is very anxious and often confused and insecure. But this will pass and I am convinced that loving and caring for my friend, during this horrid time, is a good thing.  I find new grace each day, and often lose the plot on others, but I’m comforted by Ps 23. I’m just passing through the valley of the shadow, but the sun is still there and I will feel it’s warmth again, maybe not today, but soon. Be blessed in your service.</p>\n      </div>\n      <meta itemprop='interactionCount' content='UserLikes:0'>\n      <meta itemprop='interactionCount' content='UserComments:0'>\n      <meta itemprop='headline' content='Screaming doesn&#39;t help'>\n      <hr>\n  </div>\n  <div itemscope itemtype='http://schema.org/DiscussionForumPosting'>\n      <div class='creator'>\n        <span>\n          <a href='/u/Tot'><b itemprop='author'>Tot</b></a>\n          \n          <time datetime='2019-04-04T11:27:29Z' itemprop='datePublished'>\n            2019-04-04 11:27:29 UTC\n          </time>\n        </span>\n        <span itemprop='position'>#17</span>\n      </div>\n      <div class='post' itemprop='articleBody'>\n        <p>You are most welcome and thank you for your kind words.</p>\n      </div>\n      <meta itemprop='interactionCount' content='UserLikes:0'>\n      <meta itemprop='interactionCount' content='UserComments:1'>\n      <meta itemprop='headline' content='Screaming doesn&#39;t help'>\n      <hr>\n  </div>\n  <div itemscope itemtype='http://schema.org/DiscussionForumPosting'>\n      <div class='creator'>\n        <span>\n          <a href='/u/Jules47'><b itemprop='author'>Jules47</b></a>\n          \n          <time datetime='2019-05-16T07:34:07Z' itemprop='datePublished'>\n            2019-05-16 07:34:07 UTC\n          </time>\n        </span>\n        <span itemprop='position'>#18</span>\n      </div>\n      <div class='post' itemprop='articleBody'>\n        <p>Screaming helped my voice return, I dread to think what the neighbours thought. God did I scream, good job in the bathroom otherwise I think I would have been sectioned for disruption to the neighbourhood, eg breech of the peace, funny now but at the time I reallllllly did give it some. If my voice starts to wobble again, I will defiantly scream my head off, it works… give it a go in a safe place and prepare those near you, it really does work. Seek medical opinion though first, I’m no doctor just someone living with it, big hug</p>\n      </div>\n      <meta itemprop='interactionCount' content='UserLikes:0'>\n      <meta itemprop='interactionCount' content='UserComments:0'>\n      <meta itemprop='headline' content='Screaming doesn&#39;t help'>\n      <hr>\n  </div>\n  <div itemscope itemtype='http://schema.org/DiscussionForumPosting'>\n      <div class='creator'>\n        <span>\n          <a href='/u/Blockbuster'><b itemprop='author'>Blockbuster</b></a>\n          \n          <time datetime='2019-05-16T10:25:06Z' itemprop='datePublished'>\n            2019-05-16 10:25:06 UTC\n          </time>\n        </span>\n        <span itemprop='position'>#19</span>\n      </div>\n      <div class='post' itemprop='articleBody'>\n        <p>I feel what you are going through is me too .My partner of 29 years has been in hospital now for 7weeks He has P.D and was diagnosed in 2017 .the signs were showing ages before until he saw Neurologist.<br>\nHe had joined local Jim at day centre and was doing really well to keep fit .He had a few falls and this did not help .The last fall was at home 19th March  2019 .paramedics came and helped him up .sat him a chair and did the health checks all was fine .Paramedic helped him to stand to help him go upstairs to bed He then collapsed out cold I thought he was dead  hehe was rushed to local hospital where he remains.he is not himself and has confusion and worrying a bit .i feel like the person I have been with all this time has gone this I am finding hard to deal with and it is breaking my heart to see him he is like in a bubble and he is confused and seeing things that are not there .i like you want to scream out loud but what will it do it feels like a bereavement and this I find hard ,I have loads of friends who have helped me and visited the hospital but when I come home the house is so empty and I at at a loss how do I deal with this to keep strong any advice gladly received.i am normally happy go lucky guy but there is a void in my life .We have a family meeting today at the hospital to see what is next for him .   So I do feel like yourself .</p>\n      </div>\n      <meta itemprop='interactionCount' content='UserLikes:0'>\n      <meta itemprop='interactionCount' content='UserComments:0'>\n      <meta itemprop='headline' content='Screaming doesn&#39;t help'>\n      <hr>\n  </div>\n\n\n\n\n\n\n    </div>\n    <footer class=\"container\">\n      <nav class='crawler-nav' itemscope itemtype='http://schema.org/SiteNavigationElement'>\n        <a href='/'>Home</a>\n        <a href=\"/categories\">Categories</a>\n        <a href=\"/guidelines\">FAQ/Guidelines</a>\n        <a href=\"/tos\">Terms of Service</a>\n        <a href=\"/privacy\">Privacy Policy</a>\n      </nav>\n      <p class='powered-by-link'>Powered by <a href=\"https://www.discourse.org\">Discourse</a>, best viewed with JavaScript enabled</p>\n    </footer>\n    \n  </body>\n  \n</html>\n",
  "url": "https://forum.parkinsons.org.uk/t/screaming-doesnt-help/18575"
}