{
  "contentId": "649d0fc0-8865-11e9-8f96-97f71b5221d6",
  "html": "<!DOCTYPE html>\n<html lang=\"en\">\n  <head>\n    <meta charset=\"utf-8\">\n    <title>Dopamine Level&#39;s - Newly diagnosed - Parkinson&#39;s UK Forum</title>\n    <meta name=\"description\" content=\"This may have been asked before, but I feel I need to get my heard around this one. Dopamine levels - Before any symptoms show themselves, about 40 - 60 percent of them have already gone. Also doing exercise does not cre&amp;hellip;\">\n    <meta name=\"author\" content=\"\">\n<meta name=\"generator\" content=\"Discourse 2.2.5 - https://github.com/discourse/discourse version c294ff3609f988dcafb742e91606d60ca13b794d\">\n<link rel=\"icon\" type=\"image/png\" href=\"https://forum.parkinsons.org.uk/uploads/db7928/original/2X/3/311fc84f89f49f38601a2f16b295b6f03d3ce5dd.jpg\">\n<link rel=\"apple-touch-icon\" type=\"image/png\" href=\"https://forum.parkinsons.org.uk/uploads/db7928/original/2X/3/311fc84f89f49f38601a2f16b295b6f03d3ce5dd.jpg\">\n<meta name=\"theme-color\" content=\"#ffffff\">\n<meta name=\"viewport\" content=\"width=device-width, minimum-scale=1.0, maximum-scale=1.0, user-scalable=yes\">\n<link rel=\"canonical\" href=\"https://forum.parkinsons.org.uk/t/dopamine-levels/14473?page=2\" />\n<script type=\"application/ld+json\">{\"@context\":\"http://schema.org\",\"@type\":\"WebSite\",\"url\":\"https://forum.parkinsons.org.uk\",\"potentialAction\":{\"@type\":\"SearchAction\",\"target\":\"https://forum.parkinsons.org.uk/search?q={search_term_string}\",\"query-input\":\"required name=search_term_string\"}}</script>\n<link rel=\"search\" type=\"application/opensearchdescription+xml\" href=\"https://forum.parkinsons.org.uk/opensearch.xml\" title=\"Parkinson&#39;s UK Forum Search\">\n\n      <link href=\"/stylesheets/desktop_f99246ae801b083d3e4cca979d0dade8615b39ac.css?__ws=forum.parkinsons.org.uk\" media=\"all\" rel=\"stylesheet\" data-target=\"desktop\" data-theme-id=\"12\"/>\n      <link href=\"/stylesheets/desktop_theme_12_5d27531cf43f9df0c03a6a6ec3109dd05f9dfc49.css?__ws=forum.parkinsons.org.uk\" media=\"all\" rel=\"stylesheet\" data-target=\"desktop_theme\" data-theme-id=\"12\"/>\n    <link href=\"https://fonts.googleapis.com/css?family=Open+Sans\" rel=\"stylesheet\">\n\n    <meta id=\"data-ga-universal-analytics\" data-tracking-code=\"UA-4855628-1\" data-json=\"{&quot;cookieDomain&quot;:&quot;auto&quot;}\" data-auto-link-domains=\"\">\n\n<link rel='preload' href='/assets/google-universal-analytics-f35b4da49411e6f5559073523aab983da483976a3954c79c756f8579f6fbd6ef.js' as='script'/>\n<script src='/assets/google-universal-analytics-f35b4da49411e6f5559073523aab983da483976a3954c79c756f8579f6fbd6ef.js'></script>\n\n      <link rel=\"alternate\" type=\"application/rss+xml\" title=\"RSS feed of &#39;Dopamine Level&#39;s&#39;\" href=\"https://forum.parkinsons.org.uk/t/dopamine-levels/14473.rss\" />\n  <meta property=\"og:site_name\" content=\"Parkinson&#39;s UK Forum\" />\n<meta name=\"twitter:card\" content=\"summary\" />\n<meta name=\"twitter:image\" content=\"https://forum.parkinsons.org.uk/uploads/db7928/original/2X/3/311fc84f89f49f38601a2f16b295b6f03d3ce5dd.jpg\" />\n<meta property=\"og:image\" content=\"https://forum.parkinsons.org.uk/uploads/db7928/original/2X/3/311fc84f89f49f38601a2f16b295b6f03d3ce5dd.jpg\" />\n<meta property=\"og:url\" content=\"https://forum.parkinsons.org.uk/t/dopamine-levels/14473?page=2\" />\n<meta name=\"twitter:url\" content=\"https://forum.parkinsons.org.uk/t/dopamine-levels/14473?page=2\" />\n<meta property=\"og:title\" content=\"Dopamine Level&#39;s\" />\n<meta name=\"twitter:title\" content=\"Dopamine Level&#39;s\" />\n<meta property=\"og:description\" content=\"Hi @Debbielou  I feel for you both, although if your husband is like me, it will be worse for you as it is for my wife as you can see what has happened to your other half.  The brain is a very complex thing and to think scientist know more about the space and how the big bang happened than the very best neurologist know about how the brain works and how the symbiont microorganisms can effect how it works, so although its frustrating, unless its smacking them in the face, its very difficult for t...\" />\n<meta name=\"twitter:description\" content=\"Hi @Debbielou  I feel for you both, although if your husband is like me, it will be worse for you as it is for my wife as you can see what has happened to your other half.  The brain is a very complex thing and to think scientist know more about the space and how the big bang happened than the very best neurologist know about how the brain works and how the symbiont microorganisms can effect how it works, so although its frustrating, unless its smacking them in the face, its very difficult for t...\" />\n<meta name=\"twitter:label1\" value=\"Reading time\" />\n<meta name=\"twitter:data1\" value=\"10 mins \uD83D\uDD51\" />\n<meta name=\"twitter:label2\" value=\"Likes\" />\n<meta name=\"twitter:data2\" value=\"14 ❤\" />\n<meta property=\"article:published_time\" content=\"2019-02-07T16:45:26+00:00\" />\n<meta property=\"og:ignore_canonical\" content=\"true\" />\n\n      <link rel=\"prev\" href=\"/t/dopamine-levels/14473\">\n\n\n    \n  </head>\n  <body class=\"crawler\">\n    <header role=\"banner\">\n    <div class=\"region region-header\">\n        <div class=\"region-header-wrapper\">\n            <div id=\"block-parkinsons-d8-branding\" class=\"block block-system block-system-branding-block\">\n                <a href=\"/\" title=\"Home\" rel=\"home\" class=\"site-logo\">\n                    <img src=\"https://forum.parkinsons.org.uk/uploads/db7928/original/2X/8/862bb7d172e7d127e7f3e147ec43594aa62ac945.png\" alt=\"Parkinson's UK. Change Attitudes. Find a cure. Join us.\">\n                </a>\n            </div>\n            <div id=\"block-helpline\" class=\"block block-block-content block-block-content871cd5af-b938-4947-9dc0-d5c211d08fe3 style-phone\">\n                <div class=\"field field--name-field-link field--type-link field--label-hidden field__item\"><a href=\"tel:+448088000303\">Helpline 0808 800 0303</a></div>\n            </div>\n            <div id=\"block-shop\" class=\"block block-block-content block-block-content6fba5ae5-7797-49cd-8367-f321d8111cd6 style-regular\">\n                <div class=\"field field--name-field-link field--type-link field--label-hidden field__item\"><a href=\"https://shop.parkinsons.org.uk\">Shop</a></div>\n            </div>\n        </div>\n    </div>\n</header>\n\n\n<script src=\"/theme-javascripts/b7e9763fcb584fc8265c56a9f557cd6d2e1e8ed8.js?__ws=forum.parkinsons.org.uk\"></script>\n    <header>\n      <a href=\"/\">\n          <img src=\"https://forum.parkinsons.org.uk/uploads/db7928/original/2X/8/862bb7d172e7d127e7f3e147ec43594aa62ac945.png\" alt=\"Parkinson&#39;s UK Forum\" id=\"site-logo\" style=\"max-width: 150px;\">\n      </a>\n    </header>\n    <div id=\"main-outlet\" class=\"wrap\">\n      <h1>\n  <a href=\"/t/dopamine-levels/14473\">Dopamine Level&#39;s</a>\n</h1>\n\n<div id='breadcrumbs'>\n    <div id=\"breadcrumb-0\" itemscope itemtype=\"http://data-vocabulary.org/Breadcrumb\"\n        itemref=\"breadcrumb-1\"\n      >\n      <a href=\"/c/about-parkinsons-and-health\" itemprop=\"url\">\n        <span itemprop=\"title\">About Parkinson&#39;s and health</span>\n      </a>\n    </div>\n    <div id=\"breadcrumb-1\" itemscope itemtype=\"http://data-vocabulary.org/Breadcrumb\"\n>\n      <a href=\"/c/about-parkinsons-and-health/newly-diagnosed\" itemprop=\"url\">\n        <span itemprop=\"title\">Newly diagnosed</span>\n      </a>\n    </div>\n</div>\n\n\n\n\n\n<hr>\n\n\n  <div itemscope itemtype='http://schema.org/DiscussionForumPosting'>\n      <div class='creator'>\n        <span>\n          <a href='/u/Shane'><b itemprop='author'>Shane</b></a>\n          \n          <time datetime='2019-02-07T16:45:26Z' itemprop='datePublished'>\n            2019-02-07 16:45:26 UTC\n          </time>\n        </span>\n        <span itemprop='position'>#21</span>\n      </div>\n      <div class='post' itemprop='articleBody'>\n        <p>Hi <a class=\"mention\" href=\"/u/debbielou\">@Debbielou</a></p>\n<p>I feel for you both, although if your husband is like me, it will be worse for you as it is for my wife as you can see what has happened to your other half.</p>\n<p>The brain is a very complex thing and to think scientist know more about the space and how the big bang happened than the very best neurologist know about how the brain works and how the symbiont microorganisms can effect how it works, so although its frustrating, unless its smacking them in the face, its very difficult for them to figure out what’s going on with todays technology.</p>\n<p>Myself, I’ve seen my new specialist and he although doesn’t think its Parkinsons (which I’m grateful), he has indicated that I could be in the very early symptoms or that I was on a very good day (which I was) and cannot rule it out either. It doesn’t help when you also forget to tell the specialist some of the symptoms either like sense of smell. I’m grateful he’s going to look over all my records since I became ill too and for me, that’s a significate step in the right direction as its a true second opinion</p>\n<p>I have new symptoms now with reflux acid, my taste is changing and my sense of smell which has been all over the place is still altering for the worse (couldn’t smell some very strong bleach the other day, yet my eyes and throat certainly told me it wasn’t good). My voice is still as bad and I’m now having some speech therapy which is where I found out about the reflux (hadn’t noticed it - but I’m guessing its been there a little while), I’ve also had an endoscopy which has revealed I have a weak larynx causing my vocal issues.</p>\n<p>I’ve had two sessions now and although I find it very challenging to make certain noise plus alter my vocal pitch or levels, the therapist has noticed that my voice also quivers (she heard it once in the last session) and has also said she will be asking some of her colleagues from that moment about other methods as again I’m not typical for the usual visitor. She has also noticed how difficult it is from me with controlling facial and vocal muscles. Its just a good job I can laugh at myself as I’m there trying to make a cat prrring sound and my lips will just stop moving and then come back, I’ve also been told the level of concentration and effort I’m having to put into these small tasks isn’t normal with typical vocal problems.</p>\n<p>I know I’m going to be a tough one to diagnose and its just going to be that way. I’m still certain its something neurological which the specialist has also agreed it is (although what it is still to be determined)</p>\n<p>If your husband is able, I have found the best thing for me is vigorous exercise and without it, things become more difficult indeed. What’s odd is it’s something I have to really work at and for myself is about 27km a week running plus anything extra otherwise unknowingly things become far more difficult for me to do. Since Christmas after a injury It’s taken me more than a month to find the level before I was injured. This is longer than it has ever taken before which isn’t good as the last like I took a break because of school holidays took longer than the time before but shorter than this time which is a showing pattern.</p>\n<p>Even with exercise, all the my typical symptoms are still there, I just notice them more without keeping myself topped up with exercise.</p>\n<p>A question to others out there. This winter I’ve really noticed when I get cold, I’m freezing (cold to touch too) and it can take hours for me to warm up even with the heating on high, other times I can be sweating when its warm and then I can feel perfect when others around me are cold. It doesn’t matter if I’ve had a session at the gym either when I get cold, I’m just freezing. Today I was out picking my daughter up from school and my teeth were chattering uncontrollably and I was shivering even though I had many layers on</p>\n      </div>\n      <meta itemprop='interactionCount' content='UserLikes:0'>\n      <meta itemprop='interactionCount' content='UserComments:0'>\n      <meta itemprop='headline' content='Dopamine Level&#39;s'>\n      <hr>\n  </div>\n  <div itemscope itemtype='http://schema.org/DiscussionForumPosting'>\n      <div class='creator'>\n        <span>\n          <a href='/u/Debbielou'><b itemprop='author'>Debbielou</b></a>\n          \n          <time datetime='2019-02-09T12:02:27Z' itemprop='datePublished'>\n            2019-02-09 12:02:27 UTC\n          </time>\n        </span>\n        <span itemprop='position'>#22</span>\n      </div>\n      <div class='post' itemprop='articleBody'>\n        <p>Thanks Shane thanks for writing back.  Currently we are just going to sit back and see how the levodopa has effected Jim.  He has had a few days that were good and the last couple were harder since he has been off it.  I do have him on a vit. and mineral supplement and trying to reduce sugar and gluten, which is a hard diet when you love pasta and donuts. (Smile)  I have an appointment set up with a new neuo group at one of the best in the state, Duke University.  They do a lot of research, studies and training.  The appointment isn’t until April 3 though.  So it is one of those hurry up and wait senerios.  In the mean time, we are going to take a trip to Florida at the end of the month and just try to enjoy a little life.  Some times you just have to stop and smell the roses.  Thanks again and God bless you and your wife, I will keep in touch.  Oh one more thing about you being cold.  Jim too has had that problem once in a while.  Have you taken your temp when you feel like that.  I am going to start doing that with Jim, I am curious to know if it is a body temp drop or just circulation.</p>\n      </div>\n      <meta itemprop='interactionCount' content='UserLikes:1'>\n      <meta itemprop='interactionCount' content='UserComments:0'>\n      <meta itemprop='headline' content='Dopamine Level&#39;s'>\n      <hr>\n  </div>\n  <div itemscope itemtype='http://schema.org/DiscussionForumPosting'>\n      <div class='creator'>\n        <span>\n          <a href='/u/Shane'><b itemprop='author'>Shane</b></a>\n          \n          <time datetime='2019-03-02T13:38:02Z' itemprop='datePublished'>\n            2019-03-02 13:38:02 UTC\n          </time>\n        </span>\n        <span itemprop='position'>#23</span>\n      </div>\n      <div class='post' itemprop='articleBody'>\n        <p>Hi all</p>\n<p>I just want to ask about people balancing and what kind of issues did you each feel. I know in the passed three months I certainly noticing more of an effect than I have previously had.</p>\n<p>I’ve had balancing issues since I’ve become ill, but just recently I’m finding that I’m having to increase my level of thought in order to try and control my balancing and a couple of times now I’ve had to steady myself before I fall</p>\n<p>Oddly when moving very quickly like running or on my bike I do not notice it as much. It’s just effecting me when out walking (at a normal speed with the family) and moving around the house plus when picking things up of the floor which requires crouching</p>\n      </div>\n      <meta itemprop='interactionCount' content='UserLikes:0'>\n      <meta itemprop='interactionCount' content='UserComments:0'>\n      <meta itemprop='headline' content='Dopamine Level&#39;s'>\n      <hr>\n  </div>\n\n  <div role='navigation' itemscope itemtype='http://schema.org/SiteNavigationElement'>\n      <span itemprop='name'><a rel=\"prev\" itemprop=\"url\" href=\"/t/dopamine-levels/14473\">← previous page</a></span>\n  </div>\n\n\n\n\n\n    </div>\n    <footer class=\"container\">\n      <nav class='crawler-nav' itemscope itemtype='http://schema.org/SiteNavigationElement'>\n        <a href='/'>Home</a>\n        <a href=\"/categories\">Categories</a>\n        <a href=\"/guidelines\">FAQ/Guidelines</a>\n        <a href=\"/tos\">Terms of Service</a>\n        <a href=\"/privacy\">Privacy Policy</a>\n      </nav>\n      <p class='powered-by-link'>Powered by <a href=\"https://www.discourse.org\">Discourse</a>, best viewed with JavaScript enabled</p>\n    </footer>\n    \n  </body>\n  \n</html>\n",
  "url": "https://forum.parkinsons.org.uk/t/dopamine-levels/14473?page=2"
}