{
  "contentId": "91461c00-886b-11e9-8f96-97f71b5221d6",
  "html": "<!DOCTYPE html>\n<html lang=\"en\">\n  <head>\n    <meta charset=\"utf-8\">\n    <title>Dopamine Agonists and catastrophic Obsessive/Compulsive Disorders (2) - Impulsive and compulsive behaviour - Parkinson&#39;s UK Forum</title>\n    <meta name=\"description\" content=\"could anyone tell me when u been on mirapexon meds at all,the actual amount and the strengh that it has caused bad effects on you.the reson im askin this is cus last year i was on 6 of them and they got to me in a bad wa&amp;hellip;\">\n    <meta name=\"author\" content=\"\">\n<meta name=\"generator\" content=\"Discourse 2.2.5 - https://github.com/discourse/discourse version c294ff3609f988dcafb742e91606d60ca13b794d\">\n<link rel=\"icon\" type=\"image/png\" href=\"https://forum.parkinsons.org.uk/uploads/db7928/original/2X/3/311fc84f89f49f38601a2f16b295b6f03d3ce5dd.jpg\">\n<link rel=\"apple-touch-icon\" type=\"image/png\" href=\"https://forum.parkinsons.org.uk/uploads/db7928/original/2X/3/311fc84f89f49f38601a2f16b295b6f03d3ce5dd.jpg\">\n<meta name=\"theme-color\" content=\"#ffffff\">\n<meta name=\"viewport\" content=\"width=device-width, minimum-scale=1.0, maximum-scale=1.0, user-scalable=yes\">\n<link rel=\"canonical\" href=\"https://forum.parkinsons.org.uk/t/dopamine-agonists-and-catastrophic-obsessive-compulsive-disorders-2/416?page=8\" />\n<script type=\"application/ld+json\">{\"@context\":\"http://schema.org\",\"@type\":\"WebSite\",\"url\":\"https://forum.parkinsons.org.uk\",\"potentialAction\":{\"@type\":\"SearchAction\",\"target\":\"https://forum.parkinsons.org.uk/search?q={search_term_string}\",\"query-input\":\"required name=search_term_string\"}}</script>\n<link rel=\"search\" type=\"application/opensearchdescription+xml\" href=\"https://forum.parkinsons.org.uk/opensearch.xml\" title=\"Parkinson&#39;s UK Forum Search\">\n\n      <link href=\"/stylesheets/desktop_f99246ae801b083d3e4cca979d0dade8615b39ac.css?__ws=forum.parkinsons.org.uk\" media=\"all\" rel=\"stylesheet\" data-target=\"desktop\" data-theme-id=\"12\"/>\n      <link href=\"/stylesheets/desktop_theme_12_5d27531cf43f9df0c03a6a6ec3109dd05f9dfc49.css?__ws=forum.parkinsons.org.uk\" media=\"all\" rel=\"stylesheet\" data-target=\"desktop_theme\" data-theme-id=\"12\"/>\n    <link href=\"https://fonts.googleapis.com/css?family=Open+Sans\" rel=\"stylesheet\">\n\n    <meta id=\"data-ga-universal-analytics\" data-tracking-code=\"UA-4855628-1\" data-json=\"{&quot;cookieDomain&quot;:&quot;auto&quot;}\" data-auto-link-domains=\"\">\n\n<link rel='preload' href='/assets/google-universal-analytics-f35b4da49411e6f5559073523aab983da483976a3954c79c756f8579f6fbd6ef.js' as='script'/>\n<script src='/assets/google-universal-analytics-f35b4da49411e6f5559073523aab983da483976a3954c79c756f8579f6fbd6ef.js'></script>\n\n      <link rel=\"alternate\" type=\"application/rss+xml\" title=\"RSS feed of &#39;Dopamine Agonists and catastrophic Obsessive/Compulsive Disorders (2)&#39;\" href=\"https://forum.parkinsons.org.uk/t/dopamine-agonists-and-catastrophic-obsessive-compulsive-disorders-2/416.rss\" />\n  <meta property=\"og:site_name\" content=\"Parkinson&#39;s UK Forum\" />\n<meta name=\"twitter:card\" content=\"summary\" />\n<meta name=\"twitter:image\" content=\"https://forum.parkinsons.org.uk/uploads/db7928/original/2X/3/311fc84f89f49f38601a2f16b295b6f03d3ce5dd.jpg\" />\n<meta property=\"og:image\" content=\"https://forum.parkinsons.org.uk/uploads/db7928/original/2X/3/311fc84f89f49f38601a2f16b295b6f03d3ce5dd.jpg\" />\n<meta property=\"og:url\" content=\"https://forum.parkinsons.org.uk/t/dopamine-agonists-and-catastrophic-obsessive-compulsive-disorders-2/416?page=8\" />\n<meta name=\"twitter:url\" content=\"https://forum.parkinsons.org.uk/t/dopamine-agonists-and-catastrophic-obsessive-compulsive-disorders-2/416?page=8\" />\n<meta property=\"og:title\" content=\"Dopamine Agonists and catastrophic Obsessive/Compulsive Disorders (2)\" />\n<meta name=\"twitter:title\" content=\"Dopamine Agonists and catastrophic Obsessive/Compulsive Disorders (2)\" />\n<meta property=\"og:description\" content=\". Welcome back, Titan.  Whatever.  .\" />\n<meta name=\"twitter:description\" content=\". Welcome back, Titan.  Whatever.  .\" />\n<meta property=\"article:published_time\" content=\"2012-04-18T15:36:57+00:00\" />\n<meta property=\"og:ignore_canonical\" content=\"true\" />\n\n      <link rel=\"prev\" href=\"/t/dopamine-agonists-and-catastrophic-obsessive-compulsive-disorders-2/416?page=7\">\n      <link rel=\"next\" href=\"/t/dopamine-agonists-and-catastrophic-obsessive-compulsive-disorders-2/416?page=9\">\n\n\n    \n  </head>\n  <body class=\"crawler\">\n    <header role=\"banner\">\n    <div class=\"region region-header\">\n        <div class=\"region-header-wrapper\">\n            <div id=\"block-parkinsons-d8-branding\" class=\"block block-system block-system-branding-block\">\n                <a href=\"/\" title=\"Home\" rel=\"home\" class=\"site-logo\">\n                    <img src=\"https://forum.parkinsons.org.uk/uploads/db7928/original/2X/8/862bb7d172e7d127e7f3e147ec43594aa62ac945.png\" alt=\"Parkinson's UK. Change Attitudes. Find a cure. Join us.\">\n                </a>\n            </div>\n            <div id=\"block-helpline\" class=\"block block-block-content block-block-content871cd5af-b938-4947-9dc0-d5c211d08fe3 style-phone\">\n                <div class=\"field field--name-field-link field--type-link field--label-hidden field__item\"><a href=\"tel:+448088000303\">Helpline 0808 800 0303</a></div>\n            </div>\n            <div id=\"block-shop\" class=\"block block-block-content block-block-content6fba5ae5-7797-49cd-8367-f321d8111cd6 style-regular\">\n                <div class=\"field field--name-field-link field--type-link field--label-hidden field__item\"><a href=\"https://shop.parkinsons.org.uk\">Shop</a></div>\n            </div>\n        </div>\n    </div>\n</header>\n\n\n<script src=\"/theme-javascripts/b7e9763fcb584fc8265c56a9f557cd6d2e1e8ed8.js?__ws=forum.parkinsons.org.uk\"></script>\n    <header>\n      <a href=\"/\">\n          <img src=\"https://forum.parkinsons.org.uk/uploads/db7928/original/2X/8/862bb7d172e7d127e7f3e147ec43594aa62ac945.png\" alt=\"Parkinson&#39;s UK Forum\" id=\"site-logo\" style=\"max-width: 150px;\">\n      </a>\n    </header>\n    <div id=\"main-outlet\" class=\"wrap\">\n      <h1>\n  <a href=\"/t/dopamine-agonists-and-catastrophic-obsessive-compulsive-disorders-2/416\">Dopamine Agonists and catastrophic Obsessive/Compulsive Disorders (2)</a>\n</h1>\n\n<div id='breadcrumbs'>\n    <div id=\"breadcrumb-0\" itemscope itemtype=\"http://data-vocabulary.org/Breadcrumb\"\n        itemref=\"breadcrumb-1\"\n      >\n      <a href=\"/c/about-parkinsons-and-health\" itemprop=\"url\">\n        <span itemprop=\"title\">About Parkinson&#39;s and health</span>\n      </a>\n    </div>\n    <div id=\"breadcrumb-1\" itemscope itemtype=\"http://data-vocabulary.org/Breadcrumb\"\n>\n      <a href=\"/c/about-parkinsons-and-health/impulsive-and-compulsive-behaviour\" itemprop=\"url\">\n        <span itemprop=\"title\">Impulsive and compulsive behaviour</span>\n      </a>\n    </div>\n</div>\n\n\n\n\n\n<hr>\n\n\n  <div itemscope itemtype='http://schema.org/DiscussionForumPosting'>\n      <div class='creator'>\n        <span>\n          <a href='/u/ray_of_sunshine'><b itemprop='author'>ray_of_sunshine</b></a>\n          \n          <time datetime='2012-04-18T15:36:57Z' itemprop='datePublished'>\n            2012-04-18 15:36:57 UTC\n          </time>\n        </span>\n        <span itemprop='position'>#141</span>\n      </div>\n      <div class='post' itemprop='articleBody'>\n        .<br>Welcome back, Titan.<br><br>Whatever.<br><br>.\n      </div>\n      <meta itemprop='interactionCount' content='UserLikes:0'>\n      <meta itemprop='interactionCount' content='UserComments:0'>\n      <meta itemprop='headline' content='Dopamine Agonists and catastrophic Obsessive/Compulsive Disorders (2)'>\n      <hr>\n  </div>\n  <div itemscope itemtype='http://schema.org/DiscussionForumPosting'>\n      <div class='creator'>\n        <span>\n          <a href='/u/ray_of_sunshine'><b itemprop='author'>ray_of_sunshine</b></a>\n          \n          <time datetime='2012-04-19T08:46:56Z' itemprop='datePublished'>\n            2012-04-19 08:46:56 UTC\n          </time>\n        </span>\n        <span itemprop='position'>#142</span>\n      </div>\n      <div class='post' itemprop='articleBody'>\n        Hi Sarah.<br><br>Personally I'd be happy if the leaflets say 1 in 6 (17%) as this is sufficiently frequent to make newly dx patients sit up and take notice - better than 0.1%.<br><br>In parallel, consultants and GPs need to be notified of the change, and discuss the issues with their patients in detail - not just a cursory \"Oh, and let me know if you feel any excessive compulsions.\"<br><br>There will presumably be thousands of packs dotted around the globe in warehouses and on pharmacy premises containing the old leaflets, now superseded. These will I guess continue to be dispensed for some time to come. Is there any way we can address this?<br><br>Hi Glenchass.<br><br>I empathise with you 100%. I sometimes get the impression that many of those here think this is all a game: an exercise in debating skills between a couple of college students, where the proponents try to score intellectual points off each other but the result is otherwise unimportant.<br><br>Nothing could be further from the truth. You, I and literally hundreds of others have been financially, familially and psychologically destroyed by these side effects, having been initially put on DAs <em>before</em> anything was known about the OCD connection, but unbelievably not informed of new findings as they came to light, but left taking them in ignorance <em>for many years</em> thereafter.<br><br>Like you I busted a gut building a good career, putting in long hours and coping with much stress to achieve a comfortable standard of living and ultimately a sound retirement. Only to see it all washed away by these DAs in next to no time. I now live in a rented hovel, run out of cash <em>every</em> month long before payday, and moved 10 times in 5 years to avoid bailiffs and debt chasers.<br><br>7 years on DAs, 2 on bail, and I haven't left the house for the last 3. I am a broken man, with PD. And not even able to use DA medication - how ironic!<br><br>Ray.\n      </div>\n      <meta itemprop='interactionCount' content='UserLikes:0'>\n      <meta itemprop='interactionCount' content='UserComments:0'>\n      <meta itemprop='headline' content='Dopamine Agonists and catastrophic Obsessive/Compulsive Disorders (2)'>\n      <hr>\n  </div>\n  <div itemscope itemtype='http://schema.org/DiscussionForumPosting'>\n      <div class='creator'>\n        <span>\n          <a href='/u/Eck'><b itemprop='author'>Eck</b></a>\n          \n          <time datetime='2012-04-19T09:07:30Z' itemprop='datePublished'>\n            2012-04-19 09:07:30 UTC\n          </time>\n        </span>\n        <span itemprop='position'>#143</span>\n      </div>\n      <div class='post' itemprop='articleBody'>\n        No such thing as statistics?<br><br>Is it Obsessive Compulsive to keep poo-pooing a subject you know nothing about and doesn't concern you?  I think so, RoS you need to add this to the list.\n      </div>\n      <meta itemprop='interactionCount' content='UserLikes:0'>\n      <meta itemprop='interactionCount' content='UserComments:0'>\n      <meta itemprop='headline' content='Dopamine Agonists and catastrophic Obsessive/Compulsive Disorders (2)'>\n      <hr>\n  </div>\n  <div itemscope itemtype='http://schema.org/DiscussionForumPosting'>\n      <div class='creator'>\n        <span>\n          <a href='/u/goldengirl'><b itemprop='author'>goldengirl</b></a>\n          \n          <time datetime='2012-04-19T09:29:31Z' itemprop='datePublished'>\n            2012-04-19 09:29:31 UTC\n          </time>\n        </span>\n        <span itemprop='position'>#144</span>\n      </div>\n      <div class='post' itemprop='articleBody'>\n        i am heartened by the reaponse from the ICB team and feel that at last progress is being made, albeit slowly, in alerting the PD world to this massive problem.<br>I agree with Ray that 1 in 6 on the leaflet would be acceptable if this is preferred from the larger study, although it does not include the fact that nearing the max. dose increases the figure as does being younger.<br>I look forward to the clarification of the legal situation and still wonder why the USA has such a large number of successful class actions and financial settlements.<br>Thanks to all who are helping in the struggle for justice and prevention of more devastated lives.<br>GG\n      </div>\n      <meta itemprop='interactionCount' content='UserLikes:0'>\n      <meta itemprop='interactionCount' content='UserComments:0'>\n      <meta itemprop='headline' content='Dopamine Agonists and catastrophic Obsessive/Compulsive Disorders (2)'>\n      <hr>\n  </div>\n  <div itemscope itemtype='http://schema.org/DiscussionForumPosting'>\n      <div class='creator'>\n        <span>\n          <a href='/u/ezinda'><b itemprop='author'>ezinda</b></a>\n          \n          <time datetime='2012-04-19T09:59:43Z' itemprop='datePublished'>\n            2012-04-19 09:59:43 UTC\n          </time>\n        </span>\n        <span itemprop='position'>#145</span>\n      </div>\n      <div class='post' itemprop='articleBody'>\n        Hi all,<br><br>Thanks for your comments and questions.<br><br>We know people hold a range of opinions on this topic but what is most important is that we capture everyone's experiences to move towards effective solutions.  <br><br>I’m aware that there is a risk that they survey we mentioned a few posts ago might get lost.  I’d just like to remind everyone who has been affected by this to <em>please</em> take the survey. This will provide baseline information and we will be repeating it in a year to assess progress if any.<br><br>It helps us to pinpoint where more action is needed based on objective evidence. This is vital. <br><br>Please do take a few moments to let us know more about whether you were informed of the possibility of impulsive and compulsive behaviour when you started taking dopamine agonists and/or levodopa. <br><br>Again you can find it at: <a href=\"http://www.surveymonkey.com/s/icbsurvey2012\" target=\"_blank\">http://www.surveymonkey.com/s/icbsurvey2012</a><br><br>Thanks,<br>Ezinda<br><br>\n      </div>\n      <meta itemprop='interactionCount' content='UserLikes:0'>\n      <meta itemprop='interactionCount' content='UserComments:0'>\n      <meta itemprop='headline' content='Dopamine Agonists and catastrophic Obsessive/Compulsive Disorders (2)'>\n      <hr>\n  </div>\n  <div itemscope itemtype='http://schema.org/DiscussionForumPosting'>\n      <div class='creator'>\n        <span>\n          <a href='/u/spam95'><b itemprop='author'>spam95</b></a>\n          \n          <time datetime='2012-04-19T11:15:11Z' itemprop='datePublished'>\n            2012-04-19 11:15:11 UTC\n          </time>\n        </span>\n        <span itemprop='position'>#146</span>\n      </div>\n      <div class='post' itemprop='articleBody'>\n        Who's Sarah?\n      </div>\n      <meta itemprop='interactionCount' content='UserLikes:0'>\n      <meta itemprop='interactionCount' content='UserComments:0'>\n      <meta itemprop='headline' content='Dopamine Agonists and catastrophic Obsessive/Compulsive Disorders (2)'>\n      <hr>\n  </div>\n  <div itemscope itemtype='http://schema.org/DiscussionForumPosting'>\n      <div class='creator'>\n        <span>\n          <a href='/u/ezinda'><b itemprop='author'>ezinda</b></a>\n          \n          <time datetime='2012-04-19T11:40:56Z' itemprop='datePublished'>\n            2012-04-19 11:40:56 UTC\n          </time>\n        </span>\n        <span itemprop='position'>#147</span>\n      </div>\n      <div class='post' itemprop='articleBody'>\n        Hi spam95,<br>Sarah is the Impulsive and compulsive behaviour campaigns officer. She heads up Parkinson's UK's work in this area. <br><br>She will often post under the username 'ICB' but she will normally add her name (and sometimes her title) at the bottom of her posts so you know who is posting.<br><br>If you would ever like to contact her with a question, you can write to <a href=\"/cdn-cgi/l/email-protection#59303a3b1929382b3230372a36372a77362b3e772c32\" target=\"_blank\"><span class=\"__cf_email__\" data-cfemail=\"147d7776546475667f7d7a677b7a673a7b66733a617f\">[email&#160;protected]</span></a><br><br>I hope that helps.<br><br>Ezinda\n      </div>\n      <meta itemprop='interactionCount' content='UserLikes:0'>\n      <meta itemprop='interactionCount' content='UserComments:0'>\n      <meta itemprop='headline' content='Dopamine Agonists and catastrophic Obsessive/Compulsive Disorders (2)'>\n      <hr>\n  </div>\n  <div itemscope itemtype='http://schema.org/DiscussionForumPosting'>\n      <div class='creator'>\n        <span>\n          <a href='/u/Vivian'><b itemprop='author'>Vivian</b></a>\n          \n          <time datetime='2012-04-19T12:32:58Z' itemprop='datePublished'>\n            2012-04-19 12:32:58 UTC\n          </time>\n        </span>\n        <span itemprop='position'>#148</span>\n      </div>\n      <div class='post' itemprop='articleBody'>\n        Hi Ray,<br><br>I feel so sorry for you and all the others who have suffered with these drugs, my husband has had some of the problems but I have kept on top of things as much as I can and we have had arguments about his behaviour which we never had before PD.<br>I was lucky because the telephone people rang me to check the bill as it was so high all of a sudden, he was making premium calls in the night and he does suffer from hypersexuality to a certain degree which has caused us problems with carer's and still does is in the nursing home, the lack of understanding never ceases to amaze me. Now having lived with this disease for almost thirty years and to see him still struggling is really hard but all parkinsons's drug have these side effects after time for some people not just the agonists so please be aware of that for the future,unfortunately the researches are trying their best and when my husband was diagnosed most of pwp were put on too higher doses of dopermine so they tried the agonists first and we all know how that has been dreadful for some people but there are also many who are fine with them, it is such a difficult condition all round and I think you are all so brave you all need a huge hug every day to cope. I do hope that the medication can be improved soon to stop all these problems so keep battling on.<br>best wishes <br>vivian\n      </div>\n      <meta itemprop='interactionCount' content='UserLikes:0'>\n      <meta itemprop='interactionCount' content='UserComments:0'>\n      <meta itemprop='headline' content='Dopamine Agonists and catastrophic Obsessive/Compulsive Disorders (2)'>\n      <hr>\n  </div>\n  <div itemscope itemtype='http://schema.org/DiscussionForumPosting'>\n      <div class='creator'>\n        <span>\n          <a href='/u/blueeyes47'><b itemprop='author'>blueeyes47</b></a>\n          \n          <time datetime='2012-04-19T12:36:50Z' itemprop='datePublished'>\n            2012-04-19 12:36:50 UTC\n          </time>\n        </span>\n        <span itemprop='position'>#149</span>\n      </div>\n      <div class='post' itemprop='articleBody'>\n        hi ROS,<br><br>Following on from Sarah's earlier posting:<br><br>I can reassure you the campaign team are working with just about every organisation involved with the distribution, prescribing and management of dopamine agonists. With the objective to make sure they ALL up their game and better protect patients from any potential risk of side effects!  So then hopefully we can all move on! <br><br>The list includes all Neurologists and various other prescribing Clinicians. Along with the Pharmaceutical companies and the UK medicine regulatory authority. Plus the campaign team are busy developing partnerships with external specialist organisations who can help towards providing a better overall support package for anyone impacted by these impulsive and compulsive behaviour side effects. <br><br>Regards<br>Bluey\n      </div>\n      <meta itemprop='interactionCount' content='UserLikes:0'>\n      <meta itemprop='interactionCount' content='UserComments:0'>\n      <meta itemprop='headline' content='Dopamine Agonists and catastrophic Obsessive/Compulsive Disorders (2)'>\n      <hr>\n  </div>\n  <div itemscope itemtype='http://schema.org/DiscussionForumPosting'>\n      <div class='creator'>\n        <span>\n          <a href='/u/Vivian'><b itemprop='author'>Vivian</b></a>\n          \n          <time datetime='2012-04-19T12:36:51Z' itemprop='datePublished'>\n            2012-04-19 12:36:51 UTC\n          </time>\n        </span>\n        <span itemprop='position'>#150</span>\n      </div>\n      <div class='post' itemprop='articleBody'>\n        Hi Ray <br>just a PS I do feel that we have been completely robbed of our lives even though we have done our best to have as full a life as possible, but there is no getting away from it, it sucks as they say.\n      </div>\n      <meta itemprop='interactionCount' content='UserLikes:0'>\n      <meta itemprop='interactionCount' content='UserComments:0'>\n      <meta itemprop='headline' content='Dopamine Agonists and catastrophic Obsessive/Compulsive Disorders (2)'>\n      <hr>\n  </div>\n  <div itemscope itemtype='http://schema.org/DiscussionForumPosting'>\n      <div class='creator'>\n        <span>\n          <a href='/u/goldengirl'><b itemprop='author'>goldengirl</b></a>\n          \n          <time datetime='2012-04-19T15:05:36Z' itemprop='datePublished'>\n            2012-04-19 15:05:36 UTC\n          </time>\n        </span>\n        <span itemprop='position'>#151</span>\n      </div>\n      <div class='post' itemprop='articleBody'>\n        thanks for all the update info Sarah, Blue-eyes and Ezinda.<br>Just a thought, how are forum visitors meant to know there is a questionnaire unless they look back in thread posts?<br>GG\n      </div>\n      <meta itemprop='interactionCount' content='UserLikes:0'>\n      <meta itemprop='interactionCount' content='UserComments:0'>\n      <meta itemprop='headline' content='Dopamine Agonists and catastrophic Obsessive/Compulsive Disorders (2)'>\n      <hr>\n  </div>\n  <div itemscope itemtype='http://schema.org/DiscussionForumPosting'>\n      <div class='creator'>\n        <span>\n          <a href='/u/ray_of_sunshine'><b itemprop='author'>ray_of_sunshine</b></a>\n          \n          <time datetime='2012-04-19T17:53:29Z' itemprop='datePublished'>\n            2012-04-19 17:53:29 UTC\n          </time>\n        </span>\n        <span itemprop='position'>#152</span>\n      </div>\n      <div class='post' itemprop='articleBody'>\n        Thanks Vivian, sometimes one feels like just giving up. Deep Brain Stimulation has been suggested, but I'm too scared for that. Sounds rather macabre and irreversible to me - a bit \"mad professor-ish\".<br><br>Anyway, what time will you be round with my hug?<br><br>Ray.\n      </div>\n      <meta itemprop='interactionCount' content='UserLikes:0'>\n      <meta itemprop='interactionCount' content='UserComments:0'>\n      <meta itemprop='headline' content='Dopamine Agonists and catastrophic Obsessive/Compulsive Disorders (2)'>\n      <hr>\n  </div>\n  <div itemscope itemtype='http://schema.org/DiscussionForumPosting'>\n      <div class='creator'>\n        <span>\n          <a href='/u/Vivian'><b itemprop='author'>Vivian</b></a>\n          \n          <time datetime='2012-04-20T19:15:24Z' itemprop='datePublished'>\n            2012-04-20 19:15:24 UTC\n          </time>\n        </span>\n        <span itemprop='position'>#153</span>\n      </div>\n      <div class='post' itemprop='articleBody'>\n        Hi Ray,<br>I did reply to your last message but it seem to be lost somewhere, anyway I think it worth finding out a bit more about the DBS operation and checking out how many people on the forum have had it done who knows it may improve your quality of  life. Also it did say that we should all have a hug at 10am and 10pm to keep us going. <br>best wishes vivian\n      </div>\n      <meta itemprop='interactionCount' content='UserLikes:0'>\n      <meta itemprop='interactionCount' content='UserComments:0'>\n      <meta itemprop='headline' content='Dopamine Agonists and catastrophic Obsessive/Compulsive Disorders (2)'>\n      <hr>\n  </div>\n  <div itemscope itemtype='http://schema.org/DiscussionForumPosting'>\n      <div class='creator'>\n        <span>\n          <a href='/u/ray_of_sunshine'><b itemprop='author'>ray_of_sunshine</b></a>\n          \n          <time datetime='2012-04-20T19:30:12Z' itemprop='datePublished'>\n            2012-04-20 19:30:12 UTC\n          </time>\n        </span>\n        <span itemprop='position'>#154</span>\n      </div>\n      <div class='post' itemprop='articleBody'>\n        Thanks, I'll look into all 3 suggestions!<br><br><img src='/images/emoji/emoji_one/wink.png?v=3' alt=':wink:' title=':wink:' class='emoji' />\n      </div>\n      <meta itemprop='interactionCount' content='UserLikes:0'>\n      <meta itemprop='interactionCount' content='UserComments:0'>\n      <meta itemprop='headline' content='Dopamine Agonists and catastrophic Obsessive/Compulsive Disorders (2)'>\n      <hr>\n  </div>\n  <div itemscope itemtype='http://schema.org/DiscussionForumPosting'>\n      <div class='creator'>\n        <span>\n          <a href='/u/goldengirl'><b itemprop='author'>goldengirl</b></a>\n          \n          <time datetime='2012-04-21T10:06:13Z' itemprop='datePublished'>\n            2012-04-21 10:06:13 UTC\n          </time>\n        </span>\n        <span itemprop='position'>#155</span>\n      </div>\n      <div class='post' itemprop='articleBody'>\n        Posted - 19 Apr 2012 16:05<br>Report this post<br>thanks for all the update info Sarah, Blue-eyes and Ezinda. <br>Just a thought, how are forum visitors meant to know there is a questionnaire about the Da/OCD problems unless they look back in thread posts? <br>GG<br><br>Still wondering...<br>GG\n      </div>\n      <meta itemprop='interactionCount' content='UserLikes:0'>\n      <meta itemprop='interactionCount' content='UserComments:0'>\n      <meta itemprop='headline' content='Dopamine Agonists and catastrophic Obsessive/Compulsive Disorders (2)'>\n      <hr>\n  </div>\n  <div itemscope itemtype='http://schema.org/DiscussionForumPosting'>\n      <div class='creator'>\n        <span>\n          <a href='/u/goldengirl'><b itemprop='author'>goldengirl</b></a>\n          \n          <time datetime='2012-04-22T11:10:30Z' itemprop='datePublished'>\n            2012-04-22 11:10:30 UTC\n          </time>\n        </span>\n        <span itemprop='position'>#156</span>\n      </div>\n      <div class='post' itemprop='articleBody'>\n        Still wondering how people know there is a questionnaire around....\n      </div>\n      <meta itemprop='interactionCount' content='UserLikes:0'>\n      <meta itemprop='interactionCount' content='UserComments:0'>\n      <meta itemprop='headline' content='Dopamine Agonists and catastrophic Obsessive/Compulsive Disorders (2)'>\n      <hr>\n  </div>\n  <div itemscope itemtype='http://schema.org/DiscussionForumPosting'>\n      <div class='creator'>\n        <span>\n          <a href='/u/ray_of_sunshine'><b itemprop='author'>ray_of_sunshine</b></a>\n          \n          <time datetime='2012-04-22T12:30:25Z' itemprop='datePublished'>\n            2012-04-22 12:30:25 UTC\n          </time>\n        </span>\n        <span itemprop='position'>#157</span>\n      </div>\n      <div class='post' itemprop='articleBody'>\n        Hi GG.<br><br>The way this forum seems to work is:<br><br>(a) The moderators briefly scan all new posts to ensure there are no profanities or anything which may be considered bullying or aggressive. Also to check there are no instances of the mis-use of the upper case.<br><br>(b) If they're not very busy they may (<em>but with no obligation to do so</em> nor act upon the contents, whether addressed to them or not) read the posts properly, and get involved in the content. This could involve taking specific actions or contributing to debates, providing background information and links, and correcting any factual errors.<br><br>(c) Any specific actions a member wants the moderator to take, question needing answering or suggestion considered can only be <em>certain</em> of being seen - and responded to if appropriate - if <strong>raised via an email (</strong> (keep your copy) or PM (copy & paste to a store document before sending). I've found that you can go on posting and re-posting the same query <em>ad infinitum</em> and a response will never materialise. In most cases the moderator won't even have noticed or understood it.<br><br>Ray<br><br>.\n      </div>\n      <meta itemprop='interactionCount' content='UserLikes:0'>\n      <meta itemprop='interactionCount' content='UserComments:0'>\n      <meta itemprop='headline' content='Dopamine Agonists and catastrophic Obsessive/Compulsive Disorders (2)'>\n      <hr>\n  </div>\n  <div itemscope itemtype='http://schema.org/DiscussionForumPosting'>\n      <div class='creator'>\n        <span>\n          <a href='/u/spam95'><b itemprop='author'>spam95</b></a>\n          \n          <time datetime='2012-04-22T22:07:23Z' itemprop='datePublished'>\n            2012-04-22 22:07:23 UTC\n          </time>\n        </span>\n        <span itemprop='position'>#158</span>\n      </div>\n      <div class='post' itemprop='articleBody'>\n        I have generally found the moderators fair and well balanced and ...er...moderate!<br><br>Sorry\n      </div>\n      <meta itemprop='interactionCount' content='UserLikes:0'>\n      <meta itemprop='interactionCount' content='UserComments:0'>\n      <meta itemprop='headline' content='Dopamine Agonists and catastrophic Obsessive/Compulsive Disorders (2)'>\n      <hr>\n  </div>\n  <div itemscope itemtype='http://schema.org/DiscussionForumPosting'>\n      <div class='creator'>\n        <span>\n          <a href='/u/ray_of_sunshine'><b itemprop='author'>ray_of_sunshine</b></a>\n          \n          <time datetime='2012-04-23T00:40:53Z' itemprop='datePublished'>\n            2012-04-23 00:40:53 UTC\n          </time>\n        </span>\n        <span itemprop='position'>#159</span>\n      </div>\n      <div class='post' itemprop='articleBody'>\n        Me too.<br><br>My point was that we shouldn't rely on them to answer questions put to them on the forum.<br><br>The right way for us to contact them is by email, as per the guidelines.\n      </div>\n      <meta itemprop='interactionCount' content='UserLikes:0'>\n      <meta itemprop='interactionCount' content='UserComments:0'>\n      <meta itemprop='headline' content='Dopamine Agonists and catastrophic Obsessive/Compulsive Disorders (2)'>\n      <hr>\n  </div>\n  <div itemscope itemtype='http://schema.org/DiscussionForumPosting'>\n      <div class='creator'>\n        <span>\n          <a href='/u/ezinda'><b itemprop='author'>ezinda</b></a>\n          \n          <time datetime='2012-04-23T08:57:55Z' itemprop='datePublished'>\n            2012-04-23 08:57:55 UTC\n          </time>\n        </span>\n        <span itemprop='position'>#160</span>\n      </div>\n      <div class='post' itemprop='articleBody'>\n        Hi golden girl,<br>Thanks for your question.<br><br>It’s really important to remember that the forum is only one part of the charity and one service the organisation offers. If you rely only on the forum for all news and information about what is going on in the charity, you’ll miss a lot.<br><br>We’ve advertised the questionnaire as a news item on the front page of the website. As well, there is an article in the Parkinson magazine about the work of the ICB steering group along with information about the questionnaire. I will check in with the ICB steering group to see if there are other avenues that they are publicising this and get back to you. If you have other ideas about how we publicise it, do let us know. <br><br>Most of the community staff work normal office hours. We do have moderation outside of these hours but if you’re asking a question that needs input from Parkinson’s staff and you ask on a Friday evening or a Saturday, you may have to wait until Monday to get an answer. <br><br>I hope this helps. If there is more information, I will get back to you. Otherwise, if you have any other questions, please feel free to ask. <br><br>Ezinda<br>\n      </div>\n      <meta itemprop='interactionCount' content='UserLikes:0'>\n      <meta itemprop='interactionCount' content='UserComments:0'>\n      <meta itemprop='headline' content='Dopamine Agonists and catastrophic Obsessive/Compulsive Disorders (2)'>\n      <hr>\n  </div>\n\n  <div role='navigation' itemscope itemtype='http://schema.org/SiteNavigationElement'>\n      <span itemprop='name'><a rel=\"prev\" itemprop=\"url\" href=\"/t/dopamine-agonists-and-catastrophic-obsessive-compulsive-disorders-2/416?page=7\">← previous page</a></span>\n      <span itemprop='name'><b><a rel=\"next\" itemprop=\"url\" href=\"/t/dopamine-agonists-and-catastrophic-obsessive-compulsive-disorders-2/416?page=9\">next page →</a></b></span>\n  </div>\n\n\n\n\n\n    </div>\n    <footer class=\"container\">\n      <nav class='crawler-nav' itemscope itemtype='http://schema.org/SiteNavigationElement'>\n        <a href='/'>Home</a>\n        <a href=\"/categories\">Categories</a>\n        <a href=\"/guidelines\">FAQ/Guidelines</a>\n        <a href=\"/tos\">Terms of Service</a>\n        <a href=\"/privacy\">Privacy Policy</a>\n      </nav>\n      <p class='powered-by-link'>Powered by <a href=\"https://www.discourse.org\">Discourse</a>, best viewed with JavaScript enabled</p>\n    </footer>\n    \n  <script data-cfasync=\"false\" src=\"/cdn-cgi/scripts/5c5dd728/cloudflare-static/email-decode.min.js\"></script></body>\n  \n</html>\n",
  "url": "https://forum.parkinsons.org.uk/t/dopamine-agonists-and-catastrophic-obsessive-compulsive-disorders-2/416?page=8"
}