{
  "contentId": "fff2cb40-886f-11e9-8f96-97f71b5221d6",
  "html": "<!DOCTYPE html>\n<html lang=\"en\">\n  <head>\n    <meta charset=\"utf-8\">\n    <title>Libido - Impulsive and compulsive behaviour - Parkinson&#39;s UK Forum</title>\n    <meta name=\"description\" content=\"My libido must have increased 10 fold and if my family hadn&amp;#39;t noticed it would have been a disaster as i was lying through my teeth and very obsessive anybody else had this problem.\">\n    <meta name=\"author\" content=\"\">\n<meta name=\"generator\" content=\"Discourse 2.2.5 - https://github.com/discourse/discourse version c294ff3609f988dcafb742e91606d60ca13b794d\">\n<link rel=\"icon\" type=\"image/png\" href=\"https://forum.parkinsons.org.uk/uploads/db7928/original/2X/3/311fc84f89f49f38601a2f16b295b6f03d3ce5dd.jpg\">\n<link rel=\"apple-touch-icon\" type=\"image/png\" href=\"https://forum.parkinsons.org.uk/uploads/db7928/original/2X/3/311fc84f89f49f38601a2f16b295b6f03d3ce5dd.jpg\">\n<meta name=\"theme-color\" content=\"#ffffff\">\n<meta name=\"viewport\" content=\"width=device-width, minimum-scale=1.0, maximum-scale=1.0, user-scalable=yes\">\n<link rel=\"canonical\" href=\"https://forum.parkinsons.org.uk/t/libido/6762?page=3\" />\n<script type=\"application/ld+json\">{\"@context\":\"http://schema.org\",\"@type\":\"WebSite\",\"url\":\"https://forum.parkinsons.org.uk\",\"potentialAction\":{\"@type\":\"SearchAction\",\"target\":\"https://forum.parkinsons.org.uk/search?q={search_term_string}\",\"query-input\":\"required name=search_term_string\"}}</script>\n<link rel=\"search\" type=\"application/opensearchdescription+xml\" href=\"https://forum.parkinsons.org.uk/opensearch.xml\" title=\"Parkinson&#39;s UK Forum Search\">\n\n      <link href=\"/stylesheets/desktop_f99246ae801b083d3e4cca979d0dade8615b39ac.css?__ws=forum.parkinsons.org.uk\" media=\"all\" rel=\"stylesheet\" data-target=\"desktop\" data-theme-id=\"12\"/>\n      <link href=\"/stylesheets/desktop_theme_12_5d27531cf43f9df0c03a6a6ec3109dd05f9dfc49.css?__ws=forum.parkinsons.org.uk\" media=\"all\" rel=\"stylesheet\" data-target=\"desktop_theme\" data-theme-id=\"12\"/>\n    <link href=\"https://fonts.googleapis.com/css?family=Open+Sans\" rel=\"stylesheet\">\n\n    <meta id=\"data-ga-universal-analytics\" data-tracking-code=\"UA-4855628-1\" data-json=\"{&quot;cookieDomain&quot;:&quot;auto&quot;}\" data-auto-link-domains=\"\">\n\n<link rel='preload' href='/assets/google-universal-analytics-f35b4da49411e6f5559073523aab983da483976a3954c79c756f8579f6fbd6ef.js' as='script'/>\n<script src='/assets/google-universal-analytics-f35b4da49411e6f5559073523aab983da483976a3954c79c756f8579f6fbd6ef.js'></script>\n\n      <link rel=\"alternate\" type=\"application/rss+xml\" title=\"RSS feed of &#39;Libido&#39;\" href=\"https://forum.parkinsons.org.uk/t/libido/6762.rss\" />\n  <meta property=\"og:site_name\" content=\"Parkinson&#39;s UK Forum\" />\n<meta name=\"twitter:card\" content=\"summary\" />\n<meta name=\"twitter:image\" content=\"https://forum.parkinsons.org.uk/uploads/db7928/original/2X/3/311fc84f89f49f38601a2f16b295b6f03d3ce5dd.jpg\" />\n<meta property=\"og:image\" content=\"https://forum.parkinsons.org.uk/uploads/db7928/original/2X/3/311fc84f89f49f38601a2f16b295b6f03d3ce5dd.jpg\" />\n<meta property=\"og:url\" content=\"https://forum.parkinsons.org.uk/t/libido/6762?page=3\" />\n<meta name=\"twitter:url\" content=\"https://forum.parkinsons.org.uk/t/libido/6762?page=3\" />\n<meta property=\"og:title\" content=\"Libido\" />\n<meta name=\"twitter:title\" content=\"Libido\" />\n<meta property=\"og:description\" content=\"Hi Shelly, \r      I am also on madopar 125 now take it 4 times  a day and also 125 controlled release at night,this has helped with sleeping,the only other thing i am on is selegeline 10mg once a day,I have been diagnosed for 2 years now but definitely had PD before then,I have no tremor and am 72 years old.Perhaps you could mention the CR again,I would not like to be without it at night,hope this helps.  \r   regards  ANNE \r   \r   \r   \r   \r   \r  \" />\n<meta name=\"twitter:description\" content=\"Hi Shelly, \r      I am also on madopar 125 now take it 4 times  a day and also 125 controlled release at night,this has helped with sleeping,the only other thing i am on is selegeline 10mg once a day,I have been diagnosed for 2 years now but definitely had PD before then,I have no tremor and am 72 years old.Perhaps you could mention the CR again,I would not like to be without it at night,hope this helps.  \r   regards  ANNE \r   \r   \r   \r   \r   \r  \" />\n<meta property=\"article:published_time\" content=\"2014-03-24T11:59:47+00:00\" />\n<meta property=\"og:ignore_canonical\" content=\"true\" />\n\n      <link rel=\"prev\" href=\"/t/libido/6762?page=2\">\n      <link rel=\"next\" href=\"/t/libido/6762?page=4\">\n\n\n    \n  </head>\n  <body class=\"crawler\">\n    <header role=\"banner\">\n    <div class=\"region region-header\">\n        <div class=\"region-header-wrapper\">\n            <div id=\"block-parkinsons-d8-branding\" class=\"block block-system block-system-branding-block\">\n                <a href=\"/\" title=\"Home\" rel=\"home\" class=\"site-logo\">\n                    <img src=\"https://forum.parkinsons.org.uk/uploads/db7928/original/2X/8/862bb7d172e7d127e7f3e147ec43594aa62ac945.png\" alt=\"Parkinson's UK. Change Attitudes. Find a cure. Join us.\">\n                </a>\n            </div>\n            <div id=\"block-helpline\" class=\"block block-block-content block-block-content871cd5af-b938-4947-9dc0-d5c211d08fe3 style-phone\">\n                <div class=\"field field--name-field-link field--type-link field--label-hidden field__item\"><a href=\"tel:+448088000303\">Helpline 0808 800 0303</a></div>\n            </div>\n            <div id=\"block-shop\" class=\"block block-block-content block-block-content6fba5ae5-7797-49cd-8367-f321d8111cd6 style-regular\">\n                <div class=\"field field--name-field-link field--type-link field--label-hidden field__item\"><a href=\"https://shop.parkinsons.org.uk\">Shop</a></div>\n            </div>\n        </div>\n    </div>\n</header>\n\n\n<script src=\"/theme-javascripts/b7e9763fcb584fc8265c56a9f557cd6d2e1e8ed8.js?__ws=forum.parkinsons.org.uk\"></script>\n    <header>\n      <a href=\"/\">\n          <img src=\"https://forum.parkinsons.org.uk/uploads/db7928/original/2X/8/862bb7d172e7d127e7f3e147ec43594aa62ac945.png\" alt=\"Parkinson&#39;s UK Forum\" id=\"site-logo\" style=\"max-width: 150px;\">\n      </a>\n    </header>\n    <div id=\"main-outlet\" class=\"wrap\">\n      <h1>\n  <a href=\"/t/libido/6762\">Libido</a>\n</h1>\n\n<div id='breadcrumbs'>\n    <div id=\"breadcrumb-0\" itemscope itemtype=\"http://data-vocabulary.org/Breadcrumb\"\n        itemref=\"breadcrumb-1\"\n      >\n      <a href=\"/c/about-parkinsons-and-health\" itemprop=\"url\">\n        <span itemprop=\"title\">About Parkinson&#39;s and health</span>\n      </a>\n    </div>\n    <div id=\"breadcrumb-1\" itemscope itemtype=\"http://data-vocabulary.org/Breadcrumb\"\n>\n      <a href=\"/c/about-parkinsons-and-health/impulsive-and-compulsive-behaviour\" itemprop=\"url\">\n        <span itemprop=\"title\">Impulsive and compulsive behaviour</span>\n      </a>\n    </div>\n</div>\n\n\n\n\n\n<hr>\n\n\n  <div itemscope itemtype='http://schema.org/DiscussionForumPosting'>\n      <div class='creator'>\n        <span>\n          <a href='/u/ANNE29'><b itemprop='author'>ANNE29</b></a>\n          \n          <time datetime='2014-03-24T11:59:47Z' itemprop='datePublished'>\n            2014-03-24 11:59:47 UTC\n          </time>\n        </span>\n        <span itemprop='position'>#41</span>\n      </div>\n      <div class='post' itemprop='articleBody'>\n        <p>Hi Shelly,</p>\r\n<p>&nbsp;&nbsp;&nbsp;&nbsp; I am also on madopar 125 now take it 4 times&nbsp; a day and also 125 controlled release at night,this has helped with sleeping,the only other thing i am on is selegeline 10mg once a day,I have been diagnosed for 2 years now but definitely had PD before then,I have no tremor and am 72 years old.Perhaps you could mention the CR again,I would not like to be without it at night,hope this helps.&nbsp;</p>\r\n<p>&nbsp; regards&nbsp; ANNE</p>\r\n<p>&nbsp;</p>\r\n<p>&nbsp;</p>\r\n<p>&nbsp;</p>\r\n<p>&nbsp;</p>\r\n<p>&nbsp;</p>\r\n<p>&nbsp;</p>\n      </div>\n      <meta itemprop='interactionCount' content='UserLikes:0'>\n      <meta itemprop='interactionCount' content='UserComments:0'>\n      <meta itemprop='headline' content='Libido'>\n      <hr>\n  </div>\n  <div itemscope itemtype='http://schema.org/DiscussionForumPosting'>\n      <div class='creator'>\n        <span>\n          <a href='/u/glenchass'><b itemprop='author'>glenchass</b></a>\n          \n          <time datetime='2014-03-25T16:14:28Z' itemprop='datePublished'>\n            2014-03-25 16:14:28 UTC\n          </time>\n        </span>\n        <span itemprop='position'>#42</span>\n      </div>\n      <div class='post' itemprop='articleBody'>\n        <p>Hello Shelly. GG has given sound advice, I was one of those that developed a compulsive disorder whilst using Requipt/ Ropinerole. Over a period of three years I had spent all of our savings and&nbsp;I had so many credit cards it was obscene and&nbsp; suffered badly at withdrawal from the DA,s..</p>\r\n<p>I.think that you have made the right decision not to accept them and agree with GG about the dispersible Modopar, I too use this during the night and if I have any withdrawals during the day. It works very quickly and I see the results within minutes..</p>\r\n<p>I wish you luck on your journey, please keep us informed&nbsp;of your progress?</p>\r\n<p>regards</p>\r\n<p>Glenchass</p>\r\n<p>&nbsp;</p>\n      </div>\n      <meta itemprop='interactionCount' content='UserLikes:0'>\n      <meta itemprop='interactionCount' content='UserComments:0'>\n      <meta itemprop='headline' content='Libido'>\n      <hr>\n  </div>\n  <div itemscope itemtype='http://schema.org/DiscussionForumPosting'>\n      <div class='creator'>\n        <span>\n          <a href='/u/sheffy'><b itemprop='author'>sheffy</b></a>\n          \n          <time datetime='2014-03-25T20:32:11Z' itemprop='datePublished'>\n            2014-03-25 20:32:11 UTC\n          </time>\n        </span>\n        <span itemprop='position'>#43</span>\n      </div>\n      <div class='post' itemprop='articleBody'>\n        <p>&nbsp;</p>\r\n<p>Hi Titan</p>\r\n<p>I am one of the DA &#39;army&#39;, I have been on Ropinirole since I was prescribed meds which was August 2013. I am one of one of the lucky ones where I have not had any side effects. I take 4mg once a day, but I don&#39;t&nbsp;know if it would effect me if the dose was increased, only time will tell, I take nothing for granted.</p>\r\n<p>&nbsp;</p>\r\n<p>&nbsp;</p>\r\n<p>Sheila</p>\r\n<p>&nbsp;</p>\n      </div>\n      <meta itemprop='interactionCount' content='UserLikes:0'>\n      <meta itemprop='interactionCount' content='UserComments:0'>\n      <meta itemprop='headline' content='Libido'>\n      <hr>\n  </div>\n  <div itemscope itemtype='http://schema.org/DiscussionForumPosting'>\n      <div class='creator'>\n        <span>\n          <a href='/u/fedexlike'><b itemprop='author'>fedexlike</b></a>\n          \n          <time datetime='2014-03-25T20:37:00Z' itemprop='datePublished'>\n            2014-03-25 20:37:00 UTC\n          </time>\n        </span>\n        <span itemprop='position'>#44</span>\n      </div>\n      <div class='post' itemprop='articleBody'>\n        <p>&nbsp;</p>\r\n<p>&nbsp;&nbsp;&nbsp;&nbsp;&nbsp;&nbsp;&nbsp;&nbsp;&nbsp;&nbsp;&nbsp;&nbsp;&nbsp;Hello Shel.</p>\r\n<p>&nbsp;&nbsp;&nbsp;&nbsp;&nbsp;</p>\r\n<p>&nbsp;&nbsp;&nbsp;&nbsp;&nbsp;&nbsp;&nbsp;&nbsp;&nbsp;&nbsp;&nbsp;&nbsp;&nbsp;&nbsp;&nbsp;&nbsp;&nbsp;&nbsp; Give my best to J Best of all Best things to yourself also,,,sorry I just cant resist&nbsp; I HAVE JUST PUT TOGETHER A EXTENSIVE POST TO YOU SHEL VERY DETAILED AND INFORMATIVE I WAS ABOUT TO SEND OR SAVE AND IT EVAPORATED IT REALLY DOES P????SS ME OFF BIG TIME, sorry but it does&nbsp;&nbsp;&nbsp;&nbsp;&nbsp;&nbsp;&nbsp;&nbsp;&nbsp;&nbsp;&nbsp;&nbsp;&nbsp;&nbsp;&nbsp;&nbsp;&nbsp;&nbsp;&nbsp;&nbsp;&nbsp;&nbsp;&nbsp; Kindest Regards&nbsp;&nbsp;&nbsp;&nbsp;&nbsp;&nbsp;&nbsp;&nbsp;&nbsp;&nbsp;&nbsp; FED</p>\n      </div>\n      <meta itemprop='interactionCount' content='UserLikes:0'>\n      <meta itemprop='interactionCount' content='UserComments:0'>\n      <meta itemprop='headline' content='Libido'>\n      <hr>\n  </div>\n  <div itemscope itemtype='http://schema.org/DiscussionForumPosting'>\n      <div class='creator'>\n        <span>\n          <a href='/u/Bambi'><b itemprop='author'>Bambi</b></a>\n          \n          <time datetime='2014-03-25T20:43:14Z' itemprop='datePublished'>\n            2014-03-25 20:43:14 UTC\n          </time>\n        </span>\n        <span itemprop='position'>#45</span>\n      </div>\n      <div class='post' itemprop='articleBody'>\n        <p>Hi Titan and Sheila,</p>\r\n<p><span style=\"line-height: 1.4;\">I take </span>4mg<span style=\"line-height: 1.4;\"> </span><span style=\"line-height: 1.4;\">of </span>Requip<span style=\"line-height: 1.4;\">&nbsp;a day, </span><span style=\"line-height: 1.4;\">which I have been </span><span style=\"line-height: 1.4;\">on since mid </span>Feb<span style=\"line-height: 1.4;\"> this year.</span></p>\r\n<p>Sheila I agree with you I am one of the lucky ones, but who knows what the future holds, I only know it&#39;s working for me at the moment so I am going to keep on with it while I have some quality of life.</p>\r\n<p>Bambi</p>\n      </div>\n      <meta itemprop='interactionCount' content='UserLikes:0'>\n      <meta itemprop='interactionCount' content='UserComments:0'>\n      <meta itemprop='headline' content='Libido'>\n      <hr>\n  </div>\n  <div itemscope itemtype='http://schema.org/DiscussionForumPosting'>\n      <div class='creator'>\n        <span>\n          <a href='/u/goldengirl'><b itemprop='author'>goldengirl</b></a>\n          \n          <time datetime='2014-03-25T21:22:06Z' itemprop='datePublished'>\n            2014-03-25 21:22:06 UTC\n          </time>\n        </span>\n        <span itemprop='position'>#46</span>\n      </div>\n      <div class='post' itemprop='articleBody'>\n        <p>I am sure 4 mg a day is a safe dose of Requip.</p>\r\n<p>My husband was on 36 mg for the last 3 years of his secret life.. And had taken more than the 24 mg a day maximum for many years.</p>\r\n<p>His then neurologist tried to up it to 40 &nbsp;and boasted of having patients on 50 mg.</p>\r\n<p>Research shows the risk increases with dose and hopefully the days of over prescription are over.</p>\r\n<p>Just make sure someone close to you keeps an eye out for unexplained behaviour changes and try not to worry about the future.</p>\r\n<p>Many new treatments are in the pipeline.</p>\r\n<p>Love</p>\r\n<p>GG</p>\n      </div>\n      <meta itemprop='interactionCount' content='UserLikes:0'>\n      <meta itemprop='interactionCount' content='UserComments:0'>\n      <meta itemprop='headline' content='Libido'>\n      <hr>\n  </div>\n  <div itemscope itemtype='http://schema.org/DiscussionForumPosting'>\n      <div class='creator'>\n        <span>\n          <a href='/u/titan'><b itemprop='author'>titan</b></a>\n          \n          <time datetime='2014-03-25T23:03:11Z' itemprop='datePublished'>\n            2014-03-25 23:03:11 UTC\n          </time>\n        </span>\n        <span itemprop='position'>#47</span>\n      </div>\n      <div class='post' itemprop='articleBody'>\n        <p>Hi,</p>\r\n<p>&nbsp; &nbsp; Again my view has been taken off.Now I know why I don&#39;t post anymore.Everything is one sided.</p>\r\n<p>&nbsp; &nbsp; &nbsp; &nbsp; &nbsp; &nbsp; &nbsp; &nbsp; &nbsp; &nbsp; &nbsp; &nbsp; &nbsp; &nbsp; &nbsp; &nbsp; &nbsp; &nbsp; &nbsp; &nbsp; &nbsp; &nbsp; &nbsp; &nbsp; &nbsp; &nbsp; Titan</p>\n      </div>\n      <meta itemprop='interactionCount' content='UserLikes:0'>\n      <meta itemprop='interactionCount' content='UserComments:1'>\n      <meta itemprop='headline' content='Libido'>\n      <hr>\n  </div>\n  <div itemscope itemtype='http://schema.org/DiscussionForumPosting'>\n      <div class='creator'>\n        <span>\n          <a href='/u/ezinda'><b itemprop='author'>ezinda</b></a>\n          \n          <time datetime='2014-03-26T07:42:44Z' itemprop='datePublished'>\n            2014-03-26 07:42:44 UTC\n          </time>\n        </span>\n        <span itemprop='position'>#48</span>\n      </div>\n      <div class='post' itemprop='articleBody'>\n        Hi titan,\r\nIt's not clear from your message whether you think your post has been removed by the moderators. I'd just like to say that we haven't removed anything but spam from this forum for some time.\r\n\r\nI think we've had a similar situation in the past. Again, if you think something had been removed please send us an email pointing out what that is.\r\n\r\nThanks,\r\nEzinda\n      </div>\n      <meta itemprop='interactionCount' content='UserLikes:0'>\n      <meta itemprop='interactionCount' content='UserComments:0'>\n      <meta itemprop='headline' content='Libido'>\n      <hr>\n  </div>\n  <div itemscope itemtype='http://schema.org/DiscussionForumPosting'>\n      <div class='creator'>\n        <span>\n          <a href='/u/shelly65'><b itemprop='author'>shelly65</b></a>\n          \n          <time datetime='2014-03-27T00:40:08Z' itemprop='datePublished'>\n            2014-03-27 00:40:08 UTC\n          </time>\n        </span>\n        <span itemprop='position'>#49</span>\n      </div>\n      <div class='post' itemprop='articleBody'>\n        <p>Thank you Glenchass i will and i am definately sticking to my guns where the DA&#39;s are concerned</p>\n      </div>\n      <meta itemprop='interactionCount' content='UserLikes:0'>\n      <meta itemprop='interactionCount' content='UserComments:0'>\n      <meta itemprop='headline' content='Libido'>\n      <hr>\n  </div>\n  <div itemscope itemtype='http://schema.org/DiscussionForumPosting'>\n      <div class='creator'>\n        <span>\n          <a href='/u/titan'><b itemprop='author'>titan</b></a>\n          \n          <time datetime='2014-03-27T14:35:09Z' itemprop='datePublished'>\n            2014-03-27 14:35:09 UTC\n          </time>\n        </span>\n        <span itemprop='position'>#50</span>\n      </div>\n      <div class='post' itemprop='articleBody'>\n        <p>Hi,</p>\r\n<p>&nbsp; &nbsp; Thanks Ezinda.I will try again,with this revised,toned down version.</p>\r\n<div>Hi,</div>\r\n<div>&nbsp; &nbsp; &nbsp;The thing is.Most pwp who have come off DA&#39;S still yearn for those moments,when,they at least felt alive.There is a sort of &quot;post DA jealousy&quot;by many.This is when a pwp on DA&#39;s is harassed to the point of victimisation by the anti-DA brigade.</div>\r\n<div>&nbsp; &nbsp; &nbsp;To start Levodopa based treatment when diagnosed with young onset parkinsons,instead of DA&#39;s,is a probable slippery slope to earlier alternate complications and side effects.</div>\r\n<div>&nbsp; &nbsp; &nbsp;Some pwp have been targeted,then persecuted to the ends of pd world by pd seekers of justice and jealousy.Hunted down and repeatedly abused across the forums,for what?,having fun,LIVING.A new lease of life.Granted,there can be extremes.However,everybody should not be tarred by the same brush.</div>\r\n<div>&nbsp; &nbsp; &nbsp; Some pwp who have gone through DA problems are convinced that everybody will have the same issues.When this is not always the case.Even to the point when they make phone calls,stirring up trouble.When the partners of the person taking DA&#39;s are advised of the apparent terrible behaviour of their apparently DA addled loved one.This happened to me.They basically tried to break up my marriage.This interfering on a massive personal scale should not be condoned.</div>\r\n<div>&nbsp; &nbsp; &nbsp; But these same outspoken people who rally against DA&#39;s,sit as we speak,safe and snug and bored to tears,in their drab worn out armchairs,hovering over their overheating laptops.Delving deep into each newbies credentials.To swoop like vultures,hoping to turn once lively pwp into dejected sad reflections of themselves.</div>\r\n<div>&nbsp; &nbsp; &nbsp; This makes them happy.One of the few thrills they now have.</div>\r\n<div>&nbsp; &nbsp; &nbsp; I say,take the DA&#39;s,enjoy them to the max.Granted,be aware of extremes. You only have One life.</div>\r\n<div>&nbsp; &nbsp; &nbsp; &nbsp; &nbsp; &nbsp; &nbsp; &nbsp; &nbsp;&quot;DA or Die,before Levodopa try&quot;</div>\r\n<div>&nbsp; &nbsp; &nbsp; &nbsp; &nbsp; &nbsp; &nbsp; &nbsp; &nbsp; &nbsp; &nbsp; Titan &nbsp; &nbsp;&nbsp;</div>\r\n<div>&nbsp;</div>\n      </div>\n      <meta itemprop='interactionCount' content='UserLikes:0'>\n      <meta itemprop='interactionCount' content='UserComments:0'>\n      <meta itemprop='headline' content='Libido'>\n      <hr>\n  </div>\n  <div itemscope itemtype='http://schema.org/DiscussionForumPosting'>\n      <div class='creator'>\n        <span>\n          <a href='/u/goldengirl'><b itemprop='author'>goldengirl</b></a>\n          \n          <time datetime='2014-03-27T17:08:46Z' itemprop='datePublished'>\n            2014-03-27 17:08:46 UTC\n          </time>\n        </span>\n        <span itemprop='position'>#51</span>\n      </div>\n      <div class='post' itemprop='articleBody'>\n        <p>Hi Titan</p>\r\n<p>You are entitled to have your own point of view but I do not think it acceptable to attack those who try to help those in the grip of DA-induced OCDs. I , and the other sufferers with whom I have contact, have never interfered in the lives of others, neither are we smug, bored to tears, sitting in worn out armchairs,swooping like vultures on newbies&nbsp; ,dejected and sad etcetera.</p>\r\n<p>I have no idea how you have arrived at the belief that interference on a massive scale is taking place , committed by a band of jealous PWPs.</p>\r\n<p>I do however know that many patients on DAs become paranoid. My husband accused members of his family of conspiring to have him sectioned and locked away.</p>\r\n<p>He now thanks us for seeking help for him and supporting him through withdrawal to eventually see his Requip-fuelled activities as destructive of the life he had lived &nbsp;to which he has now returned as a loved husband, father and grandfather.</p>\r\n<p>You urge PWPs to take the DAs and enjoy them to the max.</p>\r\n<p>Do you really mean that ? Do you believe neuros&nbsp;should not warn and partners &nbsp;not&nbsp;monitor...that the thrills experienced by the DA addicted override the suffering of the family and friends?</p>\r\n<p>I am sad that you feel such venom for damaged sufferers who want to help others avoid the terrible emotional and financial damage they have had to face.</p>\r\n<p>GG</p>\r\n<p>&nbsp;</p>\n      </div>\n      <meta itemprop='interactionCount' content='UserLikes:0'>\n      <meta itemprop='interactionCount' content='UserComments:0'>\n      <meta itemprop='headline' content='Libido'>\n      <hr>\n  </div>\n  <div itemscope itemtype='http://schema.org/DiscussionForumPosting'>\n      <div class='creator'>\n        <span>\n          <a href='/u/titan'><b itemprop='author'>titan</b></a>\n          \n          <time datetime='2014-03-28T20:56:20Z' itemprop='datePublished'>\n            2014-03-28 20:56:20 UTC\n          </time>\n        </span>\n        <span itemprop='position'>#52</span>\n      </div>\n      <div class='post' itemprop='articleBody'>\n        <p>Hi goldengirl,</p>\r\n<p>&nbsp; &nbsp; &nbsp; &nbsp; &nbsp; &nbsp; &nbsp;With sadness,I can categorically&nbsp;say that I was harassed and victimised.My Wife was contacted and &nbsp;upset by more than one person via our land line phone.Plus I was verbally abused by a group of pwp who should know better.The thing is,I know I am not the only person this has happened to.My Wife has read my last two postings on this thread and fully agrees.</p>\r\n<p><span style=\"line-height: 1.4;\">&nbsp; &nbsp; &nbsp; &nbsp; &nbsp; &nbsp; &nbsp;Maybe you are totally unaware of this goldengirl.The thing is,this should not be allowed to take place or condoned.The fact is though it has.Not by just one person,but a collective.I worry about other </span>pwp<span style=\"line-height: 1.4;\"> on DA&#39;s that could possibly be going through the same heartache as we speak.&nbsp;</span></p>\r\n<p><span style=\"line-height: 1.4;\">&nbsp; &nbsp; &nbsp; &nbsp; &nbsp; &nbsp; &nbsp; I am upset.Let down would be a more apt description.I speak the truth though and would swear by oath.If people like myself don&#39;t speak out,who is to know if they are not part of it.It actually destroys the good work that genuine pwp&nbsp;and their families do in highlighting awareness in a constructive way.</span></p>\r\n<p><span style=\"line-height: 1.4;\">&nbsp; &nbsp; &nbsp; &nbsp; &nbsp; &nbsp; &nbsp; I wish yourself and your partner all the best for the future</span></p>\r\n<p><span style=\"line-height: 1.4;\">&nbsp; &nbsp; &nbsp; &nbsp; &nbsp; &nbsp; &nbsp; &nbsp; &nbsp; &nbsp; &nbsp; &nbsp; &nbsp; &nbsp; &nbsp; &nbsp; &nbsp; &nbsp; &nbsp; &nbsp; &nbsp;Titan</span></p>\n      </div>\n      <meta itemprop='interactionCount' content='UserLikes:0'>\n      <meta itemprop='interactionCount' content='UserComments:0'>\n      <meta itemprop='headline' content='Libido'>\n      <hr>\n  </div>\n  <div itemscope itemtype='http://schema.org/DiscussionForumPosting'>\n      <div class='creator'>\n        <span>\n          <a href='/u/goldengirl'><b itemprop='author'>goldengirl</b></a>\n          \n          <time datetime='2014-03-28T21:45:53Z' itemprop='datePublished'>\n            2014-03-28 21:45:53 UTC\n          </time>\n        </span>\n        <span itemprop='position'>#53</span>\n      </div>\n      <div class='post' itemprop='articleBody'>\n        <p>Oh Titan</p>\r\n<p>I have no knowledge of this behaviour.</p>\r\n<p>I cannot understand how or why other PwPs would treat you in this way.</p>\r\n<p>How on earth have people found your phone number and what do they accuse you of?</p>\r\n<p>You must get PUK&nbsp;to intervene if these people trace you in some way through the forum.</p>\r\n<p>i have only found information, helpful advice and wonderful support from forum members and try to offer the same to others who post that they find themselves trapped in the horror that my husband and I found ourselves in.</p>\r\n<p>I only wish that you could find this too.</p>\r\n<p>Love</p>\r\n<p>GG</p>\r\n<p>&nbsp;</p>\n      </div>\n      <meta itemprop='interactionCount' content='UserLikes:0'>\n      <meta itemprop='interactionCount' content='UserComments:0'>\n      <meta itemprop='headline' content='Libido'>\n      <hr>\n  </div>\n  <div itemscope itemtype='http://schema.org/DiscussionForumPosting'>\n      <div class='creator'>\n        <span>\n          <a href='/u/titan'><b itemprop='author'>titan</b></a>\n          \n          <time datetime='2014-04-01T14:54:13Z' itemprop='datePublished'>\n            2014-04-01 14:54:13 UTC\n          </time>\n        </span>\n        <span itemprop='position'>#54</span>\n      </div>\n      <div class='post' itemprop='articleBody'>\n        <p>Hi goldengirl,</p>\r\n<p>&nbsp; &nbsp; &nbsp; &nbsp; &nbsp; &nbsp;Have had to give this reply serious consideration,thus the few days before response.I am afraid using names or commenting on activity which extends beyond the boundaries of PDUK is not allowed on the forum.Let&#39;s just say,it is possibly one of the main reasons why PDUK&nbsp;do not operate a chatroom&nbsp;facility.It can be open to abuse,misunderstandings and upset.Moreso,when the big fish outnumber the small.The big fish being also the ones in control.If this makes sense to you.</p>\r\n<p>&nbsp; &nbsp; &nbsp; &nbsp; &nbsp; &nbsp; &nbsp;Sorry for being so cryptic</p>\r\n<p>&nbsp; &nbsp; &nbsp; &nbsp; &nbsp; &nbsp; &nbsp; &nbsp; &nbsp; &nbsp; &nbsp; &nbsp; &nbsp; &nbsp; Take care</p>\r\n<p>&nbsp; &nbsp; &nbsp; &nbsp; &nbsp; &nbsp; &nbsp; &nbsp; &nbsp; &nbsp; &nbsp; &nbsp; &nbsp; &nbsp; &nbsp; &nbsp; &nbsp; &nbsp;Titan</p>\n      </div>\n      <meta itemprop='interactionCount' content='UserLikes:0'>\n      <meta itemprop='interactionCount' content='UserComments:0'>\n      <meta itemprop='headline' content='Libido'>\n      <hr>\n  </div>\n  <div itemscope itemtype='http://schema.org/DiscussionForumPosting'>\n      <div class='creator'>\n        <span>\n          <a href='/u/goldengirl'><b itemprop='author'>goldengirl</b></a>\n          \n          <time datetime='2014-04-01T15:38:01Z' itemprop='datePublished'>\n            2014-04-01 15:38:01 UTC\n          </time>\n        </span>\n        <span itemprop='position'>#55</span>\n      </div>\n      <div class='post' itemprop='articleBody'>\n        <p>Dearest Titan</p>\r\n<p>I can only repeat that I have no knowledge of these activities.</p>\r\n<p>We all have so much to cope with that it horrifies me that anyone would want to add to the burden.</p>\r\n<p>You know that if you ever want information or support in overcoming the tragedy of&nbsp;DA/OCDs, you know I will do my best to help, as will many others on this site.</p>\r\n<p>Love</p>\r\n<p>GG</p>\n      </div>\n      <meta itemprop='interactionCount' content='UserLikes:0'>\n      <meta itemprop='interactionCount' content='UserComments:0'>\n      <meta itemprop='headline' content='Libido'>\n      <hr>\n  </div>\n  <div itemscope itemtype='http://schema.org/DiscussionForumPosting'>\n      <div class='creator'>\n        <span>\n          <a href='/u/titan'><b itemprop='author'>titan</b></a>\n          \n          <time datetime='2014-04-01T16:57:08Z' itemprop='datePublished'>\n            2014-04-01 16:57:08 UTC\n          </time>\n        </span>\n        <span itemprop='position'>#56</span>\n      </div>\n      <div class='post' itemprop='articleBody'>\n        <p>Thanks GG</p>\r\n<p>&nbsp; &nbsp; &nbsp; &nbsp;Titan</p>\n      </div>\n      <meta itemprop='interactionCount' content='UserLikes:0'>\n      <meta itemprop='interactionCount' content='UserComments:0'>\n      <meta itemprop='headline' content='Libido'>\n      <hr>\n  </div>\n  <div itemscope itemtype='http://schema.org/DiscussionForumPosting'>\n      <div class='creator'>\n        <span>\n          <a href='/u/fedexlike'><b itemprop='author'>fedexlike</b></a>\n          \n          <time datetime='2014-04-10T00:13:17Z' itemprop='datePublished'>\n            2014-04-10 00:13:17 UTC\n          </time>\n        </span>\n        <span itemprop='position'>#57</span>\n      </div>\n      <div class='post' itemprop='articleBody'>\n        <p>&nbsp;</p>\r\n<p>&nbsp;&nbsp;&nbsp;&nbsp;&nbsp;&nbsp;&nbsp;&nbsp;&nbsp;&nbsp;&nbsp;&nbsp; My life was in total turmoil marriage almost wrecked as a result of CABERGOLINE , oh it was fun at&nbsp; first but as I became more and more Hyper sonic sexual, thats when it became dangerous, I was told to cut out&nbsp; the C,,,line and within 2 days normality returned, I had endured the worst side effects yet had no&nbsp; phone calls abusive or otherwise the only people who ring me up are the medics taking time out to check if I am ok all symptoms of O C B have faded, oh I sometimes buy something that I have wanted for ages, but your only here once , and you cant take it with you , this post is to all who have been through bad times as a result of&nbsp; anti parky drugs,I know there are many.</p>\r\n<p>&nbsp;&nbsp;&nbsp;&nbsp;&nbsp;&nbsp;&nbsp;&nbsp;&nbsp;&nbsp;&nbsp;&nbsp;&nbsp;&nbsp;&nbsp;&nbsp;&nbsp;&nbsp;&nbsp;&nbsp;&nbsp;&nbsp;&nbsp;&nbsp;&nbsp;&nbsp;&nbsp;&nbsp;&nbsp;&nbsp;&nbsp;&nbsp;&nbsp;&nbsp;&nbsp;&nbsp;&nbsp;&nbsp;&nbsp;&nbsp;&nbsp;&nbsp;&nbsp;&nbsp;&nbsp;&nbsp;&nbsp;&nbsp;&nbsp;&nbsp;&nbsp;&nbsp;&nbsp;&nbsp;&nbsp;&nbsp;&nbsp;&nbsp;&nbsp;&nbsp;&nbsp;&nbsp; Fed</p>\n      </div>\n      <meta itemprop='interactionCount' content='UserLikes:0'>\n      <meta itemprop='interactionCount' content='UserComments:0'>\n      <meta itemprop='headline' content='Libido'>\n      <hr>\n  </div>\n  <div itemscope itemtype='http://schema.org/DiscussionForumPosting'>\n      <div class='creator'>\n        <span>\n          <a href='/u/fedexlike'><b itemprop='author'>fedexlike</b></a>\n          \n          <time datetime='2014-05-07T09:32:00Z' itemprop='datePublished'>\n            2014-05-07 09:32:00 UTC\n          </time>\n        </span>\n        <span itemprop='position'>#58</span>\n      </div>\n      <div class='post' itemprop='articleBody'>\n        <p>SEXY there I bet that caught your eye?</p>\r\n<p>&nbsp;&nbsp; Hello my friends, well I dont know if this is good or bad but there has been a worrying&nbsp; change in my libido, I am experiencing dangerous desires for my wife and after so long with&nbsp; no passion she just does not want to know, we are a team united against the common foe, BLACKHEART but the only time we are close is when the attachment or unattachment of Duodopa takes place, my body and more importantly my mind does appear to be going down the OCD route, the last time I had these feelings about my lovely beautiful&nbsp; wife,she was happy to go along with my ever more adventurous requests until it got completely crazy, I was, each day living a porn video, my beloved also felt as if she was a sex object and I almost lost her to a friend who offered a shoulder and a bed, say no more, now those outrageous feelings are re asserting themselves, beloved is not interested which is to be expected and I must respect her and the boundaries &nbsp;she has created, life can be so cruel in so many ways, I long to hold her in my arms I yearn for the passionate kisses we used to share, alas it will not happen she has made it perfectly clear that any sexual activity between us is over, I am sad but will now concentrate on other aspects of my life, I do not want these overtly sexual desires taking me down that route which leads to divorce, has anyone else found themselves in this confusing and upsetting situation.</p>\r\n<p>&nbsp;&nbsp;&nbsp;&nbsp;&nbsp;&nbsp;&nbsp;&nbsp;&nbsp;&nbsp;&nbsp;&nbsp;&nbsp;&nbsp;&nbsp;&nbsp;&nbsp;&nbsp;&nbsp;&nbsp;&nbsp;&nbsp;&nbsp;&nbsp;&nbsp;&nbsp;&nbsp;&nbsp;&nbsp;&nbsp;&nbsp;&nbsp;&nbsp;&nbsp;&nbsp;&nbsp;&nbsp; Kindest Regards&nbsp;&nbsp;&nbsp;&nbsp;&nbsp;&nbsp;&nbsp;&nbsp; FRUSTRATEDFED???</p>\n      </div>\n      <meta itemprop='interactionCount' content='UserLikes:0'>\n      <meta itemprop='interactionCount' content='UserComments:0'>\n      <meta itemprop='headline' content='Libido'>\n      <hr>\n  </div>\n  <div itemscope itemtype='http://schema.org/DiscussionForumPosting'>\n      <div class='creator'>\n        <span>\n          <a href='/u/carolineb211'><b itemprop='author'>carolineb211</b></a>\n          \n          <time datetime='2014-05-08T18:31:26Z' itemprop='datePublished'>\n            2014-05-08 18:31:26 UTC\n          </time>\n        </span>\n        <span itemprop='position'>#59</span>\n      </div>\n      <div class='post' itemprop='articleBody'>\n        <p>Oh Fed</p>\r\n<p>I am so sorry,</p>\r\n<p>I know how I felt when I was on the Requip and sex became an absolutely obsessive necessity rather than just a pleasure, thank goodness my husband was very understanding and our relationship survived intact.</p>\r\n<p>Now I am off the stuff and on Madopar things in that department have gone back to the pre Requip level thank goodness and sex is back to being somewhat less frequent but much more pleasurable for us both..</p>\r\n<p>I imagine it must be very difficult to feel such desire for your wife but not able to do anything about it, It must be torture.</p>\r\n<p>&nbsp;</p>\r\n<p>Thinking of you</p>\r\n<p>&nbsp;</p>\r\n<p>Caroline</p>\r\n<p>x</p>\n      </div>\n      <meta itemprop='interactionCount' content='UserLikes:0'>\n      <meta itemprop='interactionCount' content='UserComments:0'>\n      <meta itemprop='headline' content='Libido'>\n      <hr>\n  </div>\n  <div itemscope itemtype='http://schema.org/DiscussionForumPosting'>\n      <div class='creator'>\n        <span>\n          <a href='/u/fedexlike'><b itemprop='author'>fedexlike</b></a>\n          \n          <time datetime='2014-05-09T11:06:28Z' itemprop='datePublished'>\n            2014-05-09 11:06:28 UTC\n          </time>\n        </span>\n        <span itemprop='position'>#60</span>\n      </div>\n      <div class='post' itemprop='articleBody'>\n        <p>&nbsp;</p>\r\n<p>&nbsp; Thankyou Caroline, I am just about to go to NTGH&nbsp; for Physio so will post a more deserving mail&nbsp; upon return</p>\r\n<p>&nbsp;&nbsp;&nbsp;&nbsp;&nbsp;&nbsp;&nbsp;&nbsp;&nbsp;&nbsp;&nbsp;&nbsp;&nbsp;&nbsp;&nbsp;&nbsp;&nbsp;&nbsp;&nbsp;&nbsp;&nbsp;&nbsp;&nbsp;&nbsp;&nbsp;&nbsp;&nbsp;&nbsp;&nbsp;&nbsp;&nbsp;&nbsp;&nbsp;&nbsp;&nbsp;&nbsp;&nbsp;&nbsp;&nbsp;&nbsp;&nbsp;&nbsp;&nbsp;&nbsp;&nbsp;&nbsp;&nbsp;&nbsp;&nbsp;&nbsp;&nbsp;&nbsp;&nbsp;&nbsp;&nbsp;&nbsp;&nbsp;&nbsp;&nbsp;&nbsp;&nbsp;&nbsp;&nbsp;&nbsp;Kindest Regards&nbsp;&nbsp;&nbsp; FED</p>\n      </div>\n      <meta itemprop='interactionCount' content='UserLikes:0'>\n      <meta itemprop='interactionCount' content='UserComments:0'>\n      <meta itemprop='headline' content='Libido'>\n      <hr>\n  </div>\n\n  <div role='navigation' itemscope itemtype='http://schema.org/SiteNavigationElement'>\n      <span itemprop='name'><a rel=\"prev\" itemprop=\"url\" href=\"/t/libido/6762?page=2\">← previous page</a></span>\n      <span itemprop='name'><b><a rel=\"next\" itemprop=\"url\" href=\"/t/libido/6762?page=4\">next page →</a></b></span>\n  </div>\n\n\n\n\n\n    </div>\n    <footer class=\"container\">\n      <nav class='crawler-nav' itemscope itemtype='http://schema.org/SiteNavigationElement'>\n        <a href='/'>Home</a>\n        <a href=\"/categories\">Categories</a>\n        <a href=\"/guidelines\">FAQ/Guidelines</a>\n        <a href=\"/tos\">Terms of Service</a>\n        <a href=\"/privacy\">Privacy Policy</a>\n      </nav>\n      <p class='powered-by-link'>Powered by <a href=\"https://www.discourse.org\">Discourse</a>, best viewed with JavaScript enabled</p>\n    </footer>\n    \n  </body>\n  \n</html>\n",
  "url": "https://forum.parkinsons.org.uk/t/libido/6762?page=3"
}