{
  "contentId": "5daecf90-8866-11e9-8f96-97f71b5221d6",
  "html": "<!DOCTYPE html>\n<html lang=\"en\">\n  <head>\n    <meta charset=\"utf-8\">\n    <title>Exanatide - Research discussion - Parkinson&#39;s UK Forum</title>\n    <meta name=\"description\" content=\"http://www.parkinsons.org.uk/about_us/news/news_items/all_news/diabetes_drug_trial_results.aspx  The results are promising. There are some things I am wondering about:   - I wonder whether a brain scan revealed that exan&amp;hellip;\">\n    <meta name=\"author\" content=\"\">\n<meta name=\"generator\" content=\"Discourse 2.2.5 - https://github.com/discourse/discourse version c294ff3609f988dcafb742e91606d60ca13b794d\">\n<link rel=\"icon\" type=\"image/png\" href=\"https://forum.parkinsons.org.uk/uploads/db7928/original/2X/3/311fc84f89f49f38601a2f16b295b6f03d3ce5dd.jpg\">\n<link rel=\"apple-touch-icon\" type=\"image/png\" href=\"https://forum.parkinsons.org.uk/uploads/db7928/original/2X/3/311fc84f89f49f38601a2f16b295b6f03d3ce5dd.jpg\">\n<meta name=\"theme-color\" content=\"#ffffff\">\n<meta name=\"viewport\" content=\"width=device-width, minimum-scale=1.0, maximum-scale=1.0, user-scalable=yes\">\n<link rel=\"canonical\" href=\"https://forum.parkinsons.org.uk/t/exanatide/4013\" />\n<script type=\"application/ld+json\">{\"@context\":\"http://schema.org\",\"@type\":\"WebSite\",\"url\":\"https://forum.parkinsons.org.uk\",\"potentialAction\":{\"@type\":\"SearchAction\",\"target\":\"https://forum.parkinsons.org.uk/search?q={search_term_string}\",\"query-input\":\"required name=search_term_string\"}}</script>\n<link rel=\"search\" type=\"application/opensearchdescription+xml\" href=\"https://forum.parkinsons.org.uk/opensearch.xml\" title=\"Parkinson&#39;s UK Forum Search\">\n\n      <link href=\"/stylesheets/desktop_f99246ae801b083d3e4cca979d0dade8615b39ac.css?__ws=forum.parkinsons.org.uk\" media=\"all\" rel=\"stylesheet\" data-target=\"desktop\" data-theme-id=\"12\"/>\n      <link href=\"/stylesheets/desktop_theme_12_5d27531cf43f9df0c03a6a6ec3109dd05f9dfc49.css?__ws=forum.parkinsons.org.uk\" media=\"all\" rel=\"stylesheet\" data-target=\"desktop_theme\" data-theme-id=\"12\"/>\n    <link href=\"https://fonts.googleapis.com/css?family=Open+Sans\" rel=\"stylesheet\">\n\n    <meta id=\"data-ga-universal-analytics\" data-tracking-code=\"UA-4855628-1\" data-json=\"{&quot;cookieDomain&quot;:&quot;auto&quot;}\" data-auto-link-domains=\"\">\n\n<link rel='preload' href='/assets/google-universal-analytics-f35b4da49411e6f5559073523aab983da483976a3954c79c756f8579f6fbd6ef.js' as='script'/>\n<script src='/assets/google-universal-analytics-f35b4da49411e6f5559073523aab983da483976a3954c79c756f8579f6fbd6ef.js'></script>\n\n      <link rel=\"alternate\" type=\"application/rss+xml\" title=\"RSS feed of &#39;Exanatide&#39;\" href=\"https://forum.parkinsons.org.uk/t/exanatide/4013.rss\" />\n  <meta property=\"og:site_name\" content=\"Parkinson&#39;s UK Forum\" />\n<meta name=\"twitter:card\" content=\"summary\" />\n<meta name=\"twitter:image\" content=\"https://forum.parkinsons.org.uk/uploads/db7928/original/2X/3/311fc84f89f49f38601a2f16b295b6f03d3ce5dd.jpg\" />\n<meta property=\"og:image\" content=\"https://forum.parkinsons.org.uk/uploads/db7928/original/2X/3/311fc84f89f49f38601a2f16b295b6f03d3ce5dd.jpg\" />\n<meta property=\"og:url\" content=\"https://forum.parkinsons.org.uk/t/exanatide/4013\" />\n<meta name=\"twitter:url\" content=\"https://forum.parkinsons.org.uk/t/exanatide/4013\" />\n<meta property=\"og:title\" content=\"Exanatide\" />\n<meta name=\"twitter:title\" content=\"Exanatide\" />\n<meta property=\"og:description\" content=\"http://www.parkinsons.org.uk/about_us/news/news_items/all_news/diabetes_drug_trial_results.aspx  The results are promising. There are some things I am wondering about:   - I wonder whether a brain scan revealed that exanatide saved and/or regenerated neurons.   - There was also this 1 person that had interference with his meds. I wonder which meds he was taking.  - When will clinical phase II start ?\" />\n<meta name=\"twitter:description\" content=\"http://www.parkinsons.org.uk/about_us/news/news_items/all_news/diabetes_drug_trial_results.aspx  The results are promising. There are some things I am wondering about:   - I wonder whether a brain scan revealed that exanatide saved and/or regenerated neurons.   - There was also this 1 person that had interference with his meds. I wonder which meds he was taking.  - When will clinical phase II start ?\" />\n<meta name=\"twitter:label1\" value=\"Reading time\" />\n<meta name=\"twitter:data1\" value=\"11 mins \uD83D\uDD51\" />\n<meta name=\"twitter:label2\" value=\"Likes\" />\n<meta name=\"twitter:data2\" value=\"1 ❤\" />\n<meta property=\"article:published_time\" content=\"2013-05-21T07:22:00+00:00\" />\n<meta property=\"og:ignore_canonical\" content=\"true\" />\n\n      <link rel=\"next\" href=\"/t/exanatide/4013?page=2\">\n\n\n    \n  </head>\n  <body class=\"crawler\">\n    <header role=\"banner\">\n    <div class=\"region region-header\">\n        <div class=\"region-header-wrapper\">\n            <div id=\"block-parkinsons-d8-branding\" class=\"block block-system block-system-branding-block\">\n                <a href=\"/\" title=\"Home\" rel=\"home\" class=\"site-logo\">\n                    <img src=\"https://forum.parkinsons.org.uk/uploads/db7928/original/2X/8/862bb7d172e7d127e7f3e147ec43594aa62ac945.png\" alt=\"Parkinson's UK. Change Attitudes. Find a cure. Join us.\">\n                </a>\n            </div>\n            <div id=\"block-helpline\" class=\"block block-block-content block-block-content871cd5af-b938-4947-9dc0-d5c211d08fe3 style-phone\">\n                <div class=\"field field--name-field-link field--type-link field--label-hidden field__item\"><a href=\"tel:+448088000303\">Helpline 0808 800 0303</a></div>\n            </div>\n            <div id=\"block-shop\" class=\"block block-block-content block-block-content6fba5ae5-7797-49cd-8367-f321d8111cd6 style-regular\">\n                <div class=\"field field--name-field-link field--type-link field--label-hidden field__item\"><a href=\"https://shop.parkinsons.org.uk\">Shop</a></div>\n            </div>\n        </div>\n    </div>\n</header>\n\n\n<script src=\"/theme-javascripts/b7e9763fcb584fc8265c56a9f557cd6d2e1e8ed8.js?__ws=forum.parkinsons.org.uk\"></script>\n    <header>\n      <a href=\"/\">\n          <img src=\"https://forum.parkinsons.org.uk/uploads/db7928/original/2X/8/862bb7d172e7d127e7f3e147ec43594aa62ac945.png\" alt=\"Parkinson&#39;s UK Forum\" id=\"site-logo\" style=\"max-width: 150px;\">\n      </a>\n    </header>\n    <div id=\"main-outlet\" class=\"wrap\">\n      <h1>\n  <a href=\"/t/exanatide/4013\">Exanatide</a>\n</h1>\n\n<div id='breadcrumbs'>\n    <div id=\"breadcrumb-0\" itemscope itemtype=\"http://data-vocabulary.org/Breadcrumb\"\n        itemref=\"breadcrumb-1\"\n      >\n      <a href=\"/c/research\" itemprop=\"url\">\n        <span itemprop=\"title\">Research</span>\n      </a>\n    </div>\n    <div id=\"breadcrumb-1\" itemscope itemtype=\"http://data-vocabulary.org/Breadcrumb\"\n>\n      <a href=\"/c/research/research-discussion\" itemprop=\"url\">\n        <span itemprop=\"title\">Research discussion</span>\n      </a>\n    </div>\n</div>\n\n\n\n\n\n<hr>\n\n\n  <div itemscope itemtype='http://schema.org/DiscussionForumPosting'>\n      <div class='creator'>\n        <span>\n          <a href='/u/Mister_X'><b itemprop='author'>Mister_X</b></a>\n          \n          <time datetime='2013-05-21T07:22:00Z' itemprop='datePublished'>\n            2013-05-21 07:22:00 UTC\n          </time>\n        </span>\n        <span itemprop='position'>#1</span>\n      </div>\n      <div class='post' itemprop='articleBody'>\n        <a href=\"http://www.parkinsons.org.uk/about_us/news/news_items/all_news/diabetes_drug_trial_results.aspx\" target=\"_blank\">http://www.parkinsons.org.uk/about_us/news/news_items/all_news/diabetes_drug_trial_results.aspx</a><br><br>The results are promising. There are some things I am wondering about: <br><br>- I wonder whether a brain scan revealed that exanatide saved and/or regenerated neurons. <br><br>- There was also this 1 person that had interference with his meds. I wonder which meds he was taking.<br><br>- When will clinical phase II start ?\n      </div>\n      <meta itemprop='interactionCount' content='UserLikes:0'>\n      <meta itemprop='interactionCount' content='UserComments:0'>\n      <meta itemprop='headline' content='Exanatide'>\n      <hr>\n  </div>\n  <div itemscope itemtype='http://schema.org/DiscussionForumPosting'>\n      <div class='creator'>\n        <span>\n          <a href='/u/Mister_X'><b itemprop='author'>Mister_X</b></a>\n          \n          <time datetime='2013-05-21T07:25:06Z' itemprop='datePublished'>\n            2013-05-21 07:25:06 UTC\n          </time>\n        </span>\n        <span itemprop='position'>#2</span>\n      </div>\n      <div class='post' itemprop='articleBody'>\n        More info<br><br><a href=\"https://www.jci.org/articles/view/68295?key=424690bda975bb0c7d68\" target=\"_blank\">http://www.jci.org/articles/view/68295?key=424690bda975bb0c7d68</a>\n      </div>\n      <meta itemprop='interactionCount' content='UserLikes:0'>\n      <meta itemprop='interactionCount' content='UserComments:0'>\n      <meta itemprop='headline' content='Exanatide'>\n      <hr>\n  </div>\n  <div itemscope itemtype='http://schema.org/DiscussionForumPosting'>\n      <div class='creator'>\n        <span>\n          <a href='/u/Mister_X'><b itemprop='author'>Mister_X</b></a>\n          \n          <time datetime='2013-05-21T08:05:38Z' itemprop='datePublished'>\n            2013-05-21 08:05:38 UTC\n          </time>\n        </span>\n        <span itemprop='position'>#3</span>\n      </div>\n      <div class='post' itemprop='articleBody'>\n        Question to research team: Has exanatide also been tested on mice with genetic forms of PD or with misfolded a-synuclein in their brain ?\n      </div>\n      <meta itemprop='interactionCount' content='UserLikes:0'>\n      <meta itemprop='interactionCount' content='UserComments:0'>\n      <meta itemprop='headline' content='Exanatide'>\n      <hr>\n  </div>\n  <div itemscope itemtype='http://schema.org/DiscussionForumPosting'>\n      <div class='creator'>\n        <span>\n          <a href='/u/Bartobob'><b itemprop='author'>Bartobob</b></a>\n          \n          <time datetime='2013-05-21T09:32:08Z' itemprop='datePublished'>\n            2013-05-21 09:32:08 UTC\n          </time>\n        </span>\n        <span itemprop='position'>#4</span>\n      </div>\n      <div class='post' itemprop='articleBody'>\n        The authors caution there was no placebo control group for cost and practical reasons they  give......people getting injections of saline instead of Exanatide.  The placebo effect can be substantial.........\n      </div>\n      <meta itemprop='interactionCount' content='UserLikes:0'>\n      <meta itemprop='interactionCount' content='UserComments:0'>\n      <meta itemprop='headline' content='Exanatide'>\n      <hr>\n  </div>\n  <div itemscope itemtype='http://schema.org/DiscussionForumPosting'>\n      <div class='creator'>\n        <span>\n          <a href='/u/Hikoi'><b itemprop='author'>Hikoi</b></a>\n          \n          <time datetime='2013-05-21T11:20:57Z' itemprop='datePublished'>\n            2013-05-21 11:20:57 UTC\n          </time>\n        </span>\n        <span itemprop='position'>#5</span>\n      </div>\n      <div class='post' itemprop='articleBody'>\n        Some of you may be interested in thefull report which can be accessed through this page.  <br><a href=\"http://www.cureparkinsons.org.uk/News/exenatide\" target=\"_blank\">http://www.cureparkinsons.org.uk/News/exenatide</a><br><br><br> The funders of the research put out this press release ;  I have just received It and hope it OK tp post here.  Hope something comes of this one but we will have to wait.... As usual.<br><br><br><br>The Cure Parkinson's Trust is delighted that the Exenatide (Exendin) study results have been published in the Journal of Clinical Investigation. The study was funded by The Cure Parkinson's Trust and took place at UCL in London.<br><br>\"There are three exciting thing about these results:<br><br>1. If future and larger studies on this drug prove the outcome of this trial, then because of its status as a diabetes type 2 treatment, its use in Parkinson’s could be dramatically accelerated. It is possible that this therapy could be available to people with Parkinson’s within a matter of a few years. <br><br>2. These results suggest that the drug is safe and well tolerated by people with Parkinson’s and that it may have a beneficial effect on both motor and non-motor symptoms.<br><br>3. Scientific experts who have analysed these results say that the trial not only 'speak in favour of a disease-modifying effect' but also they recognise the nature and scale of this trial as a cost effective, quicker and more practical method of screening new molecules for use in Parkinson’s.\n      </div>\n      <meta itemprop='interactionCount' content='UserLikes:0'>\n      <meta itemprop='interactionCount' content='UserComments:0'>\n      <meta itemprop='headline' content='Exanatide'>\n      <hr>\n  </div>\n  <div itemscope itemtype='http://schema.org/DiscussionForumPosting'>\n      <div class='creator'>\n        <span>\n          <a href='/u/ezinda'><b itemprop='author'>ezinda</b></a>\n          \n          <time datetime='2013-05-21T11:34:52Z' itemprop='datePublished'>\n            2013-05-21 11:34:52 UTC\n          </time>\n        </span>\n        <span itemprop='position'>#6</span>\n      </div>\n      <div class='post' itemprop='articleBody'>\n        Hi Mister X,<br><br>Thanks for your question. I've passed it to the Research team. Claire is out of the office today but we'll post an answer as soon as we can. <br><br>Ezinda\n      </div>\n      <meta itemprop='interactionCount' content='UserLikes:0'>\n      <meta itemprop='interactionCount' content='UserComments:0'>\n      <meta itemprop='headline' content='Exanatide'>\n      <hr>\n  </div>\n  <div itemscope itemtype='http://schema.org/DiscussionForumPosting'>\n      <div class='creator'>\n        <span>\n          <a href='/u/Hikoi'><b itemprop='author'>Hikoi</b></a>\n          \n          <time datetime='2013-05-21T11:53:26Z' itemprop='datePublished'>\n            2013-05-21 11:53:26 UTC\n          </time>\n        </span>\n        <span itemprop='position'>#7</span>\n      </div>\n      <div class='post' itemprop='articleBody'>\n        Apologies, in my haste i repeated a link others had given, one reason it happened was not being able to see what others had written as I was replying, roll on new forum!\n      </div>\n      <meta itemprop='interactionCount' content='UserLikes:0'>\n      <meta itemprop='interactionCount' content='UserComments:0'>\n      <meta itemprop='headline' content='Exanatide'>\n      <hr>\n  </div>\n  <div itemscope itemtype='http://schema.org/DiscussionForumPosting'>\n      <div class='creator'>\n        <span>\n          <a href='/u/turnip'><b itemprop='author'>turnip</b></a>\n          \n          <time datetime='2013-05-21T12:02:02Z' itemprop='datePublished'>\n            2013-05-21 12:02:02 UTC\n          </time>\n        </span>\n        <span itemprop='position'>#8</span>\n      </div>\n      <div class='post' itemprop='articleBody'>\n        hikoi<br><br>i think one of the very encouraging aspects of recent events is that researchers are saying there will be something in at most 3-4 years whereas they used to say it will be at least 5 to 10 years. things are being fast tracked - its almost a competition to see who is going to win the big prizes. personally i am very optimistic.\n      </div>\n      <meta itemprop='interactionCount' content='UserLikes:0'>\n      <meta itemprop='interactionCount' content='UserComments:0'>\n      <meta itemprop='headline' content='Exanatide'>\n      <hr>\n  </div>\n  <div itemscope itemtype='http://schema.org/DiscussionForumPosting'>\n      <div class='creator'>\n        <span>\n          <a href='/u/Research'><b itemprop='author'>Research</b></a>\n          \n          <time datetime='2013-05-21T16:53:03Z' itemprop='datePublished'>\n            2013-05-21 16:53:03 UTC\n          </time>\n        </span>\n        <span itemprop='position'>#9</span>\n      </div>\n      <div class='post' itemprop='articleBody'>\n        Hello everyone<br><br>Sorry for the slight delay in joining the conversation.<br><br>To answer your questions Mister X:<br><br>No, I'm not aware of any studies which have tested exenatide in genetic animal models of Parkinson's. I believe all the pre-clinical research to date has used toxin based models.<br><br>Most of this early work has been carried out by Dr Peter Whitton and funded by Parkinson's UK. You can read more about his work here:<br><br><a href=\"https://bit.ly/18hxXzf\" target=\"_blank\">http://bit.ly/18hxXzf</a><br><br>The results from the brain scans were inconclusive overall. From the paper:<br><br>\"All exenatide group patients had profoundly abnormal scans at baseline, with some variation in severity of presynaptic dopaminergic deficit. 2 patients with severe baseline presynaptic deficits had minor improvement at 12 months. 1 individual had deterioration in all subregions. Mean values for absolute and percent changes in [123I]FP-CIT activity showed minimal change in all basal ganglia subregions in the exenatide group at 12 months.\"<br><br><br>Three people dropped out of the trial in total. One because of interference with their medication - the medication was not specified but exenatide slows stomach emptying so the team believe that was the problem. One withdrew because of changes in their sense of taste, and another because of excessive weightloss.<br><br><br>When will follow-up trials start?<br><br>That's the million-dollar question. We don't know yet but we'll be keeping a very close eye out for any developments and will let people know of any news through our website and magazines.<br><br>If you'd like to read the full scientific paper it's available here:<br><br><a href=\"https://www.jci.org/articles/view/68295\" target=\"_blank\">http://www.jci.org/articles/view/68295</a><br><br><br>Hope that helps<br><br>Best wishes<br><br>Claire<br>Research team\n      </div>\n      <meta itemprop='interactionCount' content='UserLikes:0'>\n      <meta itemprop='interactionCount' content='UserComments:0'>\n      <meta itemprop='headline' content='Exanatide'>\n      <hr>\n  </div>\n  <div itemscope itemtype='http://schema.org/DiscussionForumPosting'>\n      <div class='creator'>\n        <span>\n          <a href='/u/Mister_X'><b itemprop='author'>Mister_X</b></a>\n          \n          <time datetime='2013-05-22T06:57:56Z' itemprop='datePublished'>\n            2013-05-22 06:57:56 UTC\n          </time>\n        </span>\n        <span itemprop='position'>#10</span>\n      </div>\n      <div class='post' itemprop='articleBody'>\n        Thanks for the reply, research team.\n      </div>\n      <meta itemprop='interactionCount' content='UserLikes:0'>\n      <meta itemprop='interactionCount' content='UserComments:0'>\n      <meta itemprop='headline' content='Exanatide'>\n      <hr>\n  </div>\n  <div itemscope itemtype='http://schema.org/DiscussionForumPosting'>\n      <div class='creator'>\n        <span>\n          <a href='/u/Dave333'><b itemprop='author'>Dave333</b></a>\n          \n          <time datetime='2017-08-05T07:43:03Z' itemprop='datePublished'>\n            2017-08-05 07:43:03 UTC\n          </time>\n        </span>\n        <span itemprop='position'>#11</span>\n      </div>\n      <div class='post' itemprop='articleBody'>\n        <p>Hi Everybody, hope you are all not too bad today.</p>\r\n<p>So great news about Exanatide, what do you all think?</p>\r\n<p>Dave.</p>\n      </div>\n      <meta itemprop='interactionCount' content='UserLikes:0'>\n      <meta itemprop='interactionCount' content='UserComments:0'>\n      <meta itemprop='headline' content='Exanatide'>\n      <hr>\n  </div>\n  <div itemscope itemtype='http://schema.org/DiscussionForumPosting'>\n      <div class='creator'>\n        <span>\n          <a href='/u/Double'><b itemprop='author'>Double</b></a>\n          \n          <time datetime='2017-08-06T15:18:18Z' itemprop='datePublished'>\n            2017-08-06 15:18:18 UTC\n          </time>\n        </span>\n        <span itemprop='position'>#12</span>\n      </div>\n      <div class='post' itemprop='articleBody'>\n        <p>Questions for the research team if I may?</p>\r\n<p>1) Given&nbsp;Exenatide&nbsp;and other GLP1 agonists&nbsp;have been prescribed millions of times over the last 10 years or so and the incidence in PD in diabetics is well characterized&nbsp;&nbsp;&nbsp;(although not quite understood), has anyone looked at the millions of people taking GLP-1&#39;s to see if there is a lower incidence of PD than those on insulin or other treatments? &nbsp; &nbsp;I would think there is enough data to mine.</p>\r\n<p>2) liraglutide&nbsp;(another GLP1) is also being studied across the board for neurodegenerative diseases. &nbsp; It also seems to edge out Exenatide in diabetes. &nbsp; Any data out there on its ability to cross the blood brain barrier relative to exenatide? &nbsp; &nbsp;</p>\r\n<p>Thanks in advance!</p>\r\n<p>&nbsp;</p>\n      </div>\n      <meta itemprop='interactionCount' content='UserLikes:0'>\n      <meta itemprop='interactionCount' content='UserComments:1'>\n      <meta itemprop='headline' content='Exanatide'>\n      <hr>\n  </div>\n  <div itemscope itemtype='http://schema.org/DiscussionForumPosting'>\n      <div class='creator'>\n        <span>\n          <a href='/u/Kat_Cimetta'><b itemprop='author'>Kat_Cimetta</b></a>\n          \n          <time datetime='2017-08-07T15:40:34Z' itemprop='datePublished'>\n            2017-08-07 15:40:34 UTC\n          </time>\n        </span>\n        <span itemprop='position'>#13</span>\n      </div>\n      <div class='post' itemprop='articleBody'>\n        <p>Hi Double,&nbsp;</p>\r\n<p>I&#39;ve sent this over to the team and asked them to get in touch on here! Someone will be along soon to answer your questions.&nbsp;</p>\r\n<p>&nbsp;</p>\r\n<p>Kat</p>\n      </div>\n      <meta itemprop='interactionCount' content='UserLikes:0'>\n      <meta itemprop='interactionCount' content='UserComments:0'>\n      <meta itemprop='headline' content='Exanatide'>\n      <hr>\n  </div>\n  <div itemscope itemtype='http://schema.org/DiscussionForumPosting'>\n      <div class='creator'>\n        <span>\n          <a href='/u/Double'><b itemprop='author'>Double</b></a>\n          \n          <time datetime='2017-08-08T01:43:35Z' itemprop='datePublished'>\n            2017-08-08 01:43:35 UTC\n          </time>\n        </span>\n        <span itemprop='position'>#14</span>\n      </div>\n      <div class='post' itemprop='articleBody'>\n        <p>Thanks Kat!</p>\n      </div>\n      <meta itemprop='interactionCount' content='UserLikes:0'>\n      <meta itemprop='interactionCount' content='UserComments:0'>\n      <meta itemprop='headline' content='Exanatide'>\n      <hr>\n  </div>\n  <div itemscope itemtype='http://schema.org/DiscussionForumPosting'>\n      <div class='creator'>\n        <span>\n          <a href='/u/Research'><b itemprop='author'>Research</b></a>\n          \n          <time datetime='2017-08-10T14:00:14Z' itemprop='datePublished'>\n            2017-08-10 14:00:14 UTC\n          </time>\n        </span>\n        <span itemprop='position'>#15</span>\n      </div>\n      <div class='post' itemprop='articleBody'>\n        <p>Hi Double,</p>\r\n<p>Thanks for your questions.</p>\r\n<p>I couldn&rsquo;t find any research looking into the incidence of Parkinson&rsquo;s in diabetics taking GLP-1s. However research has shown a reduction in incidence of Parkinson&rsquo;s in diabetics taking a glitazone drug (another drug for diabetes).</p>\r\n<p>Research has shown that both exenatide and liraglutide can cross the blood brain barrier. So more research is needed to explore why more exenatide wasn&rsquo;t reaching the brain in the trail conducted at UCL.&nbsp;</p>\r\n<p>After the results from the study that came out last week, we are expecting more research to explore whether other GLP-agonists, like liraglutide, may be more effective at crossing the blood brain barrier. We&#39;ll be keeping a close eye on these developments and sharing any updates via our usual channels.&nbsp;</p>\r\n<p>All the best,</p>\r\n<p>Annie</p>\r\n<p>Parkinson&#39;s UK Research Team</p>\r\n<p>&nbsp;</p>\n      </div>\n      <meta itemprop='interactionCount' content='UserLikes:0'>\n      <meta itemprop='interactionCount' content='UserComments:0'>\n      <meta itemprop='headline' content='Exanatide'>\n      <hr>\n  </div>\n  <div itemscope itemtype='http://schema.org/DiscussionForumPosting'>\n      <div class='creator'>\n        <span>\n          <a href='/u/TeeHee'><b itemprop='author'>TeeHee</b></a>\n          \n          <time datetime='2017-08-10T14:44:27Z' itemprop='datePublished'>\n            2017-08-10 14:44:27 UTC\n          </time>\n        </span>\n        <span itemprop='position'>#16</span>\n      </div>\n      <div class='post' itemprop='articleBody'>\n        <p>Can someone explain this research to me , am confused , I understood meds for diabetes type 2 to lower glucose levels. ?</p>\r\n<p>If you have PD for &nbsp;instance and not diabetes why would this drug help? &nbsp;if lowers sugars surely best to cut it out of your diet.</p>\r\n<p>Sugar puts stress on the body and is an inflammatory substance, research on role of inflammation in the brain having a negative impact on brain cell survival.</p>\r\n<p>It is interesting that research appears to me to be funded by companies selling medication. &nbsp;</p>\r\n<p>Is there any research projects on omitting sugar from the diet to assist brain health, and if there is who is funding it? Tate &amp; Lyle or a pharmaceutical company, if you get my drift.</p>\r\n<p>&nbsp;</p>\n      </div>\n      <meta itemprop='interactionCount' content='UserLikes:0'>\n      <meta itemprop='interactionCount' content='UserComments:1'>\n      <meta itemprop='headline' content='Exanatide'>\n      <hr>\n  </div>\n  <div itemscope itemtype='http://schema.org/DiscussionForumPosting'>\n      <div class='creator'>\n        <span>\n          <a href='/u/Double'><b itemprop='author'>Double</b></a>\n          \n          <time datetime='2017-08-11T13:32:32Z' itemprop='datePublished'>\n            2017-08-11 13:32:32 UTC\n          </time>\n        </span>\n        <span itemprop='position'>#17</span>\n      </div>\n      <div class='post' itemprop='articleBody'>\n        <p>Thank Annie, &nbsp;&nbsp;</p>\r\n<p>I guess I&#39;ll keep looking for new research updates.</p>\r\n<p>&nbsp;</p>\r\n<p>TeeHee,</p>\r\n<p>my understanding is that one of the challenges with exenatide is that it is old and the patents are expiring. &nbsp;So there isn&#39;t a big incentive for the drug companies to fund trials. &nbsp; By the time it got approved, there would be a load of generics undercutting price and smaller returns&nbsp;</p>\n      </div>\n      <meta itemprop='interactionCount' content='UserLikes:0'>\n      <meta itemprop='interactionCount' content='UserComments:0'>\n      <meta itemprop='headline' content='Exanatide'>\n      <hr>\n  </div>\n  <div itemscope itemtype='http://schema.org/DiscussionForumPosting'>\n      <div class='creator'>\n        <span>\n          <a href='/u/Dave333'><b itemprop='author'>Dave333</b></a>\n          \n          <time datetime='2017-08-12T12:54:07Z' itemprop='datePublished'>\n            2017-08-12 12:54:07 UTC\n          </time>\n        </span>\n        <span itemprop='position'>#18</span>\n      </div>\n      <div class='post' itemprop='articleBody'>\n        <p>Hi Everyone,</p>\r\n<p>well these Exenatide trial results seem to have caught the PD community on the hop, there is much confusion about what to do next. Phase 3 would be the obvious step but who&#39;s going to fund that when the Byetta patent expires this year? And will another trial include a placebo group. Some people, even top clinicians say that a placebo group just puts people off participating, and is pointless anyway because we all know what happens with PD, you just get worse, as proved already by phase 2.</p>\r\n<p>Maybe it&#39;s time to think outside the box.</p>\r\n<p>Regards,</p>\r\n<p>Dave.</p>\n      </div>\n      <meta itemprop='interactionCount' content='UserLikes:0'>\n      <meta itemprop='interactionCount' content='UserComments:0'>\n      <meta itemprop='headline' content='Exanatide'>\n      <hr>\n  </div>\n  <div itemscope itemtype='http://schema.org/DiscussionForumPosting'>\n      <div class='creator'>\n        <span>\n          <a href='/u/frances'><b itemprop='author'>frances</b></a>\n          \n          <time datetime='2017-08-13T07:31:41Z' itemprop='datePublished'>\n            2017-08-13 07:31:41 UTC\n          </time>\n        </span>\n        <span itemprop='position'>#19</span>\n      </div>\n      <div class='post' itemprop='articleBody'>\n        <p>Hopeful in a word!</p>\r\n<p>Frances</p>\n      </div>\n      <meta itemprop='interactionCount' content='UserLikes:0'>\n      <meta itemprop='interactionCount' content='UserComments:0'>\n      <meta itemprop='headline' content='Exanatide'>\n      <hr>\n  </div>\n  <div itemscope itemtype='http://schema.org/DiscussionForumPosting'>\n      <div class='creator'>\n        <span>\n          <a href='/u/frances'><b itemprop='author'>frances</b></a>\n          \n          <time datetime='2017-08-13T07:36:31Z' itemprop='datePublished'>\n            2017-08-13 07:36:31 UTC\n          </time>\n        </span>\n        <span itemprop='position'>#20</span>\n      </div>\n      <div class='post' itemprop='articleBody'>\n        <p>I would like to respond to the query re sugar. I long cut all refined sugar out of my diet. According to the neurology team, I`m doing well. Who knows?</p>\r\n<p>Anyway, it`s too punishing for a lot of people !&nbsp; Banning cake and biscuits may be a step too far. I have long wondered if there`s anything going on re diet in the research ?</p>\r\n<p>Frances</p>\r\n<p>&nbsp;</p>\n      </div>\n      <meta itemprop='interactionCount' content='UserLikes:0'>\n      <meta itemprop='interactionCount' content='UserComments:0'>\n      <meta itemprop='headline' content='Exanatide'>\n      <hr>\n  </div>\n\n  <div role='navigation' itemscope itemtype='http://schema.org/SiteNavigationElement'>\n      <span itemprop='name'><b><a rel=\"next\" itemprop=\"url\" href=\"/t/exanatide/4013?page=2\">next page →</a></b></span>\n  </div>\n\n\n\n\n\n    </div>\n    <footer class=\"container\">\n      <nav class='crawler-nav' itemscope itemtype='http://schema.org/SiteNavigationElement'>\n        <a href='/'>Home</a>\n        <a href=\"/categories\">Categories</a>\n        <a href=\"/guidelines\">FAQ/Guidelines</a>\n        <a href=\"/tos\">Terms of Service</a>\n        <a href=\"/privacy\">Privacy Policy</a>\n      </nav>\n      <p class='powered-by-link'>Powered by <a href=\"https://www.discourse.org\">Discourse</a>, best viewed with JavaScript enabled</p>\n    </footer>\n    \n  </body>\n  \n</html>\n",
  "url": "https://forum.parkinsons.org.uk/t/exanatide/4013"
}