{
  "contentId": "2f5d5130-8865-11e9-8f96-97f71b5221d6",
  "html": "<!DOCTYPE html>\n<html lang=\"en\">\n  <head>\n    <meta charset=\"utf-8\">\n    <title>Does anyone know how I feel? - Impulsive and compulsive behaviour - Parkinson&#39;s UK Forum</title>\n    <meta name=\"description\" content=\"My partner who is on DAs has become hypersexual is being profligate with money using chatlines websites and I recently discovered seeing other women and sex workers DEVASTATED doesn&amp;#39;t begin to describe how I feel -dirty &amp;hellip;\">\n    <meta name=\"author\" content=\"\">\n<meta name=\"generator\" content=\"Discourse 2.2.5 - https://github.com/discourse/discourse version c294ff3609f988dcafb742e91606d60ca13b794d\">\n<link rel=\"icon\" type=\"image/png\" href=\"https://forum.parkinsons.org.uk/uploads/db7928/original/2X/3/311fc84f89f49f38601a2f16b295b6f03d3ce5dd.jpg\">\n<link rel=\"apple-touch-icon\" type=\"image/png\" href=\"https://forum.parkinsons.org.uk/uploads/db7928/original/2X/3/311fc84f89f49f38601a2f16b295b6f03d3ce5dd.jpg\">\n<meta name=\"theme-color\" content=\"#ffffff\">\n<meta name=\"viewport\" content=\"width=device-width, minimum-scale=1.0, maximum-scale=1.0, user-scalable=yes\">\n<link rel=\"canonical\" href=\"https://forum.parkinsons.org.uk/t/does-anyone-know-how-i-feel/9462\" />\n<script type=\"application/ld+json\">{\"@context\":\"http://schema.org\",\"@type\":\"WebSite\",\"url\":\"https://forum.parkinsons.org.uk\",\"potentialAction\":{\"@type\":\"SearchAction\",\"target\":\"https://forum.parkinsons.org.uk/search?q={search_term_string}\",\"query-input\":\"required name=search_term_string\"}}</script>\n<link rel=\"search\" type=\"application/opensearchdescription+xml\" href=\"https://forum.parkinsons.org.uk/opensearch.xml\" title=\"Parkinson&#39;s UK Forum Search\">\n\n      <link href=\"/stylesheets/desktop_f99246ae801b083d3e4cca979d0dade8615b39ac.css?__ws=forum.parkinsons.org.uk\" media=\"all\" rel=\"stylesheet\" data-target=\"desktop\" data-theme-id=\"12\"/>\n      <link href=\"/stylesheets/desktop_theme_12_5d27531cf43f9df0c03a6a6ec3109dd05f9dfc49.css?__ws=forum.parkinsons.org.uk\" media=\"all\" rel=\"stylesheet\" data-target=\"desktop_theme\" data-theme-id=\"12\"/>\n    <link href=\"https://fonts.googleapis.com/css?family=Open+Sans\" rel=\"stylesheet\">\n\n    <meta id=\"data-ga-universal-analytics\" data-tracking-code=\"UA-4855628-1\" data-json=\"{&quot;cookieDomain&quot;:&quot;auto&quot;}\" data-auto-link-domains=\"\">\n\n<link rel='preload' href='/assets/google-universal-analytics-f35b4da49411e6f5559073523aab983da483976a3954c79c756f8579f6fbd6ef.js' as='script'/>\n<script src='/assets/google-universal-analytics-f35b4da49411e6f5559073523aab983da483976a3954c79c756f8579f6fbd6ef.js'></script>\n\n      <link rel=\"alternate\" type=\"application/rss+xml\" title=\"RSS feed of &#39;Does anyone know how I feel?&#39;\" href=\"https://forum.parkinsons.org.uk/t/does-anyone-know-how-i-feel/9462.rss\" />\n  <meta property=\"og:site_name\" content=\"Parkinson&#39;s UK Forum\" />\n<meta name=\"twitter:card\" content=\"summary\" />\n<meta name=\"twitter:image\" content=\"https://forum.parkinsons.org.uk/uploads/db7928/original/2X/3/311fc84f89f49f38601a2f16b295b6f03d3ce5dd.jpg\" />\n<meta property=\"og:image\" content=\"https://forum.parkinsons.org.uk/uploads/db7928/original/2X/3/311fc84f89f49f38601a2f16b295b6f03d3ce5dd.jpg\" />\n<meta property=\"og:url\" content=\"https://forum.parkinsons.org.uk/t/does-anyone-know-how-i-feel/9462\" />\n<meta name=\"twitter:url\" content=\"https://forum.parkinsons.org.uk/t/does-anyone-know-how-i-feel/9462\" />\n<meta property=\"og:title\" content=\"Does anyone know how I feel?\" />\n<meta name=\"twitter:title\" content=\"Does anyone know how I feel?\" />\n<meta property=\"og:description\" content=\"My partner who is on DAs has become hypersexual is being profligate with money using chatlines websites and I recently discovered seeing other women and sex workers DEVASTATED doesn&#39;t begin to describe how I feel -dirty ashamed betrayed abused deceived -all of these and more!! I really need someone to say they&#39;ve been where Iam now and come through the nightmare I still love and care for him in spite of all this \" />\n<meta name=\"twitter:description\" content=\"My partner who is on DAs has become hypersexual is being profligate with money using chatlines websites and I recently discovered seeing other women and sex workers DEVASTATED doesn&#39;t begin to describe how I feel -dirty ashamed betrayed abused deceived -all of these and more!! I really need someone to say they&#39;ve been where Iam now and come through the nightmare I still love and care for him in spite of all this \" />\n<meta property=\"article:published_time\" content=\"2016-10-03T21:16:12+00:00\" />\n<meta property=\"og:ignore_canonical\" content=\"true\" />\n\n\n\n    \n  </head>\n  <body class=\"crawler\">\n    <header role=\"banner\">\n    <div class=\"region region-header\">\n        <div class=\"region-header-wrapper\">\n            <div id=\"block-parkinsons-d8-branding\" class=\"block block-system block-system-branding-block\">\n                <a href=\"/\" title=\"Home\" rel=\"home\" class=\"site-logo\">\n                    <img src=\"https://forum.parkinsons.org.uk/uploads/db7928/original/2X/8/862bb7d172e7d127e7f3e147ec43594aa62ac945.png\" alt=\"Parkinson's UK. Change Attitudes. Find a cure. Join us.\">\n                </a>\n            </div>\n            <div id=\"block-helpline\" class=\"block block-block-content block-block-content871cd5af-b938-4947-9dc0-d5c211d08fe3 style-phone\">\n                <div class=\"field field--name-field-link field--type-link field--label-hidden field__item\"><a href=\"tel:+448088000303\">Helpline 0808 800 0303</a></div>\n            </div>\n            <div id=\"block-shop\" class=\"block block-block-content block-block-content6fba5ae5-7797-49cd-8367-f321d8111cd6 style-regular\">\n                <div class=\"field field--name-field-link field--type-link field--label-hidden field__item\"><a href=\"https://shop.parkinsons.org.uk\">Shop</a></div>\n            </div>\n        </div>\n    </div>\n</header>\n\n\n<script src=\"/theme-javascripts/b7e9763fcb584fc8265c56a9f557cd6d2e1e8ed8.js?__ws=forum.parkinsons.org.uk\"></script>\n    <header>\n      <a href=\"/\">\n          <img src=\"https://forum.parkinsons.org.uk/uploads/db7928/original/2X/8/862bb7d172e7d127e7f3e147ec43594aa62ac945.png\" alt=\"Parkinson&#39;s UK Forum\" id=\"site-logo\" style=\"max-width: 150px;\">\n      </a>\n    </header>\n    <div id=\"main-outlet\" class=\"wrap\">\n      <h1>\n  <a href=\"/t/does-anyone-know-how-i-feel/9462\">Does anyone know how I feel?</a>\n</h1>\n\n<div id='breadcrumbs'>\n    <div id=\"breadcrumb-0\" itemscope itemtype=\"http://data-vocabulary.org/Breadcrumb\"\n        itemref=\"breadcrumb-1\"\n      >\n      <a href=\"/c/about-parkinsons-and-health\" itemprop=\"url\">\n        <span itemprop=\"title\">About Parkinson&#39;s and health</span>\n      </a>\n    </div>\n    <div id=\"breadcrumb-1\" itemscope itemtype=\"http://data-vocabulary.org/Breadcrumb\"\n>\n      <a href=\"/c/about-parkinsons-and-health/impulsive-and-compulsive-behaviour\" itemprop=\"url\">\n        <span itemprop=\"title\">Impulsive and compulsive behaviour</span>\n      </a>\n    </div>\n</div>\n\n\n\n\n\n<hr>\n\n\n  <div itemscope itemtype='http://schema.org/DiscussionForumPosting'>\n      <div class='creator'>\n        <span>\n          <a href='/u/TERESKOVA'><b itemprop='author'>TERESKOVA</b></a>\n          \n          <time datetime='2016-10-03T21:16:12Z' itemprop='datePublished'>\n            2016-10-03 21:16:12 UTC\n          </time>\n        </span>\n        <span itemprop='position'>#1</span>\n      </div>\n      <div class='post' itemprop='articleBody'>\n        <p>My partner who is on DAs has become hypersexual is being profligate with money using chatlines websites and I recently discovered seeing other women and sex workers DEVASTATED doesn&#39;t begin to describe how I feel -dirty ashamed betrayed abused deceived -all of these and more!! I really need someone to say they&#39;ve been where Iam now and come through the nightmare I still love and care for him in spite of all this&nbsp;</p>\n      </div>\n      <meta itemprop='interactionCount' content='UserLikes:0'>\n      <meta itemprop='interactionCount' content='UserComments:0'>\n      <meta itemprop='headline' content='Does anyone know how I feel?'>\n      <hr>\n  </div>\n  <div itemscope itemtype='http://schema.org/DiscussionForumPosting'>\n      <div class='creator'>\n        <span>\n          <a href='/u/goldengirl'><b itemprop='author'>goldengirl</b></a>\n          \n          <time datetime='2016-10-04T09:32:39Z' itemprop='datePublished'>\n            2016-10-04 09:32:39 UTC\n          </time>\n        </span>\n        <span itemprop='position'>#2</span>\n      </div>\n      <div class='post' itemprop='articleBody'>\n        <p>Many of us have been there....it is horrific but you need to act as soon as you realise what is happening.</p>\r\n<p>Phone your consultant&#39;s secretary..demand an urgent appointment.</p>\r\n<p>Phone your Parkinson&#39;s&nbsp;Nurse.</p>\r\n<p>Get it all&nbsp;out in the open.</p>\r\n<p>He needs to slowly withdraw from all DAs&nbsp;undervma</p>\r\n<p>edical supervision...and move onto a Levadopa-based drug.</p>\r\n<p>You both need counselling to understand what has happened and learn to live with the fallout.</p>\r\n<p>It can be done....just don&#39;t let another day go by.</p>\r\n<p>ACT NOW!</p>\r\n<p>There is support on here from many who have travelled this road..</p>\r\n<p>Love</p>\r\n<p>GG</p>\r\n<p>&nbsp;</p>\r\n<p>&nbsp;</p>\r\n<p>&nbsp;</p>\r\n<p>&nbsp;</p>\r\n<p>&nbsp;</p>\n      </div>\n      <meta itemprop='interactionCount' content='UserLikes:0'>\n      <meta itemprop='interactionCount' content='UserComments:0'>\n      <meta itemprop='headline' content='Does anyone know how I feel?'>\n      <hr>\n  </div>\n  <div itemscope itemtype='http://schema.org/DiscussionForumPosting'>\n      <div class='creator'>\n        <span>\n          <a href='/u/fedexlike'><b itemprop='author'>fedexlike</b></a>\n          \n          <time datetime='2016-10-04T10:34:33Z' itemprop='datePublished'>\n            2016-10-04 10:34:33 UTC\n          </time>\n        </span>\n        <span itemprop='position'>#3</span>\n      </div>\n      <div class='post' itemprop='articleBody'>\n        <p>My god I feel&nbsp; so wretchedly horribly&nbsp; guilty,&nbsp; reading your&nbsp; post as I caused my wife to&nbsp; endure the&nbsp; agonies&nbsp; you&nbsp; have suffered,&nbsp; indeed&nbsp; it&nbsp; was&nbsp; the&nbsp; threat&nbsp; of&nbsp; losing&nbsp; her&nbsp; that&nbsp; shocked&nbsp; me&nbsp; into reality we are&nbsp; ok&nbsp; now&nbsp; though I know I have caused&nbsp; damage&nbsp; which I&nbsp; can never&nbsp; really&nbsp; assuage in&nbsp; this&nbsp; lifetime, though&nbsp; I&nbsp; did&nbsp; not seek&nbsp; passion&nbsp; elsewhere&nbsp; I know I betrayed&nbsp; her&nbsp; trust and&nbsp; it&nbsp; will&nbsp; take some&nbsp; effort&nbsp; and&nbsp; understanding to&nbsp; mend</p>\r\n<p>&nbsp;&nbsp;&nbsp;&nbsp;&nbsp;&nbsp;&nbsp;&nbsp;&nbsp;&nbsp;&nbsp;&nbsp;&nbsp;&nbsp;&nbsp;&nbsp;&nbsp;&nbsp;&nbsp;&nbsp;&nbsp;&nbsp;&nbsp;&nbsp;&nbsp;&nbsp;&nbsp;&nbsp;&nbsp;&nbsp;&nbsp;&nbsp;&nbsp;&nbsp;&nbsp;&nbsp;&nbsp;&nbsp;&nbsp;&nbsp;&nbsp;&nbsp;&nbsp;&nbsp;&nbsp;&nbsp;&nbsp;&nbsp;&nbsp;&nbsp;&nbsp;&nbsp;&nbsp;&nbsp;&nbsp; Regards FED<img alt=\"sad face\" height=\"23\" src=\"https://www.parkinsons.org.uk/sites/all/modules/custom/park_smilies/images/gifs/sadface.gif\" title=\"sad face\" width=\"23\" /></p>\n      </div>\n      <meta itemprop='interactionCount' content='UserLikes:0'>\n      <meta itemprop='interactionCount' content='UserComments:0'>\n      <meta itemprop='headline' content='Does anyone know how I feel?'>\n      <hr>\n  </div>\n  <div itemscope itemtype='http://schema.org/DiscussionForumPosting'>\n      <div class='creator'>\n        <span>\n          <a href='/u/TERESKOVA'><b itemprop='author'>TERESKOVA</b></a>\n          \n          <time datetime='2016-10-04T12:22:20Z' itemprop='datePublished'>\n            2016-10-04 12:22:20 UTC\n          </time>\n        </span>\n        <span itemprop='position'>#4</span>\n      </div>\n      <div class='post' itemprop='articleBody'>\n        <p>Thank you both for responding It really helps to know other folk have been where we are now. I have taken all the action I can -Contacting PD nurse .getting sti testing etc etc but it&#39;s been a horrendous week and I can see that this nightmare will last quite a while Partner still in denial and somehow this is my fault (I know it isn&#39;t )I was aware there was a danger to being on the drugs and was vigilant but had no idea it could be as bad as it is ! Your frank and kind responses have helped me today xx</p>\n      </div>\n      <meta itemprop='interactionCount' content='UserLikes:0'>\n      <meta itemprop='interactionCount' content='UserComments:0'>\n      <meta itemprop='headline' content='Does anyone know how I feel?'>\n      <hr>\n  </div>\n  <div itemscope itemtype='http://schema.org/DiscussionForumPosting'>\n      <div class='creator'>\n        <span>\n          <a href='/u/TERESKOVA'><b itemprop='author'>TERESKOVA</b></a>\n          \n          <time datetime='2016-10-06T14:03:00Z' itemprop='datePublished'>\n            2016-10-06 14:03:00 UTC\n          </time>\n        </span>\n        <span itemprop='position'>#5</span>\n      </div>\n      <div class='post' itemprop='articleBody'>\n        <p>It feels like this nightmare is never ending&nbsp;I&#39;m finding more and more evidence of the behaviours and partner completely in denial Reduction of the drug has begun I hope I get my warm loving caring honest man back but at the moment hes not communicating with me or anyone else . At least here there are folk who understand My support network- protective of me- just want me rid of him and the medics dealing with me keep telling me its domestic abuse and I need that kind of counselling HEARTBROKEN&nbsp;</p>\n      </div>\n      <meta itemprop='interactionCount' content='UserLikes:0'>\n      <meta itemprop='interactionCount' content='UserComments:0'>\n      <meta itemprop='headline' content='Does anyone know how I feel?'>\n      <hr>\n  </div>\n  <div itemscope itemtype='http://schema.org/DiscussionForumPosting'>\n      <div class='creator'>\n        <span>\n          <a href='/u/goldengirl'><b itemprop='author'>goldengirl</b></a>\n          \n          <time datetime='2016-10-07T08:58:14Z' itemprop='datePublished'>\n            2016-10-07 08:58:14 UTC\n          </time>\n        </span>\n        <span itemprop='position'>#6</span>\n      </div>\n      <div class='post' itemprop='articleBody'>\n        <p>Dearest Tereskova</p>\r\n<p>I&nbsp;understand the horror of your situation. Whilst still under the effects of DAs your husband will still lie, deceive, refuse to accept that he is under the influence of a drug more powerful than heroin.</p>\r\n<p>The washout period is long, many weeks after complete withdrawal.</p>\r\n<p><span style=\"line-height: 1.4;\">For now he is not your husband but a </span><span style=\"line-height: 1.4;\">drug-crazed monster.</span></p>\r\n<p>Alongside medical intervention we eventually got help from a neuropsychologist...you have to be referred by a consultant. They specialise in treating psychological problems caused by neurological conditions or their treatment.</p>\r\n<p>She helped me and my husband for 2 years and I feel I owe my life to her.</p>\r\n<p>Beg for this help,if necessary.</p>\r\n<p>6 years on we have a life that is bearable. It is not the same life....we have never really recovered completely. Our savings gone, mistrust remaining from family and friends, still some flashbacks....but we are still together and surviving.</p>\r\n<p>I will never fully know the details of the deviant, destructive behaviour of those years or forgive the consultant who prescribed 50% of the licensed&nbsp;dose of RequipXL for many years creating this monster but we can enjoy time together, holidays, time with our children and grandchildren .</p>\r\n<p>Be strong, ask for help, you will survive.</p>\r\n<p>Love</p>\r\n<p>GG</p>\r\n<p>xxxxx</p>\r\n<p>&nbsp;</p>\r\n<p>&nbsp;</p>\r\n<p>&nbsp;</p>\n      </div>\n      <meta itemprop='interactionCount' content='UserLikes:0'>\n      <meta itemprop='interactionCount' content='UserComments:1'>\n      <meta itemprop='headline' content='Does anyone know how I feel?'>\n      <hr>\n  </div>\n  <div itemscope itemtype='http://schema.org/DiscussionForumPosting'>\n      <div class='creator'>\n        <span>\n          <a href='/u/Ali_p'><b itemprop='author'>Ali_p</b></a>\n          \n          <time datetime='2016-10-07T09:39:18Z' itemprop='datePublished'>\n            2016-10-07 09:39:18 UTC\n          </time>\n        </span>\n        <span itemprop='position'>#7</span>\n      </div>\n      <div class='post' itemprop='articleBody'>\n        <p>Why, after years of evidence of these drugs causing so much heartbreak are they still being prescribed? &nbsp;</p>\r\n<p>I find this heartbreaking.</p>\r\n<p>Thank you TERESKOVA&nbsp;for sharing what you are going through and highlighting the dangers of these medications. I really hope you get your husband back soon xxx</p>\r\n<p>&nbsp;</p>\n      </div>\n      <meta itemprop='interactionCount' content='UserLikes:0'>\n      <meta itemprop='interactionCount' content='UserComments:0'>\n      <meta itemprop='headline' content='Does anyone know how I feel?'>\n      <hr>\n  </div>\n  <div itemscope itemtype='http://schema.org/DiscussionForumPosting'>\n      <div class='creator'>\n        <span>\n          <a href='/u/goldengirl'><b itemprop='author'>goldengirl</b></a>\n          \n          <time datetime='2016-10-07T09:53:25Z' itemprop='datePublished'>\n            2016-10-07 09:53:25 UTC\n          </time>\n        </span>\n        <span itemprop='position'>#8</span>\n      </div>\n      <div class='post' itemprop='articleBody'>\n        <p>Meant 50% MORE than the licensed dose...ie 36 mg a day!</p>\n      </div>\n      <meta itemprop='interactionCount' content='UserLikes:0'>\n      <meta itemprop='interactionCount' content='UserComments:0'>\n      <meta itemprop='headline' content='Does anyone know how I feel?'>\n      <hr>\n  </div>\n  <div itemscope itemtype='http://schema.org/DiscussionForumPosting'>\n      <div class='creator'>\n        <span>\n          <a href='/u/TERESKOVA'><b itemprop='author'>TERESKOVA</b></a>\n          \n          <time datetime='2016-10-07T16:53:58Z' itemprop='datePublished'>\n            2016-10-07 16:53:58 UTC\n          </time>\n        </span>\n        <span itemprop='position'>#9</span>\n      </div>\n      <div class='post' itemprop='articleBody'>\n        <p>Thanks Goldengirl&nbsp;it&#39;s good to know you have survived albeit with scars I&#39;m HORRIFIED your husband was prescribed more than the licensed dose! Currently my partner isn&#39;t talking to me I&#39;ve told him ignoring me isn&#39;t going to make all this or me go away Meanwhile I struggle on with effects of treatment for PID and possible STIs and face further testing next week while medics and friends emphasise that this is classed as domestic violence and urge me to cut all ties.I just can&#39;t do that we have too much history to give up on our future. Thanks Ali p I couldn&#39;t not highlight the dangers I&#39;m sure there are many folk even less aware than &nbsp;I was of the effects of these drugs My partner only went to PDclinic 6monthly and clearly just said he was fine on them there isn&#39;t careful enough monitoring or liasing with nearest and dearest who will suffer the fallout&nbsp;</p>\n      </div>\n      <meta itemprop='interactionCount' content='UserLikes:0'>\n      <meta itemprop='interactionCount' content='UserComments:0'>\n      <meta itemprop='headline' content='Does anyone know how I feel?'>\n      <hr>\n  </div>\n  <div itemscope itemtype='http://schema.org/DiscussionForumPosting'>\n      <div class='creator'>\n        <span>\n          <a href='/u/bcingu'><b itemprop='author'>bcingu</b></a>\n          \n          <time datetime='2016-10-18T11:50:27Z' itemprop='datePublished'>\n            2016-10-18 11:50:27 UTC\n          </time>\n        </span>\n        <span itemprop='position'>#10</span>\n      </div>\n      <div class='post' itemprop='articleBody'>\n        <p>Hello Tereskova</p>\r\n<p>I know precisely what you are going through as do far too many others. Your love for your partner is commendable. He is not the man you once knew but take courage, with correct intervention he can be once again.&nbsp;</p>\r\n<p>DA&#39;s can completely change a persons character, even sexual orientation.</p>\r\n<p>Reading your post I feel your agony. I am not medically qualified and I am not giving you advice, I am simply sharing elements of my story and my heart of empathy towards&nbsp;you.</p>\r\n<p>We have faced this battle as a family for 16 years. I recall&nbsp;with deep sorrow being in a similar position to your partner. For years I lived a lie and a double life seemingly unable to make right choices on a day to day basis. I believe I had a strange awareness of my actions yet without any sense of volition. I hated myself. I hated the torment. I could talk to no one.</p>\r\n<p>Were it not for the love and commitment of my wife and hero I would not be writing this today.</p>\r\n<p>4 years ago I changed the regime of meds that I started in 2003 and for me, that was the solution. Unfortunately the change came too late to save me from the most serious and damaging criminal behaviour. We&nbsp;are not out of the woods by a long shot but we are currently trying to rebuild our lives in the aftermath of something so devastating and beyond our comprehension even today.&nbsp;</p>\r\n<p>I share with you just the tip if the iceberg in an effort to avert further disaster and give you hope.</p>\r\n<p>For legal reasons and because I haven&#39;t got the emotional strength I can&#39;t share further details.&nbsp;</p>\r\n<p>Work tirelessly with the PD nurse and other health care professionals. Beg for help. Beg for your life before you risk finding yourself at the point of no return. However great the darkness, the light is always greater. Always hope. Always love.</p>\r\n<p>x</p>\r\n<p>&nbsp;</p>\n      </div>\n      <meta itemprop='interactionCount' content='UserLikes:0'>\n      <meta itemprop='interactionCount' content='UserComments:0'>\n      <meta itemprop='headline' content='Does anyone know how I feel?'>\n      <hr>\n  </div>\n  <div itemscope itemtype='http://schema.org/DiscussionForumPosting'>\n      <div class='creator'>\n        <span>\n          <a href='/u/TERESKOVA'><b itemprop='author'>TERESKOVA</b></a>\n          \n          <time datetime='2016-10-21T18:00:32Z' itemprop='datePublished'>\n            2016-10-21 18:00:32 UTC\n          </time>\n        </span>\n        <span itemprop='position'>#11</span>\n      </div>\n      <div class='post' itemprop='articleBody'>\n        <p>Thank you for sharing your experience bcingu it makes such a difference to know that others have been where we are now coping with the DA side effects and icb &nbsp;Physically I am at a low ebb with a virulent infection and the effects of treatment and hep B vaccination The mental effects of revealing all of this deceit and coping with repeated visits to sexual health clinic &nbsp;and the opinions of others and OH at times that I should walk are enormous but this too shall pass and I WILL NOT GIVE UP ON HIM OR US !</p>\n      </div>\n      <meta itemprop='interactionCount' content='UserLikes:0'>\n      <meta itemprop='interactionCount' content='UserComments:0'>\n      <meta itemprop='headline' content='Does anyone know how I feel?'>\n      <hr>\n  </div>\n  <div itemscope itemtype='http://schema.org/DiscussionForumPosting'>\n      <div class='creator'>\n        <span>\n          <a href='/u/TERESKOVA'><b itemprop='author'>TERESKOVA</b></a>\n          \n          <time datetime='2016-11-03T12:07:00Z' itemprop='datePublished'>\n            2016-11-03 12:07:00 UTC\n          </time>\n        </span>\n        <span itemprop='position'>#12</span>\n      </div>\n      <div class='post' itemprop='articleBody'>\n        <p>Six weeks in &nbsp;this nightmare and it just gets worse Getting help seems to require constant phone calls and chasing up professionals Im just exhausted !</p>\n      </div>\n      <meta itemprop='interactionCount' content='UserLikes:0'>\n      <meta itemprop='interactionCount' content='UserComments:0'>\n      <meta itemprop='headline' content='Does anyone know how I feel?'>\n      <hr>\n  </div>\n  <div itemscope itemtype='http://schema.org/DiscussionForumPosting'>\n      <div class='creator'>\n        <span>\n          <a href='/u/chris10'><b itemprop='author'>chris10</b></a>\n          \n          <time datetime='2017-02-07T13:47:55Z' itemprop='datePublished'>\n            2017-02-07 13:47:55 UTC\n          </time>\n        </span>\n        <span itemprop='position'>#13</span>\n      </div>\n      <div class='post' itemprop='articleBody'>\n        <p>Hi Tereskova,</p>\r\n<p>Just been reading your thread. How are things now? I quit Mirapexin last year after it turned me in to a psychotic gambler. I so nearly lost everything, marriage, home....nothing was normal. I had terrible withdrawal symptoms coming off Mirapexin. DAs&nbsp;are brilliant drugs for Pd when they work correctly, but the problem with them is that if they do not, and they make the patient OCD, then the patient will not tell you about things going wrong until they have reached the point of no return, generally when things are so bad that they simply cannot hide the compulsive problems any more, in my case having lost tens of thousands of pounds.</p>\r\n<p>Life with Pd or life with a Pd patient is a cruel and complicated journey. It was only after the superhuman love my wife demonstrated to me she has for me, that I set about mending my ways. Having come off the high dosage of this drug, my mind is cleaner. I now can enjoy the freedom of not deceiving, hiding, or worrying. I am not able to move properly anymore, but we&#39;re still working on that, but I have my marriage, and without that would have nothing.</p>\r\n<p>You can make it I am sure. Any advice or support I can give, I would be more than happy to offer.</p>\r\n<p>Regards,</p>\r\n<p>Chris</p>\n      </div>\n      <meta itemprop='interactionCount' content='UserLikes:0'>\n      <meta itemprop='interactionCount' content='UserComments:0'>\n      <meta itemprop='headline' content='Does anyone know how I feel?'>\n      <hr>\n  </div>\n  <div itemscope itemtype='http://schema.org/DiscussionForumPosting'>\n      <div class='creator'>\n        <span>\n          <a href='/u/FEDEXLIKE2'><b itemprop='author'>FEDEXLIKE2</b></a>\n          \n          <time datetime='2017-02-08T15:26:50Z' itemprop='datePublished'>\n            2017-02-08 15:26:50 UTC\n          </time>\n        </span>\n        <span itemprop='position'>#14</span>\n      </div>\n      <div class='post' itemprop='articleBody'>\n        <p>Hello Tereskova</p>\r\n<p>&nbsp; &nbsp; &nbsp; &nbsp; &nbsp; &nbsp; &nbsp; I share your agony friend for as I mentioned in my earlier post I &nbsp;caused my &nbsp;dearest wife &nbsp;the &nbsp;same heart ache through my &nbsp;unforgivable behaviour we are ok now but &nbsp;there will always be &nbsp;that &nbsp;lack of trust though I never &nbsp;sought gratification elsewhere its the destruction &nbsp;of &nbsp;trust , thats the killer blow for &nbsp;if &nbsp;you &nbsp;cannot learn &nbsp;to &nbsp;trust him once &nbsp;through this &nbsp;horrible situation then hope is lost &nbsp;given the &nbsp; right &nbsp;meds im&nbsp;sure &nbsp;your &nbsp;husband can &nbsp;recover and &nbsp;will be ashamed of &nbsp;himself, I was and &nbsp;always will be</p>\r\n<p>&nbsp; &nbsp; &nbsp; &nbsp; &nbsp; &nbsp; &nbsp; &nbsp; &nbsp; &nbsp; &nbsp; &nbsp; &nbsp; &nbsp; &nbsp; &nbsp; &nbsp; &nbsp; &nbsp; &nbsp; I HOPE WITH ALL MY &nbsp;HEART THAT &nbsp;THIS COMES RIGHT</p>\r\n<p>&nbsp; &nbsp; &nbsp; &nbsp; &nbsp; &nbsp; &nbsp; &nbsp; &nbsp; &nbsp; &nbsp; &nbsp; &nbsp; &nbsp; &nbsp; &nbsp; &nbsp; &nbsp; &nbsp; &nbsp; &nbsp; &nbsp; &nbsp; &nbsp; &nbsp; &nbsp; &nbsp; &nbsp; &nbsp;Best wishes &nbsp;FEDSS</p>\n      </div>\n      <meta itemprop='interactionCount' content='UserLikes:0'>\n      <meta itemprop='interactionCount' content='UserComments:0'>\n      <meta itemprop='headline' content='Does anyone know how I feel?'>\n      <hr>\n  </div>\n  <div itemscope itemtype='http://schema.org/DiscussionForumPosting'>\n      <div class='creator'>\n        <span>\n          <a href='/u/clb18'><b itemprop='author'>clb18</b></a>\n          \n          <time datetime='2017-04-13T21:49:29Z' itemprop='datePublished'>\n            2017-04-13 21:49:29 UTC\n          </time>\n        </span>\n        <span itemprop='position'>#15</span>\n      </div>\n      <div class='post' itemprop='articleBody'>\n        <p>Dear Tereskova,&nbsp;</p>\r\n<p>I came on the forum tonight looking for some​ support and read this thread. I&#39;m so sorry you have had such an awful time. I truly​ hope​ you are okay, l found your strength and love for your husband &nbsp;so moving. Thank you for being brave enough to share, I wish you peace,</p>\r\n<p>CB xx</p>\n      </div>\n      <meta itemprop='interactionCount' content='UserLikes:0'>\n      <meta itemprop='interactionCount' content='UserComments:0'>\n      <meta itemprop='headline' content='Does anyone know how I feel?'>\n      <hr>\n  </div>\n  <div itemscope itemtype='http://schema.org/DiscussionForumPosting'>\n      <div class='creator'>\n        <span>\n          <a href='/u/ali_j'><b itemprop='author'>ali_j</b></a>\n          \n          <time datetime='2017-05-31T14:49:01Z' itemprop='datePublished'>\n            2017-05-31 14:49:01 UTC\n          </time>\n        </span>\n        <span itemprop='position'>#16</span>\n      </div>\n      <div class='post' itemprop='articleBody'>\n        <p>Here I&#39;m sitting with my feet up&nbsp;again,there swollen,it keeps happing to me.Does anyone no why?Ive&nbsp;been put on water tablets,not working,been on them nearly 2 weeks.</p>\n      </div>\n      <meta itemprop='interactionCount' content='UserLikes:0'>\n      <meta itemprop='interactionCount' content='UserComments:0'>\n      <meta itemprop='headline' content='Does anyone know how I feel?'>\n      <hr>\n  </div>\n  <div itemscope itemtype='http://schema.org/DiscussionForumPosting'>\n      <div class='creator'>\n        <span>\n          <a href='/u/TERESKOVA'><b itemprop='author'>TERESKOVA</b></a>\n          \n          <time datetime='2018-10-05T22:39:23Z' itemprop='datePublished'>\n            2018-10-05 22:39:23 UTC\n          </time>\n        </span>\n        <span itemprop='position'>#17</span>\n      </div>\n      <div class='post' itemprop='articleBody'>\n        <p>WELL HERE WE GO AGAIN  now husband on Simenet almost a year and displaying hypersexuality AGAIN His browsing history is horrific he is trawling dating sites etc and is in total denial Currently in huff for 3 days because I wouldnt show him how to delete internet history and said I would continue to delete it and monitor it because I’d rather know what he is up to than be in the dark ! It’s like banging my head off a brick wall AAAAGGGHHHH</p>\n      </div>\n      <meta itemprop='interactionCount' content='UserLikes:0'>\n      <meta itemprop='interactionCount' content='UserComments:0'>\n      <meta itemprop='headline' content='Does anyone know how I feel?'>\n      <hr>\n  </div>\n\n\n\n\n\n\n    </div>\n    <footer class=\"container\">\n      <nav class='crawler-nav' itemscope itemtype='http://schema.org/SiteNavigationElement'>\n        <a href='/'>Home</a>\n        <a href=\"/categories\">Categories</a>\n        <a href=\"/guidelines\">FAQ/Guidelines</a>\n        <a href=\"/tos\">Terms of Service</a>\n        <a href=\"/privacy\">Privacy Policy</a>\n      </nav>\n      <p class='powered-by-link'>Powered by <a href=\"https://www.discourse.org\">Discourse</a>, best viewed with JavaScript enabled</p>\n    </footer>\n    \n  </body>\n  \n</html>\n",
  "url": "https://forum.parkinsons.org.uk/t/does-anyone-know-how-i-feel/9462"
}