{
  "contentId": "7a219880-8864-11e9-8f96-97f71b5221d6",
  "html": "<!DOCTYPE html>\n<html lang=\"en\">\n  <head>\n    <meta charset=\"utf-8\">\n    <title>Today I cried for me - Introductions and personal stories - Parkinson&#39;s UK Forum</title>\n    <meta name=\"description\" content=\"Today I cried, I cried for me \nI cried for my lost dignity \nI cried for all the things I’ve lost \nThose little things I miss the most \nI cried for me and for my pain \nFor things I’ll never do again \nI cried for legs that&amp;hellip;\">\n    <meta name=\"author\" content=\"\">\n<meta name=\"generator\" content=\"Discourse 2.2.5 - https://github.com/discourse/discourse version c294ff3609f988dcafb742e91606d60ca13b794d\">\n<link rel=\"icon\" type=\"image/png\" href=\"https://forum.parkinsons.org.uk/uploads/db7928/original/2X/3/311fc84f89f49f38601a2f16b295b6f03d3ce5dd.jpg\">\n<link rel=\"apple-touch-icon\" type=\"image/png\" href=\"https://forum.parkinsons.org.uk/uploads/db7928/original/2X/3/311fc84f89f49f38601a2f16b295b6f03d3ce5dd.jpg\">\n<meta name=\"theme-color\" content=\"#ffffff\">\n<meta name=\"viewport\" content=\"width=device-width, minimum-scale=1.0, maximum-scale=1.0, user-scalable=yes\">\n<link rel=\"canonical\" href=\"https://forum.parkinsons.org.uk/t/today-i-cried-for-me/14890\" />\n<script type=\"application/ld+json\">{\"@context\":\"http://schema.org\",\"@type\":\"WebSite\",\"url\":\"https://forum.parkinsons.org.uk\",\"potentialAction\":{\"@type\":\"SearchAction\",\"target\":\"https://forum.parkinsons.org.uk/search?q={search_term_string}\",\"query-input\":\"required name=search_term_string\"}}</script>\n<link rel=\"search\" type=\"application/opensearchdescription+xml\" href=\"https://forum.parkinsons.org.uk/opensearch.xml\" title=\"Parkinson&#39;s UK Forum Search\">\n\n      <link href=\"/stylesheets/desktop_f99246ae801b083d3e4cca979d0dade8615b39ac.css?__ws=forum.parkinsons.org.uk\" media=\"all\" rel=\"stylesheet\" data-target=\"desktop\" data-theme-id=\"12\"/>\n      <link href=\"/stylesheets/desktop_theme_12_5d27531cf43f9df0c03a6a6ec3109dd05f9dfc49.css?__ws=forum.parkinsons.org.uk\" media=\"all\" rel=\"stylesheet\" data-target=\"desktop_theme\" data-theme-id=\"12\"/>\n    <link href=\"https://fonts.googleapis.com/css?family=Open+Sans\" rel=\"stylesheet\">\n\n    <meta id=\"data-ga-universal-analytics\" data-tracking-code=\"UA-4855628-1\" data-json=\"{&quot;cookieDomain&quot;:&quot;auto&quot;}\" data-auto-link-domains=\"\">\n\n<link rel='preload' href='/assets/google-universal-analytics-f35b4da49411e6f5559073523aab983da483976a3954c79c756f8579f6fbd6ef.js' as='script'/>\n<script src='/assets/google-universal-analytics-f35b4da49411e6f5559073523aab983da483976a3954c79c756f8579f6fbd6ef.js'></script>\n\n      <link rel=\"alternate\" type=\"application/rss+xml\" title=\"RSS feed of &#39;Today I cried for me&#39;\" href=\"https://forum.parkinsons.org.uk/t/today-i-cried-for-me/14890.rss\" />\n  <meta property=\"og:site_name\" content=\"Parkinson&#39;s UK Forum\" />\n<meta name=\"twitter:card\" content=\"summary\" />\n<meta name=\"twitter:image\" content=\"https://forum.parkinsons.org.uk/uploads/db7928/original/2X/3/311fc84f89f49f38601a2f16b295b6f03d3ce5dd.jpg\" />\n<meta property=\"og:image\" content=\"https://forum.parkinsons.org.uk/uploads/db7928/original/2X/3/311fc84f89f49f38601a2f16b295b6f03d3ce5dd.jpg\" />\n<meta property=\"og:url\" content=\"https://forum.parkinsons.org.uk/t/today-i-cried-for-me/14890\" />\n<meta name=\"twitter:url\" content=\"https://forum.parkinsons.org.uk/t/today-i-cried-for-me/14890\" />\n<meta property=\"og:title\" content=\"Today I cried for me\" />\n<meta name=\"twitter:title\" content=\"Today I cried for me\" />\n<meta property=\"og:description\" content=\"Today I cried, I cried for me  I cried for my lost dignity  I cried for all the things I’ve lost  Those little things I miss the most  I cried for me and for my pain  For things I’ll never do again  I cried for legs that don’t work right  For the hours spent awake at night  I didn’t cry for sympathy  Nor for pity, that’s not me  It wasn’t anger, rage or hate  So why this sad and sorry state?  Somethings gone  It’s gone forever  It won’t return  Never ever  I’m missing me  I think that’s why  I s...\" />\n<meta name=\"twitter:description\" content=\"Today I cried, I cried for me  I cried for my lost dignity  I cried for all the things I’ve lost  Those little things I miss the most  I cried for me and for my pain  For things I’ll never do again  I cried for legs that don’t work right  For the hours spent awake at night  I didn’t cry for sympathy  Nor for pity, that’s not me  It wasn’t anger, rage or hate  So why this sad and sorry state?  Somethings gone  It’s gone forever  It won’t return  Never ever  I’m missing me  I think that’s why  I s...\" />\n<meta name=\"twitter:label1\" value=\"Reading time\" />\n<meta name=\"twitter:data1\" value=\"8 mins \uD83D\uDD51\" />\n<meta name=\"twitter:label2\" value=\"Likes\" />\n<meta name=\"twitter:data2\" value=\"47 ❤\" />\n<meta property=\"article:published_time\" content=\"2018-07-30T09:13:28+00:00\" />\n<meta property=\"og:ignore_canonical\" content=\"true\" />\n\n      <link rel=\"next\" href=\"/t/today-i-cried-for-me/14890?page=2\">\n\n\n    \n  </head>\n  <body class=\"crawler\">\n    <header role=\"banner\">\n    <div class=\"region region-header\">\n        <div class=\"region-header-wrapper\">\n            <div id=\"block-parkinsons-d8-branding\" class=\"block block-system block-system-branding-block\">\n                <a href=\"/\" title=\"Home\" rel=\"home\" class=\"site-logo\">\n                    <img src=\"https://forum.parkinsons.org.uk/uploads/db7928/original/2X/8/862bb7d172e7d127e7f3e147ec43594aa62ac945.png\" alt=\"Parkinson's UK. Change Attitudes. Find a cure. Join us.\">\n                </a>\n            </div>\n            <div id=\"block-helpline\" class=\"block block-block-content block-block-content871cd5af-b938-4947-9dc0-d5c211d08fe3 style-phone\">\n                <div class=\"field field--name-field-link field--type-link field--label-hidden field__item\"><a href=\"tel:+448088000303\">Helpline 0808 800 0303</a></div>\n            </div>\n            <div id=\"block-shop\" class=\"block block-block-content block-block-content6fba5ae5-7797-49cd-8367-f321d8111cd6 style-regular\">\n                <div class=\"field field--name-field-link field--type-link field--label-hidden field__item\"><a href=\"https://shop.parkinsons.org.uk\">Shop</a></div>\n            </div>\n        </div>\n    </div>\n</header>\n\n\n<script src=\"/theme-javascripts/b7e9763fcb584fc8265c56a9f557cd6d2e1e8ed8.js?__ws=forum.parkinsons.org.uk\"></script>\n    <header>\n      <a href=\"/\">\n          <img src=\"https://forum.parkinsons.org.uk/uploads/db7928/original/2X/8/862bb7d172e7d127e7f3e147ec43594aa62ac945.png\" alt=\"Parkinson&#39;s UK Forum\" id=\"site-logo\" style=\"max-width: 150px;\">\n      </a>\n    </header>\n    <div id=\"main-outlet\" class=\"wrap\">\n      <h1>\n  <a href=\"/t/today-i-cried-for-me/14890\">Today I cried for me</a>\n</h1>\n\n<div id='breadcrumbs'>\n    <div id=\"breadcrumb-0\" itemscope itemtype=\"http://data-vocabulary.org/Breadcrumb\"\n        itemref=\"breadcrumb-1\"\n      >\n      <a href=\"/c/about-me\" itemprop=\"url\">\n        <span itemprop=\"title\">About me</span>\n      </a>\n    </div>\n    <div id=\"breadcrumb-1\" itemscope itemtype=\"http://data-vocabulary.org/Breadcrumb\"\n>\n      <a href=\"/c/about-me/introductions-and-personal-stories\" itemprop=\"url\">\n        <span itemprop=\"title\">Introductions and personal stories</span>\n      </a>\n    </div>\n</div>\n\n\n\n\n\n<hr>\n\n\n  <div itemscope itemtype='http://schema.org/DiscussionForumPosting'>\n      <div class='creator'>\n        <span>\n          <a href='/u/Hubby'><b itemprop='author'>Hubby</b></a>\n          \n          <time datetime='2018-07-30T09:13:28Z' itemprop='datePublished'>\n            2018-07-30 09:13:28 UTC\n          </time>\n        </span>\n        <span itemprop='position'>#1</span>\n      </div>\n      <div class='post' itemprop='articleBody'>\n        <p>Today I cried, I cried for me<br>\nI cried for my lost dignity<br>\nI cried for all the things I’ve lost<br>\nThose little things I miss the most</p>\n<p>I cried for me and for my pain<br>\nFor things I’ll never do again<br>\nI cried for legs that don’t work right<br>\nFor the hours spent awake at night</p>\n<p>I didn’t cry for sympathy<br>\nNor for pity, that’s not me<br>\nIt wasn’t anger, rage or hate<br>\nSo why this sad and sorry state?</p>\n<p>Somethings gone<br>\nIt’s gone forever<br>\nIt won’t return<br>\nNever ever</p>\n<p>I’m missing me<br>\nI think that’s why<br>\nI sometimes sit alone<br>\nAnd cry</p>\n<p>It’s not my body<br>\nNot my brain<br>\nIt’s not my fault<br>\nBut it’s my pain</p>\n<p>It’s like I’ve gone<br>\nI’ve been replaced<br>\nEven though<br>\nIt’s still my face</p>\n<p>What to do?<br>\nI don’t know<br>\nPut a brave face on<br>\nKeep up the show</p>\n<p>This game of charades<br>\nThat is now my life<br>\nHas to go on<br>\nWhatever the strife</p>\n<p>So excuse me<br>\nIf I take a while<br>\nLose the chatter<br>\nDrop the smile</p>\n<p>I’ll have a little cry for me<br>\nAnd nobody will have to see<br>\nLife will just continue on<br>\nNothing different, nothing wrong</p>\n<p>But when it’s dark<br>\nToo dark to see<br>\nI’ll have a few tears<br>\nJust for me</p>\n      </div>\n      <meta itemprop='interactionCount' content='UserLikes:24'>\n      <meta itemprop='interactionCount' content='UserComments:2'>\n      <meta itemprop='headline' content='Today I cried for me'>\n      <hr>\n  </div>\n  <div itemscope itemtype='http://schema.org/DiscussionForumPosting'>\n      <div class='creator'>\n        <span>\n          <a href='/u/sheffy'><b itemprop='author'>sheffy</b></a>\n          \n          <time datetime='2018-07-30T15:11:31Z' itemprop='datePublished'>\n            2018-07-30 15:11:31 UTC\n          </time>\n        </span>\n        <span itemprop='position'>#2</span>\n      </div>\n      <div class='post' itemprop='articleBody'>\n        <p>Aww that’s really good Hubby, just about everyone’s thoughts put into written poetry</p>\n<p>sheffy x</p>\n      </div>\n      <meta itemprop='interactionCount' content='UserLikes:0'>\n      <meta itemprop='interactionCount' content='UserComments:0'>\n      <meta itemprop='headline' content='Today I cried for me'>\n      <hr>\n  </div>\n  <div itemscope itemtype='http://schema.org/DiscussionForumPosting'>\n      <div class='creator'>\n        <span>\n          <a href='/u/Roro'><b itemprop='author'>Roro</b></a>\n          \n          <time datetime='2018-07-30T15:48:45Z' itemprop='datePublished'>\n            2018-07-30 15:48:45 UTC\n          </time>\n        </span>\n        <span itemprop='position'>#3</span>\n      </div>\n      <div class='post' itemprop='articleBody'>\n        <p>You have it spot on, and said in such a lovely way. Thank you Hubby x</p>\n      </div>\n      <meta itemprop='interactionCount' content='UserLikes:0'>\n      <meta itemprop='interactionCount' content='UserComments:0'>\n      <meta itemprop='headline' content='Today I cried for me'>\n      <hr>\n  </div>\n  <div itemscope itemtype='http://schema.org/DiscussionForumPosting'>\n      <div class='creator'>\n        <span>\n          <a href='/u/babswood'><b itemprop='author'>babswood</b></a>\n          \n          <time datetime='2018-07-30T18:14:03Z' itemprop='datePublished'>\n            2018-07-30 18:14:03 UTC\n          </time>\n        </span>\n        <span itemprop='position'>#4</span>\n      </div>\n      <div class='post' itemprop='articleBody'>\n        <p>Brilliant stuff.</p>\n      </div>\n      <meta itemprop='interactionCount' content='UserLikes:0'>\n      <meta itemprop='interactionCount' content='UserComments:0'>\n      <meta itemprop='headline' content='Today I cried for me'>\n      <hr>\n  </div>\n  <div itemscope itemtype='http://schema.org/DiscussionForumPosting'>\n      <div class='creator'>\n        <span>\n          <a href='/u/julieg'><b itemprop='author'>julieg</b></a>\n          \n          <time datetime='2018-07-30T20:26:43Z' itemprop='datePublished'>\n            2018-07-30 20:26:43 UTC\n          </time>\n        </span>\n        <span itemprop='position'>#5</span>\n      </div>\n      <div class='post' itemprop='articleBody'>\n        <p>What a love ly poem awe all need to cry for our loss</p>\n      </div>\n      <meta itemprop='interactionCount' content='UserLikes:1'>\n      <meta itemprop='interactionCount' content='UserComments:0'>\n      <meta itemprop='headline' content='Today I cried for me'>\n      <hr>\n  </div>\n  <div itemscope itemtype='http://schema.org/DiscussionForumPosting'>\n      <div class='creator'>\n        <span>\n          <a href='/u/ANNE29'><b itemprop='author'>ANNE29</b></a>\n          \n          <time datetime='2018-07-30T20:29:48Z' itemprop='datePublished'>\n            2018-07-30 20:29:48 UTC\n          </time>\n        </span>\n        <span itemprop='position'>#6</span>\n      </div>\n      <div class='post' itemprop='articleBody'>\n        <p>Excellent Hubby,Thanks.<br>\nAnne</p>\n      </div>\n      <meta itemprop='interactionCount' content='UserLikes:0'>\n      <meta itemprop='interactionCount' content='UserComments:0'>\n      <meta itemprop='headline' content='Today I cried for me'>\n      <hr>\n  </div>\n  <div itemscope itemtype='http://schema.org/DiscussionForumPosting'>\n      <div class='creator'>\n        <span>\n          <a href='/u/Margs'><b itemprop='author'>Margs</b></a>\n          \n          <time datetime='2018-07-31T06:59:37Z' itemprop='datePublished'>\n            2018-07-31 06:59:37 UTC\n          </time>\n        </span>\n        <span itemprop='position'>#7</span>\n      </div>\n      <div class='post' itemprop='articleBody'>\n        <p>Too true, reading this made me cry.</p>\n      </div>\n      <meta itemprop='interactionCount' content='UserLikes:1'>\n      <meta itemprop='interactionCount' content='UserComments:0'>\n      <meta itemprop='headline' content='Today I cried for me'>\n      <hr>\n  </div>\n  <div itemscope itemtype='http://schema.org/DiscussionForumPosting'>\n      <div class='creator'>\n        <span>\n          <a href='/u/ElleMac'><b itemprop='author'>ElleMac</b></a>\n          \n          <time datetime='2018-07-31T07:46:22Z' itemprop='datePublished'>\n            2018-07-31 07:46:22 UTC\n          </time>\n        </span>\n        <span itemprop='position'>#8</span>\n      </div>\n      <div class='post' itemprop='articleBody'>\n        <p>Lovely, Hubby. And a good cry is a good thing. X</p>\n      </div>\n      <meta itemprop='interactionCount' content='UserLikes:0'>\n      <meta itemprop='interactionCount' content='UserComments:0'>\n      <meta itemprop='headline' content='Today I cried for me'>\n      <hr>\n  </div>\n  <div itemscope itemtype='http://schema.org/DiscussionForumPosting'>\n      <div class='creator'>\n        <span>\n          <a href='/u/Chrissyh'><b itemprop='author'>Chrissyh</b></a>\n          \n          <time datetime='2018-07-31T22:51:07Z' itemprop='datePublished'>\n            2018-07-31 22:51:07 UTC\n          </time>\n        </span>\n        <span itemprop='position'>#9</span>\n      </div>\n      <div class='post' itemprop='articleBody'>\n        <p>Describes it very well, my husband has Parkinson’s and I know that’s how he feels. But I have a different disability, yet that poem also speaks for me and how I feel.</p>\n      </div>\n      <meta itemprop='interactionCount' content='UserLikes:0'>\n      <meta itemprop='interactionCount' content='UserComments:0'>\n      <meta itemprop='headline' content='Today I cried for me'>\n      <hr>\n  </div>\n  <div itemscope itemtype='http://schema.org/DiscussionForumPosting'>\n      <div class='creator'>\n        <span>\n          <a href='/u/malcT'><b itemprop='author'>malcT</b></a>\n          \n          <time datetime='2018-07-31T23:39:48Z' itemprop='datePublished'>\n            2018-07-31 23:39:48 UTC\n          </time>\n        </span>\n        <span itemprop='position'>#10</span>\n      </div>\n      <div class='post' itemprop='articleBody'>\n        <p>Well said my man. I wondered where you had been. You deserve all these plaudits<br>\nNice one H</p>\n      </div>\n      <meta itemprop='interactionCount' content='UserLikes:0'>\n      <meta itemprop='interactionCount' content='UserComments:0'>\n      <meta itemprop='headline' content='Today I cried for me'>\n      <hr>\n  </div>\n  <div itemscope itemtype='http://schema.org/DiscussionForumPosting'>\n      <div class='creator'>\n        <span>\n          <a href='/u/Hubby'><b itemprop='author'>Hubby</b></a>\n          \n          <time datetime='2018-08-01T01:03:08Z' itemprop='datePublished'>\n            2018-08-01 01:03:08 UTC\n          </time>\n        </span>\n        <span itemprop='position'>#11</span>\n      </div>\n      <div class='post' itemprop='articleBody'>\n        <p>Thanks everyone for the kind words…<br>\nI had a bad day and something quite trivial set me off.<br>\nMuch love to you all.<br>\nHubby.</p>\n      </div>\n      <meta itemprop='interactionCount' content='UserLikes:0'>\n      <meta itemprop='interactionCount' content='UserComments:0'>\n      <meta itemprop='headline' content='Today I cried for me'>\n      <hr>\n  </div>\n  <div itemscope itemtype='http://schema.org/DiscussionForumPosting'>\n      <div class='creator'>\n        <span>\n          <a href='/u/Lily'><b itemprop='author'>Lily</b></a>\n          \n          <time datetime='2018-08-01T20:10:02Z' itemprop='datePublished'>\n            2018-08-01 20:10:02 UTC\n          </time>\n        </span>\n        <span itemprop='position'>#12</span>\n      </div>\n      <div class='post' itemprop='articleBody'>\n        <p>Hubby, you might have cried for you but you spoke for me.  Thank you so much for sharing your insight so beautifully.</p>\n      </div>\n      <meta itemprop='interactionCount' content='UserLikes:0'>\n      <meta itemprop='interactionCount' content='UserComments:0'>\n      <meta itemprop='headline' content='Today I cried for me'>\n      <hr>\n  </div>\n  <div itemscope itemtype='http://schema.org/DiscussionForumPosting'>\n      <div class='creator'>\n        <span>\n          <a href='/u/KerryJ'><b itemprop='author'>KerryJ</b></a>\n          \n          <time datetime='2018-08-01T21:56:40Z' itemprop='datePublished'>\n            2018-08-01 21:56:40 UTC\n          </time>\n        </span>\n        <span itemprop='position'>#13</span>\n      </div>\n      <div class='post' itemprop='articleBody'>\n        <p>That says it all. I wrote a poem in the early hours which I will post. Think it helps others with and without Parkinson’s to understand some of our frustrations and limitations</p>\n      </div>\n      <meta itemprop='interactionCount' content='UserLikes:0'>\n      <meta itemprop='interactionCount' content='UserComments:0'>\n      <meta itemprop='headline' content='Today I cried for me'>\n      <hr>\n  </div>\n  <div itemscope itemtype='http://schema.org/DiscussionForumPosting'>\n      <div class='creator'>\n        <span>\n          <a href='/u/Pickeringz59'><b itemprop='author'>Pickeringz59</b></a>\n          \n          <time datetime='2018-08-01T23:36:16Z' itemprop='datePublished'>\n            2018-08-01 23:36:16 UTC\n          </time>\n        </span>\n        <span itemprop='position'>#14</span>\n      </div>\n      <div class='post' itemprop='articleBody'>\n        <p>Really lovely poem, think it says a lot.</p>\n      </div>\n      <meta itemprop='interactionCount' content='UserLikes:0'>\n      <meta itemprop='interactionCount' content='UserComments:0'>\n      <meta itemprop='headline' content='Today I cried for me'>\n      <hr>\n  </div>\n  <div itemscope itemtype='http://schema.org/DiscussionForumPosting'>\n      <div class='creator'>\n        <span>\n          <a href='/u/Plus1'><b itemprop='author'>Plus1</b></a>\n          \n          <time datetime='2018-08-02T13:12:29Z' itemprop='datePublished'>\n            2018-08-02 13:12:29 UTC\n          </time>\n        </span>\n        <span itemprop='position'>#15</span>\n      </div>\n      <div class='post' itemprop='articleBody'>\n        <p>Today your words touched my heart<br>\nYour eloquent poem, clear no lies:<br>\nThank you for expressing a hidden part<br>\nOf Parks; we share and empathise</p>\n<p>A falsehood it’s fair to say<br>\nBecause I’m not suffering every day<br>\nFrom shakes, freezing, muddled thoughts and fear<br>\nI’m just a wife watching my husband disappear</p>\n<p>I know he too sheds occasional tears<br>\nAs I do also confronting my fears<br>\nBut move forward we all must do<br>\nAnd I’m thankful to share with people like you<br>\nThoughts, fears, hopes, wishes and more<br>\nShare them here<br>\nWe’ll support each other to the core<br>\nWe’re here and we hear<br>\nJane</p>\n      </div>\n      <meta itemprop='interactionCount' content='UserLikes:2'>\n      <meta itemprop='interactionCount' content='UserComments:1'>\n      <meta itemprop='headline' content='Today I cried for me'>\n      <hr>\n  </div>\n  <div itemscope itemtype='http://schema.org/DiscussionForumPosting'>\n      <div class='creator'>\n        <span>\n          <a href='/u/KerryJ'><b itemprop='author'>KerryJ</b></a>\n          \n          <time datetime='2018-08-02T14:02:01Z' itemprop='datePublished'>\n            2018-08-02 14:02:01 UTC\n          </time>\n        </span>\n        <span itemprop='position'>#16</span>\n      </div>\n      <div class='post' itemprop='articleBody'>\n        <p>Lovely thoughtful words. It is so good to share.</p>\n      </div>\n      <meta itemprop='interactionCount' content='UserLikes:0'>\n      <meta itemprop='interactionCount' content='UserComments:0'>\n      <meta itemprop='headline' content='Today I cried for me'>\n      <hr>\n  </div>\n  <div itemscope itemtype='http://schema.org/DiscussionForumPosting'>\n      <div class='creator'>\n        <span>\n          <a href='/u/Moni'><b itemprop='author'>Moni</b></a>\n          \n          <time datetime='2018-08-02T15:25:52Z' itemprop='datePublished'>\n            2018-08-02 15:25:52 UTC\n          </time>\n        </span>\n        <span itemprop='position'>#17</span>\n      </div>\n      <div class='post' itemprop='articleBody'>\n        <p>You really touched my heart.</p>\n      </div>\n      <meta itemprop='interactionCount' content='UserLikes:0'>\n      <meta itemprop='interactionCount' content='UserComments:0'>\n      <meta itemprop='headline' content='Today I cried for me'>\n      <hr>\n  </div>\n  <div itemscope itemtype='http://schema.org/DiscussionForumPosting'>\n      <div class='creator'>\n        <span>\n          <a href='/u/Hubby'><b itemprop='author'>Hubby</b></a>\n          \n          <time datetime='2018-08-02T22:56:26Z' itemprop='datePublished'>\n            2018-08-02 22:56:26 UTC\n          </time>\n        </span>\n        <span itemprop='position'>#18</span>\n      </div>\n      <div class='post' itemprop='articleBody'>\n        <p>Excellent KerryJ.<br>\nA different perspective but very poignant.</p>\n      </div>\n      <meta itemprop='interactionCount' content='UserLikes:0'>\n      <meta itemprop='interactionCount' content='UserComments:0'>\n      <meta itemprop='headline' content='Today I cried for me'>\n      <hr>\n  </div>\n  <div itemscope itemtype='http://schema.org/DiscussionForumPosting'>\n      <div class='creator'>\n        <span>\n          <a href='/u/Jules47'><b itemprop='author'>Jules47</b></a>\n          \n          <time datetime='2018-08-03T05:31:21Z' itemprop='datePublished'>\n            2018-08-03 05:31:21 UTC\n          </time>\n        </span>\n        <span itemprop='position'>#19</span>\n      </div>\n      <div class='post' itemprop='articleBody'>\n        <p>Good to let it out, pent up emotion is an expensive emotion. Lovely poem, big hug, hope your feeling better today.</p>\n      </div>\n      <meta itemprop='interactionCount' content='UserLikes:0'>\n      <meta itemprop='interactionCount' content='UserComments:0'>\n      <meta itemprop='headline' content='Today I cried for me'>\n      <hr>\n  </div>\n  <div itemscope itemtype='http://schema.org/DiscussionForumPosting'>\n      <div class='creator'>\n        <span>\n          <a href='/u/Madlizzie'><b itemprop='author'>Madlizzie</b></a>\n          \n          <time datetime='2018-08-03T08:32:53Z' itemprop='datePublished'>\n            2018-08-03 08:32:53 UTC\n          </time>\n        </span>\n        <span itemprop='position'>#20</span>\n      </div>\n      <div class='post' itemprop='articleBody'>\n        <p>What a moving sentimental poem. So spot on,I cry every day for the lost ,unrecognisable me. Robbed at 60 by Parkinsonism. Thanks hubby!</p>\n      </div>\n      <meta itemprop='interactionCount' content='UserLikes:0'>\n      <meta itemprop='interactionCount' content='UserComments:0'>\n      <meta itemprop='headline' content='Today I cried for me'>\n      <hr>\n  </div>\n\n  <div role='navigation' itemscope itemtype='http://schema.org/SiteNavigationElement'>\n      <span itemprop='name'><b><a rel=\"next\" itemprop=\"url\" href=\"/t/today-i-cried-for-me/14890?page=2\">next page →</a></b></span>\n  </div>\n\n\n\n\n\n    </div>\n    <footer class=\"container\">\n      <nav class='crawler-nav' itemscope itemtype='http://schema.org/SiteNavigationElement'>\n        <a href='/'>Home</a>\n        <a href=\"/categories\">Categories</a>\n        <a href=\"/guidelines\">FAQ/Guidelines</a>\n        <a href=\"/tos\">Terms of Service</a>\n        <a href=\"/privacy\">Privacy Policy</a>\n      </nav>\n      <p class='powered-by-link'>Powered by <a href=\"https://www.discourse.org\">Discourse</a>, best viewed with JavaScript enabled</p>\n    </footer>\n    \n  </body>\n  \n</html>\n",
  "url": "https://forum.parkinsons.org.uk/t/today-i-cried-for-me/14890"
}