{
  "contentId": "f10de3f0-8863-11e9-8f96-97f71b5221d6",
  "html": "<!DOCTYPE html>\n<html lang=\"en\">\n  <head>\n    <meta charset=\"utf-8\">\n    <title>&#39;Conductive Education&#39; Google it now! - Ways to take control - Parkinson&#39;s UK Forum</title>\n    <meta name=\"description\" content=\"If you really want to take control of your life before your life is taken over by Parkinson’s, make enquiries about Conductive Education in your area, if it’s available don’t delay book yourself onto the first available &amp;hellip;\">\n    <meta name=\"author\" content=\"\">\n<meta name=\"generator\" content=\"Discourse 2.2.5 - https://github.com/discourse/discourse version c294ff3609f988dcafb742e91606d60ca13b794d\">\n<link rel=\"icon\" type=\"image/png\" href=\"https://forum.parkinsons.org.uk/uploads/db7928/original/2X/3/311fc84f89f49f38601a2f16b295b6f03d3ce5dd.jpg\">\n<link rel=\"apple-touch-icon\" type=\"image/png\" href=\"https://forum.parkinsons.org.uk/uploads/db7928/original/2X/3/311fc84f89f49f38601a2f16b295b6f03d3ce5dd.jpg\">\n<meta name=\"theme-color\" content=\"#ffffff\">\n<meta name=\"viewport\" content=\"width=device-width, minimum-scale=1.0, maximum-scale=1.0, user-scalable=yes\">\n<link rel=\"canonical\" href=\"https://forum.parkinsons.org.uk/t/conductive-education-google-it-now/16348\" />\n<script type=\"application/ld+json\">{\"@context\":\"http://schema.org\",\"@type\":\"WebSite\",\"url\":\"https://forum.parkinsons.org.uk\",\"potentialAction\":{\"@type\":\"SearchAction\",\"target\":\"https://forum.parkinsons.org.uk/search?q={search_term_string}\",\"query-input\":\"required name=search_term_string\"}}</script>\n<link rel=\"search\" type=\"application/opensearchdescription+xml\" href=\"https://forum.parkinsons.org.uk/opensearch.xml\" title=\"Parkinson&#39;s UK Forum Search\">\n\n      <link href=\"/stylesheets/desktop_f99246ae801b083d3e4cca979d0dade8615b39ac.css?__ws=forum.parkinsons.org.uk\" media=\"all\" rel=\"stylesheet\" data-target=\"desktop\" data-theme-id=\"12\"/>\n      <link href=\"/stylesheets/desktop_theme_12_5d27531cf43f9df0c03a6a6ec3109dd05f9dfc49.css?__ws=forum.parkinsons.org.uk\" media=\"all\" rel=\"stylesheet\" data-target=\"desktop_theme\" data-theme-id=\"12\"/>\n    <link href=\"https://fonts.googleapis.com/css?family=Open+Sans\" rel=\"stylesheet\">\n\n    <meta id=\"data-ga-universal-analytics\" data-tracking-code=\"UA-4855628-1\" data-json=\"{&quot;cookieDomain&quot;:&quot;auto&quot;}\" data-auto-link-domains=\"\">\n\n<link rel='preload' href='/assets/google-universal-analytics-f35b4da49411e6f5559073523aab983da483976a3954c79c756f8579f6fbd6ef.js' as='script'/>\n<script src='/assets/google-universal-analytics-f35b4da49411e6f5559073523aab983da483976a3954c79c756f8579f6fbd6ef.js'></script>\n\n      <link rel=\"alternate\" type=\"application/rss+xml\" title=\"RSS feed of &#39;&#39;Conductive Education&#39; Google it now!&#39;\" href=\"https://forum.parkinsons.org.uk/t/conductive-education-google-it-now/16348.rss\" />\n  <meta property=\"og:site_name\" content=\"Parkinson&#39;s UK Forum\" />\n<meta name=\"twitter:card\" content=\"summary\" />\n<meta name=\"twitter:image\" content=\"https://forum.parkinsons.org.uk/uploads/db7928/original/2X/3/311fc84f89f49f38601a2f16b295b6f03d3ce5dd.jpg\" />\n<meta property=\"og:image\" content=\"https://forum.parkinsons.org.uk/uploads/db7928/original/2X/3/311fc84f89f49f38601a2f16b295b6f03d3ce5dd.jpg\" />\n<meta property=\"og:url\" content=\"https://forum.parkinsons.org.uk/t/conductive-education-google-it-now/16348\" />\n<meta name=\"twitter:url\" content=\"https://forum.parkinsons.org.uk/t/conductive-education-google-it-now/16348\" />\n<meta property=\"og:title\" content=\"&#39;Conductive Education&#39; Google it now!\" />\n<meta name=\"twitter:title\" content=\"&#39;Conductive Education&#39; Google it now!\" />\n<meta property=\"og:description\" content=\"If you really want to take control of your life before your life is taken over by Parkinson’s, make enquiries about Conductive Education in your area, if it’s available don’t delay book yourself onto the first available session.\" />\n<meta name=\"twitter:description\" content=\"If you really want to take control of your life before your life is taken over by Parkinson’s, make enquiries about Conductive Education in your area, if it’s available don’t delay book yourself onto the first available session.\" />\n<meta name=\"twitter:label1\" value=\"Reading time\" />\n<meta name=\"twitter:data1\" value=\"2 mins \uD83D\uDD51\" />\n<meta name=\"twitter:label2\" value=\"Likes\" />\n<meta name=\"twitter:data2\" value=\"3 ❤\" />\n<meta property=\"article:published_time\" content=\"2018-10-28T19:04:53+00:00\" />\n<meta property=\"og:ignore_canonical\" content=\"true\" />\n\n\n\n    \n  </head>\n  <body class=\"crawler\">\n    <header role=\"banner\">\n    <div class=\"region region-header\">\n        <div class=\"region-header-wrapper\">\n            <div id=\"block-parkinsons-d8-branding\" class=\"block block-system block-system-branding-block\">\n                <a href=\"/\" title=\"Home\" rel=\"home\" class=\"site-logo\">\n                    <img src=\"https://forum.parkinsons.org.uk/uploads/db7928/original/2X/8/862bb7d172e7d127e7f3e147ec43594aa62ac945.png\" alt=\"Parkinson's UK. Change Attitudes. Find a cure. Join us.\">\n                </a>\n            </div>\n            <div id=\"block-helpline\" class=\"block block-block-content block-block-content871cd5af-b938-4947-9dc0-d5c211d08fe3 style-phone\">\n                <div class=\"field field--name-field-link field--type-link field--label-hidden field__item\"><a href=\"tel:+448088000303\">Helpline 0808 800 0303</a></div>\n            </div>\n            <div id=\"block-shop\" class=\"block block-block-content block-block-content6fba5ae5-7797-49cd-8367-f321d8111cd6 style-regular\">\n                <div class=\"field field--name-field-link field--type-link field--label-hidden field__item\"><a href=\"https://shop.parkinsons.org.uk\">Shop</a></div>\n            </div>\n        </div>\n    </div>\n</header>\n\n\n<script src=\"/theme-javascripts/b7e9763fcb584fc8265c56a9f557cd6d2e1e8ed8.js?__ws=forum.parkinsons.org.uk\"></script>\n    <header>\n      <a href=\"/\">\n          <img src=\"https://forum.parkinsons.org.uk/uploads/db7928/original/2X/8/862bb7d172e7d127e7f3e147ec43594aa62ac945.png\" alt=\"Parkinson&#39;s UK Forum\" id=\"site-logo\" style=\"max-width: 150px;\">\n      </a>\n    </header>\n    <div id=\"main-outlet\" class=\"wrap\">\n      <h1>\n  <a href=\"/t/conductive-education-google-it-now/16348\">&#39;Conductive Education&#39; Google it now!</a>\n</h1>\n\n<div id='breadcrumbs'>\n    <div id=\"breadcrumb-0\" itemscope itemtype=\"http://data-vocabulary.org/Breadcrumb\"\n        itemref=\"breadcrumb-1\"\n      >\n      <a href=\"/c/taking-control\" itemprop=\"url\">\n        <span itemprop=\"title\">Taking Control</span>\n      </a>\n    </div>\n    <div id=\"breadcrumb-1\" itemscope itemtype=\"http://data-vocabulary.org/Breadcrumb\"\n>\n      <a href=\"/c/taking-control/ways-to-take-control\" itemprop=\"url\">\n        <span itemprop=\"title\">Ways to take control</span>\n      </a>\n    </div>\n</div>\n\n\n\n\n\n<hr>\n\n\n  <div itemscope itemtype='http://schema.org/DiscussionForumPosting'>\n      <div class='creator'>\n        <span>\n          <a href='/u/terrific'><b itemprop='author'>terrific</b></a>\n          \n          <time datetime='2018-10-28T19:04:53Z' itemprop='datePublished'>\n            2018-10-28 19:04:53 UTC\n          </time>\n        </span>\n        <span itemprop='position'>#1</span>\n      </div>\n      <div class='post' itemprop='articleBody'>\n        <p>If you really want to take control of your life before your life is taken over by Parkinson’s, make enquiries about Conductive Education in your area, if it’s available don’t delay book yourself onto the first available session.</p>\n      </div>\n      <meta itemprop='interactionCount' content='UserLikes:0'>\n      <meta itemprop='interactionCount' content='UserComments:0'>\n      <meta itemprop='headline' content='&#39;Conductive Education&#39; Google it now!'>\n      <hr>\n  </div>\n  <div itemscope itemtype='http://schema.org/DiscussionForumPosting'>\n      <div class='creator'>\n        <span>\n          <a href='/u/terrific'><b itemprop='author'>terrific</b></a>\n          \n          <time datetime='2018-11-25T17:31:53Z' itemprop='datePublished'>\n            2018-11-25 17:31:53 UTC\n          </time>\n        </span>\n        <span itemprop='position'>#2</span>\n      </div>\n      <div class='post' itemprop='articleBody'>\n        <p>Anyone tried Conductive Education yet?</p>\n      </div>\n      <meta itemprop='interactionCount' content='UserLikes:0'>\n      <meta itemprop='interactionCount' content='UserComments:1'>\n      <meta itemprop='headline' content='&#39;Conductive Education&#39; Google it now!'>\n      <hr>\n  </div>\n  <div itemscope itemtype='http://schema.org/DiscussionForumPosting'>\n      <div class='creator'>\n        <span>\n          <a href='/u/Littlefield21'><b itemprop='author'>Littlefield21</b></a>\n          \n          <time datetime='2018-11-27T20:57:03Z' itemprop='datePublished'>\n            2018-11-27 20:57:03 UTC\n          </time>\n        </span>\n        <span itemprop='position'>#3</span>\n      </div>\n      <div class='post' itemprop='articleBody'>\n        <p>I was diagnosed over six years ago and, for the last year and a half, have been attending a weekly Conductive Education group at the Rainbow Centre in Fareham Hampshire, about 20 miles from where I live. Quite honestly I think it is one of the best things I ever did and I’m convinced it’s has slowed down the progress of my physical symptoms as well as helping to stop the slide into depression and some of the other possible consequences of this disease. I know that others in the group feel the same way. We have a superb team of Hungarian therapists working with us and also with separate groups of MS patients, those recovering from strokes as well as children with cerebral palsy. I just hope this Brexit lunacy doesn’t interfere with their work. If you have such a resource near where you live grab it with both hands.</p>\n<p>While I am here;  one moan. It would be helpful if Parkinsons UK was better at signposting local CE provision. I only knew about it thanks to a chance remark from my consultant. When I went into this PUK website to find out more there was no mention of it beyond a general statement in complementary therapies. Hopefully things will get better here.</p>\n      </div>\n      <meta itemprop='interactionCount' content='UserLikes:0'>\n      <meta itemprop='interactionCount' content='UserComments:2'>\n      <meta itemprop='headline' content='&#39;Conductive Education&#39; Google it now!'>\n      <hr>\n  </div>\n  <div itemscope itemtype='http://schema.org/DiscussionForumPosting'>\n      <div class='creator'>\n        <span>\n          <a href='/u/Aviator'><b itemprop='author'>Aviator</b></a>\n          \n          <time datetime='2018-11-28T16:31:14Z' itemprop='datePublished'>\n            2018-11-28 16:31:14 UTC\n          </time>\n        </span>\n        <span itemprop='position'>#4</span>\n      </div>\n      <div class='post' itemprop='articleBody'>\n        <p>I would also like to put in a good word for Conductive Education. I was diagnosed about 4 years ago and have been attending fortnightly sessions run by the National Institute for Conductive Education Centre for Movement Disorders, which is a charitable organisation based in Birmingham. I go to their outreach sessions in Cheltenham. The sessions involve activities and movement exercises covering everyday tasks, our movements being systematically corrected by the highly-trained Conductors. The technique aims to achieve better control and movement by neuroplasticity, where lost or deteriorating movement can be relearnt as the brain and nervous system “patches round” the damaged nerve and brain cells. The technique was invented a few decades ago by Dr Peto, a Hungarian. Most of the Conductors have trained at the Peto Institute in Cheltenham. In conclusion, I am convinced I have got benefit from these sessions.</p>\n      </div>\n      <meta itemprop='interactionCount' content='UserLikes:0'>\n      <meta itemprop='interactionCount' content='UserComments:0'>\n      <meta itemprop='headline' content='&#39;Conductive Education&#39; Google it now!'>\n      <hr>\n  </div>\n  <div itemscope itemtype='http://schema.org/DiscussionForumPosting'>\n      <div class='creator'>\n        <span>\n          <a href='/u/Glaven'><b itemprop='author'>Glaven</b></a>\n          \n          <time datetime='2018-11-29T16:37:08Z' itemprop='datePublished'>\n            2018-11-29 16:37:08 UTC\n          </time>\n        </span>\n        <span itemprop='position'>#5</span>\n      </div>\n      <div class='post' itemprop='articleBody'>\n        <p>I couldn’t agree more. I was diagnosed 6 years ago and have regularly attended CE sessions in Leominster, which is a 50 mile round trip for me but worth every drop of petrol. The excercises are geared to daily living and offer many coping mechanisms. Although I have a bad tremor I am still walking normally without falling and able to write without micrographics taking over. It is a pity that more publicity isn’t given to this therapy as it really works</p>\n      </div>\n      <meta itemprop='interactionCount' content='UserLikes:0'>\n      <meta itemprop='interactionCount' content='UserComments:0'>\n      <meta itemprop='headline' content='&#39;Conductive Education&#39; Google it now!'>\n      <hr>\n  </div>\n  <div itemscope itemtype='http://schema.org/DiscussionForumPosting'>\n      <div class='creator'>\n        <span>\n          <a href='/u/LEN'><b itemprop='author'>LEN</b></a>\n          \n          <time datetime='2018-11-29T16:37:15Z' itemprop='datePublished'>\n            2018-11-29 16:37:15 UTC\n          </time>\n        </span>\n        <span itemprop='position'>#6</span>\n      </div>\n      <div class='post' itemprop='articleBody'>\n        <p>I have been getting the benefit of Conductive Education for ten years and cannot praise it too highly. It gives me strategies to overcome the trials of daily life , such as getting out of bed , walking across a road  without stumbling on the kerbs or getting up from the table in a restaurant without making a fool of myself by falling over. If you are thinking of trying it , your local centre will give you an assessment , free of charge . It is not for everyone but  , without trying it , you will never know . If you find it suits you , believe me , you will face the future with added confidence.</p>\n      </div>\n      <meta itemprop='interactionCount' content='UserLikes:1'>\n      <meta itemprop='interactionCount' content='UserComments:0'>\n      <meta itemprop='headline' content='&#39;Conductive Education&#39; Google it now!'>\n      <hr>\n  </div>\n  <div itemscope itemtype='http://schema.org/DiscussionForumPosting'>\n      <div class='creator'>\n        <span>\n          <a href='/u/Roro'><b itemprop='author'>Roro</b></a>\n          \n          <time datetime='2018-11-30T00:55:02Z' itemprop='datePublished'>\n            2018-11-30 00:55:02 UTC\n          </time>\n        </span>\n        <span itemprop='position'>#7</span>\n      </div>\n      <div class='post' itemprop='articleBody'>\n        <p>Having looked into it, maybe the reason it isn’t heard of that much is there are relatively few centres that deliver this, and a big percentage<br>\nare set up only for children and young people (as is the case of the only one within possible rach of me -  two buses, and a walk either end). seem to concentrate on children and young people. To find one that mentions adults the journey would  much too far to travel to be even feasible. Add to the financial cost of travel, for those who could manage it, the only session cost I found was about £30 a session, again this will price a lot of people out.<br>\nI am being realistic, not pessimistic. It may well be marvellous for those who can get to these centres and an afford the session price, but I guess for each person who can, there are an awful lot who cannot.</p>\n      </div>\n      <meta itemprop='interactionCount' content='UserLikes:0'>\n      <meta itemprop='interactionCount' content='UserComments:0'>\n      <meta itemprop='headline' content='&#39;Conductive Education&#39; Google it now!'>\n      <hr>\n  </div>\n  <div itemscope itemtype='http://schema.org/DiscussionForumPosting'>\n      <div class='creator'>\n        <span>\n          <a href='/u/terrific'><b itemprop='author'>terrific</b></a>\n          \n          <time datetime='2018-11-30T18:49:33Z' itemprop='datePublished'>\n            2018-11-30 18:49:33 UTC\n          </time>\n        </span>\n        <span itemprop='position'>#8</span>\n      </div>\n      <div class='post' itemprop='articleBody'>\n        <p>When I first attended Conductive Education sessions 12 years ago I travelled 40 miles each way because that was the nearest centre at that time. I am now fortunate enough to have a very professional provider much closer to home. I know that my life would be quite different if I hadn’t attended sessions regularly and I am hoping to spread the word to all fellow sufferers that are willing and able to access Conductive Education. I understand that it is not suitable for all but it would be good if newly diagnosed patients were aware of Conductive Education and let them decide.</p>\n      </div>\n      <meta itemprop='interactionCount' content='UserLikes:0'>\n      <meta itemprop='interactionCount' content='UserComments:1'>\n      <meta itemprop='headline' content='&#39;Conductive Education&#39; Google it now!'>\n      <hr>\n  </div>\n  <div itemscope itemtype='http://schema.org/DiscussionForumPosting'>\n      <div class='creator'>\n        <span>\n          <a href='/u/Roro'><b itemprop='author'>Roro</b></a>\n          \n          <time datetime='2018-12-01T00:29:22Z' itemprop='datePublished'>\n            2018-12-01 00:29:22 UTC\n          </time>\n        </span>\n        <span itemprop='position'>#9</span>\n      </div>\n      <div class='post' itemprop='articleBody'>\n        <p>I am happy that it helps you,  however I think you are missing my point, it is not whether it is suitable, more that it is totally inaccessible to the majority of PWP through lack of classes/unable to travel/unable to afford.  Maybe if it the classes have more availabilty at affordable fees or via NHS then it may be used by more. From what I understand you have been accessing this for many years, so it seems to be something that has to be continued indefinitely. Hence how many places are needed to allow even a third of PWP access the sessions.<br>\nOn another point, there are many other problems that arise through PD, do these session help with anything other than how to move?<br>\nI am interested but it just seems like only a few will ever benefit.</p>\n      </div>\n      <meta itemprop='interactionCount' content='UserLikes:0'>\n      <meta itemprop='interactionCount' content='UserComments:0'>\n      <meta itemprop='headline' content='&#39;Conductive Education&#39; Google it now!'>\n      <hr>\n  </div>\n  <div itemscope itemtype='http://schema.org/DiscussionForumPosting'>\n      <div class='creator'>\n        <span>\n          <a href='/u/terrific'><b itemprop='author'>terrific</b></a>\n          \n          <time datetime='2018-12-02T17:41:55Z' itemprop='datePublished'>\n            2018-12-02 17:41:55 UTC\n          </time>\n        </span>\n        <span itemprop='position'>#10</span>\n      </div>\n      <div class='post' itemprop='articleBody'>\n        <p>Thank you it does help me, that is why I would like everyone with Parkinson’s to at least be aware that Conductive Education is out there. Conductive Education funded by the NHS would an ideal solution for me. You learn techniques to help you cope with situations that occur in your daily routine for example how to roll over in bed to enable you to get out of bed, how to walk without dragging you affected leg, how to keep your handwriting legible, how to do your buttons up, how to make you voice loud and clear for all to hear and understand. The list goes on and on, if you are interested in Conductive Education you can contact your nearest provider and I am sure they would answer any questions you may have far more professionally than I can.</p>\n      </div>\n      <meta itemprop='interactionCount' content='UserLikes:0'>\n      <meta itemprop='interactionCount' content='UserComments:0'>\n      <meta itemprop='headline' content='&#39;Conductive Education&#39; Google it now!'>\n      <hr>\n  </div>\n  <div itemscope itemtype='http://schema.org/DiscussionForumPosting'>\n      <div class='creator'>\n        <span>\n          <a href='/u/Roro'><b itemprop='author'>Roro</b></a>\n          \n          <time datetime='2018-12-03T00:48:12Z' itemprop='datePublished'>\n            2018-12-03 00:48:12 UTC\n          </time>\n        </span>\n        <span itemprop='position'>#11</span>\n      </div>\n      <div class='post' itemprop='articleBody'>\n        <p>Thank you, it does sound very useful.<br>\nRose</p>\n      </div>\n      <meta itemprop='interactionCount' content='UserLikes:0'>\n      <meta itemprop='interactionCount' content='UserComments:0'>\n      <meta itemprop='headline' content='&#39;Conductive Education&#39; Google it now!'>\n      <hr>\n  </div>\n  <div itemscope itemtype='http://schema.org/DiscussionForumPosting'>\n      <div class='creator'>\n        <span>\n          <a href='/u/Dawbawden'><b itemprop='author'>Dawbawden</b></a>\n          \n          <time datetime='2018-12-05T15:54:10Z' itemprop='datePublished'>\n            2018-12-05 15:54:10 UTC\n          </time>\n        </span>\n        <span itemprop='position'>#12</span>\n      </div>\n      <div class='post' itemprop='articleBody'>\n        <p>Hi,  have been attending Rainbow Centre in Fareham for the past 4 years.  I firmly believe that it has helped me tremendously.  I was diagnosed over 6  years ago and at present have a tremor in my right hand and sometimes in my right leg.  I feel that the centre has helped my with my co-ordination and confidence.   I have not yet fallen over and can actually hold a knife and fork without nearly stabbing  anyone or coating the person next to me with my food.  They have showed me ways of standing, getting out of bed, fastening clothes with buttons.  Writing without looking like a two year old has gone mad with a pen.<br>\nThey are always so positive and helpful towards you, And its really good to mix in person with people with your disability and  discuss the ups and downs that plaque us all.  Check it out you will not be disappointed</p>\n      </div>\n      <meta itemprop='interactionCount' content='UserLikes:2'>\n      <meta itemprop='interactionCount' content='UserComments:0'>\n      <meta itemprop='headline' content='&#39;Conductive Education&#39; Google it now!'>\n      <hr>\n  </div>\n  <div itemscope itemtype='http://schema.org/DiscussionForumPosting'>\n      <div class='creator'>\n        <span>\n          <a href='/u/Reah'><b itemprop='author'>Reah</b></a>\n          \n          <time datetime='2018-12-06T13:40:45Z' itemprop='datePublished'>\n            2018-12-06 13:40:45 UTC\n          </time>\n        </span>\n        <span itemprop='position'>#13</span>\n      </div>\n      <div class='post' itemprop='articleBody'>\n        <p>Hi <a class=\"mention\" href=\"/u/littlefield21\">@Littlefield21</a>,</p>\n<p>Apologies for my delayed response. I’ve been trying to gather more information on this from my colleagues.</p>\n<p>To my knowledge, we also have an online lookup tool now and there are plans in the near future to make clinical therapies (which includes conductive education) available to the public on our website. This means that we will be able to signpost to such things as the Rainbow Centre so that more people affected by Parkinson’s can access them.</p>\n<p>I’ll keep the forum posted on the progress of this.</p>\n<p>Best wishes,<br>\nReah</p>\n      </div>\n      <meta itemprop='interactionCount' content='UserLikes:0'>\n      <meta itemprop='interactionCount' content='UserComments:0'>\n      <meta itemprop='headline' content='&#39;Conductive Education&#39; Google it now!'>\n      <hr>\n  </div>\n\n\n\n\n\n\n    </div>\n    <footer class=\"container\">\n      <nav class='crawler-nav' itemscope itemtype='http://schema.org/SiteNavigationElement'>\n        <a href='/'>Home</a>\n        <a href=\"/categories\">Categories</a>\n        <a href=\"/guidelines\">FAQ/Guidelines</a>\n        <a href=\"/tos\">Terms of Service</a>\n        <a href=\"/privacy\">Privacy Policy</a>\n      </nav>\n      <p class='powered-by-link'>Powered by <a href=\"https://www.discourse.org\">Discourse</a>, best viewed with JavaScript enabled</p>\n    </footer>\n    \n  </body>\n  \n</html>\n",
  "url": "https://forum.parkinsons.org.uk/t/conductive-education-google-it-now/16348"
}